# --sessions 30 --app-url=http://shinyloadtest.rstudioservices.com/cran_explorer --output-dir test30 --overwrite-output --log-level warn --start-interval 500 15min.log
thread_id,event,timestamp,input_line_number,comment
12,PLAYER_SESSION_CREATE,1516206199650
12,PLAYER_START_INTERVAL_START,1516206199650
12,PLAYER_START_INTERVAL_END,1516206205651
12,REQ_HOME_START,1516206205651,2
12,REQ_HOME_END,1516206205800,2
12,REQ_START,1516206205800,3
12,REQ_END,1516206205923,3
12,REQ_START,1516206205923,4
12,REQ_END,1516206206079,4
12,REQ_START,1516206206079,5
12,REQ_END,1516206206338,5
12,REQ_START,1516206206338,6
12,REQ_END,1516206206462,6
12,REQ_START,1516206206462,7
12,REQ_END,1516206206566,7
12,REQ_START,1516206206566,8
12,REQ_END,1516206206760,8
12,REQ_START,1516206206760,9
12,REQ_END,1516206207006,9
12,REQ_START,1516206207006,10
12,REQ_END,1516206207014,10
12,REQ_START,1516206207014,11
12,REQ_END,1516206207107,11
12,REQ_START,1516206207107,12
12,REQ_END,1516206207118,12
12,REQ_START,1516206207118,13
12,REQ_END,1516206207210,13
12,REQ_START,1516206207210,14
12,REQ_END,1516206207229,14
12,REQ_START,1516206207229,15
12,REQ_END,1516206207543,15
12,REQ_TOK_START,1516206207543,16
12,REQ_TOK_END,1516206207552,16
12,REQ_SINF_START,1516206207552,17
12,REQ_SINF_END,1516206207560,17
12,WS_OPEN_START,1516206207560,18
12,WS_OPEN_END,1516206207567,18
12,REQ_START,1516206207567,19
12,REQ_END,1516206207681,19
12,WS_RECV_START,1516206207681,20
12,WS_RECV_END,1516206207681,20
12,PLAYER_SLEEPBEFORE_START,1516206207681,21
12,PLAYER_SLEEPBEFORE_END,1516206207686,21
12,WS_SEND_START,1516206207686,21
12,WS_SEND_END,1516206207686,21
12,PLAYER_SLEEPBEFORE_START,1516206207686,22
12,PLAYER_SLEEPBEFORE_END,1516206207687,22
12,WS_SEND_START,1516206207687,22
12,WS_SEND_END,1516206207687,22
12,WS_RECV_INIT_START,1516206207687,23
12,WS_RECV_INIT_END,1516206207805,23
12,WS_RECV_START,1516206207805,24
12,WS_RECV_END,1516206207907,24
12,PLAYER_SLEEPBEFORE_START,1516206207907,25
12,PLAYER_SLEEPBEFORE_END,1516206207914,25
12,REQ_START,1516206207914,25
12,REQ_END,1516206208032,25
12,PLAYER_SLEEPBEFORE_START,1516206208032,26
12,PLAYER_SLEEPBEFORE_END,1516206208033,26
12,REQ_START,1516206208033,26
12,REQ_END,1516206208142,26
12,PLAYER_SLEEPBEFORE_START,1516206208142,27
12,PLAYER_SLEEPBEFORE_END,1516206208145,27
12,REQ_START,1516206208145,27
12,REQ_END,1516206208383,27
12,PLAYER_SLEEPBEFORE_START,1516206208383,28
12,PLAYER_SLEEPBEFORE_END,1516206208668,28
12,REQ_START,1516206208668,28
12,REQ_END,1516206208898,28
12,PLAYER_SLEEPBEFORE_START,1516206208898,29
12,PLAYER_SLEEPBEFORE_END,1516206209073,29
12,WS_SEND_START,1516206209073,29
12,WS_SEND_END,1516206209073,29
12,WS_RECV_START,1516206209074,30
12,WS_RECV_END,1516206209237,30
12,PLAYER_SLEEPBEFORE_START,1516206209237,31
12,PLAYER_SLEEPBEFORE_END,1516206209248,31
12,REQ_START,1516206209248,31
12,REQ_END,1516206209445,31
12,PLAYER_SLEEPBEFORE_START,1516206209445,32
12,PLAYER_SLEEPBEFORE_END,1516206237590,32
12,WS_SEND_START,1516206237590,32
12,WS_SEND_END,1516206237590,32
12,WS_RECV_START,1516206237590,33
12,WS_RECV_END,1516206237687,33
12,PLAYER_SLEEPBEFORE_START,1516206237687,34
12,PLAYER_SLEEPBEFORE_END,1516206263598,34
12,WS_SEND_START,1516206263598,34
12,WS_SEND_END,1516206263598,34
12,WS_RECV_START,1516206263598,35
12,WS_RECV_END,1516206263620,35
12,PLAYER_SLEEPBEFORE_START,1516206263620,36
12,PLAYER_SLEEPBEFORE_END,1516206263629,36
12,WS_SEND_START,1516206263629,36
12,WS_SEND_END,1516206263629,36
12,WS_RECV_START,1516206263630,37
12,WS_RECV_END,1516206263682,37
12,PLAYER_SLEEPBEFORE_START,1516206263682,38
12,PLAYER_SLEEPBEFORE_END,1516206266877,38
12,WS_SEND_START,1516206266877,38
12,WS_SEND_END,1516206266877,38
12,WS_RECV_START,1516206266877,39
12,WS_RECV_END,1516206267142,39
12,PLAYER_SLEEPBEFORE_START,1516206267142,40
12,PLAYER_SLEEPBEFORE_END,1516206267188,40
12,WS_SEND_START,1516206267188,40
12,WS_SEND_END,1516206267188,40
12,WS_RECV_START,1516206267188,41
12,WS_RECV_END,1516206267279,41
12,PLAYER_SLEEPBEFORE_START,1516206267279,42
12,PLAYER_SLEEPBEFORE_END,1516206285414,42
12,WS_SEND_START,1516206285414,42
12,WS_SEND_END,1516206285414,42
12,WS_RECV_START,1516206285414,43
12,WS_RECV_END,1516206285454,43
12,PLAYER_SLEEPBEFORE_START,1516206285454,44
12,PLAYER_SLEEPBEFORE_END,1516206285466,44
12,WS_SEND_START,1516206285466,44
12,WS_SEND_END,1516206285466,44
12,WS_RECV_START,1516206285466,45
12,WS_RECV_END,1516206285506,45
12,PLAYER_SLEEPBEFORE_START,1516206285506,46
12,PLAYER_SLEEPBEFORE_END,1516206286766,46
12,WS_SEND_START,1516206286766,46
12,WS_SEND_END,1516206286766,46
12,WS_RECV_START,1516206286766,47
12,WS_RECV_END,1516206286785,47
12,PLAYER_SLEEPBEFORE_START,1516206286785,48
12,PLAYER_SLEEPBEFORE_END,1516206288105,48
12,WS_SEND_START,1516206288105,48
12,WS_SEND_END,1516206288105,48
12,WS_RECV_START,1516206288105,49
12,WS_RECV_END,1516206288190,49
12,PLAYER_SLEEPBEFORE_START,1516206288190,50
12,PLAYER_SLEEPBEFORE_END,1516206288214,50
12,WS_SEND_START,1516206288214,50
12,WS_SEND_END,1516206288214,50
12,WS_RECV_START,1516206288214,51
12,WS_RECV_END,1516206288319,51
12,PLAYER_SLEEPBEFORE_START,1516206288319,52
12,PLAYER_SLEEPBEFORE_END,1516206310883,52
12,WS_SEND_START,1516206310884,52
12,WS_SEND_END,1516206310884,52
12,WS_RECV_START,1516206310884,53
12,WS_RECV_END,1516206310978,53
12,PLAYER_SLEEPBEFORE_START,1516206310978,54
12,PLAYER_SLEEPBEFORE_END,1516206332281,54
12,WS_SEND_START,1516206332281,54
12,WS_SEND_END,1516206332281,54
12,PLAYER_SLEEPBEFORE_START,1516206332281,55
12,PLAYER_SLEEPBEFORE_END,1516206334222,55
12,WS_SEND_START,1516206334222,55
12,WS_SEND_END,1516206334222,55
12,WS_RECV_START,1516206334222,56
12,WS_RECV_END,1516206334278,56
12,PLAYER_SLEEPBEFORE_START,1516206334278,57
12,PLAYER_SLEEPBEFORE_END,1516206357150,57
12,WS_SEND_START,1516206357150,57
12,WS_SEND_END,1516206357150,57
12,WS_RECV_START,1516206357150,58
12,WS_RECV_END,1516206357201,58
12,PLAYER_SLEEPBEFORE_START,1516206357201,59
12,PLAYER_SLEEPBEFORE_END,1516206359528,59
12,WS_SEND_START,1516206359528,59
12,WS_SEND_END,1516206359528,59
12,WS_RECV_START,1516206359528,60
12,WS_RECV_END,1516206359614,60
12,PLAYER_SLEEPBEFORE_START,1516206359614,61
12,PLAYER_SLEEPBEFORE_END,1516206363205,61
12,WS_SEND_START,1516206363205,61
12,WS_SEND_END,1516206363205,61
12,WS_RECV_START,1516206363205,62
12,WS_RECV_END,1516206363298,62
12,PLAYER_SLEEPBEFORE_START,1516206363298,63
12,PLAYER_SLEEPBEFORE_END,1516206382560,63
12,WS_SEND_START,1516206382560,63
12,WS_SEND_END,1516206382560,63
12,WS_RECV_START,1516206382560,64
12,WS_RECV_END,1516206382596,64
12,PLAYER_SLEEPBEFORE_START,1516206382596,65
12,PLAYER_SLEEPBEFORE_END,1516206409413,65
12,WS_SEND_START,1516206409413,65
12,WS_SEND_END,1516206409413,65
12,WS_RECV_START,1516206409413,66
12,WS_RECV_END,1516206409510,66
12,PLAYER_SLEEPBEFORE_START,1516206409510,67
12,PLAYER_SLEEPBEFORE_END,1516206411018,67
12,WS_SEND_START,1516206411018,67
12,WS_SEND_END,1516206411018,67
12,WS_RECV_START,1516206411018,68
12,WS_RECV_END,1516206411104,68
12,PLAYER_SLEEPBEFORE_START,1516206411104,69
12,PLAYER_SLEEPBEFORE_END,1516206433102,69
12,WS_SEND_START,1516206433102,69
12,WS_SEND_END,1516206433102,69
12,WS_RECV_START,1516206433102,70
12,WS_RECV_END,1516206433201,70
12,PLAYER_SLEEPBEFORE_START,1516206433201,71
12,PLAYER_SLEEPBEFORE_END,1516206457976,71
12,WS_SEND_START,1516206457976,71
12,WS_SEND_END,1516206457977,71
12,PLAYER_SLEEPBEFORE_START,1516206457977,72
12,PLAYER_SLEEPBEFORE_END,1516206460584,72
12,WS_SEND_START,1516206460584,72
12,WS_SEND_END,1516206460584,72
12,WS_RECV_START,1516206460584,73
12,WS_RECV_END,1516206460608,73
12,PLAYER_SLEEPBEFORE_START,1516206460608,74
12,PLAYER_SLEEPBEFORE_END,1516206460617,74
12,WS_SEND_START,1516206460617,74
12,WS_SEND_END,1516206460617,74
12,WS_RECV_START,1516206460617,75
12,WS_RECV_END,1516206460669,75
12,PLAYER_SLEEPBEFORE_START,1516206460669,76
12,PLAYER_SLEEPBEFORE_END,1516206462175,76
12,WS_SEND_START,1516206462175,76
12,WS_SEND_END,1516206462175,76
12,WS_RECV_START,1516206462175,77
12,WS_RECV_END,1516206462195,77
12,PLAYER_SLEEPBEFORE_START,1516206462195,78
12,PLAYER_SLEEPBEFORE_END,1516206463063,78
12,WS_SEND_START,1516206463063,78
12,WS_SEND_END,1516206463063,78
12,WS_RECV_START,1516206463063,79
12,WS_RECV_END,1516206463082,79
12,PLAYER_SLEEPBEFORE_START,1516206463082,80
12,PLAYER_SLEEPBEFORE_END,1516206470748,80
12,WS_SEND_START,1516206470748,80
12,WS_SEND_END,1516206470748,80
12,WS_RECV_START,1516206470748,81
12,WS_RECV_END,1516206470767,81
12,PLAYER_SLEEPBEFORE_START,1516206470767,82
12,PLAYER_SLEEPBEFORE_END,1516206471870,82
12,WS_SEND_START,1516206471870,82
12,WS_SEND_END,1516206471870,82
12,WS_RECV_START,1516206471870,83
12,WS_RECV_END,1516206471910,83
12,PLAYER_SLEEPBEFORE_START,1516206471910,84
12,PLAYER_SLEEPBEFORE_END,1516206472858,84
12,WS_SEND_START,1516206472858,84
12,WS_SEND_END,1516206472858,84
12,WS_RECV_START,1516206472858,85
12,WS_RECV_END,1516206472876,85
12,PLAYER_SLEEPBEFORE_START,1516206472876,86
12,PLAYER_SLEEPBEFORE_END,1516206477048,86
12,WS_SEND_START,1516206477048,86
12,WS_SEND_END,1516206477048,86
12,WS_RECV_START,1516206477048,87
12,WS_RECV_END,1516206477124,87
12,PLAYER_SLEEPBEFORE_START,1516206477124,88
12,PLAYER_SLEEPBEFORE_END,1516206477132,88
12,WS_SEND_START,1516206477132,88
12,WS_SEND_END,1516206477132,88
12,WS_RECV_START,1516206477132,89
12,WS_RECV_END,1516206477244,89
12,PLAYER_SLEEPBEFORE_START,1516206477244,90
12,PLAYER_SLEEPBEFORE_END,1516206504442,90
12,REQ_START,1516206504442,90
12,REQ_END,1516206504449,90
12,PLAYER_SLEEPBEFORE_START,1516206504449,91
12,PLAYER_SLEEPBEFORE_END,1516206512338,91
12,WS_SEND_START,1516206512338,91
12,WS_SEND_END,1516206512338,91
12,WS_RECV_START,1516206512338,92
12,WS_RECV_END,1516206512431,92
12,PLAYER_SLEEPBEFORE_START,1516206512431,93
12,PLAYER_SLEEPBEFORE_END,1516206512446,93
12,WS_SEND_START,1516206512446,93
12,WS_SEND_END,1516206512446,93
12,WS_RECV_START,1516206512446,94
12,WS_RECV_END,1516206512538,94
12,PLAYER_SLEEPBEFORE_START,1516206512538,95
12,PLAYER_SLEEPBEFORE_END,1516206536094,95
12,WS_SEND_START,1516206536094,95
12,WS_SEND_END,1516206536094,95
12,WS_RECV_START,1516206536094,96
12,WS_RECV_END,1516206536189,96
12,PLAYER_SLEEPBEFORE_START,1516206536189,97
12,PLAYER_SLEEPBEFORE_END,1516206558629,97
12,WS_SEND_START,1516206558629,97
12,WS_SEND_END,1516206558629,97
12,WS_RECV_START,1516206558629,98
12,WS_RECV_END,1516206558796,98
12,PLAYER_SLEEPBEFORE_START,1516206558796,99
12,PLAYER_SLEEPBEFORE_END,1516206558817,99
12,WS_SEND_START,1516206558817,99
12,WS_SEND_END,1516206558817,99
12,WS_RECV_START,1516206558817,100
12,WS_RECV_END,1516206558928,100
12,PLAYER_SLEEPBEFORE_START,1516206558928,101
12,PLAYER_SLEEPBEFORE_END,1516206582487,101
12,WS_SEND_START,1516206582487,101
12,WS_SEND_END,1516206582487,101
12,WS_RECV_START,1516206582487,102
12,WS_RECV_END,1516206582598,102
12,PLAYER_SLEEPBEFORE_START,1516206582598,103
12,PLAYER_SLEEPBEFORE_END,1516206606223,103
12,WS_SEND_START,1516206606223,103
12,WS_SEND_END,1516206606223,103
12,WS_RECV_START,1516206606223,104
12,WS_RECV_END,1516206606340,104
12,PLAYER_SLEEPBEFORE_START,1516206606340,105
12,PLAYER_SLEEPBEFORE_END,1516206631717,105
12,WS_SEND_START,1516206631717,105
12,WS_SEND_END,1516206631717,105
12,WS_RECV_START,1516206631717,106
12,WS_RECV_END,1516206631813,106
12,PLAYER_SLEEPBEFORE_START,1516206631813,107
12,PLAYER_SLEEPBEFORE_END,1516206655236,107
12,WS_SEND_START,1516206655236,107
12,WS_SEND_END,1516206655236,107
12,WS_RECV_START,1516206655236,108
12,WS_RECV_END,1516206655265,108
12,PLAYER_SLEEPBEFORE_START,1516206655266,109
12,PLAYER_SLEEPBEFORE_END,1516206655275,109
12,WS_SEND_START,1516206655275,109
12,WS_SEND_END,1516206655275,109
12,WS_RECV_START,1516206655275,110
12,WS_RECV_END,1516206655317,110
12,PLAYER_SLEEPBEFORE_START,1516206655317,111
12,PLAYER_SLEEPBEFORE_END,1516206656276,111
12,WS_SEND_START,1516206656276,111
12,WS_SEND_END,1516206656276,111
12,WS_RECV_START,1516206656276,112
12,WS_RECV_END,1516206656313,112
12,PLAYER_SLEEPBEFORE_START,1516206656313,113
12,PLAYER_SLEEPBEFORE_END,1516206656875,113
12,WS_SEND_START,1516206656875,113
12,WS_SEND_END,1516206656875,113
12,WS_RECV_START,1516206656875,114
12,WS_RECV_END,1516206656946,114
12,PLAYER_SLEEPBEFORE_START,1516206656946,115
12,PLAYER_SLEEPBEFORE_END,1516206656955,115
12,WS_SEND_START,1516206656955,115
12,WS_SEND_END,1516206656955,115
12,WS_RECV_START,1516206656955,116
12,WS_RECV_END,1516206657059,116
12,PLAYER_SLEEPBEFORE_START,1516206657059,117
12,PLAYER_SLEEPBEFORE_END,1516206677419,117
12,WS_SEND_START,1516206677419,117
12,WS_SEND_END,1516206677420,117
12,PLAYER_SLEEPBEFORE_START,1516206677420,118
12,PLAYER_SLEEPBEFORE_END,1516206681172,118
12,WS_SEND_START,1516206681172,118
12,WS_SEND_END,1516206681172,118
12,WS_RECV_START,1516206681172,119
12,WS_RECV_END,1516206681279,119
12,PLAYER_SLEEPBEFORE_START,1516206681279,120
12,PLAYER_SLEEPBEFORE_END,1516206682267,120
12,WS_SEND_START,1516206682267,120
12,WS_SEND_END,1516206682267,120
12,WS_RECV_START,1516206682267,121
12,WS_RECV_END,1516206682361,121
12,PLAYER_SLEEPBEFORE_START,1516206682361,122
12,PLAYER_SLEEPBEFORE_END,1516206683546,122
12,WS_SEND_START,1516206683546,122
12,WS_SEND_END,1516206683546,122
12,WS_RECV_START,1516206683546,123
12,WS_RECV_END,1516206683660,123
12,PLAYER_SLEEPBEFORE_START,1516206683661,124
12,PLAYER_SLEEPBEFORE_END,1516206708066,124
12,WS_SEND_START,1516206708066,124
12,WS_SEND_END,1516206708066,124
12,WS_RECV_START,1516206708066,125
12,WS_RECV_END,1516206708153,125
12,PLAYER_SLEEPBEFORE_START,1516206708153,126
12,PLAYER_SLEEPBEFORE_END,1516206728666,126
12,WS_SEND_START,1516206728666,126
12,WS_SEND_END,1516206728666,126
12,PLAYER_SLEEPBEFORE_START,1516206728666,127
12,PLAYER_SLEEPBEFORE_END,1516206731720,127
12,WS_SEND_START,1516206731720,127
12,WS_SEND_END,1516206731720,127
12,WS_RECV_START,1516206731720,128
12,WS_RECV_END,1516206731832,128
12,PLAYER_SLEEPBEFORE_START,1516206731832,129
12,PLAYER_SLEEPBEFORE_END,1516206731852,129
12,WS_SEND_START,1516206731852,129
12,WS_SEND_END,1516206731852,129
12,WS_RECV_START,1516206731852,130
12,WS_RECV_END,1516206731956,130
12,PLAYER_SLEEPBEFORE_START,1516206731956,131
12,PLAYER_SLEEPBEFORE_END,1516206753580,131
12,WS_SEND_START,1516206753580,131
12,WS_SEND_END,1516206753580,131
12,PLAYER_SLEEPBEFORE_START,1516206753580,132
12,PLAYER_SLEEPBEFORE_END,1516206756661,132
12,WS_SEND_START,1516206756661,132
12,WS_SEND_END,1516206756661,132
12,WS_RECV_START,1516206756661,133
12,WS_RECV_END,1516206756759,133
12,PLAYER_SLEEPBEFORE_START,1516206756759,134
12,PLAYER_SLEEPBEFORE_END,1516206777976,134
12,WS_SEND_START,1516206777976,134
12,WS_SEND_END,1516206777977,134
12,PLAYER_SLEEPBEFORE_START,1516206777977,135
12,PLAYER_SLEEPBEFORE_END,1516206781167,135
12,WS_SEND_START,1516206781167,135
12,WS_SEND_END,1516206781167,135
12,WS_RECV_START,1516206781167,136
12,WS_RECV_END,1516206781229,136
12,PLAYER_SLEEPBEFORE_START,1516206781229,137
12,PLAYER_SLEEPBEFORE_END,1516206781236,137
12,WS_SEND_START,1516206781236,137
12,WS_SEND_END,1516206781236,137
12,WS_RECV_START,1516206781236,138
12,WS_RECV_END,1516206781277,138
12,PLAYER_SLEEPBEFORE_START,1516206781277,139
12,PLAYER_SLEEPBEFORE_END,1516206781967,139
12,WS_SEND_START,1516206781967,139
12,WS_SEND_END,1516206781967,139
12,WS_RECV_START,1516206781967,140
12,WS_RECV_END,1516206781987,140
12,PLAYER_SLEEPBEFORE_START,1516206781987,141
12,PLAYER_SLEEPBEFORE_END,1516206782642,141
12,WS_SEND_START,1516206782642,141
12,WS_SEND_END,1516206782642,141
12,WS_RECV_START,1516206782642,142
12,WS_RECV_END,1516206782760,142
12,PLAYER_SLEEPBEFORE_START,1516206782760,143
12,PLAYER_SLEEPBEFORE_END,1516206782817,143
12,WS_SEND_START,1516206782817,143
12,WS_SEND_END,1516206782817,143
12,WS_RECV_START,1516206782817,144
12,WS_RECV_END,1516206782933,144
12,PLAYER_SLEEPBEFORE_START,1516206782933,145
12,PLAYER_SLEEPBEFORE_END,1516206798995,145
12,REQ_START,1516206798995,145
12,REQ_END,1516206799004,145
12,PLAYER_SLEEPBEFORE_START,1516206799004,146
12,PLAYER_SLEEPBEFORE_END,1516206807881,146
12,WS_SEND_START,1516206807882,146
12,WS_SEND_END,1516206807882,146
12,WS_RECV_START,1516206807882,147
12,WS_RECV_END,1516206807994,147
12,PLAYER_SLEEPBEFORE_START,1516206807994,148
12,PLAYER_SLEEPBEFORE_END,1516206829916,148
12,WS_SEND_START,1516206829916,148
12,WS_SEND_END,1516206829916,148
12,PLAYER_SLEEPBEFORE_START,1516206829916,149
12,PLAYER_SLEEPBEFORE_END,1516206832344,149
12,WS_SEND_START,1516206832344,149
12,WS_SEND_END,1516206832344,149
12,WS_RECV_START,1516206832344,150
12,WS_RECV_END,1516206832439,150
12,PLAYER_SLEEPBEFORE_START,1516206832439,151
12,PLAYER_SLEEPBEFORE_END,1516206832649,151
12,WS_SEND_START,1516206832649,151
12,WS_SEND_END,1516206832649,151
12,WS_RECV_START,1516206832649,152
12,WS_RECV_END,1516206832762,152
12,PLAYER_SLEEPBEFORE_START,1516206832762,153
12,PLAYER_SLEEPBEFORE_END,1516206856689,153
12,WS_SEND_START,1516206856689,153
12,WS_SEND_END,1516206856689,153
12,WS_RECV_START,1516206856689,154
12,WS_RECV_END,1516206856779,154
12,PLAYER_SLEEPBEFORE_START,1516206856779,155
12,PLAYER_SLEEPBEFORE_END,1516206879337,155
12,WS_SEND_START,1516206879337,155
12,WS_SEND_END,1516206879337,155
12,PLAYER_SLEEPBEFORE_START,1516206879337,156
12,PLAYER_SLEEPBEFORE_END,1516206882611,156
12,WS_SEND_START,1516206882611,156
12,WS_SEND_END,1516206882611,156
12,WS_RECV_START,1516206882611,157
12,WS_RECV_END,1516206882661,157
12,PLAYER_SLEEPBEFORE_START,1516206882661,158
12,PLAYER_SLEEPBEFORE_END,1516206882671,158
12,WS_SEND_START,1516206882671,158
12,WS_SEND_END,1516206882671,158
12,WS_RECV_START,1516206882671,159
12,WS_RECV_END,1516206882721,159
12,PLAYER_SLEEPBEFORE_START,1516206882721,160
12,PLAYER_SLEEPBEFORE_END,1516206882896,160
12,WS_SEND_START,1516206882896,160
12,WS_SEND_END,1516206882896,160
12,WS_RECV_START,1516206882896,161
12,WS_RECV_END,1516206883057,161
12,PLAYER_SLEEPBEFORE_START,1516206883057,162
12,PLAYER_SLEEPBEFORE_END,1516206883082,162
12,WS_SEND_START,1516206883082,162
12,WS_SEND_END,1516206883083,162
12,WS_RECV_START,1516206883083,163
12,WS_RECV_END,1516206883253,163
12,PLAYER_SLEEPBEFORE_START,1516206883253,164
12,PLAYER_SLEEPBEFORE_END,1516206904065,164
12,WS_SEND_START,1516206904065,164
12,WS_SEND_END,1516206904065,164
12,WS_RECV_START,1516206904065,165
12,WS_RECV_END,1516206904174,165
12,PLAYER_SLEEPBEFORE_START,1516206904174,166
12,PLAYER_SLEEPBEFORE_END,1516206926629,166
12,WS_SEND_START,1516206926629,166
12,WS_SEND_END,1516206926629,166
12,WS_RECV_START,1516206926629,167
12,WS_RECV_END,1516206926744,167
12,PLAYER_SLEEPBEFORE_START,1516206926744,168
12,PLAYER_SLEEPBEFORE_END,1516206954101,168
12,WS_SEND_START,1516206954102,168
12,WS_SEND_END,1516206954102,168
12,WS_RECV_START,1516206954102,169
12,WS_RECV_END,1516206954142,169
12,PLAYER_SLEEPBEFORE_START,1516206954142,170
12,PLAYER_SLEEPBEFORE_END,1516206954151,170
12,WS_SEND_START,1516206954151,170
12,WS_SEND_END,1516206954151,170
12,WS_RECV_START,1516206954151,171
12,WS_RECV_END,1516206954192,171
12,PLAYER_SLEEPBEFORE_START,1516206954192,172
12,PLAYER_SLEEPBEFORE_END,1516206954562,172
12,WS_SEND_START,1516206954562,172
12,WS_SEND_END,1516206954562,172
12,WS_RECV_START,1516206954562,173
12,WS_RECV_END,1516206954659,173
12,PLAYER_SLEEPBEFORE_START,1516206954659,174
12,PLAYER_SLEEPBEFORE_END,1516206954701,174
12,WS_SEND_START,1516206954701,174
12,WS_SEND_END,1516206954701,174
12,WS_RECV_START,1516206954701,175
12,WS_RECV_END,1516206954859,175
12,PLAYER_SLEEPBEFORE_START,1516206954859,176
12,PLAYER_SLEEPBEFORE_END,1516206976620,176
12,WS_SEND_START,1516206976620,176
12,WS_SEND_END,1516206976620,176
12,PLAYER_SLEEPBEFORE_START,1516206976620,177
12,PLAYER_SLEEPBEFORE_END,1516206979138,177
12,WS_SEND_START,1516206979138,177
12,WS_SEND_END,1516206979138,177
12,WS_RECV_START,1516206979138,178
12,WS_RECV_END,1516206979283,178
12,PLAYER_SLEEPBEFORE_START,1516206979283,179
12,PLAYER_SLEEPBEFORE_END,1516207001623,179
12,WS_SEND_START,1516207001623,179
12,WS_SEND_END,1516207001623,179
12,WS_RECV_START,1516207001623,180
12,WS_RECV_END,1516207001854,180
12,PLAYER_SLEEPBEFORE_START,1516207001854,181
12,PLAYER_SLEEPBEFORE_END,1516207002298,181
12,WS_SEND_START,1516207002298,181
12,WS_SEND_END,1516207002298,181
12,WS_RECV_START,1516207002298,182
12,WS_RECV_END,1516207002506,182
12,PLAYER_SLEEPBEFORE_START,1516207002506,183
12,PLAYER_SLEEPBEFORE_END,1516207003029,183
12,WS_SEND_START,1516207003029,183
12,WS_SEND_END,1516207003029,183
12,WS_RECV_START,1516207003029,184
12,WS_RECV_END,1516207003156,184
12,PLAYER_SLEEPBEFORE_START,1516207003156,185
12,PLAYER_SLEEPBEFORE_END,1516207003424,185
12,WS_SEND_START,1516207003424,185
12,WS_SEND_END,1516207003424,185
12,WS_RECV_START,1516207003424,186
12,WS_RECV_END,1516207003644,186
12,PLAYER_SLEEPBEFORE_START,1516207003644,187
12,PLAYER_SLEEPBEFORE_END,1516207026144,187
12,WS_SEND_START,1516207026144,187
12,WS_SEND_END,1516207026145,187
12,WS_RECV_START,1516207026145,188
12,WS_RECV_END,1516207026179,188
12,PLAYER_SLEEPBEFORE_START,1516207026179,189
12,PLAYER_SLEEPBEFORE_END,1516207032418,189
12,WS_SEND_START,1516207032418,189
12,WS_SEND_END,1516207032418,189
12,WS_RECV_START,1516207032418,190
12,WS_RECV_END,1516207032764,190
12,PLAYER_SLEEPBEFORE_START,1516207032764,191
12,PLAYER_SLEEPBEFORE_END,1516207034679,191
12,WS_SEND_START,1516207034679,191
12,WS_SEND_END,1516207034679,191
12,WS_RECV_START,1516207034679,192
12,WS_RECV_END,1516207034829,192
12,PLAYER_SLEEPBEFORE_START,1516207034829,193
12,PLAYER_SLEEPBEFORE_END,1516207034957,193
12,WS_SEND_START,1516207034957,193
12,WS_SEND_END,1516207034957,193
12,WS_RECV_START,1516207034957,194
12,WS_RECV_END,1516207035278,194
12,PLAYER_SLEEPBEFORE_START,1516207035278,195
12,PLAYER_SLEEPBEFORE_END,1516207037033,195
12,WS_SEND_START,1516207037033,195
12,WS_SEND_END,1516207037033,195
12,WS_RECV_START,1516207037033,196
12,WS_RECV_END,1516207037234,196
12,PLAYER_SLEEPBEFORE_START,1516207037234,197
12,PLAYER_SLEEPBEFORE_END,1516207039038,197
12,WS_SEND_START,1516207039038,197
12,WS_SEND_END,1516207039038,197
12,WS_RECV_START,1516207039038,198
12,WS_RECV_END,1516207039152,198
12,PLAYER_SLEEPBEFORE_START,1516207039152,199
12,PLAYER_SLEEPBEFORE_END,1516207051006,199
12,WS_SEND_START,1516207051006,199
12,WS_SEND_END,1516207051006,199
12,PLAYER_SLEEPBEFORE_START,1516207051006,200
12,PLAYER_SLEEPBEFORE_END,1516207055094,200
12,WS_SEND_START,1516207055094,200
12,WS_SEND_END,1516207055095,200
12,WS_RECV_START,1516207055095,201
12,WS_RECV_END,1516207055177,201
12,PLAYER_SLEEPBEFORE_START,1516207055177,202
12,PLAYER_SLEEPBEFORE_END,1516207055191,202
12,WS_SEND_START,1516207055191,202
12,WS_SEND_END,1516207055191,202
12,WS_RECV_START,1516207055191,203
12,WS_RECV_END,1516207055301,203
12,PLAYER_SLEEPBEFORE_START,1516207055301,204
12,PLAYER_SLEEPBEFORE_END,1516207074950,204
12,WS_SEND_START,1516207074950,204
12,WS_SEND_END,1516207074950,204
12,PLAYER_SLEEPBEFORE_START,1516207074950,205
12,PLAYER_SLEEPBEFORE_END,1516207078849,205
12,WS_SEND_START,1516207078849,205
12,WS_SEND_END,1516207078849,205
12,WS_RECV_START,1516207078849,206
12,WS_RECV_END,1516207078949,206
12,PLAYER_SLEEPBEFORE_START,1516207078949,207
12,PLAYER_SLEEPBEFORE_END,1516207095880,207
12,REQ_START,1516207095880,207
12,REQ_END,1516207095888,207
12,PLAYER_SLEEPBEFORE_START,1516207095888,208
12,PLAYER_SLEEPBEFORE_END,1516207102740,208
12,WS_CLOSE_START,1516207102740,208
12,WS_CLOSE_END,1516207102740,208
12,PLAYER_DONE,1516207102740
