# --sessions 720 --app-url=http://shinyloadtest.rstudioservices.com/cran_explorer --output-dir test720 --overwrite-output --log-level warn --start-interval 500 15min.log
thread_id,event,timestamp,input_line_number,comment
107,PLAYER_SESSION_CREATE,1516222120118
107,PLAYER_START_INTERVAL_START,1516222120118
107,PLAYER_START_INTERVAL_END,1516222173618
107,REQ_HOME_START,1516222173618,2
107,REQ_HOME_END,1516222173712,2
107,REQ_START,1516222173712,3
107,REQ_END,1516222173743,3
107,REQ_START,1516222173743,4
107,REQ_END,1516222173775,4
107,REQ_START,1516222173775,5
107,REQ_END,1516222173810,5
107,REQ_START,1516222173810,6
107,REQ_END,1516222173846,6
107,REQ_START,1516222173846,7
107,REQ_END,1516222173881,7
107,REQ_START,1516222173881,8
107,REQ_END,1516222173919,8
107,REQ_START,1516222173919,9
107,REQ_END,1516222173956,9
107,REQ_START,1516222173956,10
107,REQ_END,1516222173964,10
107,REQ_START,1516222173964,11
107,REQ_END,1516222173996,11
107,REQ_START,1516222173996,12
107,REQ_END,1516222174009,12
107,REQ_START,1516222174009,13
107,REQ_END,1516222174042,13
107,REQ_START,1516222174042,14
107,REQ_END,1516222174057,14
107,REQ_START,1516222174057,15
107,REQ_END,1516222174091,15
107,REQ_TOK_START,1516222174091,16
107,REQ_TOK_END,1516222174099,16
107,REQ_SINF_START,1516222174099,17
107,REQ_SINF_END,1516222174106,17
107,WS_OPEN_START,1516222174106,18
107,WS_OPEN_END,1516222174112,18
107,REQ_START,1516222174112,19
107,REQ_END,1516222174140,19
107,WS_RECV_START,1516222174140,20
107,WS_RECV_END,1516222174140,20
107,PLAYER_SLEEPBEFORE_START,1516222174140,21
107,PLAYER_SLEEPBEFORE_END,1516222174145,21
107,WS_SEND_START,1516222174145,21
107,WS_SEND_END,1516222174145,21
107,PLAYER_SLEEPBEFORE_START,1516222174145,22
107,PLAYER_SLEEPBEFORE_END,1516222174146,22
107,WS_SEND_START,1516222174146,22
107,WS_SEND_END,1516222174146,22
107,WS_RECV_INIT_START,1516222174147,23
107,WS_RECV_INIT_END,1516222174167,23
107,WS_RECV_START,1516222174167,24
107,WS_RECV_END,1516222174243,24
107,PLAYER_SLEEPBEFORE_START,1516222174243,25
107,PLAYER_SLEEPBEFORE_END,1516222174250,25
107,REQ_START,1516222174250,25
107,REQ_END,1516222174282,25
107,PLAYER_SLEEPBEFORE_START,1516222174282,26
107,PLAYER_SLEEPBEFORE_END,1516222174283,26
107,REQ_START,1516222174283,26
107,REQ_END,1516222174316,26
107,PLAYER_SLEEPBEFORE_START,1516222174316,27
107,PLAYER_SLEEPBEFORE_END,1516222174319,27
107,REQ_START,1516222174319,27
107,REQ_END,1516222174354,27
107,PLAYER_SLEEPBEFORE_START,1516222174354,28
107,PLAYER_SLEEPBEFORE_END,1516222174639,28
107,REQ_START,1516222174639,28
107,REQ_END,1516222174672,28
107,PLAYER_SLEEPBEFORE_START,1516222174672,29
107,PLAYER_SLEEPBEFORE_END,1516222174847,29
107,WS_SEND_START,1516222174847,29
107,WS_SEND_END,1516222174847,29
107,WS_RECV_START,1516222174847,30
107,WS_RECV_END,1516222174967,30
107,PLAYER_SLEEPBEFORE_START,1516222174967,31
107,PLAYER_SLEEPBEFORE_END,1516222174978,31
107,REQ_START,1516222174979,31
107,REQ_END,1516222175012,31
107,PLAYER_SLEEPBEFORE_START,1516222175012,32
107,PLAYER_SLEEPBEFORE_END,1516222203157,32
107,WS_SEND_START,1516222203157,32
107,WS_SEND_END,1516222203157,32
107,WS_RECV_START,1516222203157,33
107,WS_RECV_END,1516222203263,33
107,PLAYER_SLEEPBEFORE_START,1516222203263,34
107,PLAYER_SLEEPBEFORE_END,1516222229174,34
107,WS_SEND_START,1516222229174,34
107,WS_SEND_END,1516222229174,34
107,WS_RECV_START,1516222229174,35
107,WS_RECV_END,1516222229208,35
107,PLAYER_SLEEPBEFORE_START,1516222229208,36
107,PLAYER_SLEEPBEFORE_END,1516222229217,36
107,WS_SEND_START,1516222229217,36
107,WS_SEND_END,1516222229217,36
107,WS_RECV_START,1516222229217,37
107,WS_RECV_END,1516222229259,37
107,PLAYER_SLEEPBEFORE_START,1516222229259,38
107,PLAYER_SLEEPBEFORE_END,1516222232455,38
107,WS_SEND_START,1516222232455,38
107,WS_SEND_END,1516222232455,38
107,WS_RECV_START,1516222232455,39
107,WS_RECV_END,1516222232594,39
107,PLAYER_SLEEPBEFORE_START,1516222232594,40
107,PLAYER_SLEEPBEFORE_END,1516222232640,40
107,WS_SEND_START,1516222232640,40
107,WS_SEND_END,1516222232640,40
107,WS_RECV_START,1516222232641,41
107,WS_RECV_END,1516222232794,41
107,PLAYER_SLEEPBEFORE_START,1516222232794,42
107,PLAYER_SLEEPBEFORE_END,1516222250929,42
107,WS_SEND_START,1516222250929,42
107,WS_SEND_END,1516222250929,42
107,WS_RECV_START,1516222250929,43
107,WS_RECV_END,1516222251080,43
107,PLAYER_SLEEPBEFORE_START,1516222251080,44
107,PLAYER_SLEEPBEFORE_END,1516222251093,44
107,WS_SEND_START,1516222251093,44
107,WS_SEND_END,1516222251093,44
107,WS_RECV_START,1516222251093,45
107,WS_RECV_END,1516222251136,45
107,PLAYER_SLEEPBEFORE_START,1516222251136,46
107,PLAYER_SLEEPBEFORE_END,1516222252396,46
107,WS_SEND_START,1516222252396,46
107,WS_SEND_END,1516222252396,46
107,WS_RECV_START,1516222252396,47
107,WS_RECV_END,1516222252450,47
107,PLAYER_SLEEPBEFORE_START,1516222252450,48
107,PLAYER_SLEEPBEFORE_END,1516222253770,48
107,WS_SEND_START,1516222253770,48
107,WS_SEND_END,1516222253770,48
107,WS_RECV_START,1516222253770,49
107,WS_RECV_END,1516222253909,49
107,PLAYER_SLEEPBEFORE_START,1516222253909,50
107,PLAYER_SLEEPBEFORE_END,1516222253933,50
107,WS_SEND_START,1516222253933,50
107,WS_SEND_END,1516222253933,50
107,WS_RECV_START,1516222253933,51
107,WS_RECV_END,1516222254097,51
107,PLAYER_SLEEPBEFORE_START,1516222254097,52
107,PLAYER_SLEEPBEFORE_END,1516222276661,52
107,WS_SEND_START,1516222276661,52
107,WS_SEND_END,1516222276661,52
107,WS_RECV_START,1516222276661,53
107,WS_RECV_END,1516222276813,53
107,PLAYER_SLEEPBEFORE_START,1516222276813,54
107,PLAYER_SLEEPBEFORE_END,1516222298117,54
107,WS_SEND_START,1516222298117,54
107,WS_SEND_END,1516222298117,54
107,PLAYER_SLEEPBEFORE_START,1516222298117,55
107,PLAYER_SLEEPBEFORE_END,1516222300058,55
107,WS_SEND_START,1516222300058,55
107,WS_SEND_END,1516222300058,55
107,WS_RECV_START,1516222300058,56
107,WS_RECV_END,1516222300202,56
107,PLAYER_SLEEPBEFORE_START,1516222300202,57
107,PLAYER_SLEEPBEFORE_END,1516222323075,57
107,WS_SEND_START,1516222323075,57
107,WS_SEND_END,1516222323075,57
107,WS_RECV_START,1516222323075,58
107,WS_RECV_END,1516222323146,58
107,PLAYER_SLEEPBEFORE_START,1516222323146,59
107,PLAYER_SLEEPBEFORE_END,1516222325473,59
107,WS_SEND_START,1516222325473,59
107,WS_SEND_END,1516222325473,59
107,WS_RECV_START,1516222325473,60
107,WS_RECV_END,1516222325660,60
107,PLAYER_SLEEPBEFORE_START,1516222325660,61
107,PLAYER_SLEEPBEFORE_END,1516222329252,61
107,WS_SEND_START,1516222329252,61
107,WS_SEND_END,1516222329252,61
107,WS_RECV_START,1516222329252,62
107,WS_RECV_END,1516222329378,62
107,PLAYER_SLEEPBEFORE_START,1516222329378,63
107,PLAYER_SLEEPBEFORE_END,1516222348640,63
107,WS_SEND_START,1516222348640,63
107,WS_SEND_END,1516222348640,63
107,WS_RECV_START,1516222348640,64
107,WS_RECV_END,1516222348749,64
107,PLAYER_SLEEPBEFORE_START,1516222348749,65
107,PLAYER_SLEEPBEFORE_END,1516222375566,65
107,WS_SEND_START,1516222375566,65
107,WS_SEND_END,1516222375566,65
107,WS_RECV_START,1516222375566,66
107,WS_RECV_END,1516222375787,66
107,PLAYER_SLEEPBEFORE_START,1516222375787,67
107,PLAYER_SLEEPBEFORE_END,1516222377295,67
107,WS_SEND_START,1516222377295,67
107,WS_SEND_END,1516222377295,67
107,WS_RECV_START,1516222377295,68
107,WS_RECV_END,1516222377547,68
107,PLAYER_SLEEPBEFORE_START,1516222377547,69
107,PLAYER_SLEEPBEFORE_END,1516222399545,69
107,WS_SEND_START,1516222399545,69
107,WS_SEND_END,1516222399545,69
107,WS_RECV_START,1516222399545,70
107,WS_RECV_END,1516222399930,70
107,PLAYER_SLEEPBEFORE_START,1516222399930,71
107,PLAYER_SLEEPBEFORE_END,1516222424705,71
107,WS_SEND_START,1516222424705,71
107,WS_SEND_END,1516222424705,71
107,PLAYER_SLEEPBEFORE_START,1516222424705,72
107,PLAYER_SLEEPBEFORE_END,1516222427312,72
107,WS_SEND_START,1516222427312,72
107,WS_SEND_END,1516222427312,72
107,WS_RECV_START,1516222427312,73
107,WS_RECV_END,1516222429849,73
107,PLAYER_SLEEPBEFORE_START,1516222429849,74
107,PLAYER_SLEEPBEFORE_END,1516222429858,74
107,WS_SEND_START,1516222429858,74
107,WS_SEND_END,1516222429858,74
107,WS_RECV_START,1516222429858,75
107,WS_RECV_END,1516222430988,75
107,PLAYER_SLEEPBEFORE_START,1516222430988,76
107,PLAYER_SLEEPBEFORE_END,1516222432494,76
107,WS_SEND_START,1516222432494,76
107,WS_SEND_END,1516222432494,76
107,WS_RECV_START,1516222432494,77
107,WS_RECV_END,1516222433470,77
107,PLAYER_SLEEPBEFORE_START,1516222433470,78
107,PLAYER_SLEEPBEFORE_END,1516222434338,78
107,WS_SEND_START,1516222434338,78
107,WS_SEND_END,1516222434338,78
107,WS_RECV_START,1516222434338,79
107,WS_RECV_END,1516222435275,79
107,PLAYER_SLEEPBEFORE_START,1516222435275,80
107,PLAYER_SLEEPBEFORE_END,1516222442941,80
107,WS_SEND_START,1516222442941,80
107,WS_SEND_END,1516222442941,80
107,WS_RECV_START,1516222442941,81
107,WS_RECV_END,1516222445469,81
107,PLAYER_SLEEPBEFORE_START,1516222445469,82
107,PLAYER_SLEEPBEFORE_END,1516222446571,82
107,WS_SEND_START,1516222446571,82
107,WS_SEND_END,1516222446571,82
107,WS_RECV_START,1516222446571,83
107,WS_RECV_END,1516222447457,83
107,PLAYER_SLEEPBEFORE_START,1516222447457,84
107,PLAYER_SLEEPBEFORE_END,1516222448404,84
107,WS_SEND_START,1516222448404,84
107,WS_SEND_END,1516222448404,84
107,WS_RECV_START,1516222448404,85
107,WS_RECV_END,1516222449696,85
107,PLAYER_SLEEPBEFORE_START,1516222449696,86
107,PLAYER_SLEEPBEFORE_END,1516222453869,86
107,WS_SEND_START,1516222453869,86
107,WS_SEND_END,1516222453869,86
107,WS_RECV_START,1516222453869,87
107,WS_RECV_END,1516222456177,87
107,PLAYER_SLEEPBEFORE_START,1516222456177,88
107,PLAYER_SLEEPBEFORE_END,1516222456185,88
107,WS_SEND_START,1516222456185,88
107,WS_SEND_END,1516222456185,88
107,WS_RECV_START,1516222456185,89
107,WS_RECV_END,1516222458105,89
107,PLAYER_SLEEPBEFORE_START,1516222458105,90
107,PLAYER_SLEEPBEFORE_END,1516222485302,90
107,REQ_START,1516222485302,90
107,REQ_END,1516222485312,90
107,PLAYER_SLEEPBEFORE_START,1516222485312,91
107,PLAYER_SLEEPBEFORE_END,1516222493201,91
107,WS_SEND_START,1516222493201,91
107,WS_SEND_END,1516222493201,91
107,WS_RECV_START,1516222493201,92
107,WS_RECV_END,1516222496167,92
107,PLAYER_SLEEPBEFORE_START,1516222496167,93
107,PLAYER_SLEEPBEFORE_END,1516222496182,93
107,WS_SEND_START,1516222496182,93
107,WS_SEND_END,1516222496182,93
107,WS_RECV_START,1516222496182,94
107,WS_RECV_END,1516222497550,94
107,PLAYER_SLEEPBEFORE_START,1516222497550,95
107,PLAYER_SLEEPBEFORE_END,1516222521105,95
107,WS_SEND_START,1516222521105,95
107,WS_SEND_END,1516222521105,95
107,WS_RECV_START,1516222521105,96
107,WS_RECV_END,1516222524449,96
107,PLAYER_SLEEPBEFORE_START,1516222524449,97
107,PLAYER_SLEEPBEFORE_END,1516222546889,97
107,WS_SEND_START,1516222546889,97
107,WS_SEND_END,1516222546889,97
107,WS_RECV_START,1516222546889,98
107,WS_RECV_END,1516222550915,98
107,PLAYER_SLEEPBEFORE_START,1516222550915,99
107,PLAYER_SLEEPBEFORE_END,1516222550936,99
107,WS_SEND_START,1516222550936,99
107,WS_SEND_END,1516222550936,99
107,WS_RECV_START,1516222550936,100
107,WS_RECV_END,1516222552555,100
107,PLAYER_SLEEPBEFORE_START,1516222552555,101
107,PLAYER_SLEEPBEFORE_END,1516222576114,101
107,WS_SEND_START,1516222576114,101
107,WS_SEND_END,1516222576114,101
107,WS_RECV_START,1516222576114,102
107,WS_RECV_END,1516222582205,102
107,PLAYER_SLEEPBEFORE_START,1516222582205,103
107,PLAYER_SLEEPBEFORE_END,1516222605830,103
107,WS_SEND_START,1516222605830,103
107,WS_SEND_END,1516222605830,103
107,WS_RECV_START,1516222605830,104
107,WS_RECV_END,1516222609116,104
107,PLAYER_SLEEPBEFORE_START,1516222609116,105
107,PLAYER_SLEEPBEFORE_END,1516222634493,105
107,WS_SEND_START,1516222634493,105
107,WS_SEND_END,1516222634493,105
107,WS_RECV_START,1516222634493,106
107,WS_RECV_END,1516222641227,106
107,PLAYER_SLEEPBEFORE_START,1516222641227,107
107,PLAYER_SLEEPBEFORE_END,1516222664650,107
107,WS_SEND_START,1516222664650,107
107,WS_SEND_END,1516222664650,107
107,WS_RECV_START,1516222664650,108
107,WS_RECV_END,1516222669158,108
107,PLAYER_SLEEPBEFORE_START,1516222669158,109
107,PLAYER_SLEEPBEFORE_END,1516222669167,109
107,WS_SEND_START,1516222669167,109
107,WS_SEND_END,1516222669167,109
107,WS_RECV_START,1516222669167,110
107,WS_RECV_END,1516222671699,110
107,PLAYER_SLEEPBEFORE_START,1516222671699,111
107,PLAYER_SLEEPBEFORE_END,1516222672658,111
107,WS_SEND_START,1516222672658,111
107,WS_SEND_END,1516222672658,111
107,WS_RECV_START,1516222672658,112
107,WS_RECV_END,1516222676818,112
107,PLAYER_SLEEPBEFORE_START,1516222676818,113
107,PLAYER_SLEEPBEFORE_END,1516222677380,113
107,WS_SEND_START,1516222677380,113
107,WS_SEND_END,1516222677380,113
107,WS_RECV_START,1516222677380,114
107,WS_RECV_END,1516222683768,114
107,PLAYER_SLEEPBEFORE_START,1516222683768,115
107,PLAYER_SLEEPBEFORE_END,1516222683777,115
107,WS_SEND_START,1516222683777,115
107,WS_SEND_END,1516222683777,115
107,WS_RECV_START,1516222683777,116
107,WS_RECV_END,1516222690441,116
107,PLAYER_SLEEPBEFORE_START,1516222690441,117
107,PLAYER_SLEEPBEFORE_END,1516222710801,117
107,WS_SEND_START,1516222710801,117
107,WS_SEND_END,1516222710801,117
107,PLAYER_SLEEPBEFORE_START,1516222710801,118
107,PLAYER_SLEEPBEFORE_END,1516222714553,118
107,WS_SEND_START,1516222714553,118
107,WS_SEND_END,1516222714553,118
107,WS_RECV_START,1516222714553,119
107,WS_RECV_END,1516222720967,119
107,PLAYER_SLEEPBEFORE_START,1516222720967,120
107,PLAYER_SLEEPBEFORE_END,1516222721955,120
107,WS_SEND_START,1516222721955,120
107,WS_SEND_END,1516222721955,120
107,WS_RECV_START,1516222721955,121
107,WS_RECV_END,1516222724824,121
107,PLAYER_SLEEPBEFORE_START,1516222724824,122
107,PLAYER_SLEEPBEFORE_END,1516222726009,122
107,WS_SEND_START,1516222726009,122
107,WS_SEND_END,1516222726009,122
107,WS_RECV_START,1516222726009,123
107,WS_RECV_END,1516222731053,123
107,PLAYER_SLEEPBEFORE_START,1516222731053,124
107,PLAYER_SLEEPBEFORE_END,1516222755458,124
107,WS_SEND_START,1516222755458,124
107,WS_SEND_END,1516222755458,124
107,WS_RECV_START,1516222755458,125
107,WS_RECV_END,1516222766553,125
107,PLAYER_SLEEPBEFORE_START,1516222766553,126
107,PLAYER_SLEEPBEFORE_END,1516222787065,126
107,WS_SEND_START,1516222787065,126
107,WS_SEND_END,1516222787066,126
107,PLAYER_SLEEPBEFORE_START,1516222787066,127
107,PLAYER_SLEEPBEFORE_END,1516222790120,127
107,WS_SEND_START,1516222790120,127
107,WS_SEND_END,1516222790120,127
107,WS_RECV_START,1516222790120,128
107,WS_RECV_END,1516222795976,128
107,PLAYER_SLEEPBEFORE_START,1516222795976,129
107,PLAYER_SLEEPBEFORE_END,1516222795996,129
107,WS_SEND_START,1516222795996,129
107,WS_SEND_END,1516222795996,129
107,WS_RECV_START,1516222795996,130
107,WS_RECV_END,1516222800880,130
107,PLAYER_SLEEPBEFORE_START,1516222800880,131
107,PLAYER_SLEEPBEFORE_END,1516222822504,131
107,WS_SEND_START,1516222822504,131
107,WS_SEND_END,1516222822504,131
107,PLAYER_SLEEPBEFORE_START,1516222822504,132
107,PLAYER_SLEEPBEFORE_END,1516222825584,132
107,WS_SEND_START,1516222825584,132
107,WS_SEND_END,1516222825584,132
107,WS_RECV_START,1516222825584,133
107,WS_RECV_END,1516222832487,133
107,PLAYER_SLEEPBEFORE_START,1516222832487,134
107,PLAYER_SLEEPBEFORE_END,1516222853704,134
107,WS_SEND_START,1516222853704,134
107,WS_SEND_END,1516222853704,134
107,PLAYER_SLEEPBEFORE_START,1516222853704,135
107,PLAYER_SLEEPBEFORE_END,1516222856895,135
107,WS_SEND_START,1516222856895,135
107,WS_SEND_END,1516222856895,135
107,WS_RECV_START,1516222856895,136
107,WS_RECV_END,1516222862667,136
107,PLAYER_SLEEPBEFORE_START,1516222862667,137
107,PLAYER_SLEEPBEFORE_END,1516222862674,137
107,WS_SEND_START,1516222862674,137
107,WS_SEND_END,1516222862674,137
107,WS_RECV_START,1516222862674,138
107,WS_RECV_END,1516222866650,138
107,PLAYER_SLEEPBEFORE_START,1516222866650,139
107,PLAYER_SLEEPBEFORE_END,1516222867340,139
107,WS_SEND_START,1516222867340,139
107,WS_SEND_END,1516222867340,139
107,WS_RECV_START,1516222867340,140
107,WS_RECV_END,1516222874051,140
107,PLAYER_SLEEPBEFORE_START,1516222874051,141
107,PLAYER_SLEEPBEFORE_END,1516222874706,141
107,WS_SEND_START,1516222874706,141
107,WS_SEND_END,1516222874707,141
107,WS_RECV_START,1516222874707,142
107,WS_RECV_END,1516222882035,142
107,PLAYER_SLEEPBEFORE_START,1516222882035,143
107,PLAYER_SLEEPBEFORE_END,1516222882092,143
107,WS_SEND_START,1516222882092,143
107,WS_SEND_END,1516222882092,143
107,WS_RECV_START,1516222882092,144
107,WS_RECV_END,1516222887508,144
107,PLAYER_SLEEPBEFORE_START,1516222887508,145
107,PLAYER_SLEEPBEFORE_END,1516222903570,145
107,REQ_START,1516222903570,145
107,REQ_END,1516222903578,145
107,PLAYER_SLEEPBEFORE_START,1516222903578,146
107,PLAYER_SLEEPBEFORE_END,1516222912455,146
107,WS_SEND_START,1516222912455,146
107,WS_SEND_END,1516222912455,146
107,WS_RECV_START,1516222912455,147
107,WS_RECV_END,1516222922025,147
107,PLAYER_SLEEPBEFORE_START,1516222922025,148
107,PLAYER_SLEEPBEFORE_END,1516222943947,148
107,WS_SEND_START,1516222943947,148
107,WS_SEND_END,1516222943947,148
107,PLAYER_SLEEPBEFORE_START,1516222943947,149
107,PLAYER_SLEEPBEFORE_END,1516222946375,149
107,WS_SEND_START,1516222946376,149
107,WS_SEND_END,1516222946376,149
107,WS_RECV_START,1516222946376,150
107,WS_RECV_END,1516222952508,150
107,PLAYER_SLEEPBEFORE_START,1516222952508,151
107,PLAYER_SLEEPBEFORE_END,1516222952718,151
107,WS_SEND_START,1516222952718,151
107,WS_SEND_END,1516222952718,151
107,WS_RECV_START,1516222952718,152
107,WS_RECV_END,1516222956320,152
107,PLAYER_SLEEPBEFORE_START,1516222956320,153
107,PLAYER_SLEEPBEFORE_END,1516222980247,153
107,WS_SEND_START,1516222980247,153
107,WS_SEND_END,1516222980247,153
107,WS_RECV_START,1516222980247,154
107,WS_RECV_END,1516222989993,154
107,PLAYER_SLEEPBEFORE_START,1516222989993,155
107,PLAYER_SLEEPBEFORE_END,1516223012551,155
107,WS_SEND_START,1516223012551,155
107,WS_SEND_END,1516223012551,155
107,PLAYER_SLEEPBEFORE_START,1516223012551,156
107,PLAYER_SLEEPBEFORE_END,1516223015825,156
107,WS_SEND_START,1516223015825,156
107,WS_SEND_END,1516223015825,156
107,WS_RECV_START,1516223015825,157
107,WS_RECV_END,1516223021498,157
107,PLAYER_SLEEPBEFORE_START,1516223021498,158
107,PLAYER_SLEEPBEFORE_END,1516223021508,158
107,WS_SEND_START,1516223021508,158
107,WS_SEND_END,1516223021508,158
107,WS_RECV_START,1516223021508,159
107,WS_RECV_END,1516223025458,159
107,PLAYER_SLEEPBEFORE_START,1516223025458,160
107,PLAYER_SLEEPBEFORE_END,1516223025633,160
107,WS_SEND_START,1516223025633,160
107,WS_SEND_END,1516223025633,160
107,WS_RECV_START,1516223025633,161
107,WS_RECV_END,1516223032334,161
107,PLAYER_SLEEPBEFORE_START,1516223032334,162
107,PLAYER_SLEEPBEFORE_END,1516223032359,162
107,WS_SEND_START,1516223032359,162
107,WS_SEND_END,1516223032359,162
107,WS_RECV_START,1516223032359,163
107,WS_RECV_END,1516223040217,163
107,PLAYER_SLEEPBEFORE_START,1516223040217,164
107,PLAYER_SLEEPBEFORE_END,1516223061029,164
107,WS_SEND_START,1516223061029,164
107,WS_SEND_END,1516223061029,164
107,WS_RECV_START,1516223061030,165
107,WS_RECV_END,1516223069639,165
107,PLAYER_SLEEPBEFORE_START,1516223069639,166
107,PLAYER_SLEEPBEFORE_END,1516223092094,166
107,WS_SEND_START,1516223092094,166
107,WS_SEND_END,1516223092094,166
107,WS_RECV_START,1516223092094,167
107,WS_RECV_END,1516223100610,167
107,PLAYER_SLEEPBEFORE_START,1516223100610,168
107,PLAYER_SLEEPBEFORE_END,1516223127967,168
107,WS_SEND_START,1516223127967,168
107,WS_SEND_END,1516223127967,168
107,WS_RECV_START,1516223127967,169
107,WS_RECV_END,1516223135170,169
107,PLAYER_SLEEPBEFORE_START,1516223135170,170
107,PLAYER_SLEEPBEFORE_END,1516223135179,170
107,WS_SEND_START,1516223135179,170
107,WS_SEND_END,1516223135179,170
107,WS_RECV_START,1516223135179,171
107,WS_RECV_END,1516223140641,171
107,PLAYER_SLEEPBEFORE_START,1516223140641,172
107,PLAYER_SLEEPBEFORE_END,1516223141010,172
107,WS_SEND_START,1516223141010,172
107,WS_SEND_END,1516223141010,172
107,WS_RECV_START,1516223141010,173
107,WS_RECV_END,1516223148037,173
107,PLAYER_SLEEPBEFORE_START,1516223148037,174
107,PLAYER_SLEEPBEFORE_END,1516223148078,174
107,WS_SEND_START,1516223148078,174
107,WS_SEND_END,1516223148078,174
107,WS_RECV_START,1516223148078,175
107,WS_RECV_END,1516223156524,175
107,PLAYER_SLEEPBEFORE_START,1516223156524,176
107,PLAYER_SLEEPBEFORE_END,1516223178285,176
107,WS_SEND_START,1516223178285,176
107,WS_SEND_END,1516223178286,176
107,PLAYER_SLEEPBEFORE_START,1516223178286,177
107,PLAYER_SLEEPBEFORE_END,1516223180804,177
107,WS_SEND_START,1516223180804,177
107,WS_SEND_END,1516223180804,177
107,WS_RECV_START,1516223180804,178
107,WS_RECV_END,1516223188701,178
107,PLAYER_SLEEPBEFORE_START,1516223188701,179
107,PLAYER_SLEEPBEFORE_END,1516223211041,179
107,WS_SEND_START,1516223211041,179
107,WS_SEND_END,1516223211041,179
107,WS_RECV_START,1516223211041,180
107,WS_RECV_END,1516223220705,180
107,PLAYER_SLEEPBEFORE_START,1516223220705,181
107,PLAYER_SLEEPBEFORE_END,1516223221149,181
107,WS_SEND_START,1516223221149,181
107,WS_SEND_END,1516223221149,181
107,WS_RECV_START,1516223221149,182
107,WS_RECV_END,1516223226237,182
107,PLAYER_SLEEPBEFORE_START,1516223226237,183
107,PLAYER_SLEEPBEFORE_END,1516223226760,183
107,WS_SEND_START,1516223226760,183
107,WS_SEND_END,1516223226760,183
107,WS_RECV_START,1516223226760,184
107,WS_RECV_END,1516223234372,184
107,PLAYER_SLEEPBEFORE_START,1516223234372,185
107,PLAYER_SLEEPBEFORE_END,1516223234640,185
107,WS_SEND_START,1516223234640,185
107,WS_SEND_END,1516223234640,185
107,WS_RECV_START,1516223234640,186
107,WS_RECV_END,1516223242455,186
107,PLAYER_SLEEPBEFORE_START,1516223242455,187
107,PLAYER_SLEEPBEFORE_END,1516223264955,187
107,WS_SEND_START,1516223264955,187
107,WS_SEND_END,1516223264955,187
107,WS_RECV_START,1516223264955,188
107,WS_RECV_END,1516223277699,188
107,PLAYER_SLEEPBEFORE_START,1516223277699,189
107,PLAYER_SLEEPBEFORE_END,1516223283938,189
107,WS_SEND_START,1516223283939,189
107,WS_SEND_END,1516223283939,189
107,WS_RECV_START,1516223283939,190
107,WS_RECV_END,1516223297246,190
107,PLAYER_SLEEPBEFORE_START,1516223297246,191
107,PLAYER_SLEEPBEFORE_END,1516223299161,191
107,WS_SEND_START,1516223299161,191
107,WS_SEND_END,1516223299161,191
107,WS_RECV_START,1516223299161,192
107,WS_RECV_END,1516223313044,192
107,PLAYER_SLEEPBEFORE_START,1516223313044,193
107,PLAYER_SLEEPBEFORE_END,1516223313179,193
107,WS_SEND_START,1516223313179,193
107,WS_SEND_END,1516223313179,193
107,WS_RECV_START,1516223313179,194
107,WS_RECV_END,1516223320944,194
107,PLAYER_SLEEPBEFORE_START,1516223320944,195
107,PLAYER_SLEEPBEFORE_END,1516223322699,195
107,WS_SEND_START,1516223322699,195
107,WS_SEND_END,1516223322699,195
107,WS_RECV_START,1516223322699,196
107,WS_RECV_END,1516223329077,196
107,PLAYER_SLEEPBEFORE_START,1516223329077,197
107,PLAYER_SLEEPBEFORE_END,1516223330881,197
107,WS_SEND_START,1516223330881,197
107,WS_SEND_END,1516223330881,197
107,WS_RECV_START,1516223330881,198
107,WS_RECV_END,1516223336253,198
107,PLAYER_SLEEPBEFORE_START,1516223336253,199
107,PLAYER_SLEEPBEFORE_END,1516223348107,199
107,WS_SEND_START,1516223348107,199
107,WS_SEND_END,1516223348107,199
107,PLAYER_SLEEPBEFORE_START,1516223348107,200
107,PLAYER_SLEEPBEFORE_END,1516223352195,200
107,WS_SEND_START,1516223352195,200
107,WS_SEND_END,1516223352195,200
107,WS_RECV_START,1516223352195,201
107,WS_RECV_END,1516223364566,201
107,PLAYER_SLEEPBEFORE_START,1516223364566,202
107,PLAYER_SLEEPBEFORE_END,1516223364580,202
107,WS_SEND_START,1516223364580,202
107,WS_SEND_END,1516223364580,202
107,WS_RECV_START,1516223364580,203
107,WS_RECV_END,1516223372194,203
107,PLAYER_SLEEPBEFORE_START,1516223372194,204
107,PLAYER_SLEEPBEFORE_END,1516223391843,204
107,WS_SEND_START,1516223391843,204
107,WS_SEND_END,1516223391843,204
107,PLAYER_SLEEPBEFORE_START,1516223391843,205
107,PLAYER_SLEEPBEFORE_END,1516223395741,205
107,WS_SEND_START,1516223395741,205
107,WS_SEND_END,1516223395741,205
107,WS_RECV_START,1516223395741,206
107,WS_RECV_END,1516223404621,206
107,PLAYER_SLEEPBEFORE_START,1516223404621,207
107,PLAYER_SLEEPBEFORE_END,1516223421552,207
107,REQ_START,1516223421552,207
107,REQ_END,1516223421560,207
107,PLAYER_SLEEPBEFORE_START,1516223421560,208
107,PLAYER_SLEEPBEFORE_END,1516223428412,208
107,WS_CLOSE_START,1516223428412,208
107,WS_CLOSE_END,1516223428412,208
107,PLAYER_DONE,1516223428412
