# --sessions 720 --app-url=http://shinyloadtest.rstudioservices.com/cran_explorer --output-dir test720 --overwrite-output --log-level warn --start-interval 500 15min.log
thread_id,event,timestamp,input_line_number,comment
348,PLAYER_SESSION_CREATE,1516222120189
348,PLAYER_START_INTERVAL_START,1516222120189
348,PLAYER_START_INTERVAL_END,1516222294189
348,REQ_HOME_START,1516222294189,2
348,REQ_HOME_END,1516222294282,2
348,REQ_START,1516222294282,3
348,REQ_END,1516222294313,3
348,REQ_START,1516222294313,4
348,REQ_END,1516222294350,4
348,REQ_START,1516222294350,5
348,REQ_END,1516222294385,5
348,REQ_START,1516222294385,6
348,REQ_END,1516222294423,6
348,REQ_START,1516222294423,7
348,REQ_END,1516222294454,7
348,REQ_START,1516222294454,8
348,REQ_END,1516222294495,8
348,REQ_START,1516222294495,9
348,REQ_END,1516222294530,9
348,REQ_START,1516222294530,10
348,REQ_END,1516222294538,10
348,REQ_START,1516222294538,11
348,REQ_END,1516222294570,11
348,REQ_START,1516222294570,12
348,REQ_END,1516222294580,12
348,REQ_START,1516222294580,13
348,REQ_END,1516222294610,13
348,REQ_START,1516222294610,14
348,REQ_END,1516222294627,14
348,REQ_START,1516222294627,15
348,REQ_END,1516222294767,15
348,REQ_TOK_START,1516222294767,16
348,REQ_TOK_END,1516222294775,16
348,REQ_SINF_START,1516222294775,17
348,REQ_SINF_END,1516222294782,17
348,WS_OPEN_START,1516222294782,18
348,WS_OPEN_END,1516222294789,18
348,REQ_START,1516222294789,19
348,REQ_END,1516222294812,19
348,WS_RECV_START,1516222294812,20
348,WS_RECV_END,1516222294812,20
348,PLAYER_SLEEPBEFORE_START,1516222294812,21
348,PLAYER_SLEEPBEFORE_END,1516222294817,21
348,WS_SEND_START,1516222294817,21
348,WS_SEND_END,1516222294817,21
348,PLAYER_SLEEPBEFORE_START,1516222294817,22
348,PLAYER_SLEEPBEFORE_END,1516222294818,22
348,WS_SEND_START,1516222294818,22
348,WS_SEND_END,1516222294818,22
348,WS_RECV_INIT_START,1516222294818,23
348,WS_RECV_INIT_END,1516222294841,23
348,WS_RECV_START,1516222294841,24
348,WS_RECV_END,1516222294941,24
348,PLAYER_SLEEPBEFORE_START,1516222294941,25
348,PLAYER_SLEEPBEFORE_END,1516222294948,25
348,REQ_START,1516222294948,25
348,REQ_END,1516222294982,25
348,PLAYER_SLEEPBEFORE_START,1516222294982,26
348,PLAYER_SLEEPBEFORE_END,1516222294984,26
348,REQ_START,1516222294984,26
348,REQ_END,1516222295022,26
348,PLAYER_SLEEPBEFORE_START,1516222295022,27
348,PLAYER_SLEEPBEFORE_END,1516222295026,27
348,REQ_START,1516222295026,27
348,REQ_END,1516222295062,27
348,PLAYER_SLEEPBEFORE_START,1516222295062,28
348,PLAYER_SLEEPBEFORE_END,1516222295347,28
348,REQ_START,1516222295347,28
348,REQ_END,1516222295385,28
348,PLAYER_SLEEPBEFORE_START,1516222295385,29
348,PLAYER_SLEEPBEFORE_END,1516222295560,29
348,WS_SEND_START,1516222295560,29
348,WS_SEND_END,1516222295560,29
348,WS_RECV_START,1516222295560,30
348,WS_RECV_END,1516222295873,30
348,PLAYER_SLEEPBEFORE_START,1516222295873,31
348,PLAYER_SLEEPBEFORE_END,1516222295884,31
348,REQ_START,1516222295884,31
348,REQ_END,1516222296008,31
348,PLAYER_SLEEPBEFORE_START,1516222296008,32
348,PLAYER_SLEEPBEFORE_END,1516222324153,32
348,WS_SEND_START,1516222324153,32
348,WS_SEND_END,1516222324153,32
348,WS_RECV_START,1516222324153,33
348,WS_RECV_END,1516222324503,33
348,PLAYER_SLEEPBEFORE_START,1516222324503,34
348,PLAYER_SLEEPBEFORE_END,1516222350414,34
348,WS_SEND_START,1516222350414,34
348,WS_SEND_END,1516222350414,34
348,WS_RECV_START,1516222350414,35
348,WS_RECV_END,1516222350566,35
348,PLAYER_SLEEPBEFORE_START,1516222350566,36
348,PLAYER_SLEEPBEFORE_END,1516222350575,36
348,WS_SEND_START,1516222350575,36
348,WS_SEND_END,1516222350575,36
348,WS_RECV_START,1516222350575,37
348,WS_RECV_END,1516222350632,37
348,PLAYER_SLEEPBEFORE_START,1516222350632,38
348,PLAYER_SLEEPBEFORE_END,1516222353827,38
348,WS_SEND_START,1516222353827,38
348,WS_SEND_END,1516222353827,38
348,WS_RECV_START,1516222353827,39
348,WS_RECV_END,1516222354042,39
348,PLAYER_SLEEPBEFORE_START,1516222354042,40
348,PLAYER_SLEEPBEFORE_END,1516222354088,40
348,WS_SEND_START,1516222354088,40
348,WS_SEND_END,1516222354088,40
348,WS_RECV_START,1516222354088,41
348,WS_RECV_END,1516222354390,41
348,PLAYER_SLEEPBEFORE_START,1516222354390,42
348,PLAYER_SLEEPBEFORE_END,1516222372525,42
348,WS_SEND_START,1516222372525,42
348,WS_SEND_END,1516222372526,42
348,WS_RECV_START,1516222372526,43
348,WS_RECV_END,1516222372769,43
348,PLAYER_SLEEPBEFORE_START,1516222372769,44
348,PLAYER_SLEEPBEFORE_END,1516222372782,44
348,WS_SEND_START,1516222372782,44
348,WS_SEND_END,1516222372782,44
348,WS_RECV_START,1516222372782,45
348,WS_RECV_END,1516222372916,45
348,PLAYER_SLEEPBEFORE_START,1516222372916,46
348,PLAYER_SLEEPBEFORE_END,1516222374176,46
348,WS_SEND_START,1516222374176,46
348,WS_SEND_END,1516222374176,46
348,WS_RECV_START,1516222374176,47
348,WS_RECV_END,1516222374275,47
348,PLAYER_SLEEPBEFORE_START,1516222374275,48
348,PLAYER_SLEEPBEFORE_END,1516222375595,48
348,WS_SEND_START,1516222375595,48
348,WS_SEND_END,1516222375595,48
348,WS_RECV_START,1516222375595,49
348,WS_RECV_END,1516222376123,49
348,PLAYER_SLEEPBEFORE_START,1516222376123,50
348,PLAYER_SLEEPBEFORE_END,1516222376147,50
348,WS_SEND_START,1516222376147,50
348,WS_SEND_END,1516222376147,50
348,WS_RECV_START,1516222376147,51
348,WS_RECV_END,1516222376565,51
348,PLAYER_SLEEPBEFORE_START,1516222376565,52
348,PLAYER_SLEEPBEFORE_END,1516222399129,52
348,WS_SEND_START,1516222399129,52
348,WS_SEND_END,1516222399129,52
348,WS_RECV_START,1516222399129,53
348,WS_RECV_END,1516222400182,53
348,PLAYER_SLEEPBEFORE_START,1516222400182,54
348,PLAYER_SLEEPBEFORE_END,1516222421486,54
348,WS_SEND_START,1516222421486,54
348,WS_SEND_END,1516222421486,54
348,PLAYER_SLEEPBEFORE_START,1516222421486,55
348,PLAYER_SLEEPBEFORE_END,1516222423427,55
348,WS_SEND_START,1516222423427,55
348,WS_SEND_END,1516222423427,55
348,WS_RECV_START,1516222423427,56
348,WS_RECV_END,1516222424371,56
348,PLAYER_SLEEPBEFORE_START,1516222424371,57
348,PLAYER_SLEEPBEFORE_END,1516222447244,57
348,WS_SEND_START,1516222447244,57
348,WS_SEND_END,1516222447244,57
348,WS_RECV_START,1516222447244,58
348,WS_RECV_END,1516222448959,58
348,PLAYER_SLEEPBEFORE_START,1516222448959,59
348,PLAYER_SLEEPBEFORE_END,1516222451286,59
348,WS_SEND_START,1516222451286,59
348,WS_SEND_END,1516222451286,59
348,WS_RECV_START,1516222451286,60
348,WS_RECV_END,1516222452286,60
348,PLAYER_SLEEPBEFORE_START,1516222452286,61
348,PLAYER_SLEEPBEFORE_END,1516222455877,61
348,WS_SEND_START,1516222455877,61
348,WS_SEND_END,1516222455877,61
348,WS_RECV_START,1516222455877,62
348,WS_RECV_END,1516222458030,62
348,PLAYER_SLEEPBEFORE_START,1516222458030,63
348,PLAYER_SLEEPBEFORE_END,1516222477292,63
348,WS_SEND_START,1516222477292,63
348,WS_SEND_END,1516222477292,63
348,WS_RECV_START,1516222477292,64
348,WS_RECV_END,1516222478989,64
348,PLAYER_SLEEPBEFORE_START,1516222478989,65
348,PLAYER_SLEEPBEFORE_END,1516222505806,65
348,WS_SEND_START,1516222505806,65
348,WS_SEND_END,1516222505806,65
348,WS_RECV_START,1516222505806,66
348,WS_RECV_END,1516222508871,66
348,PLAYER_SLEEPBEFORE_START,1516222508871,67
348,PLAYER_SLEEPBEFORE_END,1516222510378,67
348,WS_SEND_START,1516222510378,67
348,WS_SEND_END,1516222510378,67
348,WS_RECV_START,1516222510378,68
348,WS_RECV_END,1516222513741,68
348,PLAYER_SLEEPBEFORE_START,1516222513742,69
348,PLAYER_SLEEPBEFORE_END,1516222535740,69
348,WS_SEND_START,1516222535740,69
348,WS_SEND_END,1516222535740,69
348,WS_RECV_START,1516222535740,70
348,WS_RECV_END,1516222539772,70
348,PLAYER_SLEEPBEFORE_START,1516222539772,71
348,PLAYER_SLEEPBEFORE_END,1516222564547,71
348,WS_SEND_START,1516222564548,71
348,WS_SEND_END,1516222564548,71
348,PLAYER_SLEEPBEFORE_START,1516222564548,72
348,PLAYER_SLEEPBEFORE_END,1516222567155,72
348,WS_SEND_START,1516222567155,72
348,WS_SEND_END,1516222567155,72
348,WS_RECV_START,1516222567155,73
348,WS_RECV_END,1516222569041,73
348,PLAYER_SLEEPBEFORE_START,1516222569041,74
348,PLAYER_SLEEPBEFORE_END,1516222569051,74
348,WS_SEND_START,1516222569051,74
348,WS_SEND_END,1516222569051,74
348,WS_RECV_START,1516222569051,75
348,WS_RECV_END,1516222570496,75
348,PLAYER_SLEEPBEFORE_START,1516222570496,76
348,PLAYER_SLEEPBEFORE_END,1516222572003,76
348,WS_SEND_START,1516222572003,76
348,WS_SEND_END,1516222572003,76
348,WS_RECV_START,1516222572003,77
348,WS_RECV_END,1516222573208,77
348,PLAYER_SLEEPBEFORE_START,1516222573208,78
348,PLAYER_SLEEPBEFORE_END,1516222574076,78
348,WS_SEND_START,1516222574076,78
348,WS_SEND_END,1516222574076,78
348,WS_RECV_START,1516222574076,79
348,WS_RECV_END,1516222576488,79
348,PLAYER_SLEEPBEFORE_START,1516222576488,80
348,PLAYER_SLEEPBEFORE_END,1516222584154,80
348,WS_SEND_START,1516222584154,80
348,WS_SEND_END,1516222584154,80
348,WS_RECV_START,1516222584154,81
348,WS_RECV_END,1516222588412,81
348,PLAYER_SLEEPBEFORE_START,1516222588412,82
348,PLAYER_SLEEPBEFORE_END,1516222589514,82
348,WS_SEND_START,1516222589514,82
348,WS_SEND_END,1516222589514,82
348,WS_RECV_START,1516222589514,83
348,WS_RECV_END,1516222593879,83
348,PLAYER_SLEEPBEFORE_START,1516222593879,84
348,PLAYER_SLEEPBEFORE_END,1516222594826,84
348,WS_SEND_START,1516222594826,84
348,WS_SEND_END,1516222594826,84
348,WS_RECV_START,1516222594826,85
348,WS_RECV_END,1516222595816,85
348,PLAYER_SLEEPBEFORE_START,1516222595816,86
348,PLAYER_SLEEPBEFORE_END,1516222599988,86
348,WS_SEND_START,1516222599988,86
348,WS_SEND_END,1516222599988,86
348,WS_RECV_START,1516222599988,87
348,WS_RECV_END,1516222603747,87
348,PLAYER_SLEEPBEFORE_START,1516222603747,88
348,PLAYER_SLEEPBEFORE_END,1516222603755,88
348,WS_SEND_START,1516222603755,88
348,WS_SEND_END,1516222603755,88
348,WS_RECV_START,1516222603755,89
348,WS_RECV_END,1516222605471,89
348,PLAYER_SLEEPBEFORE_START,1516222605471,90
348,PLAYER_SLEEPBEFORE_END,1516222632668,90
348,REQ_START,1516222632668,90
348,REQ_END,1516222632676,90
348,PLAYER_SLEEPBEFORE_START,1516222632676,91
348,PLAYER_SLEEPBEFORE_END,1516222640566,91
348,WS_SEND_START,1516222640566,91
348,WS_SEND_END,1516222640566,91
348,WS_RECV_START,1516222640566,92
348,WS_RECV_END,1516222647439,92
348,PLAYER_SLEEPBEFORE_START,1516222647439,93
348,PLAYER_SLEEPBEFORE_END,1516222647454,93
348,WS_SEND_START,1516222647454,93
348,WS_SEND_END,1516222647454,93
348,WS_RECV_START,1516222647454,94
348,WS_RECV_END,1516222651889,94
348,PLAYER_SLEEPBEFORE_START,1516222651889,95
348,PLAYER_SLEEPBEFORE_END,1516222675444,95
348,WS_SEND_START,1516222675444,95
348,WS_SEND_END,1516222675444,95
348,WS_RECV_START,1516222675444,96
348,WS_RECV_END,1516222680404,96
348,PLAYER_SLEEPBEFORE_START,1516222680404,97
348,PLAYER_SLEEPBEFORE_END,1516222702845,97
348,WS_SEND_START,1516222702845,97
348,WS_SEND_END,1516222702845,97
348,WS_RECV_START,1516222702845,98
348,WS_RECV_END,1516222710168,98
348,PLAYER_SLEEPBEFORE_START,1516222710168,99
348,PLAYER_SLEEPBEFORE_END,1516222710189,99
348,WS_SEND_START,1516222710189,99
348,WS_SEND_END,1516222710189,99
348,WS_RECV_START,1516222710189,100
348,WS_RECV_END,1516222713340,100
348,PLAYER_SLEEPBEFORE_START,1516222713340,101
348,PLAYER_SLEEPBEFORE_END,1516222736899,101
348,WS_SEND_START,1516222736899,101
348,WS_SEND_END,1516222736899,101
348,WS_RECV_START,1516222736899,102
348,WS_RECV_END,1516222745730,102
348,PLAYER_SLEEPBEFORE_START,1516222745730,103
348,PLAYER_SLEEPBEFORE_END,1516222769355,103
348,WS_SEND_START,1516222769355,103
348,WS_SEND_END,1516222769355,103
348,WS_RECV_START,1516222769355,104
348,WS_RECV_END,1516222775847,104
348,PLAYER_SLEEPBEFORE_START,1516222775847,105
348,PLAYER_SLEEPBEFORE_END,1516222801224,105
348,WS_SEND_START,1516222801224,105
348,WS_SEND_END,1516222801224,105
348,WS_RECV_START,1516222801224,106
348,WS_RECV_END,1516222810050,106
348,PLAYER_SLEEPBEFORE_START,1516222810050,107
348,PLAYER_SLEEPBEFORE_END,1516222833473,107
348,WS_SEND_START,1516222833473,107
348,WS_SEND_END,1516222833473,107
348,WS_RECV_START,1516222833473,108
348,WS_RECV_END,1516222840422,108
348,PLAYER_SLEEPBEFORE_START,1516222840422,109
348,PLAYER_SLEEPBEFORE_END,1516222840431,109
348,WS_SEND_START,1516222840431,109
348,WS_SEND_END,1516222840432,109
348,WS_RECV_START,1516222840432,110
348,WS_RECV_END,1516222843629,110
348,PLAYER_SLEEPBEFORE_START,1516222843629,111
348,PLAYER_SLEEPBEFORE_END,1516222844588,111
348,WS_SEND_START,1516222844588,111
348,WS_SEND_END,1516222844588,111
348,WS_RECV_START,1516222844588,112
348,WS_RECV_END,1516222848977,112
348,PLAYER_SLEEPBEFORE_START,1516222848977,113
348,PLAYER_SLEEPBEFORE_END,1516222849539,113
348,WS_SEND_START,1516222849539,113
348,WS_SEND_END,1516222849539,113
348,WS_RECV_START,1516222849539,114
348,WS_RECV_END,1516222855832,114
348,PLAYER_SLEEPBEFORE_START,1516222855832,115
348,PLAYER_SLEEPBEFORE_END,1516222855841,115
348,WS_SEND_START,1516222855842,115
348,WS_SEND_END,1516222855842,115
348,WS_RECV_START,1516222855842,116
348,WS_RECV_END,1516222861822,116
348,PLAYER_SLEEPBEFORE_START,1516222861822,117
348,PLAYER_SLEEPBEFORE_END,1516222882182,117
348,WS_SEND_START,1516222882182,117
348,WS_SEND_END,1516222882182,117
348,PLAYER_SLEEPBEFORE_START,1516222882182,118
348,PLAYER_SLEEPBEFORE_END,1516222885935,118
348,WS_SEND_START,1516222885935,118
348,WS_SEND_END,1516222885935,118
348,WS_RECV_START,1516222885935,119
348,WS_RECV_END,1516222890368,119
348,PLAYER_SLEEPBEFORE_START,1516222890368,120
348,PLAYER_SLEEPBEFORE_END,1516222891356,120
348,WS_SEND_START,1516222891356,120
348,WS_SEND_END,1516222891356,120
348,WS_RECV_START,1516222891356,121
348,WS_RECV_END,1516222900805,121
348,PLAYER_SLEEPBEFORE_START,1516222900805,122
348,PLAYER_SLEEPBEFORE_END,1516222901990,122
348,WS_SEND_START,1516222901990,122
348,WS_SEND_END,1516222901990,122
348,WS_RECV_START,1516222901990,123
348,WS_RECV_END,1516222905966,123
348,PLAYER_SLEEPBEFORE_START,1516222905966,124
348,PLAYER_SLEEPBEFORE_END,1516222930371,124
348,WS_SEND_START,1516222930371,124
348,WS_SEND_END,1516222930371,124
348,WS_RECV_START,1516222930371,125
348,WS_RECV_END,1516222940092,125
348,PLAYER_SLEEPBEFORE_START,1516222940092,126
348,PLAYER_SLEEPBEFORE_END,1516222960604,126
348,WS_SEND_START,1516222960604,126
348,WS_SEND_END,1516222960604,126
348,PLAYER_SLEEPBEFORE_START,1516222960604,127
348,PLAYER_SLEEPBEFORE_END,1516222963658,127
348,WS_SEND_START,1516222963658,127
348,WS_SEND_END,1516222963658,127
348,WS_RECV_START,1516222963658,128
348,WS_RECV_END,1516222968351,128
348,PLAYER_SLEEPBEFORE_START,1516222968351,129
348,PLAYER_SLEEPBEFORE_END,1516222968372,129
348,WS_SEND_START,1516222968372,129
348,WS_SEND_END,1516222968372,129
348,WS_RECV_START,1516222968372,130
348,WS_RECV_END,1516222971929,130
348,PLAYER_SLEEPBEFORE_START,1516222971929,131
348,PLAYER_SLEEPBEFORE_END,1516222993553,131
348,WS_SEND_START,1516222993553,131
348,WS_SEND_END,1516222993553,131
348,PLAYER_SLEEPBEFORE_START,1516222993553,132
348,PLAYER_SLEEPBEFORE_END,1516222996633,132
348,WS_SEND_START,1516222996634,132
348,WS_SEND_END,1516222996634,132
348,WS_RECV_START,1516222996634,133
348,WS_RECV_END,1516223000629,133
348,PLAYER_SLEEPBEFORE_START,1516223000629,134
348,PLAYER_SLEEPBEFORE_END,1516223021846,134
348,WS_SEND_START,1516223021846,134
348,WS_SEND_END,1516223021846,134
348,PLAYER_SLEEPBEFORE_START,1516223021846,135
348,PLAYER_SLEEPBEFORE_END,1516223025036,135
348,WS_SEND_START,1516223025037,135
348,WS_SEND_END,1516223025037,135
348,WS_RECV_START,1516223025037,136
348,WS_RECV_END,1516223029109,136
348,PLAYER_SLEEPBEFORE_START,1516223029109,137
348,PLAYER_SLEEPBEFORE_END,1516223029116,137
348,WS_SEND_START,1516223029116,137
348,WS_SEND_END,1516223029117,137
348,WS_RECV_START,1516223029117,138
348,WS_RECV_END,1516223033429,138
348,PLAYER_SLEEPBEFORE_START,1516223033429,139
348,PLAYER_SLEEPBEFORE_END,1516223034119,139
348,WS_SEND_START,1516223034119,139
348,WS_SEND_END,1516223034119,139
348,WS_RECV_START,1516223034119,140
348,WS_RECV_END,1516223038407,140
348,PLAYER_SLEEPBEFORE_START,1516223038407,141
348,PLAYER_SLEEPBEFORE_END,1516223039062,141
348,WS_SEND_START,1516223039062,141
348,WS_SEND_END,1516223039062,141
348,WS_RECV_START,1516223039062,142
348,WS_RECV_END,1516223043417,142
348,PLAYER_SLEEPBEFORE_START,1516223043417,143
348,PLAYER_SLEEPBEFORE_END,1516223043474,143
348,WS_SEND_START,1516223043474,143
348,WS_SEND_END,1516223043474,143
348,WS_RECV_START,1516223043474,144
348,WS_RECV_END,1516223048993,144
348,PLAYER_SLEEPBEFORE_START,1516223048993,145
348,PLAYER_SLEEPBEFORE_END,1516223065055,145
348,REQ_START,1516223065055,145
348,REQ_END,1516223065063,145
348,PLAYER_SLEEPBEFORE_START,1516223065064,146
348,PLAYER_SLEEPBEFORE_END,1516223073941,146
348,WS_SEND_START,1516223073941,146
348,WS_SEND_END,1516223073941,146
348,WS_RECV_START,1516223073941,147
348,WS_RECV_END,1516223082739,147
348,PLAYER_SLEEPBEFORE_START,1516223082739,148
348,PLAYER_SLEEPBEFORE_END,1516223104661,148
348,WS_SEND_START,1516223104661,148
348,WS_SEND_END,1516223104662,148
348,PLAYER_SLEEPBEFORE_START,1516223104662,149
348,PLAYER_SLEEPBEFORE_END,1516223107090,149
348,WS_SEND_START,1516223107090,149
348,WS_SEND_END,1516223107090,149
348,WS_RECV_START,1516223107090,150
348,WS_RECV_END,1516223116300,150
348,PLAYER_SLEEPBEFORE_START,1516223116300,151
348,PLAYER_SLEEPBEFORE_END,1516223116510,151
348,WS_SEND_START,1516223116510,151
348,WS_SEND_END,1516223116510,151
348,WS_RECV_START,1516223116510,152
348,WS_RECV_END,1516223123169,152
348,PLAYER_SLEEPBEFORE_START,1516223123169,153
348,PLAYER_SLEEPBEFORE_END,1516223147096,153
348,WS_SEND_START,1516223147096,153
348,WS_SEND_END,1516223147096,153
348,WS_RECV_START,1516223147096,154
348,WS_RECV_END,1516223156317,154
348,PLAYER_SLEEPBEFORE_START,1516223156317,155
348,PLAYER_SLEEPBEFORE_END,1516223178875,155
348,WS_SEND_START,1516223178875,155
348,WS_SEND_END,1516223178875,155
348,PLAYER_SLEEPBEFORE_START,1516223178875,156
348,PLAYER_SLEEPBEFORE_END,1516223182149,156
348,WS_SEND_START,1516223182149,156
348,WS_SEND_END,1516223182149,156
348,WS_RECV_START,1516223182149,157
348,WS_RECV_END,1516223189312,157
348,PLAYER_SLEEPBEFORE_START,1516223189312,158
348,PLAYER_SLEEPBEFORE_END,1516223189322,158
348,WS_SEND_START,1516223189322,158
348,WS_SEND_END,1516223189322,158
348,WS_RECV_START,1516223189322,159
348,WS_RECV_END,1516223194460,159
348,PLAYER_SLEEPBEFORE_START,1516223194460,160
348,PLAYER_SLEEPBEFORE_END,1516223194635,160
348,WS_SEND_START,1516223194635,160
348,WS_SEND_END,1516223194635,160
348,WS_RECV_START,1516223194635,161
348,WS_RECV_END,1516223200561,161
348,PLAYER_SLEEPBEFORE_START,1516223200561,162
348,PLAYER_SLEEPBEFORE_END,1516223200586,162
348,WS_SEND_START,1516223200586,162
348,WS_SEND_END,1516223200586,162
348,WS_RECV_START,1516223200586,163
348,WS_RECV_END,1516223207023,163
348,PLAYER_SLEEPBEFORE_START,1516223207023,164
348,PLAYER_SLEEPBEFORE_END,1516223227835,164
348,WS_SEND_START,1516223227835,164
348,WS_SEND_END,1516223227835,164
348,WS_RECV_START,1516223227835,165
348,WS_RECV_END,1516223240096,165
348,PLAYER_SLEEPBEFORE_START,1516223240096,166
348,PLAYER_SLEEPBEFORE_END,1516223262551,166
348,WS_SEND_START,1516223262551,166
348,WS_SEND_END,1516223262551,166
348,WS_RECV_START,1516223262551,167
348,WS_RECV_END,1516223274311,167
348,PLAYER_SLEEPBEFORE_START,1516223274311,168
348,PLAYER_SLEEPBEFORE_END,1516223301668,168
348,WS_SEND_START,1516223301668,168
348,WS_SEND_END,1516223301668,168
348,WS_RECV_START,1516223301668,169
348,WS_RECV_END,1516223314743,169
348,PLAYER_SLEEPBEFORE_START,1516223314743,170
348,PLAYER_SLEEPBEFORE_END,1516223314752,170
348,WS_SEND_START,1516223314752,170
348,WS_SEND_END,1516223314752,170
348,WS_RECV_START,1516223314752,171
348,WS_RECV_END,1516223321886,171
348,PLAYER_SLEEPBEFORE_START,1516223321886,172
348,PLAYER_SLEEPBEFORE_END,1516223322255,172
348,WS_SEND_START,1516223322255,172
348,WS_SEND_END,1516223322255,172
348,WS_RECV_START,1516223322255,173
348,WS_RECV_END,1516223328735,173
348,PLAYER_SLEEPBEFORE_START,1516223328735,174
348,PLAYER_SLEEPBEFORE_END,1516223328776,174
348,WS_SEND_START,1516223328776,174
348,WS_SEND_END,1516223328776,174
348,WS_RECV_START,1516223328776,175
348,WS_RECV_END,1516223336716,175
348,PLAYER_SLEEPBEFORE_START,1516223336716,176
348,PLAYER_SLEEPBEFORE_END,1516223358477,176
348,WS_SEND_START,1516223358477,176
348,WS_SEND_END,1516223358477,176
348,PLAYER_SLEEPBEFORE_START,1516223358477,177
348,PLAYER_SLEEPBEFORE_END,1516223360995,177
348,WS_SEND_START,1516223360995,177
348,WS_SEND_END,1516223360995,177
348,WS_RECV_START,1516223360995,178
348,WS_RECV_END,1516223369001,178
348,PLAYER_SLEEPBEFORE_START,1516223369001,179
348,PLAYER_SLEEPBEFORE_END,1516223391342,179
348,WS_SEND_START,1516223391342,179
348,WS_SEND_END,1516223391342,179
348,WS_RECV_START,1516223391342,180
348,WS_RECV_END,1516223396003,180
348,PLAYER_SLEEPBEFORE_START,1516223396003,181
348,PLAYER_SLEEPBEFORE_END,1516223396447,181
348,WS_SEND_START,1516223396447,181
348,WS_SEND_END,1516223396447,181
348,WS_RECV_START,1516223396447,182
348,WS_RECV_END,1516223405396,182
348,PLAYER_SLEEPBEFORE_START,1516223405396,183
348,PLAYER_SLEEPBEFORE_END,1516223405919,183
348,WS_SEND_START,1516223405919,183
348,WS_SEND_END,1516223405919,183
348,WS_RECV_START,1516223405919,184
348,WS_RECV_END,1516223409638,184
348,PLAYER_SLEEPBEFORE_START,1516223409638,185
348,PLAYER_SLEEPBEFORE_END,1516223409906,185
348,WS_SEND_START,1516223409906,185
348,WS_SEND_END,1516223409906,185
348,WS_RECV_START,1516223409906,186
348,WS_RECV_END,1516223414809,186
348,PLAYER_SLEEPBEFORE_START,1516223414809,187
348,PLAYER_SLEEPBEFORE_END,1516223437309,187
348,WS_SEND_START,1516223437309,187
348,WS_SEND_END,1516223437309,187
348,WS_RECV_START,1516223437309,188
348,WS_RECV_END,1516223442656,188
348,PLAYER_SLEEPBEFORE_START,1516223442656,189
348,PLAYER_SLEEPBEFORE_END,1516223448896,189
348,WS_SEND_START,1516223448896,189
348,WS_SEND_END,1516223448896,189
348,WS_RECV_START,1516223448896,190
348,WS_RECV_END,1516223453033,190
348,PLAYER_SLEEPBEFORE_START,1516223453033,191
348,PLAYER_SLEEPBEFORE_END,1516223454948,191
348,WS_SEND_START,1516223454948,191
348,WS_SEND_END,1516223454948,191
348,WS_RECV_START,1516223454948,192
348,WS_RECV_END,1516223460066,192
348,PLAYER_SLEEPBEFORE_START,1516223460066,193
348,PLAYER_SLEEPBEFORE_END,1516223460194,193
348,WS_SEND_START,1516223460194,193
348,WS_SEND_END,1516223460194,193
348,WS_RECV_START,1516223460194,194
348,WS_RECV_END,1516223463341,194
348,PLAYER_SLEEPBEFORE_START,1516223463341,195
348,PLAYER_SLEEPBEFORE_END,1516223465096,195
348,WS_SEND_START,1516223465096,195
348,WS_SEND_END,1516223465096,195
348,WS_RECV_START,1516223465096,196
348,WS_RECV_END,1516223467510,196
348,PLAYER_SLEEPBEFORE_START,1516223467510,197
348,PLAYER_SLEEPBEFORE_END,1516223469314,197
348,WS_SEND_START,1516223469314,197
348,WS_SEND_END,1516223469314,197
348,WS_RECV_START,1516223469314,198
348,WS_RECV_END,1516223470396,198
348,PLAYER_SLEEPBEFORE_START,1516223470396,199
348,PLAYER_SLEEPBEFORE_END,1516223482250,199
348,WS_SEND_START,1516223482250,199
348,WS_SEND_END,1516223482250,199
348,PLAYER_SLEEPBEFORE_START,1516223482250,200
348,PLAYER_SLEEPBEFORE_END,1516223486339,200
348,WS_SEND_START,1516223486339,200
348,WS_SEND_END,1516223486339,200
348,WS_RECV_START,1516223486339,201
348,WS_RECV_END,1516223489426,201
348,PLAYER_SLEEPBEFORE_START,1516223489426,202
348,PLAYER_SLEEPBEFORE_END,1516223489440,202
348,WS_SEND_START,1516223489440,202
348,WS_SEND_END,1516223489440,202
348,WS_RECV_START,1516223489440,203
348,WS_RECV_END,1516223490812,203
348,PLAYER_SLEEPBEFORE_START,1516223490812,204
348,PLAYER_SLEEPBEFORE_END,1516223510461,204
348,WS_SEND_START,1516223510461,204
348,WS_SEND_END,1516223510461,204
348,PLAYER_SLEEPBEFORE_START,1516223510461,205
348,PLAYER_SLEEPBEFORE_END,1516223514359,205
348,WS_SEND_START,1516223514359,205
348,WS_SEND_END,1516223514359,205
348,WS_RECV_START,1516223514359,206
348,WS_RECV_END,1516223514923,206
348,PLAYER_SLEEPBEFORE_START,1516223514923,207
348,PLAYER_SLEEPBEFORE_END,1516223531854,207
348,REQ_START,1516223531854,207
348,REQ_END,1516223531862,207
348,PLAYER_SLEEPBEFORE_START,1516223531862,208
348,PLAYER_SLEEPBEFORE_END,1516223538714,208
348,WS_CLOSE_START,1516223538714,208
348,WS_CLOSE_END,1516223538714,208
348,PLAYER_DONE,1516223538714
