# --sessions 720 --app-url=http://shinyloadtest.rstudioservices.com/cran_explorer --output-dir test720 --overwrite-output --log-level warn --start-interval 500 15min.log
thread_id,event,timestamp,input_line_number,comment
394,PLAYER_SESSION_CREATE,1516222120198
394,PLAYER_START_INTERVAL_START,1516222120198
394,PLAYER_START_INTERVAL_END,1516222317198
394,REQ_HOME_START,1516222317198,2
394,REQ_HOME_END,1516222317389,2
394,REQ_START,1516222317389,3
394,REQ_END,1516222317457,3
394,REQ_START,1516222317457,4
394,REQ_END,1516222317527,4
394,REQ_START,1516222317527,5
394,REQ_END,1516222317564,5
394,REQ_START,1516222317564,6
394,REQ_END,1516222317600,6
394,REQ_START,1516222317600,7
394,REQ_END,1516222317634,7
394,REQ_START,1516222317634,8
394,REQ_END,1516222317669,8
394,REQ_START,1516222317669,9
394,REQ_END,1516222317706,9
394,REQ_START,1516222317706,10
394,REQ_END,1516222317714,10
394,REQ_START,1516222317714,11
394,REQ_END,1516222317744,11
394,REQ_START,1516222317744,12
394,REQ_END,1516222317754,12
394,REQ_START,1516222317754,13
394,REQ_END,1516222317785,13
394,REQ_START,1516222317785,14
394,REQ_END,1516222317800,14
394,REQ_START,1516222317800,15
394,REQ_END,1516222317836,15
394,REQ_TOK_START,1516222317836,16
394,REQ_TOK_END,1516222317843,16
394,REQ_SINF_START,1516222317843,17
394,REQ_SINF_END,1516222317851,17
394,WS_OPEN_START,1516222317851,18
394,WS_OPEN_END,1516222317858,18
394,REQ_START,1516222317858,19
394,REQ_END,1516222318253,19
394,WS_RECV_START,1516222318253,20
394,WS_RECV_END,1516222318253,20
394,PLAYER_SLEEPBEFORE_START,1516222318253,21
394,PLAYER_SLEEPBEFORE_END,1516222318258,21
394,WS_SEND_START,1516222318258,21
394,WS_SEND_END,1516222318258,21
394,PLAYER_SLEEPBEFORE_START,1516222318258,22
394,PLAYER_SLEEPBEFORE_END,1516222318259,22
394,WS_SEND_START,1516222318259,22
394,WS_SEND_END,1516222318259,22
394,WS_RECV_INIT_START,1516222318259,23
394,WS_RECV_INIT_END,1516222318278,23
394,WS_RECV_START,1516222318278,24
394,WS_RECV_END,1516222318348,24
394,PLAYER_SLEEPBEFORE_START,1516222318348,25
394,PLAYER_SLEEPBEFORE_END,1516222318355,25
394,REQ_START,1516222318355,25
394,REQ_END,1516222318387,25
394,PLAYER_SLEEPBEFORE_START,1516222318387,26
394,PLAYER_SLEEPBEFORE_END,1516222318388,26
394,REQ_START,1516222318388,26
394,REQ_END,1516222318420,26
394,PLAYER_SLEEPBEFORE_START,1516222318420,27
394,PLAYER_SLEEPBEFORE_END,1516222318423,27
394,REQ_START,1516222318423,27
394,REQ_END,1516222318520,27
394,PLAYER_SLEEPBEFORE_START,1516222318520,28
394,PLAYER_SLEEPBEFORE_END,1516222318806,28
394,REQ_START,1516222318806,28
394,REQ_END,1516222319083,28
394,PLAYER_SLEEPBEFORE_START,1516222319083,29
394,PLAYER_SLEEPBEFORE_END,1516222319258,29
394,WS_SEND_START,1516222319258,29
394,WS_SEND_END,1516222319258,29
394,WS_RECV_START,1516222319258,30
394,WS_RECV_END,1516222319419,30
394,PLAYER_SLEEPBEFORE_START,1516222319419,31
394,PLAYER_SLEEPBEFORE_END,1516222319430,31
394,REQ_START,1516222319430,31
394,REQ_END,1516222319477,31
394,PLAYER_SLEEPBEFORE_START,1516222319477,32
394,PLAYER_SLEEPBEFORE_END,1516222347622,32
394,WS_SEND_START,1516222347622,32
394,WS_SEND_END,1516222347622,32
394,WS_RECV_START,1516222347622,33
394,WS_RECV_END,1516222347820,33
394,PLAYER_SLEEPBEFORE_START,1516222347820,34
394,PLAYER_SLEEPBEFORE_END,1516222373731,34
394,WS_SEND_START,1516222373732,34
394,WS_SEND_END,1516222373732,34
394,WS_RECV_START,1516222373732,35
394,WS_RECV_END,1516222373811,35
394,PLAYER_SLEEPBEFORE_START,1516222373811,36
394,PLAYER_SLEEPBEFORE_END,1516222373820,36
394,WS_SEND_START,1516222373820,36
394,WS_SEND_END,1516222373820,36
394,WS_RECV_START,1516222373820,37
394,WS_RECV_END,1516222373908,37
394,PLAYER_SLEEPBEFORE_START,1516222373908,38
394,PLAYER_SLEEPBEFORE_END,1516222377103,38
394,WS_SEND_START,1516222377103,38
394,WS_SEND_END,1516222377103,38
394,WS_RECV_START,1516222377103,39
394,WS_RECV_END,1516222377823,39
394,PLAYER_SLEEPBEFORE_START,1516222377823,40
394,PLAYER_SLEEPBEFORE_END,1516222377869,40
394,WS_SEND_START,1516222377869,40
394,WS_SEND_END,1516222377869,40
394,WS_RECV_START,1516222377869,41
394,WS_RECV_END,1516222378061,41
394,PLAYER_SLEEPBEFORE_START,1516222378061,42
394,PLAYER_SLEEPBEFORE_END,1516222396196,42
394,WS_SEND_START,1516222396196,42
394,WS_SEND_END,1516222396196,42
394,WS_RECV_START,1516222396196,43
394,WS_RECV_END,1516222396495,43
394,PLAYER_SLEEPBEFORE_START,1516222396495,44
394,PLAYER_SLEEPBEFORE_END,1516222396507,44
394,WS_SEND_START,1516222396507,44
394,WS_SEND_END,1516222396507,44
394,WS_RECV_START,1516222396507,45
394,WS_RECV_END,1516222397165,45
394,PLAYER_SLEEPBEFORE_START,1516222397165,46
394,PLAYER_SLEEPBEFORE_END,1516222398425,46
394,WS_SEND_START,1516222398425,46
394,WS_SEND_END,1516222398425,46
394,WS_RECV_START,1516222398425,47
394,WS_RECV_END,1516222398789,47
394,PLAYER_SLEEPBEFORE_START,1516222398789,48
394,PLAYER_SLEEPBEFORE_END,1516222400109,48
394,WS_SEND_START,1516222400109,48
394,WS_SEND_END,1516222400109,48
394,WS_RECV_START,1516222400109,49
394,WS_RECV_END,1516222401483,49
394,PLAYER_SLEEPBEFORE_START,1516222401483,50
394,PLAYER_SLEEPBEFORE_END,1516222401507,50
394,WS_SEND_START,1516222401507,50
394,WS_SEND_END,1516222401507,50
394,WS_RECV_START,1516222401507,51
394,WS_RECV_END,1516222401836,51
394,PLAYER_SLEEPBEFORE_START,1516222401836,52
394,PLAYER_SLEEPBEFORE_END,1516222424400,52
394,WS_SEND_START,1516222424400,52
394,WS_SEND_END,1516222424400,52
394,WS_RECV_START,1516222424400,53
394,WS_RECV_END,1516222424943,53
394,PLAYER_SLEEPBEFORE_START,1516222424943,54
394,PLAYER_SLEEPBEFORE_END,1516222446246,54
394,WS_SEND_START,1516222446246,54
394,WS_SEND_END,1516222446246,54
394,PLAYER_SLEEPBEFORE_START,1516222446246,55
394,PLAYER_SLEEPBEFORE_END,1516222448187,55
394,WS_SEND_START,1516222448187,55
394,WS_SEND_END,1516222448187,55
394,WS_RECV_START,1516222448187,56
394,WS_RECV_END,1516222450415,56
394,PLAYER_SLEEPBEFORE_START,1516222450415,57
394,PLAYER_SLEEPBEFORE_END,1516222473287,57
394,WS_SEND_START,1516222473287,57
394,WS_SEND_END,1516222473287,57
394,WS_RECV_START,1516222473287,58
394,WS_RECV_END,1516222475340,58
394,PLAYER_SLEEPBEFORE_START,1516222475340,59
394,PLAYER_SLEEPBEFORE_END,1516222477667,59
394,WS_SEND_START,1516222477667,59
394,WS_SEND_END,1516222477668,59
394,WS_RECV_START,1516222477668,60
394,WS_RECV_END,1516222479241,60
394,PLAYER_SLEEPBEFORE_START,1516222479241,61
394,PLAYER_SLEEPBEFORE_END,1516222482832,61
394,WS_SEND_START,1516222482832,61
394,WS_SEND_END,1516222482832,61
394,WS_RECV_START,1516222482832,62
394,WS_RECV_END,1516222485250,62
394,PLAYER_SLEEPBEFORE_START,1516222485250,63
394,PLAYER_SLEEPBEFORE_END,1516222504512,63
394,WS_SEND_START,1516222504512,63
394,WS_SEND_END,1516222504512,63
394,WS_RECV_START,1516222504512,64
394,WS_RECV_END,1516222507831,64
394,PLAYER_SLEEPBEFORE_START,1516222507831,65
394,PLAYER_SLEEPBEFORE_END,1516222534648,65
394,WS_SEND_START,1516222534648,65
394,WS_SEND_END,1516222534648,65
394,WS_RECV_START,1516222534648,66
394,WS_RECV_END,1516222538864,66
394,PLAYER_SLEEPBEFORE_START,1516222538864,67
394,PLAYER_SLEEPBEFORE_END,1516222540371,67
394,WS_SEND_START,1516222540371,67
394,WS_SEND_END,1516222540371,67
394,WS_RECV_START,1516222540371,68
394,WS_RECV_END,1516222544724,68
394,PLAYER_SLEEPBEFORE_START,1516222544724,69
394,PLAYER_SLEEPBEFORE_END,1516222566722,69
394,WS_SEND_START,1516222566722,69
394,WS_SEND_END,1516222566722,69
394,WS_RECV_START,1516222566722,70
394,WS_RECV_END,1516222570906,70
394,PLAYER_SLEEPBEFORE_START,1516222570906,71
394,PLAYER_SLEEPBEFORE_END,1516222595681,71
394,WS_SEND_START,1516222595681,71
394,WS_SEND_END,1516222595681,71
394,PLAYER_SLEEPBEFORE_START,1516222595681,72
394,PLAYER_SLEEPBEFORE_END,1516222598288,72
394,WS_SEND_START,1516222598288,72
394,WS_SEND_END,1516222598288,72
394,WS_RECV_START,1516222598288,73
394,WS_RECV_END,1516222600127,73
394,PLAYER_SLEEPBEFORE_START,1516222600127,74
394,PLAYER_SLEEPBEFORE_END,1516222600136,74
394,WS_SEND_START,1516222600136,74
394,WS_SEND_END,1516222600136,74
394,WS_RECV_START,1516222600136,75
394,WS_RECV_END,1516222603322,75
394,PLAYER_SLEEPBEFORE_START,1516222603322,76
394,PLAYER_SLEEPBEFORE_END,1516222604828,76
394,WS_SEND_START,1516222604828,76
394,WS_SEND_END,1516222604828,76
394,WS_RECV_START,1516222604828,77
394,WS_RECV_END,1516222607210,77
394,PLAYER_SLEEPBEFORE_START,1516222607210,78
394,PLAYER_SLEEPBEFORE_END,1516222608078,78
394,WS_SEND_START,1516222608078,78
394,WS_SEND_END,1516222608078,78
394,WS_RECV_START,1516222608078,79
394,WS_RECV_END,1516222610282,79
394,PLAYER_SLEEPBEFORE_START,1516222610282,80
394,PLAYER_SLEEPBEFORE_END,1516222617948,80
394,WS_SEND_START,1516222617948,80
394,WS_SEND_END,1516222617948,80
394,WS_RECV_START,1516222617948,81
394,WS_RECV_END,1516222621640,81
394,PLAYER_SLEEPBEFORE_START,1516222621640,82
394,PLAYER_SLEEPBEFORE_END,1516222622742,82
394,WS_SEND_START,1516222622742,82
394,WS_SEND_END,1516222622742,82
394,WS_RECV_START,1516222622742,83
394,WS_RECV_END,1516222624378,83
394,PLAYER_SLEEPBEFORE_START,1516222624378,84
394,PLAYER_SLEEPBEFORE_END,1516222625325,84
394,WS_SEND_START,1516222625325,84
394,WS_SEND_END,1516222625325,84
394,WS_RECV_START,1516222625325,85
394,WS_RECV_END,1516222628122,85
394,PLAYER_SLEEPBEFORE_START,1516222628122,86
394,PLAYER_SLEEPBEFORE_END,1516222632294,86
394,WS_SEND_START,1516222632294,86
394,WS_SEND_END,1516222632294,86
394,WS_RECV_START,1516222632294,87
394,WS_RECV_END,1516222633090,87
394,PLAYER_SLEEPBEFORE_START,1516222633090,88
394,PLAYER_SLEEPBEFORE_END,1516222633098,88
394,WS_SEND_START,1516222633098,88
394,WS_SEND_END,1516222633098,88
394,WS_RECV_START,1516222633098,89
394,WS_RECV_END,1516222638169,89
394,PLAYER_SLEEPBEFORE_START,1516222638169,90
394,PLAYER_SLEEPBEFORE_END,1516222665366,90
394,REQ_START,1516222665366,90
394,REQ_END,1516222665374,90
394,PLAYER_SLEEPBEFORE_START,1516222665374,91
394,PLAYER_SLEEPBEFORE_END,1516222673263,91
394,WS_SEND_START,1516222673263,91
394,WS_SEND_END,1516222673263,91
394,WS_RECV_START,1516222673263,92
394,WS_RECV_END,1516222682884,92
394,PLAYER_SLEEPBEFORE_START,1516222682884,93
394,PLAYER_SLEEPBEFORE_END,1516222682899,93
394,WS_SEND_START,1516222682899,93
394,WS_SEND_END,1516222682899,93
394,WS_RECV_START,1516222682899,94
394,WS_RECV_END,1516222687712,94
394,PLAYER_SLEEPBEFORE_START,1516222687712,95
394,PLAYER_SLEEPBEFORE_END,1516222711267,95
394,WS_SEND_START,1516222711267,95
394,WS_SEND_END,1516222711267,95
394,WS_RECV_START,1516222711267,96
394,WS_RECV_END,1516222718578,96
394,PLAYER_SLEEPBEFORE_START,1516222718578,97
394,PLAYER_SLEEPBEFORE_END,1516222741018,97
394,WS_SEND_START,1516222741018,97
394,WS_SEND_END,1516222741018,97
394,WS_RECV_START,1516222741018,98
394,WS_RECV_END,1516222749170,98
394,PLAYER_SLEEPBEFORE_START,1516222749170,99
394,PLAYER_SLEEPBEFORE_END,1516222749191,99
394,WS_SEND_START,1516222749191,99
394,WS_SEND_END,1516222749191,99
394,WS_RECV_START,1516222749191,100
394,WS_RECV_END,1516222753929,100
394,PLAYER_SLEEPBEFORE_START,1516222753929,101
394,PLAYER_SLEEPBEFORE_END,1516222777488,101
394,WS_SEND_START,1516222777488,101
394,WS_SEND_END,1516222777488,101
394,WS_RECV_START,1516222777488,102
394,WS_RECV_END,1516222785349,102
394,PLAYER_SLEEPBEFORE_START,1516222785349,103
394,PLAYER_SLEEPBEFORE_END,1516222808974,103
394,WS_SEND_START,1516222808974,103
394,WS_SEND_END,1516222808974,103
394,WS_RECV_START,1516222808974,104
394,WS_RECV_END,1516222816187,104
394,PLAYER_SLEEPBEFORE_START,1516222816187,105
394,PLAYER_SLEEPBEFORE_END,1516222841564,105
394,WS_SEND_START,1516222841564,105
394,WS_SEND_END,1516222841564,105
394,WS_RECV_START,1516222841564,106
394,WS_RECV_END,1516222848795,106
394,PLAYER_SLEEPBEFORE_START,1516222848795,107
394,PLAYER_SLEEPBEFORE_END,1516222872218,107
394,WS_SEND_START,1516222872218,107
394,WS_SEND_END,1516222872219,107
394,WS_RECV_START,1516222872219,108
394,WS_RECV_END,1516222879574,108
394,PLAYER_SLEEPBEFORE_START,1516222879574,109
394,PLAYER_SLEEPBEFORE_END,1516222879583,109
394,WS_SEND_START,1516222879583,109
394,WS_SEND_END,1516222879583,109
394,WS_RECV_START,1516222879583,110
394,WS_RECV_END,1516222882537,110
394,PLAYER_SLEEPBEFORE_START,1516222882537,111
394,PLAYER_SLEEPBEFORE_END,1516222883496,111
394,WS_SEND_START,1516222883496,111
394,WS_SEND_END,1516222883496,111
394,WS_RECV_START,1516222883496,112
394,WS_RECV_END,1516222887993,112
394,PLAYER_SLEEPBEFORE_START,1516222887993,113
394,PLAYER_SLEEPBEFORE_END,1516222888555,113
394,WS_SEND_START,1516222888555,113
394,WS_SEND_END,1516222888555,113
394,WS_RECV_START,1516222888555,114
394,WS_RECV_END,1516222894666,114
394,PLAYER_SLEEPBEFORE_START,1516222894666,115
394,PLAYER_SLEEPBEFORE_END,1516222894675,115
394,WS_SEND_START,1516222894675,115
394,WS_SEND_END,1516222894675,115
394,WS_RECV_START,1516222894675,116
394,WS_RECV_END,1516222901078,116
394,PLAYER_SLEEPBEFORE_START,1516222901078,117
394,PLAYER_SLEEPBEFORE_END,1516222921438,117
394,WS_SEND_START,1516222921438,117
394,WS_SEND_END,1516222921438,117
394,PLAYER_SLEEPBEFORE_START,1516222921438,118
394,PLAYER_SLEEPBEFORE_END,1516222925190,118
394,WS_SEND_START,1516222925190,118
394,WS_SEND_END,1516222925190,118
394,WS_RECV_START,1516222925190,119
394,WS_RECV_END,1516222930583,119
394,PLAYER_SLEEPBEFORE_START,1516222930583,120
394,PLAYER_SLEEPBEFORE_END,1516222931572,120
394,WS_SEND_START,1516222931572,120
394,WS_SEND_END,1516222931572,120
394,WS_RECV_START,1516222931572,121
394,WS_RECV_END,1516222941386,121
394,PLAYER_SLEEPBEFORE_START,1516222941386,122
394,PLAYER_SLEEPBEFORE_END,1516222942571,122
394,WS_SEND_START,1516222942571,122
394,WS_SEND_END,1516222942571,122
394,WS_RECV_START,1516222942571,123
394,WS_RECV_END,1516222946292,123
394,PLAYER_SLEEPBEFORE_START,1516222946292,124
394,PLAYER_SLEEPBEFORE_END,1516222970698,124
394,WS_SEND_START,1516222970698,124
394,WS_SEND_END,1516222970698,124
394,WS_RECV_START,1516222970698,125
394,WS_RECV_END,1516222976294,125
394,PLAYER_SLEEPBEFORE_START,1516222976294,126
394,PLAYER_SLEEPBEFORE_END,1516222996806,126
394,WS_SEND_START,1516222996806,126
394,WS_SEND_END,1516222996806,126
394,PLAYER_SLEEPBEFORE_START,1516222996806,127
394,PLAYER_SLEEPBEFORE_END,1516222999860,127
394,WS_SEND_START,1516222999860,127
394,WS_SEND_END,1516222999860,127
394,WS_RECV_START,1516222999860,128
394,WS_RECV_END,1516223005736,128
394,PLAYER_SLEEPBEFORE_START,1516223005736,129
394,PLAYER_SLEEPBEFORE_END,1516223005757,129
394,WS_SEND_START,1516223005757,129
394,WS_SEND_END,1516223005757,129
394,WS_RECV_START,1516223005757,130
394,WS_RECV_END,1516223009896,130
394,PLAYER_SLEEPBEFORE_START,1516223009896,131
394,PLAYER_SLEEPBEFORE_END,1516223031520,131
394,WS_SEND_START,1516223031520,131
394,WS_SEND_END,1516223031520,131
394,PLAYER_SLEEPBEFORE_START,1516223031520,132
394,PLAYER_SLEEPBEFORE_END,1516223034600,132
394,WS_SEND_START,1516223034600,132
394,WS_SEND_END,1516223034601,132
394,WS_RECV_START,1516223034601,133
394,WS_RECV_END,1516223038975,133
394,PLAYER_SLEEPBEFORE_START,1516223038975,134
394,PLAYER_SLEEPBEFORE_END,1516223060192,134
394,WS_SEND_START,1516223060192,134
394,WS_SEND_END,1516223060192,134
394,PLAYER_SLEEPBEFORE_START,1516223060192,135
394,PLAYER_SLEEPBEFORE_END,1516223063383,135
394,WS_SEND_START,1516223063383,135
394,WS_SEND_END,1516223063383,135
394,WS_RECV_START,1516223063383,136
394,WS_RECV_END,1516223069289,136
394,PLAYER_SLEEPBEFORE_START,1516223069289,137
394,PLAYER_SLEEPBEFORE_END,1516223069297,137
394,WS_SEND_START,1516223069297,137
394,WS_SEND_END,1516223069297,137
394,WS_RECV_START,1516223069297,138
394,WS_RECV_END,1516223074489,138
394,PLAYER_SLEEPBEFORE_START,1516223074489,139
394,PLAYER_SLEEPBEFORE_END,1516223075180,139
394,WS_SEND_START,1516223075180,139
394,WS_SEND_END,1516223075180,139
394,WS_RECV_START,1516223075180,140
394,WS_RECV_END,1516223080161,140
394,PLAYER_SLEEPBEFORE_START,1516223080161,141
394,PLAYER_SLEEPBEFORE_END,1516223080816,141
394,WS_SEND_START,1516223080816,141
394,WS_SEND_END,1516223080816,141
394,WS_RECV_START,1516223080816,142
394,WS_RECV_END,1516223086806,142
394,PLAYER_SLEEPBEFORE_START,1516223086806,143
394,PLAYER_SLEEPBEFORE_END,1516223086863,143
394,WS_SEND_START,1516223086863,143
394,WS_SEND_END,1516223086863,143
394,WS_RECV_START,1516223086863,144
394,WS_RECV_END,1516223093319,144
394,PLAYER_SLEEPBEFORE_START,1516223093319,145
394,PLAYER_SLEEPBEFORE_END,1516223109381,145
394,REQ_START,1516223109381,145
394,REQ_END,1516223109388,145
394,PLAYER_SLEEPBEFORE_START,1516223109388,146
394,PLAYER_SLEEPBEFORE_END,1516223118266,146
394,WS_SEND_START,1516223118266,146
394,WS_SEND_END,1516223118266,146
394,WS_RECV_START,1516223118266,147
394,WS_RECV_END,1516223126386,147
394,PLAYER_SLEEPBEFORE_START,1516223126386,148
394,PLAYER_SLEEPBEFORE_END,1516223148308,148
394,WS_SEND_START,1516223148308,148
394,WS_SEND_END,1516223148308,148
394,PLAYER_SLEEPBEFORE_START,1516223148308,149
394,PLAYER_SLEEPBEFORE_END,1516223150736,149
394,WS_SEND_START,1516223150736,149
394,WS_SEND_END,1516223150736,149
394,WS_RECV_START,1516223150736,150
394,WS_RECV_END,1516223156674,150
394,PLAYER_SLEEPBEFORE_START,1516223156674,151
394,PLAYER_SLEEPBEFORE_END,1516223156884,151
394,WS_SEND_START,1516223156884,151
394,WS_SEND_END,1516223156884,151
394,WS_RECV_START,1516223156884,152
394,WS_RECV_END,1516223162628,152
394,PLAYER_SLEEPBEFORE_START,1516223162628,153
394,PLAYER_SLEEPBEFORE_END,1516223186555,153
394,WS_SEND_START,1516223186555,153
394,WS_SEND_END,1516223186555,153
394,WS_RECV_START,1516223186555,154
394,WS_RECV_END,1516223195651,154
394,PLAYER_SLEEPBEFORE_START,1516223195651,155
394,PLAYER_SLEEPBEFORE_END,1516223218209,155
394,WS_SEND_START,1516223218209,155
394,WS_SEND_END,1516223218209,155
394,PLAYER_SLEEPBEFORE_START,1516223218209,156
394,PLAYER_SLEEPBEFORE_END,1516223221483,156
394,WS_SEND_START,1516223221483,156
394,WS_SEND_END,1516223221483,156
394,WS_RECV_START,1516223221483,157
394,WS_RECV_END,1516223229946,157
394,PLAYER_SLEEPBEFORE_START,1516223229946,158
394,PLAYER_SLEEPBEFORE_END,1516223229956,158
394,WS_SEND_START,1516223229956,158
394,WS_SEND_END,1516223229956,158
394,WS_RECV_START,1516223229956,159
394,WS_RECV_END,1516223236990,159
394,PLAYER_SLEEPBEFORE_START,1516223236990,160
394,PLAYER_SLEEPBEFORE_END,1516223237165,160
394,WS_SEND_START,1516223237165,160
394,WS_SEND_END,1516223237165,160
394,WS_RECV_START,1516223237165,161
394,WS_RECV_END,1516223245502,161
394,PLAYER_SLEEPBEFORE_START,1516223245502,162
394,PLAYER_SLEEPBEFORE_END,1516223245527,162
394,WS_SEND_START,1516223245527,162
394,WS_SEND_END,1516223245527,162
394,WS_RECV_START,1516223245527,163
394,WS_RECV_END,1516223252751,163
394,PLAYER_SLEEPBEFORE_START,1516223252751,164
394,PLAYER_SLEEPBEFORE_END,1516223273563,164
394,WS_SEND_START,1516223273563,164
394,WS_SEND_END,1516223273563,164
394,WS_RECV_START,1516223273563,165
394,WS_RECV_END,1516223284867,165
394,PLAYER_SLEEPBEFORE_START,1516223284867,166
394,PLAYER_SLEEPBEFORE_END,1516223307322,166
394,WS_SEND_START,1516223307322,166
394,WS_SEND_END,1516223307322,166
394,WS_RECV_START,1516223307322,167
394,WS_RECV_END,1516223321436,167
394,PLAYER_SLEEPBEFORE_START,1516223321436,168
394,PLAYER_SLEEPBEFORE_END,1516223348793,168
394,WS_SEND_START,1516223348793,168
394,WS_SEND_END,1516223348793,168
394,WS_RECV_START,1516223348793,169
394,WS_RECV_END,1516223360135,169
394,PLAYER_SLEEPBEFORE_START,1516223360135,170
394,PLAYER_SLEEPBEFORE_END,1516223360144,170
394,WS_SEND_START,1516223360144,170
394,WS_SEND_END,1516223360144,170
394,WS_RECV_START,1516223360144,171
394,WS_RECV_END,1516223366484,171
394,PLAYER_SLEEPBEFORE_START,1516223366484,172
394,PLAYER_SLEEPBEFORE_END,1516223366853,172
394,WS_SEND_START,1516223366853,172
394,WS_SEND_END,1516223366853,172
394,WS_RECV_START,1516223366853,173
394,WS_RECV_END,1516223371748,173
394,PLAYER_SLEEPBEFORE_START,1516223371748,174
394,PLAYER_SLEEPBEFORE_END,1516223371789,174
394,WS_SEND_START,1516223371789,174
394,WS_SEND_END,1516223371789,174
394,WS_RECV_START,1516223371789,175
394,WS_RECV_END,1516223377821,175
394,PLAYER_SLEEPBEFORE_START,1516223377821,176
394,PLAYER_SLEEPBEFORE_END,1516223399582,176
394,WS_SEND_START,1516223399582,176
394,WS_SEND_END,1516223399582,176
394,PLAYER_SLEEPBEFORE_START,1516223399582,177
394,PLAYER_SLEEPBEFORE_END,1516223402100,177
394,WS_SEND_START,1516223402100,177
394,WS_SEND_END,1516223402100,177
394,WS_RECV_START,1516223402100,178
394,WS_RECV_END,1516223410118,178
394,PLAYER_SLEEPBEFORE_START,1516223410118,179
394,PLAYER_SLEEPBEFORE_END,1516223432459,179
394,WS_SEND_START,1516223432459,179
394,WS_SEND_END,1516223432459,179
394,WS_RECV_START,1516223432459,180
394,WS_RECV_END,1516223438974,180
394,PLAYER_SLEEPBEFORE_START,1516223438974,181
394,PLAYER_SLEEPBEFORE_END,1516223439418,181
394,WS_SEND_START,1516223439418,181
394,WS_SEND_END,1516223439418,181
394,WS_RECV_START,1516223439418,182
394,WS_RECV_END,1516223442081,182
394,PLAYER_SLEEPBEFORE_START,1516223442081,183
394,PLAYER_SLEEPBEFORE_END,1516223442604,183
394,WS_SEND_START,1516223442604,183
394,WS_SEND_END,1516223442604,183
394,WS_RECV_START,1516223442604,184
394,WS_RECV_END,1516223444939,184
394,PLAYER_SLEEPBEFORE_START,1516223444939,185
394,PLAYER_SLEEPBEFORE_END,1516223445207,185
394,WS_SEND_START,1516223445207,185
394,WS_SEND_END,1516223445207,185
394,WS_RECV_START,1516223445207,186
394,WS_RECV_END,1516223449247,186
394,PLAYER_SLEEPBEFORE_START,1516223449247,187
394,PLAYER_SLEEPBEFORE_END,1516223471747,187
394,WS_SEND_START,1516223471747,187
394,WS_SEND_END,1516223471747,187
394,WS_RECV_START,1516223471747,188
394,WS_RECV_END,1516223475892,188
394,PLAYER_SLEEPBEFORE_START,1516223475892,189
394,PLAYER_SLEEPBEFORE_END,1516223482131,189
394,WS_SEND_START,1516223482131,189
394,WS_SEND_END,1516223482131,189
394,WS_RECV_START,1516223482131,190
394,WS_RECV_END,1516223484745,190
394,PLAYER_SLEEPBEFORE_START,1516223484745,191
394,PLAYER_SLEEPBEFORE_END,1516223486660,191
394,WS_SEND_START,1516223486660,191
394,WS_SEND_END,1516223486661,191
394,WS_RECV_START,1516223486661,192
394,WS_RECV_END,1516223489342,192
394,PLAYER_SLEEPBEFORE_START,1516223489342,193
394,PLAYER_SLEEPBEFORE_END,1516223489470,193
394,WS_SEND_START,1516223489470,193
394,WS_SEND_END,1516223489470,193
394,WS_RECV_START,1516223489470,194
394,WS_RECV_END,1516223491772,194
394,PLAYER_SLEEPBEFORE_START,1516223491772,195
394,PLAYER_SLEEPBEFORE_END,1516223493528,195
394,WS_SEND_START,1516223493528,195
394,WS_SEND_END,1516223493528,195
394,WS_RECV_START,1516223493528,196
394,WS_RECV_END,1516223494185,196
394,PLAYER_SLEEPBEFORE_START,1516223494185,197
394,PLAYER_SLEEPBEFORE_END,1516223495989,197
394,WS_SEND_START,1516223495989,197
394,WS_SEND_END,1516223495989,197
394,WS_RECV_START,1516223495989,198
394,WS_RECV_END,1516223497658,198
394,PLAYER_SLEEPBEFORE_START,1516223497658,199
394,PLAYER_SLEEPBEFORE_END,1516223509512,199
394,WS_SEND_START,1516223509512,199
394,WS_SEND_END,1516223509512,199
394,PLAYER_SLEEPBEFORE_START,1516223509512,200
394,PLAYER_SLEEPBEFORE_END,1516223513600,200
394,WS_SEND_START,1516223513600,200
394,WS_SEND_END,1516223513600,200
394,WS_RECV_START,1516223513600,201
394,WS_RECV_END,1516223514302,201
394,PLAYER_SLEEPBEFORE_START,1516223514302,202
394,PLAYER_SLEEPBEFORE_END,1516223514316,202
394,WS_SEND_START,1516223514316,202
394,WS_SEND_END,1516223514316,202
394,WS_RECV_START,1516223514316,203
394,WS_RECV_END,1516223514739,203
394,PLAYER_SLEEPBEFORE_START,1516223514739,204
394,PLAYER_SLEEPBEFORE_END,1516223534388,204
394,WS_SEND_START,1516223534388,204
394,WS_SEND_END,1516223534388,204
394,PLAYER_SLEEPBEFORE_START,1516223534388,205
394,PLAYER_SLEEPBEFORE_END,1516223538286,205
394,WS_SEND_START,1516223538286,205
394,WS_SEND_END,1516223538286,205
394,WS_RECV_START,1516223538286,206
394,WS_RECV_END,1516223538939,206
394,PLAYER_SLEEPBEFORE_START,1516223538939,207
394,PLAYER_SLEEPBEFORE_END,1516223555870,207
394,REQ_START,1516223555870,207
394,REQ_END,1516223555878,207
394,PLAYER_SLEEPBEFORE_START,1516223555878,208
394,PLAYER_SLEEPBEFORE_END,1516223562730,208
394,WS_CLOSE_START,1516223562730,208
394,WS_CLOSE_END,1516223562730,208
394,PLAYER_DONE,1516223562730
