# --sessions 720 --app-url=http://shinyloadtest.rstudioservices.com/cran_explorer --output-dir test720 --overwrite-output --log-level warn --start-interval 500 15min.log
thread_id,event,timestamp,input_line_number,comment
458,PLAYER_SESSION_CREATE,1516222120213
458,PLAYER_START_INTERVAL_START,1516222120213
458,PLAYER_START_INTERVAL_END,1516222349213
458,REQ_HOME_START,1516222349213,2
458,REQ_HOME_END,1516222349605,2
458,REQ_START,1516222349605,3
458,REQ_END,1516222349640,3
458,REQ_START,1516222349640,4
458,REQ_END,1516222349678,4
458,REQ_START,1516222349678,5
458,REQ_END,1516222349719,5
458,REQ_START,1516222349719,6
458,REQ_END,1516222349821,6
458,REQ_START,1516222349821,7
458,REQ_END,1516222349859,7
458,REQ_START,1516222349859,8
458,REQ_END,1516222350046,8
458,REQ_START,1516222350046,9
458,REQ_END,1516222350081,9
458,REQ_START,1516222350081,10
458,REQ_END,1516222350089,10
458,REQ_START,1516222350089,11
458,REQ_END,1516222350121,11
458,REQ_START,1516222350121,12
458,REQ_END,1516222350131,12
458,REQ_START,1516222350131,13
458,REQ_END,1516222350336,13
458,REQ_START,1516222350336,14
458,REQ_END,1516222350353,14
458,REQ_START,1516222350353,15
458,REQ_END,1516222350594,15
458,REQ_TOK_START,1516222350594,16
458,REQ_TOK_END,1516222350602,16
458,REQ_SINF_START,1516222350602,17
458,REQ_SINF_END,1516222350608,17
458,WS_OPEN_START,1516222350608,18
458,WS_OPEN_END,1516222350615,18
458,REQ_START,1516222350615,19
458,REQ_END,1516222350783,19
458,WS_RECV_START,1516222350783,20
458,WS_RECV_END,1516222350783,20
458,PLAYER_SLEEPBEFORE_START,1516222350783,21
458,PLAYER_SLEEPBEFORE_END,1516222350788,21
458,WS_SEND_START,1516222350788,21
458,WS_SEND_END,1516222350788,21
458,PLAYER_SLEEPBEFORE_START,1516222350788,22
458,PLAYER_SLEEPBEFORE_END,1516222350789,22
458,WS_SEND_START,1516222350789,22
458,WS_SEND_END,1516222350789,22
458,WS_RECV_INIT_START,1516222350789,23
458,WS_RECV_INIT_END,1516222350816,23
458,WS_RECV_START,1516222350816,24
458,WS_RECV_END,1516222350892,24
458,PLAYER_SLEEPBEFORE_START,1516222350892,25
458,PLAYER_SLEEPBEFORE_END,1516222350899,25
458,REQ_START,1516222350899,25
458,REQ_END,1516222350942,25
458,PLAYER_SLEEPBEFORE_START,1516222350942,26
458,PLAYER_SLEEPBEFORE_END,1516222350943,26
458,REQ_START,1516222350943,26
458,REQ_END,1516222350975,26
458,PLAYER_SLEEPBEFORE_START,1516222350975,27
458,PLAYER_SLEEPBEFORE_END,1516222350978,27
458,REQ_START,1516222350978,27
458,REQ_END,1516222351014,27
458,PLAYER_SLEEPBEFORE_START,1516222351014,28
458,PLAYER_SLEEPBEFORE_END,1516222351299,28
458,REQ_START,1516222351299,28
458,REQ_END,1516222351333,28
458,PLAYER_SLEEPBEFORE_START,1516222351333,29
458,PLAYER_SLEEPBEFORE_END,1516222351509,29
458,WS_SEND_START,1516222351509,29
458,WS_SEND_END,1516222351509,29
458,WS_RECV_START,1516222351509,30
458,WS_RECV_END,1516222351730,30
458,PLAYER_SLEEPBEFORE_START,1516222351730,31
458,PLAYER_SLEEPBEFORE_END,1516222351742,31
458,REQ_START,1516222351742,31
458,REQ_END,1516222352205,31
458,PLAYER_SLEEPBEFORE_START,1516222352205,32
458,PLAYER_SLEEPBEFORE_END,1516222380350,32
458,WS_SEND_START,1516222380350,32
458,WS_SEND_END,1516222380350,32
458,WS_RECV_START,1516222380350,33
458,WS_RECV_END,1516222380848,33
458,PLAYER_SLEEPBEFORE_START,1516222380848,34
458,PLAYER_SLEEPBEFORE_END,1516222406760,34
458,WS_SEND_START,1516222406760,34
458,WS_SEND_END,1516222406760,34
458,WS_RECV_START,1516222406760,35
458,WS_RECV_END,1516222408007,35
458,PLAYER_SLEEPBEFORE_START,1516222408007,36
458,PLAYER_SLEEPBEFORE_END,1516222408016,36
458,WS_SEND_START,1516222408016,36
458,WS_SEND_END,1516222408016,36
458,WS_RECV_START,1516222408016,37
458,WS_RECV_END,1516222408664,37
458,PLAYER_SLEEPBEFORE_START,1516222408664,38
458,PLAYER_SLEEPBEFORE_END,1516222411859,38
458,WS_SEND_START,1516222411859,38
458,WS_SEND_END,1516222411859,38
458,WS_RECV_START,1516222411859,39
458,WS_RECV_END,1516222412314,39
458,PLAYER_SLEEPBEFORE_START,1516222412314,40
458,PLAYER_SLEEPBEFORE_END,1516222412360,40
458,WS_SEND_START,1516222412361,40
458,WS_SEND_END,1516222412361,40
458,WS_RECV_START,1516222412361,41
458,WS_RECV_END,1516222413214,41
458,PLAYER_SLEEPBEFORE_START,1516222413214,42
458,PLAYER_SLEEPBEFORE_END,1516222431349,42
458,WS_SEND_START,1516222431349,42
458,WS_SEND_END,1516222431349,42
458,WS_RECV_START,1516222431349,43
458,WS_RECV_END,1516222433005,43
458,PLAYER_SLEEPBEFORE_START,1516222433005,44
458,PLAYER_SLEEPBEFORE_END,1516222433017,44
458,WS_SEND_START,1516222433017,44
458,WS_SEND_END,1516222433017,44
458,WS_RECV_START,1516222433017,45
458,WS_RECV_END,1516222433460,45
458,PLAYER_SLEEPBEFORE_START,1516222433460,46
458,PLAYER_SLEEPBEFORE_END,1516222434720,46
458,WS_SEND_START,1516222434720,46
458,WS_SEND_END,1516222434720,46
458,WS_RECV_START,1516222434720,47
458,WS_RECV_END,1516222437343,47
458,PLAYER_SLEEPBEFORE_START,1516222437343,48
458,PLAYER_SLEEPBEFORE_END,1516222438663,48
458,WS_SEND_START,1516222438663,48
458,WS_SEND_END,1516222438663,48
458,WS_RECV_START,1516222438663,49
458,WS_RECV_END,1516222440030,49
458,PLAYER_SLEEPBEFORE_START,1516222440030,50
458,PLAYER_SLEEPBEFORE_END,1516222440054,50
458,WS_SEND_START,1516222440054,50
458,WS_SEND_END,1516222440054,50
458,WS_RECV_START,1516222440054,51
458,WS_RECV_END,1516222441534,51
458,PLAYER_SLEEPBEFORE_START,1516222441534,52
458,PLAYER_SLEEPBEFORE_END,1516222464098,52
458,WS_SEND_START,1516222464098,52
458,WS_SEND_END,1516222464098,52
458,WS_RECV_START,1516222464098,53
458,WS_RECV_END,1516222466363,53
458,PLAYER_SLEEPBEFORE_START,1516222466363,54
458,PLAYER_SLEEPBEFORE_END,1516222487666,54
458,WS_SEND_START,1516222487666,54
458,WS_SEND_END,1516222487666,54
458,PLAYER_SLEEPBEFORE_START,1516222487666,55
458,PLAYER_SLEEPBEFORE_END,1516222489607,55
458,WS_SEND_START,1516222489607,55
458,WS_SEND_END,1516222489607,55
458,WS_RECV_START,1516222489607,56
458,WS_RECV_END,1516222490503,56
458,PLAYER_SLEEPBEFORE_START,1516222490503,57
458,PLAYER_SLEEPBEFORE_END,1516222513375,57
458,WS_SEND_START,1516222513375,57
458,WS_SEND_END,1516222513375,57
458,WS_RECV_START,1516222513375,58
458,WS_RECV_END,1516222516123,58
458,PLAYER_SLEEPBEFORE_START,1516222516123,59
458,PLAYER_SLEEPBEFORE_END,1516222518450,59
458,WS_SEND_START,1516222518450,59
458,WS_SEND_END,1516222518450,59
458,WS_RECV_START,1516222518450,60
458,WS_RECV_END,1516222521648,60
458,PLAYER_SLEEPBEFORE_START,1516222521648,61
458,PLAYER_SLEEPBEFORE_END,1516222525240,61
458,WS_SEND_START,1516222525240,61
458,WS_SEND_END,1516222525240,61
458,WS_RECV_START,1516222525240,62
458,WS_RECV_END,1516222529475,62
458,PLAYER_SLEEPBEFORE_START,1516222529475,63
458,PLAYER_SLEEPBEFORE_END,1516222548737,63
458,WS_SEND_START,1516222548737,63
458,WS_SEND_END,1516222548737,63
458,WS_RECV_START,1516222548737,64
458,WS_RECV_END,1516222551699,64
458,PLAYER_SLEEPBEFORE_START,1516222551699,65
458,PLAYER_SLEEPBEFORE_END,1516222578517,65
458,WS_SEND_START,1516222578517,65
458,WS_SEND_END,1516222578517,65
458,WS_RECV_START,1516222578517,66
458,WS_RECV_END,1516222581868,66
458,PLAYER_SLEEPBEFORE_START,1516222581868,67
458,PLAYER_SLEEPBEFORE_END,1516222583375,67
458,WS_SEND_START,1516222583375,67
458,WS_SEND_END,1516222583375,67
458,WS_RECV_START,1516222583375,68
458,WS_RECV_END,1516222587191,68
458,PLAYER_SLEEPBEFORE_START,1516222587191,69
458,PLAYER_SLEEPBEFORE_END,1516222609189,69
458,WS_SEND_START,1516222609189,69
458,WS_SEND_END,1516222609189,69
458,WS_RECV_START,1516222609189,70
458,WS_RECV_END,1516222613421,70
458,PLAYER_SLEEPBEFORE_START,1516222613421,71
458,PLAYER_SLEEPBEFORE_END,1516222638196,71
458,WS_SEND_START,1516222638196,71
458,WS_SEND_END,1516222638196,71
458,PLAYER_SLEEPBEFORE_START,1516222638196,72
458,PLAYER_SLEEPBEFORE_END,1516222640803,72
458,WS_SEND_START,1516222640803,72
458,WS_SEND_END,1516222640803,72
458,WS_RECV_START,1516222640803,73
458,WS_RECV_END,1516222643800,73
458,PLAYER_SLEEPBEFORE_START,1516222643800,74
458,PLAYER_SLEEPBEFORE_END,1516222643809,74
458,WS_SEND_START,1516222643809,74
458,WS_SEND_END,1516222643809,74
458,WS_RECV_START,1516222643809,75
458,WS_RECV_END,1516222646448,75
458,PLAYER_SLEEPBEFORE_START,1516222646449,76
458,PLAYER_SLEEPBEFORE_END,1516222647955,76
458,WS_SEND_START,1516222647955,76
458,WS_SEND_END,1516222647955,76
458,WS_RECV_START,1516222647955,77
458,WS_RECV_END,1516222651185,77
458,PLAYER_SLEEPBEFORE_START,1516222651185,78
458,PLAYER_SLEEPBEFORE_END,1516222652053,78
458,WS_SEND_START,1516222652053,78
458,WS_SEND_END,1516222652053,78
458,WS_RECV_START,1516222652053,79
458,WS_RECV_END,1516222656888,79
458,PLAYER_SLEEPBEFORE_START,1516222656888,80
458,PLAYER_SLEEPBEFORE_END,1516222664554,80
458,WS_SEND_START,1516222664554,80
458,WS_SEND_END,1516222664554,80
458,WS_RECV_START,1516222664554,81
458,WS_RECV_END,1516222670435,81
458,PLAYER_SLEEPBEFORE_START,1516222670435,82
458,PLAYER_SLEEPBEFORE_END,1516222671537,82
458,WS_SEND_START,1516222671537,82
458,WS_SEND_END,1516222671537,82
458,WS_RECV_START,1516222671537,83
458,WS_RECV_END,1516222673550,83
458,PLAYER_SLEEPBEFORE_START,1516222673550,84
458,PLAYER_SLEEPBEFORE_END,1516222674497,84
458,WS_SEND_START,1516222674497,84
458,WS_SEND_END,1516222674497,84
458,WS_RECV_START,1516222674497,85
458,WS_RECV_END,1516222676504,85
458,PLAYER_SLEEPBEFORE_START,1516222676504,86
458,PLAYER_SLEEPBEFORE_END,1516222680676,86
458,WS_SEND_START,1516222680676,86
458,WS_SEND_END,1516222680676,86
458,WS_RECV_START,1516222680676,87
458,WS_RECV_END,1516222687292,87
458,PLAYER_SLEEPBEFORE_START,1516222687292,88
458,PLAYER_SLEEPBEFORE_END,1516222687300,88
458,WS_SEND_START,1516222687300,88
458,WS_SEND_END,1516222687300,88
458,WS_RECV_START,1516222687300,89
458,WS_RECV_END,1516222691658,89
458,PLAYER_SLEEPBEFORE_START,1516222691658,90
458,PLAYER_SLEEPBEFORE_END,1516222718855,90
458,REQ_START,1516222718855,90
458,REQ_END,1516222718864,90
458,PLAYER_SLEEPBEFORE_START,1516222718864,91
458,PLAYER_SLEEPBEFORE_END,1516222726753,91
458,WS_SEND_START,1516222726753,91
458,WS_SEND_END,1516222726753,91
458,WS_RECV_START,1516222726753,92
458,WS_RECV_END,1516222734438,92
458,PLAYER_SLEEPBEFORE_START,1516222734438,93
458,PLAYER_SLEEPBEFORE_END,1516222734453,93
458,WS_SEND_START,1516222734453,93
458,WS_SEND_END,1516222734453,93
458,WS_RECV_START,1516222734453,94
458,WS_RECV_END,1516222738333,94
458,PLAYER_SLEEPBEFORE_START,1516222738333,95
458,PLAYER_SLEEPBEFORE_END,1516222761888,95
458,WS_SEND_START,1516222761888,95
458,WS_SEND_END,1516222761888,95
458,WS_RECV_START,1516222761888,96
458,WS_RECV_END,1516222768674,96
458,PLAYER_SLEEPBEFORE_START,1516222768674,97
458,PLAYER_SLEEPBEFORE_END,1516222791114,97
458,WS_SEND_START,1516222791114,97
458,WS_SEND_END,1516222791114,97
458,WS_RECV_START,1516222791114,98
458,WS_RECV_END,1516222797946,98
458,PLAYER_SLEEPBEFORE_START,1516222797946,99
458,PLAYER_SLEEPBEFORE_END,1516222797967,99
458,WS_SEND_START,1516222797967,99
458,WS_SEND_END,1516222797967,99
458,WS_RECV_START,1516222797967,100
458,WS_RECV_END,1516222808112,100
458,PLAYER_SLEEPBEFORE_START,1516222808112,101
458,PLAYER_SLEEPBEFORE_END,1516222831672,101
458,WS_SEND_START,1516222831672,101
458,WS_SEND_END,1516222831672,101
458,WS_RECV_START,1516222831672,102
458,WS_RECV_END,1516222838960,102
458,PLAYER_SLEEPBEFORE_START,1516222838960,103
458,PLAYER_SLEEPBEFORE_END,1516222862585,103
458,WS_SEND_START,1516222862585,103
458,WS_SEND_END,1516222862585,103
458,WS_RECV_START,1516222862585,104
458,WS_RECV_END,1516222870642,104
458,PLAYER_SLEEPBEFORE_START,1516222870642,105
458,PLAYER_SLEEPBEFORE_END,1516222896019,105
458,WS_SEND_START,1516222896019,105
458,WS_SEND_END,1516222896019,105
458,WS_RECV_START,1516222896019,106
458,WS_RECV_END,1516222903885,106
458,PLAYER_SLEEPBEFORE_START,1516222903885,107
458,PLAYER_SLEEPBEFORE_END,1516222927308,107
458,WS_SEND_START,1516222927308,107
458,WS_SEND_END,1516222927308,107
458,WS_RECV_START,1516222927308,108
458,WS_RECV_END,1516222933690,108
458,PLAYER_SLEEPBEFORE_START,1516222933690,109
458,PLAYER_SLEEPBEFORE_END,1516222933699,109
458,WS_SEND_START,1516222933699,109
458,WS_SEND_END,1516222933699,109
458,WS_RECV_START,1516222933699,110
458,WS_RECV_END,1516222937105,110
458,PLAYER_SLEEPBEFORE_START,1516222937105,111
458,PLAYER_SLEEPBEFORE_END,1516222938064,111
458,WS_SEND_START,1516222938064,111
458,WS_SEND_END,1516222938064,111
458,WS_RECV_START,1516222938064,112
458,WS_RECV_END,1516222942470,112
458,PLAYER_SLEEPBEFORE_START,1516222942470,113
458,PLAYER_SLEEPBEFORE_END,1516222943033,113
458,WS_SEND_START,1516222943033,113
458,WS_SEND_END,1516222943033,113
458,WS_RECV_START,1516222943033,114
458,WS_RECV_END,1516222948667,114
458,PLAYER_SLEEPBEFORE_START,1516222948667,115
458,PLAYER_SLEEPBEFORE_END,1516222948677,115
458,WS_SEND_START,1516222948677,115
458,WS_SEND_END,1516222948677,115
458,WS_RECV_START,1516222948677,116
458,WS_RECV_END,1516222955205,116
458,PLAYER_SLEEPBEFORE_START,1516222955205,117
458,PLAYER_SLEEPBEFORE_END,1516222975566,117
458,WS_SEND_START,1516222975566,117
458,WS_SEND_END,1516222975566,117
458,PLAYER_SLEEPBEFORE_START,1516222975566,118
458,PLAYER_SLEEPBEFORE_END,1516222979318,118
458,WS_SEND_START,1516222979318,118
458,WS_SEND_END,1516222979318,118
458,WS_RECV_START,1516222979318,119
458,WS_RECV_END,1516222982243,119
458,PLAYER_SLEEPBEFORE_START,1516222982243,120
458,PLAYER_SLEEPBEFORE_END,1516222983231,120
458,WS_SEND_START,1516222983231,120
458,WS_SEND_END,1516222983231,120
458,WS_RECV_START,1516222983231,121
458,WS_RECV_END,1516222992658,121
458,PLAYER_SLEEPBEFORE_START,1516222992658,122
458,PLAYER_SLEEPBEFORE_END,1516222993843,122
458,WS_SEND_START,1516222993843,122
458,WS_SEND_END,1516222993843,122
458,WS_RECV_START,1516222993843,123
458,WS_RECV_END,1516222997570,123
458,PLAYER_SLEEPBEFORE_START,1516222997570,124
458,PLAYER_SLEEPBEFORE_END,1516223021976,124
458,WS_SEND_START,1516223021976,124
458,WS_SEND_END,1516223021976,124
458,WS_RECV_START,1516223021976,125
458,WS_RECV_END,1516223029305,125
458,PLAYER_SLEEPBEFORE_START,1516223029305,126
458,PLAYER_SLEEPBEFORE_END,1516223049817,126
458,WS_SEND_START,1516223049817,126
458,WS_SEND_END,1516223049817,126
458,PLAYER_SLEEPBEFORE_START,1516223049817,127
458,PLAYER_SLEEPBEFORE_END,1516223052871,127
458,WS_SEND_START,1516223052871,127
458,WS_SEND_END,1516223052871,127
458,WS_RECV_START,1516223052871,128
458,WS_RECV_END,1516223059626,128
458,PLAYER_SLEEPBEFORE_START,1516223059626,129
458,PLAYER_SLEEPBEFORE_END,1516223059646,129
458,WS_SEND_START,1516223059646,129
458,WS_SEND_END,1516223059646,129
458,WS_RECV_START,1516223059646,130
458,WS_RECV_END,1516223063462,130
458,PLAYER_SLEEPBEFORE_START,1516223063462,131
458,PLAYER_SLEEPBEFORE_END,1516223085086,131
458,WS_SEND_START,1516223085086,131
458,WS_SEND_END,1516223085086,131
458,PLAYER_SLEEPBEFORE_START,1516223085086,132
458,PLAYER_SLEEPBEFORE_END,1516223088166,132
458,WS_SEND_START,1516223088166,132
458,WS_SEND_END,1516223088166,132
458,WS_RECV_START,1516223088166,133
458,WS_RECV_END,1516223093460,133
458,PLAYER_SLEEPBEFORE_START,1516223093460,134
458,PLAYER_SLEEPBEFORE_END,1516223114677,134
458,WS_SEND_START,1516223114677,134
458,WS_SEND_END,1516223114678,134
458,PLAYER_SLEEPBEFORE_START,1516223114678,135
458,PLAYER_SLEEPBEFORE_END,1516223117868,135
458,WS_SEND_START,1516223117868,135
458,WS_SEND_END,1516223117868,135
458,WS_RECV_START,1516223117868,136
458,WS_RECV_END,1516223126562,136
458,PLAYER_SLEEPBEFORE_START,1516223126562,137
458,PLAYER_SLEEPBEFORE_END,1516223126569,137
458,WS_SEND_START,1516223126569,137
458,WS_SEND_END,1516223126570,137
458,WS_RECV_START,1516223126570,138
458,WS_RECV_END,1516223132157,138
458,PLAYER_SLEEPBEFORE_START,1516223132157,139
458,PLAYER_SLEEPBEFORE_END,1516223132848,139
458,WS_SEND_START,1516223132848,139
458,WS_SEND_END,1516223132848,139
458,WS_RECV_START,1516223132848,140
458,WS_RECV_END,1516223138068,140
458,PLAYER_SLEEPBEFORE_START,1516223138068,141
458,PLAYER_SLEEPBEFORE_END,1516223138723,141
458,WS_SEND_START,1516223138723,141
458,WS_SEND_END,1516223138723,141
458,WS_RECV_START,1516223138723,142
458,WS_RECV_END,1516223144733,142
458,PLAYER_SLEEPBEFORE_START,1516223144733,143
458,PLAYER_SLEEPBEFORE_END,1516223144790,143
458,WS_SEND_START,1516223144790,143
458,WS_SEND_END,1516223144790,143
458,WS_RECV_START,1516223144790,144
458,WS_RECV_END,1516223150635,144
458,PLAYER_SLEEPBEFORE_START,1516223150635,145
458,PLAYER_SLEEPBEFORE_END,1516223166698,145
458,REQ_START,1516223166698,145
458,REQ_END,1516223166705,145
458,PLAYER_SLEEPBEFORE_START,1516223166705,146
458,PLAYER_SLEEPBEFORE_END,1516223175582,146
458,WS_SEND_START,1516223175582,146
458,WS_SEND_END,1516223175582,146
458,WS_RECV_START,1516223175582,147
458,WS_RECV_END,1516223186880,147
458,PLAYER_SLEEPBEFORE_START,1516223186880,148
458,PLAYER_SLEEPBEFORE_END,1516223208803,148
458,WS_SEND_START,1516223208803,148
458,WS_SEND_END,1516223208803,148
458,PLAYER_SLEEPBEFORE_START,1516223208803,149
458,PLAYER_SLEEPBEFORE_END,1516223211231,149
458,WS_SEND_START,1516223211231,149
458,WS_SEND_END,1516223211231,149
458,WS_RECV_START,1516223211231,150
458,WS_RECV_END,1516223218295,150
458,PLAYER_SLEEPBEFORE_START,1516223218295,151
458,PLAYER_SLEEPBEFORE_END,1516223218506,151
458,WS_SEND_START,1516223218506,151
458,WS_SEND_END,1516223218506,151
458,WS_RECV_START,1516223218506,152
458,WS_RECV_END,1516223224607,152
458,PLAYER_SLEEPBEFORE_START,1516223224607,153
458,PLAYER_SLEEPBEFORE_END,1516223248534,153
458,WS_SEND_START,1516223248534,153
458,WS_SEND_END,1516223248534,153
458,WS_RECV_START,1516223248534,154
458,WS_RECV_END,1516223257784,154
458,PLAYER_SLEEPBEFORE_START,1516223257784,155
458,PLAYER_SLEEPBEFORE_END,1516223280342,155
458,WS_SEND_START,1516223280342,155
458,WS_SEND_END,1516223280342,155
458,PLAYER_SLEEPBEFORE_START,1516223280342,156
458,PLAYER_SLEEPBEFORE_END,1516223283616,156
458,WS_SEND_START,1516223283616,156
458,WS_SEND_END,1516223283616,156
458,WS_RECV_START,1516223283616,157
458,WS_RECV_END,1516223289191,157
458,PLAYER_SLEEPBEFORE_START,1516223289191,158
458,PLAYER_SLEEPBEFORE_END,1516223289201,158
458,WS_SEND_START,1516223289201,158
458,WS_SEND_END,1516223289201,158
458,WS_RECV_START,1516223289201,159
458,WS_RECV_END,1516223296145,159
458,PLAYER_SLEEPBEFORE_START,1516223296145,160
458,PLAYER_SLEEPBEFORE_END,1516223296321,160
458,WS_SEND_START,1516223296321,160
458,WS_SEND_END,1516223296321,160
458,WS_RECV_START,1516223296321,161
458,WS_RECV_END,1516223304362,161
458,PLAYER_SLEEPBEFORE_START,1516223304362,162
458,PLAYER_SLEEPBEFORE_END,1516223304387,162
458,WS_SEND_START,1516223304387,162
458,WS_SEND_END,1516223304387,162
458,WS_RECV_START,1516223304387,163
458,WS_RECV_END,1516223311526,163
458,PLAYER_SLEEPBEFORE_START,1516223311526,164
458,PLAYER_SLEEPBEFORE_END,1516223332338,164
458,WS_SEND_START,1516223332338,164
458,WS_SEND_END,1516223332338,164
458,WS_RECV_START,1516223332338,165
458,WS_RECV_END,1516223345657,165
458,PLAYER_SLEEPBEFORE_START,1516223345657,166
458,PLAYER_SLEEPBEFORE_END,1516223368112,166
458,WS_SEND_START,1516223368112,166
458,WS_SEND_END,1516223368112,166
458,WS_RECV_START,1516223368112,167
458,WS_RECV_END,1516223378209,167
458,PLAYER_SLEEPBEFORE_START,1516223378209,168
458,PLAYER_SLEEPBEFORE_END,1516223405566,168
458,WS_SEND_START,1516223405566,168
458,WS_SEND_END,1516223405566,168
458,WS_RECV_START,1516223405566,169
458,WS_RECV_END,1516223412422,169
458,PLAYER_SLEEPBEFORE_START,1516223412422,170
458,PLAYER_SLEEPBEFORE_END,1516223412431,170
458,WS_SEND_START,1516223412431,170
458,WS_SEND_END,1516223412431,170
458,WS_RECV_START,1516223412431,171
458,WS_RECV_END,1516223416570,171
458,PLAYER_SLEEPBEFORE_START,1516223416570,172
458,PLAYER_SLEEPBEFORE_END,1516223416939,172
458,WS_SEND_START,1516223416939,172
458,WS_SEND_END,1516223416939,172
458,WS_RECV_START,1516223416939,173
458,WS_RECV_END,1516223421316,173
458,PLAYER_SLEEPBEFORE_START,1516223421316,174
458,PLAYER_SLEEPBEFORE_END,1516223421357,174
458,WS_SEND_START,1516223421357,174
458,WS_SEND_END,1516223421357,174
458,WS_RECV_START,1516223421357,175
458,WS_RECV_END,1516223427092,175
458,PLAYER_SLEEPBEFORE_START,1516223427092,176
458,PLAYER_SLEEPBEFORE_END,1516223448853,176
458,WS_SEND_START,1516223448853,176
458,WS_SEND_END,1516223448853,176
458,PLAYER_SLEEPBEFORE_START,1516223448853,177
458,PLAYER_SLEEPBEFORE_END,1516223451371,177
458,WS_SEND_START,1516223451371,177
458,WS_SEND_END,1516223451371,177
458,WS_RECV_START,1516223451371,178
458,WS_RECV_END,1516223452797,178
458,PLAYER_SLEEPBEFORE_START,1516223452797,179
458,PLAYER_SLEEPBEFORE_END,1516223475137,179
458,WS_SEND_START,1516223475137,179
458,WS_SEND_END,1516223475137,179
458,WS_RECV_START,1516223475137,180
458,WS_RECV_END,1516223481331,180
458,PLAYER_SLEEPBEFORE_START,1516223481331,181
458,PLAYER_SLEEPBEFORE_END,1516223481775,181
458,WS_SEND_START,1516223481775,181
458,WS_SEND_END,1516223481775,181
458,WS_RECV_START,1516223481775,182
458,WS_RECV_END,1516223483285,182
458,PLAYER_SLEEPBEFORE_START,1516223483285,183
458,PLAYER_SLEEPBEFORE_END,1516223483809,183
458,WS_SEND_START,1516223483809,183
458,WS_SEND_END,1516223483809,183
458,WS_RECV_START,1516223483809,184
458,WS_RECV_END,1516223484535,184
458,PLAYER_SLEEPBEFORE_START,1516223484535,185
458,PLAYER_SLEEPBEFORE_END,1516223484803,185
458,WS_SEND_START,1516223484803,185
458,WS_SEND_END,1516223484803,185
458,WS_RECV_START,1516223484803,186
458,WS_RECV_END,1516223486346,186
458,PLAYER_SLEEPBEFORE_START,1516223486346,187
458,PLAYER_SLEEPBEFORE_END,1516223508846,187
458,WS_SEND_START,1516223508846,187
458,WS_SEND_END,1516223508846,187
458,WS_RECV_START,1516223508846,188
458,WS_RECV_END,1516223509776,188
458,PLAYER_SLEEPBEFORE_START,1516223509776,189
458,PLAYER_SLEEPBEFORE_END,1516223516015,189
458,WS_SEND_START,1516223516016,189
458,WS_SEND_END,1516223516016,189
458,WS_RECV_START,1516223516016,190
458,WS_RECV_END,1516223516297,190
458,PLAYER_SLEEPBEFORE_START,1516223516297,191
458,PLAYER_SLEEPBEFORE_END,1516223518212,191
458,WS_SEND_START,1516223518212,191
458,WS_SEND_END,1516223518212,191
458,WS_RECV_START,1516223518212,192
458,WS_RECV_END,1516223518419,192
458,PLAYER_SLEEPBEFORE_START,1516223518419,193
458,PLAYER_SLEEPBEFORE_END,1516223518547,193
458,WS_SEND_START,1516223518547,193
458,WS_SEND_END,1516223518547,193
458,WS_RECV_START,1516223518547,194
458,WS_RECV_END,1516223518843,194
458,PLAYER_SLEEPBEFORE_START,1516223518843,195
458,PLAYER_SLEEPBEFORE_END,1516223520598,195
458,WS_SEND_START,1516223520598,195
458,WS_SEND_END,1516223520598,195
458,WS_RECV_START,1516223520598,196
458,WS_RECV_END,1516223521018,196
458,PLAYER_SLEEPBEFORE_START,1516223521018,197
458,PLAYER_SLEEPBEFORE_END,1516223522822,197
458,WS_SEND_START,1516223522822,197
458,WS_SEND_END,1516223522822,197
458,WS_RECV_START,1516223522822,198
458,WS_RECV_END,1516223522997,198
458,PLAYER_SLEEPBEFORE_START,1516223522998,199
458,PLAYER_SLEEPBEFORE_END,1516223534852,199
458,WS_SEND_START,1516223534852,199
458,WS_SEND_END,1516223534852,199
458,PLAYER_SLEEPBEFORE_START,1516223534852,200
458,PLAYER_SLEEPBEFORE_END,1516223538940,200
458,WS_SEND_START,1516223538940,200
458,WS_SEND_END,1516223538940,200
458,WS_RECV_START,1516223538940,201
458,WS_RECV_END,1516223539123,201
458,PLAYER_SLEEPBEFORE_START,1516223539123,202
458,PLAYER_SLEEPBEFORE_END,1516223539137,202
458,WS_SEND_START,1516223539137,202
458,WS_SEND_END,1516223539137,202
458,WS_RECV_START,1516223539137,203
458,WS_RECV_END,1516223539563,203
458,PLAYER_SLEEPBEFORE_START,1516223539563,204
458,PLAYER_SLEEPBEFORE_END,1516223559212,204
458,WS_SEND_START,1516223559212,204
458,WS_SEND_END,1516223559212,204
458,PLAYER_SLEEPBEFORE_START,1516223559212,205
458,PLAYER_SLEEPBEFORE_END,1516223563110,205
458,WS_SEND_START,1516223563110,205
458,WS_SEND_END,1516223563110,205
458,WS_RECV_START,1516223563110,206
458,WS_RECV_END,1516223563232,206
458,PLAYER_SLEEPBEFORE_START,1516223563232,207
458,PLAYER_SLEEPBEFORE_END,1516223580163,207
458,REQ_START,1516223580163,207
458,REQ_END,1516223580171,207
458,PLAYER_SLEEPBEFORE_START,1516223580171,208
458,PLAYER_SLEEPBEFORE_END,1516223587023,208
458,WS_CLOSE_START,1516223587023,208
458,WS_CLOSE_END,1516223587023,208
458,PLAYER_DONE,1516223587024
