# --sessions 720 --app-url=http://shinyloadtest.rstudioservices.com/cran_explorer --output-dir test720 --overwrite-output --log-level warn --start-interval 500 15min.log
thread_id,event,timestamp,input_line_number,comment
549,PLAYER_SESSION_CREATE,1516222120243
549,PLAYER_START_INTERVAL_START,1516222120243
549,PLAYER_START_INTERVAL_END,1516222394745
549,REQ_HOME_START,1516222394745,2
549,REQ_HOME_END,1516222394942,2
549,REQ_START,1516222394942,3
549,REQ_END,1516222396316,3
549,REQ_START,1516222396316,4
549,REQ_END,1516222397304,4
549,REQ_START,1516222397304,5
549,REQ_END,1516222398504,5
549,REQ_START,1516222398504,6
549,REQ_END,1516222399444,6
549,REQ_START,1516222399444,7
549,REQ_END,1516222400273,7
549,REQ_START,1516222400273,8
549,REQ_END,1516222401315,8
549,REQ_START,1516222401315,9
549,REQ_END,1516222402307,9
549,REQ_START,1516222402307,10
549,REQ_END,1516222402315,10
549,REQ_START,1516222402315,11
549,REQ_END,1516222403986,11
549,REQ_START,1516222403987,12
549,REQ_END,1516222403997,12
549,REQ_START,1516222403997,13
549,REQ_END,1516222408831,13
549,REQ_START,1516222408831,14
549,REQ_END,1516222408854,14
549,REQ_START,1516222408854,15
549,REQ_END,1516222411329,15
549,REQ_TOK_START,1516222411329,16
549,REQ_TOK_END,1516222411338,16
549,REQ_SINF_START,1516222411338,17
549,REQ_SINF_END,1516222411345,17
549,WS_OPEN_START,1516222411345,18
549,WS_OPEN_END,1516222411352,18
549,REQ_START,1516222411352,19
549,REQ_END,1516222413638,19
549,WS_RECV_START,1516222413638,20
549,WS_RECV_END,1516222413638,20
549,PLAYER_SLEEPBEFORE_START,1516222413638,21
549,PLAYER_SLEEPBEFORE_END,1516222413643,21
549,WS_SEND_START,1516222413643,21
549,WS_SEND_END,1516222413643,21
549,PLAYER_SLEEPBEFORE_START,1516222413643,22
549,PLAYER_SLEEPBEFORE_END,1516222413644,22
549,WS_SEND_START,1516222413644,22
549,WS_SEND_END,1516222413644,22
549,WS_RECV_INIT_START,1516222413644,23
549,WS_RECV_INIT_END,1516222416971,23
549,WS_RECV_START,1516222416971,24
549,WS_RECV_END,1516222417265,24
549,PLAYER_SLEEPBEFORE_START,1516222417265,25
549,PLAYER_SLEEPBEFORE_END,1516222417272,25
549,REQ_START,1516222417272,25
549,REQ_END,1516222420288,25
549,PLAYER_SLEEPBEFORE_START,1516222420288,26
549,PLAYER_SLEEPBEFORE_END,1516222420289,26
549,REQ_START,1516222420289,26
549,REQ_END,1516222422909,26
549,PLAYER_SLEEPBEFORE_START,1516222422909,27
549,PLAYER_SLEEPBEFORE_END,1516222422913,27
549,REQ_START,1516222422913,27
549,REQ_END,1516222424158,27
549,PLAYER_SLEEPBEFORE_START,1516222424158,28
549,PLAYER_SLEEPBEFORE_END,1516222424443,28
549,REQ_START,1516222424443,28
549,REQ_END,1516222425626,28
549,PLAYER_SLEEPBEFORE_START,1516222425626,29
549,PLAYER_SLEEPBEFORE_END,1516222425801,29
549,WS_SEND_START,1516222425801,29
549,WS_SEND_END,1516222425801,29
549,WS_RECV_START,1516222425801,30
549,WS_RECV_END,1516222426147,30
549,PLAYER_SLEEPBEFORE_START,1516222426147,31
549,PLAYER_SLEEPBEFORE_END,1516222426158,31
549,REQ_START,1516222426158,31
549,REQ_END,1516222427305,31
549,PLAYER_SLEEPBEFORE_START,1516222427305,32
549,PLAYER_SLEEPBEFORE_END,1516222455450,32
549,WS_SEND_START,1516222455450,32
549,WS_SEND_END,1516222455450,32
549,WS_RECV_START,1516222455450,33
549,WS_RECV_END,1516222457750,33
549,PLAYER_SLEEPBEFORE_START,1516222457750,34
549,PLAYER_SLEEPBEFORE_END,1516222483661,34
549,WS_SEND_START,1516222483661,34
549,WS_SEND_END,1516222483661,34
549,WS_RECV_START,1516222483661,35
549,WS_RECV_END,1516222486217,35
549,PLAYER_SLEEPBEFORE_START,1516222486217,36
549,PLAYER_SLEEPBEFORE_END,1516222486226,36
549,WS_SEND_START,1516222486226,36
549,WS_SEND_END,1516222486226,36
549,WS_RECV_START,1516222486226,37
549,WS_RECV_END,1516222487100,37
549,PLAYER_SLEEPBEFORE_START,1516222487100,38
549,PLAYER_SLEEPBEFORE_END,1516222490295,38
549,WS_SEND_START,1516222490295,38
549,WS_SEND_END,1516222490295,38
549,WS_RECV_START,1516222490295,39
549,WS_RECV_END,1516222493373,39
549,PLAYER_SLEEPBEFORE_START,1516222493373,40
549,PLAYER_SLEEPBEFORE_END,1516222493419,40
549,WS_SEND_START,1516222493419,40
549,WS_SEND_END,1516222493419,40
549,WS_RECV_START,1516222493419,41
549,WS_RECV_END,1516222495038,41
549,PLAYER_SLEEPBEFORE_START,1516222495038,42
549,PLAYER_SLEEPBEFORE_END,1516222513173,42
549,WS_SEND_START,1516222513173,42
549,WS_SEND_END,1516222513173,42
549,WS_RECV_START,1516222513173,43
549,WS_RECV_END,1516222517098,43
549,PLAYER_SLEEPBEFORE_START,1516222517098,44
549,PLAYER_SLEEPBEFORE_END,1516222517110,44
549,WS_SEND_START,1516222517110,44
549,WS_SEND_END,1516222517110,44
549,WS_RECV_START,1516222517110,45
549,WS_RECV_END,1516222518460,45
549,PLAYER_SLEEPBEFORE_START,1516222518460,46
549,PLAYER_SLEEPBEFORE_END,1516222519720,46
549,WS_SEND_START,1516222519720,46
549,WS_SEND_END,1516222519720,46
549,WS_RECV_START,1516222519720,47
549,WS_RECV_END,1516222520660,47
549,PLAYER_SLEEPBEFORE_START,1516222520660,48
549,PLAYER_SLEEPBEFORE_END,1516222521980,48
549,WS_SEND_START,1516222521980,48
549,WS_SEND_END,1516222521980,48
549,WS_RECV_START,1516222521980,49
549,WS_RECV_END,1516222523505,49
549,PLAYER_SLEEPBEFORE_START,1516222523505,50
549,PLAYER_SLEEPBEFORE_END,1516222523529,50
549,WS_SEND_START,1516222523529,50
549,WS_SEND_END,1516222523529,50
549,WS_RECV_START,1516222523529,51
549,WS_RECV_END,1516222527432,51
549,PLAYER_SLEEPBEFORE_START,1516222527432,52
549,PLAYER_SLEEPBEFORE_END,1516222549996,52
549,WS_SEND_START,1516222549996,52
549,WS_SEND_END,1516222549996,52
549,WS_RECV_START,1516222549996,53
549,WS_RECV_END,1516222552150,53
549,PLAYER_SLEEPBEFORE_START,1516222552150,54
549,PLAYER_SLEEPBEFORE_END,1516222573453,54
549,WS_SEND_START,1516222573453,54
549,WS_SEND_END,1516222573453,54
549,PLAYER_SLEEPBEFORE_START,1516222573453,55
549,PLAYER_SLEEPBEFORE_END,1516222575394,55
549,WS_SEND_START,1516222575394,55
549,WS_SEND_END,1516222575394,55
549,WS_RECV_START,1516222575394,56
549,WS_RECV_END,1516222579522,56
549,PLAYER_SLEEPBEFORE_START,1516222579522,57
549,PLAYER_SLEEPBEFORE_END,1516222602394,57
549,WS_SEND_START,1516222602394,57
549,WS_SEND_END,1516222602394,57
549,WS_RECV_START,1516222602394,58
549,WS_RECV_END,1516222606169,58
549,PLAYER_SLEEPBEFORE_START,1516222606169,59
549,PLAYER_SLEEPBEFORE_END,1516222608496,59
549,WS_SEND_START,1516222608496,59
549,WS_SEND_END,1516222608496,59
549,WS_RECV_START,1516222608496,60
549,WS_RECV_END,1516222612450,60
549,PLAYER_SLEEPBEFORE_START,1516222612450,61
549,PLAYER_SLEEPBEFORE_END,1516222616041,61
549,WS_SEND_START,1516222616041,61
549,WS_SEND_END,1516222616041,61
549,WS_RECV_START,1516222616041,62
549,WS_RECV_END,1516222623263,62
549,PLAYER_SLEEPBEFORE_START,1516222623263,63
549,PLAYER_SLEEPBEFORE_END,1516222642525,63
549,WS_SEND_START,1516222642525,63
549,WS_SEND_END,1516222642525,63
549,WS_RECV_START,1516222642525,64
549,WS_RECV_END,1516222648449,64
549,PLAYER_SLEEPBEFORE_START,1516222648449,65
549,PLAYER_SLEEPBEFORE_END,1516222675266,65
549,WS_SEND_START,1516222675266,65
549,WS_SEND_END,1516222675266,65
549,WS_RECV_START,1516222675266,66
549,WS_RECV_END,1516222683752,66
549,PLAYER_SLEEPBEFORE_START,1516222683752,67
549,PLAYER_SLEEPBEFORE_END,1516222685259,67
549,WS_SEND_START,1516222685259,67
549,WS_SEND_END,1516222685259,67
549,WS_RECV_START,1516222685259,68
549,WS_RECV_END,1516222686968,68
549,PLAYER_SLEEPBEFORE_START,1516222686968,69
549,PLAYER_SLEEPBEFORE_END,1516222708966,69
549,WS_SEND_START,1516222708966,69
549,WS_SEND_END,1516222708966,69
549,WS_RECV_START,1516222708966,70
549,WS_RECV_END,1516222720063,70
549,PLAYER_SLEEPBEFORE_START,1516222720063,71
549,PLAYER_SLEEPBEFORE_END,1516222744838,71
549,WS_SEND_START,1516222744838,71
549,WS_SEND_END,1516222744838,71
549,PLAYER_SLEEPBEFORE_START,1516222744838,72
549,PLAYER_SLEEPBEFORE_END,1516222747445,72
549,WS_SEND_START,1516222747445,72
549,WS_SEND_END,1516222747445,72
549,WS_RECV_START,1516222747445,73
549,WS_RECV_END,1516222751680,73
549,PLAYER_SLEEPBEFORE_START,1516222751680,74
549,PLAYER_SLEEPBEFORE_END,1516222751689,74
549,WS_SEND_START,1516222751689,74
549,WS_SEND_END,1516222751689,74
549,WS_RECV_START,1516222751689,75
549,WS_RECV_END,1516222754525,75
549,PLAYER_SLEEPBEFORE_START,1516222754525,76
549,PLAYER_SLEEPBEFORE_END,1516222756031,76
549,WS_SEND_START,1516222756031,76
549,WS_SEND_END,1516222756031,76
549,WS_RECV_START,1516222756031,77
549,WS_RECV_END,1516222761352,77
549,PLAYER_SLEEPBEFORE_START,1516222761352,78
549,PLAYER_SLEEPBEFORE_END,1516222762220,78
549,WS_SEND_START,1516222762220,78
549,WS_SEND_END,1516222762220,78
549,WS_RECV_START,1516222762220,79
549,WS_RECV_END,1516222769149,79
549,PLAYER_SLEEPBEFORE_START,1516222769149,80
549,PLAYER_SLEEPBEFORE_END,1516222776815,80
549,WS_SEND_START,1516222776815,80
549,WS_SEND_END,1516222776815,80
549,WS_RECV_START,1516222776815,81
549,WS_RECV_END,1516222783356,81
549,PLAYER_SLEEPBEFORE_START,1516222783356,82
549,PLAYER_SLEEPBEFORE_END,1516222784458,82
549,WS_SEND_START,1516222784458,82
549,WS_SEND_END,1516222784458,82
549,WS_RECV_START,1516222784458,83
549,WS_RECV_END,1516222785445,83
549,PLAYER_SLEEPBEFORE_START,1516222785445,84
549,PLAYER_SLEEPBEFORE_END,1516222786392,84
549,WS_SEND_START,1516222786392,84
549,WS_SEND_END,1516222786392,84
549,WS_RECV_START,1516222786392,85
549,WS_RECV_END,1516222793013,85
549,PLAYER_SLEEPBEFORE_START,1516222793013,86
549,PLAYER_SLEEPBEFORE_END,1516222797185,86
549,WS_SEND_START,1516222797185,86
549,WS_SEND_END,1516222797185,86
549,WS_RECV_START,1516222797185,87
549,WS_RECV_END,1516222798597,87
549,PLAYER_SLEEPBEFORE_START,1516222798597,88
549,PLAYER_SLEEPBEFORE_END,1516222798606,88
549,WS_SEND_START,1516222798606,88
549,WS_SEND_END,1516222798606,88
549,WS_RECV_START,1516222798606,89
549,WS_RECV_END,1516222807448,89
549,PLAYER_SLEEPBEFORE_START,1516222807448,90
549,PLAYER_SLEEPBEFORE_END,1516222834645,90
549,REQ_START,1516222834645,90
549,REQ_END,1516222834654,90
549,PLAYER_SLEEPBEFORE_START,1516222834654,91
549,PLAYER_SLEEPBEFORE_END,1516222842543,91
549,WS_SEND_START,1516222842543,91
549,WS_SEND_END,1516222842543,91
549,WS_RECV_START,1516222842543,92
549,WS_RECV_END,1516222850126,92
549,PLAYER_SLEEPBEFORE_START,1516222850126,93
549,PLAYER_SLEEPBEFORE_END,1516222850141,93
549,WS_SEND_START,1516222850141,93
549,WS_SEND_END,1516222850141,93
549,WS_RECV_START,1516222850141,94
549,WS_RECV_END,1516222854420,94
549,PLAYER_SLEEPBEFORE_START,1516222854420,95
549,PLAYER_SLEEPBEFORE_END,1516222877975,95
549,WS_SEND_START,1516222877975,95
549,WS_SEND_END,1516222877975,95
549,WS_RECV_START,1516222877975,96
549,WS_RECV_END,1516222885053,96
549,PLAYER_SLEEPBEFORE_START,1516222885054,97
549,PLAYER_SLEEPBEFORE_END,1516222907494,97
549,WS_SEND_START,1516222907494,97
549,WS_SEND_END,1516222907494,97
549,WS_RECV_START,1516222907494,98
549,WS_RECV_END,1516222914842,98
549,PLAYER_SLEEPBEFORE_START,1516222914842,99
549,PLAYER_SLEEPBEFORE_END,1516222914863,99
549,WS_SEND_START,1516222914863,99
549,WS_SEND_END,1516222914863,99
549,WS_RECV_START,1516222914863,100
549,WS_RECV_END,1516222917848,100
549,PLAYER_SLEEPBEFORE_START,1516222917848,101
549,PLAYER_SLEEPBEFORE_END,1516222941407,101
549,WS_SEND_START,1516222941407,101
549,WS_SEND_END,1516222941407,101
549,WS_RECV_START,1516222941407,102
549,WS_RECV_END,1516222951147,102
549,PLAYER_SLEEPBEFORE_START,1516222951147,103
549,PLAYER_SLEEPBEFORE_END,1516222974772,103
549,WS_SEND_START,1516222974772,103
549,WS_SEND_END,1516222974772,103
549,WS_RECV_START,1516222974772,104
549,WS_RECV_END,1516222984477,104
549,PLAYER_SLEEPBEFORE_START,1516222984477,105
549,PLAYER_SLEEPBEFORE_END,1516223009854,105
549,WS_SEND_START,1516223009854,105
549,WS_SEND_END,1516223009854,105
549,WS_RECV_START,1516223009854,106
549,WS_RECV_END,1516223017690,106
549,PLAYER_SLEEPBEFORE_START,1516223017690,107
549,PLAYER_SLEEPBEFORE_END,1516223041113,107
549,WS_SEND_START,1516223041113,107
549,WS_SEND_END,1516223041113,107
549,WS_RECV_START,1516223041113,108
549,WS_RECV_END,1516223050800,108
549,PLAYER_SLEEPBEFORE_START,1516223050800,109
549,PLAYER_SLEEPBEFORE_END,1516223050809,109
549,WS_SEND_START,1516223050809,109
549,WS_SEND_END,1516223050809,109
549,WS_RECV_START,1516223050809,110
549,WS_RECV_END,1516223053849,110
549,PLAYER_SLEEPBEFORE_START,1516223053849,111
549,PLAYER_SLEEPBEFORE_END,1516223054808,111
549,WS_SEND_START,1516223054808,111
549,WS_SEND_END,1516223054808,111
549,WS_RECV_START,1516223054808,112
549,WS_RECV_END,1516223060588,112
549,PLAYER_SLEEPBEFORE_START,1516223060588,113
549,PLAYER_SLEEPBEFORE_END,1516223061150,113
549,WS_SEND_START,1516223061150,113
549,WS_SEND_END,1516223061151,113
549,WS_RECV_START,1516223061151,114
549,WS_RECV_END,1516223067596,114
549,PLAYER_SLEEPBEFORE_START,1516223067596,115
549,PLAYER_SLEEPBEFORE_END,1516223067605,115
549,WS_SEND_START,1516223067605,115
549,WS_SEND_END,1516223067606,115
549,WS_RECV_START,1516223067606,116
549,WS_RECV_END,1516223072052,116
549,PLAYER_SLEEPBEFORE_START,1516223072052,117
549,PLAYER_SLEEPBEFORE_END,1516223092412,117
549,WS_SEND_START,1516223092412,117
549,WS_SEND_END,1516223092412,117
549,PLAYER_SLEEPBEFORE_START,1516223092412,118
549,PLAYER_SLEEPBEFORE_END,1516223096165,118
549,WS_SEND_START,1516223096165,118
549,WS_SEND_END,1516223096165,118
549,WS_RECV_START,1516223096165,119
549,WS_RECV_END,1516223102346,119
549,PLAYER_SLEEPBEFORE_START,1516223102346,120
549,PLAYER_SLEEPBEFORE_END,1516223103334,120
549,WS_SEND_START,1516223103334,120
549,WS_SEND_END,1516223103334,120
549,WS_RECV_START,1516223103334,121
549,WS_RECV_END,1516223107304,121
549,PLAYER_SLEEPBEFORE_START,1516223107304,122
549,PLAYER_SLEEPBEFORE_END,1516223108489,122
549,WS_SEND_START,1516223108489,122
549,WS_SEND_END,1516223108489,122
549,WS_RECV_START,1516223108489,123
549,WS_RECV_END,1516223113853,123
549,PLAYER_SLEEPBEFORE_START,1516223113853,124
549,PLAYER_SLEEPBEFORE_END,1516223138258,124
549,WS_SEND_START,1516223138258,124
549,WS_SEND_END,1516223138258,124
549,WS_RECV_START,1516223138258,125
549,WS_RECV_END,1516223146867,125
549,PLAYER_SLEEPBEFORE_START,1516223146867,126
549,PLAYER_SLEEPBEFORE_END,1516223167379,126
549,WS_SEND_START,1516223167379,126
549,WS_SEND_END,1516223167379,126
549,PLAYER_SLEEPBEFORE_START,1516223167379,127
549,PLAYER_SLEEPBEFORE_END,1516223170433,127
549,WS_SEND_START,1516223170433,127
549,WS_SEND_END,1516223170433,127
549,WS_RECV_START,1516223170433,128
549,WS_RECV_END,1516223177291,128
549,PLAYER_SLEEPBEFORE_START,1516223177291,129
549,PLAYER_SLEEPBEFORE_END,1516223177311,129
549,WS_SEND_START,1516223177311,129
549,WS_SEND_END,1516223177311,129
549,WS_RECV_START,1516223177311,130
549,WS_RECV_END,1516223184969,130
549,PLAYER_SLEEPBEFORE_START,1516223184969,131
549,PLAYER_SLEEPBEFORE_END,1516223206593,131
549,WS_SEND_START,1516223206593,131
549,WS_SEND_END,1516223206593,131
549,PLAYER_SLEEPBEFORE_START,1516223206593,132
549,PLAYER_SLEEPBEFORE_END,1516223209673,132
549,WS_SEND_START,1516223209673,132
549,WS_SEND_END,1516223209673,132
549,WS_RECV_START,1516223209673,133
549,WS_RECV_END,1516223217929,133
549,PLAYER_SLEEPBEFORE_START,1516223217929,134
549,PLAYER_SLEEPBEFORE_END,1516223239146,134
549,WS_SEND_START,1516223239146,134
549,WS_SEND_END,1516223239147,134
549,PLAYER_SLEEPBEFORE_START,1516223239147,135
549,PLAYER_SLEEPBEFORE_END,1516223242337,135
549,WS_SEND_START,1516223242337,135
549,WS_SEND_END,1516223242337,135
549,WS_RECV_START,1516223242337,136
549,WS_RECV_END,1516223249245,136
549,PLAYER_SLEEPBEFORE_START,1516223249245,137
549,PLAYER_SLEEPBEFORE_END,1516223249252,137
549,WS_SEND_START,1516223249252,137
549,WS_SEND_END,1516223249252,137
549,WS_RECV_START,1516223249252,138
549,WS_RECV_END,1516223253289,138
549,PLAYER_SLEEPBEFORE_START,1516223253289,139
549,PLAYER_SLEEPBEFORE_END,1516223253979,139
549,WS_SEND_START,1516223253979,139
549,WS_SEND_END,1516223253980,139
549,WS_RECV_START,1516223253980,140
549,WS_RECV_END,1516223260397,140
549,PLAYER_SLEEPBEFORE_START,1516223260397,141
549,PLAYER_SLEEPBEFORE_END,1516223261053,141
549,WS_SEND_START,1516223261053,141
549,WS_SEND_END,1516223261053,141
549,WS_RECV_START,1516223261053,142
549,WS_RECV_END,1516223268589,142
549,PLAYER_SLEEPBEFORE_START,1516223268589,143
549,PLAYER_SLEEPBEFORE_END,1516223268646,143
549,WS_SEND_START,1516223268646,143
549,WS_SEND_END,1516223268646,143
549,WS_RECV_START,1516223268646,144
549,WS_RECV_END,1516223276758,144
549,PLAYER_SLEEPBEFORE_START,1516223276759,145
549,PLAYER_SLEEPBEFORE_END,1516223292821,145
549,REQ_START,1516223292821,145
549,REQ_END,1516223292833,145
549,PLAYER_SLEEPBEFORE_START,1516223292833,146
549,PLAYER_SLEEPBEFORE_END,1516223301710,146
549,WS_SEND_START,1516223301710,146
549,WS_SEND_END,1516223301711,146
549,WS_RECV_START,1516223301711,147
549,WS_RECV_END,1516223314282,147
549,PLAYER_SLEEPBEFORE_START,1516223314282,148
549,PLAYER_SLEEPBEFORE_END,1516223336204,148
549,WS_SEND_START,1516223336204,148
549,WS_SEND_END,1516223336204,148
549,PLAYER_SLEEPBEFORE_START,1516223336204,149
549,PLAYER_SLEEPBEFORE_END,1516223338632,149
549,WS_SEND_START,1516223338632,149
549,WS_SEND_END,1516223338632,149
549,WS_RECV_START,1516223338632,150
549,WS_RECV_END,1516223349907,150
549,PLAYER_SLEEPBEFORE_START,1516223349907,151
549,PLAYER_SLEEPBEFORE_END,1516223350117,151
549,WS_SEND_START,1516223350117,151
549,WS_SEND_END,1516223350117,151
549,WS_RECV_START,1516223350117,152
549,WS_RECV_END,1516223357102,152
549,PLAYER_SLEEPBEFORE_START,1516223357102,153
549,PLAYER_SLEEPBEFORE_END,1516223381029,153
549,WS_SEND_START,1516223381029,153
549,WS_SEND_END,1516223381029,153
549,WS_RECV_START,1516223381029,154
549,WS_RECV_END,1516223393056,154
549,PLAYER_SLEEPBEFORE_START,1516223393056,155
549,PLAYER_SLEEPBEFORE_END,1516223415618,155
549,WS_SEND_START,1516223415618,155
549,WS_SEND_END,1516223415618,155
549,PLAYER_SLEEPBEFORE_START,1516223415618,156
549,PLAYER_SLEEPBEFORE_END,1516223418892,156
549,WS_SEND_START,1516223418892,156
549,WS_SEND_END,1516223418892,156
549,WS_RECV_START,1516223418892,157
549,WS_RECV_END,1516223423956,157
549,PLAYER_SLEEPBEFORE_START,1516223423956,158
549,PLAYER_SLEEPBEFORE_END,1516223423966,158
549,WS_SEND_START,1516223423966,158
549,WS_SEND_END,1516223423966,158
549,WS_RECV_START,1516223423966,159
549,WS_RECV_END,1516223429934,159
549,PLAYER_SLEEPBEFORE_START,1516223429934,160
549,PLAYER_SLEEPBEFORE_END,1516223430109,160
549,WS_SEND_START,1516223430109,160
549,WS_SEND_END,1516223430109,160
549,WS_RECV_START,1516223430109,161
549,WS_RECV_END,1516223434828,161
549,PLAYER_SLEEPBEFORE_START,1516223434828,162
549,PLAYER_SLEEPBEFORE_END,1516223434853,162
549,WS_SEND_START,1516223434853,162
549,WS_SEND_END,1516223434853,162
549,WS_RECV_START,1516223434853,163
549,WS_RECV_END,1516223440697,163
549,PLAYER_SLEEPBEFORE_START,1516223440697,164
549,PLAYER_SLEEPBEFORE_END,1516223461510,164
549,WS_SEND_START,1516223461510,164
549,WS_SEND_END,1516223461510,164
549,WS_RECV_START,1516223461510,165
549,WS_RECV_END,1516223467824,165
549,PLAYER_SLEEPBEFORE_START,1516223467824,166
549,PLAYER_SLEEPBEFORE_END,1516223490280,166
549,WS_SEND_START,1516223490280,166
549,WS_SEND_END,1516223490280,166
549,WS_RECV_START,1516223490280,167
549,WS_RECV_END,1516223495572,167
549,PLAYER_SLEEPBEFORE_START,1516223495572,168
549,PLAYER_SLEEPBEFORE_END,1516223522929,168
549,WS_SEND_START,1516223522929,168
549,WS_SEND_END,1516223522929,168
549,WS_RECV_START,1516223522929,169
549,WS_RECV_END,1516223523759,169
549,PLAYER_SLEEPBEFORE_START,1516223523759,170
549,PLAYER_SLEEPBEFORE_END,1516223523768,170
549,WS_SEND_START,1516223523768,170
549,WS_SEND_END,1516223523768,170
549,WS_RECV_START,1516223523768,171
549,WS_RECV_END,1516223523866,171
549,PLAYER_SLEEPBEFORE_START,1516223523866,172
549,PLAYER_SLEEPBEFORE_END,1516223524235,172
549,WS_SEND_START,1516223524235,172
549,WS_SEND_END,1516223524235,172
549,WS_RECV_START,1516223524235,173
549,WS_RECV_END,1516223525269,173
549,PLAYER_SLEEPBEFORE_START,1516223525269,174
549,PLAYER_SLEEPBEFORE_END,1516223525310,174
549,WS_SEND_START,1516223525310,174
549,WS_SEND_END,1516223525310,174
549,WS_RECV_START,1516223525310,175
549,WS_RECV_END,1516223527330,175
549,PLAYER_SLEEPBEFORE_START,1516223527330,176
549,PLAYER_SLEEPBEFORE_END,1516223549091,176
549,WS_SEND_START,1516223549091,176
549,WS_SEND_END,1516223549091,176
549,PLAYER_SLEEPBEFORE_START,1516223549091,177
549,PLAYER_SLEEPBEFORE_END,1516223551609,177
549,WS_SEND_START,1516223551609,177
549,WS_SEND_END,1516223551609,177
549,WS_RECV_START,1516223551609,178
549,WS_RECV_END,1516223551865,178
549,PLAYER_SLEEPBEFORE_START,1516223551865,179
549,PLAYER_SLEEPBEFORE_END,1516223574205,179
549,WS_SEND_START,1516223574205,179
549,WS_SEND_END,1516223574205,179
549,WS_RECV_START,1516223574205,180
549,WS_RECV_END,1516223574690,180
549,PLAYER_SLEEPBEFORE_START,1516223574690,181
549,PLAYER_SLEEPBEFORE_END,1516223575134,181
549,WS_SEND_START,1516223575134,181
549,WS_SEND_END,1516223575134,181
549,WS_RECV_START,1516223575134,182
549,WS_RECV_END,1516223575308,182
549,PLAYER_SLEEPBEFORE_START,1516223575308,183
549,PLAYER_SLEEPBEFORE_END,1516223575831,183
549,WS_SEND_START,1516223575831,183
549,WS_SEND_END,1516223575831,183
549,WS_RECV_START,1516223575831,184
549,WS_RECV_END,1516223576140,184
549,PLAYER_SLEEPBEFORE_START,1516223576140,185
549,PLAYER_SLEEPBEFORE_END,1516223576408,185
549,WS_SEND_START,1516223576408,185
549,WS_SEND_END,1516223576408,185
549,WS_RECV_START,1516223576408,186
549,WS_RECV_END,1516223577054,186
549,PLAYER_SLEEPBEFORE_START,1516223577054,187
549,PLAYER_SLEEPBEFORE_END,1516223599555,187
549,WS_SEND_START,1516223599555,187
549,WS_SEND_END,1516223599555,187
549,WS_RECV_START,1516223599555,188
549,WS_RECV_END,1516223599600,188
549,PLAYER_SLEEPBEFORE_START,1516223599600,189
549,PLAYER_SLEEPBEFORE_END,1516223605839,189
549,WS_SEND_START,1516223605839,189
549,WS_SEND_END,1516223605839,189
549,WS_RECV_START,1516223605839,190
549,WS_RECV_END,1516223606018,190
549,PLAYER_SLEEPBEFORE_START,1516223606018,191
549,PLAYER_SLEEPBEFORE_END,1516223607933,191
549,WS_SEND_START,1516223607933,191
549,WS_SEND_END,1516223607933,191
549,WS_RECV_START,1516223607933,192
549,WS_RECV_END,1516223608166,192
549,PLAYER_SLEEPBEFORE_START,1516223608166,193
549,PLAYER_SLEEPBEFORE_END,1516223608294,193
549,WS_SEND_START,1516223608294,193
549,WS_SEND_END,1516223608294,193
549,WS_RECV_START,1516223608294,194
549,WS_RECV_END,1516223608475,194
549,PLAYER_SLEEPBEFORE_START,1516223608475,195
549,PLAYER_SLEEPBEFORE_END,1516223610230,195
549,WS_SEND_START,1516223610230,195
549,WS_SEND_END,1516223610230,195
549,WS_RECV_START,1516223610230,196
549,WS_RECV_END,1516223610377,196
549,PLAYER_SLEEPBEFORE_START,1516223610377,197
549,PLAYER_SLEEPBEFORE_END,1516223612181,197
549,WS_SEND_START,1516223612181,197
549,WS_SEND_END,1516223612182,197
549,WS_RECV_START,1516223612182,198
549,WS_RECV_END,1516223612359,198
549,PLAYER_SLEEPBEFORE_START,1516223612359,199
549,PLAYER_SLEEPBEFORE_END,1516223624213,199
549,WS_SEND_START,1516223624213,199
549,WS_SEND_END,1516223624213,199
549,PLAYER_SLEEPBEFORE_START,1516223624213,200
549,PLAYER_SLEEPBEFORE_END,1516223628301,200
549,WS_SEND_START,1516223628301,200
549,WS_SEND_END,1516223628302,200
549,WS_RECV_START,1516223628302,201
549,WS_RECV_END,1516223628486,201
549,PLAYER_SLEEPBEFORE_START,1516223628486,202
549,PLAYER_SLEEPBEFORE_END,1516223628500,202
549,WS_SEND_START,1516223628500,202
549,WS_SEND_END,1516223628500,202
549,WS_RECV_START,1516223628500,203
549,WS_RECV_END,1516223628630,203
549,PLAYER_SLEEPBEFORE_START,1516223628630,204
549,PLAYER_SLEEPBEFORE_END,1516223648279,204
549,WS_SEND_START,1516223648279,204
549,WS_SEND_END,1516223648279,204
549,PLAYER_SLEEPBEFORE_START,1516223648279,205
549,PLAYER_SLEEPBEFORE_END,1516223652177,205
549,WS_SEND_START,1516223652177,205
549,WS_SEND_END,1516223652177,205
549,WS_RECV_START,1516223652177,206
549,WS_RECV_END,1516223652311,206
549,PLAYER_SLEEPBEFORE_START,1516223652311,207
549,PLAYER_SLEEPBEFORE_END,1516223669242,207
549,REQ_START,1516223669242,207
549,REQ_END,1516223669253,207
549,PLAYER_SLEEPBEFORE_START,1516223669253,208
549,PLAYER_SLEEPBEFORE_END,1516223676105,208
549,WS_CLOSE_START,1516223676105,208
549,WS_CLOSE_END,1516223676105,208
549,PLAYER_DONE,1516223676105
