# --sessions 720 --app-url=http://shinyloadtest.rstudioservices.com/cran_explorer --output-dir test720 --overwrite-output --log-level warn --start-interval 500 15min.log
thread_id,event,timestamp,input_line_number,comment
669,PLAYER_SESSION_CREATE,1516222120273
669,PLAYER_START_INTERVAL_START,1516222120273
669,PLAYER_START_INTERVAL_END,1516222454773
669,REQ_HOME_START,1516222454773,2
669,REQ_HOME_END,1516222458843,2
669,REQ_START,1516222458843,3
669,REQ_END,1516222464154,3
669,REQ_START,1516222464154,4
669,REQ_END,1516222465591,4
669,REQ_START,1516222465591,5
669,REQ_END,1516222467724,5
669,REQ_START,1516222467724,6
669,REQ_END,1516222472683,6
669,REQ_START,1516222472683,7
669,REQ_END,1516222477953,7
669,REQ_START,1516222477953,8
669,REQ_END,1516222482306,8
669,REQ_START,1516222482306,9
669,REQ_END,1516222487005,9
669,REQ_START,1516222487005,10
669,REQ_END,1516222487019,10
669,REQ_START,1516222487019,11
669,REQ_END,1516222493718,11
669,REQ_START,1516222493718,12
669,REQ_END,1516222493735,12
669,REQ_START,1516222493735,13
669,REQ_END,1516222500689,13
669,REQ_START,1516222500689,14
669,REQ_END,1516222500720,14
669,REQ_START,1516222500720,15
669,REQ_END,1516222507718,15
669,REQ_TOK_START,1516222507718,16
669,REQ_TOK_END,1516222507728,16
669,REQ_SINF_START,1516222507728,17
669,REQ_SINF_END,1516222507737,17
669,WS_OPEN_START,1516222507737,18
669,WS_OPEN_END,1516222507743,18
669,REQ_START,1516222507743,19
669,REQ_END,1516222512372,19
669,WS_RECV_START,1516222512372,20
669,WS_RECV_END,1516222512372,20
669,PLAYER_SLEEPBEFORE_START,1516222512372,21
669,PLAYER_SLEEPBEFORE_END,1516222512383,21
669,WS_SEND_START,1516222512383,21
669,WS_SEND_END,1516222512384,21
669,PLAYER_SLEEPBEFORE_START,1516222512384,22
669,PLAYER_SLEEPBEFORE_END,1516222512385,22
669,WS_SEND_START,1516222512385,22
669,WS_SEND_END,1516222512385,22
669,WS_RECV_INIT_START,1516222512385,23
669,WS_RECV_INIT_END,1516222520905,23
669,WS_RECV_START,1516222520905,24
669,WS_RECV_END,1516222521964,24
669,PLAYER_SLEEPBEFORE_START,1516222521964,25
669,PLAYER_SLEEPBEFORE_END,1516222521971,25
669,REQ_START,1516222521971,25
669,REQ_END,1516222528720,25
669,PLAYER_SLEEPBEFORE_START,1516222528720,26
669,PLAYER_SLEEPBEFORE_END,1516222528721,26
669,REQ_START,1516222528721,26
669,REQ_END,1516222536931,26
669,PLAYER_SLEEPBEFORE_START,1516222536931,27
669,PLAYER_SLEEPBEFORE_END,1516222536934,27
669,REQ_START,1516222536934,27
669,REQ_END,1516222544723,27
669,PLAYER_SLEEPBEFORE_START,1516222544723,28
669,PLAYER_SLEEPBEFORE_END,1516222545008,28
669,REQ_START,1516222545008,28
669,REQ_END,1516222553619,28
669,PLAYER_SLEEPBEFORE_START,1516222553619,29
669,PLAYER_SLEEPBEFORE_END,1516222553794,29
669,WS_SEND_START,1516222553794,29
669,WS_SEND_END,1516222553794,29
669,WS_RECV_START,1516222553794,30
669,WS_RECV_END,1516222558045,30
669,PLAYER_SLEEPBEFORE_START,1516222558045,31
669,PLAYER_SLEEPBEFORE_END,1516222558056,31
669,REQ_START,1516222558056,31
669,REQ_END,1516222565465,31
669,PLAYER_SLEEPBEFORE_START,1516222565465,32
669,PLAYER_SLEEPBEFORE_END,1516222593611,32
669,WS_SEND_START,1516222593611,32
669,WS_SEND_END,1516222593611,32
669,WS_RECV_START,1516222593611,33
669,WS_RECV_END,1516222597856,33
669,PLAYER_SLEEPBEFORE_START,1516222597856,34
669,PLAYER_SLEEPBEFORE_END,1516222623768,34
669,WS_SEND_START,1516222623768,34
669,WS_SEND_END,1516222623768,34
669,WS_RECV_START,1516222623768,35
669,WS_RECV_END,1516222628914,35
669,PLAYER_SLEEPBEFORE_START,1516222628914,36
669,PLAYER_SLEEPBEFORE_END,1516222628923,36
669,WS_SEND_START,1516222628923,36
669,WS_SEND_END,1516222628923,36
669,WS_RECV_START,1516222628923,37
669,WS_RECV_END,1516222632770,37
669,PLAYER_SLEEPBEFORE_START,1516222632770,38
669,PLAYER_SLEEPBEFORE_END,1516222635965,38
669,WS_SEND_START,1516222635965,38
669,WS_SEND_END,1516222635965,38
669,WS_RECV_START,1516222635965,39
669,WS_RECV_END,1516222637346,39
669,PLAYER_SLEEPBEFORE_START,1516222637346,40
669,PLAYER_SLEEPBEFORE_END,1516222637392,40
669,WS_SEND_START,1516222637392,40
669,WS_SEND_END,1516222637392,40
669,WS_RECV_START,1516222637392,41
669,WS_RECV_END,1516222641980,41
669,PLAYER_SLEEPBEFORE_START,1516222641980,42
669,PLAYER_SLEEPBEFORE_END,1516222660115,42
669,WS_SEND_START,1516222660115,42
669,WS_SEND_END,1516222660115,42
669,WS_RECV_START,1516222660115,43
669,WS_RECV_END,1516222665621,43
669,PLAYER_SLEEPBEFORE_START,1516222665621,44
669,PLAYER_SLEEPBEFORE_END,1516222665633,44
669,WS_SEND_START,1516222665633,44
669,WS_SEND_END,1516222665633,44
669,WS_RECV_START,1516222665633,45
669,WS_RECV_END,1516222667795,45
669,PLAYER_SLEEPBEFORE_START,1516222667795,46
669,PLAYER_SLEEPBEFORE_END,1516222669055,46
669,WS_SEND_START,1516222669055,46
669,WS_SEND_END,1516222669055,46
669,WS_RECV_START,1516222669055,47
669,WS_RECV_END,1516222671449,47
669,PLAYER_SLEEPBEFORE_START,1516222671449,48
669,PLAYER_SLEEPBEFORE_END,1516222672769,48
669,WS_SEND_START,1516222672769,48
669,WS_SEND_END,1516222672769,48
669,WS_RECV_START,1516222672769,49
669,WS_RECV_END,1516222676156,49
669,PLAYER_SLEEPBEFORE_START,1516222676156,50
669,PLAYER_SLEEPBEFORE_END,1516222676180,50
669,WS_SEND_START,1516222676180,50
669,WS_SEND_END,1516222676181,50
669,WS_RECV_START,1516222676181,51
669,WS_RECV_END,1516222680118,51
669,PLAYER_SLEEPBEFORE_START,1516222680118,52
669,PLAYER_SLEEPBEFORE_END,1516222702682,52
669,WS_SEND_START,1516222702682,52
669,WS_SEND_END,1516222702682,52
669,WS_RECV_START,1516222702682,53
669,WS_RECV_END,1516222707538,53
669,PLAYER_SLEEPBEFORE_START,1516222707538,54
669,PLAYER_SLEEPBEFORE_END,1516222728841,54
669,WS_SEND_START,1516222728841,54
669,WS_SEND_END,1516222728841,54
669,PLAYER_SLEEPBEFORE_START,1516222728841,55
669,PLAYER_SLEEPBEFORE_END,1516222730782,55
669,WS_SEND_START,1516222730782,55
669,WS_SEND_END,1516222730783,55
669,WS_RECV_START,1516222730783,56
669,WS_RECV_END,1516222735071,56
669,PLAYER_SLEEPBEFORE_START,1516222735071,57
669,PLAYER_SLEEPBEFORE_END,1516222757943,57
669,WS_SEND_START,1516222757943,57
669,WS_SEND_END,1516222757943,57
669,WS_RECV_START,1516222757943,58
669,WS_RECV_END,1516222763798,58
669,PLAYER_SLEEPBEFORE_START,1516222763798,59
669,PLAYER_SLEEPBEFORE_END,1516222766125,59
669,WS_SEND_START,1516222766125,59
669,WS_SEND_END,1516222766125,59
669,WS_RECV_START,1516222766125,60
669,WS_RECV_END,1516222773900,60
669,PLAYER_SLEEPBEFORE_START,1516222773900,61
669,PLAYER_SLEEPBEFORE_END,1516222777491,61
669,WS_SEND_START,1516222777491,61
669,WS_SEND_END,1516222777491,61
669,WS_RECV_START,1516222777491,62
669,WS_RECV_END,1516222785184,62
669,PLAYER_SLEEPBEFORE_START,1516222785184,63
669,PLAYER_SLEEPBEFORE_END,1516222804446,63
669,WS_SEND_START,1516222804447,63
669,WS_SEND_END,1516222804447,63
669,WS_RECV_START,1516222804447,64
669,WS_RECV_END,1516222811191,64
669,PLAYER_SLEEPBEFORE_START,1516222811191,65
669,PLAYER_SLEEPBEFORE_END,1516222838008,65
669,WS_SEND_START,1516222838008,65
669,WS_SEND_END,1516222838008,65
669,WS_RECV_START,1516222838008,66
669,WS_RECV_END,1516222844367,66
669,PLAYER_SLEEPBEFORE_START,1516222844367,67
669,PLAYER_SLEEPBEFORE_END,1516222845874,67
669,WS_SEND_START,1516222845874,67
669,WS_SEND_END,1516222845874,67
669,WS_RECV_START,1516222845874,68
669,WS_RECV_END,1516222852360,68
669,PLAYER_SLEEPBEFORE_START,1516222852360,69
669,PLAYER_SLEEPBEFORE_END,1516222874358,69
669,WS_SEND_START,1516222874358,69
669,WS_SEND_END,1516222874358,69
669,WS_RECV_START,1516222874358,70
669,WS_RECV_END,1516222879886,70
669,PLAYER_SLEEPBEFORE_START,1516222879886,71
669,PLAYER_SLEEPBEFORE_END,1516222904661,71
669,WS_SEND_START,1516222904661,71
669,WS_SEND_END,1516222904661,71
669,PLAYER_SLEEPBEFORE_START,1516222904661,72
669,PLAYER_SLEEPBEFORE_END,1516222907268,72
669,WS_SEND_START,1516222907268,72
669,WS_SEND_END,1516222907268,72
669,WS_RECV_START,1516222907268,73
669,WS_RECV_END,1516222911594,73
669,PLAYER_SLEEPBEFORE_START,1516222911594,74
669,PLAYER_SLEEPBEFORE_END,1516222911603,74
669,WS_SEND_START,1516222911603,74
669,WS_SEND_END,1516222911603,74
669,WS_RECV_START,1516222911603,75
669,WS_RECV_END,1516222916537,75
669,PLAYER_SLEEPBEFORE_START,1516222916537,76
669,PLAYER_SLEEPBEFORE_END,1516222918043,76
669,WS_SEND_START,1516222918043,76
669,WS_SEND_END,1516222918043,76
669,WS_RECV_START,1516222918043,77
669,WS_RECV_END,1516222921192,77
669,PLAYER_SLEEPBEFORE_START,1516222921192,78
669,PLAYER_SLEEPBEFORE_END,1516222922060,78
669,WS_SEND_START,1516222922060,78
669,WS_SEND_END,1516222922060,78
669,WS_RECV_START,1516222922060,79
669,WS_RECV_END,1516222925622,79
669,PLAYER_SLEEPBEFORE_START,1516222925622,80
669,PLAYER_SLEEPBEFORE_END,1516222933288,80
669,WS_SEND_START,1516222933288,80
669,WS_SEND_END,1516222933288,80
669,WS_RECV_START,1516222933288,81
669,WS_RECV_END,1516222940763,81
669,PLAYER_SLEEPBEFORE_START,1516222940763,82
669,PLAYER_SLEEPBEFORE_END,1516222941865,82
669,WS_SEND_START,1516222941865,82
669,WS_SEND_END,1516222941865,82
669,WS_RECV_START,1516222941865,83
669,WS_RECV_END,1516222944726,83
669,PLAYER_SLEEPBEFORE_START,1516222944726,84
669,PLAYER_SLEEPBEFORE_END,1516222945673,84
669,WS_SEND_START,1516222945673,84
669,WS_SEND_END,1516222945673,84
669,WS_RECV_START,1516222945673,85
669,WS_RECV_END,1516222950597,85
669,PLAYER_SLEEPBEFORE_START,1516222950597,86
669,PLAYER_SLEEPBEFORE_END,1516222954769,86
669,WS_SEND_START,1516222954769,86
669,WS_SEND_END,1516222954769,86
669,WS_RECV_START,1516222954769,87
669,WS_RECV_END,1516222964732,87
669,PLAYER_SLEEPBEFORE_START,1516222964732,88
669,PLAYER_SLEEPBEFORE_END,1516222964740,88
669,WS_SEND_START,1516222964740,88
669,WS_SEND_END,1516222964740,88
669,WS_RECV_START,1516222964740,89
669,WS_RECV_END,1516222970312,89
669,PLAYER_SLEEPBEFORE_START,1516222970312,90
669,PLAYER_SLEEPBEFORE_END,1516222997509,90
669,REQ_START,1516222997509,90
669,REQ_END,1516222997517,90
669,PLAYER_SLEEPBEFORE_START,1516222997517,91
669,PLAYER_SLEEPBEFORE_END,1516223005406,91
669,WS_SEND_START,1516223005406,91
669,WS_SEND_END,1516223005406,91
669,WS_RECV_START,1516223005406,92
669,WS_RECV_END,1516223012827,92
669,PLAYER_SLEEPBEFORE_START,1516223012827,93
669,PLAYER_SLEEPBEFORE_END,1516223012842,93
669,WS_SEND_START,1516223012842,93
669,WS_SEND_END,1516223012842,93
669,WS_RECV_START,1516223012842,94
669,WS_RECV_END,1516223018475,94
669,PLAYER_SLEEPBEFORE_START,1516223018475,95
669,PLAYER_SLEEPBEFORE_END,1516223042030,95
669,WS_SEND_START,1516223042030,95
669,WS_SEND_END,1516223042030,95
669,WS_RECV_START,1516223042030,96
669,WS_RECV_END,1516223048757,96
669,PLAYER_SLEEPBEFORE_START,1516223048757,97
669,PLAYER_SLEEPBEFORE_END,1516223071197,97
669,WS_SEND_START,1516223071197,97
669,WS_SEND_END,1516223071197,97
669,WS_RECV_START,1516223071197,98
669,WS_RECV_END,1516223077659,98
669,PLAYER_SLEEPBEFORE_START,1516223077659,99
669,PLAYER_SLEEPBEFORE_END,1516223077680,99
669,WS_SEND_START,1516223077680,99
669,WS_SEND_END,1516223077680,99
669,WS_RECV_START,1516223077680,100
669,WS_RECV_END,1516223080759,100
669,PLAYER_SLEEPBEFORE_START,1516223080759,101
669,PLAYER_SLEEPBEFORE_END,1516223104319,101
669,WS_SEND_START,1516223104319,101
669,WS_SEND_END,1516223104319,101
669,WS_RECV_START,1516223104319,102
669,WS_RECV_END,1516223114376,102
669,PLAYER_SLEEPBEFORE_START,1516223114376,103
669,PLAYER_SLEEPBEFORE_END,1516223138001,103
669,WS_SEND_START,1516223138001,103
669,WS_SEND_END,1516223138001,103
669,WS_RECV_START,1516223138001,104
669,WS_RECV_END,1516223145371,104
669,PLAYER_SLEEPBEFORE_START,1516223145371,105
669,PLAYER_SLEEPBEFORE_END,1516223170748,105
669,WS_SEND_START,1516223170748,105
669,WS_SEND_END,1516223170748,105
669,WS_RECV_START,1516223170748,106
669,WS_RECV_END,1516223180460,106
669,PLAYER_SLEEPBEFORE_START,1516223180460,107
669,PLAYER_SLEEPBEFORE_END,1516223203884,107
669,WS_SEND_START,1516223203884,107
669,WS_SEND_END,1516223203884,107
669,WS_RECV_START,1516223203884,108
669,WS_RECV_END,1516223214004,108
669,PLAYER_SLEEPBEFORE_START,1516223214004,109
669,PLAYER_SLEEPBEFORE_END,1516223214014,109
669,WS_SEND_START,1516223214014,109
669,WS_SEND_END,1516223214014,109
669,WS_RECV_START,1516223214014,110
669,WS_RECV_END,1516223218932,110
669,PLAYER_SLEEPBEFORE_START,1516223218932,111
669,PLAYER_SLEEPBEFORE_END,1516223219891,111
669,WS_SEND_START,1516223219891,111
669,WS_SEND_END,1516223219891,111
669,WS_RECV_START,1516223219891,112
669,WS_RECV_END,1516223227044,112
669,PLAYER_SLEEPBEFORE_START,1516223227044,113
669,PLAYER_SLEEPBEFORE_END,1516223227606,113
669,WS_SEND_START,1516223227606,113
669,WS_SEND_END,1516223227606,113
669,WS_RECV_START,1516223227606,114
669,WS_RECV_END,1516223236671,114
669,PLAYER_SLEEPBEFORE_START,1516223236671,115
669,PLAYER_SLEEPBEFORE_END,1516223236680,115
669,WS_SEND_START,1516223236680,115
669,WS_SEND_END,1516223236680,115
669,WS_RECV_START,1516223236680,116
669,WS_RECV_END,1516223244304,116
669,PLAYER_SLEEPBEFORE_START,1516223244304,117
669,PLAYER_SLEEPBEFORE_END,1516223264664,117
669,WS_SEND_START,1516223264665,117
669,WS_SEND_END,1516223264665,117
669,PLAYER_SLEEPBEFORE_START,1516223264665,118
669,PLAYER_SLEEPBEFORE_END,1516223268417,118
669,WS_SEND_START,1516223268417,118
669,WS_SEND_END,1516223268417,118
669,WS_RECV_START,1516223268417,119
669,WS_RECV_END,1516223273979,119
669,PLAYER_SLEEPBEFORE_START,1516223273979,120
669,PLAYER_SLEEPBEFORE_END,1516223274967,120
669,WS_SEND_START,1516223274967,120
669,WS_SEND_END,1516223274967,120
669,WS_RECV_START,1516223274968,121
669,WS_RECV_END,1516223286234,121
669,PLAYER_SLEEPBEFORE_START,1516223286234,122
669,PLAYER_SLEEPBEFORE_END,1516223287419,122
669,WS_SEND_START,1516223287419,122
669,WS_SEND_END,1516223287419,122
669,WS_RECV_START,1516223287419,123
669,WS_RECV_END,1516223292729,123
669,PLAYER_SLEEPBEFORE_START,1516223292729,124
669,PLAYER_SLEEPBEFORE_END,1516223317134,124
669,WS_SEND_START,1516223317134,124
669,WS_SEND_END,1516223317134,124
669,WS_RECV_START,1516223317134,125
669,WS_RECV_END,1516223327868,125
669,PLAYER_SLEEPBEFORE_START,1516223327868,126
669,PLAYER_SLEEPBEFORE_END,1516223348380,126
669,WS_SEND_START,1516223348380,126
669,WS_SEND_END,1516223348381,126
669,PLAYER_SLEEPBEFORE_START,1516223348381,127
669,PLAYER_SLEEPBEFORE_END,1516223351435,127
669,WS_SEND_START,1516223351435,127
669,WS_SEND_END,1516223351435,127
669,WS_RECV_START,1516223351435,128
669,WS_RECV_END,1516223355257,128
669,PLAYER_SLEEPBEFORE_START,1516223355257,129
669,PLAYER_SLEEPBEFORE_END,1516223355277,129
669,WS_SEND_START,1516223355277,129
669,WS_SEND_END,1516223355277,129
669,WS_RECV_START,1516223355277,130
669,WS_RECV_END,1516223359964,130
669,PLAYER_SLEEPBEFORE_START,1516223359964,131
669,PLAYER_SLEEPBEFORE_END,1516223381588,131
669,WS_SEND_START,1516223381588,131
669,WS_SEND_END,1516223381588,131
669,PLAYER_SLEEPBEFORE_START,1516223381588,132
669,PLAYER_SLEEPBEFORE_END,1516223384668,132
669,WS_SEND_START,1516223384668,132
669,WS_SEND_END,1516223384668,132
669,WS_RECV_START,1516223384668,133
669,WS_RECV_END,1516223387611,133
669,PLAYER_SLEEPBEFORE_START,1516223387611,134
669,PLAYER_SLEEPBEFORE_END,1516223408828,134
669,WS_SEND_START,1516223408828,134
669,WS_SEND_END,1516223408828,134
669,PLAYER_SLEEPBEFORE_START,1516223408828,135
669,PLAYER_SLEEPBEFORE_END,1516223412018,135
669,WS_SEND_START,1516223412018,135
669,WS_SEND_END,1516223412018,135
669,WS_RECV_START,1516223412018,136
669,WS_RECV_END,1516223417365,136
669,PLAYER_SLEEPBEFORE_START,1516223417365,137
669,PLAYER_SLEEPBEFORE_END,1516223417373,137
669,WS_SEND_START,1516223417373,137
669,WS_SEND_END,1516223417373,137
669,WS_RECV_START,1516223417373,138
669,WS_RECV_END,1516223420006,138
669,PLAYER_SLEEPBEFORE_START,1516223420006,139
669,PLAYER_SLEEPBEFORE_END,1516223420696,139
669,WS_SEND_START,1516223420696,139
669,WS_SEND_END,1516223420696,139
669,WS_RECV_START,1516223420696,140
669,WS_RECV_END,1516223423165,140
669,PLAYER_SLEEPBEFORE_START,1516223423165,141
669,PLAYER_SLEEPBEFORE_END,1516223423820,141
669,WS_SEND_START,1516223423820,141
669,WS_SEND_END,1516223423820,141
669,WS_RECV_START,1516223423820,142
669,WS_RECV_END,1516223426144,142
669,PLAYER_SLEEPBEFORE_START,1516223426144,143
669,PLAYER_SLEEPBEFORE_END,1516223426201,143
669,WS_SEND_START,1516223426201,143
669,WS_SEND_END,1516223426201,143
669,WS_RECV_START,1516223426201,144
669,WS_RECV_END,1516223429481,144
669,PLAYER_SLEEPBEFORE_START,1516223429481,145
669,PLAYER_SLEEPBEFORE_END,1516223445543,145
669,REQ_START,1516223445543,145
669,REQ_END,1516223445551,145
669,PLAYER_SLEEPBEFORE_START,1516223445551,146
669,PLAYER_SLEEPBEFORE_END,1516223454428,146
669,WS_SEND_START,1516223454428,146
669,WS_SEND_END,1516223454428,146
669,WS_RECV_START,1516223454428,147
669,WS_RECV_END,1516223457077,147
669,PLAYER_SLEEPBEFORE_START,1516223457077,148
669,PLAYER_SLEEPBEFORE_END,1516223478999,148
669,WS_SEND_START,1516223478999,148
669,WS_SEND_END,1516223478999,148
669,PLAYER_SLEEPBEFORE_START,1516223478999,149
669,PLAYER_SLEEPBEFORE_END,1516223481428,149
669,WS_SEND_START,1516223481428,149
669,WS_SEND_END,1516223481428,149
669,WS_RECV_START,1516223481428,150
669,WS_RECV_END,1516223482450,150
669,PLAYER_SLEEPBEFORE_START,1516223482450,151
669,PLAYER_SLEEPBEFORE_END,1516223482660,151
669,WS_SEND_START,1516223482660,151
669,WS_SEND_END,1516223482660,151
669,WS_RECV_START,1516223482660,152
669,WS_RECV_END,1516223483302,152
669,PLAYER_SLEEPBEFORE_START,1516223483302,153
669,PLAYER_SLEEPBEFORE_END,1516223507229,153
669,WS_SEND_START,1516223507229,153
669,WS_SEND_END,1516223507229,153
669,WS_RECV_START,1516223507229,154
669,WS_RECV_END,1516223507966,154
669,PLAYER_SLEEPBEFORE_START,1516223507966,155
669,PLAYER_SLEEPBEFORE_END,1516223530524,155
669,WS_SEND_START,1516223530524,155
669,WS_SEND_END,1516223530524,155
669,PLAYER_SLEEPBEFORE_START,1516223530524,156
669,PLAYER_SLEEPBEFORE_END,1516223533798,156
669,WS_SEND_START,1516223533798,156
669,WS_SEND_END,1516223533798,156
669,WS_RECV_START,1516223533798,157
669,WS_RECV_END,1516223534103,157
669,PLAYER_SLEEPBEFORE_START,1516223534103,158
669,PLAYER_SLEEPBEFORE_END,1516223534113,158
669,WS_SEND_START,1516223534113,158
669,WS_SEND_END,1516223534113,158
669,WS_RECV_START,1516223534113,159
669,WS_RECV_END,1516223534554,159
669,PLAYER_SLEEPBEFORE_START,1516223534554,160
669,PLAYER_SLEEPBEFORE_END,1516223534729,160
669,WS_SEND_START,1516223534729,160
669,WS_SEND_END,1516223534729,160
669,WS_RECV_START,1516223534729,161
669,WS_RECV_END,1516223534989,161
669,PLAYER_SLEEPBEFORE_START,1516223534989,162
669,PLAYER_SLEEPBEFORE_END,1516223535014,162
669,WS_SEND_START,1516223535014,162
669,WS_SEND_END,1516223535014,162
669,WS_RECV_START,1516223535014,163
669,WS_RECV_END,1516223535804,163
669,PLAYER_SLEEPBEFORE_START,1516223535804,164
669,PLAYER_SLEEPBEFORE_END,1516223556616,164
669,WS_SEND_START,1516223556616,164
669,WS_SEND_END,1516223556616,164
669,WS_RECV_START,1516223556616,165
669,WS_RECV_END,1516223556854,165
669,PLAYER_SLEEPBEFORE_START,1516223556854,166
669,PLAYER_SLEEPBEFORE_END,1516223579309,166
669,WS_SEND_START,1516223579309,166
669,WS_SEND_END,1516223579309,166
669,WS_RECV_START,1516223579309,167
669,WS_RECV_END,1516223579525,167
669,PLAYER_SLEEPBEFORE_START,1516223579525,168
669,PLAYER_SLEEPBEFORE_END,1516223606882,168
669,WS_SEND_START,1516223606882,168
669,WS_SEND_END,1516223606882,168
669,WS_RECV_START,1516223606882,169
669,WS_RECV_END,1516223606967,169
669,PLAYER_SLEEPBEFORE_START,1516223606967,170
669,PLAYER_SLEEPBEFORE_END,1516223606976,170
669,WS_SEND_START,1516223606976,170
669,WS_SEND_END,1516223606976,170
669,WS_RECV_START,1516223606976,171
669,WS_RECV_END,1516223607018,171
669,PLAYER_SLEEPBEFORE_START,1516223607018,172
669,PLAYER_SLEEPBEFORE_END,1516223607387,172
669,WS_SEND_START,1516223607387,172
669,WS_SEND_END,1516223607387,172
669,WS_RECV_START,1516223607387,173
669,WS_RECV_END,1516223607521,173
669,PLAYER_SLEEPBEFORE_START,1516223607521,174
669,PLAYER_SLEEPBEFORE_END,1516223607562,174
669,WS_SEND_START,1516223607562,174
669,WS_SEND_END,1516223607562,174
669,WS_RECV_START,1516223607562,175
669,WS_RECV_END,1516223607758,175
669,PLAYER_SLEEPBEFORE_START,1516223607758,176
669,PLAYER_SLEEPBEFORE_END,1516223629519,176
669,WS_SEND_START,1516223629519,176
669,WS_SEND_END,1516223629519,176
669,PLAYER_SLEEPBEFORE_START,1516223629519,177
669,PLAYER_SLEEPBEFORE_END,1516223632037,177
669,WS_SEND_START,1516223632037,177
669,WS_SEND_END,1516223632037,177
669,WS_RECV_START,1516223632037,178
669,WS_RECV_END,1516223632198,178
669,PLAYER_SLEEPBEFORE_START,1516223632198,179
669,PLAYER_SLEEPBEFORE_END,1516223654538,179
669,WS_SEND_START,1516223654538,179
669,WS_SEND_END,1516223654538,179
669,WS_RECV_START,1516223654538,180
669,WS_RECV_END,1516223654702,180
669,PLAYER_SLEEPBEFORE_START,1516223654702,181
669,PLAYER_SLEEPBEFORE_END,1516223655146,181
669,WS_SEND_START,1516223655146,181
669,WS_SEND_END,1516223655146,181
669,WS_RECV_START,1516223655146,182
669,WS_RECV_END,1516223655274,182
669,PLAYER_SLEEPBEFORE_START,1516223655274,183
669,PLAYER_SLEEPBEFORE_END,1516223655797,183
669,WS_SEND_START,1516223655797,183
669,WS_SEND_END,1516223655797,183
669,WS_RECV_START,1516223655797,184
669,WS_RECV_END,1516223655961,184
669,PLAYER_SLEEPBEFORE_START,1516223655961,185
669,PLAYER_SLEEPBEFORE_END,1516223656229,185
669,WS_SEND_START,1516223656229,185
669,WS_SEND_END,1516223656229,185
669,WS_RECV_START,1516223656229,186
669,WS_RECV_END,1516223656448,186
669,PLAYER_SLEEPBEFORE_START,1516223656448,187
669,PLAYER_SLEEPBEFORE_END,1516223678948,187
669,WS_SEND_START,1516223678948,187
669,WS_SEND_END,1516223678948,187
669,WS_RECV_START,1516223678948,188
669,WS_RECV_END,1516223678992,188
669,PLAYER_SLEEPBEFORE_START,1516223678992,189
669,PLAYER_SLEEPBEFORE_END,1516223685231,189
669,WS_SEND_START,1516223685231,189
669,WS_SEND_END,1516223685231,189
669,WS_RECV_START,1516223685231,190
669,WS_RECV_END,1516223685358,190
669,PLAYER_SLEEPBEFORE_START,1516223685358,191
669,PLAYER_SLEEPBEFORE_END,1516223687273,191
669,WS_SEND_START,1516223687273,191
669,WS_SEND_END,1516223687273,191
669,WS_RECV_START,1516223687273,192
669,WS_RECV_END,1516223687462,192
669,PLAYER_SLEEPBEFORE_START,1516223687462,193
669,PLAYER_SLEEPBEFORE_END,1516223687590,193
669,WS_SEND_START,1516223687590,193
669,WS_SEND_END,1516223687590,193
669,WS_RECV_START,1516223687590,194
669,WS_RECV_END,1516223687766,194
669,PLAYER_SLEEPBEFORE_START,1516223687766,195
669,PLAYER_SLEEPBEFORE_END,1516223689521,195
669,WS_SEND_START,1516223689521,195
669,WS_SEND_END,1516223689521,195
669,WS_RECV_START,1516223689521,196
669,WS_RECV_END,1516223689673,196
669,PLAYER_SLEEPBEFORE_START,1516223689673,197
669,PLAYER_SLEEPBEFORE_END,1516223691477,197
669,WS_SEND_START,1516223691477,197
669,WS_SEND_END,1516223691477,197
669,WS_RECV_START,1516223691477,198
669,WS_RECV_END,1516223691597,198
669,PLAYER_SLEEPBEFORE_START,1516223691597,199
669,PLAYER_SLEEPBEFORE_END,1516223703451,199
669,WS_SEND_START,1516223703451,199
669,WS_SEND_END,1516223703451,199
669,PLAYER_SLEEPBEFORE_START,1516223703451,200
669,PLAYER_SLEEPBEFORE_END,1516223707539,200
669,WS_SEND_START,1516223707539,200
669,WS_SEND_END,1516223707539,200
669,WS_RECV_START,1516223707539,201
669,WS_RECV_END,1516223707636,201
669,PLAYER_SLEEPBEFORE_START,1516223707636,202
669,PLAYER_SLEEPBEFORE_END,1516223707650,202
669,WS_SEND_START,1516223707650,202
669,WS_SEND_END,1516223707650,202
669,WS_RECV_START,1516223707650,203
669,WS_RECV_END,1516223707780,203
669,PLAYER_SLEEPBEFORE_START,1516223707780,204
669,PLAYER_SLEEPBEFORE_END,1516223727429,204
669,WS_SEND_START,1516223727429,204
669,WS_SEND_END,1516223727429,204
669,PLAYER_SLEEPBEFORE_START,1516223727429,205
669,PLAYER_SLEEPBEFORE_END,1516223731327,205
669,WS_SEND_START,1516223731327,205
669,WS_SEND_END,1516223731327,205
669,WS_RECV_START,1516223731327,206
669,WS_RECV_END,1516223731479,206
669,PLAYER_SLEEPBEFORE_START,1516223731479,207
669,PLAYER_SLEEPBEFORE_END,1516223748410,207
669,REQ_START,1516223748410,207
669,REQ_END,1516223748419,207
669,PLAYER_SLEEPBEFORE_START,1516223748419,208
669,PLAYER_SLEEPBEFORE_END,1516223755271,208
669,WS_CLOSE_START,1516223755271,208
669,WS_CLOSE_END,1516223755271,208
669,PLAYER_DONE,1516223755271
