# --sessions 720 --app-url=http://shinyloadtest.rstudioservices.com/cran_explorer --output-dir test720 --overwrite-output --log-level warn --start-interval 500 15min.log
thread_id,event,timestamp,input_line_number,comment
80,PLAYER_SESSION_CREATE,1516222120075
80,PLAYER_START_INTERVAL_START,1516222120075
80,PLAYER_START_INTERVAL_END,1516222160075
80,REQ_HOME_START,1516222160075,2
80,REQ_HOME_END,1516222160167,2
80,REQ_START,1516222160167,3
80,REQ_END,1516222160204,3
80,REQ_START,1516222160204,4
80,REQ_END,1516222160239,4
80,REQ_START,1516222160239,5
80,REQ_END,1516222160275,5
80,REQ_START,1516222160275,6
80,REQ_END,1516222160315,6
80,REQ_START,1516222160315,7
80,REQ_END,1516222160347,7
80,REQ_START,1516222160347,8
80,REQ_END,1516222160387,8
80,REQ_START,1516222160387,9
80,REQ_END,1516222160425,9
80,REQ_START,1516222160425,10
80,REQ_END,1516222160434,10
80,REQ_START,1516222160434,11
80,REQ_END,1516222160469,11
80,REQ_START,1516222160469,12
80,REQ_END,1516222160479,12
80,REQ_START,1516222160479,13
80,REQ_END,1516222160511,13
80,REQ_START,1516222160512,14
80,REQ_END,1516222160527,14
80,REQ_START,1516222160527,15
80,REQ_END,1516222160562,15
80,REQ_TOK_START,1516222160562,16
80,REQ_TOK_END,1516222160570,16
80,REQ_SINF_START,1516222160570,17
80,REQ_SINF_END,1516222160577,17
80,WS_OPEN_START,1516222160577,18
80,WS_OPEN_END,1516222160584,18
80,REQ_START,1516222160584,19
80,REQ_END,1516222160614,19
80,WS_RECV_START,1516222160614,20
80,WS_RECV_END,1516222160614,20
80,PLAYER_SLEEPBEFORE_START,1516222160614,21
80,PLAYER_SLEEPBEFORE_END,1516222160620,21
80,WS_SEND_START,1516222160620,21
80,WS_SEND_END,1516222160620,21
80,PLAYER_SLEEPBEFORE_START,1516222160620,22
80,PLAYER_SLEEPBEFORE_END,1516222160621,22
80,WS_SEND_START,1516222160621,22
80,WS_SEND_END,1516222160621,22
80,WS_RECV_INIT_START,1516222160621,23
80,WS_RECV_INIT_END,1516222160640,23
80,WS_RECV_START,1516222160640,24
80,WS_RECV_END,1516222160712,24
80,PLAYER_SLEEPBEFORE_START,1516222160712,25
80,PLAYER_SLEEPBEFORE_END,1516222160719,25
80,REQ_START,1516222160719,25
80,REQ_END,1516222160751,25
80,PLAYER_SLEEPBEFORE_START,1516222160751,26
80,PLAYER_SLEEPBEFORE_END,1516222160752,26
80,REQ_START,1516222160752,26
80,REQ_END,1516222160785,26
80,PLAYER_SLEEPBEFORE_START,1516222160785,27
80,PLAYER_SLEEPBEFORE_END,1516222160788,27
80,REQ_START,1516222160788,27
80,REQ_END,1516222160820,27
80,PLAYER_SLEEPBEFORE_START,1516222160820,28
80,PLAYER_SLEEPBEFORE_END,1516222161105,28
80,REQ_START,1516222161105,28
80,REQ_END,1516222161160,28
80,PLAYER_SLEEPBEFORE_START,1516222161160,29
80,PLAYER_SLEEPBEFORE_END,1516222161335,29
80,WS_SEND_START,1516222161335,29
80,WS_SEND_END,1516222161335,29
80,WS_RECV_START,1516222161335,30
80,WS_RECV_END,1516222161448,30
80,PLAYER_SLEEPBEFORE_START,1516222161448,31
80,PLAYER_SLEEPBEFORE_END,1516222161459,31
80,REQ_START,1516222161459,31
80,REQ_END,1516222161495,31
80,PLAYER_SLEEPBEFORE_START,1516222161495,32
80,PLAYER_SLEEPBEFORE_END,1516222189640,32
80,WS_SEND_START,1516222189640,32
80,WS_SEND_END,1516222189640,32
80,WS_RECV_START,1516222189640,33
80,WS_RECV_END,1516222189744,33
80,PLAYER_SLEEPBEFORE_START,1516222189744,34
80,PLAYER_SLEEPBEFORE_END,1516222215655,34
80,WS_SEND_START,1516222215655,34
80,WS_SEND_END,1516222215655,34
80,WS_RECV_START,1516222215655,35
80,WS_RECV_END,1516222215799,35
80,PLAYER_SLEEPBEFORE_START,1516222215799,36
80,PLAYER_SLEEPBEFORE_END,1516222215808,36
80,WS_SEND_START,1516222215808,36
80,WS_SEND_END,1516222215808,36
80,WS_RECV_START,1516222215808,37
80,WS_RECV_END,1516222215863,37
80,PLAYER_SLEEPBEFORE_START,1516222215863,38
80,PLAYER_SLEEPBEFORE_END,1516222219059,38
80,WS_SEND_START,1516222219059,38
80,WS_SEND_END,1516222219059,38
80,WS_RECV_START,1516222219059,39
80,WS_RECV_END,1516222219186,39
80,PLAYER_SLEEPBEFORE_START,1516222219186,40
80,PLAYER_SLEEPBEFORE_END,1516222219232,40
80,WS_SEND_START,1516222219232,40
80,WS_SEND_END,1516222219232,40
80,WS_RECV_START,1516222219232,41
80,WS_RECV_END,1516222219399,41
80,PLAYER_SLEEPBEFORE_START,1516222219399,42
80,PLAYER_SLEEPBEFORE_END,1516222237534,42
80,WS_SEND_START,1516222237535,42
80,WS_SEND_END,1516222237535,42
80,WS_RECV_START,1516222237535,43
80,WS_RECV_END,1516222237570,43
80,PLAYER_SLEEPBEFORE_START,1516222237570,44
80,PLAYER_SLEEPBEFORE_END,1516222237582,44
80,WS_SEND_START,1516222237582,44
80,WS_SEND_END,1516222237582,44
80,WS_RECV_START,1516222237582,45
80,WS_RECV_END,1516222237735,45
80,PLAYER_SLEEPBEFORE_START,1516222237735,46
80,PLAYER_SLEEPBEFORE_END,1516222238996,46
80,WS_SEND_START,1516222238996,46
80,WS_SEND_END,1516222238996,46
80,WS_RECV_START,1516222238996,47
80,WS_RECV_END,1516222239030,47
80,PLAYER_SLEEPBEFORE_START,1516222239030,48
80,PLAYER_SLEEPBEFORE_END,1516222240350,48
80,WS_SEND_START,1516222240350,48
80,WS_SEND_END,1516222240350,48
80,WS_RECV_START,1516222240350,49
80,WS_RECV_END,1516222240463,49
80,PLAYER_SLEEPBEFORE_START,1516222240463,50
80,PLAYER_SLEEPBEFORE_END,1516222240487,50
80,WS_SEND_START,1516222240487,50
80,WS_SEND_END,1516222240487,50
80,WS_RECV_START,1516222240487,51
80,WS_RECV_END,1516222240639,51
80,PLAYER_SLEEPBEFORE_START,1516222240639,52
80,PLAYER_SLEEPBEFORE_END,1516222263204,52
80,WS_SEND_START,1516222263204,52
80,WS_SEND_END,1516222263204,52
80,WS_RECV_START,1516222263204,53
80,WS_RECV_END,1516222263402,53
80,PLAYER_SLEEPBEFORE_START,1516222263402,54
80,PLAYER_SLEEPBEFORE_END,1516222284705,54
80,WS_SEND_START,1516222284705,54
80,WS_SEND_END,1516222284705,54
80,PLAYER_SLEEPBEFORE_START,1516222284705,55
80,PLAYER_SLEEPBEFORE_END,1516222286646,55
80,WS_SEND_START,1516222286646,55
80,WS_SEND_END,1516222286646,55
80,WS_RECV_START,1516222286646,56
80,WS_RECV_END,1516222286704,56
80,PLAYER_SLEEPBEFORE_START,1516222286704,57
80,PLAYER_SLEEPBEFORE_END,1516222309576,57
80,WS_SEND_START,1516222309576,57
80,WS_SEND_END,1516222309576,57
80,WS_RECV_START,1516222309576,58
80,WS_RECV_END,1516222309645,58
80,PLAYER_SLEEPBEFORE_START,1516222309645,59
80,PLAYER_SLEEPBEFORE_END,1516222311973,59
80,WS_SEND_START,1516222311973,59
80,WS_SEND_END,1516222311973,59
80,WS_RECV_START,1516222311973,60
80,WS_RECV_END,1516222312100,60
80,PLAYER_SLEEPBEFORE_START,1516222312100,61
80,PLAYER_SLEEPBEFORE_END,1516222315691,61
80,WS_SEND_START,1516222315691,61
80,WS_SEND_END,1516222315691,61
80,WS_RECV_START,1516222315691,62
80,WS_RECV_END,1516222315837,62
80,PLAYER_SLEEPBEFORE_START,1516222315837,63
80,PLAYER_SLEEPBEFORE_END,1516222335099,63
80,WS_SEND_START,1516222335099,63
80,WS_SEND_END,1516222335099,63
80,WS_RECV_START,1516222335099,64
80,WS_RECV_END,1516222335177,64
80,PLAYER_SLEEPBEFORE_START,1516222335177,65
80,PLAYER_SLEEPBEFORE_END,1516222361994,65
80,WS_SEND_START,1516222361994,65
80,WS_SEND_END,1516222361994,65
80,WS_RECV_START,1516222361994,66
80,WS_RECV_END,1516222362206,66
80,PLAYER_SLEEPBEFORE_START,1516222362206,67
80,PLAYER_SLEEPBEFORE_END,1516222363713,67
80,WS_SEND_START,1516222363713,67
80,WS_SEND_END,1516222363713,67
80,WS_RECV_START,1516222363713,68
80,WS_RECV_END,1516222364197,68
80,PLAYER_SLEEPBEFORE_START,1516222364197,69
80,PLAYER_SLEEPBEFORE_END,1516222386195,69
80,WS_SEND_START,1516222386196,69
80,WS_SEND_END,1516222386196,69
80,WS_RECV_START,1516222386196,70
80,WS_RECV_END,1516222386626,70
80,PLAYER_SLEEPBEFORE_START,1516222386626,71
80,PLAYER_SLEEPBEFORE_END,1516222411401,71
80,WS_SEND_START,1516222411401,71
80,WS_SEND_END,1516222411401,71
80,PLAYER_SLEEPBEFORE_START,1516222411401,72
80,PLAYER_SLEEPBEFORE_END,1516222414008,72
80,WS_SEND_START,1516222414008,72
80,WS_SEND_END,1516222414009,72
80,WS_RECV_START,1516222414009,73
80,WS_RECV_END,1516222414874,73
80,PLAYER_SLEEPBEFORE_START,1516222414874,74
80,PLAYER_SLEEPBEFORE_END,1516222414884,74
80,WS_SEND_START,1516222414884,74
80,WS_SEND_END,1516222414884,74
80,WS_RECV_START,1516222414884,75
80,WS_RECV_END,1516222415184,75
80,PLAYER_SLEEPBEFORE_START,1516222415184,76
80,PLAYER_SLEEPBEFORE_END,1516222416690,76
80,WS_SEND_START,1516222416690,76
80,WS_SEND_END,1516222416690,76
80,WS_RECV_START,1516222416690,77
80,WS_RECV_END,1516222416977,77
80,PLAYER_SLEEPBEFORE_START,1516222416977,78
80,PLAYER_SLEEPBEFORE_END,1516222417846,78
80,WS_SEND_START,1516222417846,78
80,WS_SEND_END,1516222417846,78
80,WS_RECV_START,1516222417846,79
80,WS_RECV_END,1516222418337,79
80,PLAYER_SLEEPBEFORE_START,1516222418337,80
80,PLAYER_SLEEPBEFORE_END,1516222426003,80
80,WS_SEND_START,1516222426003,80
80,WS_SEND_END,1516222426003,80
80,WS_RECV_START,1516222426003,81
80,WS_RECV_END,1516222426756,81
80,PLAYER_SLEEPBEFORE_START,1516222426756,82
80,PLAYER_SLEEPBEFORE_END,1516222427858,82
80,WS_SEND_START,1516222427858,82
80,WS_SEND_END,1516222427858,82
80,WS_RECV_START,1516222427858,83
80,WS_RECV_END,1516222428662,83
80,PLAYER_SLEEPBEFORE_START,1516222428662,84
80,PLAYER_SLEEPBEFORE_END,1516222429610,84
80,WS_SEND_START,1516222429610,84
80,WS_SEND_END,1516222429610,84
80,WS_RECV_START,1516222429610,85
80,WS_RECV_END,1516222430680,85
80,PLAYER_SLEEPBEFORE_START,1516222430680,86
80,PLAYER_SLEEPBEFORE_END,1516222434852,86
80,WS_SEND_START,1516222434852,86
80,WS_SEND_END,1516222434852,86
80,WS_RECV_START,1516222434852,87
80,WS_RECV_END,1516222436258,87
80,PLAYER_SLEEPBEFORE_START,1516222436258,88
80,PLAYER_SLEEPBEFORE_END,1516222436267,88
80,WS_SEND_START,1516222436267,88
80,WS_SEND_END,1516222436267,88
80,WS_RECV_START,1516222436267,89
80,WS_RECV_END,1516222436870,89
80,PLAYER_SLEEPBEFORE_START,1516222436870,90
80,PLAYER_SLEEPBEFORE_END,1516222464067,90
80,REQ_START,1516222464067,90
80,REQ_END,1516222464075,90
80,PLAYER_SLEEPBEFORE_START,1516222464075,91
80,PLAYER_SLEEPBEFORE_END,1516222471964,91
80,WS_SEND_START,1516222471964,91
80,WS_SEND_END,1516222471964,91
80,WS_RECV_START,1516222471964,92
80,WS_RECV_END,1516222473843,92
80,PLAYER_SLEEPBEFORE_START,1516222473843,93
80,PLAYER_SLEEPBEFORE_END,1516222473858,93
80,WS_SEND_START,1516222473858,93
80,WS_SEND_END,1516222473858,93
80,WS_RECV_START,1516222473858,94
80,WS_RECV_END,1516222474994,94
80,PLAYER_SLEEPBEFORE_START,1516222474994,95
80,PLAYER_SLEEPBEFORE_END,1516222498549,95
80,WS_SEND_START,1516222498549,95
80,WS_SEND_END,1516222498549,95
80,WS_RECV_START,1516222498549,96
80,WS_RECV_END,1516222501595,96
80,PLAYER_SLEEPBEFORE_START,1516222501595,97
80,PLAYER_SLEEPBEFORE_END,1516222524035,97
80,WS_SEND_START,1516222524035,97
80,WS_SEND_END,1516222524035,97
80,WS_RECV_START,1516222524035,98
80,WS_RECV_END,1516222527378,98
80,PLAYER_SLEEPBEFORE_START,1516222527378,99
80,PLAYER_SLEEPBEFORE_END,1516222527399,99
80,WS_SEND_START,1516222527399,99
80,WS_SEND_END,1516222527399,99
80,WS_RECV_START,1516222527399,100
80,WS_RECV_END,1516222528984,100
80,PLAYER_SLEEPBEFORE_START,1516222528984,101
80,PLAYER_SLEEPBEFORE_END,1516222552543,101
80,WS_SEND_START,1516222552543,101
80,WS_SEND_END,1516222552543,101
80,WS_RECV_START,1516222552543,102
80,WS_RECV_END,1516222555987,102
80,PLAYER_SLEEPBEFORE_START,1516222555987,103
80,PLAYER_SLEEPBEFORE_END,1516222579612,103
80,WS_SEND_START,1516222579612,103
80,WS_SEND_END,1516222579613,103
80,WS_RECV_START,1516222579613,104
80,WS_RECV_END,1516222583154,104
80,PLAYER_SLEEPBEFORE_START,1516222583154,105
80,PLAYER_SLEEPBEFORE_END,1516222608531,105
80,WS_SEND_START,1516222608531,105
80,WS_SEND_END,1516222608531,105
80,WS_RECV_START,1516222608531,106
80,WS_RECV_END,1516222611516,106
80,PLAYER_SLEEPBEFORE_START,1516222611516,107
80,PLAYER_SLEEPBEFORE_END,1516222634939,107
80,WS_SEND_START,1516222634939,107
80,WS_SEND_END,1516222634939,107
80,WS_RECV_START,1516222634939,108
80,WS_RECV_END,1516222640231,108
80,PLAYER_SLEEPBEFORE_START,1516222640231,109
80,PLAYER_SLEEPBEFORE_END,1516222640240,109
80,WS_SEND_START,1516222640240,109
80,WS_SEND_END,1516222640240,109
80,WS_RECV_START,1516222640240,110
80,WS_RECV_END,1516222643620,110
80,PLAYER_SLEEPBEFORE_START,1516222643620,111
80,PLAYER_SLEEPBEFORE_END,1516222644580,111
80,WS_SEND_START,1516222644580,111
80,WS_SEND_END,1516222644580,111
80,WS_RECV_START,1516222644580,112
80,WS_RECV_END,1516222646929,112
80,PLAYER_SLEEPBEFORE_START,1516222646929,113
80,PLAYER_SLEEPBEFORE_END,1516222647491,113
80,WS_SEND_START,1516222647491,113
80,WS_SEND_END,1516222647491,113
80,WS_RECV_START,1516222647491,114
80,WS_RECV_END,1516222651519,114
80,PLAYER_SLEEPBEFORE_START,1516222651519,115
80,PLAYER_SLEEPBEFORE_END,1516222651528,115
80,WS_SEND_START,1516222651528,115
80,WS_SEND_END,1516222651528,115
80,WS_RECV_START,1516222651528,116
80,WS_RECV_END,1516222656351,116
80,PLAYER_SLEEPBEFORE_START,1516222656351,117
80,PLAYER_SLEEPBEFORE_END,1516222676711,117
80,WS_SEND_START,1516222676711,117
80,WS_SEND_END,1516222676711,117
80,PLAYER_SLEEPBEFORE_START,1516222676711,118
80,PLAYER_SLEEPBEFORE_END,1516222680463,118
80,WS_SEND_START,1516222680463,118
80,WS_SEND_END,1516222680463,118
80,WS_RECV_START,1516222680463,119
80,WS_RECV_END,1516222682820,119
80,PLAYER_SLEEPBEFORE_START,1516222682820,120
80,PLAYER_SLEEPBEFORE_END,1516222683808,120
80,WS_SEND_START,1516222683808,120
80,WS_SEND_END,1516222683808,120
80,WS_RECV_START,1516222683808,121
80,WS_RECV_END,1516222685753,121
80,PLAYER_SLEEPBEFORE_START,1516222685753,122
80,PLAYER_SLEEPBEFORE_END,1516222686938,122
80,WS_SEND_START,1516222686938,122
80,WS_SEND_END,1516222686938,122
80,WS_RECV_START,1516222686938,123
80,WS_RECV_END,1516222689833,123
80,PLAYER_SLEEPBEFORE_START,1516222689833,124
80,PLAYER_SLEEPBEFORE_END,1516222714238,124
80,WS_SEND_START,1516222714238,124
80,WS_SEND_END,1516222714238,124
80,WS_RECV_START,1516222714238,125
80,WS_RECV_END,1516222723056,125
80,PLAYER_SLEEPBEFORE_START,1516222723056,126
80,PLAYER_SLEEPBEFORE_END,1516222743568,126
80,WS_SEND_START,1516222743568,126
80,WS_SEND_END,1516222743568,126
80,PLAYER_SLEEPBEFORE_START,1516222743568,127
80,PLAYER_SLEEPBEFORE_END,1516222746622,127
80,WS_SEND_START,1516222746622,127
80,WS_SEND_END,1516222746622,127
80,WS_RECV_START,1516222746622,128
80,WS_RECV_END,1516222750069,128
80,PLAYER_SLEEPBEFORE_START,1516222750069,129
80,PLAYER_SLEEPBEFORE_END,1516222750089,129
80,WS_SEND_START,1516222750089,129
80,WS_SEND_END,1516222750089,129
80,WS_RECV_START,1516222750089,130
80,WS_RECV_END,1516222753210,130
80,PLAYER_SLEEPBEFORE_START,1516222753210,131
80,PLAYER_SLEEPBEFORE_END,1516222774834,131
80,WS_SEND_START,1516222774834,131
80,WS_SEND_END,1516222774834,131
80,PLAYER_SLEEPBEFORE_START,1516222774834,132
80,PLAYER_SLEEPBEFORE_END,1516222777914,132
80,WS_SEND_START,1516222777914,132
80,WS_SEND_END,1516222777914,132
80,WS_RECV_START,1516222777914,133
80,WS_RECV_END,1516222781878,133
80,PLAYER_SLEEPBEFORE_START,1516222781878,134
80,PLAYER_SLEEPBEFORE_END,1516222803095,134
80,WS_SEND_START,1516222803095,134
80,WS_SEND_END,1516222803095,134
80,PLAYER_SLEEPBEFORE_START,1516222803095,135
80,PLAYER_SLEEPBEFORE_END,1516222806285,135
80,WS_SEND_START,1516222806285,135
80,WS_SEND_END,1516222806285,135
80,WS_RECV_START,1516222806285,136
80,WS_RECV_END,1516222810627,136
80,PLAYER_SLEEPBEFORE_START,1516222810627,137
80,PLAYER_SLEEPBEFORE_END,1516222810634,137
80,WS_SEND_START,1516222810634,137
80,WS_SEND_END,1516222810634,137
80,WS_RECV_START,1516222810634,138
80,WS_RECV_END,1516222813305,138
80,PLAYER_SLEEPBEFORE_START,1516222813305,139
80,PLAYER_SLEEPBEFORE_END,1516222813995,139
80,WS_SEND_START,1516222813995,139
80,WS_SEND_END,1516222813995,139
80,WS_RECV_START,1516222813995,140
80,WS_RECV_END,1516222818744,140
80,PLAYER_SLEEPBEFORE_START,1516222818744,141
80,PLAYER_SLEEPBEFORE_END,1516222819399,141
80,WS_SEND_START,1516222819399,141
80,WS_SEND_END,1516222819399,141
80,WS_RECV_START,1516222819399,142
80,WS_RECV_END,1516222823389,142
80,PLAYER_SLEEPBEFORE_START,1516222823389,143
80,PLAYER_SLEEPBEFORE_END,1516222823446,143
80,WS_SEND_START,1516222823446,143
80,WS_SEND_END,1516222823446,143
80,WS_RECV_START,1516222823446,144
80,WS_RECV_END,1516222828546,144
80,PLAYER_SLEEPBEFORE_START,1516222828546,145
80,PLAYER_SLEEPBEFORE_END,1516222844608,145
80,REQ_START,1516222844608,145
80,REQ_END,1516222844616,145
80,PLAYER_SLEEPBEFORE_START,1516222844616,146
80,PLAYER_SLEEPBEFORE_END,1516222853493,146
80,WS_SEND_START,1516222853493,146
80,WS_SEND_END,1516222853493,146
80,WS_RECV_START,1516222853493,147
80,WS_RECV_END,1516222860689,147
80,PLAYER_SLEEPBEFORE_START,1516222860689,148
80,PLAYER_SLEEPBEFORE_END,1516222882611,148
80,WS_SEND_START,1516222882611,148
80,WS_SEND_END,1516222882611,148
80,PLAYER_SLEEPBEFORE_START,1516222882611,149
80,PLAYER_SLEEPBEFORE_END,1516222885039,149
80,WS_SEND_START,1516222885039,149
80,WS_SEND_END,1516222885039,149
80,WS_RECV_START,1516222885039,150
80,WS_RECV_END,1516222890211,150
80,PLAYER_SLEEPBEFORE_START,1516222890211,151
80,PLAYER_SLEEPBEFORE_END,1516222890421,151
80,WS_SEND_START,1516222890421,151
80,WS_SEND_END,1516222890421,151
80,WS_RECV_START,1516222890421,152
80,WS_RECV_END,1516222894625,152
80,PLAYER_SLEEPBEFORE_START,1516222894625,153
80,PLAYER_SLEEPBEFORE_END,1516222918552,153
80,WS_SEND_START,1516222918552,153
80,WS_SEND_END,1516222918552,153
80,WS_RECV_START,1516222918552,154
80,WS_RECV_END,1516222924075,154
80,PLAYER_SLEEPBEFORE_START,1516222924075,155
80,PLAYER_SLEEPBEFORE_END,1516222946633,155
80,WS_SEND_START,1516222946633,155
80,WS_SEND_END,1516222946633,155
80,PLAYER_SLEEPBEFORE_START,1516222946633,156
80,PLAYER_SLEEPBEFORE_END,1516222949907,156
80,WS_SEND_START,1516222949907,156
80,WS_SEND_END,1516222949907,156
80,WS_RECV_START,1516222949907,157
80,WS_RECV_END,1516222954118,157
80,PLAYER_SLEEPBEFORE_START,1516222954118,158
80,PLAYER_SLEEPBEFORE_END,1516222954128,158
80,WS_SEND_START,1516222954128,158
80,WS_SEND_END,1516222954128,158
80,WS_RECV_START,1516222954128,159
80,WS_RECV_END,1516222957525,159
80,PLAYER_SLEEPBEFORE_START,1516222957525,160
80,PLAYER_SLEEPBEFORE_END,1516222957700,160
80,WS_SEND_START,1516222957700,160
80,WS_SEND_END,1516222957700,160
80,WS_RECV_START,1516222957700,161
80,WS_RECV_END,1516222962810,161
80,PLAYER_SLEEPBEFORE_START,1516222962810,162
80,PLAYER_SLEEPBEFORE_END,1516222962835,162
80,WS_SEND_START,1516222962835,162
80,WS_SEND_END,1516222962835,162
80,WS_RECV_START,1516222962835,163
80,WS_RECV_END,1516222969622,163
80,PLAYER_SLEEPBEFORE_START,1516222969622,164
80,PLAYER_SLEEPBEFORE_END,1516222990434,164
80,WS_SEND_START,1516222990434,164
80,WS_SEND_END,1516222990434,164
80,WS_RECV_START,1516222990434,165
80,WS_RECV_END,1516222999988,165
80,PLAYER_SLEEPBEFORE_START,1516222999988,166
80,PLAYER_SLEEPBEFORE_END,1516223022443,166
80,WS_SEND_START,1516223022443,166
80,WS_SEND_END,1516223022443,166
80,WS_RECV_START,1516223022443,167
80,WS_RECV_END,1516223031152,167
80,PLAYER_SLEEPBEFORE_START,1516223031152,168
80,PLAYER_SLEEPBEFORE_END,1516223058509,168
80,WS_SEND_START,1516223058509,168
80,WS_SEND_END,1516223058509,168
80,WS_RECV_START,1516223058509,169
80,WS_RECV_END,1516223064480,169
80,PLAYER_SLEEPBEFORE_START,1516223064480,170
80,PLAYER_SLEEPBEFORE_END,1516223064489,170
80,WS_SEND_START,1516223064489,170
80,WS_SEND_END,1516223064489,170
80,WS_RECV_START,1516223064489,171
80,WS_RECV_END,1516223068745,171
80,PLAYER_SLEEPBEFORE_START,1516223068745,172
80,PLAYER_SLEEPBEFORE_END,1516223069114,172
80,WS_SEND_START,1516223069114,172
80,WS_SEND_END,1516223069114,172
80,WS_RECV_START,1516223069114,173
80,WS_RECV_END,1516223074169,173
80,PLAYER_SLEEPBEFORE_START,1516223074169,174
80,PLAYER_SLEEPBEFORE_END,1516223074210,174
80,WS_SEND_START,1516223074210,174
80,WS_SEND_END,1516223074210,174
80,WS_RECV_START,1516223074210,175
80,WS_RECV_END,1516223078956,175
80,PLAYER_SLEEPBEFORE_START,1516223078956,176
80,PLAYER_SLEEPBEFORE_END,1516223100717,176
80,WS_SEND_START,1516223100717,176
80,WS_SEND_END,1516223100718,176
80,PLAYER_SLEEPBEFORE_START,1516223100718,177
80,PLAYER_SLEEPBEFORE_END,1516223103236,177
80,WS_SEND_START,1516223103236,177
80,WS_SEND_END,1516223103236,177
80,WS_RECV_START,1516223103236,178
80,WS_RECV_END,1516223108968,178
80,PLAYER_SLEEPBEFORE_START,1516223108968,179
80,PLAYER_SLEEPBEFORE_END,1516223131308,179
80,WS_SEND_START,1516223131308,179
80,WS_SEND_END,1516223131308,179
80,WS_RECV_START,1516223131308,180
80,WS_RECV_END,1516223138014,180
80,PLAYER_SLEEPBEFORE_START,1516223138014,181
80,PLAYER_SLEEPBEFORE_END,1516223138458,181
80,WS_SEND_START,1516223138458,181
80,WS_SEND_END,1516223138458,181
80,WS_RECV_START,1516223138458,182
80,WS_RECV_END,1516223148676,182
80,PLAYER_SLEEPBEFORE_START,1516223148676,183
80,PLAYER_SLEEPBEFORE_END,1516223149199,183
80,WS_SEND_START,1516223149199,183
80,WS_SEND_END,1516223149199,183
80,WS_RECV_START,1516223149199,184
80,WS_RECV_END,1516223153880,184
80,PLAYER_SLEEPBEFORE_START,1516223153880,185
80,PLAYER_SLEEPBEFORE_END,1516223154148,185
80,WS_SEND_START,1516223154148,185
80,WS_SEND_END,1516223154148,185
80,WS_RECV_START,1516223154148,186
80,WS_RECV_END,1516223159814,186
80,PLAYER_SLEEPBEFORE_START,1516223159814,187
80,PLAYER_SLEEPBEFORE_END,1516223182314,187
80,WS_SEND_START,1516223182314,187
80,WS_SEND_END,1516223182314,187
80,WS_RECV_START,1516223182315,188
80,WS_RECV_END,1516223194743,188
80,PLAYER_SLEEPBEFORE_START,1516223194743,189
80,PLAYER_SLEEPBEFORE_END,1516223200982,189
80,WS_SEND_START,1516223200982,189
80,WS_SEND_END,1516223200982,189
80,WS_RECV_START,1516223200982,190
80,WS_RECV_END,1516223211668,190
80,PLAYER_SLEEPBEFORE_START,1516223211668,191
80,PLAYER_SLEEPBEFORE_END,1516223213583,191
80,WS_SEND_START,1516223213583,191
80,WS_SEND_END,1516223213583,191
80,WS_RECV_START,1516223213583,192
80,WS_RECV_END,1516223218117,192
80,PLAYER_SLEEPBEFORE_START,1516223218117,193
80,PLAYER_SLEEPBEFORE_END,1516223218245,193
80,WS_SEND_START,1516223218245,193
80,WS_SEND_END,1516223218245,193
80,WS_RECV_START,1516223218245,194
80,WS_RECV_END,1516223225990,194
80,PLAYER_SLEEPBEFORE_START,1516223225990,195
80,PLAYER_SLEEPBEFORE_END,1516223227745,195
80,WS_SEND_START,1516223227745,195
80,WS_SEND_END,1516223227745,195
80,WS_RECV_START,1516223227745,196
80,WS_RECV_END,1516223235540,196
80,PLAYER_SLEEPBEFORE_START,1516223235540,197
80,PLAYER_SLEEPBEFORE_END,1516223237344,197
80,WS_SEND_START,1516223237344,197
80,WS_SEND_END,1516223237344,197
80,WS_RECV_START,1516223237344,198
80,WS_RECV_END,1516223244070,198
80,PLAYER_SLEEPBEFORE_START,1516223244070,199
80,PLAYER_SLEEPBEFORE_END,1516223255924,199
80,WS_SEND_START,1516223255924,199
80,WS_SEND_END,1516223255924,199
80,PLAYER_SLEEPBEFORE_START,1516223255924,200
80,PLAYER_SLEEPBEFORE_END,1516223260012,200
80,WS_SEND_START,1516223260012,200
80,WS_SEND_END,1516223260012,200
80,WS_RECV_START,1516223260012,201
80,WS_RECV_END,1516223264867,201
80,PLAYER_SLEEPBEFORE_START,1516223264867,202
80,PLAYER_SLEEPBEFORE_END,1516223264881,202
80,WS_SEND_START,1516223264881,202
80,WS_SEND_END,1516223264881,202
80,WS_RECV_START,1516223264881,203
80,WS_RECV_END,1516223269921,203
80,PLAYER_SLEEPBEFORE_START,1516223269921,204
80,PLAYER_SLEEPBEFORE_END,1516223289570,204
80,WS_SEND_START,1516223289571,204
80,WS_SEND_END,1516223289571,204
80,PLAYER_SLEEPBEFORE_START,1516223289571,205
80,PLAYER_SLEEPBEFORE_END,1516223293469,205
80,WS_SEND_START,1516223293469,205
80,WS_SEND_END,1516223293469,205
80,WS_RECV_START,1516223293469,206
80,WS_RECV_END,1516223297781,206
80,PLAYER_SLEEPBEFORE_START,1516223297781,207
80,PLAYER_SLEEPBEFORE_END,1516223314712,207
80,REQ_START,1516223314712,207
80,REQ_END,1516223314720,207
80,PLAYER_SLEEPBEFORE_START,1516223314720,208
80,PLAYER_SLEEPBEFORE_END,1516223321572,208
80,WS_CLOSE_START,1516223321572,208
80,WS_CLOSE_END,1516223321572,208
80,PLAYER_DONE,1516223321572
