# --sessions 150 --app-url=http://shinyloadtest.rstudioservices.com/ --output-dir test150 --overwrite-output --log-level warn --start-interval 1500 30min.log
thread_id,event,timestamp,input_line_number,comment
3,PLAYER_SESSION_CREATE,1516041945569
3,PLAYER_START_INTERVAL_START,1516041945569
3,PLAYER_START_INTERVAL_END,1516041950069
3,REQ_HOME_START,1516041950069,2
3,REQ_HOME_END,1516041950163,2
3,REQ_START,1516041950163,3
3,REQ_END,1516041950196,3
3,REQ_START,1516041950196,4
3,REQ_END,1516041950229,4
3,REQ_START,1516041950229,5
3,REQ_END,1516041950264,5
3,REQ_START,1516041950264,6
3,REQ_END,1516041950299,6
3,REQ_START,1516041950299,7
3,REQ_END,1516041950333,7
3,REQ_START,1516041950333,8
3,REQ_END,1516041950369,8
3,REQ_START,1516041950369,9
3,REQ_END,1516041950403,9
3,REQ_START,1516041950403,10
3,REQ_END,1516041950412,10
3,REQ_START,1516041950412,11
3,REQ_END,1516041950446,11
3,REQ_START,1516041950446,12
3,REQ_END,1516041950478,12
3,REQ_START,1516041950478,13
3,REQ_END,1516041950489,13
3,REQ_START,1516041950489,14
3,REQ_END,1516041950504,14
3,REQ_START,1516041950504,15
3,REQ_END,1516041950539,15
3,REQ_TOK_START,1516041950539,16
3,REQ_TOK_END,1516041950547,16
3,REQ_SINF_START,1516041950547,17
3,REQ_SINF_END,1516041950555,17
3,WS_OPEN_START,1516041950555,18
3,WS_OPEN_END,1516041950561,18
3,WS_RECV_START,1516041950561,19
3,WS_RECV_END,1516041950562,19
3,PLAYER_SLEEPBEFORE_START,1516041950562,20
3,PLAYER_SLEEPBEFORE_END,1516041950569,20
3,WS_SEND_START,1516041950569,20
3,WS_SEND_END,1516041950569,20
3,PLAYER_SLEEPBEFORE_START,1516041950569,21
3,PLAYER_SLEEPBEFORE_END,1516041950570,21
3,WS_SEND_START,1516041950570,21
3,WS_SEND_END,1516041950570,21
3,WS_RECV_INIT_START,1516041950570,22
3,WS_RECV_INIT_END,1516041950588,22
3,WS_RECV_START,1516041950588,23
3,WS_RECV_END,1516041950672,23
3,PLAYER_SLEEPBEFORE_START,1516041950672,24
3,PLAYER_SLEEPBEFORE_END,1516041950679,24
3,REQ_START,1516041950679,24
3,REQ_END,1516041950716,24
3,PLAYER_SLEEPBEFORE_START,1516041950716,25
3,PLAYER_SLEEPBEFORE_END,1516041950718,25
3,REQ_START,1516041950718,25
3,REQ_END,1516041950751,25
3,PLAYER_SLEEPBEFORE_START,1516041950751,26
3,PLAYER_SLEEPBEFORE_END,1516041950754,26
3,REQ_START,1516041950754,26
3,REQ_END,1516041950794,26
3,PLAYER_SLEEPBEFORE_START,1516041950794,27
3,PLAYER_SLEEPBEFORE_END,1516041951050,27
3,REQ_START,1516041951050,27
3,REQ_END,1516041951088,27
3,PLAYER_SLEEPBEFORE_START,1516041951088,28
3,PLAYER_SLEEPBEFORE_END,1516041951286,28
3,WS_SEND_START,1516041951286,28
3,WS_SEND_END,1516041951286,28
3,WS_RECV_START,1516041951286,29
3,WS_RECV_END,1516041951465,29
3,PLAYER_SLEEPBEFORE_START,1516041951465,30
3,PLAYER_SLEEPBEFORE_END,1516041951476,30
3,REQ_START,1516041951476,30
3,REQ_END,1516041951512,30
3,PLAYER_SLEEPBEFORE_START,1516041951512,31
3,PLAYER_SLEEPBEFORE_END,1516041981632,31
3,WS_SEND_START,1516041981632,31
3,WS_SEND_END,1516041981632,31
3,WS_RECV_START,1516041981632,32
3,WS_RECV_END,1516041981801,32
3,PLAYER_SLEEPBEFORE_START,1516041981801,33
3,PLAYER_SLEEPBEFORE_END,1516042006567,33
3,WS_SEND_START,1516042006567,33
3,WS_SEND_END,1516042006567,33
3,WS_RECV_START,1516042006567,34
3,WS_RECV_END,1516042006667,34
3,PLAYER_SLEEPBEFORE_START,1516042006667,35
3,PLAYER_SLEEPBEFORE_END,1516042031480,35
3,WS_SEND_START,1516042031480,35
3,WS_SEND_END,1516042031480,35
3,WS_RECV_START,1516042031480,36
3,WS_RECV_END,1516042031536,36
3,PLAYER_SLEEPBEFORE_START,1516042031536,37
3,PLAYER_SLEEPBEFORE_END,1516042031545,37
3,WS_SEND_START,1516042031545,37
3,WS_SEND_END,1516042031545,37
3,WS_RECV_START,1516042031545,38
3,WS_RECV_END,1516042031587,38
3,PLAYER_SLEEPBEFORE_START,1516042031587,39
3,PLAYER_SLEEPBEFORE_END,1516042034284,39
3,WS_SEND_START,1516042034284,39
3,WS_SEND_END,1516042034284,39
3,WS_RECV_START,1516042034284,40
3,WS_RECV_END,1516042034354,40
3,PLAYER_SLEEPBEFORE_START,1516042034354,41
3,PLAYER_SLEEPBEFORE_END,1516042035473,41
3,WS_SEND_START,1516042035473,41
3,WS_SEND_END,1516042035473,41
3,WS_RECV_START,1516042035473,42
3,WS_RECV_END,1516042036493,42
3,PLAYER_SLEEPBEFORE_START,1516042036493,43
3,PLAYER_SLEEPBEFORE_END,1516042036521,43
3,WS_SEND_START,1516042036521,43
3,WS_SEND_END,1516042036521,43
3,WS_RECV_START,1516042036521,44
3,WS_RECV_END,1516042036641,44
3,PLAYER_SLEEPBEFORE_START,1516042036641,45
3,PLAYER_SLEEPBEFORE_END,1516042058130,45
3,WS_SEND_START,1516042058130,45
3,WS_SEND_END,1516042058130,45
3,WS_RECV_START,1516042058130,46
3,WS_RECV_END,1516042058286,46
3,PLAYER_SLEEPBEFORE_START,1516042058286,47
3,PLAYER_SLEEPBEFORE_END,1516042086771,47
3,WS_SEND_START,1516042086771,47
3,WS_SEND_END,1516042086771,47
3,WS_RECV_START,1516042086771,48
3,WS_RECV_END,1516042087581,48
3,PLAYER_SLEEPBEFORE_START,1516042087581,49
3,PLAYER_SLEEPBEFORE_END,1516042113990,49
3,WS_SEND_START,1516042113990,49
3,WS_SEND_END,1516042113990,49
3,WS_RECV_START,1516042113990,50
3,WS_RECV_END,1516042114155,50
3,PLAYER_SLEEPBEFORE_START,1516042114155,51
3,PLAYER_SLEEPBEFORE_END,1516042136707,51
3,WS_SEND_START,1516042136707,51
3,WS_SEND_END,1516042136707,51
3,WS_RECV_START,1516042136707,52
3,WS_RECV_END,1516042137103,52
3,PLAYER_SLEEPBEFORE_START,1516042137103,53
3,PLAYER_SLEEPBEFORE_END,1516042162007,53
3,WS_SEND_START,1516042162007,53
3,WS_SEND_END,1516042162007,53
3,WS_RECV_START,1516042162007,54
3,WS_RECV_END,1516042162184,54
3,PLAYER_SLEEPBEFORE_START,1516042162184,55
3,PLAYER_SLEEPBEFORE_END,1516042187585,55
3,WS_SEND_START,1516042187585,55
3,WS_SEND_END,1516042187585,55
3,WS_RECV_START,1516042187585,56
3,WS_RECV_END,1516042187705,56
3,PLAYER_SLEEPBEFORE_START,1516042187705,57
3,PLAYER_SLEEPBEFORE_END,1516042213043,57
3,WS_SEND_START,1516042213043,57
3,WS_SEND_END,1516042213043,57
3,WS_RECV_START,1516042213043,58
3,WS_RECV_END,1516042213247,58
3,PLAYER_SLEEPBEFORE_START,1516042213247,59
3,PLAYER_SLEEPBEFORE_END,1516042240104,59
3,WS_SEND_START,1516042240104,59
3,WS_SEND_END,1516042240104,59
3,WS_RECV_START,1516042240104,60
3,WS_RECV_END,1516042241183,60
3,PLAYER_SLEEPBEFORE_START,1516042241183,61
3,PLAYER_SLEEPBEFORE_END,1516042241206,61
3,WS_SEND_START,1516042241206,61
3,WS_SEND_END,1516042241206,61
3,WS_RECV_START,1516042241206,62
3,WS_RECV_END,1516042241326,62
3,PLAYER_SLEEPBEFORE_START,1516042241326,63
3,PLAYER_SLEEPBEFORE_END,1516042250330,63
3,REQ_START,1516042250330,63
3,REQ_END,1516042250337,63
3,PLAYER_SLEEPBEFORE_START,1516042250337,64
3,PLAYER_SLEEPBEFORE_END,1516042264544,64
3,WS_SEND_START,1516042264544,64
3,WS_SEND_END,1516042264544,64
3,WS_RECV_START,1516042264544,65
3,WS_RECV_END,1516042264665,65
3,PLAYER_SLEEPBEFORE_START,1516042264665,66
3,PLAYER_SLEEPBEFORE_END,1516042288653,66
3,WS_SEND_START,1516042288653,66
3,WS_SEND_END,1516042288653,66
3,WS_RECV_START,1516042288653,67
3,WS_RECV_END,1516042288784,67
3,PLAYER_SLEEPBEFORE_START,1516042288784,68
3,PLAYER_SLEEPBEFORE_END,1516042314358,68
3,WS_SEND_START,1516042314358,68
3,WS_SEND_END,1516042314358,68
3,WS_RECV_START,1516042314358,69
3,WS_RECV_END,1516042314548,69
3,PLAYER_SLEEPBEFORE_START,1516042314548,70
3,PLAYER_SLEEPBEFORE_END,1516042314557,70
3,WS_SEND_START,1516042314557,70
3,WS_SEND_END,1516042314557,70
3,WS_RECV_START,1516042314557,71
3,WS_RECV_END,1516042314599,71
3,PLAYER_SLEEPBEFORE_START,1516042314599,72
3,PLAYER_SLEEPBEFORE_END,1516042314805,72
3,WS_SEND_START,1516042314805,72
3,WS_SEND_END,1516042314805,72
3,WS_RECV_START,1516042314805,73
3,WS_RECV_END,1516042314857,73
3,PLAYER_SLEEPBEFORE_START,1516042314857,74
3,PLAYER_SLEEPBEFORE_END,1516042316279,74
3,WS_SEND_START,1516042316279,74
3,WS_SEND_END,1516042316279,74
3,WS_RECV_START,1516042316279,75
3,WS_RECV_END,1516042316334,75
3,PLAYER_SLEEPBEFORE_START,1516042316334,76
3,PLAYER_SLEEPBEFORE_END,1516042316829,76
3,WS_SEND_START,1516042316829,76
3,WS_SEND_END,1516042316829,76
3,WS_RECV_START,1516042316829,77
3,WS_RECV_END,1516042317645,77
3,PLAYER_SLEEPBEFORE_START,1516042317645,78
3,PLAYER_SLEEPBEFORE_END,1516042317663,78
3,WS_SEND_START,1516042317663,78
3,WS_SEND_END,1516042317663,78
3,WS_RECV_START,1516042317663,79
3,WS_RECV_END,1516042317943,79
3,PLAYER_SLEEPBEFORE_START,1516042317943,80
3,PLAYER_SLEEPBEFORE_END,1516042338677,80
3,WS_SEND_START,1516042338677,80
3,WS_SEND_END,1516042338677,80
3,WS_RECV_START,1516042338677,81
3,WS_RECV_END,1516042338758,81
3,PLAYER_SLEEPBEFORE_START,1516042338758,82
3,PLAYER_SLEEPBEFORE_END,1516042338769,82
3,WS_SEND_START,1516042338769,82
3,WS_SEND_END,1516042338769,82
3,WS_RECV_START,1516042338769,83
3,WS_RECV_END,1516042338812,83
3,PLAYER_SLEEPBEFORE_START,1516042338812,84
3,PLAYER_SLEEPBEFORE_END,1516042339675,84
3,WS_SEND_START,1516042339675,84
3,WS_SEND_END,1516042339675,84
3,WS_RECV_START,1516042339675,85
3,WS_RECV_END,1516042340714,85
3,PLAYER_SLEEPBEFORE_START,1516042340714,86
3,PLAYER_SLEEPBEFORE_END,1516042341441,86
3,WS_SEND_START,1516042341441,86
3,WS_SEND_END,1516042341441,86
3,WS_RECV_START,1516042341441,87
3,WS_RECV_END,1516042342890,87
3,PLAYER_SLEEPBEFORE_START,1516042342890,88
3,PLAYER_SLEEPBEFORE_END,1516042342912,88
3,WS_SEND_START,1516042342912,88
3,WS_SEND_END,1516042342912,88
3,WS_RECV_START,1516042342912,89
3,WS_RECV_END,1516042343376,89
3,PLAYER_SLEEPBEFORE_START,1516042343376,90
3,PLAYER_SLEEPBEFORE_END,1516042364805,90
3,WS_SEND_START,1516042364805,90
3,WS_SEND_END,1516042364805,90
3,PLAYER_SLEEPBEFORE_START,1516042364805,91
3,PLAYER_SLEEPBEFORE_END,1516042391660,91
3,WS_SEND_START,1516042391660,91
3,WS_SEND_END,1516042391660,91
3,WS_RECV_START,1516042391660,92
3,WS_RECV_END,1516042391877,92
3,PLAYER_SLEEPBEFORE_START,1516042391877,93
3,PLAYER_SLEEPBEFORE_END,1516042394151,93
3,WS_SEND_START,1516042394151,93
3,WS_SEND_END,1516042394151,93
3,WS_RECV_START,1516042394151,94
3,WS_RECV_END,1516042394357,94
3,PLAYER_SLEEPBEFORE_START,1516042394357,95
3,PLAYER_SLEEPBEFORE_END,1516042420353,95
3,WS_SEND_START,1516042420353,95
3,WS_SEND_END,1516042420353,95
3,WS_RECV_START,1516042420353,96
3,WS_RECV_END,1516042420713,96
3,PLAYER_SLEEPBEFORE_START,1516042420713,97
3,PLAYER_SLEEPBEFORE_END,1516042425801,97
3,WS_SEND_START,1516042425801,97
3,WS_SEND_END,1516042425801,97
3,WS_RECV_START,1516042425801,98
3,WS_RECV_END,1516042426025,98
3,PLAYER_SLEEPBEFORE_START,1516042426025,99
3,PLAYER_SLEEPBEFORE_END,1516042427725,99
3,WS_SEND_START,1516042427725,99
3,WS_SEND_END,1516042427725,99
3,WS_RECV_START,1516042427725,100
3,WS_RECV_END,1516042428244,100
3,PLAYER_SLEEPBEFORE_START,1516042428244,101
3,PLAYER_SLEEPBEFORE_END,1516042430083,101
3,WS_SEND_START,1516042430083,101
3,WS_SEND_END,1516042430083,101
3,WS_RECV_START,1516042430083,102
3,WS_RECV_END,1516042430246,102
3,PLAYER_SLEEPBEFORE_START,1516042430246,103
3,PLAYER_SLEEPBEFORE_END,1516042443296,103
3,WS_SEND_START,1516042443296,103
3,WS_SEND_END,1516042443297,103
3,PLAYER_SLEEPBEFORE_START,1516042443297,104
3,PLAYER_SLEEPBEFORE_END,1516042447723,104
3,WS_SEND_START,1516042447723,104
3,WS_SEND_END,1516042447723,104
3,WS_RECV_START,1516042447723,105
3,WS_RECV_END,1516042448596,105
3,PLAYER_SLEEPBEFORE_START,1516042448596,106
3,PLAYER_SLEEPBEFORE_END,1516042448605,106
3,WS_SEND_START,1516042448605,106
3,WS_SEND_END,1516042448605,106
3,WS_RECV_START,1516042448605,107
3,WS_RECV_END,1516042448954,107
3,PLAYER_SLEEPBEFORE_START,1516042448954,108
3,PLAYER_SLEEPBEFORE_END,1516042449418,108
3,WS_SEND_START,1516042449418,108
3,WS_SEND_END,1516042449418,108
3,WS_RECV_START,1516042449418,109
3,WS_RECV_END,1516042451283,109
3,PLAYER_SLEEPBEFORE_START,1516042451284,110
3,PLAYER_SLEEPBEFORE_END,1516042451299,110
3,WS_SEND_START,1516042451299,110
3,WS_SEND_END,1516042451299,110
3,WS_RECV_START,1516042451299,111
3,WS_RECV_END,1516042452179,111
3,PLAYER_SLEEPBEFORE_START,1516042452179,112
3,PLAYER_SLEEPBEFORE_END,1516042472943,112
3,WS_SEND_START,1516042472943,112
3,WS_SEND_END,1516042472943,112
3,PLAYER_SLEEPBEFORE_START,1516042472943,113
3,PLAYER_SLEEPBEFORE_END,1516042475337,113
3,WS_SEND_START,1516042475337,113
3,WS_SEND_END,1516042475337,113
3,WS_RECV_START,1516042475337,114
3,WS_RECV_END,1516042477597,114
3,PLAYER_SLEEPBEFORE_START,1516042477597,115
3,PLAYER_SLEEPBEFORE_END,1516042478379,115
3,WS_SEND_START,1516042478379,115
3,WS_SEND_END,1516042478379,115
3,WS_RECV_START,1516042478379,116
3,WS_RECV_END,1516042478912,116
3,PLAYER_SLEEPBEFORE_START,1516042478912,117
3,PLAYER_SLEEPBEFORE_END,1516042501298,117
3,WS_SEND_START,1516042501298,117
3,WS_SEND_END,1516042501298,117
3,WS_RECV_START,1516042501298,118
3,WS_RECV_END,1516042502859,118
3,PLAYER_SLEEPBEFORE_START,1516042502859,119
3,PLAYER_SLEEPBEFORE_END,1516042504763,119
3,WS_SEND_START,1516042504763,119
3,WS_SEND_END,1516042504763,119
3,WS_RECV_START,1516042504763,120
3,WS_RECV_END,1516042505721,120
3,PLAYER_SLEEPBEFORE_START,1516042505721,121
3,PLAYER_SLEEPBEFORE_END,1516042506874,121
3,WS_SEND_START,1516042506874,121
3,WS_SEND_END,1516042506874,121
3,WS_RECV_START,1516042506874,122
3,WS_RECV_END,1516042507121,122
3,PLAYER_SLEEPBEFORE_START,1516042507121,123
3,PLAYER_SLEEPBEFORE_END,1516042508245,123
3,WS_SEND_START,1516042508245,123
3,WS_SEND_END,1516042508245,123
3,WS_RECV_START,1516042508245,124
3,WS_RECV_END,1516042509248,124
3,PLAYER_SLEEPBEFORE_START,1516042509248,125
3,PLAYER_SLEEPBEFORE_END,1516042510744,125
3,WS_SEND_START,1516042510744,125
3,WS_SEND_END,1516042510744,125
3,WS_RECV_START,1516042510744,126
3,WS_RECV_END,1516042511259,126
3,PLAYER_SLEEPBEFORE_START,1516042511259,127
3,PLAYER_SLEEPBEFORE_END,1516042531869,127
3,WS_SEND_START,1516042531869,127
3,WS_SEND_END,1516042531869,127
3,WS_RECV_START,1516042531869,128
3,WS_RECV_END,1516042532489,128
3,PLAYER_SLEEPBEFORE_START,1516042532489,129
3,PLAYER_SLEEPBEFORE_END,1516042557520,129
3,WS_SEND_START,1516042557520,129
3,WS_SEND_END,1516042557520,129
3,PLAYER_SLEEPBEFORE_START,1516042557520,130
3,PLAYER_SLEEPBEFORE_END,1516042559500,130
3,WS_SEND_START,1516042559501,130
3,WS_SEND_END,1516042559501,130
3,WS_RECV_START,1516042559501,131
3,WS_RECV_END,1516042559560,131
3,PLAYER_SLEEPBEFORE_START,1516042559561,132
3,PLAYER_SLEEPBEFORE_END,1516042559570,132
3,WS_SEND_START,1516042559570,132
3,WS_SEND_END,1516042559570,132
3,WS_RECV_START,1516042559570,133
3,WS_RECV_END,1516042559778,133
3,PLAYER_SLEEPBEFORE_START,1516042559778,134
3,PLAYER_SLEEPBEFORE_END,1516042560854,134
3,REQ_START,1516042560854,134
3,REQ_END,1516042560862,134
3,PLAYER_SLEEPBEFORE_START,1516042560862,135
3,PLAYER_SLEEPBEFORE_END,1516042561453,135
3,WS_SEND_START,1516042561453,135
3,WS_SEND_END,1516042561453,135
3,WS_RECV_START,1516042561453,136
3,WS_RECV_END,1516042562161,136
3,PLAYER_SLEEPBEFORE_START,1516042562161,137
3,PLAYER_SLEEPBEFORE_END,1516042562174,137
3,WS_SEND_START,1516042562174,137
3,WS_SEND_END,1516042562174,137
3,WS_RECV_START,1516042562174,138
3,WS_RECV_END,1516042562505,138
3,PLAYER_SLEEPBEFORE_START,1516042562505,139
3,PLAYER_SLEEPBEFORE_END,1516042580179,139
3,WS_SEND_START,1516042580179,139
3,WS_SEND_END,1516042580179,139
3,PLAYER_SLEEPBEFORE_START,1516042580179,140
3,PLAYER_SLEEPBEFORE_END,1516042584082,140
3,WS_SEND_START,1516042584082,140
3,WS_SEND_END,1516042584082,140
3,PLAYER_SLEEPBEFORE_START,1516042584082,141
3,PLAYER_SLEEPBEFORE_END,1516042586374,141
3,WS_SEND_START,1516042586374,141
3,WS_SEND_END,1516042586374,141
3,WS_RECV_START,1516042586374,142
3,WS_RECV_END,1516042586463,142
3,PLAYER_SLEEPBEFORE_START,1516042586463,143
3,PLAYER_SLEEPBEFORE_END,1516042586471,143
3,WS_SEND_START,1516042586471,143
3,WS_SEND_END,1516042586471,143
3,WS_RECV_START,1516042586471,144
3,WS_RECV_END,1516042586518,144
3,PLAYER_SLEEPBEFORE_START,1516042586518,145
3,PLAYER_SLEEPBEFORE_END,1516042588261,145
3,WS_SEND_START,1516042588261,145
3,WS_SEND_END,1516042588261,145
3,WS_RECV_START,1516042588261,146
3,WS_RECV_END,1516042589113,146
3,PLAYER_SLEEPBEFORE_START,1516042589113,147
3,PLAYER_SLEEPBEFORE_END,1516042589122,147
3,WS_SEND_START,1516042589122,147
3,WS_SEND_END,1516042589122,147
3,WS_RECV_START,1516042589122,148
3,WS_RECV_END,1516042590684,148
3,PLAYER_SLEEPBEFORE_START,1516042590684,149
3,PLAYER_SLEEPBEFORE_END,1516042605797,149
3,WS_SEND_START,1516042605797,149
3,WS_SEND_END,1516042605797,149
3,PLAYER_SLEEPBEFORE_START,1516042605797,150
3,PLAYER_SLEEPBEFORE_END,1516042616472,150
3,WS_SEND_START,1516042616472,150
3,WS_SEND_END,1516042616472,150
3,PLAYER_SLEEPBEFORE_START,1516042616472,151
3,PLAYER_SLEEPBEFORE_END,1516042619464,151
3,WS_SEND_START,1516042619464,151
3,WS_SEND_END,1516042619464,151
3,WS_RECV_START,1516042619464,152
3,WS_RECV_END,1516042619583,152
3,PLAYER_SLEEPBEFORE_START,1516042619583,153
3,PLAYER_SLEEPBEFORE_END,1516042619590,153
3,WS_SEND_START,1516042619590,153
3,WS_SEND_END,1516042619590,153
3,WS_RECV_START,1516042619590,154
3,WS_RECV_END,1516042619706,154
3,PLAYER_SLEEPBEFORE_START,1516042619706,155
3,PLAYER_SLEEPBEFORE_END,1516042620314,155
3,WS_SEND_START,1516042620314,155
3,WS_SEND_END,1516042620314,155
3,WS_RECV_START,1516042620314,156
3,WS_RECV_END,1516042620387,156
3,PLAYER_SLEEPBEFORE_START,1516042620387,157
3,PLAYER_SLEEPBEFORE_END,1516042621730,157
3,WS_SEND_START,1516042621730,157
3,WS_SEND_END,1516042621730,157
3,WS_RECV_START,1516042621730,158
3,WS_RECV_END,1516042622587,158
3,PLAYER_SLEEPBEFORE_START,1516042622587,159
3,PLAYER_SLEEPBEFORE_END,1516042626487,159
3,WS_SEND_START,1516042626487,159
3,WS_SEND_END,1516042626487,159
3,WS_RECV_START,1516042626487,160
3,WS_RECV_END,1516042626557,160
3,PLAYER_SLEEPBEFORE_START,1516042626557,161
3,PLAYER_SLEEPBEFORE_END,1516042627340,161
3,WS_SEND_START,1516042627340,161
3,WS_SEND_END,1516042627340,161
3,WS_RECV_START,1516042627340,162
3,WS_RECV_END,1516042628187,162
3,PLAYER_SLEEPBEFORE_START,1516042628187,163
3,PLAYER_SLEEPBEFORE_END,1516042628196,163
3,WS_SEND_START,1516042628196,163
3,WS_SEND_END,1516042628196,163
3,WS_RECV_START,1516042628196,164
3,WS_RECV_END,1516042631000,164
3,PLAYER_SLEEPBEFORE_START,1516042631000,165
3,PLAYER_SLEEPBEFORE_END,1516042638373,165
3,WS_SEND_START,1516042638373,165
3,WS_SEND_END,1516042638373,165
3,WS_RECV_START,1516042638373,166
3,WS_RECV_END,1516042640558,166
3,PLAYER_SLEEPBEFORE_START,1516042640558,167
3,PLAYER_SLEEPBEFORE_END,1516042661808,167
3,WS_SEND_START,1516042661808,167
3,WS_SEND_END,1516042661808,167
3,PLAYER_SLEEPBEFORE_START,1516042661808,168
3,PLAYER_SLEEPBEFORE_END,1516042666543,168
3,WS_SEND_START,1516042666543,168
3,WS_SEND_END,1516042666543,168
3,PLAYER_SLEEPBEFORE_START,1516042666543,169
3,PLAYER_SLEEPBEFORE_END,1516042668094,169
3,WS_SEND_START,1516042668094,169
3,WS_SEND_END,1516042668094,169
3,WS_RECV_START,1516042668094,170
3,WS_RECV_END,1516042668981,170
3,PLAYER_SLEEPBEFORE_START,1516042668981,171
3,PLAYER_SLEEPBEFORE_END,1516042668988,171
3,WS_SEND_START,1516042668988,171
3,WS_SEND_END,1516042668988,171
3,WS_RECV_START,1516042668988,172
3,WS_RECV_END,1516042669326,172
3,PLAYER_SLEEPBEFORE_START,1516042669326,173
3,PLAYER_SLEEPBEFORE_END,1516042670094,173
3,WS_SEND_START,1516042670094,173
3,WS_SEND_END,1516042670094,173
3,WS_RECV_START,1516042670094,174
3,WS_RECV_END,1516042670149,174
3,PLAYER_SLEEPBEFORE_START,1516042670149,175
3,PLAYER_SLEEPBEFORE_END,1516042670909,175
3,WS_SEND_START,1516042670909,175
3,WS_SEND_END,1516042670909,175
3,WS_RECV_START,1516042670909,176
3,WS_RECV_END,1516042671778,176
3,PLAYER_SLEEPBEFORE_START,1516042671778,177
3,PLAYER_SLEEPBEFORE_END,1516042672579,177
3,WS_SEND_START,1516042672579,177
3,WS_SEND_END,1516042672579,177
3,WS_RECV_START,1516042672579,178
3,WS_RECV_END,1516042672709,178
3,PLAYER_SLEEPBEFORE_START,1516042672709,179
3,PLAYER_SLEEPBEFORE_END,1516042677963,179
3,WS_SEND_START,1516042677963,179
3,WS_SEND_END,1516042677963,179
3,PLAYER_SLEEPBEFORE_START,1516042677963,180
3,PLAYER_SLEEPBEFORE_END,1516042684582,180
3,WS_SEND_START,1516042684582,180
3,WS_SEND_END,1516042684582,180
3,PLAYER_SLEEPBEFORE_START,1516042684582,181
3,PLAYER_SLEEPBEFORE_END,1516042686318,181
3,WS_SEND_START,1516042686318,181
3,WS_SEND_END,1516042686318,181
3,WS_RECV_START,1516042686318,182
3,WS_RECV_END,1516042686401,182
3,PLAYER_SLEEPBEFORE_START,1516042686401,183
3,PLAYER_SLEEPBEFORE_END,1516042687138,183
3,WS_SEND_START,1516042687138,183
3,WS_SEND_END,1516042687138,183
3,WS_RECV_START,1516042687138,184
3,WS_RECV_END,1516042688306,184
3,PLAYER_SLEEPBEFORE_START,1516042688306,185
3,PLAYER_SLEEPBEFORE_END,1516042688319,185
3,WS_SEND_START,1516042688319,185
3,WS_SEND_END,1516042688319,185
3,WS_RECV_START,1516042688319,186
3,WS_RECV_END,1516042690571,186
3,PLAYER_SLEEPBEFORE_START,1516042690571,187
3,PLAYER_SLEEPBEFORE_END,1516042715578,187
3,WS_SEND_START,1516042715578,187
3,WS_SEND_END,1516042715578,187
3,WS_RECV_START,1516042715578,188
3,WS_RECV_END,1516042715797,188
3,PLAYER_SLEEPBEFORE_START,1516042715797,189
3,PLAYER_SLEEPBEFORE_END,1516042741020,189
3,WS_SEND_START,1516042741020,189
3,WS_SEND_END,1516042741020,189
3,WS_RECV_START,1516042741020,190
3,WS_RECV_END,1516042742002,190
3,PLAYER_SLEEPBEFORE_START,1516042742002,191
3,PLAYER_SLEEPBEFORE_END,1516042742007,191
3,WS_SEND_START,1516042742007,191
3,WS_SEND_END,1516042742007,191
3,WS_RECV_START,1516042742007,192
3,WS_RECV_END,1516042742050,192
3,PLAYER_SLEEPBEFORE_START,1516042742050,193
3,PLAYER_SLEEPBEFORE_END,1516042742487,193
3,WS_SEND_START,1516042742487,193
3,WS_SEND_END,1516042742487,193
3,WS_RECV_START,1516042742487,194
3,WS_RECV_END,1516042743494,194
3,PLAYER_SLEEPBEFORE_START,1516042743494,195
3,PLAYER_SLEEPBEFORE_END,1516042743508,195
3,WS_SEND_START,1516042743508,195
3,WS_SEND_END,1516042743508,195
3,WS_RECV_START,1516042743508,196
3,WS_RECV_END,1516042743687,196
3,PLAYER_SLEEPBEFORE_START,1516042743687,197
3,PLAYER_SLEEPBEFORE_END,1516042768457,197
3,WS_SEND_START,1516042768457,197
3,WS_SEND_END,1516042768457,197
3,WS_RECV_START,1516042768457,198
3,WS_RECV_END,1516042768546,198
3,PLAYER_SLEEPBEFORE_START,1516042768546,199
3,PLAYER_SLEEPBEFORE_END,1516042768553,199
3,WS_SEND_START,1516042768553,199
3,WS_SEND_END,1516042768553,199
3,WS_RECV_START,1516042768553,200
3,WS_RECV_END,1516042768598,200
3,PLAYER_SLEEPBEFORE_START,1516042768598,201
3,PLAYER_SLEEPBEFORE_END,1516042769895,201
3,WS_SEND_START,1516042769895,201
3,WS_SEND_END,1516042769895,201
3,WS_RECV_START,1516042769895,202
3,WS_RECV_END,1516042771374,202
3,PLAYER_SLEEPBEFORE_START,1516042771374,203
3,PLAYER_SLEEPBEFORE_END,1516042771386,203
3,WS_SEND_START,1516042771386,203
3,WS_SEND_END,1516042771386,203
3,WS_RECV_START,1516042771386,204
3,WS_RECV_END,1516042771609,204
3,PLAYER_SLEEPBEFORE_START,1516042771609,205
3,PLAYER_SLEEPBEFORE_END,1516042793240,205
3,WS_SEND_START,1516042793240,205
3,WS_SEND_END,1516042793240,205
3,WS_RECV_START,1516042793240,206
3,WS_RECV_END,1516042794204,206
3,PLAYER_SLEEPBEFORE_START,1516042794204,207
3,PLAYER_SLEEPBEFORE_END,1516042818327,207
3,WS_SEND_START,1516042818327,207
3,WS_SEND_END,1516042818327,207
3,WS_RECV_START,1516042818327,208
3,WS_RECV_END,1516042819365,208
3,PLAYER_SLEEPBEFORE_START,1516042819365,209
3,PLAYER_SLEEPBEFORE_END,1516042825779,209
3,WS_SEND_START,1516042825779,209
3,WS_SEND_END,1516042825779,209
3,WS_RECV_START,1516042825779,210
3,WS_RECV_END,1516042830247,210
3,PLAYER_SLEEPBEFORE_START,1516042830247,211
3,PLAYER_SLEEPBEFORE_END,1516042849080,211
3,WS_SEND_START,1516042849080,211
3,WS_SEND_END,1516042849080,211
3,WS_RECV_START,1516042849080,212
3,WS_RECV_END,1516042849674,212
3,PLAYER_SLEEPBEFORE_START,1516042849674,213
3,PLAYER_SLEEPBEFORE_END,1516042874727,213
3,WS_SEND_START,1516042874727,213
3,WS_SEND_END,1516042874727,213
3,WS_RECV_START,1516042874727,214
3,WS_RECV_END,1516042874881,214
3,PLAYER_SLEEPBEFORE_START,1516042874881,215
3,PLAYER_SLEEPBEFORE_END,1516042882992,215
3,REQ_START,1516042882992,215
3,REQ_END,1516042883000,215
3,PLAYER_SLEEPBEFORE_START,1516042883000,216
3,PLAYER_SLEEPBEFORE_END,1516042899561,216
3,WS_SEND_START,1516042899561,216
3,WS_SEND_END,1516042899561,216
3,WS_RECV_START,1516042899561,217
3,WS_RECV_END,1516042899647,217
3,PLAYER_SLEEPBEFORE_START,1516042899647,218
3,PLAYER_SLEEPBEFORE_END,1516042899654,218
3,WS_SEND_START,1516042899654,218
3,WS_SEND_END,1516042899654,218
3,WS_RECV_START,1516042899654,219
3,WS_RECV_END,1516042899694,219
3,PLAYER_SLEEPBEFORE_START,1516042899694,220
3,PLAYER_SLEEPBEFORE_END,1516042900462,220
3,WS_SEND_START,1516042900462,220
3,WS_SEND_END,1516042900462,220
3,WS_RECV_START,1516042900462,221
3,WS_RECV_END,1516042902775,221
3,PLAYER_SLEEPBEFORE_START,1516042902775,222
3,PLAYER_SLEEPBEFORE_END,1516042902832,222
3,WS_SEND_START,1516042902832,222
3,WS_SEND_END,1516042902832,222
3,WS_RECV_START,1516042902832,223
3,WS_RECV_END,1516042903370,223
3,PLAYER_SLEEPBEFORE_START,1516042903370,224
3,PLAYER_SLEEPBEFORE_END,1516042926026,224
3,WS_SEND_START,1516042926026,224
3,WS_SEND_END,1516042926026,224
3,WS_RECV_START,1516042926026,225
3,WS_RECV_END,1516042926455,225
3,PLAYER_SLEEPBEFORE_START,1516042926455,226
3,PLAYER_SLEEPBEFORE_END,1516042952191,226
3,WS_SEND_START,1516042952191,226
3,WS_SEND_END,1516042952191,226
3,WS_RECV_START,1516042952191,227
3,WS_RECV_END,1516042953025,227
3,PLAYER_SLEEPBEFORE_START,1516042953025,228
3,PLAYER_SLEEPBEFORE_END,1516042976018,228
3,WS_SEND_START,1516042976018,228
3,WS_SEND_END,1516042976018,228
3,WS_RECV_START,1516042976018,229
3,WS_RECV_END,1516042976299,229
3,PLAYER_SLEEPBEFORE_START,1516042976299,230
3,PLAYER_SLEEPBEFORE_END,1516043000515,230
3,WS_SEND_START,1516043000515,230
3,WS_SEND_END,1516043000515,230
3,WS_RECV_START,1516043000515,231
3,WS_RECV_END,1516043000645,231
3,PLAYER_SLEEPBEFORE_START,1516043000645,232
3,PLAYER_SLEEPBEFORE_END,1516043025402,232
3,WS_SEND_START,1516043025402,232
3,WS_SEND_END,1516043025402,232
3,WS_RECV_START,1516043025402,233
3,WS_RECV_END,1516043027546,233
3,PLAYER_SLEEPBEFORE_START,1516043027546,234
3,PLAYER_SLEEPBEFORE_END,1516043054579,234
3,WS_SEND_START,1516043054579,234
3,WS_SEND_END,1516043054579,234
3,WS_RECV_START,1516043054579,235
3,WS_RECV_END,1516043056038,235
3,PLAYER_SLEEPBEFORE_START,1516043056038,236
3,PLAYER_SLEEPBEFORE_END,1516043079878,236
3,WS_SEND_START,1516043079878,236
3,WS_SEND_END,1516043079878,236
3,WS_RECV_START,1516043079878,237
3,WS_RECV_END,1516043081093,237
3,PLAYER_SLEEPBEFORE_START,1516043081094,238
3,PLAYER_SLEEPBEFORE_END,1516043093904,238
3,WS_SEND_START,1516043093904,238
3,WS_SEND_END,1516043093904,238
3,WS_RECV_START,1516043093904,239
3,WS_RECV_END,1516043094017,239
3,PLAYER_SLEEPBEFORE_START,1516043094017,240
3,PLAYER_SLEEPBEFORE_END,1516043106672,240
3,WS_SEND_START,1516043106672,240
3,WS_SEND_END,1516043106672,240
3,WS_RECV_START,1516043106672,241
3,WS_RECV_END,1516043109525,241
3,PLAYER_SLEEPBEFORE_START,1516043109525,242
3,PLAYER_SLEEPBEFORE_END,1516043109548,242
3,WS_SEND_START,1516043109548,242
3,WS_SEND_END,1516043109548,242
3,WS_RECV_START,1516043109548,243
3,WS_RECV_END,1516043110080,243
3,PLAYER_SLEEPBEFORE_START,1516043110080,244
3,PLAYER_SLEEPBEFORE_END,1516043132318,244
3,WS_SEND_START,1516043132318,244
3,WS_SEND_END,1516043132319,244
3,WS_RECV_START,1516043132319,245
3,WS_RECV_END,1516043133727,245
3,PLAYER_SLEEPBEFORE_START,1516043133727,246
3,PLAYER_SLEEPBEFORE_END,1516043133736,246
3,WS_SEND_START,1516043133736,246
3,WS_SEND_END,1516043133736,246
3,WS_RECV_START,1516043133736,247
3,WS_RECV_END,1516043134142,247
3,PLAYER_SLEEPBEFORE_START,1516043134142,248
3,PLAYER_SLEEPBEFORE_END,1516043136179,248
3,WS_SEND_START,1516043136179,248
3,WS_SEND_END,1516043136179,248
3,WS_RECV_START,1516043136179,249
3,WS_RECV_END,1516043138325,249
3,PLAYER_SLEEPBEFORE_START,1516043138325,250
3,PLAYER_SLEEPBEFORE_END,1516043138362,250
3,WS_SEND_START,1516043138362,250
3,WS_SEND_END,1516043138362,250
3,WS_RECV_START,1516043138362,251
3,WS_RECV_END,1516043138712,251
3,PLAYER_SLEEPBEFORE_START,1516043138712,252
3,PLAYER_SLEEPBEFORE_END,1516043161354,252
3,WS_SEND_START,1516043161355,252
3,WS_SEND_END,1516043161355,252
3,WS_RECV_START,1516043161355,253
3,WS_RECV_END,1516043162245,253
3,PLAYER_SLEEPBEFORE_START,1516043162245,254
3,PLAYER_SLEEPBEFORE_END,1516043162262,254
3,WS_SEND_START,1516043162262,254
3,WS_SEND_END,1516043162262,254
3,WS_RECV_START,1516043162262,255
3,WS_RECV_END,1516043162373,255
3,PLAYER_SLEEPBEFORE_START,1516043162373,256
3,PLAYER_SLEEPBEFORE_END,1516043186995,256
3,WS_SEND_START,1516043186995,256
3,WS_SEND_END,1516043186995,256
3,WS_RECV_START,1516043186995,257
3,WS_RECV_END,1516043187050,257
3,PLAYER_SLEEPBEFORE_START,1516043187050,258
3,PLAYER_SLEEPBEFORE_END,1516043187058,258
3,WS_SEND_START,1516043187058,258
3,WS_SEND_END,1516043187058,258
3,WS_RECV_START,1516043187058,259
3,WS_RECV_END,1516043187097,259
3,PLAYER_SLEEPBEFORE_START,1516043187097,260
3,PLAYER_SLEEPBEFORE_END,1516043187621,260
3,WS_SEND_START,1516043187621,260
3,WS_SEND_END,1516043187621,260
3,WS_RECV_START,1516043187621,261
3,WS_RECV_END,1516043187675,261
3,PLAYER_SLEEPBEFORE_START,1516043187675,262
3,PLAYER_SLEEPBEFORE_END,1516043187947,262
3,WS_SEND_START,1516043187947,262
3,WS_SEND_END,1516043187947,262
3,WS_RECV_START,1516043187947,263
3,WS_RECV_END,1516043188012,263
3,PLAYER_SLEEPBEFORE_START,1516043188012,264
3,PLAYER_SLEEPBEFORE_END,1516043190426,264
3,WS_SEND_START,1516043190426,264
3,WS_SEND_END,1516043190426,264
3,WS_RECV_START,1516043190426,265
3,WS_RECV_END,1516043191653,265
3,PLAYER_SLEEPBEFORE_START,1516043191653,266
3,PLAYER_SLEEPBEFORE_END,1516043191665,266
3,WS_SEND_START,1516043191665,266
3,WS_SEND_END,1516043191665,266
3,WS_RECV_START,1516043191665,267
3,WS_RECV_END,1516043191900,267
3,PLAYER_SLEEPBEFORE_START,1516043191900,268
3,PLAYER_SLEEPBEFORE_END,1516043193370,268
3,REQ_START,1516043193370,268
3,REQ_END,1516043193379,268
3,PLAYER_SLEEPBEFORE_START,1516043193379,269
3,PLAYER_SLEEPBEFORE_END,1516043210773,269
3,WS_SEND_START,1516043210773,269
3,WS_SEND_END,1516043210773,269
3,WS_RECV_START,1516043210773,270
3,WS_RECV_END,1516043211605,270
3,PLAYER_SLEEPBEFORE_START,1516043211605,271
3,PLAYER_SLEEPBEFORE_END,1516043211612,271
3,WS_SEND_START,1516043211612,271
3,WS_SEND_END,1516043211612,271
3,WS_RECV_START,1516043211612,272
3,WS_RECV_END,1516043211737,272
3,PLAYER_SLEEPBEFORE_START,1516043211737,273
3,PLAYER_SLEEPBEFORE_END,1516043213034,273
3,WS_SEND_START,1516043213034,273
3,WS_SEND_END,1516043213034,273
3,WS_RECV_START,1516043213034,274
3,WS_RECV_END,1516043213087,274
3,PLAYER_SLEEPBEFORE_START,1516043213087,275
3,PLAYER_SLEEPBEFORE_END,1516043214260,275
3,WS_SEND_START,1516043214260,275
3,WS_SEND_END,1516043214260,275
3,WS_RECV_START,1516043214260,276
3,WS_RECV_END,1516043215867,276
3,PLAYER_SLEEPBEFORE_START,1516043215867,277
3,PLAYER_SLEEPBEFORE_END,1516043215890,277
3,WS_SEND_START,1516043215890,277
3,WS_SEND_END,1516043215890,277
3,WS_RECV_START,1516043215890,278
3,WS_RECV_END,1516043217891,278
3,PLAYER_SLEEPBEFORE_START,1516043217891,279
3,PLAYER_SLEEPBEFORE_END,1516043242414,279
3,WS_SEND_START,1516043242414,279
3,WS_SEND_END,1516043242414,279
3,WS_RECV_START,1516043242414,280
3,WS_RECV_END,1516043243756,280
3,PLAYER_SLEEPBEFORE_START,1516043243756,281
3,PLAYER_SLEEPBEFORE_END,1516043266045,281
3,WS_SEND_START,1516043266045,281
3,WS_SEND_END,1516043266045,281
3,WS_RECV_START,1516043266045,282
3,WS_RECV_END,1516043269226,282
3,PLAYER_SLEEPBEFORE_START,1516043269226,283
3,PLAYER_SLEEPBEFORE_END,1516043269244,283
3,WS_SEND_START,1516043269244,283
3,WS_SEND_END,1516043269244,283
3,WS_RECV_START,1516043269244,284
3,WS_RECV_END,1516043269615,284
3,PLAYER_SLEEPBEFORE_START,1516043269615,285
3,PLAYER_SLEEPBEFORE_END,1516043293746,285
3,WS_SEND_START,1516043293746,285
3,WS_SEND_END,1516043293746,285
3,WS_RECV_START,1516043293747,286
3,WS_RECV_END,1516043298345,286
3,PLAYER_SLEEPBEFORE_START,1516043298345,287
3,PLAYER_SLEEPBEFORE_END,1516043321499,287
3,WS_SEND_START,1516043321499,287
3,WS_SEND_END,1516043321499,287
3,WS_RECV_START,1516043321499,288
3,WS_RECV_END,1516043324952,288
3,PLAYER_SLEEPBEFORE_START,1516043324952,289
3,PLAYER_SLEEPBEFORE_END,1516043324974,289
3,WS_SEND_START,1516043324974,289
3,WS_SEND_END,1516043324974,289
3,WS_RECV_START,1516043324974,290
3,WS_RECV_END,1516043326432,290
3,PLAYER_SLEEPBEFORE_START,1516043326432,291
3,PLAYER_SLEEPBEFORE_END,1516043337046,291
3,WS_SEND_START,1516043337046,291
3,WS_SEND_END,1516043337046,291
3,WS_RECV_START,1516043337046,292
3,WS_RECV_END,1516043340923,292
3,PLAYER_SLEEPBEFORE_START,1516043340923,293
3,PLAYER_SLEEPBEFORE_END,1516043356680,293
3,WS_SEND_START,1516043356680,293
3,WS_SEND_END,1516043356680,293
3,WS_RECV_START,1516043356680,294
3,WS_RECV_END,1516043364450,294
3,PLAYER_SLEEPBEFORE_START,1516043364450,295
3,PLAYER_SLEEPBEFORE_END,1516043364475,295
3,WS_SEND_START,1516043364475,295
3,WS_SEND_END,1516043364475,295
3,WS_RECV_START,1516043364475,296
3,WS_RECV_END,1516043365360,296
3,PLAYER_SLEEPBEFORE_START,1516043365360,297
3,PLAYER_SLEEPBEFORE_END,1516043386857,297
3,WS_SEND_START,1516043386857,297
3,WS_SEND_END,1516043386857,297
3,WS_RECV_START,1516043386857,298
3,WS_RECV_END,1516043390997,298
3,PLAYER_SLEEPBEFORE_START,1516043390997,299
3,PLAYER_SLEEPBEFORE_END,1516043391007,299
3,WS_SEND_START,1516043391007,299
3,WS_SEND_END,1516043391007,299
3,WS_RECV_START,1516043391007,300
3,WS_RECV_END,1516043393672,300
3,PLAYER_SLEEPBEFORE_START,1516043393672,301
3,PLAYER_SLEEPBEFORE_END,1516043396033,301
3,WS_SEND_START,1516043396033,301
3,WS_SEND_END,1516043396033,301
3,WS_RECV_START,1516043396033,302
3,WS_RECV_END,1516043397636,302
3,PLAYER_SLEEPBEFORE_START,1516043397636,303
3,PLAYER_SLEEPBEFORE_END,1516043397661,303
3,WS_SEND_START,1516043397661,303
3,WS_SEND_END,1516043397661,303
3,WS_RECV_START,1516043397661,304
3,WS_RECV_END,1516043403905,304
3,PLAYER_SLEEPBEFORE_START,1516043403905,305
3,PLAYER_SLEEPBEFORE_END,1516043428895,305
3,WS_SEND_START,1516043428895,305
3,WS_SEND_END,1516043428895,305
3,WS_RECV_START,1516043428895,306
3,WS_RECV_END,1516043431042,306
3,PLAYER_SLEEPBEFORE_START,1516043431043,307
3,PLAYER_SLEEPBEFORE_END,1516043454918,307
3,WS_SEND_START,1516043454918,307
3,WS_SEND_END,1516043454918,307
3,WS_RECV_START,1516043454918,308
3,WS_RECV_END,1516043459604,308
3,PLAYER_SLEEPBEFORE_START,1516043459604,309
3,PLAYER_SLEEPBEFORE_END,1516043481295,309
3,WS_SEND_START,1516043481295,309
3,WS_SEND_END,1516043481295,309
3,WS_RECV_START,1516043481295,310
3,WS_RECV_END,1516043481560,310
3,PLAYER_SLEEPBEFORE_START,1516043481560,311
3,PLAYER_SLEEPBEFORE_END,1516043510387,311
3,WS_SEND_START,1516043510387,311
3,WS_SEND_END,1516043510387,311
3,WS_RECV_START,1516043510387,312
3,WS_RECV_END,1516043511737,312
3,PLAYER_SLEEPBEFORE_START,1516043511737,313
3,PLAYER_SLEEPBEFORE_END,1516043511757,313
3,WS_SEND_START,1516043511757,313
3,WS_SEND_END,1516043511757,313
3,WS_RECV_START,1516043511757,314
3,WS_RECV_END,1516043513582,314
3,PLAYER_SLEEPBEFORE_START,1516043513582,315
3,PLAYER_SLEEPBEFORE_END,1516043535168,315
3,WS_SEND_START,1516043535168,315
3,WS_SEND_END,1516043535168,315
3,WS_RECV_START,1516043535168,316
3,WS_RECV_END,1516043535226,316
3,PLAYER_SLEEPBEFORE_START,1516043535226,317
3,PLAYER_SLEEPBEFORE_END,1516043535234,317
3,WS_SEND_START,1516043535234,317
3,WS_SEND_END,1516043535234,317
3,WS_RECV_START,1516043535234,318
3,WS_RECV_END,1516043535276,318
3,PLAYER_SLEEPBEFORE_START,1516043535276,319
3,PLAYER_SLEEPBEFORE_END,1516043535608,319
3,WS_SEND_START,1516043535608,319
3,WS_SEND_END,1516043535608,319
3,WS_RECV_START,1516043535608,320
3,WS_RECV_END,1516043536577,320
3,PLAYER_SLEEPBEFORE_START,1516043536577,321
3,PLAYER_SLEEPBEFORE_END,1516043536596,321
3,WS_SEND_START,1516043536596,321
3,WS_SEND_END,1516043536596,321
3,WS_RECV_START,1516043536596,322
3,WS_RECV_END,1516043536762,322
3,PLAYER_SLEEPBEFORE_START,1516043536762,323
3,PLAYER_SLEEPBEFORE_END,1516043541155,323
3,REQ_START,1516043541155,323
3,REQ_END,1516043541164,323
3,PLAYER_SLEEPBEFORE_START,1516043541164,324
3,PLAYER_SLEEPBEFORE_END,1516043561050,324
3,WS_SEND_START,1516043561050,324
3,WS_SEND_END,1516043561050,324
3,WS_RECV_START,1516043561050,325
3,WS_RECV_END,1516043561141,325
3,PLAYER_SLEEPBEFORE_START,1516043561141,326
3,PLAYER_SLEEPBEFORE_END,1516043561150,326
3,WS_SEND_START,1516043561150,326
3,WS_SEND_END,1516043561150,326
3,WS_RECV_START,1516043561150,327
3,WS_RECV_END,1516043561196,327
3,PLAYER_SLEEPBEFORE_START,1516043561196,328
3,PLAYER_SLEEPBEFORE_END,1516043561557,328
3,WS_SEND_START,1516043561557,328
3,WS_SEND_END,1516043561557,328
3,WS_RECV_START,1516043561557,329
3,WS_RECV_END,1516043563328,329
3,PLAYER_SLEEPBEFORE_START,1516043563328,330
3,PLAYER_SLEEPBEFORE_END,1516043563674,330
3,WS_SEND_START,1516043563674,330
3,WS_SEND_END,1516043563674,330
3,WS_RECV_START,1516043563674,331
3,WS_RECV_END,1516043564522,331
3,PLAYER_SLEEPBEFORE_START,1516043564522,332
3,PLAYER_SLEEPBEFORE_END,1516043565369,332
3,WS_SEND_START,1516043565369,332
3,WS_SEND_END,1516043565369,332
3,WS_RECV_START,1516043565369,333
3,WS_RECV_END,1516043566908,333
3,PLAYER_SLEEPBEFORE_START,1516043566908,334
3,PLAYER_SLEEPBEFORE_END,1516043567305,334
3,WS_SEND_START,1516043567305,334
3,WS_SEND_END,1516043567305,334
3,WS_RECV_START,1516043567305,335
3,WS_RECV_END,1516043569688,335
3,PLAYER_SLEEPBEFORE_START,1516043569688,336
3,PLAYER_SLEEPBEFORE_END,1516043570012,336
3,WS_SEND_START,1516043570012,336
3,WS_SEND_END,1516043570012,336
3,WS_RECV_START,1516043570012,337
3,WS_RECV_END,1516043571393,337
3,PLAYER_SLEEPBEFORE_START,1516043571393,338
3,PLAYER_SLEEPBEFORE_END,1516043571408,338
3,WS_SEND_START,1516043571408,338
3,WS_SEND_END,1516043571408,338
3,WS_RECV_START,1516043571408,339
3,WS_RECV_END,1516043572811,339
3,PLAYER_SLEEPBEFORE_START,1516043572811,340
3,PLAYER_SLEEPBEFORE_END,1516043590784,340
3,WS_SEND_START,1516043590784,340
3,WS_SEND_END,1516043590784,340
3,WS_RECV_START,1516043590784,341
3,WS_RECV_END,1516043596139,341
3,PLAYER_SLEEPBEFORE_START,1516043596139,342
3,PLAYER_SLEEPBEFORE_END,1516043596148,342
3,WS_SEND_START,1516043596148,342
3,WS_SEND_END,1516043596148,342
3,WS_RECV_START,1516043596148,343
3,WS_RECV_END,1516043596772,343
3,PLAYER_SLEEPBEFORE_START,1516043596772,344
3,PLAYER_SLEEPBEFORE_END,1516043599084,344
3,WS_SEND_START,1516043599084,344
3,WS_SEND_END,1516043599084,344
3,WS_RECV_START,1516043599084,345
3,WS_RECV_END,1516043600646,345
3,PLAYER_SLEEPBEFORE_START,1516043600646,346
3,PLAYER_SLEEPBEFORE_END,1516043600657,346
3,WS_SEND_START,1516043600657,346
3,WS_SEND_END,1516043600657,346
3,WS_RECV_START,1516043600657,347
3,WS_RECV_END,1516043600919,347
3,PLAYER_SLEEPBEFORE_START,1516043600919,348
3,PLAYER_SLEEPBEFORE_END,1516043621526,348
3,WS_SEND_START,1516043621526,348
3,WS_SEND_END,1516043621526,348
3,WS_RECV_START,1516043621526,349
3,WS_RECV_END,1516043625520,349
3,PLAYER_SLEEPBEFORE_START,1516043625520,350
3,PLAYER_SLEEPBEFORE_END,1516043625528,350
3,WS_SEND_START,1516043625528,350
3,WS_SEND_END,1516043625528,350
3,WS_RECV_START,1516043625528,351
3,WS_RECV_END,1516043627476,351
3,PLAYER_SLEEPBEFORE_START,1516043627477,352
3,PLAYER_SLEEPBEFORE_END,1516043628663,352
3,WS_SEND_START,1516043628663,352
3,WS_SEND_END,1516043628663,352
3,WS_RECV_START,1516043628663,353
3,WS_RECV_END,1516043630495,353
3,PLAYER_SLEEPBEFORE_START,1516043630495,354
3,PLAYER_SLEEPBEFORE_END,1516043630511,354
3,WS_SEND_START,1516043630511,354
3,WS_SEND_END,1516043630511,354
3,WS_RECV_START,1516043630511,355
3,WS_RECV_END,1516043630817,355
3,PLAYER_SLEEPBEFORE_START,1516043630817,356
3,PLAYER_SLEEPBEFORE_END,1516043630863,356
3,WS_SEND_START,1516043630863,356
3,WS_SEND_END,1516043630863,356
3,WS_RECV_START,1516043630863,357
3,WS_RECV_END,1516043633066,357
3,PLAYER_SLEEPBEFORE_START,1516043633066,358
3,PLAYER_SLEEPBEFORE_END,1516043633081,358
3,WS_SEND_START,1516043633081,358
3,WS_SEND_END,1516043633081,358
3,WS_RECV_START,1516043633081,359
3,WS_RECV_END,1516043633799,359
3,PLAYER_SLEEPBEFORE_START,1516043633799,360
3,PLAYER_SLEEPBEFORE_END,1516043654265,360
3,WS_SEND_START,1516043654265,360
3,WS_SEND_END,1516043654265,360
3,WS_RECV_START,1516043654265,361
3,WS_RECV_END,1516043655008,361
3,PLAYER_SLEEPBEFORE_START,1516043655008,362
3,PLAYER_SLEEPBEFORE_END,1516043655017,362
3,WS_SEND_START,1516043655017,362
3,WS_SEND_END,1516043655017,362
3,WS_RECV_START,1516043655017,363
3,WS_RECV_END,1516043655177,363
3,PLAYER_SLEEPBEFORE_START,1516043655177,364
3,PLAYER_SLEEPBEFORE_END,1516043657268,364
3,WS_SEND_START,1516043657268,364
3,WS_SEND_END,1516043657268,364
3,WS_RECV_START,1516043657268,365
3,WS_RECV_END,1516043658544,365
3,PLAYER_SLEEPBEFORE_START,1516043658544,366
3,PLAYER_SLEEPBEFORE_END,1516043658554,366
3,WS_SEND_START,1516043658554,366
3,WS_SEND_END,1516043658554,366
3,WS_RECV_START,1516043658554,367
3,WS_RECV_END,1516043660296,367
3,PLAYER_SLEEPBEFORE_START,1516043660296,368
3,PLAYER_SLEEPBEFORE_END,1516043683756,368
3,WS_SEND_START,1516043683756,368
3,WS_SEND_END,1516043683756,368
3,WS_RECV_START,1516043683756,369
3,WS_RECV_END,1516043684098,369
3,PLAYER_SLEEPBEFORE_START,1516043684098,370
3,PLAYER_SLEEPBEFORE_END,1516043684106,370
3,WS_SEND_START,1516043684106,370
3,WS_SEND_END,1516043684106,370
3,WS_RECV_START,1516043684106,371
3,WS_RECV_END,1516043684165,371
3,PLAYER_SLEEPBEFORE_START,1516043684165,372
3,PLAYER_SLEEPBEFORE_END,1516043684537,372
3,WS_SEND_START,1516043684537,372
3,WS_SEND_END,1516043684537,372
3,WS_RECV_START,1516043684537,373
3,WS_RECV_END,1516043685562,373
3,PLAYER_SLEEPBEFORE_START,1516043685562,374
3,PLAYER_SLEEPBEFORE_END,1516043686264,374
3,WS_SEND_START,1516043686264,374
3,WS_SEND_END,1516043686264,374
3,WS_RECV_START,1516043686264,375
3,WS_RECV_END,1516043688150,375
3,PLAYER_SLEEPBEFORE_START,1516043688150,376
3,PLAYER_SLEEPBEFORE_END,1516043688501,376
3,WS_SEND_START,1516043688501,376
3,WS_SEND_END,1516043688501,376
3,WS_RECV_START,1516043688501,377
3,WS_RECV_END,1516043691073,377
3,PLAYER_SLEEPBEFORE_START,1516043691074,378
3,PLAYER_SLEEPBEFORE_END,1516043691093,378
3,WS_SEND_START,1516043691093,378
3,WS_SEND_END,1516043691093,378
3,WS_RECV_START,1516043691093,379
3,WS_RECV_END,1516043693193,379
3,PLAYER_SLEEPBEFORE_START,1516043693193,380
3,PLAYER_SLEEPBEFORE_END,1516043713685,380
3,WS_SEND_START,1516043713685,380
3,WS_SEND_END,1516043713685,380
3,PLAYER_SLEEPBEFORE_START,1516043713685,381
3,PLAYER_SLEEPBEFORE_END,1516043717899,381
3,WS_SEND_START,1516043717899,381
3,WS_SEND_END,1516043717899,381
3,WS_RECV_START,1516043717899,382
3,WS_RECV_END,1516043720158,382
3,PLAYER_SLEEPBEFORE_START,1516043720158,383
3,PLAYER_SLEEPBEFORE_END,1516043740358,383
3,WS_SEND_START,1516043740358,383
3,WS_SEND_END,1516043740358,383
3,PLAYER_SLEEPBEFORE_START,1516043740358,384
3,PLAYER_SLEEPBEFORE_END,1516043743544,384
3,WS_SEND_START,1516043743544,384
3,WS_SEND_END,1516043743544,384
3,WS_RECV_START,1516043743544,385
3,WS_RECV_END,1516043746356,385
3,PLAYER_SLEEPBEFORE_START,1516043746356,386
3,PLAYER_SLEEPBEFORE_END,1516043746371,386
3,WS_SEND_START,1516043746371,386
3,WS_SEND_END,1516043746371,386
3,WS_RECV_START,1516043746371,387
3,WS_RECV_END,1516043749036,387
3,PLAYER_SLEEPBEFORE_START,1516043749037,388
3,PLAYER_SLEEPBEFORE_END,1516043769567,388
3,WS_SEND_START,1516043769567,388
3,WS_SEND_END,1516043769567,388
3,PLAYER_SLEEPBEFORE_START,1516043769567,389
3,PLAYER_SLEEPBEFORE_END,1516043771786,389
3,WS_SEND_START,1516043771786,389
3,WS_SEND_END,1516043771786,389
3,WS_RECV_START,1516043771786,390
3,WS_RECV_END,1516043781023,390
3,PLAYER_SLEEPBEFORE_START,1516043781023,391
3,PLAYER_SLEEPBEFORE_END,1516043803860,391
3,WS_SEND_START,1516043803860,391
3,WS_SEND_END,1516043803860,391
3,WS_RECV_START,1516043803860,392
3,WS_RECV_END,1516043810615,392
3,PLAYER_SLEEPBEFORE_START,1516043810615,393
3,PLAYER_SLEEPBEFORE_END,1516043835304,393
3,WS_SEND_START,1516043835304,393
3,WS_SEND_END,1516043835304,393
3,PLAYER_SLEEPBEFORE_START,1516043835304,394
3,PLAYER_SLEEPBEFORE_END,1516043837276,394
3,WS_SEND_START,1516043837276,394
3,WS_SEND_END,1516043837276,394
3,WS_RECV_START,1516043837276,395
3,WS_RECV_END,1516043841476,395
3,PLAYER_SLEEPBEFORE_START,1516043841476,396
3,PLAYER_SLEEPBEFORE_END,1516043841484,396
3,WS_SEND_START,1516043841484,396
3,WS_SEND_END,1516043841484,396
3,WS_RECV_START,1516043841484,397
3,WS_RECV_END,1516043843047,397
3,PLAYER_SLEEPBEFORE_START,1516043843047,398
3,PLAYER_SLEEPBEFORE_END,1516043843227,398
3,WS_SEND_START,1516043843227,398
3,WS_SEND_END,1516043843227,398
3,WS_RECV_START,1516043843227,399
3,WS_RECV_END,1516043844110,399
3,PLAYER_SLEEPBEFORE_START,1516043844110,400
3,PLAYER_SLEEPBEFORE_END,1516043845186,400
3,WS_SEND_START,1516043845186,400
3,WS_SEND_END,1516043845186,400
3,WS_RECV_START,1516043845186,401
3,WS_RECV_END,1516043846513,401
3,PLAYER_SLEEPBEFORE_START,1516043846513,402
3,PLAYER_SLEEPBEFORE_END,1516043847872,402
3,WS_SEND_START,1516043847872,402
3,WS_SEND_END,1516043847872,402
3,WS_RECV_START,1516043847872,403
3,WS_RECV_END,1516043850954,403
3,PLAYER_SLEEPBEFORE_START,1516043850954,404
3,PLAYER_SLEEPBEFORE_END,1516043851424,404
3,WS_SEND_START,1516043851424,404
3,WS_SEND_END,1516043851424,404
3,WS_RECV_START,1516043851424,405
3,WS_RECV_END,1516043852671,405
3,PLAYER_SLEEPBEFORE_START,1516043852671,406
3,PLAYER_SLEEPBEFORE_END,1516043855398,406
3,WS_SEND_START,1516043855398,406
3,WS_SEND_END,1516043855398,406
3,WS_RECV_START,1516043855398,407
3,WS_RECV_END,1516043859542,407
3,PLAYER_SLEEPBEFORE_START,1516043859542,408
3,PLAYER_SLEEPBEFORE_END,1516043859871,408
3,WS_SEND_START,1516043859871,408
3,WS_SEND_END,1516043859871,408
3,WS_RECV_START,1516043859871,409
3,WS_RECV_END,1516043867243,409
3,PLAYER_SLEEPBEFORE_START,1516043867243,410
3,PLAYER_SLEEPBEFORE_END,1516043868268,410
3,WS_SEND_START,1516043868268,410
3,WS_SEND_END,1516043868268,410
3,WS_RECV_START,1516043868268,411
3,WS_RECV_END,1516043870178,411
3,PLAYER_SLEEPBEFORE_START,1516043870178,412
3,PLAYER_SLEEPBEFORE_END,1516043870834,412
3,WS_SEND_START,1516043870834,412
3,WS_SEND_END,1516043870834,412
3,WS_RECV_START,1516043870834,413
3,WS_RECV_END,1516043872653,413
3,PLAYER_SLEEPBEFORE_START,1516043872653,414
3,PLAYER_SLEEPBEFORE_END,1516043872669,414
3,WS_SEND_START,1516043872669,414
3,WS_SEND_END,1516043872669,414
3,WS_RECV_START,1516043872669,415
3,WS_RECV_END,1516043873113,415
3,PLAYER_SLEEPBEFORE_START,1516043873113,416
3,PLAYER_SLEEPBEFORE_END,1516043887380,416
3,WS_SEND_START,1516043887380,416
3,WS_SEND_END,1516043887380,416
3,PLAYER_SLEEPBEFORE_START,1516043887380,417
3,PLAYER_SLEEPBEFORE_END,1516043916059,417
3,WS_SEND_START,1516043916059,417
3,WS_SEND_END,1516043916059,417
3,WS_RECV_START,1516043916059,418
3,WS_RECV_END,1516043916268,418
3,PLAYER_SLEEPBEFORE_START,1516043916268,419
3,PLAYER_SLEEPBEFORE_END,1516043921090,419
3,REQ_START,1516043921090,419
3,REQ_END,1516043921099,419
3,PLAYER_SLEEPBEFORE_START,1516043921099,420
3,PLAYER_SLEEPBEFORE_END,1516043939844,420
3,WS_CLOSE_START,1516043939844,420
3,WS_CLOSE_END,1516043939844,420
3,PLAYER_DONE,1516043939844
