# --sessions 60 --app-url=http://shinyloadtest.rstudioservices.com/ --output-dir test60 --overwrite-output --log-level warn --start-interval 1500 30min.log
thread_id,event,timestamp,input_line_number,comment
18,PLAYER_SESSION_CREATE,1516054044809
18,PLAYER_START_INTERVAL_START,1516054044809
18,PLAYER_START_INTERVAL_END,1516054071809
18,REQ_HOME_START,1516054071810,2
18,REQ_HOME_END,1516054071894,2
18,REQ_START,1516054071894,3
18,REQ_END,1516054071926,3
18,REQ_START,1516054071926,4
18,REQ_END,1516054071957,4
18,REQ_START,1516054071957,5
18,REQ_END,1516054071992,5
18,REQ_START,1516054071992,6
18,REQ_END,1516054072027,6
18,REQ_START,1516054072027,7
18,REQ_END,1516054072061,7
18,REQ_START,1516054072061,8
18,REQ_END,1516054072095,8
18,REQ_START,1516054072095,9
18,REQ_END,1516054072130,9
18,REQ_START,1516054072130,10
18,REQ_END,1516054072139,10
18,REQ_START,1516054072139,11
18,REQ_END,1516054072172,11
18,REQ_START,1516054072172,12
18,REQ_END,1516054072205,12
18,REQ_START,1516054072205,13
18,REQ_END,1516054072215,13
18,REQ_START,1516054072215,14
18,REQ_END,1516054072229,14
18,REQ_START,1516054072229,15
18,REQ_END,1516054072263,15
18,REQ_TOK_START,1516054072263,16
18,REQ_TOK_END,1516054072271,16
18,REQ_SINF_START,1516054072271,17
18,REQ_SINF_END,1516054072279,17
18,WS_OPEN_START,1516054072279,18
18,WS_OPEN_END,1516054072285,18
18,WS_RECV_START,1516054072285,19
18,WS_RECV_END,1516054072286,19
18,PLAYER_SLEEPBEFORE_START,1516054072286,20
18,PLAYER_SLEEPBEFORE_END,1516054072292,20
18,WS_SEND_START,1516054072292,20
18,WS_SEND_END,1516054072292,20
18,PLAYER_SLEEPBEFORE_START,1516054072292,21
18,PLAYER_SLEEPBEFORE_END,1516054072294,21
18,WS_SEND_START,1516054072294,21
18,WS_SEND_END,1516054072294,21
18,WS_RECV_INIT_START,1516054072294,22
18,WS_RECV_INIT_END,1516054072310,22
18,WS_RECV_START,1516054072310,23
18,WS_RECV_END,1516054072367,23
18,PLAYER_SLEEPBEFORE_START,1516054072367,24
18,PLAYER_SLEEPBEFORE_END,1516054072375,24
18,REQ_START,1516054072375,24
18,REQ_END,1516054072406,24
18,PLAYER_SLEEPBEFORE_START,1516054072406,25
18,PLAYER_SLEEPBEFORE_END,1516054072408,25
18,REQ_START,1516054072408,25
18,REQ_END,1516054072440,25
18,PLAYER_SLEEPBEFORE_START,1516054072440,26
18,PLAYER_SLEEPBEFORE_END,1516054072443,26
18,REQ_START,1516054072443,26
18,REQ_END,1516054072476,26
18,PLAYER_SLEEPBEFORE_START,1516054072476,27
18,PLAYER_SLEEPBEFORE_END,1516054072732,27
18,REQ_START,1516054072732,27
18,REQ_END,1516054072766,27
18,PLAYER_SLEEPBEFORE_START,1516054072766,28
18,PLAYER_SLEEPBEFORE_END,1516054072965,28
18,WS_SEND_START,1516054072965,28
18,WS_SEND_END,1516054072965,28
18,WS_RECV_START,1516054072965,29
18,WS_RECV_END,1516054073152,29
18,PLAYER_SLEEPBEFORE_START,1516054073152,30
18,PLAYER_SLEEPBEFORE_END,1516054073164,30
18,REQ_START,1516054073164,30
18,REQ_END,1516054073201,30
18,PLAYER_SLEEPBEFORE_START,1516054073201,31
18,PLAYER_SLEEPBEFORE_END,1516054103321,31
18,WS_SEND_START,1516054103321,31
18,WS_SEND_END,1516054103321,31
18,WS_RECV_START,1516054103321,32
18,WS_RECV_END,1516054103493,32
18,PLAYER_SLEEPBEFORE_START,1516054103493,33
18,PLAYER_SLEEPBEFORE_END,1516054128259,33
18,WS_SEND_START,1516054128259,33
18,WS_SEND_END,1516054128260,33
18,WS_RECV_START,1516054128260,34
18,WS_RECV_END,1516054128359,34
18,PLAYER_SLEEPBEFORE_START,1516054128359,35
18,PLAYER_SLEEPBEFORE_END,1516054153172,35
18,WS_SEND_START,1516054153172,35
18,WS_SEND_END,1516054153173,35
18,WS_RECV_START,1516054153173,36
18,WS_RECV_END,1516054153225,36
18,PLAYER_SLEEPBEFORE_START,1516054153225,37
18,PLAYER_SLEEPBEFORE_END,1516054153234,37
18,WS_SEND_START,1516054153235,37
18,WS_SEND_END,1516054153235,37
18,WS_RECV_START,1516054153235,38
18,WS_RECV_END,1516054153277,38
18,PLAYER_SLEEPBEFORE_START,1516054153277,39
18,PLAYER_SLEEPBEFORE_END,1516054155974,39
18,WS_SEND_START,1516054155974,39
18,WS_SEND_END,1516054155974,39
18,WS_RECV_START,1516054155974,40
18,WS_RECV_END,1516054156290,40
18,PLAYER_SLEEPBEFORE_START,1516054156290,41
18,PLAYER_SLEEPBEFORE_END,1516054157409,41
18,WS_SEND_START,1516054157409,41
18,WS_SEND_END,1516054157409,41
18,WS_RECV_START,1516054157409,42
18,WS_RECV_END,1516054158377,42
18,PLAYER_SLEEPBEFORE_START,1516054158377,43
18,PLAYER_SLEEPBEFORE_END,1516054158406,43
18,WS_SEND_START,1516054158406,43
18,WS_SEND_END,1516054158406,43
18,WS_RECV_START,1516054158406,44
18,WS_RECV_END,1516054158536,44
18,PLAYER_SLEEPBEFORE_START,1516054158536,45
18,PLAYER_SLEEPBEFORE_END,1516054180025,45
18,WS_SEND_START,1516054180025,45
18,WS_SEND_END,1516054180025,45
18,WS_RECV_START,1516054180025,46
18,WS_RECV_END,1516054180145,46
18,PLAYER_SLEEPBEFORE_START,1516054180145,47
18,PLAYER_SLEEPBEFORE_END,1516054208630,47
18,WS_SEND_START,1516054208630,47
18,WS_SEND_END,1516054208631,47
18,WS_RECV_START,1516054208631,48
18,WS_RECV_END,1516054208757,48
18,PLAYER_SLEEPBEFORE_START,1516054208757,49
18,PLAYER_SLEEPBEFORE_END,1516054235166,49
18,WS_SEND_START,1516054235166,49
18,WS_SEND_END,1516054235166,49
18,WS_RECV_START,1516054235166,50
18,WS_RECV_END,1516054235274,50
18,PLAYER_SLEEPBEFORE_START,1516054235274,51
18,PLAYER_SLEEPBEFORE_END,1516054257825,51
18,WS_SEND_START,1516054257826,51
18,WS_SEND_END,1516054257826,51
18,WS_RECV_START,1516054257826,52
18,WS_RECV_END,1516054257938,52
18,PLAYER_SLEEPBEFORE_START,1516054257938,53
18,PLAYER_SLEEPBEFORE_END,1516054282842,53
18,WS_SEND_START,1516054282842,53
18,WS_SEND_END,1516054282842,53
18,WS_RECV_START,1516054282842,54
18,WS_RECV_END,1516054282952,54
18,PLAYER_SLEEPBEFORE_START,1516054282952,55
18,PLAYER_SLEEPBEFORE_END,1516054308353,55
18,WS_SEND_START,1516054308353,55
18,WS_SEND_END,1516054308353,55
18,WS_RECV_START,1516054308353,56
18,WS_RECV_END,1516054308464,56
18,PLAYER_SLEEPBEFORE_START,1516054308464,57
18,PLAYER_SLEEPBEFORE_END,1516054333802,57
18,WS_SEND_START,1516054333802,57
18,WS_SEND_END,1516054333802,57
18,WS_RECV_START,1516054333802,58
18,WS_RECV_END,1516054333903,58
18,PLAYER_SLEEPBEFORE_START,1516054333903,59
18,PLAYER_SLEEPBEFORE_END,1516054360760,59
18,WS_SEND_START,1516054360760,59
18,WS_SEND_END,1516054360760,59
18,WS_RECV_START,1516054360760,60
18,WS_RECV_END,1516054361616,60
18,PLAYER_SLEEPBEFORE_START,1516054361616,61
18,PLAYER_SLEEPBEFORE_END,1516054361639,61
18,WS_SEND_START,1516054361639,61
18,WS_SEND_END,1516054361639,61
18,WS_RECV_START,1516054361639,62
18,WS_RECV_END,1516054361778,62
18,PLAYER_SLEEPBEFORE_START,1516054361778,63
18,PLAYER_SLEEPBEFORE_END,1516054370782,63
18,REQ_START,1516054370782,63
18,REQ_END,1516054370790,63
18,PLAYER_SLEEPBEFORE_START,1516054370790,64
18,PLAYER_SLEEPBEFORE_END,1516054384996,64
18,WS_SEND_START,1516054384996,64
18,WS_SEND_END,1516054384996,64
18,WS_RECV_START,1516054384996,65
18,WS_RECV_END,1516054386155,65
18,PLAYER_SLEEPBEFORE_START,1516054386155,66
18,PLAYER_SLEEPBEFORE_END,1516054410142,66
18,WS_SEND_START,1516054410142,66
18,WS_SEND_END,1516054410142,66
18,WS_RECV_START,1516054410142,67
18,WS_RECV_END,1516054410386,67
18,PLAYER_SLEEPBEFORE_START,1516054410386,68
18,PLAYER_SLEEPBEFORE_END,1516054435960,68
18,WS_SEND_START,1516054435960,68
18,WS_SEND_END,1516054435960,68
18,WS_RECV_START,1516054435960,69
18,WS_RECV_END,1516054436019,69
18,PLAYER_SLEEPBEFORE_START,1516054436019,70
18,PLAYER_SLEEPBEFORE_END,1516054436028,70
18,WS_SEND_START,1516054436028,70
18,WS_SEND_END,1516054436028,70
18,WS_RECV_START,1516054436028,71
18,WS_RECV_END,1516054436168,71
18,PLAYER_SLEEPBEFORE_START,1516054436168,72
18,PLAYER_SLEEPBEFORE_END,1516054436374,72
18,WS_SEND_START,1516054436374,72
18,WS_SEND_END,1516054436374,72
18,WS_RECV_START,1516054436374,73
18,WS_RECV_END,1516054436425,73
18,PLAYER_SLEEPBEFORE_START,1516054436425,74
18,PLAYER_SLEEPBEFORE_END,1516054437847,74
18,WS_SEND_START,1516054437847,74
18,WS_SEND_END,1516054437847,74
18,WS_RECV_START,1516054437847,75
18,WS_RECV_END,1516054437897,75
18,PLAYER_SLEEPBEFORE_START,1516054437897,76
18,PLAYER_SLEEPBEFORE_END,1516054438392,76
18,WS_SEND_START,1516054438392,76
18,WS_SEND_END,1516054438392,76
18,WS_RECV_START,1516054438392,77
18,WS_RECV_END,1516054439062,77
18,PLAYER_SLEEPBEFORE_START,1516054439062,78
18,PLAYER_SLEEPBEFORE_END,1516054439080,78
18,WS_SEND_START,1516054439080,78
18,WS_SEND_END,1516054439080,78
18,WS_RECV_START,1516054439080,79
18,WS_RECV_END,1516054439295,79
18,PLAYER_SLEEPBEFORE_START,1516054439295,80
18,PLAYER_SLEEPBEFORE_END,1516054460030,80
18,WS_SEND_START,1516054460030,80
18,WS_SEND_END,1516054460030,80
18,WS_RECV_START,1516054460030,81
18,WS_RECV_END,1516054460771,81
18,PLAYER_SLEEPBEFORE_START,1516054460771,82
18,PLAYER_SLEEPBEFORE_END,1516054460782,82
18,WS_SEND_START,1516054460782,82
18,WS_SEND_END,1516054460782,82
18,WS_RECV_START,1516054460782,83
18,WS_RECV_END,1516054460841,83
18,PLAYER_SLEEPBEFORE_START,1516054460841,84
18,PLAYER_SLEEPBEFORE_END,1516054461704,84
18,WS_SEND_START,1516054461704,84
18,WS_SEND_END,1516054461704,84
18,WS_RECV_START,1516054461704,85
18,WS_RECV_END,1516054461823,85
18,PLAYER_SLEEPBEFORE_START,1516054461823,86
18,PLAYER_SLEEPBEFORE_END,1516054462550,86
18,WS_SEND_START,1516054462550,86
18,WS_SEND_END,1516054462550,86
18,WS_RECV_START,1516054462550,87
18,WS_RECV_END,1516054463921,87
18,PLAYER_SLEEPBEFORE_START,1516054463921,88
18,PLAYER_SLEEPBEFORE_END,1516054463942,88
18,WS_SEND_START,1516054463942,88
18,WS_SEND_END,1516054463942,88
18,WS_RECV_START,1516054463942,89
18,WS_RECV_END,1516054465898,89
18,PLAYER_SLEEPBEFORE_START,1516054465898,90
18,PLAYER_SLEEPBEFORE_END,1516054487327,90
18,WS_SEND_START,1516054487327,90
18,WS_SEND_END,1516054487327,90
18,PLAYER_SLEEPBEFORE_START,1516054487327,91
18,PLAYER_SLEEPBEFORE_END,1516054514182,91
18,WS_SEND_START,1516054514182,91
18,WS_SEND_END,1516054514182,91
18,WS_RECV_START,1516054514182,92
18,WS_RECV_END,1516054515136,92
18,PLAYER_SLEEPBEFORE_START,1516054515136,93
18,PLAYER_SLEEPBEFORE_END,1516054517410,93
18,WS_SEND_START,1516054517410,93
18,WS_SEND_END,1516054517410,93
18,WS_RECV_START,1516054517410,94
18,WS_RECV_END,1516054517584,94
18,PLAYER_SLEEPBEFORE_START,1516054517584,95
18,PLAYER_SLEEPBEFORE_END,1516054543580,95
18,WS_SEND_START,1516054543580,95
18,WS_SEND_END,1516054543580,95
18,WS_RECV_START,1516054543580,96
18,WS_RECV_END,1516054543732,96
18,PLAYER_SLEEPBEFORE_START,1516054543732,97
18,PLAYER_SLEEPBEFORE_END,1516054548820,97
18,WS_SEND_START,1516054548820,97
18,WS_SEND_END,1516054548820,97
18,WS_RECV_START,1516054548820,98
18,WS_RECV_END,1516054548972,98
18,PLAYER_SLEEPBEFORE_START,1516054548972,99
18,PLAYER_SLEEPBEFORE_END,1516054550672,99
18,WS_SEND_START,1516054550672,99
18,WS_SEND_END,1516054550672,99
18,WS_RECV_START,1516054550672,100
18,WS_RECV_END,1516054551110,100
18,PLAYER_SLEEPBEFORE_START,1516054551110,101
18,PLAYER_SLEEPBEFORE_END,1516054552949,101
18,WS_SEND_START,1516054552949,101
18,WS_SEND_END,1516054552950,101
18,WS_RECV_START,1516054552950,102
18,WS_RECV_END,1516054553102,102
18,PLAYER_SLEEPBEFORE_START,1516054553102,103
18,PLAYER_SLEEPBEFORE_END,1516054566152,103
18,WS_SEND_START,1516054566152,103
18,WS_SEND_END,1516054566152,103
18,PLAYER_SLEEPBEFORE_START,1516054566152,104
18,PLAYER_SLEEPBEFORE_END,1516054570578,104
18,WS_SEND_START,1516054570578,104
18,WS_SEND_END,1516054570578,104
18,WS_RECV_START,1516054570578,105
18,WS_RECV_END,1516054571336,105
18,PLAYER_SLEEPBEFORE_START,1516054571336,106
18,PLAYER_SLEEPBEFORE_END,1516054571345,106
18,WS_SEND_START,1516054571345,106
18,WS_SEND_END,1516054571345,106
18,WS_RECV_START,1516054571345,107
18,WS_RECV_END,1516054571580,107
18,PLAYER_SLEEPBEFORE_START,1516054571580,108
18,PLAYER_SLEEPBEFORE_END,1516054572045,108
18,WS_SEND_START,1516054572045,108
18,WS_SEND_END,1516054572045,108
18,WS_RECV_START,1516054572045,109
18,WS_RECV_END,1516054572761,109
18,PLAYER_SLEEPBEFORE_START,1516054572761,110
18,PLAYER_SLEEPBEFORE_END,1516054572776,110
18,WS_SEND_START,1516054572776,110
18,WS_SEND_END,1516054572776,110
18,WS_RECV_START,1516054572776,111
18,WS_RECV_END,1516054573027,111
18,PLAYER_SLEEPBEFORE_START,1516054573027,112
18,PLAYER_SLEEPBEFORE_END,1516054593792,112
18,WS_SEND_START,1516054593792,112
18,WS_SEND_END,1516054593792,112
18,PLAYER_SLEEPBEFORE_START,1516054593792,113
18,PLAYER_SLEEPBEFORE_END,1516054596186,113
18,WS_SEND_START,1516054596186,113
18,WS_SEND_END,1516054596186,113
18,WS_RECV_START,1516054596186,114
18,WS_RECV_END,1516054596954,114
18,PLAYER_SLEEPBEFORE_START,1516054596954,115
18,PLAYER_SLEEPBEFORE_END,1516054597737,115
18,WS_SEND_START,1516054597737,115
18,WS_SEND_END,1516054597737,115
18,WS_RECV_START,1516054597737,116
18,WS_RECV_END,1516054598294,116
18,PLAYER_SLEEPBEFORE_START,1516054598294,117
18,PLAYER_SLEEPBEFORE_END,1516054620679,117
18,WS_SEND_START,1516054620679,117
18,WS_SEND_END,1516054620679,117
18,WS_RECV_START,1516054620679,118
18,WS_RECV_END,1516054621061,118
18,PLAYER_SLEEPBEFORE_START,1516054621061,119
18,PLAYER_SLEEPBEFORE_END,1516054622965,119
18,WS_SEND_START,1516054622965,119
18,WS_SEND_END,1516054622965,119
18,WS_RECV_START,1516054622965,120
18,WS_RECV_END,1516054624161,120
18,PLAYER_SLEEPBEFORE_START,1516054624161,121
18,PLAYER_SLEEPBEFORE_END,1516054625313,121
18,WS_SEND_START,1516054625313,121
18,WS_SEND_END,1516054625313,121
18,WS_RECV_START,1516054625313,122
18,WS_RECV_END,1516054625482,122
18,PLAYER_SLEEPBEFORE_START,1516054625482,123
18,PLAYER_SLEEPBEFORE_END,1516054626606,123
18,WS_SEND_START,1516054626606,123
18,WS_SEND_END,1516054626606,123
18,WS_RECV_START,1516054626606,124
18,WS_RECV_END,1516054626929,124
18,PLAYER_SLEEPBEFORE_START,1516054626929,125
18,PLAYER_SLEEPBEFORE_END,1516054628425,125
18,WS_SEND_START,1516054628425,125
18,WS_SEND_END,1516054628425,125
18,WS_RECV_START,1516054628425,126
18,WS_RECV_END,1516054628593,126
18,PLAYER_SLEEPBEFORE_START,1516054628593,127
18,PLAYER_SLEEPBEFORE_END,1516054649203,127
18,WS_SEND_START,1516054649203,127
18,WS_SEND_END,1516054649203,127
18,WS_RECV_START,1516054649203,128
18,WS_RECV_END,1516054649376,128
18,PLAYER_SLEEPBEFORE_START,1516054649376,129
18,PLAYER_SLEEPBEFORE_END,1516054674408,129
18,WS_SEND_START,1516054674408,129
18,WS_SEND_END,1516054674408,129
18,PLAYER_SLEEPBEFORE_START,1516054674408,130
18,PLAYER_SLEEPBEFORE_END,1516054676388,130
18,WS_SEND_START,1516054676388,130
18,WS_SEND_END,1516054676388,130
18,WS_RECV_START,1516054676388,131
18,WS_RECV_END,1516054676631,131
18,PLAYER_SLEEPBEFORE_START,1516054676631,132
18,PLAYER_SLEEPBEFORE_END,1516054676641,132
18,WS_SEND_START,1516054676641,132
18,WS_SEND_END,1516054676641,132
18,WS_RECV_START,1516054676641,133
18,WS_RECV_END,1516054676992,133
18,PLAYER_SLEEPBEFORE_START,1516054676992,134
18,PLAYER_SLEEPBEFORE_END,1516054678068,134
18,REQ_START,1516054678069,134
18,REQ_END,1516054678077,134
18,PLAYER_SLEEPBEFORE_START,1516054678077,135
18,PLAYER_SLEEPBEFORE_END,1516054678667,135
18,WS_SEND_START,1516054678667,135
18,WS_SEND_END,1516054678667,135
18,WS_RECV_START,1516054678667,136
18,WS_RECV_END,1516054679279,136
18,PLAYER_SLEEPBEFORE_START,1516054679279,137
18,PLAYER_SLEEPBEFORE_END,1516054679292,137
18,WS_SEND_START,1516054679292,137
18,WS_SEND_END,1516054679292,137
18,WS_RECV_START,1516054679292,138
18,WS_RECV_END,1516054679438,138
18,PLAYER_SLEEPBEFORE_START,1516054679438,139
18,PLAYER_SLEEPBEFORE_END,1516054697112,139
18,WS_SEND_START,1516054697112,139
18,WS_SEND_END,1516054697112,139
18,PLAYER_SLEEPBEFORE_START,1516054697112,140
18,PLAYER_SLEEPBEFORE_END,1516054701015,140
18,WS_SEND_START,1516054701015,140
18,WS_SEND_END,1516054701015,140
18,PLAYER_SLEEPBEFORE_START,1516054701015,141
18,PLAYER_SLEEPBEFORE_END,1516054703307,141
18,WS_SEND_START,1516054703307,141
18,WS_SEND_END,1516054703307,141
18,WS_RECV_START,1516054703307,142
18,WS_RECV_END,1516054704821,142
18,PLAYER_SLEEPBEFORE_START,1516054704821,143
18,PLAYER_SLEEPBEFORE_END,1516054704829,143
18,WS_SEND_START,1516054704829,143
18,WS_SEND_END,1516054704829,143
18,WS_RECV_START,1516054704829,144
18,WS_RECV_END,1516054704872,144
18,PLAYER_SLEEPBEFORE_START,1516054704872,145
18,PLAYER_SLEEPBEFORE_END,1516054706616,145
18,WS_SEND_START,1516054706616,145
18,WS_SEND_END,1516054706616,145
18,WS_RECV_START,1516054706616,146
18,WS_RECV_END,1516054707580,146
18,PLAYER_SLEEPBEFORE_START,1516054707580,147
18,PLAYER_SLEEPBEFORE_END,1516054707589,147
18,WS_SEND_START,1516054707589,147
18,WS_SEND_END,1516054707589,147
18,WS_RECV_START,1516054707589,148
18,WS_RECV_END,1516054708257,148
18,PLAYER_SLEEPBEFORE_START,1516054708257,149
18,PLAYER_SLEEPBEFORE_END,1516054723370,149
18,WS_SEND_START,1516054723370,149
18,WS_SEND_END,1516054723370,149
18,PLAYER_SLEEPBEFORE_START,1516054723370,150
18,PLAYER_SLEEPBEFORE_END,1516054734045,150
18,WS_SEND_START,1516054734045,150
18,WS_SEND_END,1516054734045,150
18,PLAYER_SLEEPBEFORE_START,1516054734045,151
18,PLAYER_SLEEPBEFORE_END,1516054737037,151
18,WS_SEND_START,1516054737037,151
18,WS_SEND_END,1516054737037,151
18,WS_RECV_START,1516054737037,152
18,WS_RECV_END,1516054739349,152
18,PLAYER_SLEEPBEFORE_START,1516054739349,153
18,PLAYER_SLEEPBEFORE_END,1516054739356,153
18,WS_SEND_START,1516054739356,153
18,WS_SEND_END,1516054739356,153
18,WS_RECV_START,1516054739356,154
18,WS_RECV_END,1516054739548,154
18,PLAYER_SLEEPBEFORE_START,1516054739548,155
18,PLAYER_SLEEPBEFORE_END,1516054740157,155
18,WS_SEND_START,1516054740157,155
18,WS_SEND_END,1516054740157,155
18,WS_RECV_START,1516054740157,156
18,WS_RECV_END,1516054740208,156
18,PLAYER_SLEEPBEFORE_START,1516054740208,157
18,PLAYER_SLEEPBEFORE_END,1516054741551,157
18,WS_SEND_START,1516054741551,157
18,WS_SEND_END,1516054741551,157
18,WS_RECV_START,1516054741551,158
18,WS_RECV_END,1516054742874,158
18,PLAYER_SLEEPBEFORE_START,1516054742874,159
18,PLAYER_SLEEPBEFORE_END,1516054746775,159
18,WS_SEND_START,1516054746775,159
18,WS_SEND_END,1516054746775,159
18,WS_RECV_START,1516054746775,160
18,WS_RECV_END,1516054747203,160
18,PLAYER_SLEEPBEFORE_START,1516054747203,161
18,PLAYER_SLEEPBEFORE_END,1516054747986,161
18,WS_SEND_START,1516054747986,161
18,WS_SEND_END,1516054747986,161
18,WS_RECV_START,1516054747986,162
18,WS_RECV_END,1516054748594,162
18,PLAYER_SLEEPBEFORE_START,1516054748594,163
18,PLAYER_SLEEPBEFORE_END,1516054748603,163
18,WS_SEND_START,1516054748603,163
18,WS_SEND_END,1516054748603,163
18,WS_RECV_START,1516054748603,164
18,WS_RECV_END,1516054749470,164
18,PLAYER_SLEEPBEFORE_START,1516054749470,165
18,PLAYER_SLEEPBEFORE_END,1516054756843,165
18,WS_SEND_START,1516054756843,165
18,WS_SEND_END,1516054756843,165
18,WS_RECV_START,1516054756843,166
18,WS_RECV_END,1516054756969,166
18,PLAYER_SLEEPBEFORE_START,1516054756969,167
18,PLAYER_SLEEPBEFORE_END,1516054778218,167
18,WS_SEND_START,1516054778218,167
18,WS_SEND_END,1516054778218,167
18,PLAYER_SLEEPBEFORE_START,1516054778218,168
18,PLAYER_SLEEPBEFORE_END,1516054782953,168
18,WS_SEND_START,1516054782953,168
18,WS_SEND_END,1516054782953,168
18,PLAYER_SLEEPBEFORE_START,1516054782953,169
18,PLAYER_SLEEPBEFORE_END,1516054784505,169
18,WS_SEND_START,1516054784505,169
18,WS_SEND_END,1516054784505,169
18,WS_RECV_START,1516054784505,170
18,WS_RECV_END,1516054784801,170
18,PLAYER_SLEEPBEFORE_START,1516054784801,171
18,PLAYER_SLEEPBEFORE_END,1516054784808,171
18,WS_SEND_START,1516054784808,171
18,WS_SEND_END,1516054784808,171
18,WS_RECV_START,1516054784808,172
18,WS_RECV_END,1516054785020,172
18,PLAYER_SLEEPBEFORE_START,1516054785020,173
18,PLAYER_SLEEPBEFORE_END,1516054785788,173
18,WS_SEND_START,1516054785788,173
18,WS_SEND_END,1516054785788,173
18,WS_RECV_START,1516054785788,174
18,WS_RECV_END,1516054786347,174
18,PLAYER_SLEEPBEFORE_START,1516054786347,175
18,PLAYER_SLEEPBEFORE_END,1516054787107,175
18,WS_SEND_START,1516054787107,175
18,WS_SEND_END,1516054787107,175
18,WS_RECV_START,1516054787107,176
18,WS_RECV_END,1516054787159,176
18,PLAYER_SLEEPBEFORE_START,1516054787159,177
18,PLAYER_SLEEPBEFORE_END,1516054787960,177
18,WS_SEND_START,1516054787960,177
18,WS_SEND_END,1516054787960,177
18,WS_RECV_START,1516054787960,178
18,WS_RECV_END,1516054788457,178
18,PLAYER_SLEEPBEFORE_START,1516054788457,179
18,PLAYER_SLEEPBEFORE_END,1516054793711,179
18,WS_SEND_START,1516054793711,179
18,WS_SEND_END,1516054793711,179
18,PLAYER_SLEEPBEFORE_START,1516054793711,180
18,PLAYER_SLEEPBEFORE_END,1516054800329,180
18,WS_SEND_START,1516054800329,180
18,WS_SEND_END,1516054800330,180
18,PLAYER_SLEEPBEFORE_START,1516054800330,181
18,PLAYER_SLEEPBEFORE_END,1516054802066,181
18,WS_SEND_START,1516054802066,181
18,WS_SEND_END,1516054802066,181
18,WS_RECV_START,1516054802066,182
18,WS_RECV_END,1516054802139,182
18,PLAYER_SLEEPBEFORE_START,1516054802139,183
18,PLAYER_SLEEPBEFORE_END,1516054802876,183
18,WS_SEND_START,1516054802876,183
18,WS_SEND_END,1516054802877,183
18,WS_RECV_START,1516054802877,184
18,WS_RECV_END,1516054804168,184
18,PLAYER_SLEEPBEFORE_START,1516054804168,185
18,PLAYER_SLEEPBEFORE_END,1516054804181,185
18,WS_SEND_START,1516054804181,185
18,WS_SEND_END,1516054804181,185
18,WS_RECV_START,1516054804181,186
18,WS_RECV_END,1516054804413,186
18,PLAYER_SLEEPBEFORE_START,1516054804413,187
18,PLAYER_SLEEPBEFORE_END,1516054829420,187
18,WS_SEND_START,1516054829420,187
18,WS_SEND_END,1516054829420,187
18,WS_RECV_START,1516054829420,188
18,WS_RECV_END,1516054829579,188
18,PLAYER_SLEEPBEFORE_START,1516054829579,189
18,PLAYER_SLEEPBEFORE_END,1516054854802,189
18,WS_SEND_START,1516054854802,189
18,WS_SEND_END,1516054854802,189
18,WS_RECV_START,1516054854802,190
18,WS_RECV_END,1516054854875,190
18,PLAYER_SLEEPBEFORE_START,1516054854875,191
18,PLAYER_SLEEPBEFORE_END,1516054854880,191
18,WS_SEND_START,1516054854880,191
18,WS_SEND_END,1516054854880,191
18,WS_RECV_START,1516054854880,192
18,WS_RECV_END,1516054854920,192
18,PLAYER_SLEEPBEFORE_START,1516054854920,193
18,PLAYER_SLEEPBEFORE_END,1516054855358,193
18,WS_SEND_START,1516054855358,193
18,WS_SEND_END,1516054855358,193
18,WS_RECV_START,1516054855358,194
18,WS_RECV_END,1516054857218,194
18,PLAYER_SLEEPBEFORE_START,1516054857218,195
18,PLAYER_SLEEPBEFORE_END,1516054857231,195
18,WS_SEND_START,1516054857231,195
18,WS_SEND_END,1516054857231,195
18,WS_RECV_START,1516054857231,196
18,WS_RECV_END,1516054858221,196
18,PLAYER_SLEEPBEFORE_START,1516054858221,197
18,PLAYER_SLEEPBEFORE_END,1516054882991,197
18,WS_SEND_START,1516054882991,197
18,WS_SEND_END,1516054882991,197
18,WS_RECV_START,1516054882991,198
18,WS_RECV_END,1516054883047,198
18,PLAYER_SLEEPBEFORE_START,1516054883047,199
18,PLAYER_SLEEPBEFORE_END,1516054883054,199
18,WS_SEND_START,1516054883054,199
18,WS_SEND_END,1516054883054,199
18,WS_RECV_START,1516054883054,200
18,WS_RECV_END,1516054883200,200
18,PLAYER_SLEEPBEFORE_START,1516054883200,201
18,PLAYER_SLEEPBEFORE_END,1516054884498,201
18,WS_SEND_START,1516054884498,201
18,WS_SEND_END,1516054884498,201
18,WS_RECV_START,1516054884498,202
18,WS_RECV_END,1516054886082,202
18,PLAYER_SLEEPBEFORE_START,1516054886082,203
18,PLAYER_SLEEPBEFORE_END,1516054886094,203
18,WS_SEND_START,1516054886094,203
18,WS_SEND_END,1516054886094,203
18,WS_RECV_START,1516054886094,204
18,WS_RECV_END,1516054886354,204
18,PLAYER_SLEEPBEFORE_START,1516054886354,205
18,PLAYER_SLEEPBEFORE_END,1516054907985,205
18,WS_SEND_START,1516054907985,205
18,WS_SEND_END,1516054907985,205
18,WS_RECV_START,1516054907985,206
18,WS_RECV_END,1516054908124,206
18,PLAYER_SLEEPBEFORE_START,1516054908124,207
18,PLAYER_SLEEPBEFORE_END,1516054932247,207
18,WS_SEND_START,1516054932247,207
18,WS_SEND_END,1516054932247,207
18,WS_RECV_START,1516054932247,208
18,WS_RECV_END,1516054932364,208
18,PLAYER_SLEEPBEFORE_START,1516054932364,209
18,PLAYER_SLEEPBEFORE_END,1516054938779,209
18,WS_SEND_START,1516054938779,209
18,WS_SEND_END,1516054938779,209
18,WS_RECV_START,1516054938779,210
18,WS_RECV_END,1516054938897,210
18,PLAYER_SLEEPBEFORE_START,1516054938897,211
18,PLAYER_SLEEPBEFORE_END,1516054957729,211
18,WS_SEND_START,1516054957729,211
18,WS_SEND_END,1516054957729,211
18,WS_RECV_START,1516054957729,212
18,WS_RECV_END,1516054957834,212
18,PLAYER_SLEEPBEFORE_START,1516054957834,213
18,PLAYER_SLEEPBEFORE_END,1516054982887,213
18,WS_SEND_START,1516054982887,213
18,WS_SEND_END,1516054982887,213
18,WS_RECV_START,1516054982887,214
18,WS_RECV_END,1516054983050,214
18,PLAYER_SLEEPBEFORE_START,1516054983050,215
18,PLAYER_SLEEPBEFORE_END,1516054991161,215
18,REQ_START,1516054991161,215
18,REQ_END,1516054991169,215
18,PLAYER_SLEEPBEFORE_START,1516054991169,216
18,PLAYER_SLEEPBEFORE_END,1516055007731,216
18,WS_SEND_START,1516055007731,216
18,WS_SEND_END,1516055007731,216
18,WS_RECV_START,1516055007731,217
18,WS_RECV_END,1516055009008,217
18,PLAYER_SLEEPBEFORE_START,1516055009008,218
18,PLAYER_SLEEPBEFORE_END,1516055009016,218
18,WS_SEND_START,1516055009016,218
18,WS_SEND_END,1516055009016,218
18,WS_RECV_START,1516055009016,219
18,WS_RECV_END,1516055009168,219
18,PLAYER_SLEEPBEFORE_START,1516055009168,220
18,PLAYER_SLEEPBEFORE_END,1516055009936,220
18,WS_SEND_START,1516055009936,220
18,WS_SEND_END,1516055009936,220
18,WS_RECV_START,1516055009936,221
18,WS_RECV_END,1516055013591,221
18,PLAYER_SLEEPBEFORE_START,1516055013591,222
18,PLAYER_SLEEPBEFORE_END,1516055013648,222
18,WS_SEND_START,1516055013648,222
18,WS_SEND_END,1516055013648,222
18,WS_RECV_START,1516055013648,223
18,WS_RECV_END,1516055013836,223
18,PLAYER_SLEEPBEFORE_START,1516055013836,224
18,PLAYER_SLEEPBEFORE_END,1516055036492,224
18,WS_SEND_START,1516055036492,224
18,WS_SEND_END,1516055036492,224
18,WS_RECV_START,1516055036492,225
18,WS_RECV_END,1516055036600,225
18,PLAYER_SLEEPBEFORE_START,1516055036600,226
18,PLAYER_SLEEPBEFORE_END,1516055062335,226
18,WS_SEND_START,1516055062335,226
18,WS_SEND_END,1516055062335,226
18,WS_RECV_START,1516055062335,227
18,WS_RECV_END,1516055063834,227
18,PLAYER_SLEEPBEFORE_START,1516055063834,228
18,PLAYER_SLEEPBEFORE_END,1516055086827,228
18,WS_SEND_START,1516055086827,228
18,WS_SEND_END,1516055086827,228
18,WS_RECV_START,1516055086827,229
18,WS_RECV_END,1516055086943,229
18,PLAYER_SLEEPBEFORE_START,1516055086943,230
18,PLAYER_SLEEPBEFORE_END,1516055111160,230
18,WS_SEND_START,1516055111160,230
18,WS_SEND_END,1516055111160,230
18,WS_RECV_START,1516055111160,231
18,WS_RECV_END,1516055111259,231
18,PLAYER_SLEEPBEFORE_START,1516055111259,232
18,PLAYER_SLEEPBEFORE_END,1516055136015,232
18,WS_SEND_START,1516055136015,232
18,WS_SEND_END,1516055136015,232
18,WS_RECV_START,1516055136015,233
18,WS_RECV_END,1516055136136,233
18,PLAYER_SLEEPBEFORE_START,1516055136136,234
18,PLAYER_SLEEPBEFORE_END,1516055163169,234
18,WS_SEND_START,1516055163169,234
18,WS_SEND_END,1516055163169,234
18,WS_RECV_START,1516055163169,235
18,WS_RECV_END,1516055163294,235
18,PLAYER_SLEEPBEFORE_START,1516055163294,236
18,PLAYER_SLEEPBEFORE_END,1516055187134,236
18,WS_SEND_START,1516055187134,236
18,WS_SEND_END,1516055187135,236
18,WS_RECV_START,1516055187135,237
18,WS_RECV_END,1516055187388,237
18,PLAYER_SLEEPBEFORE_START,1516055187388,238
18,PLAYER_SLEEPBEFORE_END,1516055200198,238
18,WS_SEND_START,1516055200198,238
18,WS_SEND_END,1516055200198,238
18,WS_RECV_START,1516055200198,239
18,WS_RECV_END,1516055200308,239
18,PLAYER_SLEEPBEFORE_START,1516055200308,240
18,PLAYER_SLEEPBEFORE_END,1516055212964,240
18,WS_SEND_START,1516055212964,240
18,WS_SEND_END,1516055212964,240
18,WS_RECV_START,1516055212964,241
18,WS_RECV_END,1516055214107,241
18,PLAYER_SLEEPBEFORE_START,1516055214107,242
18,PLAYER_SLEEPBEFORE_END,1516055214130,242
18,WS_SEND_START,1516055214130,242
18,WS_SEND_END,1516055214130,242
18,WS_RECV_START,1516055214130,243
18,WS_RECV_END,1516055214978,243
18,PLAYER_SLEEPBEFORE_START,1516055214978,244
18,PLAYER_SLEEPBEFORE_END,1516055237216,244
18,WS_SEND_START,1516055237216,244
18,WS_SEND_END,1516055237216,244
18,WS_RECV_START,1516055237216,245
18,WS_RECV_END,1516055241471,245
18,PLAYER_SLEEPBEFORE_START,1516055241471,246
18,PLAYER_SLEEPBEFORE_END,1516055241481,246
18,WS_SEND_START,1516055241481,246
18,WS_SEND_END,1516055241481,246
18,WS_RECV_START,1516055241481,247
18,WS_RECV_END,1516055242308,247
18,PLAYER_SLEEPBEFORE_START,1516055242308,248
18,PLAYER_SLEEPBEFORE_END,1516055244345,248
18,WS_SEND_START,1516055244345,248
18,WS_SEND_END,1516055244345,248
18,WS_RECV_START,1516055244345,249
18,WS_RECV_END,1516055245629,249
18,PLAYER_SLEEPBEFORE_START,1516055245629,250
18,PLAYER_SLEEPBEFORE_END,1516055245666,250
18,WS_SEND_START,1516055245666,250
18,WS_SEND_END,1516055245666,250
18,WS_RECV_START,1516055245666,251
18,WS_RECV_END,1516055252103,251
18,PLAYER_SLEEPBEFORE_START,1516055252103,252
18,PLAYER_SLEEPBEFORE_END,1516055274745,252
18,WS_SEND_START,1516055274745,252
18,WS_SEND_END,1516055274745,252
18,WS_RECV_START,1516055274745,253
18,WS_RECV_END,1516055276807,253
18,PLAYER_SLEEPBEFORE_START,1516055276808,254
18,PLAYER_SLEEPBEFORE_END,1516055276824,254
18,WS_SEND_START,1516055276824,254
18,WS_SEND_END,1516055276824,254
18,WS_RECV_START,1516055276824,255
18,WS_RECV_END,1516055277499,255
18,PLAYER_SLEEPBEFORE_START,1516055277499,256
18,PLAYER_SLEEPBEFORE_END,1516055302121,256
18,WS_SEND_START,1516055302121,256
18,WS_SEND_END,1516055302122,256
18,WS_RECV_START,1516055302122,257
18,WS_RECV_END,1516055304734,257
18,PLAYER_SLEEPBEFORE_START,1516055304735,258
18,PLAYER_SLEEPBEFORE_END,1516055304743,258
18,WS_SEND_START,1516055304743,258
18,WS_SEND_END,1516055304743,258
18,WS_RECV_START,1516055304743,259
18,WS_RECV_END,1516055305012,259
18,PLAYER_SLEEPBEFORE_START,1516055305012,260
18,PLAYER_SLEEPBEFORE_END,1516055305536,260
18,WS_SEND_START,1516055305536,260
18,WS_SEND_END,1516055305536,260
18,WS_RECV_START,1516055305536,261
18,WS_RECV_END,1516055309057,261
18,PLAYER_SLEEPBEFORE_START,1516055309057,262
18,PLAYER_SLEEPBEFORE_END,1516055309329,262
18,WS_SEND_START,1516055309329,262
18,WS_SEND_END,1516055309329,262
18,WS_RECV_START,1516055309329,263
18,WS_RECV_END,1516055311240,263
18,PLAYER_SLEEPBEFORE_START,1516055311240,264
18,PLAYER_SLEEPBEFORE_END,1516055313653,264
18,WS_SEND_START,1516055313653,264
18,WS_SEND_END,1516055313653,264
18,WS_RECV_START,1516055313653,265
18,WS_RECV_END,1516055316070,265
18,PLAYER_SLEEPBEFORE_START,1516055316070,266
18,PLAYER_SLEEPBEFORE_END,1516055316083,266
18,WS_SEND_START,1516055316083,266
18,WS_SEND_END,1516055316083,266
18,WS_RECV_START,1516055316083,267
18,WS_RECV_END,1516055318238,267
18,PLAYER_SLEEPBEFORE_START,1516055318238,268
18,PLAYER_SLEEPBEFORE_END,1516055319708,268
18,REQ_START,1516055319708,268
18,REQ_END,1516055319716,268
18,PLAYER_SLEEPBEFORE_START,1516055319716,269
18,PLAYER_SLEEPBEFORE_END,1516055337110,269
18,WS_SEND_START,1516055337110,269
18,WS_SEND_END,1516055337110,269
18,WS_RECV_START,1516055337110,270
18,WS_RECV_END,1516055338412,270
18,PLAYER_SLEEPBEFORE_START,1516055338412,271
18,PLAYER_SLEEPBEFORE_END,1516055338419,271
18,WS_SEND_START,1516055338419,271
18,WS_SEND_END,1516055338419,271
18,WS_RECV_START,1516055338419,272
18,WS_RECV_END,1516055338624,272
18,PLAYER_SLEEPBEFORE_START,1516055338624,273
18,PLAYER_SLEEPBEFORE_END,1516055339921,273
18,WS_SEND_START,1516055339921,273
18,WS_SEND_END,1516055339921,273
18,WS_RECV_START,1516055339921,274
18,WS_RECV_END,1516055341459,274
18,PLAYER_SLEEPBEFORE_START,1516055341459,275
18,PLAYER_SLEEPBEFORE_END,1516055342632,275
18,WS_SEND_START,1516055342632,275
18,WS_SEND_END,1516055342632,275
18,WS_RECV_START,1516055342632,276
18,WS_RECV_END,1516055344848,276
18,PLAYER_SLEEPBEFORE_START,1516055344849,277
18,PLAYER_SLEEPBEFORE_END,1516055344871,277
18,WS_SEND_START,1516055344871,277
18,WS_SEND_END,1516055344871,277
18,WS_RECV_START,1516055344871,278
18,WS_RECV_END,1516055345834,278
18,PLAYER_SLEEPBEFORE_START,1516055345834,279
18,PLAYER_SLEEPBEFORE_END,1516055370357,279
18,WS_SEND_START,1516055370357,279
18,WS_SEND_END,1516055370358,279
18,WS_RECV_START,1516055370358,280
18,WS_RECV_END,1516055371059,280
18,PLAYER_SLEEPBEFORE_START,1516055371059,281
18,PLAYER_SLEEPBEFORE_END,1516055393347,281
18,WS_SEND_START,1516055393347,281
18,WS_SEND_END,1516055393347,281
18,WS_RECV_START,1516055393347,282
18,WS_RECV_END,1516055396336,282
18,PLAYER_SLEEPBEFORE_START,1516055396336,283
18,PLAYER_SLEEPBEFORE_END,1516055396354,283
18,WS_SEND_START,1516055396354,283
18,WS_SEND_END,1516055396354,283
18,WS_RECV_START,1516055396354,284
18,WS_RECV_END,1516055397314,284
18,PLAYER_SLEEPBEFORE_START,1516055397314,285
18,PLAYER_SLEEPBEFORE_END,1516055421445,285
18,WS_SEND_START,1516055421445,285
18,WS_SEND_END,1516055421445,285
18,WS_RECV_START,1516055421445,286
18,WS_RECV_END,1516055422897,286
18,PLAYER_SLEEPBEFORE_START,1516055422897,287
18,PLAYER_SLEEPBEFORE_END,1516055446051,287
18,WS_SEND_START,1516055446051,287
18,WS_SEND_END,1516055446051,287
18,WS_RECV_START,1516055446051,288
18,WS_RECV_END,1516055447743,288
18,PLAYER_SLEEPBEFORE_START,1516055447743,289
18,PLAYER_SLEEPBEFORE_END,1516055447765,289
18,WS_SEND_START,1516055447765,289
18,WS_SEND_END,1516055447765,289
18,WS_RECV_START,1516055447765,290
18,WS_RECV_END,1516055448721,290
18,PLAYER_SLEEPBEFORE_START,1516055448721,291
18,PLAYER_SLEEPBEFORE_END,1516055459336,291
18,WS_SEND_START,1516055459336,291
18,WS_SEND_END,1516055459336,291
18,WS_RECV_START,1516055459336,292
18,WS_RECV_END,1516055459529,292
18,PLAYER_SLEEPBEFORE_START,1516055459529,293
18,PLAYER_SLEEPBEFORE_END,1516055475285,293
18,WS_SEND_START,1516055475285,293
18,WS_SEND_END,1516055475285,293
18,WS_RECV_START,1516055475285,294
18,WS_RECV_END,1516055476199,294
18,PLAYER_SLEEPBEFORE_START,1516055476199,295
18,PLAYER_SLEEPBEFORE_END,1516055476225,295
18,WS_SEND_START,1516055476225,295
18,WS_SEND_END,1516055476225,295
18,WS_RECV_START,1516055476225,296
18,WS_RECV_END,1516055478245,296
18,PLAYER_SLEEPBEFORE_START,1516055478245,297
18,PLAYER_SLEEPBEFORE_END,1516055499742,297
18,WS_SEND_START,1516055499742,297
18,WS_SEND_END,1516055499742,297
18,WS_RECV_START,1516055499742,298
18,WS_RECV_END,1516055501105,298
18,PLAYER_SLEEPBEFORE_START,1516055501105,299
18,PLAYER_SLEEPBEFORE_END,1516055501115,299
18,WS_SEND_START,1516055501115,299
18,WS_SEND_END,1516055501115,299
18,WS_RECV_START,1516055501115,300
18,WS_RECV_END,1516055502140,300
18,PLAYER_SLEEPBEFORE_START,1516055502140,301
18,PLAYER_SLEEPBEFORE_END,1516055504501,301
18,WS_SEND_START,1516055504501,301
18,WS_SEND_END,1516055504501,301
18,WS_RECV_START,1516055504501,302
18,WS_RECV_END,1516055508918,302
18,PLAYER_SLEEPBEFORE_START,1516055508918,303
18,PLAYER_SLEEPBEFORE_END,1516055508942,303
18,WS_SEND_START,1516055508942,303
18,WS_SEND_END,1516055508942,303
18,WS_RECV_START,1516055508942,304
18,WS_RECV_END,1516055512256,304
18,PLAYER_SLEEPBEFORE_START,1516055512256,305
18,PLAYER_SLEEPBEFORE_END,1516055537246,305
18,WS_SEND_START,1516055537246,305
18,WS_SEND_END,1516055537246,305
18,WS_RECV_START,1516055537246,306
18,WS_RECV_END,1516055538107,306
18,PLAYER_SLEEPBEFORE_START,1516055538107,307
18,PLAYER_SLEEPBEFORE_END,1516055561982,307
18,WS_SEND_START,1516055561982,307
18,WS_SEND_END,1516055561982,307
18,WS_RECV_START,1516055561982,308
18,WS_RECV_END,1516055562088,308
18,PLAYER_SLEEPBEFORE_START,1516055562088,309
18,PLAYER_SLEEPBEFORE_END,1516055583779,309
18,WS_SEND_START,1516055583779,309
18,WS_SEND_END,1516055583779,309
18,WS_RECV_START,1516055583779,310
18,WS_RECV_END,1516055583883,310
18,PLAYER_SLEEPBEFORE_START,1516055583883,311
18,PLAYER_SLEEPBEFORE_END,1516055612711,311
18,WS_SEND_START,1516055612711,311
18,WS_SEND_END,1516055612711,311
18,WS_RECV_START,1516055612711,312
18,WS_RECV_END,1516055613549,312
18,PLAYER_SLEEPBEFORE_START,1516055613549,313
18,PLAYER_SLEEPBEFORE_END,1516055613569,313
18,WS_SEND_START,1516055613569,313
18,WS_SEND_END,1516055613569,313
18,WS_RECV_START,1516055613569,314
18,WS_RECV_END,1516055613997,314
18,PLAYER_SLEEPBEFORE_START,1516055613997,315
18,PLAYER_SLEEPBEFORE_END,1516055635583,315
18,WS_SEND_START,1516055635583,315
18,WS_SEND_END,1516055635583,315
18,WS_RECV_START,1516055635583,316
18,WS_RECV_END,1516055636554,316
18,PLAYER_SLEEPBEFORE_START,1516055636554,317
18,PLAYER_SLEEPBEFORE_END,1516055636562,317
18,WS_SEND_START,1516055636562,317
18,WS_SEND_END,1516055636562,317
18,WS_RECV_START,1516055636562,318
18,WS_RECV_END,1516055637721,318
18,PLAYER_SLEEPBEFORE_START,1516055637721,319
18,PLAYER_SLEEPBEFORE_END,1516055638053,319
18,WS_SEND_START,1516055638053,319
18,WS_SEND_END,1516055638053,319
18,WS_RECV_START,1516055638053,320
18,WS_RECV_END,1516055639059,320
18,PLAYER_SLEEPBEFORE_START,1516055639059,321
18,PLAYER_SLEEPBEFORE_END,1516055639078,321
18,WS_SEND_START,1516055639078,321
18,WS_SEND_END,1516055639078,321
18,WS_RECV_START,1516055639078,322
18,WS_RECV_END,1516055639221,322
18,PLAYER_SLEEPBEFORE_START,1516055639221,323
18,PLAYER_SLEEPBEFORE_END,1516055643614,323
18,REQ_START,1516055643614,323
18,REQ_END,1516055643623,323
18,PLAYER_SLEEPBEFORE_START,1516055643623,324
18,PLAYER_SLEEPBEFORE_END,1516055663509,324
18,WS_SEND_START,1516055663509,324
18,WS_SEND_END,1516055663509,324
18,WS_RECV_START,1516055663509,325
18,WS_RECV_END,1516055664677,325
18,PLAYER_SLEEPBEFORE_START,1516055664677,326
18,PLAYER_SLEEPBEFORE_END,1516055664686,326
18,WS_SEND_START,1516055664686,326
18,WS_SEND_END,1516055664686,326
18,WS_RECV_START,1516055664686,327
18,WS_RECV_END,1516055665729,327
18,PLAYER_SLEEPBEFORE_START,1516055665729,328
18,PLAYER_SLEEPBEFORE_END,1516055666090,328
18,WS_SEND_START,1516055666090,328
18,WS_SEND_END,1516055666090,328
18,WS_RECV_START,1516055666090,329
18,WS_RECV_END,1516055666564,329
18,PLAYER_SLEEPBEFORE_START,1516055666564,330
18,PLAYER_SLEEPBEFORE_END,1516055666910,330
18,WS_SEND_START,1516055666910,330
18,WS_SEND_END,1516055666910,330
18,WS_RECV_START,1516055666910,331
18,WS_RECV_END,1516055669192,331
18,PLAYER_SLEEPBEFORE_START,1516055669192,332
18,PLAYER_SLEEPBEFORE_END,1516055670039,332
18,WS_SEND_START,1516055670039,332
18,WS_SEND_END,1516055670039,332
18,WS_RECV_START,1516055670039,333
18,WS_RECV_END,1516055670432,333
18,PLAYER_SLEEPBEFORE_START,1516055670432,334
18,PLAYER_SLEEPBEFORE_END,1516055670829,334
18,WS_SEND_START,1516055670829,334
18,WS_SEND_END,1516055670829,334
18,WS_RECV_START,1516055670829,335
18,WS_RECV_END,1516055671614,335
18,PLAYER_SLEEPBEFORE_START,1516055671614,336
18,PLAYER_SLEEPBEFORE_END,1516055671938,336
18,WS_SEND_START,1516055671938,336
18,WS_SEND_END,1516055671938,336
18,WS_RECV_START,1516055671938,337
18,WS_RECV_END,1516055674053,337
18,PLAYER_SLEEPBEFORE_START,1516055674053,338
18,PLAYER_SLEEPBEFORE_END,1516055674069,338
18,WS_SEND_START,1516055674069,338
18,WS_SEND_END,1516055674069,338
18,WS_RECV_START,1516055674069,339
18,WS_RECV_END,1516055676050,339
18,PLAYER_SLEEPBEFORE_START,1516055676050,340
18,PLAYER_SLEEPBEFORE_END,1516055694023,340
18,WS_SEND_START,1516055694023,340
18,WS_SEND_END,1516055694023,340
18,WS_RECV_START,1516055694023,341
18,WS_RECV_END,1516055695809,341
18,PLAYER_SLEEPBEFORE_START,1516055695809,342
18,PLAYER_SLEEPBEFORE_END,1516055695818,342
18,WS_SEND_START,1516055695818,342
18,WS_SEND_END,1516055695818,342
18,WS_RECV_START,1516055695818,343
18,WS_RECV_END,1516055695909,343
18,PLAYER_SLEEPBEFORE_START,1516055695909,344
18,PLAYER_SLEEPBEFORE_END,1516055698221,344
18,WS_SEND_START,1516055698221,344
18,WS_SEND_END,1516055698221,344
18,WS_RECV_START,1516055698221,345
18,WS_RECV_END,1516055700478,345
18,PLAYER_SLEEPBEFORE_START,1516055700478,346
18,PLAYER_SLEEPBEFORE_END,1516055700489,346
18,WS_SEND_START,1516055700489,346
18,WS_SEND_END,1516055700489,346
18,WS_RECV_START,1516055700489,347
18,WS_RECV_END,1516055703070,347
18,PLAYER_SLEEPBEFORE_START,1516055703070,348
18,PLAYER_SLEEPBEFORE_END,1516055723677,348
18,WS_SEND_START,1516055723677,348
18,WS_SEND_END,1516055723677,348
18,WS_RECV_START,1516055723677,349
18,WS_RECV_END,1516055726223,349
18,PLAYER_SLEEPBEFORE_START,1516055726223,350
18,PLAYER_SLEEPBEFORE_END,1516055726231,350
18,WS_SEND_START,1516055726231,350
18,WS_SEND_END,1516055726231,350
18,WS_RECV_START,1516055726231,351
18,WS_RECV_END,1516055727381,351
18,PLAYER_SLEEPBEFORE_START,1516055727381,352
18,PLAYER_SLEEPBEFORE_END,1516055728567,352
18,WS_SEND_START,1516055728567,352
18,WS_SEND_END,1516055728567,352
18,WS_RECV_START,1516055728567,353
18,WS_RECV_END,1516055733471,353
18,PLAYER_SLEEPBEFORE_START,1516055733471,354
18,PLAYER_SLEEPBEFORE_END,1516055733487,354
18,WS_SEND_START,1516055733487,354
18,WS_SEND_END,1516055733487,354
18,WS_RECV_START,1516055733487,355
18,WS_RECV_END,1516055737742,355
18,PLAYER_SLEEPBEFORE_START,1516055737742,356
18,PLAYER_SLEEPBEFORE_END,1516055737788,356
18,WS_SEND_START,1516055737788,356
18,WS_SEND_END,1516055737788,356
18,WS_RECV_START,1516055737788,357
18,WS_RECV_END,1516055740381,357
18,PLAYER_SLEEPBEFORE_START,1516055740381,358
18,PLAYER_SLEEPBEFORE_END,1516055740396,358
18,WS_SEND_START,1516055740396,358
18,WS_SEND_END,1516055740396,358
18,WS_RECV_START,1516055740396,359
18,WS_RECV_END,1516055741288,359
18,PLAYER_SLEEPBEFORE_START,1516055741288,360
18,PLAYER_SLEEPBEFORE_END,1516055761754,360
18,WS_SEND_START,1516055761754,360
18,WS_SEND_END,1516055761754,360
18,WS_RECV_START,1516055761754,361
18,WS_RECV_END,1516055762670,361
18,PLAYER_SLEEPBEFORE_START,1516055762670,362
18,PLAYER_SLEEPBEFORE_END,1516055762679,362
18,WS_SEND_START,1516055762679,362
18,WS_SEND_END,1516055762679,362
18,WS_RECV_START,1516055762679,363
18,WS_RECV_END,1516055765893,363
18,PLAYER_SLEEPBEFORE_START,1516055765893,364
18,PLAYER_SLEEPBEFORE_END,1516055767984,364
18,WS_SEND_START,1516055767984,364
18,WS_SEND_END,1516055767984,364
18,WS_RECV_START,1516055767984,365
18,WS_RECV_END,1516055770436,365
18,PLAYER_SLEEPBEFORE_START,1516055770436,366
18,PLAYER_SLEEPBEFORE_END,1516055770446,366
18,WS_SEND_START,1516055770446,366
18,WS_SEND_END,1516055770446,366
18,WS_RECV_START,1516055770446,367
18,WS_RECV_END,1516055773470,367
18,PLAYER_SLEEPBEFORE_START,1516055773470,368
18,PLAYER_SLEEPBEFORE_END,1516055796930,368
18,WS_SEND_START,1516055796930,368
18,WS_SEND_END,1516055796930,368
18,WS_RECV_START,1516055796930,369
18,WS_RECV_END,1516055797004,369
18,PLAYER_SLEEPBEFORE_START,1516055797004,370
18,PLAYER_SLEEPBEFORE_END,1516055797012,370
18,WS_SEND_START,1516055797012,370
18,WS_SEND_END,1516055797012,370
18,WS_RECV_START,1516055797012,371
18,WS_RECV_END,1516055797053,371
18,PLAYER_SLEEPBEFORE_START,1516055797053,372
18,PLAYER_SLEEPBEFORE_END,1516055797425,372
18,WS_SEND_START,1516055797425,372
18,WS_SEND_END,1516055797425,372
18,WS_RECV_START,1516055797425,373
18,WS_RECV_END,1516055797525,373
18,PLAYER_SLEEPBEFORE_START,1516055797525,374
18,PLAYER_SLEEPBEFORE_END,1516055798227,374
18,WS_SEND_START,1516055798227,374
18,WS_SEND_END,1516055798227,374
18,WS_RECV_START,1516055798227,375
18,WS_RECV_END,1516055801922,375
18,PLAYER_SLEEPBEFORE_START,1516055801922,376
18,PLAYER_SLEEPBEFORE_END,1516055802273,376
18,WS_SEND_START,1516055802273,376
18,WS_SEND_END,1516055802273,376
18,WS_RECV_START,1516055802273,377
18,WS_RECV_END,1516055809324,377
18,PLAYER_SLEEPBEFORE_START,1516055809324,378
18,PLAYER_SLEEPBEFORE_END,1516055809343,378
18,WS_SEND_START,1516055809343,378
18,WS_SEND_END,1516055809343,378
18,WS_RECV_START,1516055809343,379
18,WS_RECV_END,1516055812462,379
18,PLAYER_SLEEPBEFORE_START,1516055812462,380
18,PLAYER_SLEEPBEFORE_END,1516055832954,380
18,WS_SEND_START,1516055832954,380
18,WS_SEND_END,1516055832954,380
18,PLAYER_SLEEPBEFORE_START,1516055832954,381
18,PLAYER_SLEEPBEFORE_END,1516055837168,381
18,WS_SEND_START,1516055837168,381
18,WS_SEND_END,1516055837168,381
18,WS_RECV_START,1516055837168,382
18,WS_RECV_END,1516055838176,382
18,PLAYER_SLEEPBEFORE_START,1516055838176,383
18,PLAYER_SLEEPBEFORE_END,1516055858377,383
18,WS_SEND_START,1516055858377,383
18,WS_SEND_END,1516055858377,383
18,PLAYER_SLEEPBEFORE_START,1516055858377,384
18,PLAYER_SLEEPBEFORE_END,1516055861563,384
18,WS_SEND_START,1516055861563,384
18,WS_SEND_END,1516055861563,384
18,WS_RECV_START,1516055861563,385
18,WS_RECV_END,1516055862394,385
18,PLAYER_SLEEPBEFORE_START,1516055862394,386
18,PLAYER_SLEEPBEFORE_END,1516055862409,386
18,WS_SEND_START,1516055862409,386
18,WS_SEND_END,1516055862409,386
18,WS_RECV_START,1516055862409,387
18,WS_RECV_END,1516055863755,387
18,PLAYER_SLEEPBEFORE_START,1516055863755,388
18,PLAYER_SLEEPBEFORE_END,1516055884286,388
18,WS_SEND_START,1516055884286,388
18,WS_SEND_END,1516055884286,388
18,PLAYER_SLEEPBEFORE_START,1516055884286,389
18,PLAYER_SLEEPBEFORE_END,1516055886505,389
18,WS_SEND_START,1516055886505,389
18,WS_SEND_END,1516055886505,389
18,WS_RECV_START,1516055886505,390
18,WS_RECV_END,1516055886670,390
18,PLAYER_SLEEPBEFORE_START,1516055886671,391
18,PLAYER_SLEEPBEFORE_END,1516055909507,391
18,WS_SEND_START,1516055909507,391
18,WS_SEND_END,1516055909507,391
18,WS_RECV_START,1516055909507,392
18,WS_RECV_END,1516055909685,392
18,PLAYER_SLEEPBEFORE_START,1516055909685,393
18,PLAYER_SLEEPBEFORE_END,1516055934374,393
18,WS_SEND_START,1516055934374,393
18,WS_SEND_END,1516055934374,393
18,PLAYER_SLEEPBEFORE_START,1516055934374,394
18,PLAYER_SLEEPBEFORE_END,1516055936346,394
18,WS_SEND_START,1516055936346,394
18,WS_SEND_END,1516055936346,394
18,WS_RECV_START,1516055936346,395
18,WS_RECV_END,1516055936404,395
18,PLAYER_SLEEPBEFORE_START,1516055936404,396
18,PLAYER_SLEEPBEFORE_END,1516055936411,396
18,WS_SEND_START,1516055936411,396
18,WS_SEND_END,1516055936411,396
18,WS_RECV_START,1516055936411,397
18,WS_RECV_END,1516055936505,397
18,PLAYER_SLEEPBEFORE_START,1516055936505,398
18,PLAYER_SLEEPBEFORE_END,1516055936685,398
18,WS_SEND_START,1516055936685,398
18,WS_SEND_END,1516055936685,398
18,WS_RECV_START,1516055936685,399
18,WS_RECV_END,1516055936900,399
18,PLAYER_SLEEPBEFORE_START,1516055936900,400
18,PLAYER_SLEEPBEFORE_END,1516055937975,400
18,WS_SEND_START,1516055937975,400
18,WS_SEND_END,1516055937975,400
18,WS_RECV_START,1516055937975,401
18,WS_RECV_END,1516055938708,401
18,PLAYER_SLEEPBEFORE_START,1516055938708,402
18,PLAYER_SLEEPBEFORE_END,1516055940067,402
18,WS_SEND_START,1516055940067,402
18,WS_SEND_END,1516055940067,402
18,WS_RECV_START,1516055940067,403
18,WS_RECV_END,1516055940577,403
18,PLAYER_SLEEPBEFORE_START,1516055940577,404
18,PLAYER_SLEEPBEFORE_END,1516055941047,404
18,WS_SEND_START,1516055941047,404
18,WS_SEND_END,1516055941047,404
18,WS_RECV_START,1516055941047,405
18,WS_RECV_END,1516055941100,405
18,PLAYER_SLEEPBEFORE_START,1516055941100,406
18,PLAYER_SLEEPBEFORE_END,1516055943827,406
18,WS_SEND_START,1516055943827,406
18,WS_SEND_END,1516055943827,406
18,WS_RECV_START,1516055943827,407
18,WS_RECV_END,1516055943880,407
18,PLAYER_SLEEPBEFORE_START,1516055943880,408
18,PLAYER_SLEEPBEFORE_END,1516055944209,408
18,WS_SEND_START,1516055944209,408
18,WS_SEND_END,1516055944209,408
18,WS_RECV_START,1516055944209,409
18,WS_RECV_END,1516055944263,409
18,PLAYER_SLEEPBEFORE_START,1516055944263,410
18,PLAYER_SLEEPBEFORE_END,1516055945289,410
18,WS_SEND_START,1516055945289,410
18,WS_SEND_END,1516055945289,410
18,WS_RECV_START,1516055945289,411
18,WS_RECV_END,1516055945360,411
18,PLAYER_SLEEPBEFORE_START,1516055945360,412
18,PLAYER_SLEEPBEFORE_END,1516055946016,412
18,WS_SEND_START,1516055946016,412
18,WS_SEND_END,1516055946016,412
18,WS_RECV_START,1516055946016,413
18,WS_RECV_END,1516055946714,413
18,PLAYER_SLEEPBEFORE_START,1516055946714,414
18,PLAYER_SLEEPBEFORE_END,1516055946730,414
18,WS_SEND_START,1516055946730,414
18,WS_SEND_END,1516055946730,414
18,WS_RECV_START,1516055946730,415
18,WS_RECV_END,1516055946882,415
18,PLAYER_SLEEPBEFORE_START,1516055946882,416
18,PLAYER_SLEEPBEFORE_END,1516055961149,416
18,WS_SEND_START,1516055961149,416
18,WS_SEND_END,1516055961149,416
18,PLAYER_SLEEPBEFORE_START,1516055961149,417
18,PLAYER_SLEEPBEFORE_END,1516055989828,417
18,WS_SEND_START,1516055989828,417
18,WS_SEND_END,1516055989828,417
18,WS_RECV_START,1516055989828,418
18,WS_RECV_END,1516055989984,418
18,PLAYER_SLEEPBEFORE_START,1516055989985,419
18,PLAYER_SLEEPBEFORE_END,1516055994807,419
18,REQ_START,1516055994807,419
18,REQ_END,1516055994814,419
18,PLAYER_SLEEPBEFORE_START,1516055994814,420
18,PLAYER_SLEEPBEFORE_END,1516056013559,420
18,WS_CLOSE_START,1516056013559,420
18,WS_CLOSE_END,1516056013559,420
18,PLAYER_DONE,1516056013559
