# --sessions 60 --app-url=http://shinyloadtest.rstudioservices.com/ --output-dir test60 --overwrite-output --log-level warn --start-interval 1500 30min.log
thread_id,event,timestamp,input_line_number,comment
22,PLAYER_SESSION_CREATE,1516054044810
22,PLAYER_START_INTERVAL_START,1516054044810
22,PLAYER_START_INTERVAL_END,1516054077811
22,REQ_HOME_START,1516054077811,2
22,REQ_HOME_END,1516054077896,2
22,REQ_START,1516054077897,3
22,REQ_END,1516054077928,3
22,REQ_START,1516054077928,4
22,REQ_END,1516054077963,4
22,REQ_START,1516054077963,5
22,REQ_END,1516054077994,5
22,REQ_START,1516054077994,6
22,REQ_END,1516054078028,6
22,REQ_START,1516054078028,7
22,REQ_END,1516054078060,7
22,REQ_START,1516054078060,8
22,REQ_END,1516054078092,8
22,REQ_START,1516054078092,9
22,REQ_END,1516054078124,9
22,REQ_START,1516054078124,10
22,REQ_END,1516054078133,10
22,REQ_START,1516054078133,11
22,REQ_END,1516054078164,11
22,REQ_START,1516054078164,12
22,REQ_END,1516054078194,12
22,REQ_START,1516054078194,13
22,REQ_END,1516054078204,13
22,REQ_START,1516054078204,14
22,REQ_END,1516054078219,14
22,REQ_START,1516054078219,15
22,REQ_END,1516054078252,15
22,REQ_TOK_START,1516054078252,16
22,REQ_TOK_END,1516054078260,16
22,REQ_SINF_START,1516054078260,17
22,REQ_SINF_END,1516054078267,17
22,WS_OPEN_START,1516054078267,18
22,WS_OPEN_END,1516054078274,18
22,WS_RECV_START,1516054078274,19
22,WS_RECV_END,1516054078277,19
22,PLAYER_SLEEPBEFORE_START,1516054078277,20
22,PLAYER_SLEEPBEFORE_END,1516054078283,20
22,WS_SEND_START,1516054078283,20
22,WS_SEND_END,1516054078283,20
22,PLAYER_SLEEPBEFORE_START,1516054078283,21
22,PLAYER_SLEEPBEFORE_END,1516054078285,21
22,WS_SEND_START,1516054078285,21
22,WS_SEND_END,1516054078285,21
22,WS_RECV_INIT_START,1516054078285,22
22,WS_RECV_INIT_END,1516054078300,22
22,WS_RECV_START,1516054078300,23
22,WS_RECV_END,1516054078359,23
22,PLAYER_SLEEPBEFORE_START,1516054078359,24
22,PLAYER_SLEEPBEFORE_END,1516054078366,24
22,REQ_START,1516054078366,24
22,REQ_END,1516054078400,24
22,PLAYER_SLEEPBEFORE_START,1516054078400,25
22,PLAYER_SLEEPBEFORE_END,1516054078402,25
22,REQ_START,1516054078402,25
22,REQ_END,1516054078434,25
22,PLAYER_SLEEPBEFORE_START,1516054078434,26
22,PLAYER_SLEEPBEFORE_END,1516054078437,26
22,REQ_START,1516054078437,26
22,REQ_END,1516054078469,26
22,PLAYER_SLEEPBEFORE_START,1516054078469,27
22,PLAYER_SLEEPBEFORE_END,1516054078725,27
22,REQ_START,1516054078725,27
22,REQ_END,1516054078904,27
22,PLAYER_SLEEPBEFORE_START,1516054078904,28
22,PLAYER_SLEEPBEFORE_END,1516054079102,28
22,WS_SEND_START,1516054079102,28
22,WS_SEND_END,1516054079103,28
22,WS_RECV_START,1516054079103,29
22,WS_RECV_END,1516054079276,29
22,PLAYER_SLEEPBEFORE_START,1516054079276,30
22,PLAYER_SLEEPBEFORE_END,1516054079287,30
22,REQ_START,1516054079288,30
22,REQ_END,1516054079326,30
22,PLAYER_SLEEPBEFORE_START,1516054079326,31
22,PLAYER_SLEEPBEFORE_END,1516054109447,31
22,WS_SEND_START,1516054109447,31
22,WS_SEND_END,1516054109447,31
22,WS_RECV_START,1516054109447,32
22,WS_RECV_END,1516054109605,32
22,PLAYER_SLEEPBEFORE_START,1516054109605,33
22,PLAYER_SLEEPBEFORE_END,1516054134371,33
22,WS_SEND_START,1516054134371,33
22,WS_SEND_END,1516054134371,33
22,WS_RECV_START,1516054134371,34
22,WS_RECV_END,1516054134470,34
22,PLAYER_SLEEPBEFORE_START,1516054134470,35
22,PLAYER_SLEEPBEFORE_END,1516054159284,35
22,WS_SEND_START,1516054159284,35
22,WS_SEND_END,1516054159284,35
22,WS_RECV_START,1516054159284,36
22,WS_RECV_END,1516054159336,36
22,PLAYER_SLEEPBEFORE_START,1516054159337,37
22,PLAYER_SLEEPBEFORE_END,1516054159346,37
22,WS_SEND_START,1516054159346,37
22,WS_SEND_END,1516054159346,37
22,WS_RECV_START,1516054159346,38
22,WS_RECV_END,1516054159389,38
22,PLAYER_SLEEPBEFORE_START,1516054159389,39
22,PLAYER_SLEEPBEFORE_END,1516054162086,39
22,WS_SEND_START,1516054162086,39
22,WS_SEND_END,1516054162086,39
22,WS_RECV_START,1516054162086,40
22,WS_RECV_END,1516054162154,40
22,PLAYER_SLEEPBEFORE_START,1516054162155,41
22,PLAYER_SLEEPBEFORE_END,1516054163274,41
22,WS_SEND_START,1516054163274,41
22,WS_SEND_END,1516054163274,41
22,WS_RECV_START,1516054163274,42
22,WS_RECV_END,1516054164192,42
22,PLAYER_SLEEPBEFORE_START,1516054164192,43
22,PLAYER_SLEEPBEFORE_END,1516054164221,43
22,WS_SEND_START,1516054164221,43
22,WS_SEND_END,1516054164221,43
22,WS_RECV_START,1516054164221,44
22,WS_RECV_END,1516054164584,44
22,PLAYER_SLEEPBEFORE_START,1516054164584,45
22,PLAYER_SLEEPBEFORE_END,1516054186073,45
22,WS_SEND_START,1516054186073,45
22,WS_SEND_END,1516054186073,45
22,WS_RECV_START,1516054186073,46
22,WS_RECV_END,1516054186205,46
22,PLAYER_SLEEPBEFORE_START,1516054186205,47
22,PLAYER_SLEEPBEFORE_END,1516054214690,47
22,WS_SEND_START,1516054214690,47
22,WS_SEND_END,1516054214690,47
22,WS_RECV_START,1516054214690,48
22,WS_RECV_END,1516054214907,48
22,PLAYER_SLEEPBEFORE_START,1516054214907,49
22,PLAYER_SLEEPBEFORE_END,1516054241316,49
22,WS_SEND_START,1516054241316,49
22,WS_SEND_END,1516054241316,49
22,WS_RECV_START,1516054241316,50
22,WS_RECV_END,1516054241424,50
22,PLAYER_SLEEPBEFORE_START,1516054241424,51
22,PLAYER_SLEEPBEFORE_END,1516054263976,51
22,WS_SEND_START,1516054263976,51
22,WS_SEND_END,1516054263976,51
22,WS_RECV_START,1516054263976,52
22,WS_RECV_END,1516054264082,52
22,PLAYER_SLEEPBEFORE_START,1516054264082,53
22,PLAYER_SLEEPBEFORE_END,1516054288986,53
22,WS_SEND_START,1516054288986,53
22,WS_SEND_END,1516054288986,53
22,WS_RECV_START,1516054288986,54
22,WS_RECV_END,1516054289102,54
22,PLAYER_SLEEPBEFORE_START,1516054289102,55
22,PLAYER_SLEEPBEFORE_END,1516054314503,55
22,WS_SEND_START,1516054314503,55
22,WS_SEND_END,1516054314503,55
22,WS_RECV_START,1516054314503,56
22,WS_RECV_END,1516054314620,56
22,PLAYER_SLEEPBEFORE_START,1516054314620,57
22,PLAYER_SLEEPBEFORE_END,1516054339958,57
22,WS_SEND_START,1516054339958,57
22,WS_SEND_END,1516054339958,57
22,WS_RECV_START,1516054339958,58
22,WS_RECV_END,1516054340077,58
22,PLAYER_SLEEPBEFORE_START,1516054340078,59
22,PLAYER_SLEEPBEFORE_END,1516054366935,59
22,WS_SEND_START,1516054366935,59
22,WS_SEND_END,1516054366935,59
22,WS_RECV_START,1516054366935,60
22,WS_RECV_END,1516054367754,60
22,PLAYER_SLEEPBEFORE_START,1516054367755,61
22,PLAYER_SLEEPBEFORE_END,1516054367778,61
22,WS_SEND_START,1516054367778,61
22,WS_SEND_END,1516054367778,61
22,WS_RECV_START,1516054367778,62
22,WS_RECV_END,1516054367962,62
22,PLAYER_SLEEPBEFORE_START,1516054367962,63
22,PLAYER_SLEEPBEFORE_END,1516054376966,63
22,REQ_START,1516054376966,63
22,REQ_END,1516054376974,63
22,PLAYER_SLEEPBEFORE_START,1516054376974,64
22,PLAYER_SLEEPBEFORE_END,1516054391180,64
22,WS_SEND_START,1516054391180,64
22,WS_SEND_END,1516054391180,64
22,WS_RECV_START,1516054391180,65
22,WS_RECV_END,1516054391290,65
22,PLAYER_SLEEPBEFORE_START,1516054391290,66
22,PLAYER_SLEEPBEFORE_END,1516054415277,66
22,WS_SEND_START,1516054415277,66
22,WS_SEND_END,1516054415277,66
22,WS_RECV_START,1516054415277,67
22,WS_RECV_END,1516054415380,67
22,PLAYER_SLEEPBEFORE_START,1516054415380,68
22,PLAYER_SLEEPBEFORE_END,1516054440954,68
22,WS_SEND_START,1516054440954,68
22,WS_SEND_END,1516054440954,68
22,WS_RECV_START,1516054440954,69
22,WS_RECV_END,1516054441008,69
22,PLAYER_SLEEPBEFORE_START,1516054441008,70
22,PLAYER_SLEEPBEFORE_END,1516054441017,70
22,WS_SEND_START,1516054441017,70
22,WS_SEND_END,1516054441017,70
22,WS_RECV_START,1516054441017,71
22,WS_RECV_END,1516054441817,71
22,PLAYER_SLEEPBEFORE_START,1516054441817,72
22,PLAYER_SLEEPBEFORE_END,1516054442022,72
22,WS_SEND_START,1516054442022,72
22,WS_SEND_END,1516054442022,72
22,WS_RECV_START,1516054442022,73
22,WS_RECV_END,1516054442532,73
22,PLAYER_SLEEPBEFORE_START,1516054442532,74
22,PLAYER_SLEEPBEFORE_END,1516054443954,74
22,WS_SEND_START,1516054443954,74
22,WS_SEND_END,1516054443954,74
22,WS_RECV_START,1516054443954,75
22,WS_RECV_END,1516054444004,75
22,PLAYER_SLEEPBEFORE_START,1516054444004,76
22,PLAYER_SLEEPBEFORE_END,1516054444500,76
22,WS_SEND_START,1516054444500,76
22,WS_SEND_END,1516054444500,76
22,WS_RECV_START,1516054444500,77
22,WS_RECV_END,1516054445198,77
22,PLAYER_SLEEPBEFORE_START,1516054445198,78
22,PLAYER_SLEEPBEFORE_END,1516054445217,78
22,WS_SEND_START,1516054445217,78
22,WS_SEND_END,1516054445217,78
22,WS_RECV_START,1516054445217,79
22,WS_RECV_END,1516054445433,79
22,PLAYER_SLEEPBEFORE_START,1516054445433,80
22,PLAYER_SLEEPBEFORE_END,1516054466167,80
22,WS_SEND_START,1516054466167,80
22,WS_SEND_END,1516054466167,80
22,WS_RECV_START,1516054466167,81
22,WS_RECV_END,1516054466236,81
22,PLAYER_SLEEPBEFORE_START,1516054466236,82
22,PLAYER_SLEEPBEFORE_END,1516054466247,82
22,WS_SEND_START,1516054466247,82
22,WS_SEND_END,1516054466247,82
22,WS_RECV_START,1516054466247,83
22,WS_RECV_END,1516054466288,83
22,PLAYER_SLEEPBEFORE_START,1516054466288,84
22,PLAYER_SLEEPBEFORE_END,1516054467152,84
22,WS_SEND_START,1516054467152,84
22,WS_SEND_END,1516054467152,84
22,WS_RECV_START,1516054467152,85
22,WS_RECV_END,1516054467330,85
22,PLAYER_SLEEPBEFORE_START,1516054467330,86
22,PLAYER_SLEEPBEFORE_END,1516054468057,86
22,WS_SEND_START,1516054468057,86
22,WS_SEND_END,1516054468057,86
22,WS_RECV_START,1516054468057,87
22,WS_RECV_END,1516054470112,87
22,PLAYER_SLEEPBEFORE_START,1516054470112,88
22,PLAYER_SLEEPBEFORE_END,1516054470133,88
22,WS_SEND_START,1516054470133,88
22,WS_SEND_END,1516054470133,88
22,WS_RECV_START,1516054470133,89
22,WS_RECV_END,1516054470518,89
22,PLAYER_SLEEPBEFORE_START,1516054470519,90
22,PLAYER_SLEEPBEFORE_END,1516054491948,90
22,WS_SEND_START,1516054491948,90
22,WS_SEND_END,1516054491948,90
22,PLAYER_SLEEPBEFORE_START,1516054491948,91
22,PLAYER_SLEEPBEFORE_END,1516054518803,91
22,WS_SEND_START,1516054518803,91
22,WS_SEND_END,1516054518803,91
22,WS_RECV_START,1516054518803,92
22,WS_RECV_END,1516054519692,92
22,PLAYER_SLEEPBEFORE_START,1516054519692,93
22,PLAYER_SLEEPBEFORE_END,1516054521966,93
22,WS_SEND_START,1516054521966,93
22,WS_SEND_END,1516054521966,93
22,WS_RECV_START,1516054521966,94
22,WS_RECV_END,1516054522074,94
22,PLAYER_SLEEPBEFORE_START,1516054522074,95
22,PLAYER_SLEEPBEFORE_END,1516054548070,95
22,WS_SEND_START,1516054548070,95
22,WS_SEND_END,1516054548070,95
22,WS_RECV_START,1516054548070,96
22,WS_RECV_END,1516054548522,96
22,PLAYER_SLEEPBEFORE_START,1516054548522,97
22,PLAYER_SLEEPBEFORE_END,1516054553610,97
22,WS_SEND_START,1516054553610,97
22,WS_SEND_END,1516054553610,97
22,WS_RECV_START,1516054553610,98
22,WS_RECV_END,1516054553759,98
22,PLAYER_SLEEPBEFORE_START,1516054553759,99
22,PLAYER_SLEEPBEFORE_END,1516054555460,99
22,WS_SEND_START,1516054555460,99
22,WS_SEND_END,1516054555460,99
22,WS_RECV_START,1516054555460,100
22,WS_RECV_END,1516054555612,100
22,PLAYER_SLEEPBEFORE_START,1516054555612,101
22,PLAYER_SLEEPBEFORE_END,1516054557451,101
22,WS_SEND_START,1516054557451,101
22,WS_SEND_END,1516054557451,101
22,WS_RECV_START,1516054557451,102
22,WS_RECV_END,1516054558233,102
22,PLAYER_SLEEPBEFORE_START,1516054558233,103
22,PLAYER_SLEEPBEFORE_END,1516054571283,103
22,WS_SEND_START,1516054571283,103
22,WS_SEND_END,1516054571283,103
22,PLAYER_SLEEPBEFORE_START,1516054571283,104
22,PLAYER_SLEEPBEFORE_END,1516054575709,104
22,WS_SEND_START,1516054575709,104
22,WS_SEND_END,1516054575709,104
22,WS_RECV_START,1516054575709,105
22,WS_RECV_END,1516054575871,105
22,PLAYER_SLEEPBEFORE_START,1516054575871,106
22,PLAYER_SLEEPBEFORE_END,1516054575880,106
22,WS_SEND_START,1516054575880,106
22,WS_SEND_END,1516054575880,106
22,WS_RECV_START,1516054575880,107
22,WS_RECV_END,1516054576077,107
22,PLAYER_SLEEPBEFORE_START,1516054576077,108
22,PLAYER_SLEEPBEFORE_END,1516054576541,108
22,WS_SEND_START,1516054576541,108
22,WS_SEND_END,1516054576541,108
22,WS_RECV_START,1516054576541,109
22,WS_RECV_END,1516054577226,109
22,PLAYER_SLEEPBEFORE_START,1516054577226,110
22,PLAYER_SLEEPBEFORE_END,1516054577241,110
22,WS_SEND_START,1516054577241,110
22,WS_SEND_END,1516054577241,110
22,WS_RECV_START,1516054577241,111
22,WS_RECV_END,1516054577865,111
22,PLAYER_SLEEPBEFORE_START,1516054577865,112
22,PLAYER_SLEEPBEFORE_END,1516054598629,112
22,WS_SEND_START,1516054598629,112
22,WS_SEND_END,1516054598630,112
22,PLAYER_SLEEPBEFORE_START,1516054598630,113
22,PLAYER_SLEEPBEFORE_END,1516054601024,113
22,WS_SEND_START,1516054601024,113
22,WS_SEND_END,1516054601024,113
22,WS_RECV_START,1516054601024,114
22,WS_RECV_END,1516054601275,114
22,PLAYER_SLEEPBEFORE_START,1516054601275,115
22,PLAYER_SLEEPBEFORE_END,1516054602057,115
22,WS_SEND_START,1516054602057,115
22,WS_SEND_END,1516054602057,115
22,WS_RECV_START,1516054602057,116
22,WS_RECV_END,1516054602778,116
22,PLAYER_SLEEPBEFORE_START,1516054602778,117
22,PLAYER_SLEEPBEFORE_END,1516054625163,117
22,WS_SEND_START,1516054625163,117
22,WS_SEND_END,1516054625163,117
22,WS_RECV_START,1516054625163,118
22,WS_RECV_END,1516054625331,118
22,PLAYER_SLEEPBEFORE_START,1516054625331,119
22,PLAYER_SLEEPBEFORE_END,1516054627236,119
22,WS_SEND_START,1516054627236,119
22,WS_SEND_END,1516054627236,119
22,WS_RECV_START,1516054627236,120
22,WS_RECV_END,1516054627968,120
22,PLAYER_SLEEPBEFORE_START,1516054627968,121
22,PLAYER_SLEEPBEFORE_END,1516054629121,121
22,WS_SEND_START,1516054629121,121
22,WS_SEND_END,1516054629121,121
22,WS_RECV_START,1516054629121,122
22,WS_RECV_END,1516054629275,122
22,PLAYER_SLEEPBEFORE_START,1516054629275,123
22,PLAYER_SLEEPBEFORE_END,1516054630399,123
22,WS_SEND_START,1516054630399,123
22,WS_SEND_END,1516054630400,123
22,WS_RECV_START,1516054630400,124
22,WS_RECV_END,1516054630823,124
22,PLAYER_SLEEPBEFORE_START,1516054630823,125
22,PLAYER_SLEEPBEFORE_END,1516054632319,125
22,WS_SEND_START,1516054632319,125
22,WS_SEND_END,1516054632319,125
22,WS_RECV_START,1516054632319,126
22,WS_RECV_END,1516054633667,126
22,PLAYER_SLEEPBEFORE_START,1516054633667,127
22,PLAYER_SLEEPBEFORE_END,1516054654277,127
22,WS_SEND_START,1516054654277,127
22,WS_SEND_END,1516054654277,127
22,WS_RECV_START,1516054654277,128
22,WS_RECV_END,1516054654446,128
22,PLAYER_SLEEPBEFORE_START,1516054654446,129
22,PLAYER_SLEEPBEFORE_END,1516054679477,129
22,WS_SEND_START,1516054679477,129
22,WS_SEND_END,1516054679477,129
22,PLAYER_SLEEPBEFORE_START,1516054679477,130
22,PLAYER_SLEEPBEFORE_END,1516054681457,130
22,WS_SEND_START,1516054681457,130
22,WS_SEND_END,1516054681457,130
22,WS_RECV_START,1516054681457,131
22,WS_RECV_END,1516054681959,131
22,PLAYER_SLEEPBEFORE_START,1516054681959,132
22,PLAYER_SLEEPBEFORE_END,1516054681968,132
22,WS_SEND_START,1516054681968,132
22,WS_SEND_END,1516054681968,132
22,WS_RECV_START,1516054681968,133
22,WS_RECV_END,1516054682013,133
22,PLAYER_SLEEPBEFORE_START,1516054682013,134
22,PLAYER_SLEEPBEFORE_END,1516054683089,134
22,REQ_START,1516054683089,134
22,REQ_END,1516054683097,134
22,PLAYER_SLEEPBEFORE_START,1516054683097,135
22,PLAYER_SLEEPBEFORE_END,1516054683687,135
22,WS_SEND_START,1516054683688,135
22,WS_SEND_END,1516054683688,135
22,WS_RECV_START,1516054683688,136
22,WS_RECV_END,1516054684285,136
22,PLAYER_SLEEPBEFORE_START,1516054684285,137
22,PLAYER_SLEEPBEFORE_END,1516054684299,137
22,WS_SEND_START,1516054684299,137
22,WS_SEND_END,1516054684299,137
22,WS_RECV_START,1516054684299,138
22,WS_RECV_END,1516054684824,138
22,PLAYER_SLEEPBEFORE_START,1516054684824,139
22,PLAYER_SLEEPBEFORE_END,1516054702498,139
22,WS_SEND_START,1516054702498,139
22,WS_SEND_END,1516054702498,139
22,PLAYER_SLEEPBEFORE_START,1516054702498,140
22,PLAYER_SLEEPBEFORE_END,1516054706402,140
22,WS_SEND_START,1516054706402,140
22,WS_SEND_END,1516054706402,140
22,PLAYER_SLEEPBEFORE_START,1516054706402,141
22,PLAYER_SLEEPBEFORE_END,1516054708694,141
22,WS_SEND_START,1516054708694,141
22,WS_SEND_END,1516054708694,141
22,WS_RECV_START,1516054708694,142
22,WS_RECV_END,1516054709638,142
22,PLAYER_SLEEPBEFORE_START,1516054709638,143
22,PLAYER_SLEEPBEFORE_END,1516054709646,143
22,WS_SEND_START,1516054709646,143
22,WS_SEND_END,1516054709646,143
22,WS_RECV_START,1516054709646,144
22,WS_RECV_END,1516054709700,144
22,PLAYER_SLEEPBEFORE_START,1516054709700,145
22,PLAYER_SLEEPBEFORE_END,1516054711443,145
22,WS_SEND_START,1516054711444,145
22,WS_SEND_END,1516054711444,145
22,WS_RECV_START,1516054711444,146
22,WS_RECV_END,1516054712527,146
22,PLAYER_SLEEPBEFORE_START,1516054712527,147
22,PLAYER_SLEEPBEFORE_END,1516054712537,147
22,WS_SEND_START,1516054712537,147
22,WS_SEND_END,1516054712537,147
22,WS_RECV_START,1516054712537,148
22,WS_RECV_END,1516054712745,148
22,PLAYER_SLEEPBEFORE_START,1516054712745,149
22,PLAYER_SLEEPBEFORE_END,1516054727858,149
22,WS_SEND_START,1516054727858,149
22,WS_SEND_END,1516054727858,149
22,PLAYER_SLEEPBEFORE_START,1516054727858,150
22,PLAYER_SLEEPBEFORE_END,1516054738534,150
22,WS_SEND_START,1516054738534,150
22,WS_SEND_END,1516054738534,150
22,PLAYER_SLEEPBEFORE_START,1516054738534,151
22,PLAYER_SLEEPBEFORE_END,1516054741525,151
22,WS_SEND_START,1516054741525,151
22,WS_SEND_END,1516054741525,151
22,WS_RECV_START,1516054741525,152
22,WS_RECV_END,1516054742824,152
22,PLAYER_SLEEPBEFORE_START,1516054742825,153
22,PLAYER_SLEEPBEFORE_END,1516054742832,153
22,WS_SEND_START,1516054742832,153
22,WS_SEND_END,1516054742832,153
22,WS_RECV_START,1516054742832,154
22,WS_RECV_END,1516054743569,154
22,PLAYER_SLEEPBEFORE_START,1516054743569,155
22,PLAYER_SLEEPBEFORE_END,1516054744177,155
22,WS_SEND_START,1516054744177,155
22,WS_SEND_END,1516054744177,155
22,WS_RECV_START,1516054744177,156
22,WS_RECV_END,1516054744498,156
22,PLAYER_SLEEPBEFORE_START,1516054744498,157
22,PLAYER_SLEEPBEFORE_END,1516054745841,157
22,WS_SEND_START,1516054745841,157
22,WS_SEND_END,1516054745841,157
22,WS_RECV_START,1516054745841,158
22,WS_RECV_END,1516054746076,158
22,PLAYER_SLEEPBEFORE_START,1516054746076,159
22,PLAYER_SLEEPBEFORE_END,1516054749976,159
22,WS_SEND_START,1516054749976,159
22,WS_SEND_END,1516054749976,159
22,WS_RECV_START,1516054749976,160
22,WS_RECV_END,1516054750210,160
22,PLAYER_SLEEPBEFORE_START,1516054750210,161
22,PLAYER_SLEEPBEFORE_END,1516054750993,161
22,WS_SEND_START,1516054750993,161
22,WS_SEND_END,1516054750993,161
22,WS_RECV_START,1516054750993,162
22,WS_RECV_END,1516054751597,162
22,PLAYER_SLEEPBEFORE_START,1516054751597,163
22,PLAYER_SLEEPBEFORE_END,1516054751606,163
22,WS_SEND_START,1516054751606,163
22,WS_SEND_END,1516054751606,163
22,WS_RECV_START,1516054751606,164
22,WS_RECV_END,1516054752318,164
22,PLAYER_SLEEPBEFORE_START,1516054752318,165
22,PLAYER_SLEEPBEFORE_END,1516054759691,165
22,WS_SEND_START,1516054759691,165
22,WS_SEND_END,1516054759691,165
22,WS_RECV_START,1516054759691,166
22,WS_RECV_END,1516054759854,166
22,PLAYER_SLEEPBEFORE_START,1516054759854,167
22,PLAYER_SLEEPBEFORE_END,1516054781103,167
22,WS_SEND_START,1516054781103,167
22,WS_SEND_END,1516054781103,167
22,PLAYER_SLEEPBEFORE_START,1516054781103,168
22,PLAYER_SLEEPBEFORE_END,1516054785838,168
22,WS_SEND_START,1516054785838,168
22,WS_SEND_END,1516054785838,168
22,PLAYER_SLEEPBEFORE_START,1516054785838,169
22,PLAYER_SLEEPBEFORE_END,1516054787389,169
22,WS_SEND_START,1516054787389,169
22,WS_SEND_END,1516054787389,169
22,WS_RECV_START,1516054787389,170
22,WS_RECV_END,1516054787446,170
22,PLAYER_SLEEPBEFORE_START,1516054787446,171
22,PLAYER_SLEEPBEFORE_END,1516054787453,171
22,WS_SEND_START,1516054787453,171
22,WS_SEND_END,1516054787453,171
22,WS_RECV_START,1516054787453,172
22,WS_RECV_END,1516054787540,172
22,PLAYER_SLEEPBEFORE_START,1516054787540,173
22,PLAYER_SLEEPBEFORE_END,1516054788308,173
22,WS_SEND_START,1516054788309,173
22,WS_SEND_END,1516054788309,173
22,WS_RECV_START,1516054788309,174
22,WS_RECV_END,1516054788508,174
22,PLAYER_SLEEPBEFORE_START,1516054788508,175
22,PLAYER_SLEEPBEFORE_END,1516054789268,175
22,WS_SEND_START,1516054789268,175
22,WS_SEND_END,1516054789268,175
22,WS_RECV_START,1516054789268,176
22,WS_RECV_END,1516054790238,176
22,PLAYER_SLEEPBEFORE_START,1516054790238,177
22,PLAYER_SLEEPBEFORE_END,1516054791038,177
22,WS_SEND_START,1516054791038,177
22,WS_SEND_END,1516054791038,177
22,WS_RECV_START,1516054791038,178
22,WS_RECV_END,1516054791089,178
22,PLAYER_SLEEPBEFORE_START,1516054791089,179
22,PLAYER_SLEEPBEFORE_END,1516054796344,179
22,WS_SEND_START,1516054796344,179
22,WS_SEND_END,1516054796344,179
22,PLAYER_SLEEPBEFORE_START,1516054796344,180
22,PLAYER_SLEEPBEFORE_END,1516054802962,180
22,WS_SEND_START,1516054802962,180
22,WS_SEND_END,1516054802962,180
22,PLAYER_SLEEPBEFORE_START,1516054802962,181
22,PLAYER_SLEEPBEFORE_END,1516054804698,181
22,WS_SEND_START,1516054804698,181
22,WS_SEND_END,1516054804698,181
22,WS_RECV_START,1516054804698,182
22,WS_RECV_END,1516054804750,182
22,PLAYER_SLEEPBEFORE_START,1516054804750,183
22,PLAYER_SLEEPBEFORE_END,1516054805487,183
22,WS_SEND_START,1516054805487,183
22,WS_SEND_END,1516054805487,183
22,WS_RECV_START,1516054805487,184
22,WS_RECV_END,1516054806183,184
22,PLAYER_SLEEPBEFORE_START,1516054806183,185
22,PLAYER_SLEEPBEFORE_END,1516054806197,185
22,WS_SEND_START,1516054806197,185
22,WS_SEND_END,1516054806197,185
22,WS_RECV_START,1516054806197,186
22,WS_RECV_END,1516054807989,186
22,PLAYER_SLEEPBEFORE_START,1516054807989,187
22,PLAYER_SLEEPBEFORE_END,1516054832996,187
22,WS_SEND_START,1516054832996,187
22,WS_SEND_END,1516054832996,187
22,WS_RECV_START,1516054832997,188
22,WS_RECV_END,1516054833118,188
22,PLAYER_SLEEPBEFORE_START,1516054833118,189
22,PLAYER_SLEEPBEFORE_END,1516054858341,189
22,WS_SEND_START,1516054858341,189
22,WS_SEND_END,1516054858341,189
22,WS_RECV_START,1516054858341,190
22,WS_RECV_END,1516054858396,190
22,PLAYER_SLEEPBEFORE_START,1516054858396,191
22,PLAYER_SLEEPBEFORE_END,1516054858401,191
22,WS_SEND_START,1516054858401,191
22,WS_SEND_END,1516054858401,191
22,WS_RECV_START,1516054858401,192
22,WS_RECV_END,1516054858441,192
22,PLAYER_SLEEPBEFORE_START,1516054858441,193
22,PLAYER_SLEEPBEFORE_END,1516054858878,193
22,WS_SEND_START,1516054858878,193
22,WS_SEND_END,1516054858878,193
22,WS_RECV_START,1516054858878,194
22,WS_RECV_END,1516054859571,194
22,PLAYER_SLEEPBEFORE_START,1516054859571,195
22,PLAYER_SLEEPBEFORE_END,1516054859584,195
22,WS_SEND_START,1516054859584,195
22,WS_SEND_END,1516054859584,195
22,WS_RECV_START,1516054859584,196
22,WS_RECV_END,1516054859816,196
22,PLAYER_SLEEPBEFORE_START,1516054859816,197
22,PLAYER_SLEEPBEFORE_END,1516054884586,197
22,WS_SEND_START,1516054884586,197
22,WS_SEND_END,1516054884586,197
22,WS_RECV_START,1516054884586,198
22,WS_RECV_END,1516054886130,198
22,PLAYER_SLEEPBEFORE_START,1516054886131,199
22,PLAYER_SLEEPBEFORE_END,1516054886138,199
22,WS_SEND_START,1516054886138,199
22,WS_SEND_END,1516054886138,199
22,WS_RECV_START,1516054886138,200
22,WS_RECV_END,1516054886700,200
22,PLAYER_SLEEPBEFORE_START,1516054886700,201
22,PLAYER_SLEEPBEFORE_END,1516054887997,201
22,WS_SEND_START,1516054887997,201
22,WS_SEND_END,1516054887997,201
22,WS_RECV_START,1516054887997,202
22,WS_RECV_END,1516054888709,202
22,PLAYER_SLEEPBEFORE_START,1516054888709,203
22,PLAYER_SLEEPBEFORE_END,1516054888721,203
22,WS_SEND_START,1516054888721,203
22,WS_SEND_END,1516054888721,203
22,WS_RECV_START,1516054888721,204
22,WS_RECV_END,1516054888827,204
22,PLAYER_SLEEPBEFORE_START,1516054888827,205
22,PLAYER_SLEEPBEFORE_END,1516054910458,205
22,WS_SEND_START,1516054910458,205
22,WS_SEND_END,1516054910458,205
22,WS_RECV_START,1516054910458,206
22,WS_RECV_END,1516054910585,206
22,PLAYER_SLEEPBEFORE_START,1516054910585,207
22,PLAYER_SLEEPBEFORE_END,1516054934708,207
22,WS_SEND_START,1516054934708,207
22,WS_SEND_END,1516054934708,207
22,WS_RECV_START,1516054934708,208
22,WS_RECV_END,1516054934811,208
22,PLAYER_SLEEPBEFORE_START,1516054934811,209
22,PLAYER_SLEEPBEFORE_END,1516054941225,209
22,WS_SEND_START,1516054941225,209
22,WS_SEND_END,1516054941225,209
22,WS_RECV_START,1516054941225,210
22,WS_RECV_END,1516054941328,210
22,PLAYER_SLEEPBEFORE_START,1516054941328,211
22,PLAYER_SLEEPBEFORE_END,1516054960160,211
22,WS_SEND_START,1516054960160,211
22,WS_SEND_END,1516054960160,211
22,WS_RECV_START,1516054960160,212
22,WS_RECV_END,1516054960268,212
22,PLAYER_SLEEPBEFORE_START,1516054960268,213
22,PLAYER_SLEEPBEFORE_END,1516054985321,213
22,WS_SEND_START,1516054985321,213
22,WS_SEND_END,1516054985321,213
22,WS_RECV_START,1516054985321,214
22,WS_RECV_END,1516054985443,214
22,PLAYER_SLEEPBEFORE_START,1516054985443,215
22,PLAYER_SLEEPBEFORE_END,1516054993554,215
22,REQ_START,1516054993554,215
22,REQ_END,1516054993563,215
22,PLAYER_SLEEPBEFORE_START,1516054993563,216
22,PLAYER_SLEEPBEFORE_END,1516055010124,216
22,WS_SEND_START,1516055010124,216
22,WS_SEND_END,1516055010124,216
22,WS_RECV_START,1516055010124,217
22,WS_RECV_END,1516055013733,217
22,PLAYER_SLEEPBEFORE_START,1516055013733,218
22,PLAYER_SLEEPBEFORE_END,1516055013740,218
22,WS_SEND_START,1516055013740,218
22,WS_SEND_END,1516055013740,218
22,WS_RECV_START,1516055013740,219
22,WS_RECV_END,1516055014180,219
22,PLAYER_SLEEPBEFORE_START,1516055014180,220
22,PLAYER_SLEEPBEFORE_END,1516055014948,220
22,WS_SEND_START,1516055014948,220
22,WS_SEND_END,1516055014948,220
22,WS_RECV_START,1516055014948,221
22,WS_RECV_END,1516055016801,221
22,PLAYER_SLEEPBEFORE_START,1516055016801,222
22,PLAYER_SLEEPBEFORE_END,1516055016858,222
22,WS_SEND_START,1516055016858,222
22,WS_SEND_END,1516055016858,222
22,WS_RECV_START,1516055016858,223
22,WS_RECV_END,1516055016963,223
22,PLAYER_SLEEPBEFORE_START,1516055016963,224
22,PLAYER_SLEEPBEFORE_END,1516055039619,224
22,WS_SEND_START,1516055039619,224
22,WS_SEND_END,1516055039619,224
22,WS_RECV_START,1516055039619,225
22,WS_RECV_END,1516055041225,225
22,PLAYER_SLEEPBEFORE_START,1516055041225,226
22,PLAYER_SLEEPBEFORE_END,1516055066960,226
22,WS_SEND_START,1516055066960,226
22,WS_SEND_END,1516055066960,226
22,WS_RECV_START,1516055066960,227
22,WS_RECV_END,1516055067064,227
22,PLAYER_SLEEPBEFORE_START,1516055067064,228
22,PLAYER_SLEEPBEFORE_END,1516055090057,228
22,WS_SEND_START,1516055090057,228
22,WS_SEND_END,1516055090057,228
22,WS_RECV_START,1516055090057,229
22,WS_RECV_END,1516055090171,229
22,PLAYER_SLEEPBEFORE_START,1516055090171,230
22,PLAYER_SLEEPBEFORE_END,1516055114387,230
22,WS_SEND_START,1516055114387,230
22,WS_SEND_END,1516055114387,230
22,WS_RECV_START,1516055114387,231
22,WS_RECV_END,1516055114508,231
22,PLAYER_SLEEPBEFORE_START,1516055114508,232
22,PLAYER_SLEEPBEFORE_END,1516055139264,232
22,WS_SEND_START,1516055139264,232
22,WS_SEND_END,1516055139264,232
22,WS_RECV_START,1516055139264,233
22,WS_RECV_END,1516055139372,233
22,PLAYER_SLEEPBEFORE_START,1516055139372,234
22,PLAYER_SLEEPBEFORE_END,1516055166405,234
22,WS_SEND_START,1516055166405,234
22,WS_SEND_END,1516055166405,234
22,WS_RECV_START,1516055166405,235
22,WS_RECV_END,1516055166517,235
22,PLAYER_SLEEPBEFORE_START,1516055166517,236
22,PLAYER_SLEEPBEFORE_END,1516055190357,236
22,WS_SEND_START,1516055190357,236
22,WS_SEND_END,1516055190357,236
22,WS_RECV_START,1516055190357,237
22,WS_RECV_END,1516055190471,237
22,PLAYER_SLEEPBEFORE_START,1516055190471,238
22,PLAYER_SLEEPBEFORE_END,1516055203281,238
22,WS_SEND_START,1516055203281,238
22,WS_SEND_END,1516055203281,238
22,WS_RECV_START,1516055203281,239
22,WS_RECV_END,1516055203382,239
22,PLAYER_SLEEPBEFORE_START,1516055203382,240
22,PLAYER_SLEEPBEFORE_END,1516055216037,240
22,WS_SEND_START,1516055216037,240
22,WS_SEND_END,1516055216037,240
22,WS_RECV_START,1516055216037,241
22,WS_RECV_END,1516055216816,241
22,PLAYER_SLEEPBEFORE_START,1516055216816,242
22,PLAYER_SLEEPBEFORE_END,1516055216839,242
22,WS_SEND_START,1516055216839,242
22,WS_SEND_END,1516055216839,242
22,WS_RECV_START,1516055216839,243
22,WS_RECV_END,1516055217340,243
22,PLAYER_SLEEPBEFORE_START,1516055217340,244
22,PLAYER_SLEEPBEFORE_END,1516055239578,244
22,WS_SEND_START,1516055239578,244
22,WS_SEND_END,1516055239578,244
22,WS_RECV_START,1516055239578,245
22,WS_RECV_END,1516055242266,245
22,PLAYER_SLEEPBEFORE_START,1516055242266,246
22,PLAYER_SLEEPBEFORE_END,1516055242275,246
22,WS_SEND_START,1516055242275,246
22,WS_SEND_END,1516055242275,246
22,WS_RECV_START,1516055242275,247
22,WS_RECV_END,1516055242468,247
22,PLAYER_SLEEPBEFORE_START,1516055242468,248
22,PLAYER_SLEEPBEFORE_END,1516055244505,248
22,WS_SEND_START,1516055244505,248
22,WS_SEND_END,1516055244505,248
22,WS_RECV_START,1516055244505,249
22,WS_RECV_END,1516055248221,249
22,PLAYER_SLEEPBEFORE_START,1516055248221,250
22,PLAYER_SLEEPBEFORE_END,1516055248258,250
22,WS_SEND_START,1516055248258,250
22,WS_SEND_END,1516055248258,250
22,WS_RECV_START,1516055248258,251
22,WS_RECV_END,1516055251646,251
22,PLAYER_SLEEPBEFORE_START,1516055251646,252
22,PLAYER_SLEEPBEFORE_END,1516055274288,252
22,WS_SEND_START,1516055274288,252
22,WS_SEND_END,1516055274288,252
22,WS_RECV_START,1516055274288,253
22,WS_RECV_END,1516055276087,253
22,PLAYER_SLEEPBEFORE_START,1516055276087,254
22,PLAYER_SLEEPBEFORE_END,1516055276103,254
22,WS_SEND_START,1516055276103,254
22,WS_SEND_END,1516055276103,254
22,WS_RECV_START,1516055276103,255
22,WS_RECV_END,1516055277385,255
22,PLAYER_SLEEPBEFORE_START,1516055277385,256
22,PLAYER_SLEEPBEFORE_END,1516055302007,256
22,WS_SEND_START,1516055302007,256
22,WS_SEND_END,1516055302007,256
22,WS_RECV_START,1516055302007,257
22,WS_RECV_END,1516055304678,257
22,PLAYER_SLEEPBEFORE_START,1516055304678,258
22,PLAYER_SLEEPBEFORE_END,1516055304686,258
22,WS_SEND_START,1516055304686,258
22,WS_SEND_END,1516055304686,258
22,WS_RECV_START,1516055304686,259
22,WS_RECV_END,1516055304996,259
22,PLAYER_SLEEPBEFORE_START,1516055304996,260
22,PLAYER_SLEEPBEFORE_END,1516055305520,260
22,WS_SEND_START,1516055305520,260
22,WS_SEND_END,1516055305520,260
22,WS_RECV_START,1516055305520,261
22,WS_RECV_END,1516055309005,261
22,PLAYER_SLEEPBEFORE_START,1516055309005,262
22,PLAYER_SLEEPBEFORE_END,1516055309277,262
22,WS_SEND_START,1516055309277,262
22,WS_SEND_END,1516055309277,262
22,WS_RECV_START,1516055309277,263
22,WS_RECV_END,1516055311171,263
22,PLAYER_SLEEPBEFORE_START,1516055311171,264
22,PLAYER_SLEEPBEFORE_END,1516055313584,264
22,WS_SEND_START,1516055313584,264
22,WS_SEND_END,1516055313584,264
22,WS_RECV_START,1516055313585,265
22,WS_RECV_END,1516055315474,265
22,PLAYER_SLEEPBEFORE_START,1516055315474,266
22,PLAYER_SLEEPBEFORE_END,1516055315486,266
22,WS_SEND_START,1516055315486,266
22,WS_SEND_END,1516055315486,266
22,WS_RECV_START,1516055315486,267
22,WS_RECV_END,1516055318126,267
22,PLAYER_SLEEPBEFORE_START,1516055318126,268
22,PLAYER_SLEEPBEFORE_END,1516055319596,268
22,REQ_START,1516055319596,268
22,REQ_END,1516055319604,268
22,PLAYER_SLEEPBEFORE_START,1516055319604,269
22,PLAYER_SLEEPBEFORE_END,1516055336998,269
22,WS_SEND_START,1516055336998,269
22,WS_SEND_END,1516055336998,269
22,WS_RECV_START,1516055336998,270
22,WS_RECV_END,1516055338310,270
22,PLAYER_SLEEPBEFORE_START,1516055338311,271
22,PLAYER_SLEEPBEFORE_END,1516055338318,271
22,WS_SEND_START,1516055338318,271
22,WS_SEND_END,1516055338318,271
22,WS_RECV_START,1516055338318,272
22,WS_RECV_END,1516055338612,272
22,PLAYER_SLEEPBEFORE_START,1516055338612,273
22,PLAYER_SLEEPBEFORE_END,1516055339909,273
22,WS_SEND_START,1516055339909,273
22,WS_SEND_END,1516055339909,273
22,WS_RECV_START,1516055339909,274
22,WS_RECV_END,1516055341273,274
22,PLAYER_SLEEPBEFORE_START,1516055341273,275
22,PLAYER_SLEEPBEFORE_END,1516055342447,275
22,WS_SEND_START,1516055342447,275
22,WS_SEND_END,1516055342447,275
22,WS_RECV_START,1516055342447,276
22,WS_RECV_END,1516055343368,276
22,PLAYER_SLEEPBEFORE_START,1516055343368,277
22,PLAYER_SLEEPBEFORE_END,1516055343390,277
22,WS_SEND_START,1516055343390,277
22,WS_SEND_END,1516055343390,277
22,WS_RECV_START,1516055343390,278
22,WS_RECV_END,1516055346970,278
22,PLAYER_SLEEPBEFORE_START,1516055346970,279
22,PLAYER_SLEEPBEFORE_END,1516055371493,279
22,WS_SEND_START,1516055371493,279
22,WS_SEND_END,1516055371493,279
22,WS_RECV_START,1516055371493,280
22,WS_RECV_END,1516055372406,280
22,PLAYER_SLEEPBEFORE_START,1516055372406,281
22,PLAYER_SLEEPBEFORE_END,1516055394694,281
22,WS_SEND_START,1516055394694,281
22,WS_SEND_END,1516055394694,281
22,WS_RECV_START,1516055394694,282
22,WS_RECV_END,1516055397207,282
22,PLAYER_SLEEPBEFORE_START,1516055397207,283
22,PLAYER_SLEEPBEFORE_END,1516055397226,283
22,WS_SEND_START,1516055397226,283
22,WS_SEND_END,1516055397226,283
22,WS_RECV_START,1516055397226,284
22,WS_RECV_END,1516055397654,284
22,PLAYER_SLEEPBEFORE_START,1516055397654,285
22,PLAYER_SLEEPBEFORE_END,1516055421785,285
22,WS_SEND_START,1516055421785,285
22,WS_SEND_END,1516055421785,285
22,WS_RECV_START,1516055421785,286
22,WS_RECV_END,1516055423136,286
22,PLAYER_SLEEPBEFORE_START,1516055423136,287
22,PLAYER_SLEEPBEFORE_END,1516055446291,287
22,WS_SEND_START,1516055446291,287
22,WS_SEND_END,1516055446291,287
22,WS_RECV_START,1516055446291,288
22,WS_RECV_END,1516055448623,288
22,PLAYER_SLEEPBEFORE_START,1516055448623,289
22,PLAYER_SLEEPBEFORE_END,1516055448646,289
22,WS_SEND_START,1516055448646,289
22,WS_SEND_END,1516055448646,289
22,WS_RECV_START,1516055448646,290
22,WS_RECV_END,1516055448948,290
22,PLAYER_SLEEPBEFORE_START,1516055448948,291
22,PLAYER_SLEEPBEFORE_END,1516055459562,291
22,WS_SEND_START,1516055459562,291
22,WS_SEND_END,1516055459562,291
22,WS_RECV_START,1516055459562,292
22,WS_RECV_END,1516055459686,292
22,PLAYER_SLEEPBEFORE_START,1516055459686,293
22,PLAYER_SLEEPBEFORE_END,1516055475442,293
22,WS_SEND_START,1516055475442,293
22,WS_SEND_END,1516055475442,293
22,WS_RECV_START,1516055475442,294
22,WS_RECV_END,1516055477101,294
22,PLAYER_SLEEPBEFORE_START,1516055477101,295
22,PLAYER_SLEEPBEFORE_END,1516055477126,295
22,WS_SEND_START,1516055477126,295
22,WS_SEND_END,1516055477126,295
22,WS_RECV_START,1516055477126,296
22,WS_RECV_END,1516055478125,296
22,PLAYER_SLEEPBEFORE_START,1516055478125,297
22,PLAYER_SLEEPBEFORE_END,1516055499622,297
22,WS_SEND_START,1516055499622,297
22,WS_SEND_END,1516055499622,297
22,WS_RECV_START,1516055499622,298
22,WS_RECV_END,1516055501048,298
22,PLAYER_SLEEPBEFORE_START,1516055501048,299
22,PLAYER_SLEEPBEFORE_END,1516055501058,299
22,WS_SEND_START,1516055501058,299
22,WS_SEND_END,1516055501058,299
22,WS_RECV_START,1516055501058,300
22,WS_RECV_END,1516055501253,300
22,PLAYER_SLEEPBEFORE_START,1516055501253,301
22,PLAYER_SLEEPBEFORE_END,1516055503613,301
22,WS_SEND_START,1516055503613,301
22,WS_SEND_END,1516055503613,301
22,WS_RECV_START,1516055503613,302
22,WS_RECV_END,1516055506522,302
22,PLAYER_SLEEPBEFORE_START,1516055506522,303
22,PLAYER_SLEEPBEFORE_END,1516055506546,303
22,WS_SEND_START,1516055506546,303
22,WS_SEND_END,1516055506546,303
22,WS_RECV_START,1516055506546,304
22,WS_RECV_END,1516055509133,304
22,PLAYER_SLEEPBEFORE_START,1516055509133,305
22,PLAYER_SLEEPBEFORE_END,1516055534123,305
22,WS_SEND_START,1516055534123,305
22,WS_SEND_END,1516055534123,305
22,WS_RECV_START,1516055534123,306
22,WS_RECV_END,1516055535477,306
22,PLAYER_SLEEPBEFORE_START,1516055535477,307
22,PLAYER_SLEEPBEFORE_END,1516055559352,307
22,WS_SEND_START,1516055559352,307
22,WS_SEND_END,1516055559352,307
22,WS_RECV_START,1516055559352,308
22,WS_RECV_END,1516055559464,308
22,PLAYER_SLEEPBEFORE_START,1516055559464,309
22,PLAYER_SLEEPBEFORE_END,1516055581155,309
22,WS_SEND_START,1516055581155,309
22,WS_SEND_END,1516055581155,309
22,WS_RECV_START,1516055581155,310
22,WS_RECV_END,1516055581258,310
22,PLAYER_SLEEPBEFORE_START,1516055581258,311
22,PLAYER_SLEEPBEFORE_END,1516055610085,311
22,WS_SEND_START,1516055610085,311
22,WS_SEND_END,1516055610085,311
22,WS_RECV_START,1516055610085,312
22,WS_RECV_END,1516055610915,312
22,PLAYER_SLEEPBEFORE_START,1516055610915,313
22,PLAYER_SLEEPBEFORE_END,1516055610935,313
22,WS_SEND_START,1516055610935,313
22,WS_SEND_END,1516055610935,313
22,WS_RECV_START,1516055610935,314
22,WS_RECV_END,1516055611120,314
22,PLAYER_SLEEPBEFORE_START,1516055611120,315
22,PLAYER_SLEEPBEFORE_END,1516055632706,315
22,WS_SEND_START,1516055632706,315
22,WS_SEND_END,1516055632706,315
22,WS_RECV_START,1516055632706,316
22,WS_RECV_END,1516055633668,316
22,PLAYER_SLEEPBEFORE_START,1516055633668,317
22,PLAYER_SLEEPBEFORE_END,1516055633676,317
22,WS_SEND_START,1516055633676,317
22,WS_SEND_END,1516055633676,317
22,WS_RECV_START,1516055633676,318
22,WS_RECV_END,1516055633821,318
22,PLAYER_SLEEPBEFORE_START,1516055633821,319
22,PLAYER_SLEEPBEFORE_END,1516055634153,319
22,WS_SEND_START,1516055634153,319
22,WS_SEND_END,1516055634153,319
22,WS_RECV_START,1516055634153,320
22,WS_RECV_END,1516055635055,320
22,PLAYER_SLEEPBEFORE_START,1516055635055,321
22,PLAYER_SLEEPBEFORE_END,1516055635074,321
22,WS_SEND_START,1516055635074,321
22,WS_SEND_END,1516055635074,321
22,WS_RECV_START,1516055635074,322
22,WS_RECV_END,1516055635214,322
22,PLAYER_SLEEPBEFORE_START,1516055635214,323
22,PLAYER_SLEEPBEFORE_END,1516055639607,323
22,REQ_START,1516055639607,323
22,REQ_END,1516055639616,323
22,PLAYER_SLEEPBEFORE_START,1516055639616,324
22,PLAYER_SLEEPBEFORE_END,1516055659502,324
22,WS_SEND_START,1516055659502,324
22,WS_SEND_END,1516055659502,324
22,WS_RECV_START,1516055659502,325
22,WS_RECV_END,1516055662194,325
22,PLAYER_SLEEPBEFORE_START,1516055662194,326
22,PLAYER_SLEEPBEFORE_END,1516055662203,326
22,WS_SEND_START,1516055662203,326
22,WS_SEND_END,1516055662203,326
22,WS_RECV_START,1516055662203,327
22,WS_RECV_END,1516055663737,327
22,PLAYER_SLEEPBEFORE_START,1516055663737,328
22,PLAYER_SLEEPBEFORE_END,1516055664098,328
22,WS_SEND_START,1516055664098,328
22,WS_SEND_END,1516055664098,328
22,WS_RECV_START,1516055664098,329
22,WS_RECV_END,1516055665418,329
22,PLAYER_SLEEPBEFORE_START,1516055665418,330
22,PLAYER_SLEEPBEFORE_END,1516055665764,330
22,WS_SEND_START,1516055665764,330
22,WS_SEND_END,1516055665764,330
22,WS_RECV_START,1516055665764,331
22,WS_RECV_END,1516055666615,331
22,PLAYER_SLEEPBEFORE_START,1516055666615,332
22,PLAYER_SLEEPBEFORE_END,1516055667462,332
22,WS_SEND_START,1516055667463,332
22,WS_SEND_END,1516055667463,332
22,WS_RECV_START,1516055667463,333
22,WS_RECV_END,1516055669243,333
22,PLAYER_SLEEPBEFORE_START,1516055669243,334
22,PLAYER_SLEEPBEFORE_END,1516055669640,334
22,WS_SEND_START,1516055669640,334
22,WS_SEND_END,1516055669640,334
22,WS_RECV_START,1516055669640,335
22,WS_RECV_END,1516055670500,335
22,PLAYER_SLEEPBEFORE_START,1516055670500,336
22,PLAYER_SLEEPBEFORE_END,1516055670824,336
22,WS_SEND_START,1516055670824,336
22,WS_SEND_END,1516055670824,336
22,WS_RECV_START,1516055670824,337
22,WS_RECV_END,1516055672362,337
22,PLAYER_SLEEPBEFORE_START,1516055672362,338
22,PLAYER_SLEEPBEFORE_END,1516055672377,338
22,WS_SEND_START,1516055672377,338
22,WS_SEND_END,1516055672377,338
22,WS_RECV_START,1516055672377,339
22,WS_RECV_END,1516055674167,339
22,PLAYER_SLEEPBEFORE_START,1516055674167,340
22,PLAYER_SLEEPBEFORE_END,1516055692140,340
22,WS_SEND_START,1516055692140,340
22,WS_SEND_END,1516055692140,340
22,WS_RECV_START,1516055692140,341
22,WS_RECV_END,1516055695124,341
22,PLAYER_SLEEPBEFORE_START,1516055695124,342
22,PLAYER_SLEEPBEFORE_END,1516055695133,342
22,WS_SEND_START,1516055695133,342
22,WS_SEND_END,1516055695133,342
22,WS_RECV_START,1516055695133,343
22,WS_RECV_END,1516055695897,343
22,PLAYER_SLEEPBEFORE_START,1516055695897,344
22,PLAYER_SLEEPBEFORE_END,1516055698209,344
22,WS_SEND_START,1516055698209,344
22,WS_SEND_END,1516055698209,344
22,WS_RECV_START,1516055698209,345
22,WS_RECV_END,1516055699845,345
22,PLAYER_SLEEPBEFORE_START,1516055699845,346
22,PLAYER_SLEEPBEFORE_END,1516055699856,346
22,WS_SEND_START,1516055699856,346
22,WS_SEND_END,1516055699856,346
22,WS_RECV_START,1516055699856,347
22,WS_RECV_END,1516055700741,347
22,PLAYER_SLEEPBEFORE_START,1516055700741,348
22,PLAYER_SLEEPBEFORE_END,1516055721348,348
22,WS_SEND_START,1516055721348,348
22,WS_SEND_END,1516055721348,348
22,WS_RECV_START,1516055721348,349
22,WS_RECV_END,1516055724257,349
22,PLAYER_SLEEPBEFORE_START,1516055724257,350
22,PLAYER_SLEEPBEFORE_END,1516055724265,350
22,WS_SEND_START,1516055724265,350
22,WS_SEND_END,1516055724265,350
22,WS_RECV_START,1516055724265,351
22,WS_RECV_END,1516055726685,351
22,PLAYER_SLEEPBEFORE_START,1516055726685,352
22,PLAYER_SLEEPBEFORE_END,1516055727871,352
22,WS_SEND_START,1516055727871,352
22,WS_SEND_END,1516055727871,352
22,WS_RECV_START,1516055727871,353
22,WS_RECV_END,1516055730676,353
22,PLAYER_SLEEPBEFORE_START,1516055730676,354
22,PLAYER_SLEEPBEFORE_END,1516055730692,354
22,WS_SEND_START,1516055730692,354
22,WS_SEND_END,1516055730692,354
22,WS_RECV_START,1516055730692,355
22,WS_RECV_END,1516055732593,355
22,PLAYER_SLEEPBEFORE_START,1516055732593,356
22,PLAYER_SLEEPBEFORE_END,1516055732639,356
22,WS_SEND_START,1516055732639,356
22,WS_SEND_END,1516055732639,356
22,WS_RECV_START,1516055732639,357
22,WS_RECV_END,1516055736090,357
22,PLAYER_SLEEPBEFORE_START,1516055736090,358
22,PLAYER_SLEEPBEFORE_END,1516055736105,358
22,WS_SEND_START,1516055736105,358
22,WS_SEND_END,1516055736105,358
22,WS_RECV_START,1516055736105,359
22,WS_RECV_END,1516055737584,359
22,PLAYER_SLEEPBEFORE_START,1516055737584,360
22,PLAYER_SLEEPBEFORE_END,1516055758050,360
22,WS_SEND_START,1516055758050,360
22,WS_SEND_END,1516055758050,360
22,WS_RECV_START,1516055758050,361
22,WS_RECV_END,1516055761511,361
22,PLAYER_SLEEPBEFORE_START,1516055761511,362
22,PLAYER_SLEEPBEFORE_END,1516055761520,362
22,WS_SEND_START,1516055761520,362
22,WS_SEND_END,1516055761520,362
22,WS_RECV_START,1516055761520,363
22,WS_RECV_END,1516055761889,363
22,PLAYER_SLEEPBEFORE_START,1516055761889,364
22,PLAYER_SLEEPBEFORE_END,1516055763980,364
22,WS_SEND_START,1516055763980,364
22,WS_SEND_END,1516055763980,364
22,WS_RECV_START,1516055763980,365
22,WS_RECV_END,1516055767591,365
22,PLAYER_SLEEPBEFORE_START,1516055767591,366
22,PLAYER_SLEEPBEFORE_END,1516055767601,366
22,WS_SEND_START,1516055767601,366
22,WS_SEND_END,1516055767601,366
22,WS_RECV_START,1516055767601,367
22,WS_RECV_END,1516055772751,367
22,PLAYER_SLEEPBEFORE_START,1516055772751,368
22,PLAYER_SLEEPBEFORE_END,1516055796211,368
22,WS_SEND_START,1516055796211,368
22,WS_SEND_END,1516055796211,368
22,WS_RECV_START,1516055796211,369
22,WS_RECV_END,1516055796862,369
22,PLAYER_SLEEPBEFORE_START,1516055796862,370
22,PLAYER_SLEEPBEFORE_END,1516055796870,370
22,WS_SEND_START,1516055796870,370
22,WS_SEND_END,1516055796870,370
22,WS_RECV_START,1516055796870,371
22,WS_RECV_END,1516055796913,371
22,PLAYER_SLEEPBEFORE_START,1516055796913,372
22,PLAYER_SLEEPBEFORE_END,1516055797285,372
22,WS_SEND_START,1516055797285,372
22,WS_SEND_END,1516055797285,372
22,WS_RECV_START,1516055797285,373
22,WS_RECV_END,1516055797337,373
22,PLAYER_SLEEPBEFORE_START,1516055797337,374
22,PLAYER_SLEEPBEFORE_END,1516055798039,374
22,WS_SEND_START,1516055798039,374
22,WS_SEND_END,1516055798039,374
22,WS_RECV_START,1516055798039,375
22,WS_RECV_END,1516055801697,375
22,PLAYER_SLEEPBEFORE_START,1516055801697,376
22,PLAYER_SLEEPBEFORE_END,1516055802049,376
22,WS_SEND_START,1516055802049,376
22,WS_SEND_END,1516055802049,376
22,WS_RECV_START,1516055802049,377
22,WS_RECV_END,1516055808487,377
22,PLAYER_SLEEPBEFORE_START,1516055808487,378
22,PLAYER_SLEEPBEFORE_END,1516055808506,378
22,WS_SEND_START,1516055808506,378
22,WS_SEND_END,1516055808506,378
22,WS_RECV_START,1516055808506,379
22,WS_RECV_END,1516055809919,379
22,PLAYER_SLEEPBEFORE_START,1516055809919,380
22,PLAYER_SLEEPBEFORE_END,1516055830411,380
22,WS_SEND_START,1516055830411,380
22,WS_SEND_END,1516055830411,380
22,PLAYER_SLEEPBEFORE_START,1516055830411,381
22,PLAYER_SLEEPBEFORE_END,1516055834625,381
22,WS_SEND_START,1516055834625,381
22,WS_SEND_END,1516055834625,381
22,WS_RECV_START,1516055834625,382
22,WS_RECV_END,1516055839727,382
22,PLAYER_SLEEPBEFORE_START,1516055839727,383
22,PLAYER_SLEEPBEFORE_END,1516055859927,383
22,WS_SEND_START,1516055859928,383
22,WS_SEND_END,1516055859928,383
22,PLAYER_SLEEPBEFORE_START,1516055859928,384
22,PLAYER_SLEEPBEFORE_END,1516055863114,384
22,WS_SEND_START,1516055863114,384
22,WS_SEND_END,1516055863114,384
22,WS_RECV_START,1516055863114,385
22,WS_RECV_END,1516055864810,385
22,PLAYER_SLEEPBEFORE_START,1516055864810,386
22,PLAYER_SLEEPBEFORE_END,1516055864826,386
22,WS_SEND_START,1516055864826,386
22,WS_SEND_END,1516055864826,386
22,WS_RECV_START,1516055864826,387
22,WS_RECV_END,1516055866392,387
22,PLAYER_SLEEPBEFORE_START,1516055866392,388
22,PLAYER_SLEEPBEFORE_END,1516055886923,388
22,WS_SEND_START,1516055886923,388
22,WS_SEND_END,1516055886923,388
22,PLAYER_SLEEPBEFORE_START,1516055886923,389
22,PLAYER_SLEEPBEFORE_END,1516055889142,389
22,WS_SEND_START,1516055889142,389
22,WS_SEND_END,1516055889142,389
22,WS_RECV_START,1516055889142,390
22,WS_RECV_END,1516055889318,390
22,PLAYER_SLEEPBEFORE_START,1516055889318,391
22,PLAYER_SLEEPBEFORE_END,1516055912154,391
22,WS_SEND_START,1516055912154,391
22,WS_SEND_END,1516055912154,391
22,WS_RECV_START,1516055912154,392
22,WS_RECV_END,1516055912641,392
22,PLAYER_SLEEPBEFORE_START,1516055912641,393
22,PLAYER_SLEEPBEFORE_END,1516055937330,393
22,WS_SEND_START,1516055937330,393
22,WS_SEND_END,1516055937330,393
22,PLAYER_SLEEPBEFORE_START,1516055937330,394
22,PLAYER_SLEEPBEFORE_END,1516055939302,394
22,WS_SEND_START,1516055939302,394
22,WS_SEND_END,1516055939302,394
22,WS_RECV_START,1516055939303,395
22,WS_RECV_END,1516055939519,395
22,PLAYER_SLEEPBEFORE_START,1516055939519,396
22,PLAYER_SLEEPBEFORE_END,1516055939526,396
22,WS_SEND_START,1516055939526,396
22,WS_SEND_END,1516055939526,396
22,WS_RECV_START,1516055939526,397
22,WS_RECV_END,1516055939569,397
22,PLAYER_SLEEPBEFORE_START,1516055939569,398
22,PLAYER_SLEEPBEFORE_END,1516055939749,398
22,WS_SEND_START,1516055939749,398
22,WS_SEND_END,1516055939749,398
22,WS_RECV_START,1516055939749,399
22,WS_RECV_END,1516055940524,399
22,PLAYER_SLEEPBEFORE_START,1516055940524,400
22,PLAYER_SLEEPBEFORE_END,1516055941599,400
22,WS_SEND_START,1516055941599,400
22,WS_SEND_END,1516055941599,400
22,WS_RECV_START,1516055941599,401
22,WS_RECV_END,1516055941653,401
22,PLAYER_SLEEPBEFORE_START,1516055941653,402
22,PLAYER_SLEEPBEFORE_END,1516055943012,402
22,WS_SEND_START,1516055943012,402
22,WS_SEND_END,1516055943012,402
22,WS_RECV_START,1516055943012,403
22,WS_RECV_END,1516055943067,403
22,PLAYER_SLEEPBEFORE_START,1516055943067,404
22,PLAYER_SLEEPBEFORE_END,1516055943537,404
22,WS_SEND_START,1516055943537,404
22,WS_SEND_END,1516055943537,404
22,WS_RECV_START,1516055943537,405
22,WS_RECV_END,1516055943589,405
22,PLAYER_SLEEPBEFORE_START,1516055943589,406
22,PLAYER_SLEEPBEFORE_END,1516055946316,406
22,WS_SEND_START,1516055946316,406
22,WS_SEND_END,1516055946316,406
22,WS_RECV_START,1516055946316,407
22,WS_RECV_END,1516055946761,407
22,PLAYER_SLEEPBEFORE_START,1516055946761,408
22,PLAYER_SLEEPBEFORE_END,1516055947090,408
22,WS_SEND_START,1516055947090,408
22,WS_SEND_END,1516055947090,408
22,WS_RECV_START,1516055947090,409
22,WS_RECV_END,1516055947170,409
22,PLAYER_SLEEPBEFORE_START,1516055947170,410
22,PLAYER_SLEEPBEFORE_END,1516055948196,410
22,WS_SEND_START,1516055948196,410
22,WS_SEND_END,1516055948196,410
22,WS_RECV_START,1516055948196,411
22,WS_RECV_END,1516055948248,411
22,PLAYER_SLEEPBEFORE_START,1516055948248,412
22,PLAYER_SLEEPBEFORE_END,1516055948904,412
22,WS_SEND_START,1516055948904,412
22,WS_SEND_END,1516055948904,412
22,WS_RECV_START,1516055948904,413
22,WS_RECV_END,1516055949612,413
22,PLAYER_SLEEPBEFORE_START,1516055949612,414
22,PLAYER_SLEEPBEFORE_END,1516055949628,414
22,WS_SEND_START,1516055949628,414
22,WS_SEND_END,1516055949628,414
22,WS_RECV_START,1516055949628,415
22,WS_RECV_END,1516055949912,415
22,PLAYER_SLEEPBEFORE_START,1516055949912,416
22,PLAYER_SLEEPBEFORE_END,1516055964179,416
22,WS_SEND_START,1516055964179,416
22,WS_SEND_END,1516055964179,416
22,PLAYER_SLEEPBEFORE_START,1516055964179,417
22,PLAYER_SLEEPBEFORE_END,1516055992858,417
22,WS_SEND_START,1516055992858,417
22,WS_SEND_END,1516055992858,417
22,WS_RECV_START,1516055992858,418
22,WS_RECV_END,1516055993030,418
22,PLAYER_SLEEPBEFORE_START,1516055993030,419
22,PLAYER_SLEEPBEFORE_END,1516055997852,419
22,REQ_START,1516055997852,419
22,REQ_END,1516055997860,419
22,PLAYER_SLEEPBEFORE_START,1516055997860,420
22,PLAYER_SLEEPBEFORE_END,1516056016605,420
22,WS_CLOSE_START,1516056016605,420
22,WS_CLOSE_END,1516056016605,420
22,PLAYER_DONE,1516056016605
