# --sessions 1080 --app-url=http://shinyloadtest.rstudioservices.com/cran_explorer --output-dir test1080 --overwrite-output --log-level warn --start-interval 250 15min.log
thread_id,event,timestamp,input_line_number,comment
1065,PLAYER_SESSION_CREATE,1516239120827
1065,PLAYER_START_INTERVAL_START,1516239120827
1065,PLAYER_START_INTERVAL_END,1516239387077
1065,REQ_HOME_START,1516239387077,2
1065,REQ_HOME_END,1516239387210,2
1065,REQ_START,1516239387210,3
1065,REQ_END,1516239387249,3
1065,REQ_START,1516239387249,4
1065,REQ_END,1516239387287,4
1065,REQ_START,1516239387287,5
1065,REQ_END,1516239387328,5
1065,REQ_START,1516239387328,6
1065,REQ_END,1516239387369,6
1065,REQ_START,1516239387369,7
1065,REQ_END,1516239387412,7
1065,REQ_START,1516239387412,8
1065,REQ_END,1516239387456,8
1065,REQ_START,1516239387457,9
1065,REQ_END,1516239387500,9
1065,REQ_START,1516239387500,10
1065,REQ_END,1516239387507,10
1065,REQ_START,1516239387507,11
1065,REQ_END,1516239387545,11
1065,REQ_START,1516239387545,12
1065,REQ_END,1516239387555,12
1065,REQ_START,1516239387555,13
1065,REQ_END,1516239387941,13
1065,REQ_START,1516239387941,14
1065,REQ_END,1516239387957,14
1065,REQ_START,1516239387957,15
1065,REQ_END,1516239387998,15
1065,REQ_TOK_START,1516239387998,16
1065,REQ_TOK_END,1516239388026,16
1065,REQ_SINF_START,1516239388026,17
1065,REQ_SINF_END,1516239388035,17
1065,WS_OPEN_START,1516239388035,18
1065,WS_OPEN_END,1516239388041,18
1065,REQ_START,1516239388041,19
1065,REQ_END,1516239388227,19
1065,WS_RECV_START,1516239388227,20
1065,WS_RECV_END,1516239388227,20
1065,PLAYER_SLEEPBEFORE_START,1516239388227,21
1065,PLAYER_SLEEPBEFORE_END,1516239388232,21
1065,WS_SEND_START,1516239388232,21
1065,WS_SEND_END,1516239388232,21
1065,PLAYER_SLEEPBEFORE_START,1516239388232,22
1065,PLAYER_SLEEPBEFORE_END,1516239388233,22
1065,WS_SEND_START,1516239388233,22
1065,WS_SEND_END,1516239388233,22
1065,WS_RECV_INIT_START,1516239388233,23
1065,WS_RECV_INIT_END,1516239388586,23
1065,WS_RECV_START,1516239388586,24
1065,WS_RECV_END,1516239388651,24
1065,PLAYER_SLEEPBEFORE_START,1516239388651,25
1065,PLAYER_SLEEPBEFORE_END,1516239388658,25
1065,REQ_START,1516239388658,25
1065,REQ_END,1516239388695,25
1065,PLAYER_SLEEPBEFORE_START,1516239388695,26
1065,PLAYER_SLEEPBEFORE_END,1516239388696,26
1065,REQ_START,1516239388696,26
1065,REQ_END,1516239388733,26
1065,PLAYER_SLEEPBEFORE_START,1516239388733,27
1065,PLAYER_SLEEPBEFORE_END,1516239388736,27
1065,REQ_START,1516239388736,27
1065,REQ_END,1516239388773,27
1065,PLAYER_SLEEPBEFORE_START,1516239388773,28
1065,PLAYER_SLEEPBEFORE_END,1516239389058,28
1065,REQ_START,1516239389058,28
1065,REQ_END,1516239389094,28
1065,PLAYER_SLEEPBEFORE_START,1516239389094,29
1065,PLAYER_SLEEPBEFORE_END,1516239389270,29
1065,WS_SEND_START,1516239389270,29
1065,WS_SEND_END,1516239389270,29
1065,WS_RECV_START,1516239389270,30
1065,WS_RECV_END,1516239389412,30
1065,PLAYER_SLEEPBEFORE_START,1516239389413,31
1065,PLAYER_SLEEPBEFORE_END,1516239389424,31
1065,REQ_START,1516239389424,31
1065,REQ_END,1516239389618,31
1065,PLAYER_SLEEPBEFORE_START,1516239389618,32
1065,PLAYER_SLEEPBEFORE_END,1516239417763,32
1065,WS_SEND_START,1516239417763,32
1065,WS_SEND_END,1516239417763,32
1065,WS_RECV_START,1516239417763,33
1065,WS_RECV_END,1516239417868,33
1065,PLAYER_SLEEPBEFORE_START,1516239417868,34
1065,PLAYER_SLEEPBEFORE_END,1516239443780,34
1065,WS_SEND_START,1516239443780,34
1065,WS_SEND_END,1516239443780,34
1065,WS_RECV_START,1516239443780,35
1065,WS_RECV_END,1516239443987,35
1065,PLAYER_SLEEPBEFORE_START,1516239443987,36
1065,PLAYER_SLEEPBEFORE_END,1516239443996,36
1065,WS_SEND_START,1516239443996,36
1065,WS_SEND_END,1516239443996,36
1065,WS_RECV_START,1516239443996,37
1065,WS_RECV_END,1516239444163,37
1065,PLAYER_SLEEPBEFORE_START,1516239444163,38
1065,PLAYER_SLEEPBEFORE_END,1516239447358,38
1065,WS_SEND_START,1516239447358,38
1065,WS_SEND_END,1516239447358,38
1065,WS_RECV_START,1516239447358,39
1065,WS_RECV_END,1516239447553,39
1065,PLAYER_SLEEPBEFORE_START,1516239447553,40
1065,PLAYER_SLEEPBEFORE_END,1516239447599,40
1065,WS_SEND_START,1516239447599,40
1065,WS_SEND_END,1516239447599,40
1065,WS_RECV_START,1516239447599,41
1065,WS_RECV_END,1516239447911,41
1065,PLAYER_SLEEPBEFORE_START,1516239447911,42
1065,PLAYER_SLEEPBEFORE_END,1516239466046,42
1065,WS_SEND_START,1516239466046,42
1065,WS_SEND_END,1516239466046,42
1065,WS_RECV_START,1516239466046,43
1065,WS_RECV_END,1516239466193,43
1065,PLAYER_SLEEPBEFORE_START,1516239466193,44
1065,PLAYER_SLEEPBEFORE_END,1516239466205,44
1065,WS_SEND_START,1516239466205,44
1065,WS_SEND_END,1516239466205,44
1065,WS_RECV_START,1516239466205,45
1065,WS_RECV_END,1516239466415,45
1065,PLAYER_SLEEPBEFORE_START,1516239466415,46
1065,PLAYER_SLEEPBEFORE_END,1516239467675,46
1065,WS_SEND_START,1516239467675,46
1065,WS_SEND_END,1516239467675,46
1065,WS_RECV_START,1516239467675,47
1065,WS_RECV_END,1516239467849,47
1065,PLAYER_SLEEPBEFORE_START,1516239467849,48
1065,PLAYER_SLEEPBEFORE_END,1516239469169,48
1065,WS_SEND_START,1516239469169,48
1065,WS_SEND_END,1516239469169,48
1065,WS_RECV_START,1516239469169,49
1065,WS_RECV_END,1516239469656,49
1065,PLAYER_SLEEPBEFORE_START,1516239469656,50
1065,PLAYER_SLEEPBEFORE_END,1516239469680,50
1065,WS_SEND_START,1516239469680,50
1065,WS_SEND_END,1516239469680,50
1065,WS_RECV_START,1516239469680,51
1065,WS_RECV_END,1516239469951,51
1065,PLAYER_SLEEPBEFORE_START,1516239469951,52
1065,PLAYER_SLEEPBEFORE_END,1516239492516,52
1065,WS_SEND_START,1516239492516,52
1065,WS_SEND_END,1516239492516,52
1065,WS_RECV_START,1516239492516,53
1065,WS_RECV_END,1516239493158,53
1065,PLAYER_SLEEPBEFORE_START,1516239493158,54
1065,PLAYER_SLEEPBEFORE_END,1516239514461,54
1065,WS_SEND_START,1516239514461,54
1065,WS_SEND_END,1516239514461,54
1065,PLAYER_SLEEPBEFORE_START,1516239514461,55
1065,PLAYER_SLEEPBEFORE_END,1516239516402,55
1065,WS_SEND_START,1516239516402,55
1065,WS_SEND_END,1516239516402,55
1065,WS_RECV_START,1516239516402,56
1065,WS_RECV_END,1516239516446,56
1065,PLAYER_SLEEPBEFORE_START,1516239516446,57
1065,PLAYER_SLEEPBEFORE_END,1516239539318,57
1065,WS_SEND_START,1516239539318,57
1065,WS_SEND_END,1516239539318,57
1065,WS_RECV_START,1516239539318,58
1065,WS_RECV_END,1516239539356,58
1065,PLAYER_SLEEPBEFORE_START,1516239539356,59
1065,PLAYER_SLEEPBEFORE_END,1516239541683,59
1065,WS_SEND_START,1516239541683,59
1065,WS_SEND_END,1516239541683,59
1065,WS_RECV_START,1516239541683,60
1065,WS_RECV_END,1516239541844,60
1065,PLAYER_SLEEPBEFORE_START,1516239541844,61
1065,PLAYER_SLEEPBEFORE_END,1516239545436,61
1065,WS_SEND_START,1516239545436,61
1065,WS_SEND_END,1516239545436,61
1065,WS_RECV_START,1516239545436,62
1065,WS_RECV_END,1516239545580,62
1065,PLAYER_SLEEPBEFORE_START,1516239545580,63
1065,PLAYER_SLEEPBEFORE_END,1516239564842,63
1065,WS_SEND_START,1516239564842,63
1065,WS_SEND_END,1516239564842,63
1065,WS_RECV_START,1516239564842,64
1065,WS_RECV_END,1516239564896,64
1065,PLAYER_SLEEPBEFORE_START,1516239564896,65
1065,PLAYER_SLEEPBEFORE_END,1516239591714,65
1065,WS_SEND_START,1516239591714,65
1065,WS_SEND_END,1516239591714,65
1065,WS_RECV_START,1516239591714,66
1065,WS_RECV_END,1516239591827,66
1065,PLAYER_SLEEPBEFORE_START,1516239591827,67
1065,PLAYER_SLEEPBEFORE_END,1516239593334,67
1065,WS_SEND_START,1516239593334,67
1065,WS_SEND_END,1516239593334,67
1065,WS_RECV_START,1516239593334,68
1065,WS_RECV_END,1516239593543,68
1065,PLAYER_SLEEPBEFORE_START,1516239593543,69
1065,PLAYER_SLEEPBEFORE_END,1516239615541,69
1065,WS_SEND_START,1516239615541,69
1065,WS_SEND_END,1516239615541,69
1065,WS_RECV_START,1516239615541,70
1065,WS_RECV_END,1516239616197,70
1065,PLAYER_SLEEPBEFORE_START,1516239616197,71
1065,PLAYER_SLEEPBEFORE_END,1516239640973,71
1065,WS_SEND_START,1516239640973,71
1065,WS_SEND_END,1516239640973,71
1065,PLAYER_SLEEPBEFORE_START,1516239640973,72
1065,PLAYER_SLEEPBEFORE_END,1516239643580,72
1065,WS_SEND_START,1516239643580,72
1065,WS_SEND_END,1516239643580,72
1065,WS_RECV_START,1516239643580,73
1065,WS_RECV_END,1516239643670,73
1065,PLAYER_SLEEPBEFORE_START,1516239643670,74
1065,PLAYER_SLEEPBEFORE_END,1516239643679,74
1065,WS_SEND_START,1516239643679,74
1065,WS_SEND_END,1516239643679,74
1065,WS_RECV_START,1516239643679,75
1065,WS_RECV_END,1516239643727,75
1065,PLAYER_SLEEPBEFORE_START,1516239643727,76
1065,PLAYER_SLEEPBEFORE_END,1516239645233,76
1065,WS_SEND_START,1516239645233,76
1065,WS_SEND_END,1516239645233,76
1065,WS_RECV_START,1516239645233,77
1065,WS_RECV_END,1516239645635,77
1065,PLAYER_SLEEPBEFORE_START,1516239645635,78
1065,PLAYER_SLEEPBEFORE_END,1516239646503,78
1065,WS_SEND_START,1516239646503,78
1065,WS_SEND_END,1516239646503,78
1065,WS_RECV_START,1516239646503,79
1065,WS_RECV_END,1516239646701,79
1065,PLAYER_SLEEPBEFORE_START,1516239646701,80
1065,PLAYER_SLEEPBEFORE_END,1516239654367,80
1065,WS_SEND_START,1516239654368,80
1065,WS_SEND_END,1516239654368,80
1065,WS_RECV_START,1516239654368,81
1065,WS_RECV_END,1516239654660,81
1065,PLAYER_SLEEPBEFORE_START,1516239654660,82
1065,PLAYER_SLEEPBEFORE_END,1516239655762,82
1065,WS_SEND_START,1516239655762,82
1065,WS_SEND_END,1516239655762,82
1065,WS_RECV_START,1516239655762,83
1065,WS_RECV_END,1516239656373,83
1065,PLAYER_SLEEPBEFORE_START,1516239656373,84
1065,PLAYER_SLEEPBEFORE_END,1516239657320,84
1065,WS_SEND_START,1516239657320,84
1065,WS_SEND_END,1516239657320,84
1065,WS_RECV_START,1516239657320,85
1065,WS_RECV_END,1516239657377,85
1065,PLAYER_SLEEPBEFORE_START,1516239657377,86
1065,PLAYER_SLEEPBEFORE_END,1516239661549,86
1065,WS_SEND_START,1516239661549,86
1065,WS_SEND_END,1516239661549,86
1065,WS_RECV_START,1516239661549,87
1065,WS_RECV_END,1516239661690,87
1065,PLAYER_SLEEPBEFORE_START,1516239661690,88
1065,PLAYER_SLEEPBEFORE_END,1516239661698,88
1065,WS_SEND_START,1516239661698,88
1065,WS_SEND_END,1516239661698,88
1065,WS_RECV_START,1516239661698,89
1065,WS_RECV_END,1516239661842,89
1065,PLAYER_SLEEPBEFORE_START,1516239661842,90
1065,PLAYER_SLEEPBEFORE_END,1516239689039,90
1065,REQ_START,1516239689039,90
1065,REQ_END,1516239689047,90
1065,PLAYER_SLEEPBEFORE_START,1516239689047,91
1065,PLAYER_SLEEPBEFORE_END,1516239696936,91
1065,WS_SEND_START,1516239696936,91
1065,WS_SEND_END,1516239696937,91
1065,WS_RECV_START,1516239696937,92
1065,WS_RECV_END,1516239697112,92
1065,PLAYER_SLEEPBEFORE_START,1516239697112,93
1065,PLAYER_SLEEPBEFORE_END,1516239697127,93
1065,WS_SEND_START,1516239697127,93
1065,WS_SEND_END,1516239697127,93
1065,WS_RECV_START,1516239697127,94
1065,WS_RECV_END,1516239697714,94
1065,PLAYER_SLEEPBEFORE_START,1516239697714,95
1065,PLAYER_SLEEPBEFORE_END,1516239721269,95
1065,WS_SEND_START,1516239721269,95
1065,WS_SEND_END,1516239721269,95
1065,WS_RECV_START,1516239721269,96
1065,WS_RECV_END,1516239722139,96
1065,PLAYER_SLEEPBEFORE_START,1516239722139,97
1065,PLAYER_SLEEPBEFORE_END,1516239744579,97
1065,WS_SEND_START,1516239744579,97
1065,WS_SEND_END,1516239744579,97
1065,WS_RECV_START,1516239744579,98
1065,WS_RECV_END,1516239744965,98
1065,PLAYER_SLEEPBEFORE_START,1516239744965,99
1065,PLAYER_SLEEPBEFORE_END,1516239744986,99
1065,WS_SEND_START,1516239744986,99
1065,WS_SEND_END,1516239744986,99
1065,WS_RECV_START,1516239744986,100
1065,WS_RECV_END,1516239745220,100
1065,PLAYER_SLEEPBEFORE_START,1516239745220,101
1065,PLAYER_SLEEPBEFORE_END,1516239768779,101
1065,WS_SEND_START,1516239768779,101
1065,WS_SEND_END,1516239768779,101
1065,WS_RECV_START,1516239768779,102
1065,WS_RECV_END,1516239768917,102
1065,PLAYER_SLEEPBEFORE_START,1516239768917,103
1065,PLAYER_SLEEPBEFORE_END,1516239792542,103
1065,WS_SEND_START,1516239792542,103
1065,WS_SEND_END,1516239792542,103
1065,WS_RECV_START,1516239792542,104
1065,WS_RECV_END,1516239792663,104
1065,PLAYER_SLEEPBEFORE_START,1516239792663,105
1065,PLAYER_SLEEPBEFORE_END,1516239818040,105
1065,WS_SEND_START,1516239818040,105
1065,WS_SEND_END,1516239818040,105
1065,WS_RECV_START,1516239818040,106
1065,WS_RECV_END,1516239818808,106
1065,PLAYER_SLEEPBEFORE_START,1516239818808,107
1065,PLAYER_SLEEPBEFORE_END,1516239842231,107
1065,WS_SEND_START,1516239842231,107
1065,WS_SEND_END,1516239842231,107
1065,WS_RECV_START,1516239842231,108
1065,WS_RECV_END,1516239842446,108
1065,PLAYER_SLEEPBEFORE_START,1516239842446,109
1065,PLAYER_SLEEPBEFORE_END,1516239842455,109
1065,WS_SEND_START,1516239842455,109
1065,WS_SEND_END,1516239842455,109
1065,WS_RECV_START,1516239842455,110
1065,WS_RECV_END,1516239842687,110
1065,PLAYER_SLEEPBEFORE_START,1516239842687,111
1065,PLAYER_SLEEPBEFORE_END,1516239843646,111
1065,WS_SEND_START,1516239843646,111
1065,WS_SEND_END,1516239843646,111
1065,WS_RECV_START,1516239843646,112
1065,WS_RECV_END,1516239843848,112
1065,PLAYER_SLEEPBEFORE_START,1516239843848,113
1065,PLAYER_SLEEPBEFORE_END,1516239844410,113
1065,WS_SEND_START,1516239844410,113
1065,WS_SEND_END,1516239844410,113
1065,WS_RECV_START,1516239844410,114
1065,WS_RECV_END,1516239844790,114
1065,PLAYER_SLEEPBEFORE_START,1516239844790,115
1065,PLAYER_SLEEPBEFORE_END,1516239844799,115
1065,WS_SEND_START,1516239844799,115
1065,WS_SEND_END,1516239844799,115
1065,WS_RECV_START,1516239844799,116
1065,WS_RECV_END,1516239845101,116
1065,PLAYER_SLEEPBEFORE_START,1516239845101,117
1065,PLAYER_SLEEPBEFORE_END,1516239865461,117
1065,WS_SEND_START,1516239865461,117
1065,WS_SEND_END,1516239865461,117
1065,PLAYER_SLEEPBEFORE_START,1516239865461,118
1065,PLAYER_SLEEPBEFORE_END,1516239869213,118
1065,WS_SEND_START,1516239869213,118
1065,WS_SEND_END,1516239869213,118
1065,WS_RECV_START,1516239869213,119
1065,WS_RECV_END,1516239869495,119
1065,PLAYER_SLEEPBEFORE_START,1516239869495,120
1065,PLAYER_SLEEPBEFORE_END,1516239870483,120
1065,WS_SEND_START,1516239870483,120
1065,WS_SEND_END,1516239870483,120
1065,WS_RECV_START,1516239870483,121
1065,WS_RECV_END,1516239870586,121
1065,PLAYER_SLEEPBEFORE_START,1516239870586,122
1065,PLAYER_SLEEPBEFORE_END,1516239871771,122
1065,WS_SEND_START,1516239871771,122
1065,WS_SEND_END,1516239871771,122
1065,WS_RECV_START,1516239871771,123
1065,WS_RECV_END,1516239871891,123
1065,PLAYER_SLEEPBEFORE_START,1516239871891,124
1065,PLAYER_SLEEPBEFORE_END,1516239896296,124
1065,WS_SEND_START,1516239896297,124
1065,WS_SEND_END,1516239896297,124
1065,WS_RECV_START,1516239896297,125
1065,WS_RECV_END,1516239896626,125
1065,PLAYER_SLEEPBEFORE_START,1516239896626,126
1065,PLAYER_SLEEPBEFORE_END,1516239917138,126
1065,WS_SEND_START,1516239917138,126
1065,WS_SEND_END,1516239917138,126
1065,PLAYER_SLEEPBEFORE_START,1516239917138,127
1065,PLAYER_SLEEPBEFORE_END,1516239920192,127
1065,WS_SEND_START,1516239920192,127
1065,WS_SEND_END,1516239920192,127
1065,WS_RECV_START,1516239920192,128
1065,WS_RECV_END,1516239920346,128
1065,PLAYER_SLEEPBEFORE_START,1516239920346,129
1065,PLAYER_SLEEPBEFORE_END,1516239920366,129
1065,WS_SEND_START,1516239920366,129
1065,WS_SEND_END,1516239920366,129
1065,WS_RECV_START,1516239920366,130
1065,WS_RECV_END,1516239920490,130
1065,PLAYER_SLEEPBEFORE_START,1516239920490,131
1065,PLAYER_SLEEPBEFORE_END,1516239942114,131
1065,WS_SEND_START,1516239942114,131
1065,WS_SEND_END,1516239942114,131
1065,PLAYER_SLEEPBEFORE_START,1516239942114,132
1065,PLAYER_SLEEPBEFORE_END,1516239945194,132
1065,WS_SEND_START,1516239945194,132
1065,WS_SEND_END,1516239945194,132
1065,WS_RECV_START,1516239945194,133
1065,WS_RECV_END,1516239945714,133
1065,PLAYER_SLEEPBEFORE_START,1516239945714,134
1065,PLAYER_SLEEPBEFORE_END,1516239966931,134
1065,WS_SEND_START,1516239966931,134
1065,WS_SEND_END,1516239966931,134
1065,PLAYER_SLEEPBEFORE_START,1516239966931,135
1065,PLAYER_SLEEPBEFORE_END,1516239970121,135
1065,WS_SEND_START,1516239970121,135
1065,WS_SEND_END,1516239970121,135
1065,WS_RECV_START,1516239970121,136
1065,WS_RECV_END,1516239970957,136
1065,PLAYER_SLEEPBEFORE_START,1516239970957,137
1065,PLAYER_SLEEPBEFORE_END,1516239970964,137
1065,WS_SEND_START,1516239970964,137
1065,WS_SEND_END,1516239970964,137
1065,WS_RECV_START,1516239970964,138
1065,WS_RECV_END,1516239971431,138
1065,PLAYER_SLEEPBEFORE_START,1516239971431,139
1065,PLAYER_SLEEPBEFORE_END,1516239972121,139
1065,WS_SEND_START,1516239972121,139
1065,WS_SEND_END,1516239972121,139
1065,WS_RECV_START,1516239972121,140
1065,WS_RECV_END,1516239972981,140
1065,PLAYER_SLEEPBEFORE_START,1516239972981,141
1065,PLAYER_SLEEPBEFORE_END,1516239973636,141
1065,WS_SEND_START,1516239973636,141
1065,WS_SEND_END,1516239973636,141
1065,WS_RECV_START,1516239973636,142
1065,WS_RECV_END,1516239974744,142
1065,PLAYER_SLEEPBEFORE_START,1516239974744,143
1065,PLAYER_SLEEPBEFORE_END,1516239974802,143
1065,WS_SEND_START,1516239974802,143
1065,WS_SEND_END,1516239974802,143
1065,WS_RECV_START,1516239974802,144
1065,WS_RECV_END,1516239975339,144
1065,PLAYER_SLEEPBEFORE_START,1516239975339,145
1065,PLAYER_SLEEPBEFORE_END,1516239991401,145
1065,REQ_START,1516239991401,145
1065,REQ_END,1516239991406,145
1065,PLAYER_SLEEPBEFORE_START,1516239991406,146
1065,PLAYER_SLEEPBEFORE_END,1516240000283,146
1065,WS_SEND_START,1516240000283,146
1065,WS_SEND_END,1516240000283,146
1065,WS_RECV_START,1516240000283,147
1065,WS_RECV_END,1516240001183,147
1065,PLAYER_SLEEPBEFORE_START,1516240001183,148
1065,PLAYER_SLEEPBEFORE_END,1516240023105,148
1065,WS_SEND_START,1516240023105,148
1065,WS_SEND_END,1516240023105,148
1065,PLAYER_SLEEPBEFORE_START,1516240023105,149
1065,PLAYER_SLEEPBEFORE_END,1516240025533,149
1065,WS_SEND_START,1516240025534,149
1065,WS_SEND_END,1516240025534,149
1065,WS_RECV_START,1516240025534,150
1065,WS_RECV_END,1516240027205,150
1065,PLAYER_SLEEPBEFORE_START,1516240027205,151
1065,PLAYER_SLEEPBEFORE_END,1516240027416,151
1065,WS_SEND_START,1516240027416,151
1065,WS_SEND_END,1516240027416,151
1065,WS_RECV_START,1516240027416,152
1065,WS_RECV_END,1516240028532,152
1065,PLAYER_SLEEPBEFORE_START,1516240028532,153
1065,PLAYER_SLEEPBEFORE_END,1516240052459,153
1065,WS_SEND_START,1516240052459,153
1065,WS_SEND_END,1516240052459,153
1065,WS_RECV_START,1516240052459,154
1065,WS_RECV_END,1516240053334,154
1065,PLAYER_SLEEPBEFORE_START,1516240053334,155
1065,PLAYER_SLEEPBEFORE_END,1516240075892,155
1065,WS_SEND_START,1516240075892,155
1065,WS_SEND_END,1516240075892,155
1065,PLAYER_SLEEPBEFORE_START,1516240075892,156
1065,PLAYER_SLEEPBEFORE_END,1516240079166,156
1065,WS_SEND_START,1516240079166,156
1065,WS_SEND_END,1516240079166,156
1065,WS_RECV_START,1516240079166,157
1065,WS_RECV_END,1516240079380,157
1065,PLAYER_SLEEPBEFORE_START,1516240079380,158
1065,PLAYER_SLEEPBEFORE_END,1516240079390,158
1065,WS_SEND_START,1516240079391,158
1065,WS_SEND_END,1516240079391,158
1065,WS_RECV_START,1516240079391,159
1065,WS_RECV_END,1516240079435,159
1065,PLAYER_SLEEPBEFORE_START,1516240079435,160
1065,PLAYER_SLEEPBEFORE_END,1516240079610,160
1065,WS_SEND_START,1516240079610,160
1065,WS_SEND_END,1516240079610,160
1065,WS_RECV_START,1516240079610,161
1065,WS_RECV_END,1516240079761,161
1065,PLAYER_SLEEPBEFORE_START,1516240079761,162
1065,PLAYER_SLEEPBEFORE_END,1516240079786,162
1065,WS_SEND_START,1516240079786,162
1065,WS_SEND_END,1516240079786,162
1065,WS_RECV_START,1516240079786,163
1065,WS_RECV_END,1516240079992,163
1065,PLAYER_SLEEPBEFORE_START,1516240079992,164
1065,PLAYER_SLEEPBEFORE_END,1516240100804,164
1065,WS_SEND_START,1516240100804,164
1065,WS_SEND_END,1516240100804,164
1065,WS_RECV_START,1516240100804,165
1065,WS_RECV_END,1516240101105,165
1065,PLAYER_SLEEPBEFORE_START,1516240101105,166
1065,PLAYER_SLEEPBEFORE_END,1516240123560,166
1065,WS_SEND_START,1516240123560,166
1065,WS_SEND_END,1516240123560,166
1065,WS_RECV_START,1516240123560,167
1065,WS_RECV_END,1516240123810,167
1065,PLAYER_SLEEPBEFORE_START,1516240123810,168
1065,PLAYER_SLEEPBEFORE_END,1516240151174,168
1065,WS_SEND_START,1516240151174,168
1065,WS_SEND_END,1516240151174,168
1065,WS_RECV_START,1516240151174,169
1065,WS_RECV_END,1516240151235,169
1065,PLAYER_SLEEPBEFORE_START,1516240151235,170
1065,PLAYER_SLEEPBEFORE_END,1516240151244,170
1065,WS_SEND_START,1516240151244,170
1065,WS_SEND_END,1516240151244,170
1065,WS_RECV_START,1516240151244,171
1065,WS_RECV_END,1516240151391,171
1065,PLAYER_SLEEPBEFORE_START,1516240151391,172
1065,PLAYER_SLEEPBEFORE_END,1516240151760,172
1065,WS_SEND_START,1516240151760,172
1065,WS_SEND_END,1516240151760,172
1065,WS_RECV_START,1516240151760,173
1065,WS_RECV_END,1516240151909,173
1065,PLAYER_SLEEPBEFORE_START,1516240151909,174
1065,PLAYER_SLEEPBEFORE_END,1516240151950,174
1065,WS_SEND_START,1516240151950,174
1065,WS_SEND_END,1516240151950,174
1065,WS_RECV_START,1516240151950,175
1065,WS_RECV_END,1516240152242,175
1065,PLAYER_SLEEPBEFORE_START,1516240152242,176
1065,PLAYER_SLEEPBEFORE_END,1516240174003,176
1065,WS_SEND_START,1516240174003,176
1065,WS_SEND_END,1516240174003,176
1065,PLAYER_SLEEPBEFORE_START,1516240174003,177
1065,PLAYER_SLEEPBEFORE_END,1516240176521,177
1065,WS_SEND_START,1516240176521,177
1065,WS_SEND_END,1516240176521,177
1065,WS_RECV_START,1516240176521,178
1065,WS_RECV_END,1516240176693,178
1065,PLAYER_SLEEPBEFORE_START,1516240176693,179
1065,PLAYER_SLEEPBEFORE_END,1516240199033,179
1065,WS_SEND_START,1516240199033,179
1065,WS_SEND_END,1516240199033,179
1065,WS_RECV_START,1516240199033,180
1065,WS_RECV_END,1516240199205,180
1065,PLAYER_SLEEPBEFORE_START,1516240199205,181
1065,PLAYER_SLEEPBEFORE_END,1516240199649,181
1065,WS_SEND_START,1516240199649,181
1065,WS_SEND_END,1516240199649,181
1065,WS_RECV_START,1516240199649,182
1065,WS_RECV_END,1516240199769,182
1065,PLAYER_SLEEPBEFORE_START,1516240199769,183
1065,PLAYER_SLEEPBEFORE_END,1516240200292,183
1065,WS_SEND_START,1516240200292,183
1065,WS_SEND_END,1516240200292,183
1065,WS_RECV_START,1516240200292,184
1065,WS_RECV_END,1516240200395,184
1065,PLAYER_SLEEPBEFORE_START,1516240200395,185
1065,PLAYER_SLEEPBEFORE_END,1516240200663,185
1065,WS_SEND_START,1516240200663,185
1065,WS_SEND_END,1516240200663,185
1065,WS_RECV_START,1516240200663,186
1065,WS_RECV_END,1516240200790,186
1065,PLAYER_SLEEPBEFORE_START,1516240200790,187
1065,PLAYER_SLEEPBEFORE_END,1516240223290,187
1065,WS_SEND_START,1516240223290,187
1065,WS_SEND_END,1516240223290,187
1065,WS_RECV_START,1516240223290,188
1065,WS_RECV_END,1516240223503,188
1065,PLAYER_SLEEPBEFORE_START,1516240223503,189
1065,PLAYER_SLEEPBEFORE_END,1516240229742,189
1065,WS_SEND_START,1516240229742,189
1065,WS_SEND_END,1516240229742,189
1065,WS_RECV_START,1516240229742,190
1065,WS_RECV_END,1516240229851,190
1065,PLAYER_SLEEPBEFORE_START,1516240229851,191
1065,PLAYER_SLEEPBEFORE_END,1516240231766,191
1065,WS_SEND_START,1516240231766,191
1065,WS_SEND_END,1516240231766,191
1065,WS_RECV_START,1516240231766,192
1065,WS_RECV_END,1516240231932,192
1065,PLAYER_SLEEPBEFORE_START,1516240231932,193
1065,PLAYER_SLEEPBEFORE_END,1516240232061,193
1065,WS_SEND_START,1516240232061,193
1065,WS_SEND_END,1516240232061,193
1065,WS_RECV_START,1516240232061,194
1065,WS_RECV_END,1516240232172,194
1065,PLAYER_SLEEPBEFORE_START,1516240232172,195
1065,PLAYER_SLEEPBEFORE_END,1516240233927,195
1065,WS_SEND_START,1516240233927,195
1065,WS_SEND_END,1516240233927,195
1065,WS_RECV_START,1516240233927,196
1065,WS_RECV_END,1516240234019,196
1065,PLAYER_SLEEPBEFORE_START,1516240234019,197
1065,PLAYER_SLEEPBEFORE_END,1516240235823,197
1065,WS_SEND_START,1516240235823,197
1065,WS_SEND_END,1516240235823,197
1065,WS_RECV_START,1516240235823,198
1065,WS_RECV_END,1516240235963,198
1065,PLAYER_SLEEPBEFORE_START,1516240235963,199
1065,PLAYER_SLEEPBEFORE_END,1516240247817,199
1065,WS_SEND_START,1516240247817,199
1065,WS_SEND_END,1516240247817,199
1065,PLAYER_SLEEPBEFORE_START,1516240247817,200
1065,PLAYER_SLEEPBEFORE_END,1516240251905,200
1065,WS_SEND_START,1516240251905,200
1065,WS_SEND_END,1516240251905,200
1065,WS_RECV_START,1516240251905,201
1065,WS_RECV_END,1516240251980,201
1065,PLAYER_SLEEPBEFORE_START,1516240251980,202
1065,PLAYER_SLEEPBEFORE_END,1516240251995,202
1065,WS_SEND_START,1516240251995,202
1065,WS_SEND_END,1516240251995,202
1065,WS_RECV_START,1516240251995,203
1065,WS_RECV_END,1516240252110,203
1065,PLAYER_SLEEPBEFORE_START,1516240252110,204
1065,PLAYER_SLEEPBEFORE_END,1516240271760,204
1065,WS_SEND_START,1516240271760,204
1065,WS_SEND_END,1516240271760,204
1065,PLAYER_SLEEPBEFORE_START,1516240271760,205
1065,PLAYER_SLEEPBEFORE_END,1516240275658,205
1065,WS_SEND_START,1516240275658,205
1065,WS_SEND_END,1516240275658,205
1065,WS_RECV_START,1516240275658,206
1065,WS_RECV_END,1516240275750,206
1065,PLAYER_SLEEPBEFORE_START,1516240275750,207
1065,PLAYER_SLEEPBEFORE_END,1516240292681,207
1065,REQ_START,1516240292681,207
1065,REQ_END,1516240292689,207
1065,PLAYER_SLEEPBEFORE_START,1516240292689,208
1065,PLAYER_SLEEPBEFORE_END,1516240299541,208
1065,WS_CLOSE_START,1516240299541,208
1065,WS_CLOSE_END,1516240299541,208
1065,PLAYER_DONE,1516240299541
