# --sessions 1080 --app-url=http://shinyloadtest.rstudioservices.com/cran_explorer --output-dir test1080 --overwrite-output --log-level warn --start-interval 250 15min.log
thread_id,event,timestamp,input_line_number,comment
152,PLAYER_SESSION_CREATE,1516239120523
152,PLAYER_START_INTERVAL_START,1516239120523
152,PLAYER_START_INTERVAL_END,1516239158523
152,REQ_HOME_START,1516239158523,2
152,REQ_HOME_END,1516239158630,2
152,REQ_START,1516239158630,3
152,REQ_END,1516239158731,3
152,REQ_START,1516239158731,4
152,REQ_END,1516239158766,4
152,REQ_START,1516239158766,5
152,REQ_END,1516239158808,5
152,REQ_START,1516239158808,6
152,REQ_END,1516239158848,6
152,REQ_START,1516239158848,7
152,REQ_END,1516239158889,7
152,REQ_START,1516239158889,8
152,REQ_END,1516239158935,8
152,REQ_START,1516239158935,9
152,REQ_END,1516239158985,9
152,REQ_START,1516239158985,10
152,REQ_END,1516239158991,10
152,REQ_START,1516239158991,11
152,REQ_END,1516239159039,11
152,REQ_START,1516239159039,12
152,REQ_END,1516239159047,12
152,REQ_START,1516239159047,13
152,REQ_END,1516239159084,13
152,REQ_START,1516239159084,14
152,REQ_END,1516239159096,14
152,REQ_START,1516239159096,15
152,REQ_END,1516239159134,15
152,REQ_TOK_START,1516239159134,16
152,REQ_TOK_END,1516239159139,16
152,REQ_SINF_START,1516239159139,17
152,REQ_SINF_END,1516239159145,17
152,WS_OPEN_START,1516239159145,18
152,WS_OPEN_END,1516239159150,18
152,REQ_START,1516239159150,19
152,REQ_END,1516239159183,19
152,WS_RECV_START,1516239159183,20
152,WS_RECV_END,1516239159183,20
152,PLAYER_SLEEPBEFORE_START,1516239159183,21
152,PLAYER_SLEEPBEFORE_END,1516239159188,21
152,WS_SEND_START,1516239159188,21
152,WS_SEND_END,1516239159188,21
152,PLAYER_SLEEPBEFORE_START,1516239159188,22
152,PLAYER_SLEEPBEFORE_END,1516239159189,22
152,WS_SEND_START,1516239159189,22
152,WS_SEND_END,1516239159189,22
152,WS_RECV_INIT_START,1516239159189,23
152,WS_RECV_INIT_END,1516239159208,23
152,WS_RECV_START,1516239159208,24
152,WS_RECV_END,1516239159259,24
152,PLAYER_SLEEPBEFORE_START,1516239159259,25
152,PLAYER_SLEEPBEFORE_END,1516239159266,25
152,REQ_START,1516239159266,25
152,REQ_END,1516239159304,25
152,PLAYER_SLEEPBEFORE_START,1516239159304,26
152,PLAYER_SLEEPBEFORE_END,1516239159305,26
152,REQ_START,1516239159305,26
152,REQ_END,1516239159344,26
152,PLAYER_SLEEPBEFORE_START,1516239159344,27
152,PLAYER_SLEEPBEFORE_END,1516239159347,27
152,REQ_START,1516239159347,27
152,REQ_END,1516239159384,27
152,PLAYER_SLEEPBEFORE_START,1516239159384,28
152,PLAYER_SLEEPBEFORE_END,1516239159669,28
152,REQ_START,1516239159669,28
152,REQ_END,1516239159706,28
152,PLAYER_SLEEPBEFORE_START,1516239159706,29
152,PLAYER_SLEEPBEFORE_END,1516239159881,29
152,WS_SEND_START,1516239159881,29
152,WS_SEND_END,1516239159881,29
152,WS_RECV_START,1516239159881,30
152,WS_RECV_END,1516239159970,30
152,PLAYER_SLEEPBEFORE_START,1516239159970,31
152,PLAYER_SLEEPBEFORE_END,1516239159981,31
152,REQ_START,1516239159981,31
152,REQ_END,1516239160029,31
152,PLAYER_SLEEPBEFORE_START,1516239160029,32
152,PLAYER_SLEEPBEFORE_END,1516239188174,32
152,WS_SEND_START,1516239188174,32
152,WS_SEND_END,1516239188174,32
152,WS_RECV_START,1516239188174,33
152,WS_RECV_END,1516239188290,33
152,PLAYER_SLEEPBEFORE_START,1516239188290,34
152,PLAYER_SLEEPBEFORE_END,1516239214202,34
152,WS_SEND_START,1516239214202,34
152,WS_SEND_END,1516239214202,34
152,WS_RECV_START,1516239214202,35
152,WS_RECV_END,1516239214239,35
152,PLAYER_SLEEPBEFORE_START,1516239214240,36
152,PLAYER_SLEEPBEFORE_END,1516239214249,36
152,WS_SEND_START,1516239214249,36
152,WS_SEND_END,1516239214249,36
152,WS_RECV_START,1516239214249,37
152,WS_RECV_END,1516239214291,37
152,PLAYER_SLEEPBEFORE_START,1516239214291,38
152,PLAYER_SLEEPBEFORE_END,1516239217486,38
152,WS_SEND_START,1516239217486,38
152,WS_SEND_END,1516239217486,38
152,WS_RECV_START,1516239217486,39
152,WS_RECV_END,1516239217625,39
152,PLAYER_SLEEPBEFORE_START,1516239217625,40
152,PLAYER_SLEEPBEFORE_END,1516239217671,40
152,WS_SEND_START,1516239217671,40
152,WS_SEND_END,1516239217671,40
152,WS_RECV_START,1516239217671,41
152,WS_RECV_END,1516239217782,41
152,PLAYER_SLEEPBEFORE_START,1516239217782,42
152,PLAYER_SLEEPBEFORE_END,1516239235917,42
152,WS_SEND_START,1516239235917,42
152,WS_SEND_END,1516239235917,42
152,WS_RECV_START,1516239235917,43
152,WS_RECV_END,1516239236035,43
152,PLAYER_SLEEPBEFORE_START,1516239236035,44
152,PLAYER_SLEEPBEFORE_END,1516239236047,44
152,WS_SEND_START,1516239236047,44
152,WS_SEND_END,1516239236047,44
152,WS_RECV_START,1516239236047,45
152,WS_RECV_END,1516239236103,45
152,PLAYER_SLEEPBEFORE_START,1516239236103,46
152,PLAYER_SLEEPBEFORE_END,1516239237363,46
152,WS_SEND_START,1516239237363,46
152,WS_SEND_END,1516239237364,46
152,WS_RECV_START,1516239237364,47
152,WS_RECV_END,1516239237386,47
152,PLAYER_SLEEPBEFORE_START,1516239237386,48
152,PLAYER_SLEEPBEFORE_END,1516239238706,48
152,WS_SEND_START,1516239238706,48
152,WS_SEND_END,1516239238706,48
152,WS_RECV_START,1516239238706,49
152,WS_RECV_END,1516239238799,49
152,PLAYER_SLEEPBEFORE_START,1516239238799,50
152,PLAYER_SLEEPBEFORE_END,1516239238823,50
152,WS_SEND_START,1516239238823,50
152,WS_SEND_END,1516239238823,50
152,WS_RECV_START,1516239238823,51
152,WS_RECV_END,1516239238925,51
152,PLAYER_SLEEPBEFORE_START,1516239238925,52
152,PLAYER_SLEEPBEFORE_END,1516239261489,52
152,WS_SEND_START,1516239261489,52
152,WS_SEND_END,1516239261489,52
152,WS_RECV_START,1516239261489,53
152,WS_RECV_END,1516239261588,53
152,PLAYER_SLEEPBEFORE_START,1516239261588,54
152,PLAYER_SLEEPBEFORE_END,1516239282891,54
152,WS_SEND_START,1516239282891,54
152,WS_SEND_END,1516239282892,54
152,PLAYER_SLEEPBEFORE_START,1516239282892,55
152,PLAYER_SLEEPBEFORE_END,1516239284833,55
152,WS_SEND_START,1516239284833,55
152,WS_SEND_END,1516239284833,55
152,WS_RECV_START,1516239284833,56
152,WS_RECV_END,1516239284962,56
152,PLAYER_SLEEPBEFORE_START,1516239284962,57
152,PLAYER_SLEEPBEFORE_END,1516239307835,57
152,WS_SEND_START,1516239307835,57
152,WS_SEND_END,1516239307835,57
152,WS_RECV_START,1516239307835,58
152,WS_RECV_END,1516239307873,58
152,PLAYER_SLEEPBEFORE_START,1516239307873,59
152,PLAYER_SLEEPBEFORE_END,1516239310200,59
152,WS_SEND_START,1516239310200,59
152,WS_SEND_END,1516239310200,59
152,WS_RECV_START,1516239310200,60
152,WS_RECV_END,1516239310289,60
152,PLAYER_SLEEPBEFORE_START,1516239310289,61
152,PLAYER_SLEEPBEFORE_END,1516239313880,61
152,WS_SEND_START,1516239313880,61
152,WS_SEND_END,1516239313880,61
152,WS_RECV_START,1516239313880,62
152,WS_RECV_END,1516239313988,62
152,PLAYER_SLEEPBEFORE_START,1516239313988,63
152,PLAYER_SLEEPBEFORE_END,1516239333250,63
152,WS_SEND_START,1516239333250,63
152,WS_SEND_END,1516239333250,63
152,WS_RECV_START,1516239333250,64
152,WS_RECV_END,1516239333302,64
152,PLAYER_SLEEPBEFORE_START,1516239333302,65
152,PLAYER_SLEEPBEFORE_END,1516239360119,65
152,WS_SEND_START,1516239360119,65
152,WS_SEND_END,1516239360119,65
152,WS_RECV_START,1516239360119,66
152,WS_RECV_END,1516239360406,66
152,PLAYER_SLEEPBEFORE_START,1516239360406,67
152,PLAYER_SLEEPBEFORE_END,1516239361913,67
152,WS_SEND_START,1516239361913,67
152,WS_SEND_END,1516239361913,67
152,WS_RECV_START,1516239361913,68
152,WS_RECV_END,1516239362003,68
152,PLAYER_SLEEPBEFORE_START,1516239362003,69
152,PLAYER_SLEEPBEFORE_END,1516239384002,69
152,WS_SEND_START,1516239384002,69
152,WS_SEND_END,1516239384002,69
152,WS_RECV_START,1516239384002,70
152,WS_RECV_END,1516239384127,70
152,PLAYER_SLEEPBEFORE_START,1516239384127,71
152,PLAYER_SLEEPBEFORE_END,1516239408902,71
152,WS_SEND_START,1516239408902,71
152,WS_SEND_END,1516239408903,71
152,PLAYER_SLEEPBEFORE_START,1516239408903,72
152,PLAYER_SLEEPBEFORE_END,1516239411510,72
152,WS_SEND_START,1516239411510,72
152,WS_SEND_END,1516239411510,72
152,WS_RECV_START,1516239411510,73
152,WS_RECV_END,1516239411780,73
152,PLAYER_SLEEPBEFORE_START,1516239411780,74
152,PLAYER_SLEEPBEFORE_END,1516239411789,74
152,WS_SEND_START,1516239411789,74
152,WS_SEND_END,1516239411789,74
152,WS_RECV_START,1516239411789,75
152,WS_RECV_END,1516239411871,75
152,PLAYER_SLEEPBEFORE_START,1516239411871,76
152,PLAYER_SLEEPBEFORE_END,1516239413377,76
152,WS_SEND_START,1516239413377,76
152,WS_SEND_END,1516239413378,76
152,WS_RECV_START,1516239413378,77
152,WS_RECV_END,1516239413400,77
152,PLAYER_SLEEPBEFORE_START,1516239413400,78
152,PLAYER_SLEEPBEFORE_END,1516239414268,78
152,WS_SEND_START,1516239414268,78
152,WS_SEND_END,1516239414268,78
152,WS_RECV_START,1516239414268,79
152,WS_RECV_END,1516239414356,79
152,PLAYER_SLEEPBEFORE_START,1516239414356,80
152,PLAYER_SLEEPBEFORE_END,1516239422023,80
152,WS_SEND_START,1516239422023,80
152,WS_SEND_END,1516239422023,80
152,WS_RECV_START,1516239422023,81
152,WS_RECV_END,1516239422060,81
152,PLAYER_SLEEPBEFORE_START,1516239422060,82
152,PLAYER_SLEEPBEFORE_END,1516239423162,82
152,WS_SEND_START,1516239423162,82
152,WS_SEND_END,1516239423162,82
152,WS_RECV_START,1516239423162,83
152,WS_RECV_END,1516239423224,83
152,PLAYER_SLEEPBEFORE_START,1516239423224,84
152,PLAYER_SLEEPBEFORE_END,1516239424171,84
152,WS_SEND_START,1516239424171,84
152,WS_SEND_END,1516239424171,84
152,WS_RECV_START,1516239424171,85
152,WS_RECV_END,1516239424195,85
152,PLAYER_SLEEPBEFORE_START,1516239424195,86
152,PLAYER_SLEEPBEFORE_END,1516239428367,86
152,WS_SEND_START,1516239428367,86
152,WS_SEND_END,1516239428367,86
152,WS_RECV_START,1516239428367,87
152,WS_RECV_END,1516239428546,87
152,PLAYER_SLEEPBEFORE_START,1516239428546,88
152,PLAYER_SLEEPBEFORE_END,1516239428554,88
152,WS_SEND_START,1516239428555,88
152,WS_SEND_END,1516239428555,88
152,WS_RECV_START,1516239428555,89
152,WS_RECV_END,1516239428836,89
152,PLAYER_SLEEPBEFORE_START,1516239428836,90
152,PLAYER_SLEEPBEFORE_END,1516239456033,90
152,REQ_START,1516239456033,90
152,REQ_END,1516239456038,90
152,PLAYER_SLEEPBEFORE_START,1516239456038,91
152,PLAYER_SLEEPBEFORE_END,1516239463927,91
152,WS_SEND_START,1516239463927,91
152,WS_SEND_END,1516239463927,91
152,WS_RECV_START,1516239463927,92
152,WS_RECV_END,1516239464093,92
152,PLAYER_SLEEPBEFORE_START,1516239464093,93
152,PLAYER_SLEEPBEFORE_END,1516239464109,93
152,WS_SEND_START,1516239464109,93
152,WS_SEND_END,1516239464109,93
152,WS_RECV_START,1516239464109,94
152,WS_RECV_END,1516239464471,94
152,PLAYER_SLEEPBEFORE_START,1516239464471,95
152,PLAYER_SLEEPBEFORE_END,1516239488026,95
152,WS_SEND_START,1516239488026,95
152,WS_SEND_END,1516239488026,95
152,WS_RECV_START,1516239488026,96
152,WS_RECV_END,1516239489187,96
152,PLAYER_SLEEPBEFORE_START,1516239489187,97
152,PLAYER_SLEEPBEFORE_END,1516239511627,97
152,WS_SEND_START,1516239511627,97
152,WS_SEND_END,1516239511627,97
152,WS_RECV_START,1516239511627,98
152,WS_RECV_END,1516239511908,98
152,PLAYER_SLEEPBEFORE_START,1516239511908,99
152,PLAYER_SLEEPBEFORE_END,1516239511930,99
152,WS_SEND_START,1516239511930,99
152,WS_SEND_END,1516239511930,99
152,WS_RECV_START,1516239511930,100
152,WS_RECV_END,1516239512516,100
152,PLAYER_SLEEPBEFORE_START,1516239512516,101
152,PLAYER_SLEEPBEFORE_END,1516239536075,101
152,WS_SEND_START,1516239536075,101
152,WS_SEND_END,1516239536075,101
152,WS_RECV_START,1516239536075,102
152,WS_RECV_END,1516239536433,102
152,PLAYER_SLEEPBEFORE_START,1516239536433,103
152,PLAYER_SLEEPBEFORE_END,1516239560058,103
152,WS_SEND_START,1516239560058,103
152,WS_SEND_END,1516239560058,103
152,WS_RECV_START,1516239560058,104
152,WS_RECV_END,1516239560146,104
152,PLAYER_SLEEPBEFORE_START,1516239560146,105
152,PLAYER_SLEEPBEFORE_END,1516239585523,105
152,WS_SEND_START,1516239585523,105
152,WS_SEND_END,1516239585523,105
152,WS_RECV_START,1516239585523,106
152,WS_RECV_END,1516239585755,106
152,PLAYER_SLEEPBEFORE_START,1516239585755,107
152,PLAYER_SLEEPBEFORE_END,1516239609178,107
152,WS_SEND_START,1516239609178,107
152,WS_SEND_END,1516239609178,107
152,WS_RECV_START,1516239609178,108
152,WS_RECV_END,1516239609217,108
152,PLAYER_SLEEPBEFORE_START,1516239609217,109
152,PLAYER_SLEEPBEFORE_END,1516239609227,109
152,WS_SEND_START,1516239609227,109
152,WS_SEND_END,1516239609227,109
152,WS_RECV_START,1516239609227,110
152,WS_RECV_END,1516239609271,110
152,PLAYER_SLEEPBEFORE_START,1516239609271,111
152,PLAYER_SLEEPBEFORE_END,1516239610230,111
152,WS_SEND_START,1516239610230,111
152,WS_SEND_END,1516239610230,111
152,WS_RECV_START,1516239610230,112
152,WS_RECV_END,1516239610447,112
152,PLAYER_SLEEPBEFORE_START,1516239610447,113
152,PLAYER_SLEEPBEFORE_END,1516239611010,113
152,WS_SEND_START,1516239611010,113
152,WS_SEND_END,1516239611010,113
152,WS_RECV_START,1516239611010,114
152,WS_RECV_END,1516239611142,114
152,PLAYER_SLEEPBEFORE_START,1516239611143,115
152,PLAYER_SLEEPBEFORE_END,1516239611152,115
152,WS_SEND_START,1516239611152,115
152,WS_SEND_END,1516239611152,115
152,WS_RECV_START,1516239611152,116
152,WS_RECV_END,1516239611309,116
152,PLAYER_SLEEPBEFORE_START,1516239611309,117
152,PLAYER_SLEEPBEFORE_END,1516239631670,117
152,WS_SEND_START,1516239631670,117
152,WS_SEND_END,1516239631670,117
152,PLAYER_SLEEPBEFORE_START,1516239631670,118
152,PLAYER_SLEEPBEFORE_END,1516239635422,118
152,WS_SEND_START,1516239635422,118
152,WS_SEND_END,1516239635422,118
152,WS_RECV_START,1516239635422,119
152,WS_RECV_END,1516239635532,119
152,PLAYER_SLEEPBEFORE_START,1516239635532,120
152,PLAYER_SLEEPBEFORE_END,1516239636521,120
152,WS_SEND_START,1516239636521,120
152,WS_SEND_END,1516239636521,120
152,WS_RECV_START,1516239636521,121
152,WS_RECV_END,1516239636686,121
152,PLAYER_SLEEPBEFORE_START,1516239636686,122
152,PLAYER_SLEEPBEFORE_END,1516239637871,122
152,WS_SEND_START,1516239637871,122
152,WS_SEND_END,1516239637871,122
152,WS_RECV_START,1516239637871,123
152,WS_RECV_END,1516239637973,123
152,PLAYER_SLEEPBEFORE_START,1516239637973,124
152,PLAYER_SLEEPBEFORE_END,1516239662379,124
152,WS_SEND_START,1516239662379,124
152,WS_SEND_END,1516239662379,124
152,WS_RECV_START,1516239662379,125
152,WS_RECV_END,1516239662832,125
152,PLAYER_SLEEPBEFORE_START,1516239662832,126
152,PLAYER_SLEEPBEFORE_END,1516239683344,126
152,WS_SEND_START,1516239683344,126
152,WS_SEND_END,1516239683344,126
152,PLAYER_SLEEPBEFORE_START,1516239683344,127
152,PLAYER_SLEEPBEFORE_END,1516239686398,127
152,WS_SEND_START,1516239686398,127
152,WS_SEND_END,1516239686398,127
152,WS_RECV_START,1516239686398,128
152,WS_RECV_END,1516239686564,128
152,PLAYER_SLEEPBEFORE_START,1516239686564,129
152,PLAYER_SLEEPBEFORE_END,1516239686584,129
152,WS_SEND_START,1516239686584,129
152,WS_SEND_END,1516239686584,129
152,WS_RECV_START,1516239686584,130
152,WS_RECV_END,1516239686704,130
152,PLAYER_SLEEPBEFORE_START,1516239686704,131
152,PLAYER_SLEEPBEFORE_END,1516239708328,131
152,WS_SEND_START,1516239708328,131
152,WS_SEND_END,1516239708328,131
152,PLAYER_SLEEPBEFORE_START,1516239708328,132
152,PLAYER_SLEEPBEFORE_END,1516239711408,132
152,WS_SEND_START,1516239711408,132
152,WS_SEND_END,1516239711408,132
152,WS_RECV_START,1516239711408,133
152,WS_RECV_END,1516239711529,133
152,PLAYER_SLEEPBEFORE_START,1516239711529,134
152,PLAYER_SLEEPBEFORE_END,1516239732746,134
152,WS_SEND_START,1516239732746,134
152,WS_SEND_END,1516239732746,134
152,PLAYER_SLEEPBEFORE_START,1516239732746,135
152,PLAYER_SLEEPBEFORE_END,1516239735936,135
152,WS_SEND_START,1516239735936,135
152,WS_SEND_END,1516239735936,135
152,WS_RECV_START,1516239735936,136
152,WS_RECV_END,1516239737335,136
152,PLAYER_SLEEPBEFORE_START,1516239737335,137
152,PLAYER_SLEEPBEFORE_END,1516239737342,137
152,WS_SEND_START,1516239737342,137
152,WS_SEND_END,1516239737342,137
152,WS_RECV_START,1516239737342,138
152,WS_RECV_END,1516239738180,138
152,PLAYER_SLEEPBEFORE_START,1516239738180,139
152,PLAYER_SLEEPBEFORE_END,1516239738870,139
152,WS_SEND_START,1516239738870,139
152,WS_SEND_END,1516239738870,139
152,WS_RECV_START,1516239738870,140
152,WS_RECV_END,1516239739214,140
152,PLAYER_SLEEPBEFORE_START,1516239739214,141
152,PLAYER_SLEEPBEFORE_END,1516239739869,141
152,WS_SEND_START,1516239739869,141
152,WS_SEND_END,1516239739869,141
152,WS_RECV_START,1516239739869,142
152,WS_RECV_END,1516239740054,142
152,PLAYER_SLEEPBEFORE_START,1516239740054,143
152,PLAYER_SLEEPBEFORE_END,1516239740111,143
152,WS_SEND_START,1516239740111,143
152,WS_SEND_END,1516239740111,143
152,WS_RECV_START,1516239740111,144
152,WS_RECV_END,1516239740356,144
152,PLAYER_SLEEPBEFORE_START,1516239740356,145
152,PLAYER_SLEEPBEFORE_END,1516239756419,145
152,REQ_START,1516239756419,145
152,REQ_END,1516239756425,145
152,PLAYER_SLEEPBEFORE_START,1516239756425,146
152,PLAYER_SLEEPBEFORE_END,1516239765302,146
152,WS_SEND_START,1516239765302,146
152,WS_SEND_END,1516239765302,146
152,WS_RECV_START,1516239765302,147
152,WS_RECV_END,1516239765494,147
152,PLAYER_SLEEPBEFORE_START,1516239765494,148
152,PLAYER_SLEEPBEFORE_END,1516239787417,148
152,WS_SEND_START,1516239787417,148
152,WS_SEND_END,1516239787417,148
152,PLAYER_SLEEPBEFORE_START,1516239787417,149
152,PLAYER_SLEEPBEFORE_END,1516239789845,149
152,WS_SEND_START,1516239789845,149
152,WS_SEND_END,1516239789845,149
152,WS_RECV_START,1516239789845,150
152,WS_RECV_END,1516239789978,150
152,PLAYER_SLEEPBEFORE_START,1516239789978,151
152,PLAYER_SLEEPBEFORE_END,1516239790188,151
152,WS_SEND_START,1516239790188,151
152,WS_SEND_END,1516239790188,151
152,WS_RECV_START,1516239790188,152
152,WS_RECV_END,1516239790304,152
152,PLAYER_SLEEPBEFORE_START,1516239790304,153
152,PLAYER_SLEEPBEFORE_END,1516239814231,153
152,WS_SEND_START,1516239814231,153
152,WS_SEND_END,1516239814231,153
152,WS_RECV_START,1516239814231,154
152,WS_RECV_END,1516239814477,154
152,PLAYER_SLEEPBEFORE_START,1516239814477,155
152,PLAYER_SLEEPBEFORE_END,1516239837035,155
152,WS_SEND_START,1516239837035,155
152,WS_SEND_END,1516239837035,155
152,PLAYER_SLEEPBEFORE_START,1516239837035,156
152,PLAYER_SLEEPBEFORE_END,1516239840310,156
152,WS_SEND_START,1516239840310,156
152,WS_SEND_END,1516239840310,156
152,WS_RECV_START,1516239840310,157
152,WS_RECV_END,1516239841540,157
152,PLAYER_SLEEPBEFORE_START,1516239841540,158
152,PLAYER_SLEEPBEFORE_END,1516239841551,158
152,WS_SEND_START,1516239841551,158
152,WS_SEND_END,1516239841551,158
152,WS_RECV_START,1516239841551,159
152,WS_RECV_END,1516239842391,159
152,PLAYER_SLEEPBEFORE_START,1516239842391,160
152,PLAYER_SLEEPBEFORE_END,1516239842566,160
152,WS_SEND_START,1516239842566,160
152,WS_SEND_END,1516239842566,160
152,WS_RECV_START,1516239842566,161
152,WS_RECV_END,1516239843047,161
152,PLAYER_SLEEPBEFORE_START,1516239843047,162
152,PLAYER_SLEEPBEFORE_END,1516239843072,162
152,WS_SEND_START,1516239843072,162
152,WS_SEND_END,1516239843072,162
152,WS_RECV_START,1516239843072,163
152,WS_RECV_END,1516239843540,163
152,PLAYER_SLEEPBEFORE_START,1516239843540,164
152,PLAYER_SLEEPBEFORE_END,1516239864352,164
152,WS_SEND_START,1516239864352,164
152,WS_SEND_END,1516239864352,164
152,WS_RECV_START,1516239864352,165
152,WS_RECV_END,1516239864563,165
152,PLAYER_SLEEPBEFORE_START,1516239864563,166
152,PLAYER_SLEEPBEFORE_END,1516239887018,166
152,WS_SEND_START,1516239887018,166
152,WS_SEND_END,1516239887018,166
152,WS_RECV_START,1516239887018,167
152,WS_RECV_END,1516239887420,167
152,PLAYER_SLEEPBEFORE_START,1516239887420,168
152,PLAYER_SLEEPBEFORE_END,1516239914777,168
152,WS_SEND_START,1516239914777,168
152,WS_SEND_END,1516239914777,168
152,WS_RECV_START,1516239914777,169
152,WS_RECV_END,1516239914820,169
152,PLAYER_SLEEPBEFORE_START,1516239914820,170
152,PLAYER_SLEEPBEFORE_END,1516239914829,170
152,WS_SEND_START,1516239914829,170
152,WS_SEND_END,1516239914829,170
152,WS_RECV_START,1516239914829,171
152,WS_RECV_END,1516239914875,171
152,PLAYER_SLEEPBEFORE_START,1516239914875,172
152,PLAYER_SLEEPBEFORE_END,1516239915244,172
152,WS_SEND_START,1516239915244,172
152,WS_SEND_END,1516239915244,172
152,WS_RECV_START,1516239915244,173
152,WS_RECV_END,1516239915513,173
152,PLAYER_SLEEPBEFORE_START,1516239915514,174
152,PLAYER_SLEEPBEFORE_END,1516239915555,174
152,WS_SEND_START,1516239915555,174
152,WS_SEND_END,1516239915555,174
152,WS_RECV_START,1516239915555,175
152,WS_RECV_END,1516239915805,175
152,PLAYER_SLEEPBEFORE_START,1516239915805,176
152,PLAYER_SLEEPBEFORE_END,1516239937566,176
152,WS_SEND_START,1516239937566,176
152,WS_SEND_END,1516239937566,176
152,PLAYER_SLEEPBEFORE_START,1516239937566,177
152,PLAYER_SLEEPBEFORE_END,1516239940085,177
152,WS_SEND_START,1516239940085,177
152,WS_SEND_END,1516239940085,177
152,WS_RECV_START,1516239940085,178
152,WS_RECV_END,1516239940225,178
152,PLAYER_SLEEPBEFORE_START,1516239940225,179
152,PLAYER_SLEEPBEFORE_END,1516239962565,179
152,WS_SEND_START,1516239962566,179
152,WS_SEND_END,1516239962566,179
152,WS_RECV_START,1516239962566,180
152,WS_RECV_END,1516239963544,180
152,PLAYER_SLEEPBEFORE_START,1516239963544,181
152,PLAYER_SLEEPBEFORE_END,1516239963988,181
152,WS_SEND_START,1516239963988,181
152,WS_SEND_END,1516239963988,181
152,WS_RECV_START,1516239963988,182
152,WS_RECV_END,1516239966131,182
152,PLAYER_SLEEPBEFORE_START,1516239966131,183
152,PLAYER_SLEEPBEFORE_END,1516239966654,183
152,WS_SEND_START,1516239966654,183
152,WS_SEND_END,1516239966654,183
152,WS_RECV_START,1516239966654,184
152,WS_RECV_END,1516239967953,184
152,PLAYER_SLEEPBEFORE_START,1516239967953,185
152,PLAYER_SLEEPBEFORE_END,1516239968221,185
152,WS_SEND_START,1516239968221,185
152,WS_SEND_END,1516239968221,185
152,WS_RECV_START,1516239968221,186
152,WS_RECV_END,1516239968637,186
152,PLAYER_SLEEPBEFORE_START,1516239968637,187
152,PLAYER_SLEEPBEFORE_END,1516239991137,187
152,WS_SEND_START,1516239991137,187
152,WS_SEND_END,1516239991137,187
152,WS_RECV_START,1516239991137,188
152,WS_RECV_END,1516239993434,188
152,PLAYER_SLEEPBEFORE_START,1516239993434,189
152,PLAYER_SLEEPBEFORE_END,1516239999674,189
152,WS_SEND_START,1516239999674,189
152,WS_SEND_END,1516239999674,189
152,WS_RECV_START,1516239999674,190
152,WS_RECV_END,1516240001191,190
152,PLAYER_SLEEPBEFORE_START,1516240001191,191
152,PLAYER_SLEEPBEFORE_END,1516240003106,191
152,WS_SEND_START,1516240003106,191
152,WS_SEND_END,1516240003106,191
152,WS_RECV_START,1516240003106,192
152,WS_RECV_END,1516240004773,192
152,PLAYER_SLEEPBEFORE_START,1516240004773,193
152,PLAYER_SLEEPBEFORE_END,1516240004901,193
152,WS_SEND_START,1516240004901,193
152,WS_SEND_END,1516240004901,193
152,WS_RECV_START,1516240004901,194
152,WS_RECV_END,1516240007611,194
152,PLAYER_SLEEPBEFORE_START,1516240007611,195
152,PLAYER_SLEEPBEFORE_END,1516240009366,195
152,WS_SEND_START,1516240009366,195
152,WS_SEND_END,1516240009366,195
152,WS_RECV_START,1516240009366,196
152,WS_RECV_END,1516240011265,196
152,PLAYER_SLEEPBEFORE_START,1516240011265,197
152,PLAYER_SLEEPBEFORE_END,1516240013069,197
152,WS_SEND_START,1516240013069,197
152,WS_SEND_END,1516240013069,197
152,WS_RECV_START,1516240013069,198
152,WS_RECV_END,1516240015212,198
152,PLAYER_SLEEPBEFORE_START,1516240015212,199
152,PLAYER_SLEEPBEFORE_END,1516240027066,199
152,WS_SEND_START,1516240027066,199
152,WS_SEND_END,1516240027066,199
152,PLAYER_SLEEPBEFORE_START,1516240027066,200
152,PLAYER_SLEEPBEFORE_END,1516240031154,200
152,WS_SEND_START,1516240031154,200
152,WS_SEND_END,1516240031154,200
152,WS_RECV_START,1516240031154,201
152,WS_RECV_END,1516240032672,201
152,PLAYER_SLEEPBEFORE_START,1516240032672,202
152,PLAYER_SLEEPBEFORE_END,1516240032686,202
152,WS_SEND_START,1516240032686,202
152,WS_SEND_END,1516240032686,202
152,WS_RECV_START,1516240032686,203
152,WS_RECV_END,1516240034254,203
152,PLAYER_SLEEPBEFORE_START,1516240034254,204
152,PLAYER_SLEEPBEFORE_END,1516240053903,204
152,WS_SEND_START,1516240053903,204
152,WS_SEND_END,1516240053903,204
152,PLAYER_SLEEPBEFORE_START,1516240053903,205
152,PLAYER_SLEEPBEFORE_END,1516240057802,205
152,WS_SEND_START,1516240057802,205
152,WS_SEND_END,1516240057802,205
152,WS_RECV_START,1516240057802,206
152,WS_RECV_END,1516240058849,206
152,PLAYER_SLEEPBEFORE_START,1516240058849,207
152,PLAYER_SLEEPBEFORE_END,1516240075780,207
152,REQ_START,1516240075780,207
152,REQ_END,1516240075784,207
152,PLAYER_SLEEPBEFORE_START,1516240075784,208
152,PLAYER_SLEEPBEFORE_END,1516240082637,208
152,WS_CLOSE_START,1516240082637,208
152,WS_CLOSE_END,1516240082637,208
152,PLAYER_DONE,1516240082637
