# --sessions 1080 --app-url=http://shinyloadtest.rstudioservices.com/cran_explorer --output-dir test1080 --overwrite-output --log-level warn --start-interval 250 15min.log
thread_id,event,timestamp,input_line_number,comment
244,PLAYER_SESSION_CREATE,1516239120582
244,PLAYER_START_INTERVAL_START,1516239120582
244,PLAYER_START_INTERVAL_END,1516239181582
244,REQ_HOME_START,1516239181582,2
244,REQ_HOME_END,1516239181675,2
244,REQ_START,1516239181675,3
244,REQ_END,1516239181715,3
244,REQ_START,1516239181715,4
244,REQ_END,1516239181752,4
244,REQ_START,1516239181752,5
244,REQ_END,1516239181793,5
244,REQ_START,1516239181793,6
244,REQ_END,1516239181835,6
244,REQ_START,1516239181835,7
244,REQ_END,1516239181899,7
244,REQ_START,1516239181899,8
244,REQ_END,1516239181943,8
244,REQ_START,1516239181943,9
244,REQ_END,1516239182014,9
244,REQ_START,1516239182014,10
244,REQ_END,1516239182021,10
244,REQ_START,1516239182021,11
244,REQ_END,1516239182064,11
244,REQ_START,1516239182064,12
244,REQ_END,1516239182074,12
244,REQ_START,1516239182074,13
244,REQ_END,1516239182114,13
244,REQ_START,1516239182114,14
244,REQ_END,1516239182129,14
244,REQ_START,1516239182129,15
244,REQ_END,1516239182174,15
244,REQ_TOK_START,1516239182174,16
244,REQ_TOK_END,1516239182180,16
244,REQ_SINF_START,1516239182180,17
244,REQ_SINF_END,1516239182186,17
244,WS_OPEN_START,1516239182186,18
244,WS_OPEN_END,1516239182191,18
244,REQ_START,1516239182191,19
244,REQ_END,1516239186065,19
244,WS_RECV_START,1516239186065,20
244,WS_RECV_END,1516239186065,20
244,PLAYER_SLEEPBEFORE_START,1516239186065,21
244,PLAYER_SLEEPBEFORE_END,1516239186070,21
244,WS_SEND_START,1516239186070,21
244,WS_SEND_END,1516239186070,21
244,PLAYER_SLEEPBEFORE_START,1516239186070,22
244,PLAYER_SLEEPBEFORE_END,1516239186071,22
244,WS_SEND_START,1516239186071,22
244,WS_SEND_END,1516239186071,22
244,WS_RECV_INIT_START,1516239186071,23
244,WS_RECV_INIT_END,1516239187857,23
244,WS_RECV_START,1516239187857,24
244,WS_RECV_END,1516239187929,24
244,PLAYER_SLEEPBEFORE_START,1516239187929,25
244,PLAYER_SLEEPBEFORE_END,1516239187936,25
244,REQ_START,1516239187936,25
244,REQ_END,1516239187997,25
244,PLAYER_SLEEPBEFORE_START,1516239187997,26
244,PLAYER_SLEEPBEFORE_END,1516239187998,26
244,REQ_START,1516239187998,26
244,REQ_END,1516239188061,26
244,PLAYER_SLEEPBEFORE_START,1516239188061,27
244,PLAYER_SLEEPBEFORE_END,1516239188064,27
244,REQ_START,1516239188064,27
244,REQ_END,1516239188124,27
244,PLAYER_SLEEPBEFORE_START,1516239188124,28
244,PLAYER_SLEEPBEFORE_END,1516239188409,28
244,REQ_START,1516239188409,28
244,REQ_END,1516239188459,28
244,PLAYER_SLEEPBEFORE_START,1516239188459,29
244,PLAYER_SLEEPBEFORE_END,1516239188634,29
244,WS_SEND_START,1516239188634,29
244,WS_SEND_END,1516239188634,29
244,WS_RECV_START,1516239188634,30
244,WS_RECV_END,1516239188757,30
244,PLAYER_SLEEPBEFORE_START,1516239188757,31
244,PLAYER_SLEEPBEFORE_END,1516239188768,31
244,REQ_START,1516239188769,31
244,REQ_END,1516239188825,31
244,PLAYER_SLEEPBEFORE_START,1516239188825,32
244,PLAYER_SLEEPBEFORE_END,1516239216970,32
244,WS_SEND_START,1516239216970,32
244,WS_SEND_END,1516239216970,32
244,WS_RECV_START,1516239216970,33
244,WS_RECV_END,1516239217172,33
244,PLAYER_SLEEPBEFORE_START,1516239217172,34
244,PLAYER_SLEEPBEFORE_END,1516239243083,34
244,WS_SEND_START,1516239243083,34
244,WS_SEND_END,1516239243083,34
244,WS_RECV_START,1516239243083,35
244,WS_RECV_END,1516239243108,35
244,PLAYER_SLEEPBEFORE_START,1516239243108,36
244,PLAYER_SLEEPBEFORE_END,1516239243118,36
244,WS_SEND_START,1516239243118,36
244,WS_SEND_END,1516239243118,36
244,WS_RECV_START,1516239243118,37
244,WS_RECV_END,1516239243159,37
244,PLAYER_SLEEPBEFORE_START,1516239243159,38
244,PLAYER_SLEEPBEFORE_END,1516239246354,38
244,WS_SEND_START,1516239246354,38
244,WS_SEND_END,1516239246355,38
244,WS_RECV_START,1516239246355,39
244,WS_RECV_END,1516239246498,39
244,PLAYER_SLEEPBEFORE_START,1516239246498,40
244,PLAYER_SLEEPBEFORE_END,1516239246544,40
244,WS_SEND_START,1516239246544,40
244,WS_SEND_END,1516239246544,40
244,WS_RECV_START,1516239246544,41
244,WS_RECV_END,1516239246646,41
244,PLAYER_SLEEPBEFORE_START,1516239246646,42
244,PLAYER_SLEEPBEFORE_END,1516239264781,42
244,WS_SEND_START,1516239264781,42
244,WS_SEND_END,1516239264781,42
244,WS_RECV_START,1516239264781,43
244,WS_RECV_END,1516239264855,43
244,PLAYER_SLEEPBEFORE_START,1516239264855,44
244,PLAYER_SLEEPBEFORE_END,1516239264867,44
244,WS_SEND_START,1516239264867,44
244,WS_SEND_END,1516239264867,44
244,WS_RECV_START,1516239264867,45
244,WS_RECV_END,1516239264907,45
244,PLAYER_SLEEPBEFORE_START,1516239264907,46
244,PLAYER_SLEEPBEFORE_END,1516239266167,46
244,WS_SEND_START,1516239266167,46
244,WS_SEND_END,1516239266167,46
244,WS_RECV_START,1516239266167,47
244,WS_RECV_END,1516239266208,47
244,PLAYER_SLEEPBEFORE_START,1516239266208,48
244,PLAYER_SLEEPBEFORE_END,1516239267528,48
244,WS_SEND_START,1516239267528,48
244,WS_SEND_END,1516239267528,48
244,WS_RECV_START,1516239267528,49
244,WS_RECV_END,1516239267647,49
244,PLAYER_SLEEPBEFORE_START,1516239267647,50
244,PLAYER_SLEEPBEFORE_END,1516239267671,50
244,WS_SEND_START,1516239267671,50
244,WS_SEND_END,1516239267672,50
244,WS_RECV_START,1516239267672,51
244,WS_RECV_END,1516239267795,51
244,PLAYER_SLEEPBEFORE_START,1516239267795,52
244,PLAYER_SLEEPBEFORE_END,1516239290359,52
244,WS_SEND_START,1516239290359,52
244,WS_SEND_END,1516239290359,52
244,WS_RECV_START,1516239290359,53
244,WS_RECV_END,1516239290495,53
244,PLAYER_SLEEPBEFORE_START,1516239290495,54
244,PLAYER_SLEEPBEFORE_END,1516239311798,54
244,WS_SEND_START,1516239311798,54
244,WS_SEND_END,1516239311798,54
244,PLAYER_SLEEPBEFORE_START,1516239311798,55
244,PLAYER_SLEEPBEFORE_END,1516239313739,55
244,WS_SEND_START,1516239313739,55
244,WS_SEND_END,1516239313739,55
244,WS_RECV_START,1516239313739,56
244,WS_RECV_END,1516239313815,56
244,PLAYER_SLEEPBEFORE_START,1516239313815,57
244,PLAYER_SLEEPBEFORE_END,1516239336687,57
244,WS_SEND_START,1516239336687,57
244,WS_SEND_END,1516239336687,57
244,WS_RECV_START,1516239336687,58
244,WS_RECV_END,1516239337280,58
244,PLAYER_SLEEPBEFORE_START,1516239337280,59
244,PLAYER_SLEEPBEFORE_END,1516239339607,59
244,WS_SEND_START,1516239339607,59
244,WS_SEND_END,1516239339607,59
244,WS_RECV_START,1516239339607,60
244,WS_RECV_END,1516239339690,60
244,PLAYER_SLEEPBEFORE_START,1516239339690,61
244,PLAYER_SLEEPBEFORE_END,1516239343281,61
244,WS_SEND_START,1516239343281,61
244,WS_SEND_END,1516239343281,61
244,WS_RECV_START,1516239343281,62
244,WS_RECV_END,1516239343539,62
244,PLAYER_SLEEPBEFORE_START,1516239343539,63
244,PLAYER_SLEEPBEFORE_END,1516239362801,63
244,WS_SEND_START,1516239362801,63
244,WS_SEND_END,1516239362801,63
244,WS_RECV_START,1516239362801,64
244,WS_RECV_END,1516239363013,64
244,PLAYER_SLEEPBEFORE_START,1516239363013,65
244,PLAYER_SLEEPBEFORE_END,1516239389830,65
244,WS_SEND_START,1516239389830,65
244,WS_SEND_END,1516239389830,65
244,WS_RECV_START,1516239389830,66
244,WS_RECV_END,1516239389964,66
244,PLAYER_SLEEPBEFORE_START,1516239389964,67
244,PLAYER_SLEEPBEFORE_END,1516239391471,67
244,WS_SEND_START,1516239391471,67
244,WS_SEND_END,1516239391471,67
244,WS_RECV_START,1516239391471,68
244,WS_RECV_END,1516239391638,68
244,PLAYER_SLEEPBEFORE_START,1516239391638,69
244,PLAYER_SLEEPBEFORE_END,1516239413637,69
244,WS_SEND_START,1516239413637,69
244,WS_SEND_END,1516239413637,69
244,WS_RECV_START,1516239413637,70
244,WS_RECV_END,1516239413777,70
244,PLAYER_SLEEPBEFORE_START,1516239413777,71
244,PLAYER_SLEEPBEFORE_END,1516239438552,71
244,WS_SEND_START,1516239438552,71
244,WS_SEND_END,1516239438552,71
244,PLAYER_SLEEPBEFORE_START,1516239438552,72
244,PLAYER_SLEEPBEFORE_END,1516239441159,72
244,WS_SEND_START,1516239441159,72
244,WS_SEND_END,1516239441159,72
244,WS_RECV_START,1516239441159,73
244,WS_RECV_END,1516239442240,73
244,PLAYER_SLEEPBEFORE_START,1516239442240,74
244,PLAYER_SLEEPBEFORE_END,1516239442259,74
244,WS_SEND_START,1516239442259,74
244,WS_SEND_END,1516239442260,74
244,WS_RECV_START,1516239442260,75
244,WS_RECV_END,1516239442811,75
244,PLAYER_SLEEPBEFORE_START,1516239442811,76
244,PLAYER_SLEEPBEFORE_END,1516239444317,76
244,WS_SEND_START,1516239444317,76
244,WS_SEND_END,1516239444317,76
244,WS_RECV_START,1516239444318,77
244,WS_RECV_END,1516239444353,77
244,PLAYER_SLEEPBEFORE_START,1516239444353,78
244,PLAYER_SLEEPBEFORE_END,1516239445221,78
244,WS_SEND_START,1516239445221,78
244,WS_SEND_END,1516239445221,78
244,WS_RECV_START,1516239445221,79
244,WS_RECV_END,1516239445258,79
244,PLAYER_SLEEPBEFORE_START,1516239445258,80
244,PLAYER_SLEEPBEFORE_END,1516239452924,80
244,WS_SEND_START,1516239452924,80
244,WS_SEND_END,1516239452924,80
244,WS_RECV_START,1516239452924,81
244,WS_RECV_END,1516239452965,81
244,PLAYER_SLEEPBEFORE_START,1516239452965,82
244,PLAYER_SLEEPBEFORE_END,1516239454067,82
244,WS_SEND_START,1516239454067,82
244,WS_SEND_END,1516239454067,82
244,WS_RECV_START,1516239454067,83
244,WS_RECV_END,1516239454092,83
244,PLAYER_SLEEPBEFORE_START,1516239454092,84
244,PLAYER_SLEEPBEFORE_END,1516239455039,84
244,WS_SEND_START,1516239455039,84
244,WS_SEND_END,1516239455039,84
244,WS_RECV_START,1516239455039,85
244,WS_RECV_END,1516239455145,85
244,PLAYER_SLEEPBEFORE_START,1516239455145,86
244,PLAYER_SLEEPBEFORE_END,1516239459317,86
244,WS_SEND_START,1516239459317,86
244,WS_SEND_END,1516239459317,86
244,WS_RECV_START,1516239459317,87
244,WS_RECV_END,1516239459642,87
244,PLAYER_SLEEPBEFORE_START,1516239459642,88
244,PLAYER_SLEEPBEFORE_END,1516239459650,88
244,WS_SEND_START,1516239459650,88
244,WS_SEND_END,1516239459650,88
244,WS_RECV_START,1516239459650,89
244,WS_RECV_END,1516239459826,89
244,PLAYER_SLEEPBEFORE_START,1516239459826,90
244,PLAYER_SLEEPBEFORE_END,1516239487023,90
244,REQ_START,1516239487023,90
244,REQ_END,1516239487029,90
244,PLAYER_SLEEPBEFORE_START,1516239487030,91
244,PLAYER_SLEEPBEFORE_END,1516239494919,91
244,WS_SEND_START,1516239494919,91
244,WS_SEND_END,1516239494919,91
244,WS_RECV_START,1516239494919,92
244,WS_RECV_END,1516239495610,92
244,PLAYER_SLEEPBEFORE_START,1516239495610,93
244,PLAYER_SLEEPBEFORE_END,1516239495625,93
244,WS_SEND_START,1516239495625,93
244,WS_SEND_END,1516239495625,93
244,WS_RECV_START,1516239495625,94
244,WS_RECV_END,1516239496367,94
244,PLAYER_SLEEPBEFORE_START,1516239496367,95
244,PLAYER_SLEEPBEFORE_END,1516239519922,95
244,WS_SEND_START,1516239519922,95
244,WS_SEND_END,1516239519923,95
244,WS_RECV_START,1516239519923,96
244,WS_RECV_END,1516239520104,96
244,PLAYER_SLEEPBEFORE_START,1516239520104,97
244,PLAYER_SLEEPBEFORE_END,1516239542544,97
244,WS_SEND_START,1516239542544,97
244,WS_SEND_END,1516239542544,97
244,WS_RECV_START,1516239542544,98
244,WS_RECV_END,1516239542853,98
244,PLAYER_SLEEPBEFORE_START,1516239542853,99
244,PLAYER_SLEEPBEFORE_END,1516239542874,99
244,WS_SEND_START,1516239542874,99
244,WS_SEND_END,1516239542874,99
244,WS_RECV_START,1516239542874,100
244,WS_RECV_END,1516239543514,100
244,PLAYER_SLEEPBEFORE_START,1516239543514,101
244,PLAYER_SLEEPBEFORE_END,1516239567073,101
244,WS_SEND_START,1516239567073,101
244,WS_SEND_END,1516239567073,101
244,WS_RECV_START,1516239567073,102
244,WS_RECV_END,1516239567493,102
244,PLAYER_SLEEPBEFORE_START,1516239567493,103
244,PLAYER_SLEEPBEFORE_END,1516239591118,103
244,WS_SEND_START,1516239591118,103
244,WS_SEND_END,1516239591118,103
244,WS_RECV_START,1516239591118,104
244,WS_RECV_END,1516239591889,104
244,PLAYER_SLEEPBEFORE_START,1516239591889,105
244,PLAYER_SLEEPBEFORE_END,1516239617266,105
244,WS_SEND_START,1516239617266,105
244,WS_SEND_END,1516239617266,105
244,WS_RECV_START,1516239617266,106
244,WS_RECV_END,1516239617509,106
244,PLAYER_SLEEPBEFORE_START,1516239617509,107
244,PLAYER_SLEEPBEFORE_END,1516239640932,107
244,WS_SEND_START,1516239640932,107
244,WS_SEND_END,1516239640932,107
244,WS_RECV_START,1516239640932,108
244,WS_RECV_END,1516239640977,108
244,PLAYER_SLEEPBEFORE_START,1516239640977,109
244,PLAYER_SLEEPBEFORE_END,1516239640986,109
244,WS_SEND_START,1516239640986,109
244,WS_SEND_END,1516239640986,109
244,WS_RECV_START,1516239640986,110
244,WS_RECV_END,1516239641059,110
244,PLAYER_SLEEPBEFORE_START,1516239641059,111
244,PLAYER_SLEEPBEFORE_END,1516239642018,111
244,WS_SEND_START,1516239642018,111
244,WS_SEND_END,1516239642018,111
244,WS_RECV_START,1516239642018,112
244,WS_RECV_END,1516239642556,112
244,PLAYER_SLEEPBEFORE_START,1516239642556,113
244,PLAYER_SLEEPBEFORE_END,1516239643118,113
244,WS_SEND_START,1516239643118,113
244,WS_SEND_END,1516239643118,113
244,WS_RECV_START,1516239643118,114
244,WS_RECV_END,1516239643322,114
244,PLAYER_SLEEPBEFORE_START,1516239643322,115
244,PLAYER_SLEEPBEFORE_END,1516239643331,115
244,WS_SEND_START,1516239643331,115
244,WS_SEND_END,1516239643331,115
244,WS_RECV_START,1516239643331,116
244,WS_RECV_END,1516239643523,116
244,PLAYER_SLEEPBEFORE_START,1516239643523,117
244,PLAYER_SLEEPBEFORE_END,1516239663883,117
244,WS_SEND_START,1516239663883,117
244,WS_SEND_END,1516239663883,117
244,PLAYER_SLEEPBEFORE_START,1516239663883,118
244,PLAYER_SLEEPBEFORE_END,1516239667639,118
244,WS_SEND_START,1516239667639,118
244,WS_SEND_END,1516239667639,118
244,WS_RECV_START,1516239667639,119
244,WS_RECV_END,1516239667918,119
244,PLAYER_SLEEPBEFORE_START,1516239667918,120
244,PLAYER_SLEEPBEFORE_END,1516239668906,120
244,WS_SEND_START,1516239668906,120
244,WS_SEND_END,1516239668906,120
244,WS_RECV_START,1516239668906,121
244,WS_RECV_END,1516239669045,121
244,PLAYER_SLEEPBEFORE_START,1516239669045,122
244,PLAYER_SLEEPBEFORE_END,1516239670233,122
244,WS_SEND_START,1516239670233,122
244,WS_SEND_END,1516239670233,122
244,WS_RECV_START,1516239670233,123
244,WS_RECV_END,1516239670412,123
244,PLAYER_SLEEPBEFORE_START,1516239670412,124
244,PLAYER_SLEEPBEFORE_END,1516239694817,124
244,WS_SEND_START,1516239694817,124
244,WS_SEND_END,1516239694817,124
244,WS_RECV_START,1516239694817,125
244,WS_RECV_END,1516239694941,125
244,PLAYER_SLEEPBEFORE_START,1516239694941,126
244,PLAYER_SLEEPBEFORE_END,1516239715453,126
244,WS_SEND_START,1516239715453,126
244,WS_SEND_END,1516239715453,126
244,PLAYER_SLEEPBEFORE_START,1516239715453,127
244,PLAYER_SLEEPBEFORE_END,1516239718507,127
244,WS_SEND_START,1516239718507,127
244,WS_SEND_END,1516239718507,127
244,WS_RECV_START,1516239718507,128
244,WS_RECV_END,1516239719036,128
244,PLAYER_SLEEPBEFORE_START,1516239719036,129
244,PLAYER_SLEEPBEFORE_END,1516239719057,129
244,WS_SEND_START,1516239719057,129
244,WS_SEND_END,1516239719057,129
244,WS_RECV_START,1516239719057,130
244,WS_RECV_END,1516239720102,130
244,PLAYER_SLEEPBEFORE_START,1516239720102,131
244,PLAYER_SLEEPBEFORE_END,1516239741726,131
244,WS_SEND_START,1516239741726,131
244,WS_SEND_END,1516239741726,131
244,PLAYER_SLEEPBEFORE_START,1516239741726,132
244,PLAYER_SLEEPBEFORE_END,1516239744806,132
244,WS_SEND_START,1516239744806,132
244,WS_SEND_END,1516239744806,132
244,WS_RECV_START,1516239744806,133
244,WS_RECV_END,1516239744960,133
244,PLAYER_SLEEPBEFORE_START,1516239744960,134
244,PLAYER_SLEEPBEFORE_END,1516239766177,134
244,WS_SEND_START,1516239766177,134
244,WS_SEND_END,1516239766177,134
244,PLAYER_SLEEPBEFORE_START,1516239766177,135
244,PLAYER_SLEEPBEFORE_END,1516239769367,135
244,WS_SEND_START,1516239769367,135
244,WS_SEND_END,1516239769367,135
244,WS_RECV_START,1516239769367,136
244,WS_RECV_END,1516239769507,136
244,PLAYER_SLEEPBEFORE_START,1516239769507,137
244,PLAYER_SLEEPBEFORE_END,1516239769514,137
244,WS_SEND_START,1516239769514,137
244,WS_SEND_END,1516239769515,137
244,WS_RECV_START,1516239769515,138
244,WS_RECV_END,1516239769555,138
244,PLAYER_SLEEPBEFORE_START,1516239769555,139
244,PLAYER_SLEEPBEFORE_END,1516239770245,139
244,WS_SEND_START,1516239770245,139
244,WS_SEND_END,1516239770245,139
244,WS_RECV_START,1516239770245,140
244,WS_RECV_END,1516239770302,140
244,PLAYER_SLEEPBEFORE_START,1516239770302,141
244,PLAYER_SLEEPBEFORE_END,1516239770957,141
244,WS_SEND_START,1516239770957,141
244,WS_SEND_END,1516239770957,141
244,WS_RECV_START,1516239770957,142
244,WS_RECV_END,1516239771260,142
244,PLAYER_SLEEPBEFORE_START,1516239771260,143
244,PLAYER_SLEEPBEFORE_END,1516239771317,143
244,WS_SEND_START,1516239771317,143
244,WS_SEND_END,1516239771317,143
244,WS_RECV_START,1516239771317,144
244,WS_RECV_END,1516239771836,144
244,PLAYER_SLEEPBEFORE_START,1516239771836,145
244,PLAYER_SLEEPBEFORE_END,1516239787898,145
244,REQ_START,1516239787898,145
244,REQ_END,1516239787903,145
244,PLAYER_SLEEPBEFORE_START,1516239787903,146
244,PLAYER_SLEEPBEFORE_END,1516239796780,146
244,WS_SEND_START,1516239796780,146
244,WS_SEND_END,1516239796780,146
244,WS_RECV_START,1516239796780,147
244,WS_RECV_END,1516239797226,147
244,PLAYER_SLEEPBEFORE_START,1516239797226,148
244,PLAYER_SLEEPBEFORE_END,1516239819148,148
244,WS_SEND_START,1516239819148,148
244,WS_SEND_END,1516239819148,148
244,PLAYER_SLEEPBEFORE_START,1516239819148,149
244,PLAYER_SLEEPBEFORE_END,1516239821586,149
244,WS_SEND_START,1516239821586,149
244,WS_SEND_END,1516239821586,149
244,WS_RECV_START,1516239821586,150
244,WS_RECV_END,1516239821786,150
244,PLAYER_SLEEPBEFORE_START,1516239821786,151
244,PLAYER_SLEEPBEFORE_END,1516239821996,151
244,WS_SEND_START,1516239821996,151
244,WS_SEND_END,1516239821996,151
244,WS_RECV_START,1516239821996,152
244,WS_RECV_END,1516239822292,152
244,PLAYER_SLEEPBEFORE_START,1516239822292,153
244,PLAYER_SLEEPBEFORE_END,1516239846219,153
244,WS_SEND_START,1516239846219,153
244,WS_SEND_END,1516239846219,153
244,WS_RECV_START,1516239846219,154
244,WS_RECV_END,1516239846454,154
244,PLAYER_SLEEPBEFORE_START,1516239846454,155
244,PLAYER_SLEEPBEFORE_END,1516239869012,155
244,WS_SEND_START,1516239869012,155
244,WS_SEND_END,1516239869012,155
244,PLAYER_SLEEPBEFORE_START,1516239869012,156
244,PLAYER_SLEEPBEFORE_END,1516239872286,156
244,WS_SEND_START,1516239872286,156
244,WS_SEND_END,1516239872286,156
244,WS_RECV_START,1516239872286,157
244,WS_RECV_END,1516239872327,157
244,PLAYER_SLEEPBEFORE_START,1516239872327,158
244,PLAYER_SLEEPBEFORE_END,1516239872337,158
244,WS_SEND_START,1516239872337,158
244,WS_SEND_END,1516239872337,158
244,WS_RECV_START,1516239872337,159
244,WS_RECV_END,1516239872379,159
244,PLAYER_SLEEPBEFORE_START,1516239872379,160
244,PLAYER_SLEEPBEFORE_END,1516239872554,160
244,WS_SEND_START,1516239872554,160
244,WS_SEND_END,1516239872554,160
244,WS_RECV_START,1516239872554,161
244,WS_RECV_END,1516239872687,161
244,PLAYER_SLEEPBEFORE_START,1516239872687,162
244,PLAYER_SLEEPBEFORE_END,1516239872712,162
244,WS_SEND_START,1516239872712,162
244,WS_SEND_END,1516239872712,162
244,WS_RECV_START,1516239872712,163
244,WS_RECV_END,1516239872858,163
244,PLAYER_SLEEPBEFORE_START,1516239872858,164
244,PLAYER_SLEEPBEFORE_END,1516239893671,164
244,WS_SEND_START,1516239893671,164
244,WS_SEND_END,1516239893671,164
244,WS_RECV_START,1516239893671,165
244,WS_RECV_END,1516239895771,165
244,PLAYER_SLEEPBEFORE_START,1516239895771,166
244,PLAYER_SLEEPBEFORE_END,1516239918226,166
244,WS_SEND_START,1516239918226,166
244,WS_SEND_END,1516239918226,166
244,WS_RECV_START,1516239918226,167
244,WS_RECV_END,1516239918747,167
244,PLAYER_SLEEPBEFORE_START,1516239918747,168
244,PLAYER_SLEEPBEFORE_END,1516239946104,168
244,WS_SEND_START,1516239946104,168
244,WS_SEND_END,1516239946104,168
244,WS_RECV_START,1516239946104,169
244,WS_RECV_END,1516239946266,169
244,PLAYER_SLEEPBEFORE_START,1516239946266,170
244,PLAYER_SLEEPBEFORE_END,1516239946275,170
244,WS_SEND_START,1516239946275,170
244,WS_SEND_END,1516239946275,170
244,WS_RECV_START,1516239946275,171
244,WS_RECV_END,1516239946499,171
244,PLAYER_SLEEPBEFORE_START,1516239946499,172
244,PLAYER_SLEEPBEFORE_END,1516239946868,172
244,WS_SEND_START,1516239946868,172
244,WS_SEND_END,1516239946868,172
244,WS_RECV_START,1516239946868,173
244,WS_RECV_END,1516239947328,173
244,PLAYER_SLEEPBEFORE_START,1516239947328,174
244,PLAYER_SLEEPBEFORE_END,1516239947369,174
244,WS_SEND_START,1516239947369,174
244,WS_SEND_END,1516239947369,174
244,WS_RECV_START,1516239947369,175
244,WS_RECV_END,1516239948055,175
244,PLAYER_SLEEPBEFORE_START,1516239948055,176
244,PLAYER_SLEEPBEFORE_END,1516239969817,176
244,WS_SEND_START,1516239969817,176
244,WS_SEND_END,1516239969817,176
244,PLAYER_SLEEPBEFORE_START,1516239969817,177
244,PLAYER_SLEEPBEFORE_END,1516239972335,177
244,WS_SEND_START,1516239972335,177
244,WS_SEND_END,1516239972335,177
244,WS_RECV_START,1516239972335,178
244,WS_RECV_END,1516239972871,178
244,PLAYER_SLEEPBEFORE_START,1516239972871,179
244,PLAYER_SLEEPBEFORE_END,1516239995211,179
244,WS_SEND_START,1516239995211,179
244,WS_SEND_END,1516239995211,179
244,WS_RECV_START,1516239995211,180
244,WS_RECV_END,1516239998267,180
244,PLAYER_SLEEPBEFORE_START,1516239998267,181
244,PLAYER_SLEEPBEFORE_END,1516239998711,181
244,WS_SEND_START,1516239998711,181
244,WS_SEND_END,1516239998711,181
244,WS_RECV_START,1516239998711,182
244,WS_RECV_END,1516239999402,182
244,PLAYER_SLEEPBEFORE_START,1516239999402,183
244,PLAYER_SLEEPBEFORE_END,1516239999925,183
244,WS_SEND_START,1516239999925,183
244,WS_SEND_END,1516239999925,183
244,WS_RECV_START,1516239999925,184
244,WS_RECV_END,1516240001318,184
244,PLAYER_SLEEPBEFORE_START,1516240001318,185
244,PLAYER_SLEEPBEFORE_END,1516240001586,185
244,WS_SEND_START,1516240001586,185
244,WS_SEND_END,1516240001586,185
244,WS_RECV_START,1516240001586,186
244,WS_RECV_END,1516240003532,186
244,PLAYER_SLEEPBEFORE_START,1516240003532,187
244,PLAYER_SLEEPBEFORE_END,1516240026032,187
244,WS_SEND_START,1516240026032,187
244,WS_SEND_END,1516240026032,187
244,WS_RECV_START,1516240026032,188
244,WS_RECV_END,1516240029528,188
244,PLAYER_SLEEPBEFORE_START,1516240029528,189
244,PLAYER_SLEEPBEFORE_END,1516240035767,189
244,WS_SEND_START,1516240035767,189
244,WS_SEND_END,1516240035767,189
244,WS_RECV_START,1516240035767,190
244,WS_RECV_END,1516240038260,190
244,PLAYER_SLEEPBEFORE_START,1516240038260,191
244,PLAYER_SLEEPBEFORE_END,1516240040175,191
244,WS_SEND_START,1516240040175,191
244,WS_SEND_END,1516240040175,191
244,WS_RECV_START,1516240040175,192
244,WS_RECV_END,1516240043717,192
244,PLAYER_SLEEPBEFORE_START,1516240043717,193
244,PLAYER_SLEEPBEFORE_END,1516240043846,193
244,WS_SEND_START,1516240043846,193
244,WS_SEND_END,1516240043846,193
244,WS_RECV_START,1516240043846,194
244,WS_RECV_END,1516240045518,194
244,PLAYER_SLEEPBEFORE_START,1516240045518,195
244,PLAYER_SLEEPBEFORE_END,1516240047273,195
244,WS_SEND_START,1516240047273,195
244,WS_SEND_END,1516240047273,195
244,WS_RECV_START,1516240047273,196
244,WS_RECV_END,1516240049445,196
244,PLAYER_SLEEPBEFORE_START,1516240049445,197
244,PLAYER_SLEEPBEFORE_END,1516240051250,197
244,WS_SEND_START,1516240051250,197
244,WS_SEND_END,1516240051250,197
244,WS_RECV_START,1516240051250,198
244,WS_RECV_END,1516240052734,198
244,PLAYER_SLEEPBEFORE_START,1516240052734,199
244,PLAYER_SLEEPBEFORE_END,1516240064588,199
244,WS_SEND_START,1516240064588,199
244,WS_SEND_END,1516240064588,199
244,PLAYER_SLEEPBEFORE_START,1516240064588,200
244,PLAYER_SLEEPBEFORE_END,1516240068676,200
244,WS_SEND_START,1516240068676,200
244,WS_SEND_END,1516240068676,200
244,WS_RECV_START,1516240068676,201
244,WS_RECV_END,1516240069989,201
244,PLAYER_SLEEPBEFORE_START,1516240069989,202
244,PLAYER_SLEEPBEFORE_END,1516240070003,202
244,WS_SEND_START,1516240070003,202
244,WS_SEND_END,1516240070003,202
244,WS_RECV_START,1516240070003,203
244,WS_RECV_END,1516240071227,203
244,PLAYER_SLEEPBEFORE_START,1516240071227,204
244,PLAYER_SLEEPBEFORE_END,1516240090876,204
244,WS_SEND_START,1516240090876,204
244,WS_SEND_END,1516240090876,204
244,PLAYER_SLEEPBEFORE_START,1516240090876,205
244,PLAYER_SLEEPBEFORE_END,1516240094774,205
244,WS_SEND_START,1516240094774,205
244,WS_SEND_END,1516240094774,205
244,WS_RECV_START,1516240094774,206
244,WS_RECV_END,1516240095125,206
244,PLAYER_SLEEPBEFORE_START,1516240095125,207
244,PLAYER_SLEEPBEFORE_END,1516240112057,207
244,REQ_START,1516240112057,207
244,REQ_END,1516240112061,207
244,PLAYER_SLEEPBEFORE_START,1516240112061,208
244,PLAYER_SLEEPBEFORE_END,1516240118913,208
244,WS_CLOSE_START,1516240118913,208
244,WS_CLOSE_END,1516240118913,208
244,PLAYER_DONE,1516240118913
