# --sessions 1080 --app-url=http://shinyloadtest.rstudioservices.com/cran_explorer --output-dir test1080 --overwrite-output --log-level warn --start-interval 250 15min.log
thread_id,event,timestamp,input_line_number,comment
394,PLAYER_SESSION_CREATE,1516239120614
394,PLAYER_START_INTERVAL_START,1516239120614
394,PLAYER_START_INTERVAL_END,1516239219115
394,REQ_HOME_START,1516239219115,2
394,REQ_HOME_END,1516239219208,2
394,REQ_START,1516239219208,3
394,REQ_END,1516239219239,3
394,REQ_START,1516239219239,4
394,REQ_END,1516239219271,4
394,REQ_START,1516239219271,5
394,REQ_END,1516239219330,5
394,REQ_START,1516239219330,6
394,REQ_END,1516239219364,6
394,REQ_START,1516239219364,7
394,REQ_END,1516239219396,7
394,REQ_START,1516239219396,8
394,REQ_END,1516239219428,8
394,REQ_START,1516239219428,9
394,REQ_END,1516239219459,9
394,REQ_START,1516239219459,10
394,REQ_END,1516239219466,10
394,REQ_START,1516239219466,11
394,REQ_END,1516239219499,11
394,REQ_START,1516239219499,12
394,REQ_END,1516239219507,12
394,REQ_START,1516239219507,13
394,REQ_END,1516239219536,13
394,REQ_START,1516239219536,14
394,REQ_END,1516239219548,14
394,REQ_START,1516239219548,15
394,REQ_END,1516239219579,15
394,REQ_TOK_START,1516239219579,16
394,REQ_TOK_END,1516239219585,16
394,REQ_SINF_START,1516239219585,17
394,REQ_SINF_END,1516239219592,17
394,WS_OPEN_START,1516239219592,18
394,WS_OPEN_END,1516239219598,18
394,REQ_START,1516239219598,19
394,REQ_END,1516239219662,19
394,WS_RECV_START,1516239219662,20
394,WS_RECV_END,1516239219662,20
394,PLAYER_SLEEPBEFORE_START,1516239219662,21
394,PLAYER_SLEEPBEFORE_END,1516239219667,21
394,WS_SEND_START,1516239219667,21
394,WS_SEND_END,1516239219667,21
394,PLAYER_SLEEPBEFORE_START,1516239219667,22
394,PLAYER_SLEEPBEFORE_END,1516239219668,22
394,WS_SEND_START,1516239219668,22
394,WS_SEND_END,1516239219668,22
394,WS_RECV_INIT_START,1516239219668,23
394,WS_RECV_INIT_END,1516239219735,23
394,WS_RECV_START,1516239219735,24
394,WS_RECV_END,1516239219799,24
394,PLAYER_SLEEPBEFORE_START,1516239219799,25
394,PLAYER_SLEEPBEFORE_END,1516239219806,25
394,REQ_START,1516239219806,25
394,REQ_END,1516239219926,25
394,PLAYER_SLEEPBEFORE_START,1516239219926,26
394,PLAYER_SLEEPBEFORE_END,1516239219928,26
394,REQ_START,1516239219928,26
394,REQ_END,1516239219955,26
394,PLAYER_SLEEPBEFORE_START,1516239219955,27
394,PLAYER_SLEEPBEFORE_END,1516239219958,27
394,REQ_START,1516239219958,27
394,REQ_END,1516239219994,27
394,PLAYER_SLEEPBEFORE_START,1516239219994,28
394,PLAYER_SLEEPBEFORE_END,1516239220279,28
394,REQ_START,1516239220279,28
394,REQ_END,1516239220307,28
394,PLAYER_SLEEPBEFORE_START,1516239220307,29
394,PLAYER_SLEEPBEFORE_END,1516239220482,29
394,WS_SEND_START,1516239220482,29
394,WS_SEND_END,1516239220482,29
394,WS_RECV_START,1516239220482,30
394,WS_RECV_END,1516239220613,30
394,PLAYER_SLEEPBEFORE_START,1516239220613,31
394,PLAYER_SLEEPBEFORE_END,1516239220624,31
394,REQ_START,1516239220624,31
394,REQ_END,1516239220779,31
394,PLAYER_SLEEPBEFORE_START,1516239220779,32
394,PLAYER_SLEEPBEFORE_END,1516239248924,32
394,WS_SEND_START,1516239248924,32
394,WS_SEND_END,1516239248924,32
394,WS_RECV_START,1516239248924,33
394,WS_RECV_END,1516239249033,33
394,PLAYER_SLEEPBEFORE_START,1516239249033,34
394,PLAYER_SLEEPBEFORE_END,1516239274944,34
394,WS_SEND_START,1516239274944,34
394,WS_SEND_END,1516239274944,34
394,WS_RECV_START,1516239274944,35
394,WS_RECV_END,1516239274987,35
394,PLAYER_SLEEPBEFORE_START,1516239274987,36
394,PLAYER_SLEEPBEFORE_END,1516239274996,36
394,WS_SEND_START,1516239274996,36
394,WS_SEND_END,1516239274996,36
394,WS_RECV_START,1516239274996,37
394,WS_RECV_END,1516239275038,37
394,PLAYER_SLEEPBEFORE_START,1516239275038,38
394,PLAYER_SLEEPBEFORE_END,1516239278233,38
394,WS_SEND_START,1516239278233,38
394,WS_SEND_END,1516239278233,38
394,WS_RECV_START,1516239278233,39
394,WS_RECV_END,1516239278370,39
394,PLAYER_SLEEPBEFORE_START,1516239278370,40
394,PLAYER_SLEEPBEFORE_END,1516239278417,40
394,WS_SEND_START,1516239278417,40
394,WS_SEND_END,1516239278417,40
394,WS_RECV_START,1516239278417,41
394,WS_RECV_END,1516239278549,41
394,PLAYER_SLEEPBEFORE_START,1516239278549,42
394,PLAYER_SLEEPBEFORE_END,1516239296684,42
394,WS_SEND_START,1516239296684,42
394,WS_SEND_END,1516239296684,42
394,WS_RECV_START,1516239296684,43
394,WS_RECV_END,1516239296801,43
394,PLAYER_SLEEPBEFORE_START,1516239296801,44
394,PLAYER_SLEEPBEFORE_END,1516239296813,44
394,WS_SEND_START,1516239296813,44
394,WS_SEND_END,1516239296813,44
394,WS_RECV_START,1516239296813,45
394,WS_RECV_END,1516239296854,45
394,PLAYER_SLEEPBEFORE_START,1516239296854,46
394,PLAYER_SLEEPBEFORE_END,1516239298114,46
394,WS_SEND_START,1516239298114,46
394,WS_SEND_END,1516239298114,46
394,WS_RECV_START,1516239298114,47
394,WS_RECV_END,1516239298147,47
394,PLAYER_SLEEPBEFORE_START,1516239298147,48
394,PLAYER_SLEEPBEFORE_END,1516239299467,48
394,WS_SEND_START,1516239299467,48
394,WS_SEND_END,1516239299467,48
394,WS_RECV_START,1516239299467,49
394,WS_RECV_END,1516239299555,49
394,PLAYER_SLEEPBEFORE_START,1516239299555,50
394,PLAYER_SLEEPBEFORE_END,1516239299580,50
394,WS_SEND_START,1516239299580,50
394,WS_SEND_END,1516239299580,50
394,WS_RECV_START,1516239299580,51
394,WS_RECV_END,1516239299833,51
394,PLAYER_SLEEPBEFORE_START,1516239299833,52
394,PLAYER_SLEEPBEFORE_END,1516239322397,52
394,WS_SEND_START,1516239322397,52
394,WS_SEND_END,1516239322397,52
394,WS_RECV_START,1516239322397,53
394,WS_RECV_END,1516239322597,53
394,PLAYER_SLEEPBEFORE_START,1516239322597,54
394,PLAYER_SLEEPBEFORE_END,1516239343901,54
394,WS_SEND_START,1516239343901,54
394,WS_SEND_END,1516239343901,54
394,PLAYER_SLEEPBEFORE_START,1516239343901,55
394,PLAYER_SLEEPBEFORE_END,1516239345842,55
394,WS_SEND_START,1516239345842,55
394,WS_SEND_END,1516239345842,55
394,WS_RECV_START,1516239345842,56
394,WS_RECV_END,1516239345937,56
394,PLAYER_SLEEPBEFORE_START,1516239345937,57
394,PLAYER_SLEEPBEFORE_END,1516239368809,57
394,WS_SEND_START,1516239368809,57
394,WS_SEND_END,1516239368809,57
394,WS_RECV_START,1516239368809,58
394,WS_RECV_END,1516239368862,58
394,PLAYER_SLEEPBEFORE_START,1516239368862,59
394,PLAYER_SLEEPBEFORE_END,1516239371189,59
394,WS_SEND_START,1516239371189,59
394,WS_SEND_END,1516239371189,59
394,WS_RECV_START,1516239371189,60
394,WS_RECV_END,1516239371292,60
394,PLAYER_SLEEPBEFORE_START,1516239371292,61
394,PLAYER_SLEEPBEFORE_END,1516239374884,61
394,WS_SEND_START,1516239374884,61
394,WS_SEND_END,1516239374884,61
394,WS_RECV_START,1516239374884,62
394,WS_RECV_END,1516239374976,62
394,PLAYER_SLEEPBEFORE_START,1516239374976,63
394,PLAYER_SLEEPBEFORE_END,1516239394238,63
394,WS_SEND_START,1516239394238,63
394,WS_SEND_END,1516239394238,63
394,WS_RECV_START,1516239394238,64
394,WS_RECV_END,1516239394371,64
394,PLAYER_SLEEPBEFORE_START,1516239394371,65
394,PLAYER_SLEEPBEFORE_END,1516239421188,65
394,WS_SEND_START,1516239421188,65
394,WS_SEND_END,1516239421188,65
394,WS_RECV_START,1516239421188,66
394,WS_RECV_END,1516239421586,66
394,PLAYER_SLEEPBEFORE_START,1516239421586,67
394,PLAYER_SLEEPBEFORE_END,1516239423093,67
394,WS_SEND_START,1516239423093,67
394,WS_SEND_END,1516239423093,67
394,WS_RECV_START,1516239423093,68
394,WS_RECV_END,1516239423237,68
394,PLAYER_SLEEPBEFORE_START,1516239423237,69
394,PLAYER_SLEEPBEFORE_END,1516239445236,69
394,WS_SEND_START,1516239445236,69
394,WS_SEND_END,1516239445236,69
394,WS_RECV_START,1516239445236,70
394,WS_RECV_END,1516239445371,70
394,PLAYER_SLEEPBEFORE_START,1516239445371,71
394,PLAYER_SLEEPBEFORE_END,1516239470147,71
394,WS_SEND_START,1516239470147,71
394,WS_SEND_END,1516239470147,71
394,PLAYER_SLEEPBEFORE_START,1516239470147,72
394,PLAYER_SLEEPBEFORE_END,1516239472754,72
394,WS_SEND_START,1516239472754,72
394,WS_SEND_END,1516239472754,72
394,WS_RECV_START,1516239472754,73
394,WS_RECV_END,1516239472803,73
394,PLAYER_SLEEPBEFORE_START,1516239472803,74
394,PLAYER_SLEEPBEFORE_END,1516239472812,74
394,WS_SEND_START,1516239472812,74
394,WS_SEND_END,1516239472812,74
394,WS_RECV_START,1516239472812,75
394,WS_RECV_END,1516239472854,75
394,PLAYER_SLEEPBEFORE_START,1516239472854,76
394,PLAYER_SLEEPBEFORE_END,1516239474360,76
394,WS_SEND_START,1516239474360,76
394,WS_SEND_END,1516239474360,76
394,WS_RECV_START,1516239474360,77
394,WS_RECV_END,1516239474455,77
394,PLAYER_SLEEPBEFORE_START,1516239474455,78
394,PLAYER_SLEEPBEFORE_END,1516239475323,78
394,WS_SEND_START,1516239475323,78
394,WS_SEND_END,1516239475323,78
394,WS_RECV_START,1516239475323,79
394,WS_RECV_END,1516239475476,79
394,PLAYER_SLEEPBEFORE_START,1516239475476,80
394,PLAYER_SLEEPBEFORE_END,1516239483142,80
394,WS_SEND_START,1516239483143,80
394,WS_SEND_END,1516239483143,80
394,WS_RECV_START,1516239483143,81
394,WS_RECV_END,1516239484563,81
394,PLAYER_SLEEPBEFORE_START,1516239484563,82
394,PLAYER_SLEEPBEFORE_END,1516239485665,82
394,WS_SEND_START,1516239485665,82
394,WS_SEND_END,1516239485665,82
394,WS_RECV_START,1516239485665,83
394,WS_RECV_END,1516239486611,83
394,PLAYER_SLEEPBEFORE_START,1516239486611,84
394,PLAYER_SLEEPBEFORE_END,1516239487558,84
394,WS_SEND_START,1516239487558,84
394,WS_SEND_END,1516239487558,84
394,WS_RECV_START,1516239487558,85
394,WS_RECV_END,1516239487607,85
394,PLAYER_SLEEPBEFORE_START,1516239487607,86
394,PLAYER_SLEEPBEFORE_END,1516239491780,86
394,WS_SEND_START,1516239491780,86
394,WS_SEND_END,1516239491780,86
394,WS_RECV_START,1516239491780,87
394,WS_RECV_END,1516239491963,87
394,PLAYER_SLEEPBEFORE_START,1516239491963,88
394,PLAYER_SLEEPBEFORE_END,1516239491971,88
394,WS_SEND_START,1516239491971,88
394,WS_SEND_END,1516239491971,88
394,WS_RECV_START,1516239491971,89
394,WS_RECV_END,1516239492187,89
394,PLAYER_SLEEPBEFORE_START,1516239492187,90
394,PLAYER_SLEEPBEFORE_END,1516239519384,90
394,REQ_START,1516239519384,90
394,REQ_END,1516239519392,90
394,PLAYER_SLEEPBEFORE_START,1516239519392,91
394,PLAYER_SLEEPBEFORE_END,1516239527282,91
394,WS_SEND_START,1516239527282,91
394,WS_SEND_END,1516239527282,91
394,WS_RECV_START,1516239527282,92
394,WS_RECV_END,1516239527405,92
394,PLAYER_SLEEPBEFORE_START,1516239527405,93
394,PLAYER_SLEEPBEFORE_END,1516239527421,93
394,WS_SEND_START,1516239527421,93
394,WS_SEND_END,1516239527421,93
394,WS_RECV_START,1516239527421,94
394,WS_RECV_END,1516239527551,94
394,PLAYER_SLEEPBEFORE_START,1516239527551,95
394,PLAYER_SLEEPBEFORE_END,1516239551107,95
394,WS_SEND_START,1516239551107,95
394,WS_SEND_END,1516239551107,95
394,WS_RECV_START,1516239551107,96
394,WS_RECV_END,1516239551228,96
394,PLAYER_SLEEPBEFORE_START,1516239551228,97
394,PLAYER_SLEEPBEFORE_END,1516239573668,97
394,WS_SEND_START,1516239573668,97
394,WS_SEND_END,1516239573668,97
394,WS_RECV_START,1516239573668,98
394,WS_RECV_END,1516239574108,98
394,PLAYER_SLEEPBEFORE_START,1516239574108,99
394,PLAYER_SLEEPBEFORE_END,1516239574129,99
394,WS_SEND_START,1516239574130,99
394,WS_SEND_END,1516239574130,99
394,WS_RECV_START,1516239574130,100
394,WS_RECV_END,1516239574314,100
394,PLAYER_SLEEPBEFORE_START,1516239574314,101
394,PLAYER_SLEEPBEFORE_END,1516239597873,101
394,WS_SEND_START,1516239597873,101
394,WS_SEND_END,1516239597873,101
394,WS_RECV_START,1516239597873,102
394,WS_RECV_END,1516239598104,102
394,PLAYER_SLEEPBEFORE_START,1516239598104,103
394,PLAYER_SLEEPBEFORE_END,1516239621730,103
394,WS_SEND_START,1516239621730,103
394,WS_SEND_END,1516239621730,103
394,WS_RECV_START,1516239621730,104
394,WS_RECV_END,1516239622308,104
394,PLAYER_SLEEPBEFORE_START,1516239622308,105
394,PLAYER_SLEEPBEFORE_END,1516239647685,105
394,WS_SEND_START,1516239647685,105
394,WS_SEND_END,1516239647685,105
394,WS_RECV_START,1516239647685,106
394,WS_RECV_END,1516239648475,106
394,PLAYER_SLEEPBEFORE_START,1516239648475,107
394,PLAYER_SLEEPBEFORE_END,1516239671898,107
394,WS_SEND_START,1516239671898,107
394,WS_SEND_END,1516239671898,107
394,WS_RECV_START,1516239671898,108
394,WS_RECV_END,1516239672128,108
394,PLAYER_SLEEPBEFORE_START,1516239672128,109
394,PLAYER_SLEEPBEFORE_END,1516239672137,109
394,WS_SEND_START,1516239672137,109
394,WS_SEND_END,1516239672137,109
394,WS_RECV_START,1516239672137,110
394,WS_RECV_END,1516239672202,110
394,PLAYER_SLEEPBEFORE_START,1516239672202,111
394,PLAYER_SLEEPBEFORE_END,1516239673161,111
394,WS_SEND_START,1516239673161,111
394,WS_SEND_END,1516239673161,111
394,WS_RECV_START,1516239673161,112
394,WS_RECV_END,1516239673238,112
394,PLAYER_SLEEPBEFORE_START,1516239673238,113
394,PLAYER_SLEEPBEFORE_END,1516239673800,113
394,WS_SEND_START,1516239673800,113
394,WS_SEND_END,1516239673800,113
394,WS_RECV_START,1516239673800,114
394,WS_RECV_END,1516239673946,114
394,PLAYER_SLEEPBEFORE_START,1516239673946,115
394,PLAYER_SLEEPBEFORE_END,1516239673955,115
394,WS_SEND_START,1516239673955,115
394,WS_SEND_END,1516239673955,115
394,WS_RECV_START,1516239673955,116
394,WS_RECV_END,1516239674272,116
394,PLAYER_SLEEPBEFORE_START,1516239674272,117
394,PLAYER_SLEEPBEFORE_END,1516239694632,117
394,WS_SEND_START,1516239694632,117
394,WS_SEND_END,1516239694632,117
394,PLAYER_SLEEPBEFORE_START,1516239694632,118
394,PLAYER_SLEEPBEFORE_END,1516239698385,118
394,WS_SEND_START,1516239698385,118
394,WS_SEND_END,1516239698385,118
394,WS_RECV_START,1516239698385,119
394,WS_RECV_END,1516239698530,119
394,PLAYER_SLEEPBEFORE_START,1516239698530,120
394,PLAYER_SLEEPBEFORE_END,1516239699518,120
394,WS_SEND_START,1516239699518,120
394,WS_SEND_END,1516239699518,120
394,WS_RECV_START,1516239699518,121
394,WS_RECV_END,1516239700066,121
394,PLAYER_SLEEPBEFORE_START,1516239700066,122
394,PLAYER_SLEEPBEFORE_END,1516239701252,122
394,WS_SEND_START,1516239701252,122
394,WS_SEND_END,1516239701252,122
394,WS_RECV_START,1516239701252,123
394,WS_RECV_END,1516239701586,123
394,PLAYER_SLEEPBEFORE_START,1516239701586,124
394,PLAYER_SLEEPBEFORE_END,1516239725991,124
394,WS_SEND_START,1516239725991,124
394,WS_SEND_END,1516239725991,124
394,WS_RECV_START,1516239725991,125
394,WS_RECV_END,1516239727669,125
394,PLAYER_SLEEPBEFORE_START,1516239727670,126
394,PLAYER_SLEEPBEFORE_END,1516239748182,126
394,WS_SEND_START,1516239748182,126
394,WS_SEND_END,1516239748182,126
394,PLAYER_SLEEPBEFORE_START,1516239748182,127
394,PLAYER_SLEEPBEFORE_END,1516239751236,127
394,WS_SEND_START,1516239751236,127
394,WS_SEND_END,1516239751236,127
394,WS_RECV_START,1516239751236,128
394,WS_RECV_END,1516239751533,128
394,PLAYER_SLEEPBEFORE_START,1516239751533,129
394,PLAYER_SLEEPBEFORE_END,1516239751553,129
394,WS_SEND_START,1516239751553,129
394,WS_SEND_END,1516239751553,129
394,WS_RECV_START,1516239751553,130
394,WS_RECV_END,1516239751980,130
394,PLAYER_SLEEPBEFORE_START,1516239751980,131
394,PLAYER_SLEEPBEFORE_END,1516239773606,131
394,WS_SEND_START,1516239773606,131
394,WS_SEND_END,1516239773606,131
394,PLAYER_SLEEPBEFORE_START,1516239773607,132
394,PLAYER_SLEEPBEFORE_END,1516239776687,132
394,WS_SEND_START,1516239776687,132
394,WS_SEND_END,1516239776687,132
394,WS_RECV_START,1516239776687,133
394,WS_RECV_END,1516239776877,133
394,PLAYER_SLEEPBEFORE_START,1516239776877,134
394,PLAYER_SLEEPBEFORE_END,1516239798094,134
394,WS_SEND_START,1516239798094,134
394,WS_SEND_END,1516239798094,134
394,PLAYER_SLEEPBEFORE_START,1516239798094,135
394,PLAYER_SLEEPBEFORE_END,1516239801284,135
394,WS_SEND_START,1516239801284,135
394,WS_SEND_END,1516239801284,135
394,WS_RECV_START,1516239801284,136
394,WS_RECV_END,1516239801532,136
394,PLAYER_SLEEPBEFORE_START,1516239801532,137
394,PLAYER_SLEEPBEFORE_END,1516239801539,137
394,WS_SEND_START,1516239801539,137
394,WS_SEND_END,1516239801539,137
394,WS_RECV_START,1516239801539,138
394,WS_RECV_END,1516239801702,138
394,PLAYER_SLEEPBEFORE_START,1516239801702,139
394,PLAYER_SLEEPBEFORE_END,1516239802392,139
394,WS_SEND_START,1516239802392,139
394,WS_SEND_END,1516239802392,139
394,WS_RECV_START,1516239802392,140
394,WS_RECV_END,1516239802443,140
394,PLAYER_SLEEPBEFORE_START,1516239802443,141
394,PLAYER_SLEEPBEFORE_END,1516239803098,141
394,WS_SEND_START,1516239803098,141
394,WS_SEND_END,1516239803098,141
394,WS_RECV_START,1516239803098,142
394,WS_RECV_END,1516239803711,142
394,PLAYER_SLEEPBEFORE_START,1516239803711,143
394,PLAYER_SLEEPBEFORE_END,1516239803768,143
394,WS_SEND_START,1516239803768,143
394,WS_SEND_END,1516239803768,143
394,WS_RECV_START,1516239803768,144
394,WS_RECV_END,1516239804425,144
394,PLAYER_SLEEPBEFORE_START,1516239804425,145
394,PLAYER_SLEEPBEFORE_END,1516239820488,145
394,REQ_START,1516239820488,145
394,REQ_END,1516239820507,145
394,PLAYER_SLEEPBEFORE_START,1516239820507,146
394,PLAYER_SLEEPBEFORE_END,1516239829384,146
394,WS_SEND_START,1516239829384,146
394,WS_SEND_END,1516239829384,146
394,WS_RECV_START,1516239829384,147
394,WS_RECV_END,1516239830742,147
394,PLAYER_SLEEPBEFORE_START,1516239830742,148
394,PLAYER_SLEEPBEFORE_END,1516239852664,148
394,WS_SEND_START,1516239852664,148
394,WS_SEND_END,1516239852664,148
394,PLAYER_SLEEPBEFORE_START,1516239852664,149
394,PLAYER_SLEEPBEFORE_END,1516239855092,149
394,WS_SEND_START,1516239855092,149
394,WS_SEND_END,1516239855093,149
394,WS_RECV_START,1516239855093,150
394,WS_RECV_END,1516239855488,150
394,PLAYER_SLEEPBEFORE_START,1516239855488,151
394,PLAYER_SLEEPBEFORE_END,1516239855698,151
394,WS_SEND_START,1516239855698,151
394,WS_SEND_END,1516239855698,151
394,WS_RECV_START,1516239855699,152
394,WS_RECV_END,1516239856190,152
394,PLAYER_SLEEPBEFORE_START,1516239856190,153
394,PLAYER_SLEEPBEFORE_END,1516239880117,153
394,WS_SEND_START,1516239880117,153
394,WS_SEND_END,1516239880117,153
394,WS_RECV_START,1516239880117,154
394,WS_RECV_END,1516239880674,154
394,PLAYER_SLEEPBEFORE_START,1516239880674,155
394,PLAYER_SLEEPBEFORE_END,1516239903233,155
394,WS_SEND_START,1516239903233,155
394,WS_SEND_END,1516239903233,155
394,PLAYER_SLEEPBEFORE_START,1516239903233,156
394,PLAYER_SLEEPBEFORE_END,1516239906507,156
394,WS_SEND_START,1516239906507,156
394,WS_SEND_END,1516239906507,156
394,WS_RECV_START,1516239906507,157
394,WS_RECV_END,1516239906658,157
394,PLAYER_SLEEPBEFORE_START,1516239906658,158
394,PLAYER_SLEEPBEFORE_END,1516239906668,158
394,WS_SEND_START,1516239906668,158
394,WS_SEND_END,1516239906668,158
394,WS_RECV_START,1516239906668,159
394,WS_RECV_END,1516239906714,159
394,PLAYER_SLEEPBEFORE_START,1516239906714,160
394,PLAYER_SLEEPBEFORE_END,1516239906889,160
394,WS_SEND_START,1516239906889,160
394,WS_SEND_END,1516239906889,160
394,WS_RECV_START,1516239906889,161
394,WS_RECV_END,1516239907138,161
394,PLAYER_SLEEPBEFORE_START,1516239907138,162
394,PLAYER_SLEEPBEFORE_END,1516239907163,162
394,WS_SEND_START,1516239907163,162
394,WS_SEND_END,1516239907163,162
394,WS_RECV_START,1516239907163,163
394,WS_RECV_END,1516239907381,163
394,PLAYER_SLEEPBEFORE_START,1516239907381,164
394,PLAYER_SLEEPBEFORE_END,1516239928193,164
394,WS_SEND_START,1516239928193,164
394,WS_SEND_END,1516239928193,164
394,WS_RECV_START,1516239928193,165
394,WS_RECV_END,1516239928402,165
394,PLAYER_SLEEPBEFORE_START,1516239928402,166
394,PLAYER_SLEEPBEFORE_END,1516239950858,166
394,WS_SEND_START,1516239950858,166
394,WS_SEND_END,1516239950858,166
394,WS_RECV_START,1516239950858,167
394,WS_RECV_END,1516239951855,167
394,PLAYER_SLEEPBEFORE_START,1516239951855,168
394,PLAYER_SLEEPBEFORE_END,1516239979212,168
394,WS_SEND_START,1516239979212,168
394,WS_SEND_END,1516239979212,168
394,WS_RECV_START,1516239979212,169
394,WS_RECV_END,1516239979708,169
394,PLAYER_SLEEPBEFORE_START,1516239979708,170
394,PLAYER_SLEEPBEFORE_END,1516239979718,170
394,WS_SEND_START,1516239979718,170
394,WS_SEND_END,1516239979718,170
394,WS_RECV_START,1516239979718,171
394,WS_RECV_END,1516239980474,171
394,PLAYER_SLEEPBEFORE_START,1516239980474,172
394,PLAYER_SLEEPBEFORE_END,1516239980843,172
394,WS_SEND_START,1516239980843,172
394,WS_SEND_END,1516239980843,172
394,WS_RECV_START,1516239980843,173
394,WS_RECV_END,1516239981996,173
394,PLAYER_SLEEPBEFORE_START,1516239981996,174
394,PLAYER_SLEEPBEFORE_END,1516239982037,174
394,WS_SEND_START,1516239982037,174
394,WS_SEND_END,1516239982037,174
394,WS_RECV_START,1516239982037,175
394,WS_RECV_END,1516239983361,175
394,PLAYER_SLEEPBEFORE_START,1516239983361,176
394,PLAYER_SLEEPBEFORE_END,1516240005122,176
394,WS_SEND_START,1516240005122,176
394,WS_SEND_END,1516240005122,176
394,PLAYER_SLEEPBEFORE_START,1516240005122,177
394,PLAYER_SLEEPBEFORE_END,1516240007640,177
394,WS_SEND_START,1516240007640,177
394,WS_SEND_END,1516240007640,177
394,WS_RECV_START,1516240007640,178
394,WS_RECV_END,1516240008253,178
394,PLAYER_SLEEPBEFORE_START,1516240008253,179
394,PLAYER_SLEEPBEFORE_END,1516240030593,179
394,WS_SEND_START,1516240030593,179
394,WS_SEND_END,1516240030593,179
394,WS_RECV_START,1516240030593,180
394,WS_RECV_END,1516240032871,180
394,PLAYER_SLEEPBEFORE_START,1516240032871,181
394,PLAYER_SLEEPBEFORE_END,1516240033315,181
394,WS_SEND_START,1516240033315,181
394,WS_SEND_END,1516240033315,181
394,WS_RECV_START,1516240033315,182
394,WS_RECV_END,1516240034172,182
394,PLAYER_SLEEPBEFORE_START,1516240034172,183
394,PLAYER_SLEEPBEFORE_END,1516240034695,183
394,WS_SEND_START,1516240034695,183
394,WS_SEND_END,1516240034695,183
394,WS_RECV_START,1516240034695,184
394,WS_RECV_END,1516240035890,184
394,PLAYER_SLEEPBEFORE_START,1516240035890,185
394,PLAYER_SLEEPBEFORE_END,1516240036158,185
394,WS_SEND_START,1516240036158,185
394,WS_SEND_END,1516240036158,185
394,WS_RECV_START,1516240036158,186
394,WS_RECV_END,1516240037596,186
394,PLAYER_SLEEPBEFORE_START,1516240037596,187
394,PLAYER_SLEEPBEFORE_END,1516240060096,187
394,WS_SEND_START,1516240060096,187
394,WS_SEND_END,1516240060096,187
394,WS_RECV_START,1516240060096,188
394,WS_RECV_END,1516240061531,188
394,PLAYER_SLEEPBEFORE_START,1516240061531,189
394,PLAYER_SLEEPBEFORE_END,1516240067770,189
394,WS_SEND_START,1516240067770,189
394,WS_SEND_END,1516240067770,189
394,WS_RECV_START,1516240067770,190
394,WS_RECV_END,1516240068716,190
394,PLAYER_SLEEPBEFORE_START,1516240068716,191
394,PLAYER_SLEEPBEFORE_END,1516240070632,191
394,WS_SEND_START,1516240070632,191
394,WS_SEND_END,1516240070632,191
394,WS_RECV_START,1516240070632,192
394,WS_RECV_END,1516240071856,192
394,PLAYER_SLEEPBEFORE_START,1516240071856,193
394,PLAYER_SLEEPBEFORE_END,1516240071984,193
394,WS_SEND_START,1516240071984,193
394,WS_SEND_END,1516240071984,193
394,WS_RECV_START,1516240071984,194
394,WS_RECV_END,1516240072281,194
394,PLAYER_SLEEPBEFORE_START,1516240072281,195
394,PLAYER_SLEEPBEFORE_END,1516240074036,195
394,WS_SEND_START,1516240074036,195
394,WS_SEND_END,1516240074036,195
394,WS_RECV_START,1516240074036,196
394,WS_RECV_END,1516240074958,196
394,PLAYER_SLEEPBEFORE_START,1516240074958,197
394,PLAYER_SLEEPBEFORE_END,1516240076762,197
394,WS_SEND_START,1516240076762,197
394,WS_SEND_END,1516240076762,197
394,WS_RECV_START,1516240076762,198
394,WS_RECV_END,1516240077578,198
394,PLAYER_SLEEPBEFORE_START,1516240077578,199
394,PLAYER_SLEEPBEFORE_END,1516240089432,199
394,WS_SEND_START,1516240089432,199
394,WS_SEND_END,1516240089432,199
394,PLAYER_SLEEPBEFORE_START,1516240089432,200
394,PLAYER_SLEEPBEFORE_END,1516240093520,200
394,WS_SEND_START,1516240093520,200
394,WS_SEND_END,1516240093520,200
394,WS_RECV_START,1516240093520,201
394,WS_RECV_END,1516240093898,201
394,PLAYER_SLEEPBEFORE_START,1516240093898,202
394,PLAYER_SLEEPBEFORE_END,1516240093912,202
394,WS_SEND_START,1516240093912,202
394,WS_SEND_END,1516240093912,202
394,WS_RECV_START,1516240093912,203
394,WS_RECV_END,1516240094251,203
394,PLAYER_SLEEPBEFORE_START,1516240094251,204
394,PLAYER_SLEEPBEFORE_END,1516240113900,204
394,WS_SEND_START,1516240113900,204
394,WS_SEND_END,1516240113900,204
394,PLAYER_SLEEPBEFORE_START,1516240113900,205
394,PLAYER_SLEEPBEFORE_END,1516240117799,205
394,WS_SEND_START,1516240117799,205
394,WS_SEND_END,1516240117799,205
394,WS_RECV_START,1516240117799,206
394,WS_RECV_END,1516240118298,206
394,PLAYER_SLEEPBEFORE_START,1516240118298,207
394,PLAYER_SLEEPBEFORE_END,1516240135229,207
394,REQ_START,1516240135229,207
394,REQ_END,1516240135237,207
394,PLAYER_SLEEPBEFORE_START,1516240135237,208
394,PLAYER_SLEEPBEFORE_END,1516240142089,208
394,WS_CLOSE_START,1516240142089,208
394,WS_CLOSE_END,1516240142089,208
394,PLAYER_DONE,1516240142089
