# --sessions 1080 --app-url=http://shinyloadtest.rstudioservices.com/cran_explorer --output-dir test1080 --overwrite-output --log-level warn --start-interval 250 15min.log
thread_id,event,timestamp,input_line_number,comment
443,PLAYER_SESSION_CREATE,1516239120627
443,PLAYER_START_INTERVAL_START,1516239120627
443,PLAYER_START_INTERVAL_END,1516239231378
443,REQ_HOME_START,1516239231378,2
443,REQ_HOME_END,1516239231457,2
443,REQ_START,1516239231457,3
443,REQ_END,1516239231488,3
443,REQ_START,1516239231488,4
443,REQ_END,1516239231518,4
443,REQ_START,1516239231518,5
443,REQ_END,1516239231550,5
443,REQ_START,1516239231550,6
443,REQ_END,1516239231580,6
443,REQ_START,1516239231580,7
443,REQ_END,1516239231610,7
443,REQ_START,1516239231610,8
443,REQ_END,1516239231642,8
443,REQ_START,1516239231642,9
443,REQ_END,1516239231672,9
443,REQ_START,1516239231672,10
443,REQ_END,1516239231679,10
443,REQ_START,1516239231679,11
443,REQ_END,1516239231707,11
443,REQ_START,1516239231707,12
443,REQ_END,1516239231718,12
443,REQ_START,1516239231718,13
443,REQ_END,1516239231747,13
443,REQ_START,1516239231747,14
443,REQ_END,1516239231760,14
443,REQ_START,1516239231760,15
443,REQ_END,1516239231792,15
443,REQ_TOK_START,1516239231792,16
443,REQ_TOK_END,1516239231799,16
443,REQ_SINF_START,1516239231799,17
443,REQ_SINF_END,1516239231806,17
443,WS_OPEN_START,1516239231806,18
443,WS_OPEN_END,1516239231813,18
443,REQ_START,1516239231813,19
443,REQ_END,1516239231838,19
443,WS_RECV_START,1516239231838,20
443,WS_RECV_END,1516239231838,20
443,PLAYER_SLEEPBEFORE_START,1516239231838,21
443,PLAYER_SLEEPBEFORE_END,1516239231843,21
443,WS_SEND_START,1516239231843,21
443,WS_SEND_END,1516239231843,21
443,PLAYER_SLEEPBEFORE_START,1516239231843,22
443,PLAYER_SLEEPBEFORE_END,1516239231844,22
443,WS_SEND_START,1516239231844,22
443,WS_SEND_END,1516239231844,22
443,WS_RECV_INIT_START,1516239231844,23
443,WS_RECV_INIT_END,1516239231860,23
443,WS_RECV_START,1516239231860,24
443,WS_RECV_END,1516239231919,24
443,PLAYER_SLEEPBEFORE_START,1516239231919,25
443,PLAYER_SLEEPBEFORE_END,1516239231926,25
443,REQ_START,1516239231926,25
443,REQ_END,1516239231966,25
443,PLAYER_SLEEPBEFORE_START,1516239231966,26
443,PLAYER_SLEEPBEFORE_END,1516239231967,26
443,REQ_START,1516239231967,26
443,REQ_END,1516239231999,26
443,PLAYER_SLEEPBEFORE_START,1516239231999,27
443,PLAYER_SLEEPBEFORE_END,1516239232003,27
443,REQ_START,1516239232003,27
443,REQ_END,1516239232034,27
443,PLAYER_SLEEPBEFORE_START,1516239232034,28
443,PLAYER_SLEEPBEFORE_END,1516239232319,28
443,REQ_START,1516239232319,28
443,REQ_END,1516239232349,28
443,PLAYER_SLEEPBEFORE_START,1516239232349,29
443,PLAYER_SLEEPBEFORE_END,1516239232524,29
443,WS_SEND_START,1516239232524,29
443,WS_SEND_END,1516239232524,29
443,WS_RECV_START,1516239232524,30
443,WS_RECV_END,1516239232629,30
443,PLAYER_SLEEPBEFORE_START,1516239232629,31
443,PLAYER_SLEEPBEFORE_END,1516239232640,31
443,REQ_START,1516239232640,31
443,REQ_END,1516239232744,31
443,PLAYER_SLEEPBEFORE_START,1516239232744,32
443,PLAYER_SLEEPBEFORE_END,1516239260889,32
443,WS_SEND_START,1516239260889,32
443,WS_SEND_END,1516239260889,32
443,WS_RECV_START,1516239260889,33
443,WS_RECV_END,1516239260971,33
443,PLAYER_SLEEPBEFORE_START,1516239260971,34
443,PLAYER_SLEEPBEFORE_END,1516239286883,34
443,WS_SEND_START,1516239286883,34
443,WS_SEND_END,1516239286883,34
443,WS_RECV_START,1516239286883,35
443,WS_RECV_END,1516239286926,35
443,PLAYER_SLEEPBEFORE_START,1516239286926,36
443,PLAYER_SLEEPBEFORE_END,1516239286935,36
443,WS_SEND_START,1516239286935,36
443,WS_SEND_END,1516239286935,36
443,WS_RECV_START,1516239286935,37
443,WS_RECV_END,1516239286978,37
443,PLAYER_SLEEPBEFORE_START,1516239286978,38
443,PLAYER_SLEEPBEFORE_END,1516239290173,38
443,WS_SEND_START,1516239290173,38
443,WS_SEND_END,1516239290173,38
443,WS_RECV_START,1516239290173,39
443,WS_RECV_END,1516239290347,39
443,PLAYER_SLEEPBEFORE_START,1516239290347,40
443,PLAYER_SLEEPBEFORE_END,1516239290393,40
443,WS_SEND_START,1516239290393,40
443,WS_SEND_END,1516239290393,40
443,WS_RECV_START,1516239290393,41
443,WS_RECV_END,1516239290533,41
443,PLAYER_SLEEPBEFORE_START,1516239290533,42
443,PLAYER_SLEEPBEFORE_END,1516239308668,42
443,WS_SEND_START,1516239308668,42
443,WS_SEND_END,1516239308668,42
443,WS_RECV_START,1516239308668,43
443,WS_RECV_END,1516239308892,43
443,PLAYER_SLEEPBEFORE_START,1516239308892,44
443,PLAYER_SLEEPBEFORE_END,1516239308904,44
443,WS_SEND_START,1516239308904,44
443,WS_SEND_END,1516239308904,44
443,WS_RECV_START,1516239308904,45
443,WS_RECV_END,1516239309042,45
443,PLAYER_SLEEPBEFORE_START,1516239309042,46
443,PLAYER_SLEEPBEFORE_END,1516239310302,46
443,WS_SEND_START,1516239310302,46
443,WS_SEND_END,1516239310302,46
443,WS_RECV_START,1516239310302,47
443,WS_RECV_END,1516239310344,47
443,PLAYER_SLEEPBEFORE_START,1516239310344,48
443,PLAYER_SLEEPBEFORE_END,1516239311664,48
443,WS_SEND_START,1516239311664,48
443,WS_SEND_END,1516239311664,48
443,WS_RECV_START,1516239311664,49
443,WS_RECV_END,1516239311854,49
443,PLAYER_SLEEPBEFORE_START,1516239311854,50
443,PLAYER_SLEEPBEFORE_END,1516239311878,50
443,WS_SEND_START,1516239311878,50
443,WS_SEND_END,1516239311878,50
443,WS_RECV_START,1516239311878,51
443,WS_RECV_END,1516239312016,51
443,PLAYER_SLEEPBEFORE_START,1516239312016,52
443,PLAYER_SLEEPBEFORE_END,1516239334580,52
443,WS_SEND_START,1516239334580,52
443,WS_SEND_END,1516239334580,52
443,WS_RECV_START,1516239334581,53
443,WS_RECV_END,1516239335087,53
443,PLAYER_SLEEPBEFORE_START,1516239335087,54
443,PLAYER_SLEEPBEFORE_END,1516239356390,54
443,WS_SEND_START,1516239356390,54
443,WS_SEND_END,1516239356391,54
443,PLAYER_SLEEPBEFORE_START,1516239356391,55
443,PLAYER_SLEEPBEFORE_END,1516239358339,55
443,WS_SEND_START,1516239358339,55
443,WS_SEND_END,1516239358339,55
443,WS_RECV_START,1516239358339,56
443,WS_RECV_END,1516239358401,56
443,PLAYER_SLEEPBEFORE_START,1516239358401,57
443,PLAYER_SLEEPBEFORE_END,1516239381273,57
443,WS_SEND_START,1516239381273,57
443,WS_SEND_END,1516239381273,57
443,WS_RECV_START,1516239381273,58
443,WS_RECV_END,1516239381335,58
443,PLAYER_SLEEPBEFORE_START,1516239381335,59
443,PLAYER_SLEEPBEFORE_END,1516239383663,59
443,WS_SEND_START,1516239383663,59
443,WS_SEND_END,1516239383663,59
443,WS_RECV_START,1516239383663,60
443,WS_RECV_END,1516239383769,60
443,PLAYER_SLEEPBEFORE_START,1516239383769,61
443,PLAYER_SLEEPBEFORE_END,1516239387360,61
443,WS_SEND_START,1516239387360,61
443,WS_SEND_END,1516239387360,61
443,WS_RECV_START,1516239387360,62
443,WS_RECV_END,1516239387576,62
443,PLAYER_SLEEPBEFORE_START,1516239387576,63
443,PLAYER_SLEEPBEFORE_END,1516239406839,63
443,WS_SEND_START,1516239406839,63
443,WS_SEND_END,1516239406839,63
443,WS_RECV_START,1516239406839,64
443,WS_RECV_END,1516239406901,64
443,PLAYER_SLEEPBEFORE_START,1516239406901,65
443,PLAYER_SLEEPBEFORE_END,1516239433718,65
443,WS_SEND_START,1516239433718,65
443,WS_SEND_END,1516239433718,65
443,WS_RECV_START,1516239433718,66
443,WS_RECV_END,1516239433843,66
443,PLAYER_SLEEPBEFORE_START,1516239433843,67
443,PLAYER_SLEEPBEFORE_END,1516239435350,67
443,WS_SEND_START,1516239435350,67
443,WS_SEND_END,1516239435350,67
443,WS_RECV_START,1516239435350,68
443,WS_RECV_END,1516239435494,68
443,PLAYER_SLEEPBEFORE_START,1516239435494,69
443,PLAYER_SLEEPBEFORE_END,1516239457492,69
443,WS_SEND_START,1516239457492,69
443,WS_SEND_END,1516239457492,69
443,WS_RECV_START,1516239457492,70
443,WS_RECV_END,1516239457651,70
443,PLAYER_SLEEPBEFORE_START,1516239457651,71
443,PLAYER_SLEEPBEFORE_END,1516239482426,71
443,WS_SEND_START,1516239482426,71
443,WS_SEND_END,1516239482426,71
443,PLAYER_SLEEPBEFORE_START,1516239482426,72
443,PLAYER_SLEEPBEFORE_END,1516239485033,72
443,WS_SEND_START,1516239485033,72
443,WS_SEND_END,1516239485033,72
443,WS_RECV_START,1516239485033,73
443,WS_RECV_END,1516239485086,73
443,PLAYER_SLEEPBEFORE_START,1516239485086,74
443,PLAYER_SLEEPBEFORE_END,1516239485095,74
443,WS_SEND_START,1516239485095,74
443,WS_SEND_END,1516239485095,74
443,WS_RECV_START,1516239485095,75
443,WS_RECV_END,1516239485150,75
443,PLAYER_SLEEPBEFORE_START,1516239485150,76
443,PLAYER_SLEEPBEFORE_END,1516239486656,76
443,WS_SEND_START,1516239486656,76
443,WS_SEND_END,1516239486656,76
443,WS_RECV_START,1516239486656,77
443,WS_RECV_END,1516239487364,77
443,PLAYER_SLEEPBEFORE_START,1516239487364,78
443,PLAYER_SLEEPBEFORE_END,1516239488232,78
443,WS_SEND_START,1516239488232,78
443,WS_SEND_END,1516239488232,78
443,WS_RECV_START,1516239488232,79
443,WS_RECV_END,1516239489083,79
443,PLAYER_SLEEPBEFORE_START,1516239489083,80
443,PLAYER_SLEEPBEFORE_END,1516239496750,80
443,WS_SEND_START,1516239496750,80
443,WS_SEND_END,1516239496750,80
443,WS_RECV_START,1516239496750,81
443,WS_RECV_END,1516239496906,81
443,PLAYER_SLEEPBEFORE_START,1516239496906,82
443,PLAYER_SLEEPBEFORE_END,1516239498008,82
443,WS_SEND_START,1516239498008,82
443,WS_SEND_END,1516239498008,82
443,WS_RECV_START,1516239498008,83
443,WS_RECV_END,1516239498195,83
443,PLAYER_SLEEPBEFORE_START,1516239498195,84
443,PLAYER_SLEEPBEFORE_END,1516239499142,84
443,WS_SEND_START,1516239499142,84
443,WS_SEND_END,1516239499142,84
443,WS_RECV_START,1516239499142,85
443,WS_RECV_END,1516239499187,85
443,PLAYER_SLEEPBEFORE_START,1516239499187,86
443,PLAYER_SLEEPBEFORE_END,1516239503360,86
443,WS_SEND_START,1516239503360,86
443,WS_SEND_END,1516239503360,86
443,WS_RECV_START,1516239503360,87
443,WS_RECV_END,1516239503464,87
443,PLAYER_SLEEPBEFORE_START,1516239503464,88
443,PLAYER_SLEEPBEFORE_END,1516239503472,88
443,WS_SEND_START,1516239503472,88
443,WS_SEND_END,1516239503472,88
443,WS_RECV_START,1516239503472,89
443,WS_RECV_END,1516239503680,89
443,PLAYER_SLEEPBEFORE_START,1516239503680,90
443,PLAYER_SLEEPBEFORE_END,1516239530877,90
443,REQ_START,1516239530877,90
443,REQ_END,1516239530884,90
443,PLAYER_SLEEPBEFORE_START,1516239530884,91
443,PLAYER_SLEEPBEFORE_END,1516239538773,91
443,WS_SEND_START,1516239538773,91
443,WS_SEND_END,1516239538773,91
443,WS_RECV_START,1516239538773,92
443,WS_RECV_END,1516239538935,92
443,PLAYER_SLEEPBEFORE_START,1516239538935,93
443,PLAYER_SLEEPBEFORE_END,1516239538950,93
443,WS_SEND_START,1516239538950,93
443,WS_SEND_END,1516239538950,93
443,WS_RECV_START,1516239538950,94
443,WS_RECV_END,1516239539124,94
443,PLAYER_SLEEPBEFORE_START,1516239539124,95
443,PLAYER_SLEEPBEFORE_END,1516239562679,95
443,WS_SEND_START,1516239562679,95
443,WS_SEND_END,1516239562679,95
443,WS_RECV_START,1516239562679,96
443,WS_RECV_END,1516239562836,96
443,PLAYER_SLEEPBEFORE_START,1516239562836,97
443,PLAYER_SLEEPBEFORE_END,1516239585276,97
443,WS_SEND_START,1516239585276,97
443,WS_SEND_END,1516239585276,97
443,WS_RECV_START,1516239585276,98
443,WS_RECV_END,1516239585695,98
443,PLAYER_SLEEPBEFORE_START,1516239585695,99
443,PLAYER_SLEEPBEFORE_END,1516239585716,99
443,WS_SEND_START,1516239585716,99
443,WS_SEND_END,1516239585716,99
443,WS_RECV_START,1516239585716,100
443,WS_RECV_END,1516239586077,100
443,PLAYER_SLEEPBEFORE_START,1516239586077,101
443,PLAYER_SLEEPBEFORE_END,1516239609636,101
443,WS_SEND_START,1516239609636,101
443,WS_SEND_END,1516239609636,101
443,WS_RECV_START,1516239609636,102
443,WS_RECV_END,1516239609850,102
443,PLAYER_SLEEPBEFORE_START,1516239609850,103
443,PLAYER_SLEEPBEFORE_END,1516239633475,103
443,WS_SEND_START,1516239633475,103
443,WS_SEND_END,1516239633475,103
443,WS_RECV_START,1516239633475,104
443,WS_RECV_END,1516239633618,104
443,PLAYER_SLEEPBEFORE_START,1516239633618,105
443,PLAYER_SLEEPBEFORE_END,1516239658995,105
443,WS_SEND_START,1516239658995,105
443,WS_SEND_END,1516239658995,105
443,WS_RECV_START,1516239658995,106
443,WS_RECV_END,1516239659320,106
443,PLAYER_SLEEPBEFORE_START,1516239659320,107
443,PLAYER_SLEEPBEFORE_END,1516239682743,107
443,WS_SEND_START,1516239682743,107
443,WS_SEND_END,1516239682743,107
443,WS_RECV_START,1516239682743,108
443,WS_RECV_END,1516239683023,108
443,PLAYER_SLEEPBEFORE_START,1516239683023,109
443,PLAYER_SLEEPBEFORE_END,1516239683032,109
443,WS_SEND_START,1516239683032,109
443,WS_SEND_END,1516239683032,109
443,WS_RECV_START,1516239683032,110
443,WS_RECV_END,1516239683198,110
443,PLAYER_SLEEPBEFORE_START,1516239683198,111
443,PLAYER_SLEEPBEFORE_END,1516239684157,111
443,WS_SEND_START,1516239684157,111
443,WS_SEND_END,1516239684157,111
443,WS_RECV_START,1516239684157,112
443,WS_RECV_END,1516239684407,112
443,PLAYER_SLEEPBEFORE_START,1516239684407,113
443,PLAYER_SLEEPBEFORE_END,1516239684970,113
443,WS_SEND_START,1516239684970,113
443,WS_SEND_END,1516239684970,113
443,WS_RECV_START,1516239684970,114
443,WS_RECV_END,1516239685104,114
443,PLAYER_SLEEPBEFORE_START,1516239685104,115
443,PLAYER_SLEEPBEFORE_END,1516239685113,115
443,WS_SEND_START,1516239685113,115
443,WS_SEND_END,1516239685113,115
443,WS_RECV_START,1516239685113,116
443,WS_RECV_END,1516239685324,116
443,PLAYER_SLEEPBEFORE_START,1516239685324,117
443,PLAYER_SLEEPBEFORE_END,1516239705684,117
443,WS_SEND_START,1516239705684,117
443,WS_SEND_END,1516239705684,117
443,PLAYER_SLEEPBEFORE_START,1516239705684,118
443,PLAYER_SLEEPBEFORE_END,1516239709436,118
443,WS_SEND_START,1516239709436,118
443,WS_SEND_END,1516239709436,118
443,WS_RECV_START,1516239709436,119
443,WS_RECV_END,1516239709598,119
443,PLAYER_SLEEPBEFORE_START,1516239709598,120
443,PLAYER_SLEEPBEFORE_END,1516239710586,120
443,WS_SEND_START,1516239710586,120
443,WS_SEND_END,1516239710586,120
443,WS_RECV_START,1516239710586,121
443,WS_RECV_END,1516239710769,121
443,PLAYER_SLEEPBEFORE_START,1516239710769,122
443,PLAYER_SLEEPBEFORE_END,1516239711954,122
443,WS_SEND_START,1516239711954,122
443,WS_SEND_END,1516239711954,122
443,WS_RECV_START,1516239711954,123
443,WS_RECV_END,1516239712139,123
443,PLAYER_SLEEPBEFORE_START,1516239712139,124
443,PLAYER_SLEEPBEFORE_END,1516239736544,124
443,WS_SEND_START,1516239736544,124
443,WS_SEND_END,1516239736544,124
443,WS_RECV_START,1516239736544,125
443,WS_RECV_END,1516239737002,125
443,PLAYER_SLEEPBEFORE_START,1516239737002,126
443,PLAYER_SLEEPBEFORE_END,1516239757515,126
443,WS_SEND_START,1516239757515,126
443,WS_SEND_END,1516239757515,126
443,PLAYER_SLEEPBEFORE_START,1516239757515,127
443,PLAYER_SLEEPBEFORE_END,1516239760569,127
443,WS_SEND_START,1516239760569,127
443,WS_SEND_END,1516239760569,127
443,WS_RECV_START,1516239760569,128
443,WS_RECV_END,1516239761177,128
443,PLAYER_SLEEPBEFORE_START,1516239761177,129
443,PLAYER_SLEEPBEFORE_END,1516239761197,129
443,WS_SEND_START,1516239761197,129
443,WS_SEND_END,1516239761197,129
443,WS_RECV_START,1516239761197,130
443,WS_RECV_END,1516239761862,130
443,PLAYER_SLEEPBEFORE_START,1516239761862,131
443,PLAYER_SLEEPBEFORE_END,1516239783486,131
443,WS_SEND_START,1516239783486,131
443,WS_SEND_END,1516239783487,131
443,PLAYER_SLEEPBEFORE_START,1516239783487,132
443,PLAYER_SLEEPBEFORE_END,1516239786567,132
443,WS_SEND_START,1516239786567,132
443,WS_SEND_END,1516239786567,132
443,WS_RECV_START,1516239786567,133
443,WS_RECV_END,1516239787153,133
443,PLAYER_SLEEPBEFORE_START,1516239787153,134
443,PLAYER_SLEEPBEFORE_END,1516239808370,134
443,WS_SEND_START,1516239808370,134
443,WS_SEND_END,1516239808370,134
443,PLAYER_SLEEPBEFORE_START,1516239808370,135
443,PLAYER_SLEEPBEFORE_END,1516239811561,135
443,WS_SEND_START,1516239811561,135
443,WS_SEND_END,1516239811561,135
443,WS_RECV_START,1516239811561,136
443,WS_RECV_END,1516239811759,136
443,PLAYER_SLEEPBEFORE_START,1516239811759,137
443,PLAYER_SLEEPBEFORE_END,1516239811766,137
443,WS_SEND_START,1516239811766,137
443,WS_SEND_END,1516239811766,137
443,WS_RECV_START,1516239811766,138
443,WS_RECV_END,1516239812026,138
443,PLAYER_SLEEPBEFORE_START,1516239812026,139
443,PLAYER_SLEEPBEFORE_END,1516239812716,139
443,WS_SEND_START,1516239812716,139
443,WS_SEND_END,1516239812716,139
443,WS_RECV_START,1516239812716,140
443,WS_RECV_END,1516239812816,140
443,PLAYER_SLEEPBEFORE_START,1516239812816,141
443,PLAYER_SLEEPBEFORE_END,1516239813471,141
443,WS_SEND_START,1516239813471,141
443,WS_SEND_END,1516239813471,141
443,WS_RECV_START,1516239813471,142
443,WS_RECV_END,1516239814120,142
443,PLAYER_SLEEPBEFORE_START,1516239814120,143
443,PLAYER_SLEEPBEFORE_END,1516239814177,143
443,WS_SEND_START,1516239814177,143
443,WS_SEND_END,1516239814177,143
443,WS_RECV_START,1516239814177,144
443,WS_RECV_END,1516239814378,144
443,PLAYER_SLEEPBEFORE_START,1516239814378,145
443,PLAYER_SLEEPBEFORE_END,1516239830440,145
443,REQ_START,1516239830440,145
443,REQ_END,1516239830448,145
443,PLAYER_SLEEPBEFORE_START,1516239830448,146
443,PLAYER_SLEEPBEFORE_END,1516239839325,146
443,WS_SEND_START,1516239839325,146
443,WS_SEND_END,1516239839326,146
443,WS_RECV_START,1516239839326,147
443,WS_RECV_END,1516239839982,147
443,PLAYER_SLEEPBEFORE_START,1516239839982,148
443,PLAYER_SLEEPBEFORE_END,1516239861904,148
443,WS_SEND_START,1516239861904,148
443,WS_SEND_END,1516239861904,148
443,PLAYER_SLEEPBEFORE_START,1516239861904,149
443,PLAYER_SLEEPBEFORE_END,1516239864332,149
443,WS_SEND_START,1516239864332,149
443,WS_SEND_END,1516239864332,149
443,WS_RECV_START,1516239864332,150
443,WS_RECV_END,1516239864692,150
443,PLAYER_SLEEPBEFORE_START,1516239864692,151
443,PLAYER_SLEEPBEFORE_END,1516239864902,151
443,WS_SEND_START,1516239864902,151
443,WS_SEND_END,1516239864903,151
443,WS_RECV_START,1516239864903,152
443,WS_RECV_END,1516239865125,152
443,PLAYER_SLEEPBEFORE_START,1516239865125,153
443,PLAYER_SLEEPBEFORE_END,1516239889052,153
443,WS_SEND_START,1516239889052,153
443,WS_SEND_END,1516239889052,153
443,WS_RECV_START,1516239889052,154
443,WS_RECV_END,1516239889306,154
443,PLAYER_SLEEPBEFORE_START,1516239889306,155
443,PLAYER_SLEEPBEFORE_END,1516239911864,155
443,WS_SEND_START,1516239911864,155
443,WS_SEND_END,1516239911864,155
443,PLAYER_SLEEPBEFORE_START,1516239911864,156
443,PLAYER_SLEEPBEFORE_END,1516239915138,156
443,WS_SEND_START,1516239915138,156
443,WS_SEND_END,1516239915138,156
443,WS_RECV_START,1516239915138,157
443,WS_RECV_END,1516239915211,157
443,PLAYER_SLEEPBEFORE_START,1516239915211,158
443,PLAYER_SLEEPBEFORE_END,1516239915222,158
443,WS_SEND_START,1516239915222,158
443,WS_SEND_END,1516239915222,158
443,WS_RECV_START,1516239915222,159
443,WS_RECV_END,1516239915266,159
443,PLAYER_SLEEPBEFORE_START,1516239915266,160
443,PLAYER_SLEEPBEFORE_END,1516239915441,160
443,WS_SEND_START,1516239915441,160
443,WS_SEND_END,1516239915441,160
443,WS_RECV_START,1516239915441,161
443,WS_RECV_END,1516239915580,161
443,PLAYER_SLEEPBEFORE_START,1516239915580,162
443,PLAYER_SLEEPBEFORE_END,1516239915605,162
443,WS_SEND_START,1516239915605,162
443,WS_SEND_END,1516239915605,162
443,WS_RECV_START,1516239915605,163
443,WS_RECV_END,1516239915799,163
443,PLAYER_SLEEPBEFORE_START,1516239915799,164
443,PLAYER_SLEEPBEFORE_END,1516239936611,164
443,WS_SEND_START,1516239936611,164
443,WS_SEND_END,1516239936611,164
443,WS_RECV_START,1516239936611,165
443,WS_RECV_END,1516239936850,165
443,PLAYER_SLEEPBEFORE_START,1516239936850,166
443,PLAYER_SLEEPBEFORE_END,1516239959305,166
443,WS_SEND_START,1516239959305,166
443,WS_SEND_END,1516239959305,166
443,WS_RECV_START,1516239959305,167
443,WS_RECV_END,1516239960074,167
443,PLAYER_SLEEPBEFORE_START,1516239960074,168
443,PLAYER_SLEEPBEFORE_END,1516239987431,168
443,WS_SEND_START,1516239987431,168
443,WS_SEND_END,1516239987431,168
443,WS_RECV_START,1516239987431,169
443,WS_RECV_END,1516239989370,169
443,PLAYER_SLEEPBEFORE_START,1516239989370,170
443,PLAYER_SLEEPBEFORE_END,1516239989379,170
443,WS_SEND_START,1516239989379,170
443,WS_SEND_END,1516239989379,170
443,WS_RECV_START,1516239989379,171
443,WS_RECV_END,1516239990470,171
443,PLAYER_SLEEPBEFORE_START,1516239990470,172
443,PLAYER_SLEEPBEFORE_END,1516239990839,172
443,WS_SEND_START,1516239990839,172
443,WS_SEND_END,1516239990839,172
443,WS_RECV_START,1516239990839,173
443,WS_RECV_END,1516239992832,173
443,PLAYER_SLEEPBEFORE_START,1516239992832,174
443,PLAYER_SLEEPBEFORE_END,1516239992874,174
443,WS_SEND_START,1516239992874,174
443,WS_SEND_END,1516239992874,174
443,WS_RECV_START,1516239992874,175
443,WS_RECV_END,1516239994637,175
443,PLAYER_SLEEPBEFORE_START,1516239994637,176
443,PLAYER_SLEEPBEFORE_END,1516240016399,176
443,WS_SEND_START,1516240016399,176
443,WS_SEND_END,1516240016399,176
443,PLAYER_SLEEPBEFORE_START,1516240016399,177
443,PLAYER_SLEEPBEFORE_END,1516240018917,177
443,WS_SEND_START,1516240018917,177
443,WS_SEND_END,1516240018917,177
443,WS_RECV_START,1516240018917,178
443,WS_RECV_END,1516240021077,178
443,PLAYER_SLEEPBEFORE_START,1516240021077,179
443,PLAYER_SLEEPBEFORE_END,1516240043417,179
443,WS_SEND_START,1516240043417,179
443,WS_SEND_END,1516240043417,179
443,WS_RECV_START,1516240043417,180
443,WS_RECV_END,1516240044322,180
443,PLAYER_SLEEPBEFORE_START,1516240044322,181
443,PLAYER_SLEEPBEFORE_END,1516240044766,181
443,WS_SEND_START,1516240044766,181
443,WS_SEND_END,1516240044766,181
443,WS_RECV_START,1516240044766,182
443,WS_RECV_END,1516240045263,182
443,PLAYER_SLEEPBEFORE_START,1516240045263,183
443,PLAYER_SLEEPBEFORE_END,1516240045787,183
443,WS_SEND_START,1516240045787,183
443,WS_SEND_END,1516240045787,183
443,WS_RECV_START,1516240045787,184
443,WS_RECV_END,1516240046683,184
443,PLAYER_SLEEPBEFORE_START,1516240046683,185
443,PLAYER_SLEEPBEFORE_END,1516240046952,185
443,WS_SEND_START,1516240046952,185
443,WS_SEND_END,1516240046952,185
443,WS_RECV_START,1516240046952,186
443,WS_RECV_END,1516240048280,186
443,PLAYER_SLEEPBEFORE_START,1516240048280,187
443,PLAYER_SLEEPBEFORE_END,1516240070780,187
443,WS_SEND_START,1516240070780,187
443,WS_SEND_END,1516240070780,187
443,WS_RECV_START,1516240070780,188
443,WS_RECV_END,1516240071015,188
443,PLAYER_SLEEPBEFORE_START,1516240071015,189
443,PLAYER_SLEEPBEFORE_END,1516240077254,189
443,WS_SEND_START,1516240077254,189
443,WS_SEND_END,1516240077254,189
443,WS_RECV_START,1516240077254,190
443,WS_RECV_END,1516240078049,190
443,PLAYER_SLEEPBEFORE_START,1516240078049,191
443,PLAYER_SLEEPBEFORE_END,1516240079964,191
443,WS_SEND_START,1516240079964,191
443,WS_SEND_END,1516240079964,191
443,WS_RECV_START,1516240079964,192
443,WS_RECV_END,1516240081424,192
443,PLAYER_SLEEPBEFORE_START,1516240081424,193
443,PLAYER_SLEEPBEFORE_END,1516240081552,193
443,WS_SEND_START,1516240081552,193
443,WS_SEND_END,1516240081552,193
443,WS_RECV_START,1516240081552,194
443,WS_RECV_END,1516240082755,194
443,PLAYER_SLEEPBEFORE_START,1516240082755,195
443,PLAYER_SLEEPBEFORE_END,1516240084510,195
443,WS_SEND_START,1516240084510,195
443,WS_SEND_END,1516240084510,195
443,WS_RECV_START,1516240084510,196
443,WS_RECV_END,1516240084781,196
443,PLAYER_SLEEPBEFORE_START,1516240084781,197
443,PLAYER_SLEEPBEFORE_END,1516240086585,197
443,WS_SEND_START,1516240086585,197
443,WS_SEND_END,1516240086585,197
443,WS_RECV_START,1516240086585,198
443,WS_RECV_END,1516240087421,198
443,PLAYER_SLEEPBEFORE_START,1516240087421,199
443,PLAYER_SLEEPBEFORE_END,1516240099275,199
443,WS_SEND_START,1516240099275,199
443,WS_SEND_END,1516240099275,199
443,PLAYER_SLEEPBEFORE_START,1516240099275,200
443,PLAYER_SLEEPBEFORE_END,1516240103363,200
443,WS_SEND_START,1516240103363,200
443,WS_SEND_END,1516240103363,200
443,WS_RECV_START,1516240103363,201
443,WS_RECV_END,1516240103631,201
443,PLAYER_SLEEPBEFORE_START,1516240103631,202
443,PLAYER_SLEEPBEFORE_END,1516240103645,202
443,WS_SEND_START,1516240103645,202
443,WS_SEND_END,1516240103645,202
443,WS_RECV_START,1516240103645,203
443,WS_RECV_END,1516240103798,203
443,PLAYER_SLEEPBEFORE_START,1516240103798,204
443,PLAYER_SLEEPBEFORE_END,1516240123447,204
443,WS_SEND_START,1516240123447,204
443,WS_SEND_END,1516240123447,204
443,PLAYER_SLEEPBEFORE_START,1516240123447,205
443,PLAYER_SLEEPBEFORE_END,1516240127345,205
443,WS_SEND_START,1516240127345,205
443,WS_SEND_END,1516240127345,205
443,WS_RECV_START,1516240127345,206
443,WS_RECV_END,1516240128007,206
443,PLAYER_SLEEPBEFORE_START,1516240128007,207
443,PLAYER_SLEEPBEFORE_END,1516240144938,207
443,REQ_START,1516240144938,207
443,REQ_END,1516240144946,207
443,PLAYER_SLEEPBEFORE_START,1516240144946,208
443,PLAYER_SLEEPBEFORE_END,1516240151799,208
443,WS_CLOSE_START,1516240151799,208
443,WS_CLOSE_END,1516240151799,208
443,PLAYER_DONE,1516240151799
