# --sessions 1080 --app-url=http://shinyloadtest.rstudioservices.com/cran_explorer --output-dir test1080 --overwrite-output --log-level warn --start-interval 250 15min.log
thread_id,event,timestamp,input_line_number,comment
498,PLAYER_SESSION_CREATE,1516239120649
498,PLAYER_START_INTERVAL_START,1516239120649
498,PLAYER_START_INTERVAL_END,1516239245149
498,REQ_HOME_START,1516239245149,2
498,REQ_HOME_END,1516239245227,2
498,REQ_START,1516239245227,3
498,REQ_END,1516239245257,3
498,REQ_START,1516239245257,4
498,REQ_END,1516239245288,4
498,REQ_START,1516239245288,5
498,REQ_END,1516239245328,5
498,REQ_START,1516239245328,6
498,REQ_END,1516239245360,6
498,REQ_START,1516239245360,7
498,REQ_END,1516239245392,7
498,REQ_START,1516239245392,8
498,REQ_END,1516239245424,8
498,REQ_START,1516239245424,9
498,REQ_END,1516239245456,9
498,REQ_START,1516239245456,10
498,REQ_END,1516239245464,10
498,REQ_START,1516239245464,11
498,REQ_END,1516239245495,11
498,REQ_START,1516239245495,12
498,REQ_END,1516239245505,12
498,REQ_START,1516239245505,13
498,REQ_END,1516239245533,13
498,REQ_START,1516239245533,14
498,REQ_END,1516239245547,14
498,REQ_START,1516239245547,15
498,REQ_END,1516239245579,15
498,REQ_TOK_START,1516239245579,16
498,REQ_TOK_END,1516239245586,16
498,REQ_SINF_START,1516239245586,17
498,REQ_SINF_END,1516239245599,17
498,WS_OPEN_START,1516239245600,18
498,WS_OPEN_END,1516239245606,18
498,REQ_START,1516239245606,19
498,REQ_END,1516239245633,19
498,WS_RECV_START,1516239245633,20
498,WS_RECV_END,1516239245633,20
498,PLAYER_SLEEPBEFORE_START,1516239245633,21
498,PLAYER_SLEEPBEFORE_END,1516239245638,21
498,WS_SEND_START,1516239245638,21
498,WS_SEND_END,1516239245638,21
498,PLAYER_SLEEPBEFORE_START,1516239245638,22
498,PLAYER_SLEEPBEFORE_END,1516239245639,22
498,WS_SEND_START,1516239245639,22
498,WS_SEND_END,1516239245639,22
498,WS_RECV_INIT_START,1516239245639,23
498,WS_RECV_INIT_END,1516239245658,23
498,WS_RECV_START,1516239245658,24
498,WS_RECV_END,1516239245744,24
498,PLAYER_SLEEPBEFORE_START,1516239245744,25
498,PLAYER_SLEEPBEFORE_END,1516239245751,25
498,REQ_START,1516239245751,25
498,REQ_END,1516239245785,25
498,PLAYER_SLEEPBEFORE_START,1516239245785,26
498,PLAYER_SLEEPBEFORE_END,1516239245786,26
498,REQ_START,1516239245786,26
498,REQ_END,1516239245816,26
498,PLAYER_SLEEPBEFORE_START,1516239245816,27
498,PLAYER_SLEEPBEFORE_END,1516239245819,27
498,REQ_START,1516239245819,27
498,REQ_END,1516239245884,27
498,PLAYER_SLEEPBEFORE_START,1516239245884,28
498,PLAYER_SLEEPBEFORE_END,1516239246169,28
498,REQ_START,1516239246169,28
498,REQ_END,1516239246198,28
498,PLAYER_SLEEPBEFORE_START,1516239246198,29
498,PLAYER_SLEEPBEFORE_END,1516239246373,29
498,WS_SEND_START,1516239246373,29
498,WS_SEND_END,1516239246373,29
498,WS_RECV_START,1516239246373,30
498,WS_RECV_END,1516239246486,30
498,PLAYER_SLEEPBEFORE_START,1516239246486,31
498,PLAYER_SLEEPBEFORE_END,1516239246497,31
498,REQ_START,1516239246497,31
498,REQ_END,1516239246639,31
498,PLAYER_SLEEPBEFORE_START,1516239246639,32
498,PLAYER_SLEEPBEFORE_END,1516239274784,32
498,WS_SEND_START,1516239274784,32
498,WS_SEND_END,1516239274784,32
498,WS_RECV_START,1516239274784,33
498,WS_RECV_END,1516239274887,33
498,PLAYER_SLEEPBEFORE_START,1516239274887,34
498,PLAYER_SLEEPBEFORE_END,1516239300798,34
498,WS_SEND_START,1516239300798,34
498,WS_SEND_END,1516239300798,34
498,WS_RECV_START,1516239300798,35
498,WS_RECV_END,1516239300828,35
498,PLAYER_SLEEPBEFORE_START,1516239300828,36
498,PLAYER_SLEEPBEFORE_END,1516239300837,36
498,WS_SEND_START,1516239300837,36
498,WS_SEND_END,1516239300838,36
498,WS_RECV_START,1516239300838,37
498,WS_RECV_END,1516239300882,37
498,PLAYER_SLEEPBEFORE_START,1516239300882,38
498,PLAYER_SLEEPBEFORE_END,1516239304077,38
498,WS_SEND_START,1516239304077,38
498,WS_SEND_END,1516239304077,38
498,WS_RECV_START,1516239304077,39
498,WS_RECV_END,1516239304323,39
498,PLAYER_SLEEPBEFORE_START,1516239304323,40
498,PLAYER_SLEEPBEFORE_END,1516239304369,40
498,WS_SEND_START,1516239304369,40
498,WS_SEND_END,1516239304369,40
498,WS_RECV_START,1516239304369,41
498,WS_RECV_END,1516239304671,41
498,PLAYER_SLEEPBEFORE_START,1516239304671,42
498,PLAYER_SLEEPBEFORE_END,1516239322806,42
498,WS_SEND_START,1516239322806,42
498,WS_SEND_END,1516239322806,42
498,WS_RECV_START,1516239322807,43
498,WS_RECV_END,1516239322870,43
498,PLAYER_SLEEPBEFORE_START,1516239322870,44
498,PLAYER_SLEEPBEFORE_END,1516239322882,44
498,WS_SEND_START,1516239322882,44
498,WS_SEND_END,1516239322882,44
498,WS_RECV_START,1516239322882,45
498,WS_RECV_END,1516239323054,45
498,PLAYER_SLEEPBEFORE_START,1516239323054,46
498,PLAYER_SLEEPBEFORE_END,1516239324314,46
498,WS_SEND_START,1516239324314,46
498,WS_SEND_END,1516239324314,46
498,WS_RECV_START,1516239324314,47
498,WS_RECV_END,1516239324337,47
498,PLAYER_SLEEPBEFORE_START,1516239324337,48
498,PLAYER_SLEEPBEFORE_END,1516239325657,48
498,WS_SEND_START,1516239325657,48
498,WS_SEND_END,1516239325657,48
498,WS_RECV_START,1516239325657,49
498,WS_RECV_END,1516239325890,49
498,PLAYER_SLEEPBEFORE_START,1516239325890,50
498,PLAYER_SLEEPBEFORE_END,1516239325914,50
498,WS_SEND_START,1516239325914,50
498,WS_SEND_END,1516239325914,50
498,WS_RECV_START,1516239325914,51
498,WS_RECV_END,1516239326280,51
498,PLAYER_SLEEPBEFORE_START,1516239326280,52
498,PLAYER_SLEEPBEFORE_END,1516239348844,52
498,WS_SEND_START,1516239348844,52
498,WS_SEND_END,1516239348844,52
498,WS_RECV_START,1516239348844,53
498,WS_RECV_END,1516239349240,53
498,PLAYER_SLEEPBEFORE_START,1516239349240,54
498,PLAYER_SLEEPBEFORE_END,1516239370543,54
498,WS_SEND_START,1516239370543,54
498,WS_SEND_END,1516239370543,54
498,PLAYER_SLEEPBEFORE_START,1516239370543,55
498,PLAYER_SLEEPBEFORE_END,1516239372485,55
498,WS_SEND_START,1516239372485,55
498,WS_SEND_END,1516239372485,55
498,WS_RECV_START,1516239372485,56
498,WS_RECV_END,1516239372575,56
498,PLAYER_SLEEPBEFORE_START,1516239372575,57
498,PLAYER_SLEEPBEFORE_END,1516239395447,57
498,WS_SEND_START,1516239395447,57
498,WS_SEND_END,1516239395447,57
498,WS_RECV_START,1516239395447,58
498,WS_RECV_END,1516239395558,58
498,PLAYER_SLEEPBEFORE_START,1516239395558,59
498,PLAYER_SLEEPBEFORE_END,1516239397886,59
498,WS_SEND_START,1516239397886,59
498,WS_SEND_END,1516239397886,59
498,WS_RECV_START,1516239397886,60
498,WS_RECV_END,1516239398018,60
498,PLAYER_SLEEPBEFORE_START,1516239398018,61
498,PLAYER_SLEEPBEFORE_END,1516239401609,61
498,WS_SEND_START,1516239401609,61
498,WS_SEND_END,1516239401609,61
498,WS_RECV_START,1516239401609,62
498,WS_RECV_END,1516239402539,62
498,PLAYER_SLEEPBEFORE_START,1516239402539,63
498,PLAYER_SLEEPBEFORE_END,1516239421801,63
498,WS_SEND_START,1516239421801,63
498,WS_SEND_END,1516239421801,63
498,WS_RECV_START,1516239421801,64
498,WS_RECV_END,1516239421860,64
498,PLAYER_SLEEPBEFORE_START,1516239421860,65
498,PLAYER_SLEEPBEFORE_END,1516239448677,65
498,WS_SEND_START,1516239448677,65
498,WS_SEND_END,1516239448677,65
498,WS_RECV_START,1516239448677,66
498,WS_RECV_END,1516239448814,66
498,PLAYER_SLEEPBEFORE_START,1516239448814,67
498,PLAYER_SLEEPBEFORE_END,1516239450322,67
498,WS_SEND_START,1516239450322,67
498,WS_SEND_END,1516239450322,67
498,WS_RECV_START,1516239450322,68
498,WS_RECV_END,1516239450415,68
498,PLAYER_SLEEPBEFORE_START,1516239450415,69
498,PLAYER_SLEEPBEFORE_END,1516239472413,69
498,WS_SEND_START,1516239472413,69
498,WS_SEND_END,1516239472413,69
498,WS_RECV_START,1516239472413,70
498,WS_RECV_END,1516239472659,70
498,PLAYER_SLEEPBEFORE_START,1516239472659,71
498,PLAYER_SLEEPBEFORE_END,1516239497434,71
498,WS_SEND_START,1516239497434,71
498,WS_SEND_END,1516239497434,71
498,PLAYER_SLEEPBEFORE_START,1516239497434,72
498,PLAYER_SLEEPBEFORE_END,1516239500041,72
498,WS_SEND_START,1516239500041,72
498,WS_SEND_END,1516239500041,72
498,WS_RECV_START,1516239500041,73
498,WS_RECV_END,1516239500236,73
498,PLAYER_SLEEPBEFORE_START,1516239500236,74
498,PLAYER_SLEEPBEFORE_END,1516239500245,74
498,WS_SEND_START,1516239500245,74
498,WS_SEND_END,1516239500245,74
498,WS_RECV_START,1516239500245,75
498,WS_RECV_END,1516239500286,75
498,PLAYER_SLEEPBEFORE_START,1516239500286,76
498,PLAYER_SLEEPBEFORE_END,1516239501792,76
498,WS_SEND_START,1516239501792,76
498,WS_SEND_END,1516239501792,76
498,WS_RECV_START,1516239501792,77
498,WS_RECV_END,1516239501853,77
498,PLAYER_SLEEPBEFORE_START,1516239501853,78
498,PLAYER_SLEEPBEFORE_END,1516239502721,78
498,WS_SEND_START,1516239502721,78
498,WS_SEND_END,1516239502721,78
498,WS_RECV_START,1516239502721,79
498,WS_RECV_END,1516239502852,79
498,PLAYER_SLEEPBEFORE_START,1516239502852,80
498,PLAYER_SLEEPBEFORE_END,1516239510518,80
498,WS_SEND_START,1516239510518,80
498,WS_SEND_END,1516239510518,80
498,WS_RECV_START,1516239510518,81
498,WS_RECV_END,1516239510703,81
498,PLAYER_SLEEPBEFORE_START,1516239510703,82
498,PLAYER_SLEEPBEFORE_END,1516239511805,82
498,WS_SEND_START,1516239511805,82
498,WS_SEND_END,1516239511805,82
498,WS_RECV_START,1516239511805,83
498,WS_RECV_END,1516239511844,83
498,PLAYER_SLEEPBEFORE_START,1516239511844,84
498,PLAYER_SLEEPBEFORE_END,1516239512791,84
498,WS_SEND_START,1516239512791,84
498,WS_SEND_END,1516239512791,84
498,WS_RECV_START,1516239512791,85
498,WS_RECV_END,1516239512839,85
498,PLAYER_SLEEPBEFORE_START,1516239512839,86
498,PLAYER_SLEEPBEFORE_END,1516239517011,86
498,WS_SEND_START,1516239517011,86
498,WS_SEND_END,1516239517011,86
498,WS_RECV_START,1516239517011,87
498,WS_RECV_END,1516239517134,87
498,PLAYER_SLEEPBEFORE_START,1516239517134,88
498,PLAYER_SLEEPBEFORE_END,1516239517142,88
498,WS_SEND_START,1516239517142,88
498,WS_SEND_END,1516239517142,88
498,WS_RECV_START,1516239517142,89
498,WS_RECV_END,1516239517280,89
498,PLAYER_SLEEPBEFORE_START,1516239517280,90
498,PLAYER_SLEEPBEFORE_END,1516239544477,90
498,REQ_START,1516239544477,90
498,REQ_END,1516239544484,90
498,PLAYER_SLEEPBEFORE_START,1516239544484,91
498,PLAYER_SLEEPBEFORE_END,1516239552373,91
498,WS_SEND_START,1516239552373,91
498,WS_SEND_END,1516239552373,91
498,WS_RECV_START,1516239552373,92
498,WS_RECV_END,1516239552472,92
498,PLAYER_SLEEPBEFORE_START,1516239552472,93
498,PLAYER_SLEEPBEFORE_END,1516239552487,93
498,WS_SEND_START,1516239552487,93
498,WS_SEND_END,1516239552487,93
498,WS_RECV_START,1516239552487,94
498,WS_RECV_END,1516239552678,94
498,PLAYER_SLEEPBEFORE_START,1516239552678,95
498,PLAYER_SLEEPBEFORE_END,1516239576233,95
498,WS_SEND_START,1516239576233,95
498,WS_SEND_END,1516239576233,95
498,WS_RECV_START,1516239576233,96
498,WS_RECV_END,1516239576401,96
498,PLAYER_SLEEPBEFORE_START,1516239576401,97
498,PLAYER_SLEEPBEFORE_END,1516239598841,97
498,WS_SEND_START,1516239598841,97
498,WS_SEND_END,1516239598841,97
498,WS_RECV_START,1516239598841,98
498,WS_RECV_END,1516239599097,98
498,PLAYER_SLEEPBEFORE_START,1516239599097,99
498,PLAYER_SLEEPBEFORE_END,1516239599118,99
498,WS_SEND_START,1516239599118,99
498,WS_SEND_END,1516239599119,99
498,WS_RECV_START,1516239599119,100
498,WS_RECV_END,1516239600074,100
498,PLAYER_SLEEPBEFORE_START,1516239600074,101
498,PLAYER_SLEEPBEFORE_END,1516239623634,101
498,WS_SEND_START,1516239623634,101
498,WS_SEND_END,1516239623634,101
498,WS_RECV_START,1516239623634,102
498,WS_RECV_END,1516239624462,102
498,PLAYER_SLEEPBEFORE_START,1516239624462,103
498,PLAYER_SLEEPBEFORE_END,1516239648087,103
498,WS_SEND_START,1516239648087,103
498,WS_SEND_END,1516239648087,103
498,WS_RECV_START,1516239648087,104
498,WS_RECV_END,1516239648907,104
498,PLAYER_SLEEPBEFORE_START,1516239648907,105
498,PLAYER_SLEEPBEFORE_END,1516239674284,105
498,WS_SEND_START,1516239674284,105
498,WS_SEND_END,1516239674285,105
498,WS_RECV_START,1516239674285,106
498,WS_RECV_END,1516239674458,106
498,PLAYER_SLEEPBEFORE_START,1516239674458,107
498,PLAYER_SLEEPBEFORE_END,1516239697881,107
498,WS_SEND_START,1516239697881,107
498,WS_SEND_END,1516239697881,107
498,WS_RECV_START,1516239697881,108
498,WS_RECV_END,1516239698184,108
498,PLAYER_SLEEPBEFORE_START,1516239698184,109
498,PLAYER_SLEEPBEFORE_END,1516239698193,109
498,WS_SEND_START,1516239698193,109
498,WS_SEND_END,1516239698193,109
498,WS_RECV_START,1516239698193,110
498,WS_RECV_END,1516239698350,110
498,PLAYER_SLEEPBEFORE_START,1516239698350,111
498,PLAYER_SLEEPBEFORE_END,1516239699309,111
498,WS_SEND_START,1516239699309,111
498,WS_SEND_END,1516239699309,111
498,WS_RECV_START,1516239699309,112
498,WS_RECV_END,1516239699366,112
498,PLAYER_SLEEPBEFORE_START,1516239699366,113
498,PLAYER_SLEEPBEFORE_END,1516239699928,113
498,WS_SEND_START,1516239699928,113
498,WS_SEND_END,1516239699928,113
498,WS_RECV_START,1516239699928,114
498,WS_RECV_END,1516239700057,114
498,PLAYER_SLEEPBEFORE_START,1516239700057,115
498,PLAYER_SLEEPBEFORE_END,1516239700066,115
498,WS_SEND_START,1516239700066,115
498,WS_SEND_END,1516239700066,115
498,WS_RECV_START,1516239700066,116
498,WS_RECV_END,1516239700255,116
498,PLAYER_SLEEPBEFORE_START,1516239700255,117
498,PLAYER_SLEEPBEFORE_END,1516239720615,117
498,WS_SEND_START,1516239720615,117
498,WS_SEND_END,1516239720615,117
498,PLAYER_SLEEPBEFORE_START,1516239720615,118
498,PLAYER_SLEEPBEFORE_END,1516239724367,118
498,WS_SEND_START,1516239724367,118
498,WS_SEND_END,1516239724367,118
498,WS_RECV_START,1516239724367,119
498,WS_RECV_END,1516239726515,119
498,PLAYER_SLEEPBEFORE_START,1516239726515,120
498,PLAYER_SLEEPBEFORE_END,1516239727503,120
498,WS_SEND_START,1516239727503,120
498,WS_SEND_END,1516239727504,120
498,WS_RECV_START,1516239727504,121
498,WS_RECV_END,1516239729713,121
498,PLAYER_SLEEPBEFORE_START,1516239729713,122
498,PLAYER_SLEEPBEFORE_END,1516239730898,122
498,WS_SEND_START,1516239730898,122
498,WS_SEND_END,1516239730898,122
498,WS_RECV_START,1516239730898,123
498,WS_RECV_END,1516239732797,123
498,PLAYER_SLEEPBEFORE_START,1516239732797,124
498,PLAYER_SLEEPBEFORE_END,1516239757202,124
498,WS_SEND_START,1516239757202,124
498,WS_SEND_END,1516239757202,124
498,WS_RECV_START,1516239757202,125
498,WS_RECV_END,1516239757361,125
498,PLAYER_SLEEPBEFORE_START,1516239757361,126
498,PLAYER_SLEEPBEFORE_END,1516239777873,126
498,WS_SEND_START,1516239777873,126
498,WS_SEND_END,1516239777873,126
498,PLAYER_SLEEPBEFORE_START,1516239777873,127
498,PLAYER_SLEEPBEFORE_END,1516239780927,127
498,WS_SEND_START,1516239780927,127
498,WS_SEND_END,1516239780928,127
498,WS_RECV_START,1516239780928,128
498,WS_RECV_END,1516239781072,128
498,PLAYER_SLEEPBEFORE_START,1516239781072,129
498,PLAYER_SLEEPBEFORE_END,1516239781092,129
498,WS_SEND_START,1516239781092,129
498,WS_SEND_END,1516239781092,129
498,WS_RECV_START,1516239781092,130
498,WS_RECV_END,1516239781333,130
498,PLAYER_SLEEPBEFORE_START,1516239781333,131
498,PLAYER_SLEEPBEFORE_END,1516239802957,131
498,WS_SEND_START,1516239802957,131
498,WS_SEND_END,1516239802957,131
498,PLAYER_SLEEPBEFORE_START,1516239802957,132
498,PLAYER_SLEEPBEFORE_END,1516239806037,132
498,WS_SEND_START,1516239806037,132
498,WS_SEND_END,1516239806037,132
498,WS_RECV_START,1516239806037,133
498,WS_RECV_END,1516239806371,133
498,PLAYER_SLEEPBEFORE_START,1516239806371,134
498,PLAYER_SLEEPBEFORE_END,1516239827588,134
498,WS_SEND_START,1516239827588,134
498,WS_SEND_END,1516239827588,134
498,PLAYER_SLEEPBEFORE_START,1516239827588,135
498,PLAYER_SLEEPBEFORE_END,1516239830778,135
498,WS_SEND_START,1516239830778,135
498,WS_SEND_END,1516239830778,135
498,WS_RECV_START,1516239830778,136
498,WS_RECV_END,1516239831243,136
498,PLAYER_SLEEPBEFORE_START,1516239831243,137
498,PLAYER_SLEEPBEFORE_END,1516239831250,137
498,WS_SEND_START,1516239831250,137
498,WS_SEND_END,1516239831250,137
498,WS_RECV_START,1516239831250,138
498,WS_RECV_END,1516239831670,138
498,PLAYER_SLEEPBEFORE_START,1516239831670,139
498,PLAYER_SLEEPBEFORE_END,1516239832360,139
498,WS_SEND_START,1516239832360,139
498,WS_SEND_END,1516239832360,139
498,WS_RECV_START,1516239832360,140
498,WS_RECV_END,1516239833287,140
498,PLAYER_SLEEPBEFORE_START,1516239833287,141
498,PLAYER_SLEEPBEFORE_END,1516239833942,141
498,WS_SEND_START,1516239833942,141
498,WS_SEND_END,1516239833942,141
498,WS_RECV_START,1516239833942,142
498,WS_RECV_END,1516239834514,142
498,PLAYER_SLEEPBEFORE_START,1516239834514,143
498,PLAYER_SLEEPBEFORE_END,1516239834571,143
498,WS_SEND_START,1516239834571,143
498,WS_SEND_END,1516239834571,143
498,WS_RECV_START,1516239834571,144
498,WS_RECV_END,1516239835818,144
498,PLAYER_SLEEPBEFORE_START,1516239835818,145
498,PLAYER_SLEEPBEFORE_END,1516239851880,145
498,REQ_START,1516239851880,145
498,REQ_END,1516239851887,145
498,PLAYER_SLEEPBEFORE_START,1516239851887,146
498,PLAYER_SLEEPBEFORE_END,1516239860764,146
498,WS_SEND_START,1516239860764,146
498,WS_SEND_END,1516239860764,146
498,WS_RECV_START,1516239860764,147
498,WS_RECV_END,1516239860939,147
498,PLAYER_SLEEPBEFORE_START,1516239860939,148
498,PLAYER_SLEEPBEFORE_END,1516239882861,148
498,WS_SEND_START,1516239882861,148
498,WS_SEND_END,1516239882861,148
498,PLAYER_SLEEPBEFORE_START,1516239882861,149
498,PLAYER_SLEEPBEFORE_END,1516239885289,149
498,WS_SEND_START,1516239885289,149
498,WS_SEND_END,1516239885289,149
498,WS_RECV_START,1516239885289,150
498,WS_RECV_END,1516239885619,150
498,PLAYER_SLEEPBEFORE_START,1516239885619,151
498,PLAYER_SLEEPBEFORE_END,1516239885829,151
498,WS_SEND_START,1516239885829,151
498,WS_SEND_END,1516239885829,151
498,WS_RECV_START,1516239885829,152
498,WS_RECV_END,1516239885985,152
498,PLAYER_SLEEPBEFORE_START,1516239885985,153
498,PLAYER_SLEEPBEFORE_END,1516239909913,153
498,WS_SEND_START,1516239909913,153
498,WS_SEND_END,1516239909913,153
498,WS_RECV_START,1516239909913,154
498,WS_RECV_END,1516239910043,154
498,PLAYER_SLEEPBEFORE_START,1516239910043,155
498,PLAYER_SLEEPBEFORE_END,1516239932601,155
498,WS_SEND_START,1516239932601,155
498,WS_SEND_END,1516239932601,155
498,PLAYER_SLEEPBEFORE_START,1516239932601,156
498,PLAYER_SLEEPBEFORE_END,1516239935875,156
498,WS_SEND_START,1516239935875,156
498,WS_SEND_END,1516239935875,156
498,WS_RECV_START,1516239935875,157
498,WS_RECV_END,1516239936095,157
498,PLAYER_SLEEPBEFORE_START,1516239936095,158
498,PLAYER_SLEEPBEFORE_END,1516239936106,158
498,WS_SEND_START,1516239936106,158
498,WS_SEND_END,1516239936106,158
498,WS_RECV_START,1516239936106,159
498,WS_RECV_END,1516239936146,159
498,PLAYER_SLEEPBEFORE_START,1516239936146,160
498,PLAYER_SLEEPBEFORE_END,1516239936321,160
498,WS_SEND_START,1516239936321,160
498,WS_SEND_END,1516239936321,160
498,WS_RECV_START,1516239936321,161
498,WS_RECV_END,1516239936418,161
498,PLAYER_SLEEPBEFORE_START,1516239936418,162
498,PLAYER_SLEEPBEFORE_END,1516239936443,162
498,WS_SEND_START,1516239936443,162
498,WS_SEND_END,1516239936443,162
498,WS_RECV_START,1516239936443,163
498,WS_RECV_END,1516239936720,163
498,PLAYER_SLEEPBEFORE_START,1516239936720,164
498,PLAYER_SLEEPBEFORE_END,1516239957532,164
498,WS_SEND_START,1516239957532,164
498,WS_SEND_END,1516239957532,164
498,WS_RECV_START,1516239957532,165
498,WS_RECV_END,1516239958388,165
498,PLAYER_SLEEPBEFORE_START,1516239958388,166
498,PLAYER_SLEEPBEFORE_END,1516239980843,166
498,WS_SEND_START,1516239980843,166
498,WS_SEND_END,1516239980843,166
498,WS_RECV_START,1516239980843,167
498,WS_RECV_END,1516239981681,167
498,PLAYER_SLEEPBEFORE_START,1516239981681,168
498,PLAYER_SLEEPBEFORE_END,1516240009038,168
498,WS_SEND_START,1516240009038,168
498,WS_SEND_END,1516240009038,168
498,WS_RECV_START,1516240009038,169
498,WS_RECV_END,1516240011455,169
498,PLAYER_SLEEPBEFORE_START,1516240011455,170
498,PLAYER_SLEEPBEFORE_END,1516240011464,170
498,WS_SEND_START,1516240011464,170
498,WS_SEND_END,1516240011464,170
498,WS_RECV_START,1516240011464,171
498,WS_RECV_END,1516240013066,171
498,PLAYER_SLEEPBEFORE_START,1516240013066,172
498,PLAYER_SLEEPBEFORE_END,1516240013435,172
498,WS_SEND_START,1516240013435,172
498,WS_SEND_END,1516240013435,172
498,WS_RECV_START,1516240013435,173
498,WS_RECV_END,1516240014741,173
498,PLAYER_SLEEPBEFORE_START,1516240014741,174
498,PLAYER_SLEEPBEFORE_END,1516240014782,174
498,WS_SEND_START,1516240014782,174
498,WS_SEND_END,1516240014782,174
498,WS_RECV_START,1516240014783,175
498,WS_RECV_END,1516240015984,175
498,PLAYER_SLEEPBEFORE_START,1516240015984,176
498,PLAYER_SLEEPBEFORE_END,1516240037745,176
498,WS_SEND_START,1516240037745,176
498,WS_SEND_END,1516240037745,176
498,PLAYER_SLEEPBEFORE_START,1516240037745,177
498,PLAYER_SLEEPBEFORE_END,1516240040263,177
498,WS_SEND_START,1516240040263,177
498,WS_SEND_END,1516240040264,177
498,WS_RECV_START,1516240040264,178
498,WS_RECV_END,1516240042361,178
498,PLAYER_SLEEPBEFORE_START,1516240042361,179
498,PLAYER_SLEEPBEFORE_END,1516240064701,179
498,WS_SEND_START,1516240064701,179
498,WS_SEND_END,1516240064701,179
498,WS_RECV_START,1516240064701,180
498,WS_RECV_END,1516240066516,180
498,PLAYER_SLEEPBEFORE_START,1516240066516,181
498,PLAYER_SLEEPBEFORE_END,1516240066960,181
498,WS_SEND_START,1516240066960,181
498,WS_SEND_END,1516240066960,181
498,WS_RECV_START,1516240066960,182
498,WS_RECV_END,1516240067713,182
498,PLAYER_SLEEPBEFORE_START,1516240067713,183
498,PLAYER_SLEEPBEFORE_END,1516240068238,183
498,WS_SEND_START,1516240068238,183
498,WS_SEND_END,1516240068238,183
498,WS_RECV_START,1516240068238,184
498,WS_RECV_END,1516240068859,184
498,PLAYER_SLEEPBEFORE_START,1516240068859,185
498,PLAYER_SLEEPBEFORE_END,1516240069127,185
498,WS_SEND_START,1516240069127,185
498,WS_SEND_END,1516240069127,185
498,WS_RECV_START,1516240069127,186
498,WS_RECV_END,1516240070902,186
498,PLAYER_SLEEPBEFORE_START,1516240070902,187
498,PLAYER_SLEEPBEFORE_END,1516240093402,187
498,WS_SEND_START,1516240093402,187
498,WS_SEND_END,1516240093402,187
498,WS_RECV_START,1516240093402,188
498,WS_RECV_END,1516240093461,188
498,PLAYER_SLEEPBEFORE_START,1516240093461,189
498,PLAYER_SLEEPBEFORE_END,1516240099700,189
498,WS_SEND_START,1516240099700,189
498,WS_SEND_END,1516240099700,189
498,WS_RECV_START,1516240099700,190
498,WS_RECV_END,1516240100158,190
498,PLAYER_SLEEPBEFORE_START,1516240100158,191
498,PLAYER_SLEEPBEFORE_END,1516240102073,191
498,WS_SEND_START,1516240102073,191
498,WS_SEND_END,1516240102073,191
498,WS_RECV_START,1516240102073,192
498,WS_RECV_END,1516240102340,192
498,PLAYER_SLEEPBEFORE_START,1516240102340,193
498,PLAYER_SLEEPBEFORE_END,1516240102468,193
498,WS_SEND_START,1516240102468,193
498,WS_SEND_END,1516240102468,193
498,WS_RECV_START,1516240102468,194
498,WS_RECV_END,1516240102685,194
498,PLAYER_SLEEPBEFORE_START,1516240102685,195
498,PLAYER_SLEEPBEFORE_END,1516240104440,195
498,WS_SEND_START,1516240104440,195
498,WS_SEND_END,1516240104440,195
498,WS_RECV_START,1516240104440,196
498,WS_RECV_END,1516240105248,196
498,PLAYER_SLEEPBEFORE_START,1516240105248,197
498,PLAYER_SLEEPBEFORE_END,1516240107056,197
498,WS_SEND_START,1516240107056,197
498,WS_SEND_END,1516240107056,197
498,WS_RECV_START,1516240107056,198
498,WS_RECV_END,1516240107686,198
498,PLAYER_SLEEPBEFORE_START,1516240107686,199
498,PLAYER_SLEEPBEFORE_END,1516240119540,199
498,WS_SEND_START,1516240119540,199
498,WS_SEND_END,1516240119540,199
498,PLAYER_SLEEPBEFORE_START,1516240119540,200
498,PLAYER_SLEEPBEFORE_END,1516240123628,200
498,WS_SEND_START,1516240123628,200
498,WS_SEND_END,1516240123628,200
498,WS_RECV_START,1516240123628,201
498,WS_RECV_END,1516240124072,201
498,PLAYER_SLEEPBEFORE_START,1516240124072,202
498,PLAYER_SLEEPBEFORE_END,1516240124086,202
498,WS_SEND_START,1516240124086,202
498,WS_SEND_END,1516240124086,202
498,WS_RECV_START,1516240124086,203
498,WS_RECV_END,1516240124401,203
498,PLAYER_SLEEPBEFORE_START,1516240124401,204
498,PLAYER_SLEEPBEFORE_END,1516240144051,204
498,WS_SEND_START,1516240144051,204
498,WS_SEND_END,1516240144051,204
498,PLAYER_SLEEPBEFORE_START,1516240144051,205
498,PLAYER_SLEEPBEFORE_END,1516240147949,205
498,WS_SEND_START,1516240147949,205
498,WS_SEND_END,1516240147949,205
498,WS_RECV_START,1516240147949,206
498,WS_RECV_END,1516240148110,206
498,PLAYER_SLEEPBEFORE_START,1516240148110,207
498,PLAYER_SLEEPBEFORE_END,1516240165041,207
498,REQ_START,1516240165041,207
498,REQ_END,1516240165049,207
498,PLAYER_SLEEPBEFORE_START,1516240165049,208
498,PLAYER_SLEEPBEFORE_END,1516240171901,208
498,WS_CLOSE_START,1516240171901,208
498,WS_CLOSE_END,1516240171901,208
498,PLAYER_DONE,1516240171901
