# --sessions 1080 --app-url=http://shinyloadtest.rstudioservices.com/cran_explorer --output-dir test1080 --overwrite-output --log-level warn --start-interval 250 15min.log
thread_id,event,timestamp,input_line_number,comment
633,PLAYER_SESSION_CREATE,1516239120680
633,PLAYER_START_INTERVAL_START,1516239120680
633,PLAYER_START_INTERVAL_END,1516239278930
633,REQ_HOME_START,1516239278930,2
633,REQ_HOME_END,1516239279009,2
633,REQ_START,1516239279009,3
633,REQ_END,1516239279039,3
633,REQ_START,1516239279039,4
633,REQ_END,1516239279219,4
633,REQ_START,1516239279219,5
633,REQ_END,1516239279252,5
633,REQ_START,1516239279252,6
633,REQ_END,1516239279286,6
633,REQ_START,1516239279286,7
633,REQ_END,1516239279318,7
633,REQ_START,1516239279318,8
633,REQ_END,1516239279352,8
633,REQ_START,1516239279352,9
633,REQ_END,1516239279389,9
633,REQ_START,1516239279389,10
633,REQ_END,1516239279397,10
633,REQ_START,1516239279397,11
633,REQ_END,1516239279428,11
633,REQ_START,1516239279428,12
633,REQ_END,1516239279439,12
633,REQ_START,1516239279439,13
633,REQ_END,1516239279466,13
633,REQ_START,1516239279466,14
633,REQ_END,1516239279480,14
633,REQ_START,1516239279480,15
633,REQ_END,1516239279513,15
633,REQ_TOK_START,1516239279513,16
633,REQ_TOK_END,1516239279520,16
633,REQ_SINF_START,1516239279520,17
633,REQ_SINF_END,1516239279527,17
633,WS_OPEN_START,1516239279527,18
633,WS_OPEN_END,1516239279533,18
633,REQ_START,1516239279533,19
633,REQ_END,1516239279604,19
633,WS_RECV_START,1516239279605,20
633,WS_RECV_END,1516239279605,20
633,PLAYER_SLEEPBEFORE_START,1516239279605,21
633,PLAYER_SLEEPBEFORE_END,1516239279610,21
633,WS_SEND_START,1516239279610,21
633,WS_SEND_END,1516239279610,21
633,PLAYER_SLEEPBEFORE_START,1516239279610,22
633,PLAYER_SLEEPBEFORE_END,1516239279611,22
633,WS_SEND_START,1516239279611,22
633,WS_SEND_END,1516239279611,22
633,WS_RECV_INIT_START,1516239279611,23
633,WS_RECV_INIT_END,1516239279627,23
633,WS_RECV_START,1516239279627,24
633,WS_RECV_END,1516239279692,24
633,PLAYER_SLEEPBEFORE_START,1516239279692,25
633,PLAYER_SLEEPBEFORE_END,1516239279700,25
633,REQ_START,1516239279700,25
633,REQ_END,1516239279731,25
633,PLAYER_SLEEPBEFORE_START,1516239279731,26
633,PLAYER_SLEEPBEFORE_END,1516239279732,26
633,REQ_START,1516239279732,26
633,REQ_END,1516239279842,26
633,PLAYER_SLEEPBEFORE_START,1516239279842,27
633,PLAYER_SLEEPBEFORE_END,1516239279845,27
633,REQ_START,1516239279845,27
633,REQ_END,1516239279877,27
633,PLAYER_SLEEPBEFORE_START,1516239279877,28
633,PLAYER_SLEEPBEFORE_END,1516239280163,28
633,REQ_START,1516239280163,28
633,REQ_END,1516239280193,28
633,PLAYER_SLEEPBEFORE_START,1516239280193,29
633,PLAYER_SLEEPBEFORE_END,1516239280368,29
633,WS_SEND_START,1516239280368,29
633,WS_SEND_END,1516239280368,29
633,WS_RECV_START,1516239280368,30
633,WS_RECV_END,1516239280503,30
633,PLAYER_SLEEPBEFORE_START,1516239280503,31
633,PLAYER_SLEEPBEFORE_END,1516239280514,31
633,REQ_START,1516239280514,31
633,REQ_END,1516239280610,31
633,PLAYER_SLEEPBEFORE_START,1516239280610,32
633,PLAYER_SLEEPBEFORE_END,1516239308755,32
633,WS_SEND_START,1516239308755,32
633,WS_SEND_END,1516239308755,32
633,WS_RECV_START,1516239308755,33
633,WS_RECV_END,1516239308979,33
633,PLAYER_SLEEPBEFORE_START,1516239308979,34
633,PLAYER_SLEEPBEFORE_END,1516239334890,34
633,WS_SEND_START,1516239334890,34
633,WS_SEND_END,1516239334890,34
633,WS_RECV_START,1516239334890,35
633,WS_RECV_END,1516239335269,35
633,PLAYER_SLEEPBEFORE_START,1516239335269,36
633,PLAYER_SLEEPBEFORE_END,1516239335279,36
633,WS_SEND_START,1516239335279,36
633,WS_SEND_END,1516239335279,36
633,WS_RECV_START,1516239335279,37
633,WS_RECV_END,1516239335466,37
633,PLAYER_SLEEPBEFORE_START,1516239335466,38
633,PLAYER_SLEEPBEFORE_END,1516239338661,38
633,WS_SEND_START,1516239338661,38
633,WS_SEND_END,1516239338661,38
633,WS_RECV_START,1516239338661,39
633,WS_RECV_END,1516239338960,39
633,PLAYER_SLEEPBEFORE_START,1516239338960,40
633,PLAYER_SLEEPBEFORE_END,1516239339006,40
633,WS_SEND_START,1516239339006,40
633,WS_SEND_END,1516239339006,40
633,WS_RECV_START,1516239339006,41
633,WS_RECV_END,1516239339286,41
633,PLAYER_SLEEPBEFORE_START,1516239339286,42
633,PLAYER_SLEEPBEFORE_END,1516239357421,42
633,WS_SEND_START,1516239357421,42
633,WS_SEND_END,1516239357421,42
633,WS_RECV_START,1516239357421,43
633,WS_RECV_END,1516239357541,43
633,PLAYER_SLEEPBEFORE_START,1516239357541,44
633,PLAYER_SLEEPBEFORE_END,1516239357553,44
633,WS_SEND_START,1516239357553,44
633,WS_SEND_END,1516239357553,44
633,WS_RECV_START,1516239357553,45
633,WS_RECV_END,1516239357734,45
633,PLAYER_SLEEPBEFORE_START,1516239357734,46
633,PLAYER_SLEEPBEFORE_END,1516239358994,46
633,WS_SEND_START,1516239358994,46
633,WS_SEND_END,1516239358994,46
633,WS_RECV_START,1516239358994,47
633,WS_RECV_END,1516239359038,47
633,PLAYER_SLEEPBEFORE_START,1516239359038,48
633,PLAYER_SLEEPBEFORE_END,1516239360358,48
633,WS_SEND_START,1516239360358,48
633,WS_SEND_END,1516239360358,48
633,WS_RECV_START,1516239360358,49
633,WS_RECV_END,1516239360476,49
633,PLAYER_SLEEPBEFORE_START,1516239360476,50
633,PLAYER_SLEEPBEFORE_END,1516239360500,50
633,WS_SEND_START,1516239360500,50
633,WS_SEND_END,1516239360500,50
633,WS_RECV_START,1516239360500,51
633,WS_RECV_END,1516239360620,51
633,PLAYER_SLEEPBEFORE_START,1516239360620,52
633,PLAYER_SLEEPBEFORE_END,1516239383184,52
633,WS_SEND_START,1516239383184,52
633,WS_SEND_END,1516239383184,52
633,WS_RECV_START,1516239383184,53
633,WS_RECV_END,1516239383339,53
633,PLAYER_SLEEPBEFORE_START,1516239383339,54
633,PLAYER_SLEEPBEFORE_END,1516239404642,54
633,WS_SEND_START,1516239404642,54
633,WS_SEND_END,1516239404642,54
633,PLAYER_SLEEPBEFORE_START,1516239404642,55
633,PLAYER_SLEEPBEFORE_END,1516239406583,55
633,WS_SEND_START,1516239406583,55
633,WS_SEND_END,1516239406583,55
633,WS_RECV_START,1516239406583,56
633,WS_RECV_END,1516239406751,56
633,PLAYER_SLEEPBEFORE_START,1516239406751,57
633,PLAYER_SLEEPBEFORE_END,1516239429623,57
633,WS_SEND_START,1516239429623,57
633,WS_SEND_END,1516239429623,57
633,WS_RECV_START,1516239429623,58
633,WS_RECV_END,1516239429701,58
633,PLAYER_SLEEPBEFORE_START,1516239429701,59
633,PLAYER_SLEEPBEFORE_END,1516239432028,59
633,WS_SEND_START,1516239432028,59
633,WS_SEND_END,1516239432028,59
633,WS_RECV_START,1516239432028,60
633,WS_RECV_END,1516239432381,60
633,PLAYER_SLEEPBEFORE_START,1516239432381,61
633,PLAYER_SLEEPBEFORE_END,1516239435972,61
633,WS_SEND_START,1516239435972,61
633,WS_SEND_END,1516239435972,61
633,WS_RECV_START,1516239435972,62
633,WS_RECV_END,1516239436094,62
633,PLAYER_SLEEPBEFORE_START,1516239436094,63
633,PLAYER_SLEEPBEFORE_END,1516239455356,63
633,WS_SEND_START,1516239455356,63
633,WS_SEND_END,1516239455356,63
633,WS_RECV_START,1516239455356,64
633,WS_RECV_END,1516239455513,64
633,PLAYER_SLEEPBEFORE_START,1516239455513,65
633,PLAYER_SLEEPBEFORE_END,1516239482330,65
633,WS_SEND_START,1516239482330,65
633,WS_SEND_END,1516239482330,65
633,WS_RECV_START,1516239482331,66
633,WS_RECV_END,1516239482493,66
633,PLAYER_SLEEPBEFORE_START,1516239482493,67
633,PLAYER_SLEEPBEFORE_END,1516239484000,67
633,WS_SEND_START,1516239484000,67
633,WS_SEND_END,1516239484000,67
633,WS_RECV_START,1516239484000,68
633,WS_RECV_END,1516239484301,68
633,PLAYER_SLEEPBEFORE_START,1516239484301,69
633,PLAYER_SLEEPBEFORE_END,1516239506299,69
633,WS_SEND_START,1516239506299,69
633,WS_SEND_END,1516239506299,69
633,WS_RECV_START,1516239506299,70
633,WS_RECV_END,1516239506596,70
633,PLAYER_SLEEPBEFORE_START,1516239506596,71
633,PLAYER_SLEEPBEFORE_END,1516239531372,71
633,WS_SEND_START,1516239531372,71
633,WS_SEND_END,1516239531372,71
633,PLAYER_SLEEPBEFORE_START,1516239531372,72
633,PLAYER_SLEEPBEFORE_END,1516239533979,72
633,WS_SEND_START,1516239533979,72
633,WS_SEND_END,1516239533979,72
633,WS_RECV_START,1516239533979,73
633,WS_RECV_END,1516239534025,73
633,PLAYER_SLEEPBEFORE_START,1516239534025,74
633,PLAYER_SLEEPBEFORE_END,1516239534035,74
633,WS_SEND_START,1516239534035,74
633,WS_SEND_END,1516239534035,74
633,WS_RECV_START,1516239534035,75
633,WS_RECV_END,1516239534081,75
633,PLAYER_SLEEPBEFORE_START,1516239534081,76
633,PLAYER_SLEEPBEFORE_END,1516239535588,76
633,WS_SEND_START,1516239535588,76
633,WS_SEND_END,1516239535588,76
633,WS_RECV_START,1516239535588,77
633,WS_RECV_END,1516239535745,77
633,PLAYER_SLEEPBEFORE_START,1516239535745,78
633,PLAYER_SLEEPBEFORE_END,1516239536613,78
633,WS_SEND_START,1516239536613,78
633,WS_SEND_END,1516239536613,78
633,WS_RECV_START,1516239536613,79
633,WS_RECV_END,1516239536654,79
633,PLAYER_SLEEPBEFORE_START,1516239536654,80
633,PLAYER_SLEEPBEFORE_END,1516239544320,80
633,WS_SEND_START,1516239544320,80
633,WS_SEND_END,1516239544320,80
633,WS_RECV_START,1516239544320,81
633,WS_RECV_END,1516239544523,81
633,PLAYER_SLEEPBEFORE_START,1516239544523,82
633,PLAYER_SLEEPBEFORE_END,1516239545635,82
633,WS_SEND_START,1516239545635,82
633,WS_SEND_END,1516239545635,82
633,WS_RECV_START,1516239545635,83
633,WS_RECV_END,1516239545664,83
633,PLAYER_SLEEPBEFORE_START,1516239545664,84
633,PLAYER_SLEEPBEFORE_END,1516239546611,84
633,WS_SEND_START,1516239546611,84
633,WS_SEND_END,1516239546611,84
633,WS_RECV_START,1516239546611,85
633,WS_RECV_END,1516239546994,85
633,PLAYER_SLEEPBEFORE_START,1516239546994,86
633,PLAYER_SLEEPBEFORE_END,1516239551166,86
633,WS_SEND_START,1516239551166,86
633,WS_SEND_END,1516239551166,86
633,WS_RECV_START,1516239551166,87
633,WS_RECV_END,1516239551275,87
633,PLAYER_SLEEPBEFORE_START,1516239551275,88
633,PLAYER_SLEEPBEFORE_END,1516239551283,88
633,WS_SEND_START,1516239551283,88
633,WS_SEND_END,1516239551283,88
633,WS_RECV_START,1516239551283,89
633,WS_RECV_END,1516239551528,89
633,PLAYER_SLEEPBEFORE_START,1516239551528,90
633,PLAYER_SLEEPBEFORE_END,1516239578725,90
633,REQ_START,1516239578725,90
633,REQ_END,1516239578733,90
633,PLAYER_SLEEPBEFORE_START,1516239578733,91
633,PLAYER_SLEEPBEFORE_END,1516239586622,91
633,WS_SEND_START,1516239586622,91
633,WS_SEND_END,1516239586622,91
633,WS_RECV_START,1516239586622,92
633,WS_RECV_END,1516239587410,92
633,PLAYER_SLEEPBEFORE_START,1516239587410,93
633,PLAYER_SLEEPBEFORE_END,1516239587429,93
633,WS_SEND_START,1516239587429,93
633,WS_SEND_END,1516239587429,93
633,WS_RECV_START,1516239587429,94
633,WS_RECV_END,1516239587804,94
633,PLAYER_SLEEPBEFORE_START,1516239587804,95
633,PLAYER_SLEEPBEFORE_END,1516239611359,95
633,WS_SEND_START,1516239611359,95
633,WS_SEND_END,1516239611360,95
633,WS_RECV_START,1516239611360,96
633,WS_RECV_END,1516239611535,96
633,PLAYER_SLEEPBEFORE_START,1516239611535,97
633,PLAYER_SLEEPBEFORE_END,1516239633975,97
633,WS_SEND_START,1516239633975,97
633,WS_SEND_END,1516239633976,97
633,WS_RECV_START,1516239633976,98
633,WS_RECV_END,1516239634251,98
633,PLAYER_SLEEPBEFORE_START,1516239634251,99
633,PLAYER_SLEEPBEFORE_END,1516239634272,99
633,WS_SEND_START,1516239634272,99
633,WS_SEND_END,1516239634272,99
633,WS_RECV_START,1516239634272,100
633,WS_RECV_END,1516239634588,100
633,PLAYER_SLEEPBEFORE_START,1516239634588,101
633,PLAYER_SLEEPBEFORE_END,1516239658147,101
633,WS_SEND_START,1516239658147,101
633,WS_SEND_END,1516239658147,101
633,WS_RECV_START,1516239658147,102
633,WS_RECV_END,1516239658517,102
633,PLAYER_SLEEPBEFORE_START,1516239658517,103
633,PLAYER_SLEEPBEFORE_END,1516239682142,103
633,WS_SEND_START,1516239682142,103
633,WS_SEND_END,1516239682142,103
633,WS_RECV_START,1516239682142,104
633,WS_RECV_END,1516239682327,104
633,PLAYER_SLEEPBEFORE_START,1516239682327,105
633,PLAYER_SLEEPBEFORE_END,1516239707704,105
633,WS_SEND_START,1516239707704,105
633,WS_SEND_END,1516239707704,105
633,WS_RECV_START,1516239707704,106
633,WS_RECV_END,1516239708211,106
633,PLAYER_SLEEPBEFORE_START,1516239708211,107
633,PLAYER_SLEEPBEFORE_END,1516239731634,107
633,WS_SEND_START,1516239731634,107
633,WS_SEND_END,1516239731634,107
633,WS_RECV_START,1516239731634,108
633,WS_RECV_END,1516239733657,108
633,PLAYER_SLEEPBEFORE_START,1516239733657,109
633,PLAYER_SLEEPBEFORE_END,1516239733666,109
633,WS_SEND_START,1516239733666,109
633,WS_SEND_END,1516239733666,109
633,WS_RECV_START,1516239733666,110
633,WS_RECV_END,1516239734430,110
633,PLAYER_SLEEPBEFORE_START,1516239734430,111
633,PLAYER_SLEEPBEFORE_END,1516239735389,111
633,WS_SEND_START,1516239735389,111
633,WS_SEND_END,1516239735389,111
633,WS_RECV_START,1516239735389,112
633,WS_RECV_END,1516239735645,112
633,PLAYER_SLEEPBEFORE_START,1516239735645,113
633,PLAYER_SLEEPBEFORE_END,1516239736207,113
633,WS_SEND_START,1516239736207,113
633,WS_SEND_END,1516239736207,113
633,WS_RECV_START,1516239736207,114
633,WS_RECV_END,1516239736705,114
633,PLAYER_SLEEPBEFORE_START,1516239736705,115
633,PLAYER_SLEEPBEFORE_END,1516239736714,115
633,WS_SEND_START,1516239736714,115
633,WS_SEND_END,1516239736714,115
633,WS_RECV_START,1516239736714,116
633,WS_RECV_END,1516239737161,116
633,PLAYER_SLEEPBEFORE_START,1516239737161,117
633,PLAYER_SLEEPBEFORE_END,1516239757521,117
633,WS_SEND_START,1516239757521,117
633,WS_SEND_END,1516239757521,117
633,PLAYER_SLEEPBEFORE_START,1516239757521,118
633,PLAYER_SLEEPBEFORE_END,1516239761273,118
633,WS_SEND_START,1516239761273,118
633,WS_SEND_END,1516239761273,118
633,WS_RECV_START,1516239761273,119
633,WS_RECV_END,1516239761998,119
633,PLAYER_SLEEPBEFORE_START,1516239761998,120
633,PLAYER_SLEEPBEFORE_END,1516239762986,120
633,WS_SEND_START,1516239762986,120
633,WS_SEND_END,1516239762986,120
633,WS_RECV_START,1516239762986,121
633,WS_RECV_END,1516239763233,121
633,PLAYER_SLEEPBEFORE_START,1516239763233,122
633,PLAYER_SLEEPBEFORE_END,1516239764419,122
633,WS_SEND_START,1516239764419,122
633,WS_SEND_END,1516239764419,122
633,WS_RECV_START,1516239764419,123
633,WS_RECV_END,1516239764526,123
633,PLAYER_SLEEPBEFORE_START,1516239764526,124
633,PLAYER_SLEEPBEFORE_END,1516239788931,124
633,WS_SEND_START,1516239788931,124
633,WS_SEND_END,1516239788931,124
633,WS_RECV_START,1516239788931,125
633,WS_RECV_END,1516239789536,125
633,PLAYER_SLEEPBEFORE_START,1516239789536,126
633,PLAYER_SLEEPBEFORE_END,1516239810048,126
633,WS_SEND_START,1516239810048,126
633,WS_SEND_END,1516239810049,126
633,PLAYER_SLEEPBEFORE_START,1516239810049,127
633,PLAYER_SLEEPBEFORE_END,1516239813103,127
633,WS_SEND_START,1516239813103,127
633,WS_SEND_END,1516239813103,127
633,WS_RECV_START,1516239813103,128
633,WS_RECV_END,1516239813464,128
633,PLAYER_SLEEPBEFORE_START,1516239813464,129
633,PLAYER_SLEEPBEFORE_END,1516239813484,129
633,WS_SEND_START,1516239813484,129
633,WS_SEND_END,1516239813484,129
633,WS_RECV_START,1516239813484,130
633,WS_RECV_END,1516239813831,130
633,PLAYER_SLEEPBEFORE_START,1516239813831,131
633,PLAYER_SLEEPBEFORE_END,1516239835455,131
633,WS_SEND_START,1516239835455,131
633,WS_SEND_END,1516239835455,131
633,PLAYER_SLEEPBEFORE_START,1516239835455,132
633,PLAYER_SLEEPBEFORE_END,1516239838535,132
633,WS_SEND_START,1516239838535,132
633,WS_SEND_END,1516239838535,132
633,WS_RECV_START,1516239838536,133
633,WS_RECV_END,1516239839397,133
633,PLAYER_SLEEPBEFORE_START,1516239839397,134
633,PLAYER_SLEEPBEFORE_END,1516239860614,134
633,WS_SEND_START,1516239860614,134
633,WS_SEND_END,1516239860614,134
633,PLAYER_SLEEPBEFORE_START,1516239860614,135
633,PLAYER_SLEEPBEFORE_END,1516239863804,135
633,WS_SEND_START,1516239863804,135
633,WS_SEND_END,1516239863805,135
633,WS_RECV_START,1516239863805,136
633,WS_RECV_END,1516239863851,136
633,PLAYER_SLEEPBEFORE_START,1516239863851,137
633,PLAYER_SLEEPBEFORE_END,1516239863859,137
633,WS_SEND_START,1516239863859,137
633,WS_SEND_END,1516239863859,137
633,WS_RECV_START,1516239863859,138
633,WS_RECV_END,1516239864090,138
633,PLAYER_SLEEPBEFORE_START,1516239864090,139
633,PLAYER_SLEEPBEFORE_END,1516239864780,139
633,WS_SEND_START,1516239864780,139
633,WS_SEND_END,1516239864780,139
633,WS_RECV_START,1516239864780,140
633,WS_RECV_END,1516239864980,140
633,PLAYER_SLEEPBEFORE_START,1516239864980,141
633,PLAYER_SLEEPBEFORE_END,1516239865635,141
633,WS_SEND_START,1516239865635,141
633,WS_SEND_END,1516239865635,141
633,WS_RECV_START,1516239865635,142
633,WS_RECV_END,1516239866050,142
633,PLAYER_SLEEPBEFORE_START,1516239866050,143
633,PLAYER_SLEEPBEFORE_END,1516239866107,143
633,WS_SEND_START,1516239866107,143
633,WS_SEND_END,1516239866107,143
633,WS_RECV_START,1516239866107,144
633,WS_RECV_END,1516239866369,144
633,PLAYER_SLEEPBEFORE_START,1516239866369,145
633,PLAYER_SLEEPBEFORE_END,1516239882431,145
633,REQ_START,1516239882431,145
633,REQ_END,1516239882439,145
633,PLAYER_SLEEPBEFORE_START,1516239882439,146
633,PLAYER_SLEEPBEFORE_END,1516239891316,146
633,WS_SEND_START,1516239891316,146
633,WS_SEND_END,1516239891316,146
633,WS_RECV_START,1516239891316,147
633,WS_RECV_END,1516239892437,147
633,PLAYER_SLEEPBEFORE_START,1516239892437,148
633,PLAYER_SLEEPBEFORE_END,1516239914360,148
633,WS_SEND_START,1516239914360,148
633,WS_SEND_END,1516239914360,148
633,PLAYER_SLEEPBEFORE_START,1516239914360,149
633,PLAYER_SLEEPBEFORE_END,1516239916788,149
633,WS_SEND_START,1516239916788,149
633,WS_SEND_END,1516239916788,149
633,WS_RECV_START,1516239916788,150
633,WS_RECV_END,1516239916987,150
633,PLAYER_SLEEPBEFORE_START,1516239916987,151
633,PLAYER_SLEEPBEFORE_END,1516239917197,151
633,WS_SEND_START,1516239917197,151
633,WS_SEND_END,1516239917197,151
633,WS_RECV_START,1516239917197,152
633,WS_RECV_END,1516239917659,152
633,PLAYER_SLEEPBEFORE_START,1516239917659,153
633,PLAYER_SLEEPBEFORE_END,1516239941587,153
633,WS_SEND_START,1516239941587,153
633,WS_SEND_END,1516239941587,153
633,WS_RECV_START,1516239941587,154
633,WS_RECV_END,1516239941773,154
633,PLAYER_SLEEPBEFORE_START,1516239941773,155
633,PLAYER_SLEEPBEFORE_END,1516239964331,155
633,WS_SEND_START,1516239964331,155
633,WS_SEND_END,1516239964331,155
633,PLAYER_SLEEPBEFORE_START,1516239964331,156
633,PLAYER_SLEEPBEFORE_END,1516239967605,156
633,WS_SEND_START,1516239967605,156
633,WS_SEND_END,1516239967605,156
633,WS_RECV_START,1516239967605,157
633,WS_RECV_END,1516239967758,157
633,PLAYER_SLEEPBEFORE_START,1516239967758,158
633,PLAYER_SLEEPBEFORE_END,1516239967768,158
633,WS_SEND_START,1516239967768,158
633,WS_SEND_END,1516239967768,158
633,WS_RECV_START,1516239967768,159
633,WS_RECV_END,1516239967993,159
633,PLAYER_SLEEPBEFORE_START,1516239967993,160
633,PLAYER_SLEEPBEFORE_END,1516239968168,160
633,WS_SEND_START,1516239968168,160
633,WS_SEND_END,1516239968168,160
633,WS_RECV_START,1516239968168,161
633,WS_RECV_END,1516239968507,161
633,PLAYER_SLEEPBEFORE_START,1516239968507,162
633,PLAYER_SLEEPBEFORE_END,1516239968532,162
633,WS_SEND_START,1516239968532,162
633,WS_SEND_END,1516239968532,162
633,WS_RECV_START,1516239968532,163
633,WS_RECV_END,1516239968977,163
633,PLAYER_SLEEPBEFORE_START,1516239968977,164
633,PLAYER_SLEEPBEFORE_END,1516239989789,164
633,WS_SEND_START,1516239989789,164
633,WS_SEND_END,1516239989789,164
633,WS_RECV_START,1516239989789,165
633,WS_RECV_END,1516239992299,165
633,PLAYER_SLEEPBEFORE_START,1516239992299,166
633,PLAYER_SLEEPBEFORE_END,1516240014754,166
633,WS_SEND_START,1516240014754,166
633,WS_SEND_END,1516240014754,166
633,WS_RECV_START,1516240014754,167
633,WS_RECV_END,1516240017619,167
633,PLAYER_SLEEPBEFORE_START,1516240017619,168
633,PLAYER_SLEEPBEFORE_END,1516240044976,168
633,WS_SEND_START,1516240044976,168
633,WS_SEND_END,1516240044976,168
633,WS_RECV_START,1516240044976,169
633,WS_RECV_END,1516240045368,169
633,PLAYER_SLEEPBEFORE_START,1516240045368,170
633,PLAYER_SLEEPBEFORE_END,1516240045377,170
633,WS_SEND_START,1516240045377,170
633,WS_SEND_END,1516240045377,170
633,WS_RECV_START,1516240045377,171
633,WS_RECV_END,1516240045762,171
633,PLAYER_SLEEPBEFORE_START,1516240045762,172
633,PLAYER_SLEEPBEFORE_END,1516240046131,172
633,WS_SEND_START,1516240046131,172
633,WS_SEND_END,1516240046131,172
633,WS_RECV_START,1516240046131,173
633,WS_RECV_END,1516240046353,173
633,PLAYER_SLEEPBEFORE_START,1516240046353,174
633,PLAYER_SLEEPBEFORE_END,1516240046394,174
633,WS_SEND_START,1516240046394,174
633,WS_SEND_END,1516240046394,174
633,WS_RECV_START,1516240046394,175
633,WS_RECV_END,1516240046865,175
633,PLAYER_SLEEPBEFORE_START,1516240046865,176
633,PLAYER_SLEEPBEFORE_END,1516240068626,176
633,WS_SEND_START,1516240068626,176
633,WS_SEND_END,1516240068626,176
633,PLAYER_SLEEPBEFORE_START,1516240068626,177
633,PLAYER_SLEEPBEFORE_END,1516240071145,177
633,WS_SEND_START,1516240071145,177
633,WS_SEND_END,1516240071145,177
633,WS_RECV_START,1516240071145,178
633,WS_RECV_END,1516240071607,178
633,PLAYER_SLEEPBEFORE_START,1516240071607,179
633,PLAYER_SLEEPBEFORE_END,1516240093947,179
633,WS_SEND_START,1516240093947,179
633,WS_SEND_END,1516240093947,179
633,WS_RECV_START,1516240093947,180
633,WS_RECV_END,1516240094147,180
633,PLAYER_SLEEPBEFORE_START,1516240094147,181
633,PLAYER_SLEEPBEFORE_END,1516240094592,181
633,WS_SEND_START,1516240094592,181
633,WS_SEND_END,1516240094592,181
633,WS_RECV_START,1516240094592,182
633,WS_RECV_END,1516240094766,182
633,PLAYER_SLEEPBEFORE_START,1516240094766,183
633,PLAYER_SLEEPBEFORE_END,1516240095289,183
633,WS_SEND_START,1516240095289,183
633,WS_SEND_END,1516240095289,183
633,WS_RECV_START,1516240095289,184
633,WS_RECV_END,1516240095592,184
633,PLAYER_SLEEPBEFORE_START,1516240095592,185
633,PLAYER_SLEEPBEFORE_END,1516240095861,185
633,WS_SEND_START,1516240095861,185
633,WS_SEND_END,1516240095861,185
633,WS_RECV_START,1516240095861,186
633,WS_RECV_END,1516240096129,186
633,PLAYER_SLEEPBEFORE_START,1516240096129,187
633,PLAYER_SLEEPBEFORE_END,1516240118629,187
633,WS_SEND_START,1516240118629,187
633,WS_SEND_END,1516240118629,187
633,WS_RECV_START,1516240118629,188
633,WS_RECV_END,1516240118736,188
633,PLAYER_SLEEPBEFORE_START,1516240118736,189
633,PLAYER_SLEEPBEFORE_END,1516240124975,189
633,WS_SEND_START,1516240124975,189
633,WS_SEND_END,1516240124975,189
633,WS_RECV_START,1516240124975,190
633,WS_RECV_END,1516240125276,190
633,PLAYER_SLEEPBEFORE_START,1516240125276,191
633,PLAYER_SLEEPBEFORE_END,1516240127191,191
633,WS_SEND_START,1516240127191,191
633,WS_SEND_END,1516240127191,191
633,WS_RECV_START,1516240127191,192
633,WS_RECV_END,1516240127415,192
633,PLAYER_SLEEPBEFORE_START,1516240127415,193
633,PLAYER_SLEEPBEFORE_END,1516240127543,193
633,WS_SEND_START,1516240127543,193
633,WS_SEND_END,1516240127544,193
633,WS_RECV_START,1516240127544,194
633,WS_RECV_END,1516240127730,194
633,PLAYER_SLEEPBEFORE_START,1516240127730,195
633,PLAYER_SLEEPBEFORE_END,1516240129485,195
633,WS_SEND_START,1516240129485,195
633,WS_SEND_END,1516240129485,195
633,WS_RECV_START,1516240129485,196
633,WS_RECV_END,1516240129629,196
633,PLAYER_SLEEPBEFORE_START,1516240129629,197
633,PLAYER_SLEEPBEFORE_END,1516240131433,197
633,WS_SEND_START,1516240131433,197
633,WS_SEND_END,1516240131433,197
633,WS_RECV_START,1516240131433,198
633,WS_RECV_END,1516240131768,198
633,PLAYER_SLEEPBEFORE_START,1516240131768,199
633,PLAYER_SLEEPBEFORE_END,1516240143622,199
633,WS_SEND_START,1516240143622,199
633,WS_SEND_END,1516240143622,199
633,PLAYER_SLEEPBEFORE_START,1516240143622,200
633,PLAYER_SLEEPBEFORE_END,1516240147710,200
633,WS_SEND_START,1516240147710,200
633,WS_SEND_END,1516240147710,200
633,WS_RECV_START,1516240147710,201
633,WS_RECV_END,1516240147965,201
633,PLAYER_SLEEPBEFORE_START,1516240147965,202
633,PLAYER_SLEEPBEFORE_END,1516240147979,202
633,WS_SEND_START,1516240147979,202
633,WS_SEND_END,1516240147979,202
633,WS_RECV_START,1516240147979,203
633,WS_RECV_END,1516240148343,203
633,PLAYER_SLEEPBEFORE_START,1516240148343,204
633,PLAYER_SLEEPBEFORE_END,1516240167992,204
633,WS_SEND_START,1516240167993,204
633,WS_SEND_END,1516240167993,204
633,PLAYER_SLEEPBEFORE_START,1516240167993,205
633,PLAYER_SLEEPBEFORE_END,1516240171891,205
633,WS_SEND_START,1516240171891,205
633,WS_SEND_END,1516240171891,205
633,WS_RECV_START,1516240171891,206
633,WS_RECV_END,1516240172007,206
633,PLAYER_SLEEPBEFORE_START,1516240172007,207
633,PLAYER_SLEEPBEFORE_END,1516240188938,207
633,REQ_START,1516240188938,207
633,REQ_END,1516240188945,207
633,PLAYER_SLEEPBEFORE_START,1516240188945,208
633,PLAYER_SLEEPBEFORE_END,1516240195797,208
633,WS_CLOSE_START,1516240195797,208
633,WS_CLOSE_END,1516240195797,208
633,PLAYER_DONE,1516240195797
