# --sessions 1080 --app-url=http://shinyloadtest.rstudioservices.com/cran_explorer --output-dir test1080 --overwrite-output --log-level warn --start-interval 250 15min.log
thread_id,event,timestamp,input_line_number,comment
817,PLAYER_SESSION_CREATE,1516239120741
817,PLAYER_START_INTERVAL_START,1516239120741
817,PLAYER_START_INTERVAL_END,1516239324991
817,REQ_HOME_START,1516239324991,2
817,REQ_HOME_END,1516239325317,2
817,REQ_START,1516239325317,3
817,REQ_END,1516239325350,3
817,REQ_START,1516239325350,4
817,REQ_END,1516239325384,4
817,REQ_START,1516239325384,5
817,REQ_END,1516239325421,5
817,REQ_START,1516239325421,6
817,REQ_END,1516239325460,6
817,REQ_START,1516239325460,7
817,REQ_END,1516239325496,7
817,REQ_START,1516239325496,8
817,REQ_END,1516239325533,8
817,REQ_START,1516239325534,9
817,REQ_END,1516239325571,9
817,REQ_START,1516239325571,10
817,REQ_END,1516239325575,10
817,REQ_START,1516239325575,11
817,REQ_END,1516239325609,11
817,REQ_START,1516239325609,12
817,REQ_END,1516239325616,12
817,REQ_START,1516239325616,13
817,REQ_END,1516239325651,13
817,REQ_START,1516239325651,14
817,REQ_END,1516239325664,14
817,REQ_START,1516239325664,15
817,REQ_END,1516239325712,15
817,REQ_TOK_START,1516239325712,16
817,REQ_TOK_END,1516239325715,16
817,REQ_SINF_START,1516239325716,17
817,REQ_SINF_END,1516239325719,17
817,WS_OPEN_START,1516239325719,18
817,WS_OPEN_END,1516239325722,18
817,REQ_START,1516239325722,19
817,REQ_END,1516239325752,19
817,WS_RECV_START,1516239325752,20
817,WS_RECV_END,1516239325752,20
817,PLAYER_SLEEPBEFORE_START,1516239325752,21
817,PLAYER_SLEEPBEFORE_END,1516239325757,21
817,WS_SEND_START,1516239325757,21
817,WS_SEND_END,1516239325757,21
817,PLAYER_SLEEPBEFORE_START,1516239325757,22
817,PLAYER_SLEEPBEFORE_END,1516239325758,22
817,WS_SEND_START,1516239325758,22
817,WS_SEND_END,1516239325758,22
817,WS_RECV_INIT_START,1516239325758,23
817,WS_RECV_INIT_END,1516239325777,23
817,WS_RECV_START,1516239325777,24
817,WS_RECV_END,1516239325844,24
817,PLAYER_SLEEPBEFORE_START,1516239325844,25
817,PLAYER_SLEEPBEFORE_END,1516239325851,25
817,REQ_START,1516239325851,25
817,REQ_END,1516239325888,25
817,PLAYER_SLEEPBEFORE_START,1516239325888,26
817,PLAYER_SLEEPBEFORE_END,1516239325889,26
817,REQ_START,1516239325889,26
817,REQ_END,1516239325924,26
817,PLAYER_SLEEPBEFORE_START,1516239325924,27
817,PLAYER_SLEEPBEFORE_END,1516239325927,27
817,REQ_START,1516239325927,27
817,REQ_END,1516239325968,27
817,PLAYER_SLEEPBEFORE_START,1516239325968,28
817,PLAYER_SLEEPBEFORE_END,1516239326253,28
817,REQ_START,1516239326253,28
817,REQ_END,1516239326289,28
817,PLAYER_SLEEPBEFORE_START,1516239326289,29
817,PLAYER_SLEEPBEFORE_END,1516239326464,29
817,WS_SEND_START,1516239326464,29
817,WS_SEND_END,1516239326464,29
817,WS_RECV_START,1516239326464,30
817,WS_RECV_END,1516239326555,30
817,PLAYER_SLEEPBEFORE_START,1516239326555,31
817,PLAYER_SLEEPBEFORE_END,1516239326566,31
817,REQ_START,1516239326566,31
817,REQ_END,1516239326663,31
817,PLAYER_SLEEPBEFORE_START,1516239326663,32
817,PLAYER_SLEEPBEFORE_END,1516239354808,32
817,WS_SEND_START,1516239354808,32
817,WS_SEND_END,1516239354808,32
817,WS_RECV_START,1516239354808,33
817,WS_RECV_END,1516239354917,33
817,PLAYER_SLEEPBEFORE_START,1516239354917,34
817,PLAYER_SLEEPBEFORE_END,1516239380828,34
817,WS_SEND_START,1516239380828,34
817,WS_SEND_END,1516239380828,34
817,WS_RECV_START,1516239380828,35
817,WS_RECV_END,1516239380854,35
817,PLAYER_SLEEPBEFORE_START,1516239380854,36
817,PLAYER_SLEEPBEFORE_END,1516239380863,36
817,WS_SEND_START,1516239380863,36
817,WS_SEND_END,1516239380863,36
817,WS_RECV_START,1516239380863,37
817,WS_RECV_END,1516239380935,37
817,PLAYER_SLEEPBEFORE_START,1516239380935,38
817,PLAYER_SLEEPBEFORE_END,1516239384130,38
817,WS_SEND_START,1516239384130,38
817,WS_SEND_END,1516239384130,38
817,WS_RECV_START,1516239384130,39
817,WS_RECV_END,1516239384247,39
817,PLAYER_SLEEPBEFORE_START,1516239384247,40
817,PLAYER_SLEEPBEFORE_END,1516239384293,40
817,WS_SEND_START,1516239384293,40
817,WS_SEND_END,1516239384293,40
817,WS_RECV_START,1516239384294,41
817,WS_RECV_END,1516239384459,41
817,PLAYER_SLEEPBEFORE_START,1516239384459,42
817,PLAYER_SLEEPBEFORE_END,1516239402594,42
817,WS_SEND_START,1516239402594,42
817,WS_SEND_END,1516239402594,42
817,WS_RECV_START,1516239402594,43
817,WS_RECV_END,1516239402883,43
817,PLAYER_SLEEPBEFORE_START,1516239402883,44
817,PLAYER_SLEEPBEFORE_END,1516239402895,44
817,WS_SEND_START,1516239402895,44
817,WS_SEND_END,1516239402895,44
817,WS_RECV_START,1516239402895,45
817,WS_RECV_END,1516239402975,45
817,PLAYER_SLEEPBEFORE_START,1516239402975,46
817,PLAYER_SLEEPBEFORE_END,1516239404235,46
817,WS_SEND_START,1516239404235,46
817,WS_SEND_END,1516239404235,46
817,WS_RECV_START,1516239404235,47
817,WS_RECV_END,1516239404766,47
817,PLAYER_SLEEPBEFORE_START,1516239404766,48
817,PLAYER_SLEEPBEFORE_END,1516239406086,48
817,WS_SEND_START,1516239406086,48
817,WS_SEND_END,1516239406086,48
817,WS_RECV_START,1516239406086,49
817,WS_RECV_END,1516239406455,49
817,PLAYER_SLEEPBEFORE_START,1516239406455,50
817,PLAYER_SLEEPBEFORE_END,1516239406479,50
817,WS_SEND_START,1516239406480,50
817,WS_SEND_END,1516239406480,50
817,WS_RECV_START,1516239406480,51
817,WS_RECV_END,1516239406812,51
817,PLAYER_SLEEPBEFORE_START,1516239406812,52
817,PLAYER_SLEEPBEFORE_END,1516239429376,52
817,WS_SEND_START,1516239429377,52
817,WS_SEND_END,1516239429377,52
817,WS_RECV_START,1516239429377,53
817,WS_RECV_END,1516239429499,53
817,PLAYER_SLEEPBEFORE_START,1516239429499,54
817,PLAYER_SLEEPBEFORE_END,1516239450802,54
817,WS_SEND_START,1516239450802,54
817,WS_SEND_END,1516239450802,54
817,PLAYER_SLEEPBEFORE_START,1516239450802,55
817,PLAYER_SLEEPBEFORE_END,1516239452743,55
817,WS_SEND_START,1516239452743,55
817,WS_SEND_END,1516239452743,55
817,WS_RECV_START,1516239452743,56
817,WS_RECV_END,1516239452797,56
817,PLAYER_SLEEPBEFORE_START,1516239452797,57
817,PLAYER_SLEEPBEFORE_END,1516239475669,57
817,WS_SEND_START,1516239475669,57
817,WS_SEND_END,1516239475669,57
817,WS_RECV_START,1516239475669,58
817,WS_RECV_END,1516239475716,58
817,PLAYER_SLEEPBEFORE_START,1516239475716,59
817,PLAYER_SLEEPBEFORE_END,1516239478043,59
817,WS_SEND_START,1516239478043,59
817,WS_SEND_END,1516239478043,59
817,WS_RECV_START,1516239478043,60
817,WS_RECV_END,1516239478160,60
817,PLAYER_SLEEPBEFORE_START,1516239478160,61
817,PLAYER_SLEEPBEFORE_END,1516239481751,61
817,WS_SEND_START,1516239481752,61
817,WS_SEND_END,1516239481752,61
817,WS_RECV_START,1516239481752,62
817,WS_RECV_END,1516239481864,62
817,PLAYER_SLEEPBEFORE_START,1516239481864,63
817,PLAYER_SLEEPBEFORE_END,1516239501126,63
817,WS_SEND_START,1516239501126,63
817,WS_SEND_END,1516239501126,63
817,WS_RECV_START,1516239501126,64
817,WS_RECV_END,1516239501240,64
817,PLAYER_SLEEPBEFORE_START,1516239501240,65
817,PLAYER_SLEEPBEFORE_END,1516239528057,65
817,WS_SEND_START,1516239528057,65
817,WS_SEND_END,1516239528057,65
817,WS_RECV_START,1516239528057,66
817,WS_RECV_END,1516239528356,66
817,PLAYER_SLEEPBEFORE_START,1516239528356,67
817,PLAYER_SLEEPBEFORE_END,1516239529863,67
817,WS_SEND_START,1516239529863,67
817,WS_SEND_END,1516239529863,67
817,WS_RECV_START,1516239529863,68
817,WS_RECV_END,1516239530032,68
817,PLAYER_SLEEPBEFORE_START,1516239530032,69
817,PLAYER_SLEEPBEFORE_END,1516239552030,69
817,WS_SEND_START,1516239552030,69
817,WS_SEND_END,1516239552030,69
817,WS_RECV_START,1516239552030,70
817,WS_RECV_END,1516239552129,70
817,PLAYER_SLEEPBEFORE_START,1516239552129,71
817,PLAYER_SLEEPBEFORE_END,1516239576904,71
817,WS_SEND_START,1516239576904,71
817,WS_SEND_END,1516239576904,71
817,PLAYER_SLEEPBEFORE_START,1516239576904,72
817,PLAYER_SLEEPBEFORE_END,1516239579511,72
817,WS_SEND_START,1516239579511,72
817,WS_SEND_END,1516239579511,72
817,WS_RECV_START,1516239579511,73
817,WS_RECV_END,1516239579532,73
817,PLAYER_SLEEPBEFORE_START,1516239579532,74
817,PLAYER_SLEEPBEFORE_END,1516239579541,74
817,WS_SEND_START,1516239579541,74
817,WS_SEND_END,1516239579541,74
817,WS_RECV_START,1516239579541,75
817,WS_RECV_END,1516239579587,75
817,PLAYER_SLEEPBEFORE_START,1516239579587,76
817,PLAYER_SLEEPBEFORE_END,1516239581093,76
817,WS_SEND_START,1516239581093,76
817,WS_SEND_END,1516239581093,76
817,WS_RECV_START,1516239581093,77
817,WS_RECV_END,1516239581248,77
817,PLAYER_SLEEPBEFORE_START,1516239581248,78
817,PLAYER_SLEEPBEFORE_END,1516239582116,78
817,WS_SEND_START,1516239582116,78
817,WS_SEND_END,1516239582116,78
817,WS_RECV_START,1516239582116,79
817,WS_RECV_END,1516239582134,79
817,PLAYER_SLEEPBEFORE_START,1516239582134,80
817,PLAYER_SLEEPBEFORE_END,1516239589800,80
817,WS_SEND_START,1516239589800,80
817,WS_SEND_END,1516239589800,80
817,WS_RECV_START,1516239589801,81
817,WS_RECV_END,1516239590124,81
817,PLAYER_SLEEPBEFORE_START,1516239590124,82
817,PLAYER_SLEEPBEFORE_END,1516239591226,82
817,WS_SEND_START,1516239591226,82
817,WS_SEND_END,1516239591226,82
817,WS_RECV_START,1516239591226,83
817,WS_RECV_END,1516239591949,83
817,PLAYER_SLEEPBEFORE_START,1516239591949,84
817,PLAYER_SLEEPBEFORE_END,1516239592896,84
817,WS_SEND_START,1516239592896,84
817,WS_SEND_END,1516239592896,84
817,WS_RECV_START,1516239592896,85
817,WS_RECV_END,1516239593154,85
817,PLAYER_SLEEPBEFORE_START,1516239593154,86
817,PLAYER_SLEEPBEFORE_END,1516239597326,86
817,WS_SEND_START,1516239597326,86
817,WS_SEND_END,1516239597326,86
817,WS_RECV_START,1516239597326,87
817,WS_RECV_END,1516239597999,87
817,PLAYER_SLEEPBEFORE_START,1516239597999,88
817,PLAYER_SLEEPBEFORE_END,1516239598007,88
817,WS_SEND_START,1516239598007,88
817,WS_SEND_END,1516239598007,88
817,WS_RECV_START,1516239598007,89
817,WS_RECV_END,1516239598344,89
817,PLAYER_SLEEPBEFORE_START,1516239598344,90
817,PLAYER_SLEEPBEFORE_END,1516239625541,90
817,REQ_START,1516239625541,90
817,REQ_END,1516239625547,90
817,PLAYER_SLEEPBEFORE_START,1516239625547,91
817,PLAYER_SLEEPBEFORE_END,1516239633437,91
817,WS_SEND_START,1516239633437,91
817,WS_SEND_END,1516239633437,91
817,WS_RECV_START,1516239633437,92
817,WS_RECV_END,1516239633688,92
817,PLAYER_SLEEPBEFORE_START,1516239633688,93
817,PLAYER_SLEEPBEFORE_END,1516239633703,93
817,WS_SEND_START,1516239633703,93
817,WS_SEND_END,1516239633703,93
817,WS_RECV_START,1516239633703,94
817,WS_RECV_END,1516239633846,94
817,PLAYER_SLEEPBEFORE_START,1516239633846,95
817,PLAYER_SLEEPBEFORE_END,1516239657401,95
817,WS_SEND_START,1516239657401,95
817,WS_SEND_END,1516239657401,95
817,WS_RECV_START,1516239657401,96
817,WS_RECV_END,1516239657729,96
817,PLAYER_SLEEPBEFORE_START,1516239657729,97
817,PLAYER_SLEEPBEFORE_END,1516239680169,97
817,WS_SEND_START,1516239680169,97
817,WS_SEND_END,1516239680169,97
817,WS_RECV_START,1516239680169,98
817,WS_RECV_END,1516239681083,98
817,PLAYER_SLEEPBEFORE_START,1516239681083,99
817,PLAYER_SLEEPBEFORE_END,1516239681104,99
817,WS_SEND_START,1516239681104,99
817,WS_SEND_END,1516239681104,99
817,WS_RECV_START,1516239681104,100
817,WS_RECV_END,1516239682248,100
817,PLAYER_SLEEPBEFORE_START,1516239682248,101
817,PLAYER_SLEEPBEFORE_END,1516239705807,101
817,WS_SEND_START,1516239705807,101
817,WS_SEND_END,1516239705807,101
817,WS_RECV_START,1516239705807,102
817,WS_RECV_END,1516239705980,102
817,PLAYER_SLEEPBEFORE_START,1516239705980,103
817,PLAYER_SLEEPBEFORE_END,1516239729605,103
817,WS_SEND_START,1516239729605,103
817,WS_SEND_END,1516239729605,103
817,WS_RECV_START,1516239729605,104
817,WS_RECV_END,1516239731157,104
817,PLAYER_SLEEPBEFORE_START,1516239731157,105
817,PLAYER_SLEEPBEFORE_END,1516239756534,105
817,WS_SEND_START,1516239756534,105
817,WS_SEND_END,1516239756534,105
817,WS_RECV_START,1516239756534,106
817,WS_RECV_END,1516239756861,106
817,PLAYER_SLEEPBEFORE_START,1516239756861,107
817,PLAYER_SLEEPBEFORE_END,1516239780284,107
817,WS_SEND_START,1516239780284,107
817,WS_SEND_END,1516239780284,107
817,WS_RECV_START,1516239780284,108
817,WS_RECV_END,1516239780886,108
817,PLAYER_SLEEPBEFORE_START,1516239780886,109
817,PLAYER_SLEEPBEFORE_END,1516239780895,109
817,WS_SEND_START,1516239780895,109
817,WS_SEND_END,1516239780895,109
817,WS_RECV_START,1516239780895,110
817,WS_RECV_END,1516239781167,110
817,PLAYER_SLEEPBEFORE_START,1516239781167,111
817,PLAYER_SLEEPBEFORE_END,1516239782126,111
817,WS_SEND_START,1516239782126,111
817,WS_SEND_END,1516239782126,111
817,WS_RECV_START,1516239782126,112
817,WS_RECV_END,1516239782145,112
817,PLAYER_SLEEPBEFORE_START,1516239782145,113
817,PLAYER_SLEEPBEFORE_END,1516239782708,113
817,WS_SEND_START,1516239782708,113
817,WS_SEND_END,1516239782708,113
817,WS_RECV_START,1516239782708,114
817,WS_RECV_END,1516239783011,114
817,PLAYER_SLEEPBEFORE_START,1516239783011,115
817,PLAYER_SLEEPBEFORE_END,1516239783020,115
817,WS_SEND_START,1516239783020,115
817,WS_SEND_END,1516239783020,115
817,WS_RECV_START,1516239783020,116
817,WS_RECV_END,1516239783474,116
817,PLAYER_SLEEPBEFORE_START,1516239783474,117
817,PLAYER_SLEEPBEFORE_END,1516239803834,117
817,WS_SEND_START,1516239803834,117
817,WS_SEND_END,1516239803834,117
817,PLAYER_SLEEPBEFORE_START,1516239803834,118
817,PLAYER_SLEEPBEFORE_END,1516239807587,118
817,WS_SEND_START,1516239807587,118
817,WS_SEND_END,1516239807587,118
817,WS_RECV_START,1516239807587,119
817,WS_RECV_END,1516239807861,119
817,PLAYER_SLEEPBEFORE_START,1516239807861,120
817,PLAYER_SLEEPBEFORE_END,1516239808849,120
817,WS_SEND_START,1516239808850,120
817,WS_SEND_END,1516239808850,120
817,WS_RECV_START,1516239808850,121
817,WS_RECV_END,1516239809788,121
817,PLAYER_SLEEPBEFORE_START,1516239809788,122
817,PLAYER_SLEEPBEFORE_END,1516239810974,122
817,WS_SEND_START,1516239810974,122
817,WS_SEND_END,1516239810974,122
817,WS_RECV_START,1516239810974,123
817,WS_RECV_END,1516239811200,123
817,PLAYER_SLEEPBEFORE_START,1516239811200,124
817,PLAYER_SLEEPBEFORE_END,1516239835605,124
817,WS_SEND_START,1516239835605,124
817,WS_SEND_END,1516239835605,124
817,WS_RECV_START,1516239835605,125
817,WS_RECV_END,1516239836194,125
817,PLAYER_SLEEPBEFORE_START,1516239836194,126
817,PLAYER_SLEEPBEFORE_END,1516239856706,126
817,WS_SEND_START,1516239856706,126
817,WS_SEND_END,1516239856706,126
817,PLAYER_SLEEPBEFORE_START,1516239856706,127
817,PLAYER_SLEEPBEFORE_END,1516239859760,127
817,WS_SEND_START,1516239859760,127
817,WS_SEND_END,1516239859760,127
817,WS_RECV_START,1516239859760,128
817,WS_RECV_END,1516239860386,128
817,PLAYER_SLEEPBEFORE_START,1516239860386,129
817,PLAYER_SLEEPBEFORE_END,1516239860406,129
817,WS_SEND_START,1516239860406,129
817,WS_SEND_END,1516239860406,129
817,WS_RECV_START,1516239860406,130
817,WS_RECV_END,1516239860585,130
817,PLAYER_SLEEPBEFORE_START,1516239860585,131
817,PLAYER_SLEEPBEFORE_END,1516239882209,131
817,WS_SEND_START,1516239882209,131
817,WS_SEND_END,1516239882209,131
817,PLAYER_SLEEPBEFORE_START,1516239882209,132
817,PLAYER_SLEEPBEFORE_END,1516239885289,132
817,WS_SEND_START,1516239885289,132
817,WS_SEND_END,1516239885289,132
817,WS_RECV_START,1516239885289,133
817,WS_RECV_END,1516239885434,133
817,PLAYER_SLEEPBEFORE_START,1516239885434,134
817,PLAYER_SLEEPBEFORE_END,1516239906651,134
817,WS_SEND_START,1516239906651,134
817,WS_SEND_END,1516239906651,134
817,PLAYER_SLEEPBEFORE_START,1516239906651,135
817,PLAYER_SLEEPBEFORE_END,1516239909841,135
817,WS_SEND_START,1516239909841,135
817,WS_SEND_END,1516239909841,135
817,WS_RECV_START,1516239909841,136
817,WS_RECV_END,1516239910101,136
817,PLAYER_SLEEPBEFORE_START,1516239910101,137
817,PLAYER_SLEEPBEFORE_END,1516239910109,137
817,WS_SEND_START,1516239910109,137
817,WS_SEND_END,1516239910109,137
817,WS_RECV_START,1516239910109,138
817,WS_RECV_END,1516239910159,138
817,PLAYER_SLEEPBEFORE_START,1516239910159,139
817,PLAYER_SLEEPBEFORE_END,1516239910849,139
817,WS_SEND_START,1516239910849,139
817,WS_SEND_END,1516239910849,139
817,WS_RECV_START,1516239910849,140
817,WS_RECV_END,1516239911012,140
817,PLAYER_SLEEPBEFORE_START,1516239911012,141
817,PLAYER_SLEEPBEFORE_END,1516239911667,141
817,WS_SEND_START,1516239911667,141
817,WS_SEND_END,1516239911667,141
817,WS_RECV_START,1516239911667,142
817,WS_RECV_END,1516239911839,142
817,PLAYER_SLEEPBEFORE_START,1516239911839,143
817,PLAYER_SLEEPBEFORE_END,1516239911897,143
817,WS_SEND_START,1516239911897,143
817,WS_SEND_END,1516239911897,143
817,WS_RECV_START,1516239911897,144
817,WS_RECV_END,1516239912111,144
817,PLAYER_SLEEPBEFORE_START,1516239912111,145
817,PLAYER_SLEEPBEFORE_END,1516239928173,145
817,REQ_START,1516239928173,145
817,REQ_END,1516239928179,145
817,PLAYER_SLEEPBEFORE_START,1516239928179,146
817,PLAYER_SLEEPBEFORE_END,1516239937057,146
817,WS_SEND_START,1516239937057,146
817,WS_SEND_END,1516239937057,146
817,WS_RECV_START,1516239937057,147
817,WS_RECV_END,1516239937446,147
817,PLAYER_SLEEPBEFORE_START,1516239937446,148
817,PLAYER_SLEEPBEFORE_END,1516239959368,148
817,WS_SEND_START,1516239959368,148
817,WS_SEND_END,1516239959369,148
817,PLAYER_SLEEPBEFORE_START,1516239959369,149
817,PLAYER_SLEEPBEFORE_END,1516239961797,149
817,WS_SEND_START,1516239961797,149
817,WS_SEND_END,1516239961797,149
817,WS_RECV_START,1516239961797,150
817,WS_RECV_END,1516239964230,150
817,PLAYER_SLEEPBEFORE_START,1516239964230,151
817,PLAYER_SLEEPBEFORE_END,1516239964440,151
817,WS_SEND_START,1516239964440,151
817,WS_SEND_END,1516239964440,151
817,WS_RECV_START,1516239964440,152
817,WS_RECV_END,1516239965303,152
817,PLAYER_SLEEPBEFORE_START,1516239965303,153
817,PLAYER_SLEEPBEFORE_END,1516239989230,153
817,WS_SEND_START,1516239989230,153
817,WS_SEND_END,1516239989230,153
817,WS_RECV_START,1516239989230,154
817,WS_RECV_END,1516239990448,154
817,PLAYER_SLEEPBEFORE_START,1516239990448,155
817,PLAYER_SLEEPBEFORE_END,1516240013007,155
817,WS_SEND_START,1516240013007,155
817,WS_SEND_END,1516240013007,155
817,PLAYER_SLEEPBEFORE_START,1516240013007,156
817,PLAYER_SLEEPBEFORE_END,1516240016281,156
817,WS_SEND_START,1516240016281,156
817,WS_SEND_END,1516240016281,156
817,WS_RECV_START,1516240016281,157
817,WS_RECV_END,1516240019311,157
817,PLAYER_SLEEPBEFORE_START,1516240019311,158
817,PLAYER_SLEEPBEFORE_END,1516240019321,158
817,WS_SEND_START,1516240019321,158
817,WS_SEND_END,1516240019321,158
817,WS_RECV_START,1516240019321,159
817,WS_RECV_END,1516240021255,159
817,PLAYER_SLEEPBEFORE_START,1516240021255,160
817,PLAYER_SLEEPBEFORE_END,1516240021430,160
817,WS_SEND_START,1516240021430,160
817,WS_SEND_END,1516240021430,160
817,WS_RECV_START,1516240021430,161
817,WS_RECV_END,1516240023621,161
817,PLAYER_SLEEPBEFORE_START,1516240023621,162
817,PLAYER_SLEEPBEFORE_END,1516240023646,162
817,WS_SEND_START,1516240023646,162
817,WS_SEND_END,1516240023646,162
817,WS_RECV_START,1516240023646,163
817,WS_RECV_END,1516240026037,163
817,PLAYER_SLEEPBEFORE_START,1516240026037,164
817,PLAYER_SLEEPBEFORE_END,1516240046850,164
817,WS_SEND_START,1516240046850,164
817,WS_SEND_END,1516240046850,164
817,WS_RECV_START,1516240046850,165
817,WS_RECV_END,1516240049073,165
817,PLAYER_SLEEPBEFORE_START,1516240049073,166
817,PLAYER_SLEEPBEFORE_END,1516240071528,166
817,WS_SEND_START,1516240071528,166
817,WS_SEND_END,1516240071528,166
817,WS_RECV_START,1516240071528,167
817,WS_RECV_END,1516240073435,167
817,PLAYER_SLEEPBEFORE_START,1516240073435,168
817,PLAYER_SLEEPBEFORE_END,1516240100792,168
817,WS_SEND_START,1516240100792,168
817,WS_SEND_END,1516240100792,168
817,WS_RECV_START,1516240100792,169
817,WS_RECV_END,1516240101085,169
817,PLAYER_SLEEPBEFORE_START,1516240101085,170
817,PLAYER_SLEEPBEFORE_END,1516240101102,170
817,WS_SEND_START,1516240101102,170
817,WS_SEND_END,1516240101102,170
817,WS_RECV_START,1516240101102,171
817,WS_RECV_END,1516240101171,171
817,PLAYER_SLEEPBEFORE_START,1516240101171,172
817,PLAYER_SLEEPBEFORE_END,1516240101540,172
817,WS_SEND_START,1516240101540,172
817,WS_SEND_END,1516240101540,172
817,WS_RECV_START,1516240101540,173
817,WS_RECV_END,1516240101853,173
817,PLAYER_SLEEPBEFORE_START,1516240101853,174
817,PLAYER_SLEEPBEFORE_END,1516240101895,174
817,WS_SEND_START,1516240101895,174
817,WS_SEND_END,1516240101895,174
817,WS_RECV_START,1516240101895,175
817,WS_RECV_END,1516240102013,175
817,PLAYER_SLEEPBEFORE_START,1516240102013,176
817,PLAYER_SLEEPBEFORE_END,1516240123774,176
817,WS_SEND_START,1516240123774,176
817,WS_SEND_END,1516240123774,176
817,PLAYER_SLEEPBEFORE_START,1516240123774,177
817,PLAYER_SLEEPBEFORE_END,1516240126293,177
817,WS_SEND_START,1516240126293,177
817,WS_SEND_END,1516240126293,177
817,WS_RECV_START,1516240126293,178
817,WS_RECV_END,1516240126512,178
817,PLAYER_SLEEPBEFORE_START,1516240126512,179
817,PLAYER_SLEEPBEFORE_END,1516240148852,179
817,WS_SEND_START,1516240148852,179
817,WS_SEND_END,1516240148853,179
817,WS_RECV_START,1516240148853,180
817,WS_RECV_END,1516240148998,180
817,PLAYER_SLEEPBEFORE_START,1516240148998,181
817,PLAYER_SLEEPBEFORE_END,1516240149442,181
817,WS_SEND_START,1516240149442,181
817,WS_SEND_END,1516240149442,181
817,WS_RECV_START,1516240149442,182
817,WS_RECV_END,1516240149585,182
817,PLAYER_SLEEPBEFORE_START,1516240149585,183
817,PLAYER_SLEEPBEFORE_END,1516240150108,183
817,WS_SEND_START,1516240150108,183
817,WS_SEND_END,1516240150108,183
817,WS_RECV_START,1516240150108,184
817,WS_RECV_END,1516240150289,184
817,PLAYER_SLEEPBEFORE_START,1516240150289,185
817,PLAYER_SLEEPBEFORE_END,1516240150558,185
817,WS_SEND_START,1516240150558,185
817,WS_SEND_END,1516240150558,185
817,WS_RECV_START,1516240150558,186
817,WS_RECV_END,1516240150737,186
817,PLAYER_SLEEPBEFORE_START,1516240150737,187
817,PLAYER_SLEEPBEFORE_END,1516240173237,187
817,WS_SEND_START,1516240173237,187
817,WS_SEND_END,1516240173237,187
817,WS_RECV_START,1516240173237,188
817,WS_RECV_END,1516240173280,188
817,PLAYER_SLEEPBEFORE_START,1516240173280,189
817,PLAYER_SLEEPBEFORE_END,1516240179519,189
817,WS_SEND_START,1516240179519,189
817,WS_SEND_END,1516240179519,189
817,WS_RECV_START,1516240179519,190
817,WS_RECV_END,1516240179620,190
817,PLAYER_SLEEPBEFORE_START,1516240179620,191
817,PLAYER_SLEEPBEFORE_END,1516240181535,191
817,WS_SEND_START,1516240181535,191
817,WS_SEND_END,1516240181535,191
817,WS_RECV_START,1516240181535,192
817,WS_RECV_END,1516240181651,192
817,PLAYER_SLEEPBEFORE_START,1516240181651,193
817,PLAYER_SLEEPBEFORE_END,1516240181779,193
817,WS_SEND_START,1516240181779,193
817,WS_SEND_END,1516240181779,193
817,WS_RECV_START,1516240181779,194
817,WS_RECV_END,1516240182113,194
817,PLAYER_SLEEPBEFORE_START,1516240182113,195
817,PLAYER_SLEEPBEFORE_END,1516240183868,195
817,WS_SEND_START,1516240183868,195
817,WS_SEND_END,1516240183868,195
817,WS_RECV_START,1516240183868,196
817,WS_RECV_END,1516240183970,196
817,PLAYER_SLEEPBEFORE_START,1516240183970,197
817,PLAYER_SLEEPBEFORE_END,1516240185774,197
817,WS_SEND_START,1516240185774,197
817,WS_SEND_END,1516240185774,197
817,WS_RECV_START,1516240185774,198
817,WS_RECV_END,1516240185931,198
817,PLAYER_SLEEPBEFORE_START,1516240185931,199
817,PLAYER_SLEEPBEFORE_END,1516240197785,199
817,WS_SEND_START,1516240197785,199
817,WS_SEND_END,1516240197785,199
817,PLAYER_SLEEPBEFORE_START,1516240197785,200
817,PLAYER_SLEEPBEFORE_END,1516240201874,200
817,WS_SEND_START,1516240201874,200
817,WS_SEND_END,1516240201874,200
817,WS_RECV_START,1516240201874,201
817,WS_RECV_END,1516240202135,201
817,PLAYER_SLEEPBEFORE_START,1516240202135,202
817,PLAYER_SLEEPBEFORE_END,1516240202149,202
817,WS_SEND_START,1516240202149,202
817,WS_SEND_END,1516240202149,202
817,WS_RECV_START,1516240202149,203
817,WS_RECV_END,1516240202253,203
817,PLAYER_SLEEPBEFORE_START,1516240202253,204
817,PLAYER_SLEEPBEFORE_END,1516240221902,204
817,WS_SEND_START,1516240221902,204
817,WS_SEND_END,1516240221902,204
817,PLAYER_SLEEPBEFORE_START,1516240221902,205
817,PLAYER_SLEEPBEFORE_END,1516240225800,205
817,WS_SEND_START,1516240225800,205
817,WS_SEND_END,1516240225800,205
817,WS_RECV_START,1516240225800,206
817,WS_RECV_END,1516240225897,206
817,PLAYER_SLEEPBEFORE_START,1516240225897,207
817,PLAYER_SLEEPBEFORE_END,1516240242828,207
817,REQ_START,1516240242828,207
817,REQ_END,1516240242838,207
817,PLAYER_SLEEPBEFORE_START,1516240242838,208
817,PLAYER_SLEEPBEFORE_END,1516240249690,208
817,WS_CLOSE_START,1516240249690,208
817,WS_CLOSE_END,1516240249690,208
817,PLAYER_DONE,1516240249690
