# --sessions 1080 --app-url=http://shinyloadtest.rstudioservices.com/cran_explorer --output-dir test1080 --overwrite-output --log-level warn --start-interval 250 15min.log
thread_id,event,timestamp,input_line_number,comment
825,PLAYER_SESSION_CREATE,1516239120766
825,PLAYER_START_INTERVAL_START,1516239120766
825,PLAYER_START_INTERVAL_END,1516239327016
825,REQ_HOME_START,1516239327016,2
825,REQ_HOME_END,1516239327163,2
825,REQ_START,1516239327163,3
825,REQ_END,1516239327198,3
825,REQ_START,1516239327198,4
825,REQ_END,1516239327227,4
825,REQ_START,1516239327227,5
825,REQ_END,1516239327263,5
825,REQ_START,1516239327263,6
825,REQ_END,1516239327300,6
825,REQ_START,1516239327300,7
825,REQ_END,1516239327333,7
825,REQ_START,1516239327333,8
825,REQ_END,1516239327368,8
825,REQ_START,1516239327368,9
825,REQ_END,1516239327401,9
825,REQ_START,1516239327401,10
825,REQ_END,1516239327405,10
825,REQ_START,1516239327405,11
825,REQ_END,1516239327440,11
825,REQ_START,1516239327440,12
825,REQ_END,1516239327446,12
825,REQ_START,1516239327446,13
825,REQ_END,1516239327483,13
825,REQ_START,1516239327483,14
825,REQ_END,1516239327496,14
825,REQ_START,1516239327496,15
825,REQ_END,1516239327533,15
825,REQ_TOK_START,1516239327533,16
825,REQ_TOK_END,1516239327538,16
825,REQ_SINF_START,1516239327538,17
825,REQ_SINF_END,1516239327541,17
825,WS_OPEN_START,1516239327541,18
825,WS_OPEN_END,1516239327545,18
825,REQ_START,1516239327545,19
825,REQ_END,1516239327599,19
825,WS_RECV_START,1516239327599,20
825,WS_RECV_END,1516239327599,20
825,PLAYER_SLEEPBEFORE_START,1516239327599,21
825,PLAYER_SLEEPBEFORE_END,1516239327604,21
825,WS_SEND_START,1516239327604,21
825,WS_SEND_END,1516239327604,21
825,PLAYER_SLEEPBEFORE_START,1516239327604,22
825,PLAYER_SLEEPBEFORE_END,1516239327605,22
825,WS_SEND_START,1516239327605,22
825,WS_SEND_END,1516239327605,22
825,WS_RECV_INIT_START,1516239327605,23
825,WS_RECV_INIT_END,1516239327697,23
825,WS_RECV_START,1516239327697,24
825,WS_RECV_END,1516239327767,24
825,PLAYER_SLEEPBEFORE_START,1516239327767,25
825,PLAYER_SLEEPBEFORE_END,1516239327774,25
825,REQ_START,1516239327774,25
825,REQ_END,1516239327809,25
825,PLAYER_SLEEPBEFORE_START,1516239327809,26
825,PLAYER_SLEEPBEFORE_END,1516239327810,26
825,REQ_START,1516239327810,26
825,REQ_END,1516239327848,26
825,PLAYER_SLEEPBEFORE_START,1516239327848,27
825,PLAYER_SLEEPBEFORE_END,1516239327851,27
825,REQ_START,1516239327851,27
825,REQ_END,1516239327885,27
825,PLAYER_SLEEPBEFORE_START,1516239327885,28
825,PLAYER_SLEEPBEFORE_END,1516239328170,28
825,REQ_START,1516239328170,28
825,REQ_END,1516239328254,28
825,PLAYER_SLEEPBEFORE_START,1516239328254,29
825,PLAYER_SLEEPBEFORE_END,1516239328429,29
825,WS_SEND_START,1516239328429,29
825,WS_SEND_END,1516239328429,29
825,WS_RECV_START,1516239328429,30
825,WS_RECV_END,1516239328551,30
825,PLAYER_SLEEPBEFORE_START,1516239328551,31
825,PLAYER_SLEEPBEFORE_END,1516239328562,31
825,REQ_START,1516239328562,31
825,REQ_END,1516239328597,31
825,PLAYER_SLEEPBEFORE_START,1516239328597,32
825,PLAYER_SLEEPBEFORE_END,1516239356742,32
825,WS_SEND_START,1516239356742,32
825,WS_SEND_END,1516239356742,32
825,WS_RECV_START,1516239356742,33
825,WS_RECV_END,1516239356921,33
825,PLAYER_SLEEPBEFORE_START,1516239356921,34
825,PLAYER_SLEEPBEFORE_END,1516239382833,34
825,WS_SEND_START,1516239382833,34
825,WS_SEND_END,1516239382833,34
825,WS_RECV_START,1516239382833,35
825,WS_RECV_END,1516239382857,35
825,PLAYER_SLEEPBEFORE_START,1516239382857,36
825,PLAYER_SLEEPBEFORE_END,1516239382866,36
825,WS_SEND_START,1516239382866,36
825,WS_SEND_END,1516239382866,36
825,WS_RECV_START,1516239382866,37
825,WS_RECV_END,1516239382919,37
825,PLAYER_SLEEPBEFORE_START,1516239382919,38
825,PLAYER_SLEEPBEFORE_END,1516239386114,38
825,WS_SEND_START,1516239386114,38
825,WS_SEND_END,1516239386114,38
825,WS_RECV_START,1516239386114,39
825,WS_RECV_END,1516239386278,39
825,PLAYER_SLEEPBEFORE_START,1516239386278,40
825,PLAYER_SLEEPBEFORE_END,1516239386324,40
825,WS_SEND_START,1516239386324,40
825,WS_SEND_END,1516239386324,40
825,WS_RECV_START,1516239386324,41
825,WS_RECV_END,1516239386554,41
825,PLAYER_SLEEPBEFORE_START,1516239386554,42
825,PLAYER_SLEEPBEFORE_END,1516239404690,42
825,WS_SEND_START,1516239404690,42
825,WS_SEND_END,1516239404690,42
825,WS_RECV_START,1516239404690,43
825,WS_RECV_END,1516239405157,43
825,PLAYER_SLEEPBEFORE_START,1516239405157,44
825,PLAYER_SLEEPBEFORE_END,1516239405169,44
825,WS_SEND_START,1516239405169,44
825,WS_SEND_END,1516239405169,44
825,WS_RECV_START,1516239405169,45
825,WS_RECV_END,1516239405283,45
825,PLAYER_SLEEPBEFORE_START,1516239405283,46
825,PLAYER_SLEEPBEFORE_END,1516239406543,46
825,WS_SEND_START,1516239406543,46
825,WS_SEND_END,1516239406543,46
825,WS_RECV_START,1516239406543,47
825,WS_RECV_END,1516239406721,47
825,PLAYER_SLEEPBEFORE_START,1516239406721,48
825,PLAYER_SLEEPBEFORE_END,1516239408041,48
825,WS_SEND_START,1516239408041,48
825,WS_SEND_END,1516239408041,48
825,WS_RECV_START,1516239408041,49
825,WS_RECV_END,1516239408166,49
825,PLAYER_SLEEPBEFORE_START,1516239408166,50
825,PLAYER_SLEEPBEFORE_END,1516239408190,50
825,WS_SEND_START,1516239408190,50
825,WS_SEND_END,1516239408190,50
825,WS_RECV_START,1516239408190,51
825,WS_RECV_END,1516239408363,51
825,PLAYER_SLEEPBEFORE_START,1516239408363,52
825,PLAYER_SLEEPBEFORE_END,1516239430927,52
825,WS_SEND_START,1516239430927,52
825,WS_SEND_END,1516239430927,52
825,WS_RECV_START,1516239430927,53
825,WS_RECV_END,1516239431104,53
825,PLAYER_SLEEPBEFORE_START,1516239431104,54
825,PLAYER_SLEEPBEFORE_END,1516239452407,54
825,WS_SEND_START,1516239452407,54
825,WS_SEND_END,1516239452407,54
825,PLAYER_SLEEPBEFORE_START,1516239452407,55
825,PLAYER_SLEEPBEFORE_END,1516239454348,55
825,WS_SEND_START,1516239454348,55
825,WS_SEND_END,1516239454348,55
825,WS_RECV_START,1516239454348,56
825,WS_RECV_END,1516239454405,56
825,PLAYER_SLEEPBEFORE_START,1516239454405,57
825,PLAYER_SLEEPBEFORE_END,1516239477277,57
825,WS_SEND_START,1516239477277,57
825,WS_SEND_END,1516239477277,57
825,WS_RECV_START,1516239477277,58
825,WS_RECV_END,1516239477318,58
825,PLAYER_SLEEPBEFORE_START,1516239477318,59
825,PLAYER_SLEEPBEFORE_END,1516239479645,59
825,WS_SEND_START,1516239479645,59
825,WS_SEND_END,1516239479645,59
825,WS_RECV_START,1516239479645,60
825,WS_RECV_END,1516239479762,60
825,PLAYER_SLEEPBEFORE_START,1516239479762,61
825,PLAYER_SLEEPBEFORE_END,1516239483353,61
825,WS_SEND_START,1516239483353,61
825,WS_SEND_END,1516239483353,61
825,WS_RECV_START,1516239483353,62
825,WS_RECV_END,1516239483677,62
825,PLAYER_SLEEPBEFORE_START,1516239483677,63
825,PLAYER_SLEEPBEFORE_END,1516239502940,63
825,WS_SEND_START,1516239502940,63
825,WS_SEND_END,1516239502940,63
825,WS_RECV_START,1516239502940,64
825,WS_RECV_END,1516239503044,64
825,PLAYER_SLEEPBEFORE_START,1516239503044,65
825,PLAYER_SLEEPBEFORE_END,1516239529861,65
825,WS_SEND_START,1516239529861,65
825,WS_SEND_END,1516239529861,65
825,WS_RECV_START,1516239529861,66
825,WS_RECV_END,1516239529968,66
825,PLAYER_SLEEPBEFORE_START,1516239529968,67
825,PLAYER_SLEEPBEFORE_END,1516239531475,67
825,WS_SEND_START,1516239531475,67
825,WS_SEND_END,1516239531475,67
825,WS_RECV_START,1516239531475,68
825,WS_RECV_END,1516239531659,68
825,PLAYER_SLEEPBEFORE_START,1516239531659,69
825,PLAYER_SLEEPBEFORE_END,1516239553657,69
825,WS_SEND_START,1516239553657,69
825,WS_SEND_END,1516239553657,69
825,WS_RECV_START,1516239553657,70
825,WS_RECV_END,1516239553769,70
825,PLAYER_SLEEPBEFORE_START,1516239553769,71
825,PLAYER_SLEEPBEFORE_END,1516239578544,71
825,WS_SEND_START,1516239578544,71
825,WS_SEND_END,1516239578544,71
825,PLAYER_SLEEPBEFORE_START,1516239578544,72
825,PLAYER_SLEEPBEFORE_END,1516239581152,72
825,WS_SEND_START,1516239581152,72
825,WS_SEND_END,1516239581152,72
825,WS_RECV_START,1516239581152,73
825,WS_RECV_END,1516239581357,73
825,PLAYER_SLEEPBEFORE_START,1516239581357,74
825,PLAYER_SLEEPBEFORE_END,1516239581366,74
825,WS_SEND_START,1516239581366,74
825,WS_SEND_END,1516239581366,74
825,WS_RECV_START,1516239581366,75
825,WS_RECV_END,1516239581430,75
825,PLAYER_SLEEPBEFORE_START,1516239581430,76
825,PLAYER_SLEEPBEFORE_END,1516239582937,76
825,WS_SEND_START,1516239582937,76
825,WS_SEND_END,1516239582937,76
825,WS_RECV_START,1516239582937,77
825,WS_RECV_END,1516239582984,77
825,PLAYER_SLEEPBEFORE_START,1516239582984,78
825,PLAYER_SLEEPBEFORE_END,1516239583852,78
825,WS_SEND_START,1516239583852,78
825,WS_SEND_END,1516239583853,78
825,WS_RECV_START,1516239583853,79
825,WS_RECV_END,1516239584146,79
825,PLAYER_SLEEPBEFORE_START,1516239584146,80
825,PLAYER_SLEEPBEFORE_END,1516239591813,80
825,WS_SEND_START,1516239591813,80
825,WS_SEND_END,1516239591813,80
825,WS_RECV_START,1516239591813,81
825,WS_RECV_END,1516239591900,81
825,PLAYER_SLEEPBEFORE_START,1516239591900,82
825,PLAYER_SLEEPBEFORE_END,1516239593002,82
825,WS_SEND_START,1516239593002,82
825,WS_SEND_END,1516239593002,82
825,WS_RECV_START,1516239593002,83
825,WS_RECV_END,1516239593094,83
825,PLAYER_SLEEPBEFORE_START,1516239593094,84
825,PLAYER_SLEEPBEFORE_END,1516239594041,84
825,WS_SEND_START,1516239594041,84
825,WS_SEND_END,1516239594041,84
825,WS_RECV_START,1516239594041,85
825,WS_RECV_END,1516239594380,85
825,PLAYER_SLEEPBEFORE_START,1516239594380,86
825,PLAYER_SLEEPBEFORE_END,1516239598552,86
825,WS_SEND_START,1516239598552,86
825,WS_SEND_END,1516239598552,86
825,WS_RECV_START,1516239598552,87
825,WS_RECV_END,1516239598674,87
825,PLAYER_SLEEPBEFORE_START,1516239598674,88
825,PLAYER_SLEEPBEFORE_END,1516239598683,88
825,WS_SEND_START,1516239598683,88
825,WS_SEND_END,1516239598683,88
825,WS_RECV_START,1516239598683,89
825,WS_RECV_END,1516239599026,89
825,PLAYER_SLEEPBEFORE_START,1516239599026,90
825,PLAYER_SLEEPBEFORE_END,1516239626223,90
825,REQ_START,1516239626223,90
825,REQ_END,1516239626229,90
825,PLAYER_SLEEPBEFORE_START,1516239626229,91
825,PLAYER_SLEEPBEFORE_END,1516239634118,91
825,WS_SEND_START,1516239634119,91
825,WS_SEND_END,1516239634119,91
825,WS_RECV_START,1516239634119,92
825,WS_RECV_END,1516239634590,92
825,PLAYER_SLEEPBEFORE_START,1516239634590,93
825,PLAYER_SLEEPBEFORE_END,1516239634605,93
825,WS_SEND_START,1516239634605,93
825,WS_SEND_END,1516239634605,93
825,WS_RECV_START,1516239634605,94
825,WS_RECV_END,1516239634891,94
825,PLAYER_SLEEPBEFORE_START,1516239634891,95
825,PLAYER_SLEEPBEFORE_END,1516239658446,95
825,WS_SEND_START,1516239658446,95
825,WS_SEND_END,1516239658446,95
825,WS_RECV_START,1516239658446,96
825,WS_RECV_END,1516239659513,96
825,PLAYER_SLEEPBEFORE_START,1516239659513,97
825,PLAYER_SLEEPBEFORE_END,1516239681953,97
825,WS_SEND_START,1516239681953,97
825,WS_SEND_END,1516239681953,97
825,WS_RECV_START,1516239681953,98
825,WS_RECV_END,1516239682293,98
825,PLAYER_SLEEPBEFORE_START,1516239682293,99
825,PLAYER_SLEEPBEFORE_END,1516239682315,99
825,WS_SEND_START,1516239682315,99
825,WS_SEND_END,1516239682315,99
825,WS_RECV_START,1516239682315,100
825,WS_RECV_END,1516239682466,100
825,PLAYER_SLEEPBEFORE_START,1516239682466,101
825,PLAYER_SLEEPBEFORE_END,1516239706025,101
825,WS_SEND_START,1516239706025,101
825,WS_SEND_END,1516239706025,101
825,WS_RECV_START,1516239706025,102
825,WS_RECV_END,1516239706226,102
825,PLAYER_SLEEPBEFORE_START,1516239706226,103
825,PLAYER_SLEEPBEFORE_END,1516239729851,103
825,WS_SEND_START,1516239729851,103
825,WS_SEND_END,1516239729851,103
825,WS_RECV_START,1516239729851,104
825,WS_RECV_END,1516239730054,104
825,PLAYER_SLEEPBEFORE_START,1516239730054,105
825,PLAYER_SLEEPBEFORE_END,1516239755431,105
825,WS_SEND_START,1516239755431,105
825,WS_SEND_END,1516239755431,105
825,WS_RECV_START,1516239755431,106
825,WS_RECV_END,1516239755912,106
825,PLAYER_SLEEPBEFORE_START,1516239755912,107
825,PLAYER_SLEEPBEFORE_END,1516239779335,107
825,WS_SEND_START,1516239779335,107
825,WS_SEND_END,1516239779335,107
825,WS_RECV_START,1516239779336,108
825,WS_RECV_END,1516239779619,108
825,PLAYER_SLEEPBEFORE_START,1516239779619,109
825,PLAYER_SLEEPBEFORE_END,1516239779628,109
825,WS_SEND_START,1516239779628,109
825,WS_SEND_END,1516239779628,109
825,WS_RECV_START,1516239779628,110
825,WS_RECV_END,1516239779671,110
825,PLAYER_SLEEPBEFORE_START,1516239779671,111
825,PLAYER_SLEEPBEFORE_END,1516239780630,111
825,WS_SEND_START,1516239780630,111
825,WS_SEND_END,1516239780630,111
825,WS_RECV_START,1516239780630,112
825,WS_RECV_END,1516239781243,112
825,PLAYER_SLEEPBEFORE_START,1516239781243,113
825,PLAYER_SLEEPBEFORE_END,1516239781805,113
825,WS_SEND_START,1516239781805,113
825,WS_SEND_END,1516239781805,113
825,WS_RECV_START,1516239781805,114
825,WS_RECV_END,1516239782006,114
825,PLAYER_SLEEPBEFORE_START,1516239782006,115
825,PLAYER_SLEEPBEFORE_END,1516239782015,115
825,WS_SEND_START,1516239782015,115
825,WS_SEND_END,1516239782015,115
825,WS_RECV_START,1516239782015,116
825,WS_RECV_END,1516239782363,116
825,PLAYER_SLEEPBEFORE_START,1516239782363,117
825,PLAYER_SLEEPBEFORE_END,1516239802723,117
825,WS_SEND_START,1516239802723,117
825,WS_SEND_END,1516239802723,117
825,PLAYER_SLEEPBEFORE_START,1516239802723,118
825,PLAYER_SLEEPBEFORE_END,1516239806475,118
825,WS_SEND_START,1516239806475,118
825,WS_SEND_END,1516239806475,118
825,WS_RECV_START,1516239806475,119
825,WS_RECV_END,1516239806720,119
825,PLAYER_SLEEPBEFORE_START,1516239806720,120
825,PLAYER_SLEEPBEFORE_END,1516239807708,120
825,WS_SEND_START,1516239807708,120
825,WS_SEND_END,1516239807708,120
825,WS_RECV_START,1516239807708,121
825,WS_RECV_END,1516239807992,121
825,PLAYER_SLEEPBEFORE_START,1516239807992,122
825,PLAYER_SLEEPBEFORE_END,1516239809177,122
825,WS_SEND_START,1516239809177,122
825,WS_SEND_END,1516239809177,122
825,WS_RECV_START,1516239809177,123
825,WS_RECV_END,1516239809327,123
825,PLAYER_SLEEPBEFORE_START,1516239809327,124
825,PLAYER_SLEEPBEFORE_END,1516239833732,124
825,WS_SEND_START,1516239833732,124
825,WS_SEND_END,1516239833732,124
825,WS_RECV_START,1516239833732,125
825,WS_RECV_END,1516239834197,125
825,PLAYER_SLEEPBEFORE_START,1516239834197,126
825,PLAYER_SLEEPBEFORE_END,1516239854709,126
825,WS_SEND_START,1516239854709,126
825,WS_SEND_END,1516239854709,126
825,PLAYER_SLEEPBEFORE_START,1516239854709,127
825,PLAYER_SLEEPBEFORE_END,1516239857763,127
825,WS_SEND_START,1516239857763,127
825,WS_SEND_END,1516239857763,127
825,WS_RECV_START,1516239857763,128
825,WS_RECV_END,1516239858067,128
825,PLAYER_SLEEPBEFORE_START,1516239858067,129
825,PLAYER_SLEEPBEFORE_END,1516239858087,129
825,WS_SEND_START,1516239858087,129
825,WS_SEND_END,1516239858087,129
825,WS_RECV_START,1516239858087,130
825,WS_RECV_END,1516239858459,130
825,PLAYER_SLEEPBEFORE_START,1516239858459,131
825,PLAYER_SLEEPBEFORE_END,1516239880083,131
825,WS_SEND_START,1516239880083,131
825,WS_SEND_END,1516239880083,131
825,PLAYER_SLEEPBEFORE_START,1516239880083,132
825,PLAYER_SLEEPBEFORE_END,1516239883163,132
825,WS_SEND_START,1516239883163,132
825,WS_SEND_END,1516239883163,132
825,WS_RECV_START,1516239883163,133
825,WS_RECV_END,1516239883330,133
825,PLAYER_SLEEPBEFORE_START,1516239883330,134
825,PLAYER_SLEEPBEFORE_END,1516239904547,134
825,WS_SEND_START,1516239904547,134
825,WS_SEND_END,1516239904547,134
825,PLAYER_SLEEPBEFORE_START,1516239904547,135
825,PLAYER_SLEEPBEFORE_END,1516239907738,135
825,WS_SEND_START,1516239907738,135
825,WS_SEND_END,1516239907738,135
825,WS_RECV_START,1516239907738,136
825,WS_RECV_END,1516239907894,136
825,PLAYER_SLEEPBEFORE_START,1516239907894,137
825,PLAYER_SLEEPBEFORE_END,1516239907901,137
825,WS_SEND_START,1516239907901,137
825,WS_SEND_END,1516239907901,137
825,WS_RECV_START,1516239907901,138
825,WS_RECV_END,1516239908306,138
825,PLAYER_SLEEPBEFORE_START,1516239908307,139
825,PLAYER_SLEEPBEFORE_END,1516239908997,139
825,WS_SEND_START,1516239908997,139
825,WS_SEND_END,1516239908997,139
825,WS_RECV_START,1516239908997,140
825,WS_RECV_END,1516239909294,140
825,PLAYER_SLEEPBEFORE_START,1516239909294,141
825,PLAYER_SLEEPBEFORE_END,1516239909952,141
825,WS_SEND_START,1516239909952,141
825,WS_SEND_END,1516239909952,141
825,WS_RECV_START,1516239909952,142
825,WS_RECV_END,1516239910177,142
825,PLAYER_SLEEPBEFORE_START,1516239910177,143
825,PLAYER_SLEEPBEFORE_END,1516239910234,143
825,WS_SEND_START,1516239910234,143
825,WS_SEND_END,1516239910234,143
825,WS_RECV_START,1516239910234,144
825,WS_RECV_END,1516239910780,144
825,PLAYER_SLEEPBEFORE_START,1516239910780,145
825,PLAYER_SLEEPBEFORE_END,1516239926842,145
825,REQ_START,1516239926842,145
825,REQ_END,1516239926848,145
825,PLAYER_SLEEPBEFORE_START,1516239926849,146
825,PLAYER_SLEEPBEFORE_END,1516239935726,146
825,WS_SEND_START,1516239935726,146
825,WS_SEND_END,1516239935726,146
825,WS_RECV_START,1516239935726,147
825,WS_RECV_END,1516239935869,147
825,PLAYER_SLEEPBEFORE_START,1516239935869,148
825,PLAYER_SLEEPBEFORE_END,1516239957791,148
825,WS_SEND_START,1516239957791,148
825,WS_SEND_END,1516239957791,148
825,PLAYER_SLEEPBEFORE_START,1516239957791,149
825,PLAYER_SLEEPBEFORE_END,1516239960219,149
825,WS_SEND_START,1516239960219,149
825,WS_SEND_END,1516239960219,149
825,WS_RECV_START,1516239960219,150
825,WS_RECV_END,1516239960450,150
825,PLAYER_SLEEPBEFORE_START,1516239960450,151
825,PLAYER_SLEEPBEFORE_END,1516239960660,151
825,WS_SEND_START,1516239960660,151
825,WS_SEND_END,1516239960660,151
825,WS_RECV_START,1516239960660,152
825,WS_RECV_END,1516239960837,152
825,PLAYER_SLEEPBEFORE_START,1516239960837,153
825,PLAYER_SLEEPBEFORE_END,1516239984764,153
825,WS_SEND_START,1516239984764,153
825,WS_SEND_END,1516239984764,153
825,WS_RECV_START,1516239984764,154
825,WS_RECV_END,1516239984992,154
825,PLAYER_SLEEPBEFORE_START,1516239984992,155
825,PLAYER_SLEEPBEFORE_END,1516240007550,155
825,WS_SEND_START,1516240007550,155
825,WS_SEND_END,1516240007550,155
825,PLAYER_SLEEPBEFORE_START,1516240007550,156
825,PLAYER_SLEEPBEFORE_END,1516240010824,156
825,WS_SEND_START,1516240010824,156
825,WS_SEND_END,1516240010824,156
825,WS_RECV_START,1516240010824,157
825,WS_RECV_END,1516240013058,157
825,PLAYER_SLEEPBEFORE_START,1516240013058,158
825,PLAYER_SLEEPBEFORE_END,1516240013068,158
825,WS_SEND_START,1516240013068,158
825,WS_SEND_END,1516240013068,158
825,WS_RECV_START,1516240013068,159
825,WS_RECV_END,1516240014570,159
825,PLAYER_SLEEPBEFORE_START,1516240014570,160
825,PLAYER_SLEEPBEFORE_END,1516240014746,160
825,WS_SEND_START,1516240014746,160
825,WS_SEND_END,1516240014746,160
825,WS_RECV_START,1516240014746,161
825,WS_RECV_END,1516240016314,161
825,PLAYER_SLEEPBEFORE_START,1516240016314,162
825,PLAYER_SLEEPBEFORE_END,1516240016339,162
825,WS_SEND_START,1516240016339,162
825,WS_SEND_END,1516240016339,162
825,WS_RECV_START,1516240016339,163
825,WS_RECV_END,1516240017995,163
825,PLAYER_SLEEPBEFORE_START,1516240017995,164
825,PLAYER_SLEEPBEFORE_END,1516240038807,164
825,WS_SEND_START,1516240038807,164
825,WS_SEND_END,1516240038807,164
825,WS_RECV_START,1516240038807,165
825,WS_RECV_END,1516240040620,165
825,PLAYER_SLEEPBEFORE_START,1516240040620,166
825,PLAYER_SLEEPBEFORE_END,1516240063076,166
825,WS_SEND_START,1516240063076,166
825,WS_SEND_END,1516240063076,166
825,WS_RECV_START,1516240063076,167
825,WS_RECV_END,1516240064276,167
825,PLAYER_SLEEPBEFORE_START,1516240064276,168
825,PLAYER_SLEEPBEFORE_END,1516240091633,168
825,WS_SEND_START,1516240091633,168
825,WS_SEND_END,1516240091633,168
825,WS_RECV_START,1516240091633,169
825,WS_RECV_END,1516240091797,169
825,PLAYER_SLEEPBEFORE_START,1516240091797,170
825,PLAYER_SLEEPBEFORE_END,1516240091806,170
825,WS_SEND_START,1516240091806,170
825,WS_SEND_END,1516240091806,170
825,WS_RECV_START,1516240091806,171
825,WS_RECV_END,1516240092042,171
825,PLAYER_SLEEPBEFORE_START,1516240092042,172
825,PLAYER_SLEEPBEFORE_END,1516240092412,172
825,WS_SEND_START,1516240092412,172
825,WS_SEND_END,1516240092412,172
825,WS_RECV_START,1516240092412,173
825,WS_RECV_END,1516240092678,173
825,PLAYER_SLEEPBEFORE_START,1516240092678,174
825,PLAYER_SLEEPBEFORE_END,1516240092719,174
825,WS_SEND_START,1516240092719,174
825,WS_SEND_END,1516240092719,174
825,WS_RECV_START,1516240092719,175
825,WS_RECV_END,1516240093573,175
825,PLAYER_SLEEPBEFORE_START,1516240093573,176
825,PLAYER_SLEEPBEFORE_END,1516240115334,176
825,WS_SEND_START,1516240115334,176
825,WS_SEND_END,1516240115334,176
825,PLAYER_SLEEPBEFORE_START,1516240115334,177
825,PLAYER_SLEEPBEFORE_END,1516240117853,177
825,WS_SEND_START,1516240117853,177
825,WS_SEND_END,1516240117853,177
825,WS_RECV_START,1516240117853,178
825,WS_RECV_END,1516240117990,178
825,PLAYER_SLEEPBEFORE_START,1516240117990,179
825,PLAYER_SLEEPBEFORE_END,1516240140330,179
825,WS_SEND_START,1516240140330,179
825,WS_SEND_END,1516240140330,179
825,WS_RECV_START,1516240140330,180
825,WS_RECV_END,1516240140502,180
825,PLAYER_SLEEPBEFORE_START,1516240140502,181
825,PLAYER_SLEEPBEFORE_END,1516240140946,181
825,WS_SEND_START,1516240140946,181
825,WS_SEND_END,1516240140946,181
825,WS_RECV_START,1516240140946,182
825,WS_RECV_END,1516240141200,182
825,PLAYER_SLEEPBEFORE_START,1516240141200,183
825,PLAYER_SLEEPBEFORE_END,1516240141723,183
825,WS_SEND_START,1516240141723,183
825,WS_SEND_END,1516240141723,183
825,WS_RECV_START,1516240141723,184
825,WS_RECV_END,1516240141920,184
825,PLAYER_SLEEPBEFORE_START,1516240141920,185
825,PLAYER_SLEEPBEFORE_END,1516240142188,185
825,WS_SEND_START,1516240142188,185
825,WS_SEND_END,1516240142188,185
825,WS_RECV_START,1516240142189,186
825,WS_RECV_END,1516240142610,186
825,PLAYER_SLEEPBEFORE_START,1516240142610,187
825,PLAYER_SLEEPBEFORE_END,1516240165110,187
825,WS_SEND_START,1516240165110,187
825,WS_SEND_END,1516240165110,187
825,WS_RECV_START,1516240165110,188
825,WS_RECV_END,1516240165161,188
825,PLAYER_SLEEPBEFORE_START,1516240165161,189
825,PLAYER_SLEEPBEFORE_END,1516240171400,189
825,WS_SEND_START,1516240171400,189
825,WS_SEND_END,1516240171400,189
825,WS_RECV_START,1516240171400,190
825,WS_RECV_END,1516240171586,190
825,PLAYER_SLEEPBEFORE_START,1516240171586,191
825,PLAYER_SLEEPBEFORE_END,1516240173501,191
825,WS_SEND_START,1516240173501,191
825,WS_SEND_END,1516240173501,191
825,WS_RECV_START,1516240173501,192
825,WS_RECV_END,1516240173595,192
825,PLAYER_SLEEPBEFORE_START,1516240173595,193
825,PLAYER_SLEEPBEFORE_END,1516240173724,193
825,WS_SEND_START,1516240173724,193
825,WS_SEND_END,1516240173724,193
825,WS_RECV_START,1516240173724,194
825,WS_RECV_END,1516240173832,194
825,PLAYER_SLEEPBEFORE_START,1516240173832,195
825,PLAYER_SLEEPBEFORE_END,1516240175587,195
825,WS_SEND_START,1516240175587,195
825,WS_SEND_END,1516240175587,195
825,WS_RECV_START,1516240175587,196
825,WS_RECV_END,1516240175717,196
825,PLAYER_SLEEPBEFORE_START,1516240175717,197
825,PLAYER_SLEEPBEFORE_END,1516240177522,197
825,WS_SEND_START,1516240177522,197
825,WS_SEND_END,1516240177522,197
825,WS_RECV_START,1516240177522,198
825,WS_RECV_END,1516240177654,198
825,PLAYER_SLEEPBEFORE_START,1516240177654,199
825,PLAYER_SLEEPBEFORE_END,1516240189508,199
825,WS_SEND_START,1516240189508,199
825,WS_SEND_END,1516240189508,199
825,PLAYER_SLEEPBEFORE_START,1516240189508,200
825,PLAYER_SLEEPBEFORE_END,1516240193596,200
825,WS_SEND_START,1516240193596,200
825,WS_SEND_END,1516240193596,200
825,WS_RECV_START,1516240193596,201
825,WS_RECV_END,1516240193791,201
825,PLAYER_SLEEPBEFORE_START,1516240193791,202
825,PLAYER_SLEEPBEFORE_END,1516240193805,202
825,WS_SEND_START,1516240193805,202
825,WS_SEND_END,1516240193805,202
825,WS_RECV_START,1516240193805,203
825,WS_RECV_END,1516240194088,203
825,PLAYER_SLEEPBEFORE_START,1516240194088,204
825,PLAYER_SLEEPBEFORE_END,1516240213738,204
825,WS_SEND_START,1516240213738,204
825,WS_SEND_END,1516240213738,204
825,PLAYER_SLEEPBEFORE_START,1516240213738,205
825,PLAYER_SLEEPBEFORE_END,1516240217636,205
825,WS_SEND_START,1516240217636,205
825,WS_SEND_END,1516240217636,205
825,WS_RECV_START,1516240217636,206
825,WS_RECV_END,1516240217775,206
825,PLAYER_SLEEPBEFORE_START,1516240217775,207
825,PLAYER_SLEEPBEFORE_END,1516240234706,207
825,REQ_START,1516240234706,207
825,REQ_END,1516240234716,207
825,PLAYER_SLEEPBEFORE_START,1516240234717,208
825,PLAYER_SLEEPBEFORE_END,1516240241569,208
825,WS_CLOSE_START,1516240241569,208
825,WS_CLOSE_END,1516240241569,208
825,PLAYER_DONE,1516240241569
