# --sessions 1080 --app-url=http://shinyloadtest.rstudioservices.com/cran_explorer --output-dir test1080 --overwrite-output --log-level warn --start-interval 250 15min.log
thread_id,event,timestamp,input_line_number,comment
826,PLAYER_SESSION_CREATE,1516239120767
826,PLAYER_START_INTERVAL_START,1516239120767
826,PLAYER_START_INTERVAL_END,1516239327267
826,REQ_HOME_START,1516239327267,2
826,REQ_HOME_END,1516239327360,2
826,REQ_START,1516239327360,3
826,REQ_END,1516239327390,3
826,REQ_START,1516239327390,4
826,REQ_END,1516239327419,4
826,REQ_START,1516239327419,5
826,REQ_END,1516239327472,5
826,REQ_START,1516239327472,6
826,REQ_END,1516239327508,6
826,REQ_START,1516239327508,7
826,REQ_END,1516239327539,7
826,REQ_START,1516239327539,8
826,REQ_END,1516239327571,8
826,REQ_START,1516239327571,9
826,REQ_END,1516239327623,9
826,REQ_START,1516239327623,10
826,REQ_END,1516239327631,10
826,REQ_START,1516239327631,11
826,REQ_END,1516239327661,11
826,REQ_START,1516239327661,12
826,REQ_END,1516239327710,12
826,REQ_START,1516239327710,13
826,REQ_END,1516239327754,13
826,REQ_START,1516239327754,14
826,REQ_END,1516239327768,14
826,REQ_START,1516239327768,15
826,REQ_END,1516239327802,15
826,REQ_TOK_START,1516239327802,16
826,REQ_TOK_END,1516239327811,16
826,REQ_SINF_START,1516239327811,17
826,REQ_SINF_END,1516239327818,17
826,WS_OPEN_START,1516239327818,18
826,WS_OPEN_END,1516239327824,18
826,REQ_START,1516239327824,19
826,REQ_END,1516239327850,19
826,WS_RECV_START,1516239327850,20
826,WS_RECV_END,1516239327850,20
826,PLAYER_SLEEPBEFORE_START,1516239327850,21
826,PLAYER_SLEEPBEFORE_END,1516239327855,21
826,WS_SEND_START,1516239327855,21
826,WS_SEND_END,1516239327855,21
826,PLAYER_SLEEPBEFORE_START,1516239327855,22
826,PLAYER_SLEEPBEFORE_END,1516239327857,22
826,WS_SEND_START,1516239327857,22
826,WS_SEND_END,1516239327857,22
826,WS_RECV_INIT_START,1516239327857,23
826,WS_RECV_INIT_END,1516239327873,23
826,WS_RECV_START,1516239327873,24
826,WS_RECV_END,1516239327925,24
826,PLAYER_SLEEPBEFORE_START,1516239327925,25
826,PLAYER_SLEEPBEFORE_END,1516239327932,25
826,REQ_START,1516239327932,25
826,REQ_END,1516239328280,25
826,PLAYER_SLEEPBEFORE_START,1516239328280,26
826,PLAYER_SLEEPBEFORE_END,1516239328281,26
826,REQ_START,1516239328281,26
826,REQ_END,1516239328578,26
826,PLAYER_SLEEPBEFORE_START,1516239328578,27
826,PLAYER_SLEEPBEFORE_END,1516239328581,27
826,REQ_START,1516239328581,27
826,REQ_END,1516239328614,27
826,PLAYER_SLEEPBEFORE_START,1516239328614,28
826,PLAYER_SLEEPBEFORE_END,1516239328899,28
826,REQ_START,1516239328899,28
826,REQ_END,1516239329080,28
826,PLAYER_SLEEPBEFORE_START,1516239329080,29
826,PLAYER_SLEEPBEFORE_END,1516239329255,29
826,WS_SEND_START,1516239329255,29
826,WS_SEND_END,1516239329255,29
826,WS_RECV_START,1516239329255,30
826,WS_RECV_END,1516239329374,30
826,PLAYER_SLEEPBEFORE_START,1516239329374,31
826,PLAYER_SLEEPBEFORE_END,1516239329385,31
826,REQ_START,1516239329385,31
826,REQ_END,1516239329494,31
826,PLAYER_SLEEPBEFORE_START,1516239329494,32
826,PLAYER_SLEEPBEFORE_END,1516239357639,32
826,WS_SEND_START,1516239357639,32
826,WS_SEND_END,1516239357639,32
826,WS_RECV_START,1516239357639,33
826,WS_RECV_END,1516239357821,33
826,PLAYER_SLEEPBEFORE_START,1516239357821,34
826,PLAYER_SLEEPBEFORE_END,1516239383732,34
826,WS_SEND_START,1516239383732,34
826,WS_SEND_END,1516239383732,34
826,WS_RECV_START,1516239383732,35
826,WS_RECV_END,1516239383856,35
826,PLAYER_SLEEPBEFORE_START,1516239383856,36
826,PLAYER_SLEEPBEFORE_END,1516239383865,36
826,WS_SEND_START,1516239383865,36
826,WS_SEND_END,1516239383865,36
826,WS_RECV_START,1516239383865,37
826,WS_RECV_END,1516239383908,37
826,PLAYER_SLEEPBEFORE_START,1516239383908,38
826,PLAYER_SLEEPBEFORE_END,1516239387103,38
826,WS_SEND_START,1516239387103,38
826,WS_SEND_END,1516239387103,38
826,WS_RECV_START,1516239387103,39
826,WS_RECV_END,1516239387453,39
826,PLAYER_SLEEPBEFORE_START,1516239387453,40
826,PLAYER_SLEEPBEFORE_END,1516239387499,40
826,WS_SEND_START,1516239387499,40
826,WS_SEND_END,1516239387499,40
826,WS_RECV_START,1516239387499,41
826,WS_RECV_END,1516239388020,41
826,PLAYER_SLEEPBEFORE_START,1516239388021,42
826,PLAYER_SLEEPBEFORE_END,1516239406156,42
826,WS_SEND_START,1516239406156,42
826,WS_SEND_END,1516239406156,42
826,WS_RECV_START,1516239406156,43
826,WS_RECV_END,1516239406412,43
826,PLAYER_SLEEPBEFORE_START,1516239406412,44
826,PLAYER_SLEEPBEFORE_END,1516239406424,44
826,WS_SEND_START,1516239406424,44
826,WS_SEND_END,1516239406424,44
826,WS_RECV_START,1516239406424,45
826,WS_RECV_END,1516239406582,45
826,PLAYER_SLEEPBEFORE_START,1516239406582,46
826,PLAYER_SLEEPBEFORE_END,1516239407842,46
826,WS_SEND_START,1516239407842,46
826,WS_SEND_END,1516239407842,46
826,WS_RECV_START,1516239407842,47
826,WS_RECV_END,1516239407866,47
826,PLAYER_SLEEPBEFORE_START,1516239407866,48
826,PLAYER_SLEEPBEFORE_END,1516239409186,48
826,WS_SEND_START,1516239409186,48
826,WS_SEND_END,1516239409186,48
826,WS_RECV_START,1516239409186,49
826,WS_RECV_END,1516239409354,49
826,PLAYER_SLEEPBEFORE_START,1516239409354,50
826,PLAYER_SLEEPBEFORE_END,1516239409378,50
826,WS_SEND_START,1516239409378,50
826,WS_SEND_END,1516239409378,50
826,WS_RECV_START,1516239409378,51
826,WS_RECV_END,1516239409732,51
826,PLAYER_SLEEPBEFORE_START,1516239409732,52
826,PLAYER_SLEEPBEFORE_END,1516239432296,52
826,WS_SEND_START,1516239432296,52
826,WS_SEND_END,1516239432296,52
826,WS_RECV_START,1516239432296,53
826,WS_RECV_END,1516239432625,53
826,PLAYER_SLEEPBEFORE_START,1516239432625,54
826,PLAYER_SLEEPBEFORE_END,1516239453929,54
826,WS_SEND_START,1516239453929,54
826,WS_SEND_END,1516239453929,54
826,PLAYER_SLEEPBEFORE_START,1516239453929,55
826,PLAYER_SLEEPBEFORE_END,1516239455870,55
826,WS_SEND_START,1516239455870,55
826,WS_SEND_END,1516239455870,55
826,WS_RECV_START,1516239455870,56
826,WS_RECV_END,1516239455940,56
826,PLAYER_SLEEPBEFORE_START,1516239455940,57
826,PLAYER_SLEEPBEFORE_END,1516239478812,57
826,WS_SEND_START,1516239478812,57
826,WS_SEND_END,1516239478812,57
826,WS_RECV_START,1516239478812,58
826,WS_RECV_END,1516239478851,58
826,PLAYER_SLEEPBEFORE_START,1516239478851,59
826,PLAYER_SLEEPBEFORE_END,1516239481178,59
826,WS_SEND_START,1516239481178,59
826,WS_SEND_END,1516239481178,59
826,WS_RECV_START,1516239481178,60
826,WS_RECV_END,1516239481254,60
826,PLAYER_SLEEPBEFORE_START,1516239481254,61
826,PLAYER_SLEEPBEFORE_END,1516239484846,61
826,WS_SEND_START,1516239484846,61
826,WS_SEND_END,1516239484846,61
826,WS_RECV_START,1516239484846,62
826,WS_RECV_END,1516239484967,62
826,PLAYER_SLEEPBEFORE_START,1516239484967,63
826,PLAYER_SLEEPBEFORE_END,1516239504229,63
826,WS_SEND_START,1516239504229,63
826,WS_SEND_END,1516239504229,63
826,WS_RECV_START,1516239504229,64
826,WS_RECV_END,1516239504310,64
826,PLAYER_SLEEPBEFORE_START,1516239504310,65
826,PLAYER_SLEEPBEFORE_END,1516239531127,65
826,WS_SEND_START,1516239531127,65
826,WS_SEND_END,1516239531127,65
826,WS_RECV_START,1516239531127,66
826,WS_RECV_END,1516239531239,66
826,PLAYER_SLEEPBEFORE_START,1516239531239,67
826,PLAYER_SLEEPBEFORE_END,1516239532747,67
826,WS_SEND_START,1516239532747,67
826,WS_SEND_END,1516239532747,67
826,WS_RECV_START,1516239532747,68
826,WS_RECV_END,1516239532977,68
826,PLAYER_SLEEPBEFORE_START,1516239532977,69
826,PLAYER_SLEEPBEFORE_END,1516239554975,69
826,WS_SEND_START,1516239554975,69
826,WS_SEND_END,1516239554975,69
826,WS_RECV_START,1516239554975,70
826,WS_RECV_END,1516239555113,70
826,PLAYER_SLEEPBEFORE_START,1516239555113,71
826,PLAYER_SLEEPBEFORE_END,1516239579888,71
826,WS_SEND_START,1516239579888,71
826,WS_SEND_END,1516239579888,71
826,PLAYER_SLEEPBEFORE_START,1516239579888,72
826,PLAYER_SLEEPBEFORE_END,1516239582495,72
826,WS_SEND_START,1516239582495,72
826,WS_SEND_END,1516239582495,72
826,WS_RECV_START,1516239582495,73
826,WS_RECV_END,1516239582636,73
826,PLAYER_SLEEPBEFORE_START,1516239582636,74
826,PLAYER_SLEEPBEFORE_END,1516239582645,74
826,WS_SEND_START,1516239582645,74
826,WS_SEND_END,1516239582645,74
826,WS_RECV_START,1516239582645,75
826,WS_RECV_END,1516239582686,75
826,PLAYER_SLEEPBEFORE_START,1516239582686,76
826,PLAYER_SLEEPBEFORE_END,1516239584192,76
826,WS_SEND_START,1516239584192,76
826,WS_SEND_END,1516239584192,76
826,WS_RECV_START,1516239584192,77
826,WS_RECV_END,1516239584348,77
826,PLAYER_SLEEPBEFORE_START,1516239584348,78
826,PLAYER_SLEEPBEFORE_END,1516239585216,78
826,WS_SEND_START,1516239585216,78
826,WS_SEND_END,1516239585216,78
826,WS_RECV_START,1516239585216,79
826,WS_RECV_END,1516239585280,79
826,PLAYER_SLEEPBEFORE_START,1516239585280,80
826,PLAYER_SLEEPBEFORE_END,1516239592946,80
826,WS_SEND_START,1516239592946,80
826,WS_SEND_END,1516239592946,80
826,WS_RECV_START,1516239592946,81
826,WS_RECV_END,1516239593417,81
826,PLAYER_SLEEPBEFORE_START,1516239593417,82
826,PLAYER_SLEEPBEFORE_END,1516239594519,82
826,WS_SEND_START,1516239594519,82
826,WS_SEND_END,1516239594519,82
826,WS_RECV_START,1516239594519,83
826,WS_RECV_END,1516239594904,83
826,PLAYER_SLEEPBEFORE_START,1516239594904,84
826,PLAYER_SLEEPBEFORE_END,1516239595852,84
826,WS_SEND_START,1516239595852,84
826,WS_SEND_END,1516239595852,84
826,WS_RECV_START,1516239595852,85
826,WS_RECV_END,1516239596482,85
826,PLAYER_SLEEPBEFORE_START,1516239596482,86
826,PLAYER_SLEEPBEFORE_END,1516239600654,86
826,WS_SEND_START,1516239600654,86
826,WS_SEND_END,1516239600654,86
826,WS_RECV_START,1516239600654,87
826,WS_RECV_END,1516239601047,87
826,PLAYER_SLEEPBEFORE_START,1516239601047,88
826,PLAYER_SLEEPBEFORE_END,1516239601055,88
826,WS_SEND_START,1516239601055,88
826,WS_SEND_END,1516239601055,88
826,WS_RECV_START,1516239601055,89
826,WS_RECV_END,1516239601203,89
826,PLAYER_SLEEPBEFORE_START,1516239601203,90
826,PLAYER_SLEEPBEFORE_END,1516239628400,90
826,REQ_START,1516239628400,90
826,REQ_END,1516239628408,90
826,PLAYER_SLEEPBEFORE_START,1516239628408,91
826,PLAYER_SLEEPBEFORE_END,1516239636297,91
826,WS_SEND_START,1516239636297,91
826,WS_SEND_END,1516239636297,91
826,WS_RECV_START,1516239636297,92
826,WS_RECV_END,1516239636415,92
826,PLAYER_SLEEPBEFORE_START,1516239636415,93
826,PLAYER_SLEEPBEFORE_END,1516239636430,93
826,WS_SEND_START,1516239636430,93
826,WS_SEND_END,1516239636430,93
826,WS_RECV_START,1516239636430,94
826,WS_RECV_END,1516239636603,94
826,PLAYER_SLEEPBEFORE_START,1516239636603,95
826,PLAYER_SLEEPBEFORE_END,1516239660158,95
826,WS_SEND_START,1516239660158,95
826,WS_SEND_END,1516239660158,95
826,WS_RECV_START,1516239660158,96
826,WS_RECV_END,1516239660289,96
826,PLAYER_SLEEPBEFORE_START,1516239660289,97
826,PLAYER_SLEEPBEFORE_END,1516239682729,97
826,WS_SEND_START,1516239682729,97
826,WS_SEND_END,1516239682729,97
826,WS_RECV_START,1516239682729,98
826,WS_RECV_END,1516239684198,98
826,PLAYER_SLEEPBEFORE_START,1516239684198,99
826,PLAYER_SLEEPBEFORE_END,1516239684219,99
826,WS_SEND_START,1516239684219,99
826,WS_SEND_END,1516239684219,99
826,WS_RECV_START,1516239684219,100
826,WS_RECV_END,1516239685055,100
826,PLAYER_SLEEPBEFORE_START,1516239685055,101
826,PLAYER_SLEEPBEFORE_END,1516239708614,101
826,WS_SEND_START,1516239708614,101
826,WS_SEND_END,1516239708614,101
826,WS_RECV_START,1516239708614,102
826,WS_RECV_END,1516239709694,102
826,PLAYER_SLEEPBEFORE_START,1516239709694,103
826,PLAYER_SLEEPBEFORE_END,1516239733320,103
826,WS_SEND_START,1516239733320,103
826,WS_SEND_END,1516239733320,103
826,WS_RECV_START,1516239733320,104
826,WS_RECV_END,1516239734528,104
826,PLAYER_SLEEPBEFORE_START,1516239734528,105
826,PLAYER_SLEEPBEFORE_END,1516239759905,105
826,WS_SEND_START,1516239759905,105
826,WS_SEND_END,1516239759905,105
826,WS_RECV_START,1516239759905,106
826,WS_RECV_END,1516239760047,106
826,PLAYER_SLEEPBEFORE_START,1516239760047,107
826,PLAYER_SLEEPBEFORE_END,1516239783470,107
826,WS_SEND_START,1516239783470,107
826,WS_SEND_END,1516239783470,107
826,WS_RECV_START,1516239783470,108
826,WS_RECV_END,1516239783885,108
826,PLAYER_SLEEPBEFORE_START,1516239783885,109
826,PLAYER_SLEEPBEFORE_END,1516239783894,109
826,WS_SEND_START,1516239783894,109
826,WS_SEND_END,1516239783894,109
826,WS_RECV_START,1516239783894,110
826,WS_RECV_END,1516239784290,110
826,PLAYER_SLEEPBEFORE_START,1516239784290,111
826,PLAYER_SLEEPBEFORE_END,1516239785249,111
826,WS_SEND_START,1516239785249,111
826,WS_SEND_END,1516239785249,111
826,WS_RECV_START,1516239785249,112
826,WS_RECV_END,1516239785308,112
826,PLAYER_SLEEPBEFORE_START,1516239785308,113
826,PLAYER_SLEEPBEFORE_END,1516239785870,113
826,WS_SEND_START,1516239785870,113
826,WS_SEND_END,1516239785870,113
826,WS_RECV_START,1516239785870,114
826,WS_RECV_END,1516239786048,114
826,PLAYER_SLEEPBEFORE_START,1516239786048,115
826,PLAYER_SLEEPBEFORE_END,1516239786057,115
826,WS_SEND_START,1516239786057,115
826,WS_SEND_END,1516239786057,115
826,WS_RECV_START,1516239786057,116
826,WS_RECV_END,1516239786405,116
826,PLAYER_SLEEPBEFORE_START,1516239786405,117
826,PLAYER_SLEEPBEFORE_END,1516239806765,117
826,WS_SEND_START,1516239806765,117
826,WS_SEND_END,1516239806765,117
826,PLAYER_SLEEPBEFORE_START,1516239806765,118
826,PLAYER_SLEEPBEFORE_END,1516239810518,118
826,WS_SEND_START,1516239810518,118
826,WS_SEND_END,1516239810518,118
826,WS_RECV_START,1516239810518,119
826,WS_RECV_END,1516239810680,119
826,PLAYER_SLEEPBEFORE_START,1516239810680,120
826,PLAYER_SLEEPBEFORE_END,1516239811668,120
826,WS_SEND_START,1516239811668,120
826,WS_SEND_END,1516239811668,120
826,WS_RECV_START,1516239811668,121
826,WS_RECV_END,1516239811807,121
826,PLAYER_SLEEPBEFORE_START,1516239811807,122
826,PLAYER_SLEEPBEFORE_END,1516239812992,122
826,WS_SEND_START,1516239812992,122
826,WS_SEND_END,1516239812992,122
826,WS_RECV_START,1516239812992,123
826,WS_RECV_END,1516239813193,123
826,PLAYER_SLEEPBEFORE_START,1516239813193,124
826,PLAYER_SLEEPBEFORE_END,1516239837598,124
826,WS_SEND_START,1516239837598,124
826,WS_SEND_END,1516239837598,124
826,WS_RECV_START,1516239837598,125
826,WS_RECV_END,1516239838576,125
826,PLAYER_SLEEPBEFORE_START,1516239838576,126
826,PLAYER_SLEEPBEFORE_END,1516239859088,126
826,WS_SEND_START,1516239859088,126
826,WS_SEND_END,1516239859088,126
826,PLAYER_SLEEPBEFORE_START,1516239859088,127
826,PLAYER_SLEEPBEFORE_END,1516239862146,127
826,WS_SEND_START,1516239862146,127
826,WS_SEND_END,1516239862146,127
826,WS_RECV_START,1516239862146,128
826,WS_RECV_END,1516239862293,128
826,PLAYER_SLEEPBEFORE_START,1516239862293,129
826,PLAYER_SLEEPBEFORE_END,1516239862313,129
826,WS_SEND_START,1516239862313,129
826,WS_SEND_END,1516239862313,129
826,WS_RECV_START,1516239862313,130
826,WS_RECV_END,1516239862974,130
826,PLAYER_SLEEPBEFORE_START,1516239862974,131
826,PLAYER_SLEEPBEFORE_END,1516239884598,131
826,WS_SEND_START,1516239884598,131
826,WS_SEND_END,1516239884598,131
826,PLAYER_SLEEPBEFORE_START,1516239884598,132
826,PLAYER_SLEEPBEFORE_END,1516239887678,132
826,WS_SEND_START,1516239887678,132
826,WS_SEND_END,1516239887678,132
826,WS_RECV_START,1516239887678,133
826,WS_RECV_END,1516239887835,133
826,PLAYER_SLEEPBEFORE_START,1516239887835,134
826,PLAYER_SLEEPBEFORE_END,1516239909053,134
826,WS_SEND_START,1516239909053,134
826,WS_SEND_END,1516239909053,134
826,PLAYER_SLEEPBEFORE_START,1516239909053,135
826,PLAYER_SLEEPBEFORE_END,1516239912243,135
826,WS_SEND_START,1516239912243,135
826,WS_SEND_END,1516239912243,135
826,WS_RECV_START,1516239912243,136
826,WS_RECV_END,1516239912271,136
826,PLAYER_SLEEPBEFORE_START,1516239912271,137
826,PLAYER_SLEEPBEFORE_END,1516239912278,137
826,WS_SEND_START,1516239912278,137
826,WS_SEND_END,1516239912278,137
826,WS_RECV_START,1516239912278,138
826,WS_RECV_END,1516239912322,138
826,PLAYER_SLEEPBEFORE_START,1516239912322,139
826,PLAYER_SLEEPBEFORE_END,1516239913012,139
826,WS_SEND_START,1516239913012,139
826,WS_SEND_END,1516239913012,139
826,WS_RECV_START,1516239913012,140
826,WS_RECV_END,1516239913053,140
826,PLAYER_SLEEPBEFORE_START,1516239913053,141
826,PLAYER_SLEEPBEFORE_END,1516239913708,141
826,WS_SEND_START,1516239913708,141
826,WS_SEND_END,1516239913708,141
826,WS_RECV_START,1516239913708,142
826,WS_RECV_END,1516239914265,142
826,PLAYER_SLEEPBEFORE_START,1516239914265,143
826,PLAYER_SLEEPBEFORE_END,1516239914322,143
826,WS_SEND_START,1516239914322,143
826,WS_SEND_END,1516239914322,143
826,WS_RECV_START,1516239914322,144
826,WS_RECV_END,1516239914674,144
826,PLAYER_SLEEPBEFORE_START,1516239914674,145
826,PLAYER_SLEEPBEFORE_END,1516239930737,145
826,REQ_START,1516239930737,145
826,REQ_END,1516239930745,145
826,PLAYER_SLEEPBEFORE_START,1516239930745,146
826,PLAYER_SLEEPBEFORE_END,1516239939622,146
826,WS_SEND_START,1516239939622,146
826,WS_SEND_END,1516239939622,146
826,WS_RECV_START,1516239939622,147
826,WS_RECV_END,1516239940351,147
826,PLAYER_SLEEPBEFORE_START,1516239940351,148
826,PLAYER_SLEEPBEFORE_END,1516239962273,148
826,WS_SEND_START,1516239962273,148
826,WS_SEND_END,1516239962273,148
826,PLAYER_SLEEPBEFORE_START,1516239962273,149
826,PLAYER_SLEEPBEFORE_END,1516239964701,149
826,WS_SEND_START,1516239964701,149
826,WS_SEND_END,1516239964701,149
826,WS_RECV_START,1516239964701,150
826,WS_RECV_END,1516239966456,150
826,PLAYER_SLEEPBEFORE_START,1516239966456,151
826,PLAYER_SLEEPBEFORE_END,1516239966666,151
826,WS_SEND_START,1516239966666,151
826,WS_SEND_END,1516239966666,151
826,WS_RECV_START,1516239966666,152
826,WS_RECV_END,1516239968903,152
826,PLAYER_SLEEPBEFORE_START,1516239968903,153
826,PLAYER_SLEEPBEFORE_END,1516239992830,153
826,WS_SEND_START,1516239992830,153
826,WS_SEND_END,1516239992830,153
826,WS_RECV_START,1516239992830,154
826,WS_RECV_END,1516239995226,154
826,PLAYER_SLEEPBEFORE_START,1516239995226,155
826,PLAYER_SLEEPBEFORE_END,1516240017784,155
826,WS_SEND_START,1516240017784,155
826,WS_SEND_END,1516240017784,155
826,PLAYER_SLEEPBEFORE_START,1516240017784,156
826,PLAYER_SLEEPBEFORE_END,1516240021059,156
826,WS_SEND_START,1516240021059,156
826,WS_SEND_END,1516240021059,156
826,WS_RECV_START,1516240021059,157
826,WS_RECV_END,1516240023957,157
826,PLAYER_SLEEPBEFORE_START,1516240023957,158
826,PLAYER_SLEEPBEFORE_END,1516240023967,158
826,WS_SEND_START,1516240023967,158
826,WS_SEND_END,1516240023967,158
826,WS_RECV_START,1516240023967,159
826,WS_RECV_END,1516240026372,159
826,PLAYER_SLEEPBEFORE_START,1516240026372,160
826,PLAYER_SLEEPBEFORE_END,1516240026547,160
826,WS_SEND_START,1516240026547,160
826,WS_SEND_END,1516240026548,160
826,WS_RECV_START,1516240026548,161
826,WS_RECV_END,1516240028164,161
826,PLAYER_SLEEPBEFORE_START,1516240028164,162
826,PLAYER_SLEEPBEFORE_END,1516240028189,162
826,WS_SEND_START,1516240028189,162
826,WS_SEND_END,1516240028189,162
826,WS_RECV_START,1516240028189,163
826,WS_RECV_END,1516240029794,163
826,PLAYER_SLEEPBEFORE_START,1516240029794,164
826,PLAYER_SLEEPBEFORE_END,1516240050606,164
826,WS_SEND_START,1516240050606,164
826,WS_SEND_END,1516240050606,164
826,WS_RECV_START,1516240050606,165
826,WS_RECV_END,1516240052086,165
826,PLAYER_SLEEPBEFORE_START,1516240052086,166
826,PLAYER_SLEEPBEFORE_END,1516240074541,166
826,WS_SEND_START,1516240074541,166
826,WS_SEND_END,1516240074541,166
826,WS_RECV_START,1516240074541,167
826,WS_RECV_END,1516240074864,167
826,PLAYER_SLEEPBEFORE_START,1516240074864,168
826,PLAYER_SLEEPBEFORE_END,1516240102221,168
826,WS_SEND_START,1516240102222,168
826,WS_SEND_END,1516240102222,168
826,WS_RECV_START,1516240102222,169
826,WS_RECV_END,1516240102547,169
826,PLAYER_SLEEPBEFORE_START,1516240102547,170
826,PLAYER_SLEEPBEFORE_END,1516240102556,170
826,WS_SEND_START,1516240102556,170
826,WS_SEND_END,1516240102556,170
826,WS_RECV_START,1516240102556,171
826,WS_RECV_END,1516240102622,171
826,PLAYER_SLEEPBEFORE_START,1516240102622,172
826,PLAYER_SLEEPBEFORE_END,1516240102991,172
826,WS_SEND_START,1516240102991,172
826,WS_SEND_END,1516240102991,172
826,WS_RECV_START,1516240102991,173
826,WS_RECV_END,1516240103146,173
826,PLAYER_SLEEPBEFORE_START,1516240103146,174
826,PLAYER_SLEEPBEFORE_END,1516240103187,174
826,WS_SEND_START,1516240103187,174
826,WS_SEND_END,1516240103187,174
826,WS_RECV_START,1516240103187,175
826,WS_RECV_END,1516240104073,175
826,PLAYER_SLEEPBEFORE_START,1516240104073,176
826,PLAYER_SLEEPBEFORE_END,1516240125834,176
826,WS_SEND_START,1516240125834,176
826,WS_SEND_END,1516240125834,176
826,PLAYER_SLEEPBEFORE_START,1516240125834,177
826,PLAYER_SLEEPBEFORE_END,1516240128353,177
826,WS_SEND_START,1516240128353,177
826,WS_SEND_END,1516240128353,177
826,WS_RECV_START,1516240128353,178
826,WS_RECV_END,1516240128518,178
826,PLAYER_SLEEPBEFORE_START,1516240128519,179
826,PLAYER_SLEEPBEFORE_END,1516240150859,179
826,WS_SEND_START,1516240150859,179
826,WS_SEND_END,1516240150859,179
826,WS_RECV_START,1516240150859,180
826,WS_RECV_END,1516240150990,180
826,PLAYER_SLEEPBEFORE_START,1516240150990,181
826,PLAYER_SLEEPBEFORE_END,1516240151435,181
826,WS_SEND_START,1516240151435,181
826,WS_SEND_END,1516240151435,181
826,WS_RECV_START,1516240151435,182
826,WS_RECV_END,1516240151578,182
826,PLAYER_SLEEPBEFORE_START,1516240151578,183
826,PLAYER_SLEEPBEFORE_END,1516240152102,183
826,WS_SEND_START,1516240152102,183
826,WS_SEND_END,1516240152102,183
826,WS_RECV_START,1516240152102,184
826,WS_RECV_END,1516240152240,184
826,PLAYER_SLEEPBEFORE_START,1516240152240,185
826,PLAYER_SLEEPBEFORE_END,1516240152508,185
826,WS_SEND_START,1516240152508,185
826,WS_SEND_END,1516240152508,185
826,WS_RECV_START,1516240152508,186
826,WS_RECV_END,1516240152741,186
826,PLAYER_SLEEPBEFORE_START,1516240152741,187
826,PLAYER_SLEEPBEFORE_END,1516240175242,187
826,WS_SEND_START,1516240175242,187
826,WS_SEND_END,1516240175242,187
826,WS_RECV_START,1516240175242,188
826,WS_RECV_END,1516240175293,188
826,PLAYER_SLEEPBEFORE_START,1516240175293,189
826,PLAYER_SLEEPBEFORE_END,1516240181532,189
826,WS_SEND_START,1516240181532,189
826,WS_SEND_END,1516240181532,189
826,WS_RECV_START,1516240181532,190
826,WS_RECV_END,1516240181686,190
826,PLAYER_SLEEPBEFORE_START,1516240181686,191
826,PLAYER_SLEEPBEFORE_END,1516240183601,191
826,WS_SEND_START,1516240183601,191
826,WS_SEND_END,1516240183601,191
826,WS_RECV_START,1516240183601,192
826,WS_RECV_END,1516240183725,192
826,PLAYER_SLEEPBEFORE_START,1516240183725,193
826,PLAYER_SLEEPBEFORE_END,1516240183853,193
826,WS_SEND_START,1516240183853,193
826,WS_SEND_END,1516240183853,193
826,WS_RECV_START,1516240183853,194
826,WS_RECV_END,1516240183985,194
826,PLAYER_SLEEPBEFORE_START,1516240183985,195
826,PLAYER_SLEEPBEFORE_END,1516240185740,195
826,WS_SEND_START,1516240185740,195
826,WS_SEND_END,1516240185740,195
826,WS_RECV_START,1516240185740,196
826,WS_RECV_END,1516240185842,196
826,PLAYER_SLEEPBEFORE_START,1516240185842,197
826,PLAYER_SLEEPBEFORE_END,1516240187647,197
826,WS_SEND_START,1516240187647,197
826,WS_SEND_END,1516240187647,197
826,WS_RECV_START,1516240187647,198
826,WS_RECV_END,1516240187807,198
826,PLAYER_SLEEPBEFORE_START,1516240187807,199
826,PLAYER_SLEEPBEFORE_END,1516240199661,199
826,WS_SEND_START,1516240199661,199
826,WS_SEND_END,1516240199661,199
826,PLAYER_SLEEPBEFORE_START,1516240199661,200
826,PLAYER_SLEEPBEFORE_END,1516240203749,200
826,WS_SEND_START,1516240203749,200
826,WS_SEND_END,1516240203749,200
826,WS_RECV_START,1516240203749,201
826,WS_RECV_END,1516240203841,201
826,PLAYER_SLEEPBEFORE_START,1516240203841,202
826,PLAYER_SLEEPBEFORE_END,1516240203855,202
826,WS_SEND_START,1516240203855,202
826,WS_SEND_END,1516240203855,202
826,WS_RECV_START,1516240203855,203
826,WS_RECV_END,1516240204003,203
826,PLAYER_SLEEPBEFORE_START,1516240204003,204
826,PLAYER_SLEEPBEFORE_END,1516240223653,204
826,WS_SEND_START,1516240223653,204
826,WS_SEND_END,1516240223653,204
826,PLAYER_SLEEPBEFORE_START,1516240223653,205
826,PLAYER_SLEEPBEFORE_END,1516240227551,205
826,WS_SEND_START,1516240227551,205
826,WS_SEND_END,1516240227551,205
826,WS_RECV_START,1516240227551,206
826,WS_RECV_END,1516240227696,206
826,PLAYER_SLEEPBEFORE_START,1516240227696,207
826,PLAYER_SLEEPBEFORE_END,1516240244627,207
826,REQ_START,1516240244627,207
826,REQ_END,1516240244635,207
826,PLAYER_SLEEPBEFORE_START,1516240244635,208
826,PLAYER_SLEEPBEFORE_END,1516240251487,208
826,WS_CLOSE_START,1516240251487,208
826,WS_CLOSE_END,1516240251487,208
826,PLAYER_DONE,1516240251487
