# --sessions 50 --app-url=http://shinyloadtest.rstudioservices.com/ --output-dir test50 --overwrite-output --log-level warn --start-interval 1500 30min.log
thread_id,event,timestamp,input_line_number,comment
37,PLAYER_SESSION_CREATE,1516050942842
37,PLAYER_START_INTERVAL_START,1516050942842
37,PLAYER_START_INTERVAL_END,1516050998342
37,REQ_HOME_START,1516050998342,2
37,REQ_HOME_END,1516050998444,2
37,REQ_START,1516050998444,3
37,REQ_END,1516050998847,3
37,REQ_START,1516050998847,4
37,REQ_END,1516050998894,4
37,REQ_START,1516050998894,5
37,REQ_END,1516050998929,5
37,REQ_START,1516050998929,6
37,REQ_END,1516050998970,6
37,REQ_START,1516050998970,7
37,REQ_END,1516050999008,7
37,REQ_START,1516050999008,8
37,REQ_END,1516050999040,8
37,REQ_START,1516050999040,9
37,REQ_END,1516050999077,9
37,REQ_START,1516050999077,10
37,REQ_END,1516050999085,10
37,REQ_START,1516050999085,11
37,REQ_END,1516050999116,11
37,REQ_START,1516050999116,12
37,REQ_END,1516050999146,12
37,REQ_START,1516050999146,13
37,REQ_END,1516050999157,13
37,REQ_START,1516050999157,14
37,REQ_END,1516050999172,14
37,REQ_START,1516050999172,15
37,REQ_END,1516050999206,15
37,REQ_TOK_START,1516050999206,16
37,REQ_TOK_END,1516050999214,16
37,REQ_SINF_START,1516050999214,17
37,REQ_SINF_END,1516050999222,17
37,WS_OPEN_START,1516050999222,18
37,WS_OPEN_END,1516050999229,18
37,WS_RECV_START,1516050999229,19
37,WS_RECV_END,1516050999229,19
37,PLAYER_SLEEPBEFORE_START,1516050999229,20
37,PLAYER_SLEEPBEFORE_END,1516050999236,20
37,WS_SEND_START,1516050999236,20
37,WS_SEND_END,1516050999236,20
37,PLAYER_SLEEPBEFORE_START,1516050999236,21
37,PLAYER_SLEEPBEFORE_END,1516050999237,21
37,WS_SEND_START,1516050999237,21
37,WS_SEND_END,1516050999237,21
37,WS_RECV_INIT_START,1516050999237,22
37,WS_RECV_INIT_END,1516050999259,22
37,WS_RECV_START,1516050999259,23
37,WS_RECV_END,1516050999350,23
37,PLAYER_SLEEPBEFORE_START,1516050999350,24
37,PLAYER_SLEEPBEFORE_END,1516050999357,24
37,REQ_START,1516050999358,24
37,REQ_END,1516050999390,24
37,PLAYER_SLEEPBEFORE_START,1516050999390,25
37,PLAYER_SLEEPBEFORE_END,1516050999392,25
37,REQ_START,1516050999392,25
37,REQ_END,1516050999424,25
37,PLAYER_SLEEPBEFORE_START,1516050999424,26
37,PLAYER_SLEEPBEFORE_END,1516050999427,26
37,REQ_START,1516050999427,26
37,REQ_END,1516050999460,26
37,PLAYER_SLEEPBEFORE_START,1516050999460,27
37,PLAYER_SLEEPBEFORE_END,1516050999716,27
37,REQ_START,1516050999716,27
37,REQ_END,1516050999750,27
37,PLAYER_SLEEPBEFORE_START,1516050999750,28
37,PLAYER_SLEEPBEFORE_END,1516050999948,28
37,WS_SEND_START,1516050999948,28
37,WS_SEND_END,1516050999949,28
37,WS_RECV_START,1516050999949,29
37,WS_RECV_END,1516051000344,29
37,PLAYER_SLEEPBEFORE_START,1516051000344,30
37,PLAYER_SLEEPBEFORE_END,1516051000355,30
37,REQ_START,1516051000355,30
37,REQ_END,1516051000398,30
37,PLAYER_SLEEPBEFORE_START,1516051000398,31
37,PLAYER_SLEEPBEFORE_END,1516051030518,31
37,WS_SEND_START,1516051030518,31
37,WS_SEND_END,1516051030518,31
37,WS_RECV_START,1516051030518,32
37,WS_RECV_END,1516051030709,32
37,PLAYER_SLEEPBEFORE_START,1516051030709,33
37,PLAYER_SLEEPBEFORE_END,1516051055475,33
37,WS_SEND_START,1516051055475,33
37,WS_SEND_END,1516051055475,33
37,WS_RECV_START,1516051055475,34
37,WS_RECV_END,1516051058139,34
37,PLAYER_SLEEPBEFORE_START,1516051058139,35
37,PLAYER_SLEEPBEFORE_END,1516051082953,35
37,WS_SEND_START,1516051082953,35
37,WS_SEND_END,1516051082953,35
37,WS_RECV_START,1516051082953,36
37,WS_RECV_END,1516051084414,36
37,PLAYER_SLEEPBEFORE_START,1516051084414,37
37,PLAYER_SLEEPBEFORE_END,1516051084423,37
37,WS_SEND_START,1516051084423,37
37,WS_SEND_END,1516051084424,37
37,WS_RECV_START,1516051084424,38
37,WS_RECV_END,1516051087407,38
37,PLAYER_SLEEPBEFORE_START,1516051087407,39
37,PLAYER_SLEEPBEFORE_END,1516051090104,39
37,WS_SEND_START,1516051090104,39
37,WS_SEND_END,1516051090104,39
37,WS_RECV_START,1516051090104,40
37,WS_RECV_END,1516051095024,40
37,PLAYER_SLEEPBEFORE_START,1516051095024,41
37,PLAYER_SLEEPBEFORE_END,1516051096143,41
37,WS_SEND_START,1516051096143,41
37,WS_SEND_END,1516051096143,41
37,WS_RECV_START,1516051096143,42
37,WS_RECV_END,1516051100348,42
37,PLAYER_SLEEPBEFORE_START,1516051100348,43
37,PLAYER_SLEEPBEFORE_END,1516051100376,43
37,WS_SEND_START,1516051100376,43
37,WS_SEND_END,1516051100376,43
37,WS_RECV_START,1516051100377,44
37,WS_RECV_END,1516051104064,44
37,PLAYER_SLEEPBEFORE_START,1516051104064,45
37,PLAYER_SLEEPBEFORE_END,1516051125553,45
37,WS_SEND_START,1516051125554,45
37,WS_SEND_END,1516051125554,45
37,WS_RECV_START,1516051125554,46
37,WS_RECV_END,1516051125683,46
37,PLAYER_SLEEPBEFORE_START,1516051125683,47
37,PLAYER_SLEEPBEFORE_END,1516051154168,47
37,WS_SEND_START,1516051154168,47
37,WS_SEND_END,1516051154168,47
37,WS_RECV_START,1516051154168,48
37,WS_RECV_END,1516051154295,48
37,PLAYER_SLEEPBEFORE_START,1516051154295,49
37,PLAYER_SLEEPBEFORE_END,1516051180704,49
37,WS_SEND_START,1516051180704,49
37,WS_SEND_END,1516051180704,49
37,WS_RECV_START,1516051180704,50
37,WS_RECV_END,1516051180835,50
37,PLAYER_SLEEPBEFORE_START,1516051180835,51
37,PLAYER_SLEEPBEFORE_END,1516051203386,51
37,WS_SEND_START,1516051203386,51
37,WS_SEND_END,1516051203386,51
37,WS_RECV_START,1516051203386,52
37,WS_RECV_END,1516051203520,52
37,PLAYER_SLEEPBEFORE_START,1516051203520,53
37,PLAYER_SLEEPBEFORE_END,1516051228424,53
37,WS_SEND_START,1516051228424,53
37,WS_SEND_END,1516051228424,53
37,WS_RECV_START,1516051228424,54
37,WS_RECV_END,1516051228549,54
37,PLAYER_SLEEPBEFORE_START,1516051228549,55
37,PLAYER_SLEEPBEFORE_END,1516051253950,55
37,WS_SEND_START,1516051253950,55
37,WS_SEND_END,1516051253951,55
37,WS_RECV_START,1516051253951,56
37,WS_RECV_END,1516051256868,56
37,PLAYER_SLEEPBEFORE_START,1516051256868,57
37,PLAYER_SLEEPBEFORE_END,1516051282207,57
37,WS_SEND_START,1516051282207,57
37,WS_SEND_END,1516051282207,57
37,WS_RECV_START,1516051282207,58
37,WS_RECV_END,1516051285706,58
37,PLAYER_SLEEPBEFORE_START,1516051285706,59
37,PLAYER_SLEEPBEFORE_END,1516051312564,59
37,WS_SEND_START,1516051312564,59
37,WS_SEND_END,1516051312564,59
37,WS_RECV_START,1516051312564,60
37,WS_RECV_END,1516051313751,60
37,PLAYER_SLEEPBEFORE_START,1516051313751,61
37,PLAYER_SLEEPBEFORE_END,1516051313774,61
37,WS_SEND_START,1516051313774,61
37,WS_SEND_END,1516051313774,61
37,WS_RECV_START,1516051313774,62
37,WS_RECV_END,1516051319743,62
37,PLAYER_SLEEPBEFORE_START,1516051319743,63
37,PLAYER_SLEEPBEFORE_END,1516051328747,63
37,REQ_START,1516051328747,63
37,REQ_END,1516051328755,63
37,PLAYER_SLEEPBEFORE_START,1516051328755,64
37,PLAYER_SLEEPBEFORE_END,1516051342961,64
37,WS_SEND_START,1516051342961,64
37,WS_SEND_END,1516051342961,64
37,WS_RECV_START,1516051342961,65
37,WS_RECV_END,1516051345767,65
37,PLAYER_SLEEPBEFORE_START,1516051345767,66
37,PLAYER_SLEEPBEFORE_END,1516051369754,66
37,WS_SEND_START,1516051369754,66
37,WS_SEND_END,1516051369754,66
37,WS_RECV_START,1516051369754,67
37,WS_RECV_END,1516051375891,67
37,PLAYER_SLEEPBEFORE_START,1516051375891,68
37,PLAYER_SLEEPBEFORE_END,1516051401465,68
37,WS_SEND_START,1516051401465,68
37,WS_SEND_END,1516051401465,68
37,WS_RECV_START,1516051401465,69
37,WS_RECV_END,1516051409235,69
37,PLAYER_SLEEPBEFORE_START,1516051409235,70
37,PLAYER_SLEEPBEFORE_END,1516051409244,70
37,WS_SEND_START,1516051409244,70
37,WS_SEND_END,1516051409244,70
37,WS_RECV_START,1516051409244,71
37,WS_RECV_END,1516051410943,71
37,PLAYER_SLEEPBEFORE_START,1516051410943,72
37,PLAYER_SLEEPBEFORE_END,1516051411148,72
37,WS_SEND_START,1516051411148,72
37,WS_SEND_END,1516051411148,72
37,WS_RECV_START,1516051411148,73
37,WS_RECV_END,1516051420563,73
37,PLAYER_SLEEPBEFORE_START,1516051420563,74
37,PLAYER_SLEEPBEFORE_END,1516051421985,74
37,WS_SEND_START,1516051421985,74
37,WS_SEND_END,1516051421985,74
37,WS_RECV_START,1516051421985,75
37,WS_RECV_END,1516051429573,75
37,PLAYER_SLEEPBEFORE_START,1516051429573,76
37,PLAYER_SLEEPBEFORE_END,1516051430068,76
37,WS_SEND_START,1516051430068,76
37,WS_SEND_END,1516051430068,76
37,WS_RECV_START,1516051430068,77
37,WS_RECV_END,1516051438499,77
37,PLAYER_SLEEPBEFORE_START,1516051438499,78
37,PLAYER_SLEEPBEFORE_END,1516051438517,78
37,WS_SEND_START,1516051438517,78
37,WS_SEND_END,1516051438517,78
37,WS_RECV_START,1516051438517,79
37,WS_RECV_END,1516051443593,79
37,PLAYER_SLEEPBEFORE_START,1516051443593,80
37,PLAYER_SLEEPBEFORE_END,1516051464327,80
37,WS_SEND_START,1516051464327,80
37,WS_SEND_END,1516051464327,80
37,WS_RECV_START,1516051464327,81
37,WS_RECV_END,1516051467341,81
37,PLAYER_SLEEPBEFORE_START,1516051467341,82
37,PLAYER_SLEEPBEFORE_END,1516051467352,82
37,WS_SEND_START,1516051467352,82
37,WS_SEND_END,1516051467352,82
37,WS_RECV_START,1516051467352,83
37,WS_RECV_END,1516051467643,83
37,PLAYER_SLEEPBEFORE_START,1516051467643,84
37,PLAYER_SLEEPBEFORE_END,1516051468506,84
37,WS_SEND_START,1516051468506,84
37,WS_SEND_END,1516051468506,84
37,WS_RECV_START,1516051468506,85
37,WS_RECV_END,1516051472074,85
37,PLAYER_SLEEPBEFORE_START,1516051472074,86
37,PLAYER_SLEEPBEFORE_END,1516051472801,86
37,WS_SEND_START,1516051472801,86
37,WS_SEND_END,1516051472801,86
37,WS_RECV_START,1516051472801,87
37,WS_RECV_END,1516051482319,87
37,PLAYER_SLEEPBEFORE_START,1516051482319,88
37,PLAYER_SLEEPBEFORE_END,1516051482341,88
37,WS_SEND_START,1516051482341,88
37,WS_SEND_END,1516051482341,88
37,WS_RECV_START,1516051482341,89
37,WS_RECV_END,1516051484545,89
37,PLAYER_SLEEPBEFORE_START,1516051484545,90
37,PLAYER_SLEEPBEFORE_END,1516051505974,90
37,WS_SEND_START,1516051505974,90
37,WS_SEND_END,1516051505974,90
37,PLAYER_SLEEPBEFORE_START,1516051505974,91
37,PLAYER_SLEEPBEFORE_END,1516051532829,91
37,WS_SEND_START,1516051532829,91
37,WS_SEND_END,1516051532829,91
37,WS_RECV_START,1516051532829,92
37,WS_RECV_END,1516051537938,92
37,PLAYER_SLEEPBEFORE_START,1516051537938,93
37,PLAYER_SLEEPBEFORE_END,1516051540212,93
37,WS_SEND_START,1516051540212,93
37,WS_SEND_END,1516051540212,93
37,WS_RECV_START,1516051540212,94
37,WS_RECV_END,1516051543679,94
37,PLAYER_SLEEPBEFORE_START,1516051543679,95
37,PLAYER_SLEEPBEFORE_END,1516051569675,95
37,WS_SEND_START,1516051569675,95
37,WS_SEND_END,1516051569676,95
37,WS_RECV_START,1516051569676,96
37,WS_RECV_END,1516051576691,96
37,PLAYER_SLEEPBEFORE_START,1516051576691,97
37,PLAYER_SLEEPBEFORE_END,1516051581780,97
37,WS_SEND_START,1516051581780,97
37,WS_SEND_END,1516051581780,97
37,WS_RECV_START,1516051581780,98
37,WS_RECV_END,1516051588266,98
37,PLAYER_SLEEPBEFORE_START,1516051588266,99
37,PLAYER_SLEEPBEFORE_END,1516051589966,99
37,WS_SEND_START,1516051589966,99
37,WS_SEND_END,1516051589966,99
37,WS_RECV_START,1516051589966,100
37,WS_RECV_END,1516051603509,100
37,PLAYER_SLEEPBEFORE_START,1516051603509,101
37,PLAYER_SLEEPBEFORE_END,1516051605348,101
37,WS_SEND_START,1516051605348,101
37,WS_SEND_END,1516051605348,101
37,WS_RECV_START,1516051605348,102
37,WS_RECV_END,1516051610947,102
37,PLAYER_SLEEPBEFORE_START,1516051610947,103
37,PLAYER_SLEEPBEFORE_END,1516051623997,103
37,WS_SEND_START,1516051623997,103
37,WS_SEND_END,1516051623997,103
37,PLAYER_SLEEPBEFORE_START,1516051623997,104
37,PLAYER_SLEEPBEFORE_END,1516051628423,104
37,WS_SEND_START,1516051628423,104
37,WS_SEND_END,1516051628423,104
37,WS_RECV_START,1516051628423,105
37,WS_RECV_END,1516051630096,105
37,PLAYER_SLEEPBEFORE_START,1516051630096,106
37,PLAYER_SLEEPBEFORE_END,1516051630105,106
37,WS_SEND_START,1516051630105,106
37,WS_SEND_END,1516051630105,106
37,WS_RECV_START,1516051630105,107
37,WS_RECV_END,1516051631799,107
37,PLAYER_SLEEPBEFORE_START,1516051631799,108
37,PLAYER_SLEEPBEFORE_END,1516051632263,108
37,WS_SEND_START,1516051632263,108
37,WS_SEND_END,1516051632263,108
37,WS_RECV_START,1516051632263,109
37,WS_RECV_END,1516051633482,109
37,PLAYER_SLEEPBEFORE_START,1516051633482,110
37,PLAYER_SLEEPBEFORE_END,1516051633497,110
37,WS_SEND_START,1516051633497,110
37,WS_SEND_END,1516051633497,110
37,WS_RECV_START,1516051633497,111
37,WS_RECV_END,1516051635863,111
37,PLAYER_SLEEPBEFORE_START,1516051635863,112
37,PLAYER_SLEEPBEFORE_END,1516051656627,112
37,WS_SEND_START,1516051656627,112
37,WS_SEND_END,1516051656627,112
37,PLAYER_SLEEPBEFORE_START,1516051656627,113
37,PLAYER_SLEEPBEFORE_END,1516051659021,113
37,WS_SEND_START,1516051659021,113
37,WS_SEND_END,1516051659021,113
37,WS_RECV_START,1516051659021,114
37,WS_RECV_END,1516051660048,114
37,PLAYER_SLEEPBEFORE_START,1516051660048,115
37,PLAYER_SLEEPBEFORE_END,1516051660830,115
37,WS_SEND_START,1516051660831,115
37,WS_SEND_END,1516051660831,115
37,WS_RECV_START,1516051660831,116
37,WS_RECV_END,1516051667829,116
37,PLAYER_SLEEPBEFORE_START,1516051667830,117
37,PLAYER_SLEEPBEFORE_END,1516051690215,117
37,WS_SEND_START,1516051690215,117
37,WS_SEND_END,1516051690215,117
37,WS_RECV_START,1516051690215,118
37,WS_RECV_END,1516051693930,118
37,PLAYER_SLEEPBEFORE_START,1516051693930,119
37,PLAYER_SLEEPBEFORE_END,1516051695834,119
37,WS_SEND_START,1516051695834,119
37,WS_SEND_END,1516051695834,119
37,WS_RECV_START,1516051695834,120
37,WS_RECV_END,1516051696618,120
37,PLAYER_SLEEPBEFORE_START,1516051696618,121
37,PLAYER_SLEEPBEFORE_END,1516051697770,121
37,WS_SEND_START,1516051697770,121
37,WS_SEND_END,1516051697770,121
37,WS_RECV_START,1516051697770,122
37,WS_RECV_END,1516051701269,122
37,PLAYER_SLEEPBEFORE_START,1516051701269,123
37,PLAYER_SLEEPBEFORE_END,1516051702393,123
37,WS_SEND_START,1516051702393,123
37,WS_SEND_END,1516051702393,123
37,WS_RECV_START,1516051702393,124
37,WS_RECV_END,1516051704913,124
37,PLAYER_SLEEPBEFORE_START,1516051704913,125
37,PLAYER_SLEEPBEFORE_END,1516051706409,125
37,WS_SEND_START,1516051706409,125
37,WS_SEND_END,1516051706409,125
37,WS_RECV_START,1516051706409,126
37,WS_RECV_END,1516051709781,126
37,PLAYER_SLEEPBEFORE_START,1516051709781,127
37,PLAYER_SLEEPBEFORE_END,1516051730391,127
37,WS_SEND_START,1516051730391,127
37,WS_SEND_END,1516051730391,127
37,WS_RECV_START,1516051730391,128
37,WS_RECV_END,1516051730941,128
37,PLAYER_SLEEPBEFORE_START,1516051730941,129
37,PLAYER_SLEEPBEFORE_END,1516051755972,129
37,WS_SEND_START,1516051755972,129
37,WS_SEND_END,1516051755972,129
37,PLAYER_SLEEPBEFORE_START,1516051755972,130
37,PLAYER_SLEEPBEFORE_END,1516051757952,130
37,WS_SEND_START,1516051757952,130
37,WS_SEND_END,1516051757952,130
37,WS_RECV_START,1516051757952,131
37,WS_RECV_END,1516051765378,131
37,PLAYER_SLEEPBEFORE_START,1516051765378,132
37,PLAYER_SLEEPBEFORE_END,1516051765387,132
37,WS_SEND_START,1516051765387,132
37,WS_SEND_END,1516051765387,132
37,WS_RECV_START,1516051765387,133
37,WS_RECV_END,1516051769186,133
37,PLAYER_SLEEPBEFORE_START,1516051769186,134
37,PLAYER_SLEEPBEFORE_END,1516051770263,134
37,REQ_START,1516051770263,134
37,REQ_END,1516051770270,134
37,PLAYER_SLEEPBEFORE_START,1516051770270,135
37,PLAYER_SLEEPBEFORE_END,1516051770860,135
37,WS_SEND_START,1516051770860,135
37,WS_SEND_END,1516051770860,135
37,WS_RECV_START,1516051770860,136
37,WS_RECV_END,1516051783833,136
37,PLAYER_SLEEPBEFORE_START,1516051783833,137
37,PLAYER_SLEEPBEFORE_END,1516051783846,137
37,WS_SEND_START,1516051783846,137
37,WS_SEND_END,1516051783846,137
37,WS_RECV_START,1516051783846,138
37,WS_RECV_END,1516051787551,138
37,PLAYER_SLEEPBEFORE_START,1516051787551,139
37,PLAYER_SLEEPBEFORE_END,1516051805225,139
37,WS_SEND_START,1516051805225,139
37,WS_SEND_END,1516051805225,139
37,PLAYER_SLEEPBEFORE_START,1516051805225,140
37,PLAYER_SLEEPBEFORE_END,1516051809128,140
37,WS_SEND_START,1516051809128,140
37,WS_SEND_END,1516051809128,140
37,PLAYER_SLEEPBEFORE_START,1516051809128,141
37,PLAYER_SLEEPBEFORE_END,1516051811420,141
37,WS_SEND_START,1516051811420,141
37,WS_SEND_END,1516051811420,141
37,WS_RECV_START,1516051811420,142
37,WS_RECV_END,1516051815411,142
37,PLAYER_SLEEPBEFORE_START,1516051815412,143
37,PLAYER_SLEEPBEFORE_END,1516051815420,143
37,WS_SEND_START,1516051815420,143
37,WS_SEND_END,1516051815420,143
37,WS_RECV_START,1516051815420,144
37,WS_RECV_END,1516051820214,144
37,PLAYER_SLEEPBEFORE_START,1516051820214,145
37,PLAYER_SLEEPBEFORE_END,1516051821958,145
37,WS_SEND_START,1516051821958,145
37,WS_SEND_END,1516051821958,145
37,WS_RECV_START,1516051821958,146
37,WS_RECV_END,1516051830709,146
37,PLAYER_SLEEPBEFORE_START,1516051830709,147
37,PLAYER_SLEEPBEFORE_END,1516051830719,147
37,WS_SEND_START,1516051830719,147
37,WS_SEND_END,1516051830719,147
37,WS_RECV_START,1516051830719,148
37,WS_RECV_END,1516051837173,148
37,PLAYER_SLEEPBEFORE_START,1516051837173,149
37,PLAYER_SLEEPBEFORE_END,1516051852286,149
37,WS_SEND_START,1516051852286,149
37,WS_SEND_END,1516051852286,149
37,PLAYER_SLEEPBEFORE_START,1516051852286,150
37,PLAYER_SLEEPBEFORE_END,1516051862961,150
37,WS_SEND_START,1516051862961,150
37,WS_SEND_END,1516051862961,150
37,PLAYER_SLEEPBEFORE_START,1516051862961,151
37,PLAYER_SLEEPBEFORE_END,1516051865953,151
37,WS_SEND_START,1516051865953,151
37,WS_SEND_END,1516051865953,151
37,WS_RECV_START,1516051865953,152
37,WS_RECV_END,1516051870063,152
37,PLAYER_SLEEPBEFORE_START,1516051870063,153
37,PLAYER_SLEEPBEFORE_END,1516051870070,153
37,WS_SEND_START,1516051870070,153
37,WS_SEND_END,1516051870071,153
37,WS_RECV_START,1516051870071,154
37,WS_RECV_END,1516051871138,154
37,PLAYER_SLEEPBEFORE_START,1516051871138,155
37,PLAYER_SLEEPBEFORE_END,1516051871746,155
37,WS_SEND_START,1516051871746,155
37,WS_SEND_END,1516051871746,155
37,WS_RECV_START,1516051871746,156
37,WS_RECV_END,1516051873436,156
37,PLAYER_SLEEPBEFORE_START,1516051873436,157
37,PLAYER_SLEEPBEFORE_END,1516051874779,157
37,WS_SEND_START,1516051874779,157
37,WS_SEND_END,1516051874779,157
37,WS_RECV_START,1516051874779,158
37,WS_RECV_END,1516051880035,158
37,PLAYER_SLEEPBEFORE_START,1516051880035,159
37,PLAYER_SLEEPBEFORE_END,1516051883935,159
37,WS_SEND_START,1516051883935,159
37,WS_SEND_END,1516051883935,159
37,WS_RECV_START,1516051883935,160
37,WS_RECV_END,1516051889606,160
37,PLAYER_SLEEPBEFORE_START,1516051889606,161
37,PLAYER_SLEEPBEFORE_END,1516051890389,161
37,WS_SEND_START,1516051890389,161
37,WS_SEND_END,1516051890389,161
37,WS_RECV_START,1516051890389,162
37,WS_RECV_END,1516051891781,162
37,PLAYER_SLEEPBEFORE_START,1516051891781,163
37,PLAYER_SLEEPBEFORE_END,1516051891790,163
37,WS_SEND_START,1516051891790,163
37,WS_SEND_END,1516051891790,163
37,WS_RECV_START,1516051891790,164
37,WS_RECV_END,1516051894869,164
37,PLAYER_SLEEPBEFORE_START,1516051894869,165
37,PLAYER_SLEEPBEFORE_END,1516051902242,165
37,WS_SEND_START,1516051902242,165
37,WS_SEND_END,1516051902242,165
37,WS_RECV_START,1516051902242,166
37,WS_RECV_END,1516051908980,166
37,PLAYER_SLEEPBEFORE_START,1516051908980,167
37,PLAYER_SLEEPBEFORE_END,1516051930229,167
37,WS_SEND_START,1516051930229,167
37,WS_SEND_END,1516051930230,167
37,PLAYER_SLEEPBEFORE_START,1516051930230,168
37,PLAYER_SLEEPBEFORE_END,1516051934965,168
37,WS_SEND_START,1516051934965,168
37,WS_SEND_END,1516051934965,168
37,PLAYER_SLEEPBEFORE_START,1516051934965,169
37,PLAYER_SLEEPBEFORE_END,1516051936516,169
37,WS_SEND_START,1516051936516,169
37,WS_SEND_END,1516051936516,169
37,WS_RECV_START,1516051936516,170
37,WS_RECV_END,1516051936738,170
37,PLAYER_SLEEPBEFORE_START,1516051936738,171
37,PLAYER_SLEEPBEFORE_END,1516051936745,171
37,WS_SEND_START,1516051936745,171
37,WS_SEND_END,1516051936745,171
37,WS_RECV_START,1516051936745,172
37,WS_RECV_END,1516051942914,172
37,PLAYER_SLEEPBEFORE_START,1516051942914,173
37,PLAYER_SLEEPBEFORE_END,1516051943682,173
37,WS_SEND_START,1516051943682,173
37,WS_SEND_END,1516051943682,173
37,WS_RECV_START,1516051943682,174
37,WS_RECV_END,1516051949125,174
37,PLAYER_SLEEPBEFORE_START,1516051949125,175
37,PLAYER_SLEEPBEFORE_END,1516051949885,175
37,WS_SEND_START,1516051949885,175
37,WS_SEND_END,1516051949885,175
37,WS_RECV_START,1516051949885,176
37,WS_RECV_END,1516051954077,176
37,PLAYER_SLEEPBEFORE_START,1516051954077,177
37,PLAYER_SLEEPBEFORE_END,1516051954877,177
37,WS_SEND_START,1516051954877,177
37,WS_SEND_END,1516051954877,177
37,WS_RECV_START,1516051954877,178
37,WS_RECV_END,1516051958609,178
37,PLAYER_SLEEPBEFORE_START,1516051958609,179
37,PLAYER_SLEEPBEFORE_END,1516051963863,179
37,WS_SEND_START,1516051963863,179
37,WS_SEND_END,1516051963863,179
37,PLAYER_SLEEPBEFORE_START,1516051963863,180
37,PLAYER_SLEEPBEFORE_END,1516051970481,180
37,WS_SEND_START,1516051970481,180
37,WS_SEND_END,1516051970481,180
37,PLAYER_SLEEPBEFORE_START,1516051970481,181
37,PLAYER_SLEEPBEFORE_END,1516051972218,181
37,WS_SEND_START,1516051972218,181
37,WS_SEND_END,1516051972218,181
37,WS_RECV_START,1516051972218,182
37,WS_RECV_END,1516051976946,182
37,PLAYER_SLEEPBEFORE_START,1516051976946,183
37,PLAYER_SLEEPBEFORE_END,1516051977683,183
37,WS_SEND_START,1516051977683,183
37,WS_SEND_END,1516051977683,183
37,WS_RECV_START,1516051977683,184
37,WS_RECV_END,1516051984406,184
37,PLAYER_SLEEPBEFORE_START,1516051984406,185
37,PLAYER_SLEEPBEFORE_END,1516051984419,185
37,WS_SEND_START,1516051984419,185
37,WS_SEND_END,1516051984419,185
37,WS_RECV_START,1516051984419,186
37,WS_RECV_END,1516051986781,186
37,PLAYER_SLEEPBEFORE_START,1516051986781,187
37,PLAYER_SLEEPBEFORE_END,1516052011789,187
37,WS_SEND_START,1516052011789,187
37,WS_SEND_END,1516052011789,187
37,WS_RECV_START,1516052011789,188
37,WS_RECV_END,1516052016864,188
37,PLAYER_SLEEPBEFORE_START,1516052016864,189
37,PLAYER_SLEEPBEFORE_END,1516052042087,189
37,WS_SEND_START,1516052042087,189
37,WS_SEND_END,1516052042088,189
37,WS_RECV_START,1516052042088,190
37,WS_RECV_END,1516052045550,190
37,PLAYER_SLEEPBEFORE_START,1516052045550,191
37,PLAYER_SLEEPBEFORE_END,1516052045556,191
37,WS_SEND_START,1516052045556,191
37,WS_SEND_END,1516052045556,191
37,WS_RECV_START,1516052045556,192
37,WS_RECV_END,1516052046130,192
37,PLAYER_SLEEPBEFORE_START,1516052046130,193
37,PLAYER_SLEEPBEFORE_END,1516052046567,193
37,WS_SEND_START,1516052046567,193
37,WS_SEND_END,1516052046567,193
37,WS_RECV_START,1516052046567,194
37,WS_RECV_END,1516052048412,194
37,PLAYER_SLEEPBEFORE_START,1516052048412,195
37,PLAYER_SLEEPBEFORE_END,1516052048426,195
37,WS_SEND_START,1516052048426,195
37,WS_SEND_END,1516052048426,195
37,WS_RECV_START,1516052048426,196
37,WS_RECV_END,1516052049823,196
37,PLAYER_SLEEPBEFORE_START,1516052049823,197
37,PLAYER_SLEEPBEFORE_END,1516052074593,197
37,WS_SEND_START,1516052074593,197
37,WS_SEND_END,1516052074593,197
37,WS_RECV_START,1516052074593,198
37,WS_RECV_END,1516052075566,198
37,PLAYER_SLEEPBEFORE_START,1516052075566,199
37,PLAYER_SLEEPBEFORE_END,1516052075573,199
37,WS_SEND_START,1516052075573,199
37,WS_SEND_END,1516052075573,199
37,WS_RECV_START,1516052075573,200
37,WS_RECV_END,1516052076590,200
37,PLAYER_SLEEPBEFORE_START,1516052076590,201
37,PLAYER_SLEEPBEFORE_END,1516052077887,201
37,WS_SEND_START,1516052077887,201
37,WS_SEND_END,1516052077887,201
37,WS_RECV_START,1516052077887,202
37,WS_RECV_END,1516052079819,202
37,PLAYER_SLEEPBEFORE_START,1516052079819,203
37,PLAYER_SLEEPBEFORE_END,1516052079832,203
37,WS_SEND_START,1516052079832,203
37,WS_SEND_END,1516052079832,203
37,WS_RECV_START,1516052079832,204
37,WS_RECV_END,1516052080532,204
37,PLAYER_SLEEPBEFORE_START,1516052080532,205
37,PLAYER_SLEEPBEFORE_END,1516052102163,205
37,WS_SEND_START,1516052102163,205
37,WS_SEND_END,1516052102163,205
37,WS_RECV_START,1516052102163,206
37,WS_RECV_END,1516052107295,206
37,PLAYER_SLEEPBEFORE_START,1516052107296,207
37,PLAYER_SLEEPBEFORE_END,1516052131419,207
37,WS_SEND_START,1516052131419,207
37,WS_SEND_END,1516052131419,207
37,WS_RECV_START,1516052131419,208
37,WS_RECV_END,1516052141100,208
37,PLAYER_SLEEPBEFORE_START,1516052141100,209
37,PLAYER_SLEEPBEFORE_END,1516052147515,209
37,WS_SEND_START,1516052147515,209
37,WS_SEND_END,1516052147515,209
37,WS_RECV_START,1516052147515,210
37,WS_RECV_END,1516052155522,210
37,PLAYER_SLEEPBEFORE_START,1516052155523,211
37,PLAYER_SLEEPBEFORE_END,1516052174355,211
37,WS_SEND_START,1516052174355,211
37,WS_SEND_END,1516052174355,211
37,WS_RECV_START,1516052174355,212
37,WS_RECV_END,1516052188270,212
37,PLAYER_SLEEPBEFORE_START,1516052188270,213
37,PLAYER_SLEEPBEFORE_END,1516052213324,213
37,WS_SEND_START,1516052213324,213
37,WS_SEND_END,1516052213324,213
37,WS_RECV_START,1516052213324,214
37,WS_RECV_END,1516052226983,214
37,PLAYER_SLEEPBEFORE_START,1516052226983,215
37,PLAYER_SLEEPBEFORE_END,1516052235094,215
37,REQ_START,1516052235094,215
37,REQ_END,1516052235102,215
37,PLAYER_SLEEPBEFORE_START,1516052235102,216
37,PLAYER_SLEEPBEFORE_END,1516052251663,216
37,WS_SEND_START,1516052251663,216
37,WS_SEND_END,1516052251663,216
37,WS_RECV_START,1516052251663,217
37,WS_RECV_END,1516052257195,217
37,PLAYER_SLEEPBEFORE_START,1516052257195,218
37,PLAYER_SLEEPBEFORE_END,1516052257202,218
37,WS_SEND_START,1516052257202,218
37,WS_SEND_END,1516052257202,218
37,WS_RECV_START,1516052257202,219
37,WS_RECV_END,1516052258258,219
37,PLAYER_SLEEPBEFORE_START,1516052258258,220
37,PLAYER_SLEEPBEFORE_END,1516052259026,220
37,WS_SEND_START,1516052259026,220
37,WS_SEND_END,1516052259026,220
37,WS_RECV_START,1516052259026,221
37,WS_RECV_END,1516052270295,221
37,PLAYER_SLEEPBEFORE_START,1516052270295,222
37,PLAYER_SLEEPBEFORE_END,1516052270352,222
37,WS_SEND_START,1516052270352,222
37,WS_SEND_END,1516052270352,222
37,WS_RECV_START,1516052270352,223
37,WS_RECV_END,1516052273432,223
37,PLAYER_SLEEPBEFORE_START,1516052273432,224
37,PLAYER_SLEEPBEFORE_END,1516052296088,224
37,WS_SEND_START,1516052296088,224
37,WS_SEND_END,1516052296088,224
37,WS_RECV_START,1516052296088,225
37,WS_RECV_END,1516052296286,225
37,PLAYER_SLEEPBEFORE_START,1516052296286,226
37,PLAYER_SLEEPBEFORE_END,1516052322021,226
37,WS_SEND_START,1516052322022,226
37,WS_SEND_END,1516052322022,226
37,WS_RECV_START,1516052322022,227
37,WS_RECV_END,1516052322215,227
37,PLAYER_SLEEPBEFORE_START,1516052322215,228
37,PLAYER_SLEEPBEFORE_END,1516052345208,228
37,WS_SEND_START,1516052345208,228
37,WS_SEND_END,1516052345208,228
37,WS_RECV_START,1516052345208,229
37,WS_RECV_END,1516052348116,229
37,PLAYER_SLEEPBEFORE_START,1516052348116,230
37,PLAYER_SLEEPBEFORE_END,1516052372332,230
37,WS_SEND_START,1516052372332,230
37,WS_SEND_END,1516052372332,230
37,WS_RECV_START,1516052372332,231
37,WS_RECV_END,1516052376790,231
37,PLAYER_SLEEPBEFORE_START,1516052376790,232
37,PLAYER_SLEEPBEFORE_END,1516052401546,232
37,WS_SEND_START,1516052401546,232
37,WS_SEND_END,1516052401546,232
37,WS_RECV_START,1516052401546,233
37,WS_RECV_END,1516052403748,233
37,PLAYER_SLEEPBEFORE_START,1516052403748,234
37,PLAYER_SLEEPBEFORE_END,1516052430782,234
37,WS_SEND_START,1516052430782,234
37,WS_SEND_END,1516052430782,234
37,WS_RECV_START,1516052430782,235
37,WS_RECV_END,1516052442704,235
37,PLAYER_SLEEPBEFORE_START,1516052442704,236
37,PLAYER_SLEEPBEFORE_END,1516052466544,236
37,WS_SEND_START,1516052466544,236
37,WS_SEND_END,1516052466544,236
37,WS_RECV_START,1516052466544,237
37,WS_RECV_END,1516052483986,237
37,PLAYER_SLEEPBEFORE_START,1516052483986,238
37,PLAYER_SLEEPBEFORE_END,1516052496796,238
37,WS_SEND_START,1516052496796,238
37,WS_SEND_END,1516052496796,238
37,WS_RECV_START,1516052496796,239
37,WS_RECV_END,1516052506838,239
37,PLAYER_SLEEPBEFORE_START,1516052506838,240
37,PLAYER_SLEEPBEFORE_END,1516052519493,240
37,WS_SEND_START,1516052519493,240
37,WS_SEND_END,1516052519493,240
37,WS_RECV_START,1516052519493,241
37,WS_RECV_END,1516052541223,241
37,PLAYER_SLEEPBEFORE_START,1516052541223,242
37,PLAYER_SLEEPBEFORE_END,1516052541246,242
37,WS_SEND_START,1516052541246,242
37,WS_SEND_END,1516052541247,242
37,WS_RECV_START,1516052541247,243
37,WS_RECV_END,1516052551469,243
37,PLAYER_SLEEPBEFORE_START,1516052551469,244
37,PLAYER_SLEEPBEFORE_END,1516052573707,244
37,WS_SEND_START,1516052573707,244
37,WS_SEND_END,1516052573707,244
37,WS_RECV_START,1516052573707,245
37,WS_RECV_END,1516052593708,245
37,PLAYER_SLEEPBEFORE_START,1516052593708,246
37,PLAYER_SLEEPBEFORE_END,1516052593717,246
37,WS_SEND_START,1516052593717,246
37,WS_SEND_END,1516052593717,246
37,WS_RECV_START,1516052593717,247
37,WS_RECV_END,1516052596309,247
37,PLAYER_SLEEPBEFORE_START,1516052596309,248
37,PLAYER_SLEEPBEFORE_END,1516052598346,248
37,WS_SEND_START,1516052598346,248
37,WS_SEND_END,1516052598346,248
37,WS_RECV_START,1516052598346,249
37,WS_RECV_END,1516052616106,249
37,PLAYER_SLEEPBEFORE_START,1516052616106,250
37,PLAYER_SLEEPBEFORE_END,1516052616143,250
37,WS_SEND_START,1516052616143,250
37,WS_SEND_END,1516052616143,250
37,WS_RECV_START,1516052616143,251
37,WS_RECV_END,1516052621653,251
37,PLAYER_SLEEPBEFORE_START,1516052621653,252
37,PLAYER_SLEEPBEFORE_END,1516052644295,252
37,WS_SEND_START,1516052644295,252
37,WS_SEND_END,1516052644295,252
37,WS_RECV_START,1516052644295,253
37,WS_RECV_END,1516052659793,253
37,PLAYER_SLEEPBEFORE_START,1516052659793,254
37,PLAYER_SLEEPBEFORE_END,1516052659809,254
37,WS_SEND_START,1516052659809,254
37,WS_SEND_END,1516052659809,254
37,WS_RECV_START,1516052659809,255
37,WS_RECV_END,1516052664008,255
37,PLAYER_SLEEPBEFORE_START,1516052664008,256
37,PLAYER_SLEEPBEFORE_END,1516052688630,256
37,WS_SEND_START,1516052688630,256
37,WS_SEND_END,1516052688630,256
37,WS_RECV_START,1516052688630,257
37,WS_RECV_END,1516052694343,257
37,PLAYER_SLEEPBEFORE_START,1516052694343,258
37,PLAYER_SLEEPBEFORE_END,1516052694351,258
37,WS_SEND_START,1516052694351,258
37,WS_SEND_END,1516052694351,258
37,WS_RECV_START,1516052694351,259
37,WS_RECV_END,1516052700453,259
37,PLAYER_SLEEPBEFORE_START,1516052700453,260
37,PLAYER_SLEEPBEFORE_END,1516052700977,260
37,WS_SEND_START,1516052700977,260
37,WS_SEND_END,1516052700977,260
37,WS_RECV_START,1516052700977,261
37,WS_RECV_END,1516052704382,261
37,PLAYER_SLEEPBEFORE_START,1516052704382,262
37,PLAYER_SLEEPBEFORE_END,1516052704654,262
37,WS_SEND_START,1516052704654,262
37,WS_SEND_END,1516052704654,262
37,WS_RECV_START,1516052704654,263
37,WS_RECV_END,1516052708660,263
37,PLAYER_SLEEPBEFORE_START,1516052708660,264
37,PLAYER_SLEEPBEFORE_END,1516052711073,264
37,WS_SEND_START,1516052711073,264
37,WS_SEND_END,1516052711073,264
37,WS_RECV_START,1516052711073,265
37,WS_RECV_END,1516052718545,265
37,PLAYER_SLEEPBEFORE_START,1516052718545,266
37,PLAYER_SLEEPBEFORE_END,1516052718557,266
37,WS_SEND_START,1516052718557,266
37,WS_SEND_END,1516052718557,266
37,WS_RECV_START,1516052718557,267
37,WS_RECV_END,1516052723947,267
37,PLAYER_SLEEPBEFORE_START,1516052723947,268
37,PLAYER_SLEEPBEFORE_END,1516052725417,268
37,REQ_START,1516052725417,268
37,REQ_END,1516052725424,268
37,PLAYER_SLEEPBEFORE_START,1516052725424,269
37,PLAYER_SLEEPBEFORE_END,1516052742819,269
37,WS_SEND_START,1516052742819,269
37,WS_SEND_END,1516052742819,269
37,WS_RECV_START,1516052742819,270
37,WS_RECV_END,1516052750994,270
37,PLAYER_SLEEPBEFORE_START,1516052750994,271
37,PLAYER_SLEEPBEFORE_END,1516052751002,271
37,WS_SEND_START,1516052751002,271
37,WS_SEND_END,1516052751002,271
37,WS_RECV_START,1516052751002,272
37,WS_RECV_END,1516052764461,272
37,PLAYER_SLEEPBEFORE_START,1516052764461,273
37,PLAYER_SLEEPBEFORE_END,1516052765758,273
37,WS_SEND_START,1516052765758,273
37,WS_SEND_END,1516052765758,273
37,WS_RECV_START,1516052765758,274
37,WS_RECV_END,1516052771621,274
37,PLAYER_SLEEPBEFORE_START,1516052771621,275
37,PLAYER_SLEEPBEFORE_END,1516052772794,275
37,WS_SEND_START,1516052772794,275
37,WS_SEND_END,1516052772794,275
37,WS_RECV_START,1516052772794,276
37,WS_RECV_END,1516052788515,276
37,PLAYER_SLEEPBEFORE_START,1516052788515,277
37,PLAYER_SLEEPBEFORE_END,1516052788537,277
37,WS_SEND_START,1516052788537,277
37,WS_SEND_END,1516052788537,277
37,WS_RECV_START,1516052788537,278
37,WS_RECV_END,1516052794361,278
37,PLAYER_SLEEPBEFORE_START,1516052794361,279
37,PLAYER_SLEEPBEFORE_END,1516052818884,279
37,WS_SEND_START,1516052818884,279
37,WS_SEND_END,1516052818884,279
37,WS_RECV_START,1516052818884,280
37,WS_RECV_END,1516052835138,280
37,PLAYER_SLEEPBEFORE_START,1516052835138,281
37,PLAYER_SLEEPBEFORE_END,1516052857427,281
37,WS_SEND_START,1516052857427,281
37,WS_SEND_END,1516052857427,281
37,WS_RECV_START,1516052857427,282
37,WS_RECV_END,1516052872343,282
37,PLAYER_SLEEPBEFORE_START,1516052872343,283
37,PLAYER_SLEEPBEFORE_END,1516052872362,283
37,WS_SEND_START,1516052872362,283
37,WS_SEND_END,1516052872362,283
37,WS_RECV_START,1516052872362,284
37,WS_RECV_END,1516052890450,284
37,PLAYER_SLEEPBEFORE_START,1516052890450,285
37,PLAYER_SLEEPBEFORE_END,1516052914581,285
37,WS_SEND_START,1516052914581,285
37,WS_SEND_END,1516052914581,285
37,WS_RECV_START,1516052914581,286
37,WS_RECV_END,1516052922403,286
37,PLAYER_SLEEPBEFORE_START,1516052922403,287
37,PLAYER_SLEEPBEFORE_END,1516052945557,287
37,WS_SEND_START,1516052945557,287
37,WS_SEND_END,1516052945557,287
37,WS_RECV_START,1516052945557,288
37,WS_RECV_END,1516052962315,288
37,PLAYER_SLEEPBEFORE_START,1516052962315,289
37,PLAYER_SLEEPBEFORE_END,1516052962337,289
37,WS_SEND_START,1516052962337,289
37,WS_SEND_END,1516052962337,289
37,WS_RECV_START,1516052962337,290
37,WS_RECV_END,1516052965994,290
37,PLAYER_SLEEPBEFORE_START,1516052965994,291
37,PLAYER_SLEEPBEFORE_END,1516052976608,291
37,WS_SEND_START,1516052976608,291
37,WS_SEND_END,1516052976608,291
37,WS_RECV_START,1516052976608,292
37,WS_RECV_END,1516052988551,292
37,PLAYER_SLEEPBEFORE_START,1516052988552,293
37,PLAYER_SLEEPBEFORE_END,1516053004308,293
37,WS_SEND_START,1516053004308,293
37,WS_SEND_END,1516053004308,293
37,WS_RECV_START,1516053004308,294
37,WS_RECV_END,1516053015795,294
37,PLAYER_SLEEPBEFORE_START,1516053015795,295
37,PLAYER_SLEEPBEFORE_END,1516053015820,295
37,WS_SEND_START,1516053015820,295
37,WS_SEND_END,1516053015820,295
37,WS_RECV_START,1516053015820,296
37,WS_RECV_END,1516053018760,296
37,PLAYER_SLEEPBEFORE_START,1516053018760,297
37,PLAYER_SLEEPBEFORE_END,1516053040257,297
37,WS_SEND_START,1516053040257,297
37,WS_SEND_END,1516053040258,297
37,WS_RECV_START,1516053040258,298
37,WS_RECV_END,1516053047675,298
37,PLAYER_SLEEPBEFORE_START,1516053047675,299
37,PLAYER_SLEEPBEFORE_END,1516053047685,299
37,WS_SEND_START,1516053047685,299
37,WS_SEND_END,1516053047685,299
37,WS_RECV_START,1516053047685,300
37,WS_RECV_END,1516053052197,300
37,PLAYER_SLEEPBEFORE_START,1516053052197,301
37,PLAYER_SLEEPBEFORE_END,1516053054557,301
37,WS_SEND_START,1516053054557,301
37,WS_SEND_END,1516053054557,301
37,WS_RECV_START,1516053054557,302
37,WS_RECV_END,1516053061180,302
37,PLAYER_SLEEPBEFORE_START,1516053061180,303
37,PLAYER_SLEEPBEFORE_END,1516053061204,303
37,WS_SEND_START,1516053061204,303
37,WS_SEND_END,1516053061204,303
37,WS_RECV_START,1516053061204,304
37,WS_RECV_END,1516053065549,304
37,PLAYER_SLEEPBEFORE_START,1516053065549,305
37,PLAYER_SLEEPBEFORE_END,1516053090539,305
37,WS_SEND_START,1516053090539,305
37,WS_SEND_END,1516053090539,305
37,WS_RECV_START,1516053090539,306
37,WS_RECV_END,1516053096548,306
37,PLAYER_SLEEPBEFORE_START,1516053096548,307
37,PLAYER_SLEEPBEFORE_END,1516053120423,307
37,WS_SEND_START,1516053120423,307
37,WS_SEND_END,1516053120423,307
37,WS_RECV_START,1516053120423,308
37,WS_RECV_END,1516053130254,308
37,PLAYER_SLEEPBEFORE_START,1516053130254,309
37,PLAYER_SLEEPBEFORE_END,1516053151945,309
37,WS_SEND_START,1516053151945,309
37,WS_SEND_END,1516053151945,309
37,WS_RECV_START,1516053151945,310
37,WS_RECV_END,1516053157824,310
37,PLAYER_SLEEPBEFORE_START,1516053157824,311
37,PLAYER_SLEEPBEFORE_END,1516053186652,311
37,WS_SEND_START,1516053186652,311
37,WS_SEND_END,1516053186652,311
37,WS_RECV_START,1516053186652,312
37,WS_RECV_END,1516053203956,312
37,PLAYER_SLEEPBEFORE_START,1516053203956,313
37,PLAYER_SLEEPBEFORE_END,1516053203976,313
37,WS_SEND_START,1516053203976,313
37,WS_SEND_END,1516053203976,313
37,WS_RECV_START,1516053203976,314
37,WS_RECV_END,1516053211230,314
37,PLAYER_SLEEPBEFORE_START,1516053211230,315
37,PLAYER_SLEEPBEFORE_END,1516053232817,315
37,WS_SEND_START,1516053232817,315
37,WS_SEND_END,1516053232817,315
37,WS_RECV_START,1516053232817,316
37,WS_RECV_END,1516053251000,316
37,PLAYER_SLEEPBEFORE_START,1516053251000,317
37,PLAYER_SLEEPBEFORE_END,1516053251008,317
37,WS_SEND_START,1516053251008,317
37,WS_SEND_END,1516053251008,317
37,WS_RECV_START,1516053251008,318
37,WS_RECV_END,1516053260788,318
37,PLAYER_SLEEPBEFORE_START,1516053260788,319
37,PLAYER_SLEEPBEFORE_END,1516053261120,319
37,WS_SEND_START,1516053261120,319
37,WS_SEND_END,1516053261120,319
37,WS_RECV_START,1516053261120,320
37,WS_RECV_END,1516053271414,320
37,PLAYER_SLEEPBEFORE_START,1516053271414,321
37,PLAYER_SLEEPBEFORE_END,1516053271433,321
37,WS_SEND_START,1516053271433,321
37,WS_SEND_END,1516053271433,321
37,WS_RECV_START,1516053271433,322
37,WS_RECV_END,1516053276559,322
37,PLAYER_SLEEPBEFORE_START,1516053276559,323
37,PLAYER_SLEEPBEFORE_END,1516053280952,323
37,REQ_START,1516053280952,323
37,REQ_END,1516053280960,323
37,PLAYER_SLEEPBEFORE_START,1516053280960,324
37,PLAYER_SLEEPBEFORE_END,1516053300846,324
37,WS_SEND_START,1516053300846,324
37,WS_SEND_END,1516053300846,324
37,WS_RECV_START,1516053300846,325
37,WS_RECV_END,1516053317291,325
37,PLAYER_SLEEPBEFORE_START,1516053317291,326
37,PLAYER_SLEEPBEFORE_END,1516053317300,326
37,WS_SEND_START,1516053317300,326
37,WS_SEND_END,1516053317300,326
37,WS_RECV_START,1516053317300,327
37,WS_RECV_END,1516053326480,327
37,PLAYER_SLEEPBEFORE_START,1516053326480,328
37,PLAYER_SLEEPBEFORE_END,1516053326841,328
37,WS_SEND_START,1516053326841,328
37,WS_SEND_END,1516053326841,328
37,WS_RECV_START,1516053326841,329
37,WS_RECV_END,1516053328925,329
37,PLAYER_SLEEPBEFORE_START,1516053328925,330
37,PLAYER_SLEEPBEFORE_END,1516053329271,330
37,WS_SEND_START,1516053329271,330
37,WS_SEND_END,1516053329271,330
37,WS_RECV_START,1516053329271,331
37,WS_RECV_END,1516053335691,331
37,PLAYER_SLEEPBEFORE_START,1516053335691,332
37,PLAYER_SLEEPBEFORE_END,1516053336538,332
37,WS_SEND_START,1516053336538,332
37,WS_SEND_END,1516053336538,332
37,WS_RECV_START,1516053336538,333
37,WS_RECV_END,1516053348924,333
37,PLAYER_SLEEPBEFORE_START,1516053348924,334
37,PLAYER_SLEEPBEFORE_END,1516053349321,334
37,WS_SEND_START,1516053349321,334
37,WS_SEND_END,1516053349321,334
37,WS_RECV_START,1516053349321,335
37,WS_RECV_END,1516053354884,335
37,PLAYER_SLEEPBEFORE_START,1516053354884,336
37,PLAYER_SLEEPBEFORE_END,1516053355208,336
37,WS_SEND_START,1516053355208,336
37,WS_SEND_END,1516053355208,336
37,WS_RECV_START,1516053355208,337
37,WS_RECV_END,1516053363755,337
37,PLAYER_SLEEPBEFORE_START,1516053363755,338
37,PLAYER_SLEEPBEFORE_END,1516053363770,338
37,WS_SEND_START,1516053363770,338
37,WS_SEND_END,1516053363770,338
37,WS_RECV_START,1516053363770,339
37,WS_RECV_END,1516053366725,339
37,PLAYER_SLEEPBEFORE_START,1516053366725,340
37,PLAYER_SLEEPBEFORE_END,1516053384697,340
37,WS_SEND_START,1516053384697,340
37,WS_SEND_END,1516053384697,340
37,WS_RECV_START,1516053384697,341
37,WS_RECV_END,1516053407468,341
37,PLAYER_SLEEPBEFORE_START,1516053407468,342
37,PLAYER_SLEEPBEFORE_END,1516053407477,342
37,WS_SEND_START,1516053407477,342
37,WS_SEND_END,1516053407477,342
37,WS_RECV_START,1516053407477,343
37,WS_RECV_END,1516053414700,343
37,PLAYER_SLEEPBEFORE_START,1516053414700,344
37,PLAYER_SLEEPBEFORE_END,1516053417012,344
37,WS_SEND_START,1516053417012,344
37,WS_SEND_END,1516053417012,344
37,WS_RECV_START,1516053417012,345
37,WS_RECV_END,1516053441877,345
37,PLAYER_SLEEPBEFORE_START,1516053441877,346
37,PLAYER_SLEEPBEFORE_END,1516053441888,346
37,WS_SEND_START,1516053441888,346
37,WS_SEND_END,1516053441888,346
37,WS_RECV_START,1516053441888,347
37,WS_RECV_END,1516053449531,347
37,PLAYER_SLEEPBEFORE_START,1516053449531,348
37,PLAYER_SLEEPBEFORE_END,1516053470138,348
37,WS_SEND_START,1516053470139,348
37,WS_SEND_END,1516053470139,348
37,WS_RECV_START,1516053470139,349
37,WS_RECV_END,1516053482875,349
37,PLAYER_SLEEPBEFORE_START,1516053482875,350
37,PLAYER_SLEEPBEFORE_END,1516053482883,350
37,WS_SEND_START,1516053482883,350
37,WS_SEND_END,1516053482883,350
37,WS_RECV_START,1516053482883,351
37,WS_RECV_END,1516053495380,351
37,PLAYER_SLEEPBEFORE_START,1516053495380,352
37,PLAYER_SLEEPBEFORE_END,1516053496566,352
37,WS_SEND_START,1516053496566,352
37,WS_SEND_END,1516053496566,352
37,WS_RECV_START,1516053496566,353
37,WS_RECV_END,1516053505210,353
37,PLAYER_SLEEPBEFORE_START,1516053505210,354
37,PLAYER_SLEEPBEFORE_END,1516053505226,354
37,WS_SEND_START,1516053505226,354
37,WS_SEND_END,1516053505226,354
37,WS_RECV_START,1516053505226,355
37,WS_RECV_END,1516053510219,355
37,PLAYER_SLEEPBEFORE_START,1516053510219,356
37,PLAYER_SLEEPBEFORE_END,1516053510265,356
37,WS_SEND_START,1516053510265,356
37,WS_SEND_END,1516053510265,356
37,WS_RECV_START,1516053510265,357
37,WS_RECV_END,1516053519612,357
37,PLAYER_SLEEPBEFORE_START,1516053519612,358
37,PLAYER_SLEEPBEFORE_END,1516053519627,358
37,WS_SEND_START,1516053519627,358
37,WS_SEND_END,1516053519627,358
37,WS_RECV_START,1516053519627,359
37,WS_RECV_END,1516053531318,359
37,PLAYER_SLEEPBEFORE_START,1516053531318,360
37,PLAYER_SLEEPBEFORE_END,1516053551784,360
37,WS_SEND_START,1516053551784,360
37,WS_SEND_END,1516053551784,360
37,WS_RECV_START,1516053551784,361
37,WS_RECV_END,1516053565361,361
37,PLAYER_SLEEPBEFORE_START,1516053565361,362
37,PLAYER_SLEEPBEFORE_END,1516053565370,362
37,WS_SEND_START,1516053565370,362
37,WS_SEND_END,1516053565370,362
37,WS_RECV_START,1516053565370,363
37,WS_RECV_END,1516053567188,363
37,PLAYER_SLEEPBEFORE_START,1516053567188,364
37,PLAYER_SLEEPBEFORE_END,1516053569279,364
37,WS_SEND_START,1516053569279,364
37,WS_SEND_END,1516053569279,364
37,WS_RECV_START,1516053569279,365
37,WS_RECV_END,1516053578812,365
37,PLAYER_SLEEPBEFORE_START,1516053578812,366
37,PLAYER_SLEEPBEFORE_END,1516053578822,366
37,WS_SEND_START,1516053578822,366
37,WS_SEND_END,1516053578822,366
37,WS_RECV_START,1516053578822,367
37,WS_RECV_END,1516053580702,367
37,PLAYER_SLEEPBEFORE_START,1516053580702,368
37,PLAYER_SLEEPBEFORE_END,1516053604162,368
37,WS_SEND_START,1516053604162,368
37,WS_SEND_END,1516053604162,368
37,WS_RECV_START,1516053604162,369
37,WS_RECV_END,1516053616549,369
37,PLAYER_SLEEPBEFORE_START,1516053616549,370
37,PLAYER_SLEEPBEFORE_END,1516053616557,370
37,WS_SEND_START,1516053616557,370
37,WS_SEND_END,1516053616557,370
37,WS_RECV_START,1516053616557,371
37,WS_RECV_END,1516053629824,371
37,PLAYER_SLEEPBEFORE_START,1516053629824,372
37,PLAYER_SLEEPBEFORE_END,1516053630196,372
37,WS_SEND_START,1516053630196,372
37,WS_SEND_END,1516053630196,372
37,WS_RECV_START,1516053630196,373
37,WS_RECV_END,1516053633194,373
37,PLAYER_SLEEPBEFORE_START,1516053633194,374
37,PLAYER_SLEEPBEFORE_END,1516053633897,374
37,WS_SEND_START,1516053633897,374
37,WS_SEND_END,1516053633897,374
37,WS_RECV_START,1516053633897,375
37,WS_RECV_END,1516053641483,375
37,PLAYER_SLEEPBEFORE_START,1516053641483,376
37,PLAYER_SLEEPBEFORE_END,1516053641834,376
37,WS_SEND_START,1516053641834,376
37,WS_SEND_END,1516053641834,376
37,WS_RECV_START,1516053641834,377
37,WS_RECV_END,1516053651686,377
37,PLAYER_SLEEPBEFORE_START,1516053651686,378
37,PLAYER_SLEEPBEFORE_END,1516053651705,378
37,WS_SEND_START,1516053651706,378
37,WS_SEND_END,1516053651706,378
37,WS_RECV_START,1516053651706,379
37,WS_RECV_END,1516053652366,379
37,PLAYER_SLEEPBEFORE_START,1516053652366,380
37,PLAYER_SLEEPBEFORE_END,1516053672858,380
37,WS_SEND_START,1516053672858,380
37,WS_SEND_END,1516053672858,380
37,PLAYER_SLEEPBEFORE_START,1516053672858,381
37,PLAYER_SLEEPBEFORE_END,1516053677072,381
37,WS_SEND_START,1516053677072,381
37,WS_SEND_END,1516053677072,381
37,WS_RECV_START,1516053677072,382
37,WS_RECV_END,1516053677581,382
37,PLAYER_SLEEPBEFORE_START,1516053677581,383
37,PLAYER_SLEEPBEFORE_END,1516053697781,383
37,WS_SEND_START,1516053697781,383
37,WS_SEND_END,1516053697781,383
37,PLAYER_SLEEPBEFORE_START,1516053697781,384
37,PLAYER_SLEEPBEFORE_END,1516053700967,384
37,WS_SEND_START,1516053700967,384
37,WS_SEND_END,1516053700967,384
37,WS_RECV_START,1516053700967,385
37,WS_RECV_END,1516053707284,385
37,PLAYER_SLEEPBEFORE_START,1516053707284,386
37,PLAYER_SLEEPBEFORE_END,1516053707299,386
37,WS_SEND_START,1516053707299,386
37,WS_SEND_END,1516053707299,386
37,WS_RECV_START,1516053707299,387
37,WS_RECV_END,1516053709282,387
37,PLAYER_SLEEPBEFORE_START,1516053709282,388
37,PLAYER_SLEEPBEFORE_END,1516053729812,388
37,WS_SEND_START,1516053729812,388
37,WS_SEND_END,1516053729812,388
37,PLAYER_SLEEPBEFORE_START,1516053729812,389
37,PLAYER_SLEEPBEFORE_END,1516053732031,389
37,WS_SEND_START,1516053732031,389
37,WS_SEND_END,1516053732031,389
37,WS_RECV_START,1516053732031,390
37,WS_RECV_END,1516053738264,390
37,PLAYER_SLEEPBEFORE_START,1516053738264,391
37,PLAYER_SLEEPBEFORE_END,1516053761100,391
37,WS_SEND_START,1516053761100,391
37,WS_SEND_END,1516053761100,391
37,WS_RECV_START,1516053761100,392
37,WS_RECV_END,1516053762091,392
37,PLAYER_SLEEPBEFORE_START,1516053762091,393
37,PLAYER_SLEEPBEFORE_END,1516053786780,393
37,WS_SEND_START,1516053786780,393
37,WS_SEND_END,1516053786780,393
37,PLAYER_SLEEPBEFORE_START,1516053786780,394
37,PLAYER_SLEEPBEFORE_END,1516053788752,394
37,WS_SEND_START,1516053788752,394
37,WS_SEND_END,1516053788752,394
37,WS_RECV_START,1516053788752,395
37,WS_RECV_END,1516053790061,395
37,PLAYER_SLEEPBEFORE_START,1516053790061,396
37,PLAYER_SLEEPBEFORE_END,1516053790068,396
37,WS_SEND_START,1516053790068,396
37,WS_SEND_END,1516053790068,396
37,WS_RECV_START,1516053790068,397
37,WS_RECV_END,1516053790416,397
37,PLAYER_SLEEPBEFORE_START,1516053790416,398
37,PLAYER_SLEEPBEFORE_END,1516053790596,398
37,WS_SEND_START,1516053790596,398
37,WS_SEND_END,1516053790596,398
37,WS_RECV_START,1516053790596,399
37,WS_RECV_END,1516053790712,399
37,PLAYER_SLEEPBEFORE_START,1516053790712,400
37,PLAYER_SLEEPBEFORE_END,1516053791787,400
37,WS_SEND_START,1516053791787,400
37,WS_SEND_END,1516053791787,400
37,WS_RECV_START,1516053791787,401
37,WS_RECV_END,1516053791854,401
37,PLAYER_SLEEPBEFORE_START,1516053791854,402
37,PLAYER_SLEEPBEFORE_END,1516053793213,402
37,WS_SEND_START,1516053793213,402
37,WS_SEND_END,1516053793213,402
37,WS_RECV_START,1516053793213,403
37,WS_RECV_END,1516053793456,403
37,PLAYER_SLEEPBEFORE_START,1516053793456,404
37,PLAYER_SLEEPBEFORE_END,1516053793926,404
37,WS_SEND_START,1516053793926,404
37,WS_SEND_END,1516053793926,404
37,WS_RECV_START,1516053793926,405
37,WS_RECV_END,1516053793990,405
37,PLAYER_SLEEPBEFORE_START,1516053793990,406
37,PLAYER_SLEEPBEFORE_END,1516053796718,406
37,WS_SEND_START,1516053796718,406
37,WS_SEND_END,1516053796718,406
37,WS_RECV_START,1516053796718,407
37,WS_RECV_END,1516053799798,407
37,PLAYER_SLEEPBEFORE_START,1516053799798,408
37,PLAYER_SLEEPBEFORE_END,1516053800128,408
37,WS_SEND_START,1516053800128,408
37,WS_SEND_END,1516053800128,408
37,WS_RECV_START,1516053800128,409
37,WS_RECV_END,1516053800695,409
37,PLAYER_SLEEPBEFORE_START,1516053800695,410
37,PLAYER_SLEEPBEFORE_END,1516053801720,410
37,WS_SEND_START,1516053801720,410
37,WS_SEND_END,1516053801721,410
37,WS_RECV_START,1516053801721,411
37,WS_RECV_END,1516053802588,411
37,PLAYER_SLEEPBEFORE_START,1516053802588,412
37,PLAYER_SLEEPBEFORE_END,1516053803244,412
37,WS_SEND_START,1516053803244,412
37,WS_SEND_END,1516053803244,412
37,WS_RECV_START,1516053803244,413
37,WS_RECV_END,1516053807309,413
37,PLAYER_SLEEPBEFORE_START,1516053807309,414
37,PLAYER_SLEEPBEFORE_END,1516053807325,414
37,WS_SEND_START,1516053807325,414
37,WS_SEND_END,1516053807325,414
37,WS_RECV_START,1516053807325,415
37,WS_RECV_END,1516053809074,415
37,PLAYER_SLEEPBEFORE_START,1516053809074,416
37,PLAYER_SLEEPBEFORE_END,1516053823341,416
37,WS_SEND_START,1516053823341,416
37,WS_SEND_END,1516053823341,416
37,PLAYER_SLEEPBEFORE_START,1516053823341,417
37,PLAYER_SLEEPBEFORE_END,1516053852021,417
37,WS_SEND_START,1516053852021,417
37,WS_SEND_END,1516053852021,417
37,WS_RECV_START,1516053852021,418
37,WS_RECV_END,1516053852226,418
37,PLAYER_SLEEPBEFORE_START,1516053852226,419
37,PLAYER_SLEEPBEFORE_END,1516053857048,419
37,REQ_START,1516053857048,419
37,REQ_END,1516053857057,419
37,PLAYER_SLEEPBEFORE_START,1516053857057,420
37,PLAYER_SLEEPBEFORE_END,1516053875802,420
37,WS_CLOSE_START,1516053875802,420
37,WS_CLOSE_END,1516053875802,420
37,PLAYER_DONE,1516053875802
