# --sessions 50 --app-url=http://shinyloadtest.rstudioservices.com/ --output-dir test50 --overwrite-output --log-level warn --start-interval 1500 30min.log
thread_id,event,timestamp,input_line_number,comment
50,PLAYER_SESSION_CREATE,1516050942873
50,PLAYER_START_INTERVAL_START,1516050942873
50,PLAYER_START_INTERVAL_END,1516051017874
50,REQ_HOME_START,1516051017874,2
50,REQ_HOME_END,1516051017979,2
50,REQ_START,1516051017979,3
50,REQ_END,1516051018030,3
50,REQ_START,1516051018030,4
50,REQ_END,1516051018066,4
50,REQ_START,1516051018066,5
50,REQ_END,1516051018101,5
50,REQ_START,1516051018101,6
50,REQ_END,1516051018136,6
50,REQ_START,1516051018136,7
50,REQ_END,1516051018170,7
50,REQ_START,1516051018170,8
50,REQ_END,1516051018203,8
50,REQ_START,1516051018203,9
50,REQ_END,1516051018455,9
50,REQ_START,1516051018455,10
50,REQ_END,1516051018463,10
50,REQ_START,1516051018463,11
50,REQ_END,1516051018532,11
50,REQ_START,1516051018532,12
50,REQ_END,1516051018786,12
50,REQ_START,1516051018786,13
50,REQ_END,1516051018797,13
50,REQ_START,1516051018797,14
50,REQ_END,1516051018810,14
50,REQ_START,1516051018810,15
50,REQ_END,1516051018846,15
50,REQ_TOK_START,1516051018846,16
50,REQ_TOK_END,1516051018854,16
50,REQ_SINF_START,1516051018854,17
50,REQ_SINF_END,1516051018860,17
50,WS_OPEN_START,1516051018860,18
50,WS_OPEN_END,1516051018867,18
50,WS_RECV_START,1516051018867,19
50,WS_RECV_END,1516051018867,19
50,PLAYER_SLEEPBEFORE_START,1516051018867,20
50,PLAYER_SLEEPBEFORE_END,1516051018873,20
50,WS_SEND_START,1516051018873,20
50,WS_SEND_END,1516051018873,20
50,PLAYER_SLEEPBEFORE_START,1516051018873,21
50,PLAYER_SLEEPBEFORE_END,1516051018875,21
50,WS_SEND_START,1516051018875,21
50,WS_SEND_END,1516051018875,21
50,WS_RECV_INIT_START,1516051018875,22
50,WS_RECV_INIT_END,1516051018899,22
50,WS_RECV_START,1516051018899,23
50,WS_RECV_END,1516051018989,23
50,PLAYER_SLEEPBEFORE_START,1516051018989,24
50,PLAYER_SLEEPBEFORE_END,1516051018996,24
50,REQ_START,1516051018996,24
50,REQ_END,1516051019145,24
50,PLAYER_SLEEPBEFORE_START,1516051019145,25
50,PLAYER_SLEEPBEFORE_END,1516051019147,25
50,REQ_START,1516051019147,25
50,REQ_END,1516051019186,25
50,PLAYER_SLEEPBEFORE_START,1516051019186,26
50,PLAYER_SLEEPBEFORE_END,1516051019189,26
50,REQ_START,1516051019189,26
50,REQ_END,1516051019223,26
50,PLAYER_SLEEPBEFORE_START,1516051019223,27
50,PLAYER_SLEEPBEFORE_END,1516051019480,27
50,REQ_START,1516051019480,27
50,REQ_END,1516051019518,27
50,PLAYER_SLEEPBEFORE_START,1516051019518,28
50,PLAYER_SLEEPBEFORE_END,1516051019716,28
50,WS_SEND_START,1516051019716,28
50,WS_SEND_END,1516051019717,28
50,WS_RECV_START,1516051019717,29
50,WS_RECV_END,1516051019915,29
50,PLAYER_SLEEPBEFORE_START,1516051019915,30
50,PLAYER_SLEEPBEFORE_END,1516051019926,30
50,REQ_START,1516051019926,30
50,REQ_END,1516051019966,30
50,PLAYER_SLEEPBEFORE_START,1516051019966,31
50,PLAYER_SLEEPBEFORE_END,1516051050086,31
50,WS_SEND_START,1516051050086,31
50,WS_SEND_END,1516051050086,31
50,WS_RECV_START,1516051050086,32
50,WS_RECV_END,1516051052939,32
50,PLAYER_SLEEPBEFORE_START,1516051052939,33
50,PLAYER_SLEEPBEFORE_END,1516051077706,33
50,WS_SEND_START,1516051077706,33
50,WS_SEND_END,1516051077706,33
50,WS_RECV_START,1516051077706,34
50,WS_RECV_END,1516051082273,34
50,PLAYER_SLEEPBEFORE_START,1516051082273,35
50,PLAYER_SLEEPBEFORE_END,1516051107086,35
50,WS_SEND_START,1516051107086,35
50,WS_SEND_END,1516051107086,35
50,WS_RECV_START,1516051107086,36
50,WS_RECV_END,1516051108764,36
50,PLAYER_SLEEPBEFORE_START,1516051108764,37
50,PLAYER_SLEEPBEFORE_END,1516051108773,37
50,WS_SEND_START,1516051108773,37
50,WS_SEND_END,1516051108773,37
50,WS_RECV_START,1516051108773,38
50,WS_RECV_END,1516051109987,38
50,PLAYER_SLEEPBEFORE_START,1516051109987,39
50,PLAYER_SLEEPBEFORE_END,1516051112684,39
50,WS_SEND_START,1516051112684,39
50,WS_SEND_END,1516051112684,39
50,WS_RECV_START,1516051112684,40
50,WS_RECV_END,1516051113852,40
50,PLAYER_SLEEPBEFORE_START,1516051113852,41
50,PLAYER_SLEEPBEFORE_END,1516051114972,41
50,WS_SEND_START,1516051114972,41
50,WS_SEND_END,1516051114972,41
50,WS_RECV_START,1516051114972,42
50,WS_RECV_END,1516051118473,42
50,PLAYER_SLEEPBEFORE_START,1516051118473,43
50,PLAYER_SLEEPBEFORE_END,1516051118501,43
50,WS_SEND_START,1516051118501,43
50,WS_SEND_END,1516051118501,43
50,WS_RECV_START,1516051118501,44
50,WS_RECV_END,1516051119287,44
50,PLAYER_SLEEPBEFORE_START,1516051119287,45
50,PLAYER_SLEEPBEFORE_END,1516051140776,45
50,WS_SEND_START,1516051140776,45
50,WS_SEND_END,1516051140776,45
50,WS_RECV_START,1516051140776,46
50,WS_RECV_END,1516051140899,46
50,PLAYER_SLEEPBEFORE_START,1516051140899,47
50,PLAYER_SLEEPBEFORE_END,1516051169384,47
50,WS_SEND_START,1516051169384,47
50,WS_SEND_END,1516051169384,47
50,WS_RECV_START,1516051169384,48
50,WS_RECV_END,1516051169647,48
50,PLAYER_SLEEPBEFORE_START,1516051169647,49
50,PLAYER_SLEEPBEFORE_END,1516051196056,49
50,WS_SEND_START,1516051196056,49
50,WS_SEND_END,1516051196056,49
50,WS_RECV_START,1516051196056,50
50,WS_RECV_END,1516051196326,50
50,PLAYER_SLEEPBEFORE_START,1516051196326,51
50,PLAYER_SLEEPBEFORE_END,1516051218877,51
50,WS_SEND_START,1516051218877,51
50,WS_SEND_END,1516051218877,51
50,WS_RECV_START,1516051218877,52
50,WS_RECV_END,1516051219099,52
50,PLAYER_SLEEPBEFORE_START,1516051219099,53
50,PLAYER_SLEEPBEFORE_END,1516051244003,53
50,WS_SEND_START,1516051244003,53
50,WS_SEND_END,1516051244003,53
50,WS_RECV_START,1516051244003,54
50,WS_RECV_END,1516051244132,54
50,PLAYER_SLEEPBEFORE_START,1516051244132,55
50,PLAYER_SLEEPBEFORE_END,1516051269533,55
50,WS_SEND_START,1516051269533,55
50,WS_SEND_END,1516051269533,55
50,WS_RECV_START,1516051269533,56
50,WS_RECV_END,1516051272409,56
50,PLAYER_SLEEPBEFORE_START,1516051272409,57
50,PLAYER_SLEEPBEFORE_END,1516051297747,57
50,WS_SEND_START,1516051297747,57
50,WS_SEND_END,1516051297747,57
50,WS_RECV_START,1516051297747,58
50,WS_RECV_END,1516051299813,58
50,PLAYER_SLEEPBEFORE_START,1516051299813,59
50,PLAYER_SLEEPBEFORE_END,1516051326670,59
50,WS_SEND_START,1516051326670,59
50,WS_SEND_END,1516051326670,59
50,WS_RECV_START,1516051326670,60
50,WS_RECV_END,1516051331840,60
50,PLAYER_SLEEPBEFORE_START,1516051331840,61
50,PLAYER_SLEEPBEFORE_END,1516051331863,61
50,WS_SEND_START,1516051331863,61
50,WS_SEND_END,1516051331863,61
50,WS_RECV_START,1516051331863,62
50,WS_RECV_END,1516051334056,62
50,PLAYER_SLEEPBEFORE_START,1516051334056,63
50,PLAYER_SLEEPBEFORE_END,1516051343060,63
50,REQ_START,1516051343060,63
50,REQ_END,1516051343069,63
50,PLAYER_SLEEPBEFORE_START,1516051343069,64
50,PLAYER_SLEEPBEFORE_END,1516051357275,64
50,WS_SEND_START,1516051357275,64
50,WS_SEND_END,1516051357275,64
50,WS_RECV_START,1516051357275,65
50,WS_RECV_END,1516051360766,65
50,PLAYER_SLEEPBEFORE_START,1516051360767,66
50,PLAYER_SLEEPBEFORE_END,1516051384754,66
50,WS_SEND_START,1516051384754,66
50,WS_SEND_END,1516051384754,66
50,WS_RECV_START,1516051384754,67
50,WS_RECV_END,1516051390925,67
50,PLAYER_SLEEPBEFORE_START,1516051390925,68
50,PLAYER_SLEEPBEFORE_END,1516051416499,68
50,WS_SEND_START,1516051416499,68
50,WS_SEND_END,1516051416499,68
50,WS_RECV_START,1516051416499,69
50,WS_RECV_END,1516051424968,69
50,PLAYER_SLEEPBEFORE_START,1516051424968,70
50,PLAYER_SLEEPBEFORE_END,1516051424977,70
50,WS_SEND_START,1516051424977,70
50,WS_SEND_END,1516051424977,70
50,WS_RECV_START,1516051424977,71
50,WS_RECV_END,1516051429211,71
50,PLAYER_SLEEPBEFORE_START,1516051429211,72
50,PLAYER_SLEEPBEFORE_END,1516051429416,72
50,WS_SEND_START,1516051429416,72
50,WS_SEND_END,1516051429417,72
50,WS_RECV_START,1516051429417,73
50,WS_RECV_END,1516051433663,73
50,PLAYER_SLEEPBEFORE_START,1516051433663,74
50,PLAYER_SLEEPBEFORE_END,1516051435085,74
50,WS_SEND_START,1516051435085,74
50,WS_SEND_END,1516051435085,74
50,WS_RECV_START,1516051435085,75
50,WS_RECV_END,1516051442864,75
50,PLAYER_SLEEPBEFORE_START,1516051442864,76
50,PLAYER_SLEEPBEFORE_END,1516051443359,76
50,WS_SEND_START,1516051443359,76
50,WS_SEND_END,1516051443359,76
50,WS_RECV_START,1516051443359,77
50,WS_RECV_END,1516051446619,77
50,PLAYER_SLEEPBEFORE_START,1516051446619,78
50,PLAYER_SLEEPBEFORE_END,1516051446637,78
50,WS_SEND_START,1516051446637,78
50,WS_SEND_END,1516051446637,78
50,WS_RECV_START,1516051446637,79
50,WS_RECV_END,1516051448711,79
50,PLAYER_SLEEPBEFORE_START,1516051448711,80
50,PLAYER_SLEEPBEFORE_END,1516051469445,80
50,WS_SEND_START,1516051469445,80
50,WS_SEND_END,1516051469445,80
50,WS_RECV_START,1516051469445,81
50,WS_RECV_END,1516051472775,81
50,PLAYER_SLEEPBEFORE_START,1516051472775,82
50,PLAYER_SLEEPBEFORE_END,1516051472786,82
50,WS_SEND_START,1516051472786,82
50,WS_SEND_END,1516051472786,82
50,WS_RECV_START,1516051472786,83
50,WS_RECV_END,1516051483483,83
50,PLAYER_SLEEPBEFORE_START,1516051483483,84
50,PLAYER_SLEEPBEFORE_END,1516051484346,84
50,WS_SEND_START,1516051484346,84
50,WS_SEND_END,1516051484346,84
50,WS_RECV_START,1516051484346,85
50,WS_RECV_END,1516051490513,85
50,PLAYER_SLEEPBEFORE_START,1516051490513,86
50,PLAYER_SLEEPBEFORE_END,1516051491240,86
50,WS_SEND_START,1516051491240,86
50,WS_SEND_END,1516051491240,86
50,WS_RECV_START,1516051491240,87
50,WS_RECV_END,1516051493264,87
50,PLAYER_SLEEPBEFORE_START,1516051493264,88
50,PLAYER_SLEEPBEFORE_END,1516051493285,88
50,WS_SEND_START,1516051493285,88
50,WS_SEND_END,1516051493285,88
50,WS_RECV_START,1516051493285,89
50,WS_RECV_END,1516051494832,89
50,PLAYER_SLEEPBEFORE_START,1516051494832,90
50,PLAYER_SLEEPBEFORE_END,1516051516261,90
50,WS_SEND_START,1516051516261,90
50,WS_SEND_END,1516051516261,90
50,PLAYER_SLEEPBEFORE_START,1516051516261,91
50,PLAYER_SLEEPBEFORE_END,1516051543116,91
50,WS_SEND_START,1516051543116,91
50,WS_SEND_END,1516051543116,91
50,WS_RECV_START,1516051543116,92
50,WS_RECV_END,1516051544860,92
50,PLAYER_SLEEPBEFORE_START,1516051544860,93
50,PLAYER_SLEEPBEFORE_END,1516051547134,93
50,WS_SEND_START,1516051547134,93
50,WS_SEND_END,1516051547134,93
50,WS_RECV_START,1516051547134,94
50,WS_RECV_END,1516051547611,94
50,PLAYER_SLEEPBEFORE_START,1516051547611,95
50,PLAYER_SLEEPBEFORE_END,1516051573607,95
50,WS_SEND_START,1516051573607,95
50,WS_SEND_END,1516051573607,95
50,WS_RECV_START,1516051573607,96
50,WS_RECV_END,1516051580903,96
50,PLAYER_SLEEPBEFORE_START,1516051580903,97
50,PLAYER_SLEEPBEFORE_END,1516051585991,97
50,WS_SEND_START,1516051585991,97
50,WS_SEND_END,1516051585991,97
50,WS_RECV_START,1516051585991,98
50,WS_RECV_END,1516051598073,98
50,PLAYER_SLEEPBEFORE_START,1516051598073,99
50,PLAYER_SLEEPBEFORE_END,1516051599774,99
50,WS_SEND_START,1516051599774,99
50,WS_SEND_END,1516051599774,99
50,WS_RECV_START,1516051599774,100
50,WS_RECV_END,1516051607653,100
50,PLAYER_SLEEPBEFORE_START,1516051607653,101
50,PLAYER_SLEEPBEFORE_END,1516051609492,101
50,WS_SEND_START,1516051609492,101
50,WS_SEND_END,1516051609492,101
50,WS_RECV_START,1516051609492,102
50,WS_RECV_END,1516051615755,102
50,PLAYER_SLEEPBEFORE_START,1516051615755,103
50,PLAYER_SLEEPBEFORE_END,1516051628806,103
50,WS_SEND_START,1516051628806,103
50,WS_SEND_END,1516051628806,103
50,PLAYER_SLEEPBEFORE_START,1516051628806,104
50,PLAYER_SLEEPBEFORE_END,1516051633232,104
50,WS_SEND_START,1516051633232,104
50,WS_SEND_END,1516051633232,104
50,WS_RECV_START,1516051633232,105
50,WS_RECV_END,1516051637024,105
50,PLAYER_SLEEPBEFORE_START,1516051637024,106
50,PLAYER_SLEEPBEFORE_END,1516051637033,106
50,WS_SEND_START,1516051637033,106
50,WS_SEND_END,1516051637033,106
50,WS_RECV_START,1516051637033,107
50,WS_RECV_END,1516051637863,107
50,PLAYER_SLEEPBEFORE_START,1516051637863,108
50,PLAYER_SLEEPBEFORE_END,1516051638327,108
50,WS_SEND_START,1516051638327,108
50,WS_SEND_END,1516051638327,108
50,WS_RECV_START,1516051638327,109
50,WS_RECV_END,1516051639671,109
50,PLAYER_SLEEPBEFORE_START,1516051639671,110
50,PLAYER_SLEEPBEFORE_END,1516051639686,110
50,WS_SEND_START,1516051639686,110
50,WS_SEND_END,1516051639686,110
50,WS_RECV_START,1516051639686,111
50,WS_RECV_END,1516051642813,111
50,PLAYER_SLEEPBEFORE_START,1516051642813,112
50,PLAYER_SLEEPBEFORE_END,1516051663577,112
50,WS_SEND_START,1516051663577,112
50,WS_SEND_END,1516051663577,112
50,PLAYER_SLEEPBEFORE_START,1516051663577,113
50,PLAYER_SLEEPBEFORE_END,1516051665971,113
50,WS_SEND_START,1516051665971,113
50,WS_SEND_END,1516051665971,113
50,WS_RECV_START,1516051665971,114
50,WS_RECV_END,1516051671753,114
50,PLAYER_SLEEPBEFORE_START,1516051671753,115
50,PLAYER_SLEEPBEFORE_END,1516051672536,115
50,WS_SEND_START,1516051672536,115
50,WS_SEND_END,1516051672536,115
50,WS_RECV_START,1516051672536,116
50,WS_RECV_END,1516051675897,116
50,PLAYER_SLEEPBEFORE_START,1516051675897,117
50,PLAYER_SLEEPBEFORE_END,1516051698282,117
50,WS_SEND_START,1516051698282,117
50,WS_SEND_END,1516051698283,117
50,WS_RECV_START,1516051698283,118
50,WS_RECV_END,1516051704190,118
50,PLAYER_SLEEPBEFORE_START,1516051704190,119
50,PLAYER_SLEEPBEFORE_END,1516051706094,119
50,WS_SEND_START,1516051706094,119
50,WS_SEND_END,1516051706094,119
50,WS_RECV_START,1516051706094,120
50,WS_RECV_END,1516051713114,120
50,PLAYER_SLEEPBEFORE_START,1516051713114,121
50,PLAYER_SLEEPBEFORE_END,1516051714266,121
50,WS_SEND_START,1516051714266,121
50,WS_SEND_END,1516051714266,121
50,WS_RECV_START,1516051714266,122
50,WS_RECV_END,1516051716617,122
50,PLAYER_SLEEPBEFORE_START,1516051716617,123
50,PLAYER_SLEEPBEFORE_END,1516051717741,123
50,WS_SEND_START,1516051717741,123
50,WS_SEND_END,1516051717741,123
50,WS_RECV_START,1516051717741,124
50,WS_RECV_END,1516051723601,124
50,PLAYER_SLEEPBEFORE_START,1516051723601,125
50,PLAYER_SLEEPBEFORE_END,1516051725097,125
50,WS_SEND_START,1516051725097,125
50,WS_SEND_END,1516051725097,125
50,WS_RECV_START,1516051725097,126
50,WS_RECV_END,1516051729017,126
50,PLAYER_SLEEPBEFORE_START,1516051729017,127
50,PLAYER_SLEEPBEFORE_END,1516051749627,127
50,WS_SEND_START,1516051749627,127
50,WS_SEND_END,1516051749627,127
50,WS_RECV_START,1516051749627,128
50,WS_RECV_END,1516051756504,128
50,PLAYER_SLEEPBEFORE_START,1516051756504,129
50,PLAYER_SLEEPBEFORE_END,1516051781535,129
50,WS_SEND_START,1516051781535,129
50,WS_SEND_END,1516051781535,129
50,PLAYER_SLEEPBEFORE_START,1516051781535,130
50,PLAYER_SLEEPBEFORE_END,1516051783515,130
50,WS_SEND_START,1516051783515,130
50,WS_SEND_END,1516051783515,130
50,WS_RECV_START,1516051783515,131
50,WS_RECV_END,1516051788659,131
50,PLAYER_SLEEPBEFORE_START,1516051788659,132
50,PLAYER_SLEEPBEFORE_END,1516051788669,132
50,WS_SEND_START,1516051788669,132
50,WS_SEND_END,1516051788669,132
50,WS_RECV_START,1516051788669,133
50,WS_RECV_END,1516051791734,133
50,PLAYER_SLEEPBEFORE_START,1516051791735,134
50,PLAYER_SLEEPBEFORE_END,1516051792811,134
50,REQ_START,1516051792811,134
50,REQ_END,1516051792820,134
50,PLAYER_SLEEPBEFORE_START,1516051792820,135
50,PLAYER_SLEEPBEFORE_END,1516051793410,135
50,WS_SEND_START,1516051793410,135
50,WS_SEND_END,1516051793410,135
50,WS_RECV_START,1516051793410,136
50,WS_RECV_END,1516051797981,136
50,PLAYER_SLEEPBEFORE_START,1516051797981,137
50,PLAYER_SLEEPBEFORE_END,1516051797994,137
50,WS_SEND_START,1516051797994,137
50,WS_SEND_END,1516051797994,137
50,WS_RECV_START,1516051797994,138
50,WS_RECV_END,1516051801624,138
50,PLAYER_SLEEPBEFORE_START,1516051801624,139
50,PLAYER_SLEEPBEFORE_END,1516051819298,139
50,WS_SEND_START,1516051819298,139
50,WS_SEND_END,1516051819299,139
50,PLAYER_SLEEPBEFORE_START,1516051819299,140
50,PLAYER_SLEEPBEFORE_END,1516051823202,140
50,WS_SEND_START,1516051823202,140
50,WS_SEND_END,1516051823202,140
50,PLAYER_SLEEPBEFORE_START,1516051823202,141
50,PLAYER_SLEEPBEFORE_END,1516051825494,141
50,WS_SEND_START,1516051825494,141
50,WS_SEND_END,1516051825494,141
50,WS_RECV_START,1516051825494,142
50,WS_RECV_END,1516051838453,142
50,PLAYER_SLEEPBEFORE_START,1516051838453,143
50,PLAYER_SLEEPBEFORE_END,1516051838461,143
50,WS_SEND_START,1516051838461,143
50,WS_SEND_END,1516051838461,143
50,WS_RECV_START,1516051838461,144
50,WS_RECV_END,1516051845742,144
50,PLAYER_SLEEPBEFORE_START,1516051845742,145
50,PLAYER_SLEEPBEFORE_END,1516051847485,145
50,WS_SEND_START,1516051847485,145
50,WS_SEND_END,1516051847485,145
50,WS_RECV_START,1516051847485,146
50,WS_RECV_END,1516051854980,146
50,PLAYER_SLEEPBEFORE_START,1516051854980,147
50,PLAYER_SLEEPBEFORE_END,1516051854989,147
50,WS_SEND_START,1516051854989,147
50,WS_SEND_END,1516051854990,147
50,WS_RECV_START,1516051854990,148
50,WS_RECV_END,1516051857392,148
50,PLAYER_SLEEPBEFORE_START,1516051857392,149
50,PLAYER_SLEEPBEFORE_END,1516051872505,149
50,WS_SEND_START,1516051872505,149
50,WS_SEND_END,1516051872506,149
50,PLAYER_SLEEPBEFORE_START,1516051872506,150
50,PLAYER_SLEEPBEFORE_END,1516051883181,150
50,WS_SEND_START,1516051883181,150
50,WS_SEND_END,1516051883181,150
50,PLAYER_SLEEPBEFORE_START,1516051883181,151
50,PLAYER_SLEEPBEFORE_END,1516051886172,151
50,WS_SEND_START,1516051886172,151
50,WS_SEND_END,1516051886172,151
50,WS_RECV_START,1516051886172,152
50,WS_RECV_END,1516051889429,152
50,PLAYER_SLEEPBEFORE_START,1516051889429,153
50,PLAYER_SLEEPBEFORE_END,1516051889436,153
50,WS_SEND_START,1516051889436,153
50,WS_SEND_END,1516051889436,153
50,WS_RECV_START,1516051889436,154
50,WS_RECV_END,1516051890806,154
50,PLAYER_SLEEPBEFORE_START,1516051890806,155
50,PLAYER_SLEEPBEFORE_END,1516051891415,155
50,WS_SEND_START,1516051891415,155
50,WS_SEND_END,1516051891415,155
50,WS_RECV_START,1516051891415,156
50,WS_RECV_END,1516051896168,156
50,PLAYER_SLEEPBEFORE_START,1516051896168,157
50,PLAYER_SLEEPBEFORE_END,1516051897511,157
50,WS_SEND_START,1516051897511,157
50,WS_SEND_END,1516051897511,157
50,WS_RECV_START,1516051897511,158
50,WS_RECV_END,1516051905591,158
50,PLAYER_SLEEPBEFORE_START,1516051905591,159
50,PLAYER_SLEEPBEFORE_END,1516051909491,159
50,WS_SEND_START,1516051909491,159
50,WS_SEND_END,1516051909491,159
50,WS_RECV_START,1516051909491,160
50,WS_RECV_END,1516051911189,160
50,PLAYER_SLEEPBEFORE_START,1516051911189,161
50,PLAYER_SLEEPBEFORE_END,1516051911972,161
50,WS_SEND_START,1516051911972,161
50,WS_SEND_END,1516051911973,161
50,WS_RECV_START,1516051911973,162
50,WS_RECV_END,1516051915764,162
50,PLAYER_SLEEPBEFORE_START,1516051915764,163
50,PLAYER_SLEEPBEFORE_END,1516051915773,163
50,WS_SEND_START,1516051915773,163
50,WS_SEND_END,1516051915773,163
50,WS_RECV_START,1516051915773,164
50,WS_RECV_END,1516051917357,164
50,PLAYER_SLEEPBEFORE_START,1516051917357,165
50,PLAYER_SLEEPBEFORE_END,1516051924730,165
50,WS_SEND_START,1516051924730,165
50,WS_SEND_END,1516051924730,165
50,WS_RECV_START,1516051924730,166
50,WS_RECV_END,1516051933993,166
50,PLAYER_SLEEPBEFORE_START,1516051933993,167
50,PLAYER_SLEEPBEFORE_END,1516051955243,167
50,WS_SEND_START,1516051955243,167
50,WS_SEND_END,1516051955243,167
50,PLAYER_SLEEPBEFORE_START,1516051955243,168
50,PLAYER_SLEEPBEFORE_END,1516051959978,168
50,WS_SEND_START,1516051959978,168
50,WS_SEND_END,1516051959978,168
50,PLAYER_SLEEPBEFORE_START,1516051959978,169
50,PLAYER_SLEEPBEFORE_END,1516051961529,169
50,WS_SEND_START,1516051961529,169
50,WS_SEND_END,1516051961529,169
50,WS_RECV_START,1516051961529,170
50,WS_RECV_END,1516051962117,170
50,PLAYER_SLEEPBEFORE_START,1516051962117,171
50,PLAYER_SLEEPBEFORE_END,1516051962124,171
50,WS_SEND_START,1516051962124,171
50,WS_SEND_END,1516051962124,171
50,WS_RECV_START,1516051962124,172
50,WS_RECV_END,1516051965234,172
50,PLAYER_SLEEPBEFORE_START,1516051965234,173
50,PLAYER_SLEEPBEFORE_END,1516051966002,173
50,WS_SEND_START,1516051966002,173
50,WS_SEND_END,1516051966002,173
50,WS_RECV_START,1516051966002,174
50,WS_RECV_END,1516051972376,174
50,PLAYER_SLEEPBEFORE_START,1516051972376,175
50,PLAYER_SLEEPBEFORE_END,1516051973137,175
50,WS_SEND_START,1516051973137,175
50,WS_SEND_END,1516051973137,175
50,WS_RECV_START,1516051973137,176
50,WS_RECV_END,1516051977772,176
50,PLAYER_SLEEPBEFORE_START,1516051977772,177
50,PLAYER_SLEEPBEFORE_END,1516051978572,177
50,WS_SEND_START,1516051978572,177
50,WS_SEND_END,1516051978572,177
50,WS_RECV_START,1516051978572,178
50,WS_RECV_END,1516051982849,178
50,PLAYER_SLEEPBEFORE_START,1516051982849,179
50,PLAYER_SLEEPBEFORE_END,1516051988104,179
50,WS_SEND_START,1516051988104,179
50,WS_SEND_END,1516051988104,179
50,PLAYER_SLEEPBEFORE_START,1516051988104,180
50,PLAYER_SLEEPBEFORE_END,1516051994722,180
50,WS_SEND_START,1516051994722,180
50,WS_SEND_END,1516051994722,180
50,PLAYER_SLEEPBEFORE_START,1516051994722,181
50,PLAYER_SLEEPBEFORE_END,1516051996458,181
50,WS_SEND_START,1516051996458,181
50,WS_SEND_END,1516051996458,181
50,WS_RECV_START,1516051996458,182
50,WS_RECV_END,1516052000425,182
50,PLAYER_SLEEPBEFORE_START,1516052000425,183
50,PLAYER_SLEEPBEFORE_END,1516052001162,183
50,WS_SEND_START,1516052001162,183
50,WS_SEND_END,1516052001162,183
50,WS_RECV_START,1516052001162,184
50,WS_RECV_END,1516052003241,184
50,PLAYER_SLEEPBEFORE_START,1516052003241,185
50,PLAYER_SLEEPBEFORE_END,1516052003254,185
50,WS_SEND_START,1516052003254,185
50,WS_SEND_END,1516052003254,185
50,WS_RECV_START,1516052003254,186
50,WS_RECV_END,1516052003968,186
50,PLAYER_SLEEPBEFORE_START,1516052003968,187
50,PLAYER_SLEEPBEFORE_END,1516052028975,187
50,WS_SEND_START,1516052028975,187
50,WS_SEND_END,1516052028975,187
50,WS_RECV_START,1516052028975,188
50,WS_RECV_END,1516052034720,188
50,PLAYER_SLEEPBEFORE_START,1516052034720,189
50,PLAYER_SLEEPBEFORE_END,1516052059943,189
50,WS_SEND_START,1516052059943,189
50,WS_SEND_END,1516052059943,189
50,WS_RECV_START,1516052059943,190
50,WS_RECV_END,1516052062769,190
50,PLAYER_SLEEPBEFORE_START,1516052062769,191
50,PLAYER_SLEEPBEFORE_END,1516052062774,191
50,WS_SEND_START,1516052062774,191
50,WS_SEND_END,1516052062774,191
50,WS_RECV_START,1516052062774,192
50,WS_RECV_END,1516052063218,192
50,PLAYER_SLEEPBEFORE_START,1516052063218,193
50,PLAYER_SLEEPBEFORE_END,1516052063655,193
50,WS_SEND_START,1516052063655,193
50,WS_SEND_END,1516052063655,193
50,WS_RECV_START,1516052063655,194
50,WS_RECV_END,1516052066813,194
50,PLAYER_SLEEPBEFORE_START,1516052066813,195
50,PLAYER_SLEEPBEFORE_END,1516052066826,195
50,WS_SEND_START,1516052066826,195
50,WS_SEND_END,1516052066826,195
50,WS_RECV_START,1516052066826,196
50,WS_RECV_END,1516052071099,196
50,PLAYER_SLEEPBEFORE_START,1516052071099,197
50,PLAYER_SLEEPBEFORE_END,1516052095869,197
50,WS_SEND_START,1516052095870,197
50,WS_SEND_END,1516052095870,197
50,WS_RECV_START,1516052095870,198
50,WS_RECV_END,1516052096050,198
50,PLAYER_SLEEPBEFORE_START,1516052096050,199
50,PLAYER_SLEEPBEFORE_END,1516052096057,199
50,WS_SEND_START,1516052096057,199
50,WS_SEND_END,1516052096057,199
50,WS_RECV_START,1516052096057,200
50,WS_RECV_END,1516052096230,200
50,PLAYER_SLEEPBEFORE_START,1516052096230,201
50,PLAYER_SLEEPBEFORE_END,1516052097527,201
50,WS_SEND_START,1516052097527,201
50,WS_SEND_END,1516052097527,201
50,WS_RECV_START,1516052097527,202
50,WS_RECV_END,1516052099318,202
50,PLAYER_SLEEPBEFORE_START,1516052099318,203
50,PLAYER_SLEEPBEFORE_END,1516052099330,203
50,WS_SEND_START,1516052099330,203
50,WS_SEND_END,1516052099330,203
50,WS_RECV_START,1516052099330,204
50,WS_RECV_END,1516052105042,204
50,PLAYER_SLEEPBEFORE_START,1516052105043,205
50,PLAYER_SLEEPBEFORE_END,1516052126674,205
50,WS_SEND_START,1516052126674,205
50,WS_SEND_END,1516052126674,205
50,WS_RECV_START,1516052126674,206
50,WS_RECV_END,1516052139053,206
50,PLAYER_SLEEPBEFORE_START,1516052139053,207
50,PLAYER_SLEEPBEFORE_END,1516052163176,207
50,WS_SEND_START,1516052163176,207
50,WS_SEND_END,1516052163176,207
50,WS_RECV_START,1516052163176,208
50,WS_RECV_END,1516052166475,208
50,PLAYER_SLEEPBEFORE_START,1516052166475,209
50,PLAYER_SLEEPBEFORE_END,1516052172889,209
50,WS_SEND_START,1516052172889,209
50,WS_SEND_END,1516052172889,209
50,WS_RECV_START,1516052172889,210
50,WS_RECV_END,1516052187505,210
50,PLAYER_SLEEPBEFORE_START,1516052187505,211
50,PLAYER_SLEEPBEFORE_END,1516052206337,211
50,WS_SEND_START,1516052206337,211
50,WS_SEND_END,1516052206337,211
50,WS_RECV_START,1516052206337,212
50,WS_RECV_END,1516052224788,212
50,PLAYER_SLEEPBEFORE_START,1516052224788,213
50,PLAYER_SLEEPBEFORE_END,1516052249841,213
50,WS_SEND_START,1516052249841,213
50,WS_SEND_END,1516052249841,213
50,WS_RECV_START,1516052249841,214
50,WS_RECV_END,1516052255177,214
50,PLAYER_SLEEPBEFORE_START,1516052255177,215
50,PLAYER_SLEEPBEFORE_END,1516052263288,215
50,REQ_START,1516052263288,215
50,REQ_END,1516052263296,215
50,PLAYER_SLEEPBEFORE_START,1516052263296,216
50,PLAYER_SLEEPBEFORE_END,1516052279858,216
50,WS_SEND_START,1516052279858,216
50,WS_SEND_END,1516052279858,216
50,WS_RECV_START,1516052279858,217
50,WS_RECV_END,1516052280561,217
50,PLAYER_SLEEPBEFORE_START,1516052280561,218
50,PLAYER_SLEEPBEFORE_END,1516052280568,218
50,WS_SEND_START,1516052280568,218
50,WS_SEND_END,1516052280568,218
50,WS_RECV_START,1516052280568,219
50,WS_RECV_END,1516052280614,219
50,PLAYER_SLEEPBEFORE_START,1516052280614,220
50,PLAYER_SLEEPBEFORE_END,1516052281382,220
50,WS_SEND_START,1516052281382,220
50,WS_SEND_END,1516052281382,220
50,WS_RECV_START,1516052281382,221
50,WS_RECV_END,1516052285153,221
50,PLAYER_SLEEPBEFORE_START,1516052285153,222
50,PLAYER_SLEEPBEFORE_END,1516052285210,222
50,WS_SEND_START,1516052285210,222
50,WS_SEND_END,1516052285210,222
50,WS_RECV_START,1516052285210,223
50,WS_RECV_END,1516052286472,223
50,PLAYER_SLEEPBEFORE_START,1516052286472,224
50,PLAYER_SLEEPBEFORE_END,1516052309128,224
50,WS_SEND_START,1516052309128,224
50,WS_SEND_END,1516052309128,224
50,WS_RECV_START,1516052309128,225
50,WS_RECV_END,1516052309394,225
50,PLAYER_SLEEPBEFORE_START,1516052309394,226
50,PLAYER_SLEEPBEFORE_END,1516052335129,226
50,WS_SEND_START,1516052335129,226
50,WS_SEND_END,1516052335129,226
50,WS_RECV_START,1516052335129,227
50,WS_RECV_END,1516052335257,227
50,PLAYER_SLEEPBEFORE_START,1516052335257,228
50,PLAYER_SLEEPBEFORE_END,1516052358251,228
50,WS_SEND_START,1516052358251,228
50,WS_SEND_END,1516052358251,228
50,WS_RECV_START,1516052358251,229
50,WS_RECV_END,1516052358385,229
50,PLAYER_SLEEPBEFORE_START,1516052358385,230
50,PLAYER_SLEEPBEFORE_END,1516052382601,230
50,WS_SEND_START,1516052382601,230
50,WS_SEND_END,1516052382601,230
50,WS_RECV_START,1516052382601,231
50,WS_RECV_END,1516052384629,231
50,PLAYER_SLEEPBEFORE_START,1516052384629,232
50,PLAYER_SLEEPBEFORE_END,1516052409385,232
50,WS_SEND_START,1516052409385,232
50,WS_SEND_END,1516052409385,232
50,WS_RECV_START,1516052409385,233
50,WS_RECV_END,1516052416852,233
50,PLAYER_SLEEPBEFORE_START,1516052416852,234
50,PLAYER_SLEEPBEFORE_END,1516052443886,234
50,WS_SEND_START,1516052443886,234
50,WS_SEND_END,1516052443886,234
50,WS_RECV_START,1516052443886,235
50,WS_RECV_END,1516052456555,235
50,PLAYER_SLEEPBEFORE_START,1516052456555,236
50,PLAYER_SLEEPBEFORE_END,1516052480396,236
50,WS_SEND_START,1516052480396,236
50,WS_SEND_END,1516052480396,236
50,WS_RECV_START,1516052480396,237
50,WS_RECV_END,1516052492312,237
50,PLAYER_SLEEPBEFORE_START,1516052492313,238
50,PLAYER_SLEEPBEFORE_END,1516052505123,238
50,WS_SEND_START,1516052505123,238
50,WS_SEND_END,1516052505123,238
50,WS_RECV_START,1516052505123,239
50,WS_RECV_END,1516052515912,239
50,PLAYER_SLEEPBEFORE_START,1516052515912,240
50,PLAYER_SLEEPBEFORE_END,1516052528568,240
50,WS_SEND_START,1516052528568,240
50,WS_SEND_END,1516052528568,240
50,WS_RECV_START,1516052528568,241
50,WS_RECV_END,1516052553408,241
50,PLAYER_SLEEPBEFORE_START,1516052553408,242
50,PLAYER_SLEEPBEFORE_END,1516052553431,242
50,WS_SEND_START,1516052553431,242
50,WS_SEND_END,1516052553431,242
50,WS_RECV_START,1516052553431,243
50,WS_RECV_END,1516052560442,243
50,PLAYER_SLEEPBEFORE_START,1516052560442,244
50,PLAYER_SLEEPBEFORE_END,1516052582680,244
50,WS_SEND_START,1516052582680,244
50,WS_SEND_END,1516052582680,244
50,WS_RECV_START,1516052582680,245
50,WS_RECV_END,1516052598034,245
50,PLAYER_SLEEPBEFORE_START,1516052598034,246
50,PLAYER_SLEEPBEFORE_END,1516052598043,246
50,WS_SEND_START,1516052598043,246
50,WS_SEND_END,1516052598043,246
50,WS_RECV_START,1516052598043,247
50,WS_RECV_END,1516052619593,247
50,PLAYER_SLEEPBEFORE_START,1516052619593,248
50,PLAYER_SLEEPBEFORE_END,1516052621630,248
50,WS_SEND_START,1516052621630,248
50,WS_SEND_END,1516052621630,248
50,WS_RECV_START,1516052621630,249
50,WS_RECV_END,1516052640310,249
50,PLAYER_SLEEPBEFORE_START,1516052640310,250
50,PLAYER_SLEEPBEFORE_END,1516052640347,250
50,WS_SEND_START,1516052640347,250
50,WS_SEND_END,1516052640347,250
50,WS_RECV_START,1516052640347,251
50,WS_RECV_END,1516052656046,251
50,PLAYER_SLEEPBEFORE_START,1516052656046,252
50,PLAYER_SLEEPBEFORE_END,1516052678688,252
50,WS_SEND_START,1516052678688,252
50,WS_SEND_END,1516052678688,252
50,WS_RECV_START,1516052678688,253
50,WS_RECV_END,1516052686659,253
50,PLAYER_SLEEPBEFORE_START,1516052686659,254
50,PLAYER_SLEEPBEFORE_END,1516052686675,254
50,WS_SEND_START,1516052686675,254
50,WS_SEND_END,1516052686675,254
50,WS_RECV_START,1516052686675,255
50,WS_RECV_END,1516052690966,255
50,PLAYER_SLEEPBEFORE_START,1516052690966,256
50,PLAYER_SLEEPBEFORE_END,1516052715588,256
50,WS_SEND_START,1516052715588,256
50,WS_SEND_END,1516052715588,256
50,WS_RECV_START,1516052715588,257
50,WS_RECV_END,1516052725177,257
50,PLAYER_SLEEPBEFORE_START,1516052725177,258
50,PLAYER_SLEEPBEFORE_END,1516052725186,258
50,WS_SEND_START,1516052725186,258
50,WS_SEND_END,1516052725186,258
50,WS_RECV_START,1516052725186,259
50,WS_RECV_END,1516052737393,259
50,PLAYER_SLEEPBEFORE_START,1516052737393,260
50,PLAYER_SLEEPBEFORE_END,1516052737917,260
50,WS_SEND_START,1516052737917,260
50,WS_SEND_END,1516052737917,260
50,WS_RECV_START,1516052737917,261
50,WS_RECV_END,1516052741135,261
50,PLAYER_SLEEPBEFORE_START,1516052741135,262
50,PLAYER_SLEEPBEFORE_END,1516052741407,262
50,WS_SEND_START,1516052741407,262
50,WS_SEND_END,1516052741407,262
50,WS_RECV_START,1516052741407,263
50,WS_RECV_END,1516052747642,263
50,PLAYER_SLEEPBEFORE_START,1516052747642,264
50,PLAYER_SLEEPBEFORE_END,1516052750055,264
50,WS_SEND_START,1516052750055,264
50,WS_SEND_END,1516052750055,264
50,WS_RECV_START,1516052750055,265
50,WS_RECV_END,1516052756592,265
50,PLAYER_SLEEPBEFORE_START,1516052756592,266
50,PLAYER_SLEEPBEFORE_END,1516052756605,266
50,WS_SEND_START,1516052756605,266
50,WS_SEND_END,1516052756605,266
50,WS_RECV_START,1516052756605,267
50,WS_RECV_END,1516052769103,267
50,PLAYER_SLEEPBEFORE_START,1516052769103,268
50,PLAYER_SLEEPBEFORE_END,1516052770573,268
50,REQ_START,1516052770573,268
50,REQ_END,1516052770582,268
50,PLAYER_SLEEPBEFORE_START,1516052770582,269
50,PLAYER_SLEEPBEFORE_END,1516052787976,269
50,WS_SEND_START,1516052787976,269
50,WS_SEND_END,1516052787976,269
50,WS_RECV_START,1516052787976,270
50,WS_RECV_END,1516052794804,270
50,PLAYER_SLEEPBEFORE_START,1516052794804,271
50,PLAYER_SLEEPBEFORE_END,1516052794811,271
50,WS_SEND_START,1516052794811,271
50,WS_SEND_END,1516052794811,271
50,WS_RECV_START,1516052794811,272
50,WS_RECV_END,1516052802137,272
50,PLAYER_SLEEPBEFORE_START,1516052802137,273
50,PLAYER_SLEEPBEFORE_END,1516052803434,273
50,WS_SEND_START,1516052803434,273
50,WS_SEND_END,1516052803434,273
50,WS_RECV_START,1516052803434,274
50,WS_RECV_END,1516052815054,274
50,PLAYER_SLEEPBEFORE_START,1516052815054,275
50,PLAYER_SLEEPBEFORE_END,1516052816227,275
50,WS_SEND_START,1516052816227,275
50,WS_SEND_END,1516052816227,275
50,WS_RECV_START,1516052816227,276
50,WS_RECV_END,1516052825487,276
50,PLAYER_SLEEPBEFORE_START,1516052825487,277
50,PLAYER_SLEEPBEFORE_END,1516052825509,277
50,WS_SEND_START,1516052825509,277
50,WS_SEND_END,1516052825509,277
50,WS_RECV_START,1516052825509,278
50,WS_RECV_END,1516052835654,278
50,PLAYER_SLEEPBEFORE_START,1516052835654,279
50,PLAYER_SLEEPBEFORE_END,1516052860177,279
50,WS_SEND_START,1516052860177,279
50,WS_SEND_END,1516052860177,279
50,WS_RECV_START,1516052860177,280
50,WS_RECV_END,1516052875988,280
50,PLAYER_SLEEPBEFORE_START,1516052875988,281
50,PLAYER_SLEEPBEFORE_END,1516052898276,281
50,WS_SEND_START,1516052898276,281
50,WS_SEND_END,1516052898276,281
50,WS_RECV_START,1516052898276,282
50,WS_RECV_END,1516052906708,282
50,PLAYER_SLEEPBEFORE_START,1516052906708,283
50,PLAYER_SLEEPBEFORE_END,1516052906726,283
50,WS_SEND_START,1516052906726,283
50,WS_SEND_END,1516052906726,283
50,WS_RECV_START,1516052906726,284
50,WS_RECV_END,1516052914230,284
50,PLAYER_SLEEPBEFORE_START,1516052914230,285
50,PLAYER_SLEEPBEFORE_END,1516052938362,285
50,WS_SEND_START,1516052938362,285
50,WS_SEND_END,1516052938362,285
50,WS_RECV_START,1516052938362,286
50,WS_RECV_END,1516052958004,286
50,PLAYER_SLEEPBEFORE_START,1516052958005,287
50,PLAYER_SLEEPBEFORE_END,1516052981159,287
50,WS_SEND_START,1516052981159,287
50,WS_SEND_END,1516052981159,287
50,WS_RECV_START,1516052981159,288
50,WS_RECV_END,1516052992097,288
50,PLAYER_SLEEPBEFORE_START,1516052992097,289
50,PLAYER_SLEEPBEFORE_END,1516052992119,289
50,WS_SEND_START,1516052992119,289
50,WS_SEND_END,1516052992119,289
50,WS_RECV_START,1516052992119,290
50,WS_RECV_END,1516052996501,290
50,PLAYER_SLEEPBEFORE_START,1516052996501,291
50,PLAYER_SLEEPBEFORE_END,1516053007115,291
50,WS_SEND_START,1516053007115,291
50,WS_SEND_END,1516053007115,291
50,WS_RECV_START,1516053007115,292
50,WS_RECV_END,1516053017499,292
50,PLAYER_SLEEPBEFORE_START,1516053017499,293
50,PLAYER_SLEEPBEFORE_END,1516053033255,293
50,WS_SEND_START,1516053033255,293
50,WS_SEND_END,1516053033255,293
50,WS_RECV_START,1516053033255,294
50,WS_RECV_END,1516053039553,294
50,PLAYER_SLEEPBEFORE_START,1516053039553,295
50,PLAYER_SLEEPBEFORE_END,1516053039578,295
50,WS_SEND_START,1516053039578,295
50,WS_SEND_END,1516053039579,295
50,WS_RECV_START,1516053039579,296
50,WS_RECV_END,1516053043446,296
50,PLAYER_SLEEPBEFORE_START,1516053043446,297
50,PLAYER_SLEEPBEFORE_END,1516053064943,297
50,WS_SEND_START,1516053064943,297
50,WS_SEND_END,1516053064943,297
50,WS_RECV_START,1516053064943,298
50,WS_RECV_END,1516053068819,298
50,PLAYER_SLEEPBEFORE_START,1516053068819,299
50,PLAYER_SLEEPBEFORE_END,1516053068830,299
50,WS_SEND_START,1516053068830,299
50,WS_SEND_END,1516053068830,299
50,WS_RECV_START,1516053068830,300
50,WS_RECV_END,1516053069288,300
50,PLAYER_SLEEPBEFORE_START,1516053069288,301
50,PLAYER_SLEEPBEFORE_END,1516053071648,301
50,WS_SEND_START,1516053071649,301
50,WS_SEND_END,1516053071649,301
50,WS_RECV_START,1516053071649,302
50,WS_RECV_END,1516053077522,302
50,PLAYER_SLEEPBEFORE_START,1516053077522,303
50,PLAYER_SLEEPBEFORE_END,1516053077546,303
50,WS_SEND_START,1516053077546,303
50,WS_SEND_END,1516053077546,303
50,WS_RECV_START,1516053077546,304
50,WS_RECV_END,1516053079176,304
50,PLAYER_SLEEPBEFORE_START,1516053079176,305
50,PLAYER_SLEEPBEFORE_END,1516053104167,305
50,WS_SEND_START,1516053104167,305
50,WS_SEND_END,1516053104167,305
50,WS_RECV_START,1516053104167,306
50,WS_RECV_END,1516053111889,306
50,PLAYER_SLEEPBEFORE_START,1516053111889,307
50,PLAYER_SLEEPBEFORE_END,1516053135764,307
50,WS_SEND_START,1516053135764,307
50,WS_SEND_END,1516053135764,307
50,WS_RECV_START,1516053135764,308
50,WS_RECV_END,1516053146075,308
50,PLAYER_SLEEPBEFORE_START,1516053146075,309
50,PLAYER_SLEEPBEFORE_END,1516053167766,309
50,WS_SEND_START,1516053167766,309
50,WS_SEND_END,1516053167766,309
50,WS_RECV_START,1516053167766,310
50,WS_RECV_END,1516053177021,310
50,PLAYER_SLEEPBEFORE_START,1516053177021,311
50,PLAYER_SLEEPBEFORE_END,1516053205848,311
50,WS_SEND_START,1516053205848,311
50,WS_SEND_END,1516053205848,311
50,WS_RECV_START,1516053205848,312
50,WS_RECV_END,1516053223199,312
50,PLAYER_SLEEPBEFORE_START,1516053223199,313
50,PLAYER_SLEEPBEFORE_END,1516053223219,313
50,WS_SEND_START,1516053223219,313
50,WS_SEND_END,1516053223219,313
50,WS_RECV_START,1516053223219,314
50,WS_RECV_END,1516053240307,314
50,PLAYER_SLEEPBEFORE_START,1516053240307,315
50,PLAYER_SLEEPBEFORE_END,1516053261893,315
50,WS_SEND_START,1516053261893,315
50,WS_SEND_END,1516053261893,315
50,WS_RECV_START,1516053261893,316
50,WS_RECV_END,1516053272888,316
50,PLAYER_SLEEPBEFORE_START,1516053272888,317
50,PLAYER_SLEEPBEFORE_END,1516053272896,317
50,WS_SEND_START,1516053272896,317
50,WS_SEND_END,1516053272896,317
50,WS_RECV_START,1516053272896,318
50,WS_RECV_END,1516053276820,318
50,PLAYER_SLEEPBEFORE_START,1516053276820,319
50,PLAYER_SLEEPBEFORE_END,1516053277152,319
50,WS_SEND_START,1516053277152,319
50,WS_SEND_END,1516053277152,319
50,WS_RECV_START,1516053277152,320
50,WS_RECV_END,1516053287734,320
50,PLAYER_SLEEPBEFORE_START,1516053287734,321
50,PLAYER_SLEEPBEFORE_END,1516053287753,321
50,WS_SEND_START,1516053287753,321
50,WS_SEND_END,1516053287753,321
50,WS_RECV_START,1516053287753,322
50,WS_RECV_END,1516053291766,322
50,PLAYER_SLEEPBEFORE_START,1516053291766,323
50,PLAYER_SLEEPBEFORE_END,1516053296159,323
50,REQ_START,1516053296159,323
50,REQ_END,1516053296168,323
50,PLAYER_SLEEPBEFORE_START,1516053296168,324
50,PLAYER_SLEEPBEFORE_END,1516053316054,324
50,WS_SEND_START,1516053316054,324
50,WS_SEND_END,1516053316054,324
50,WS_RECV_START,1516053316054,325
50,WS_RECV_END,1516053327241,325
50,PLAYER_SLEEPBEFORE_START,1516053327241,326
50,PLAYER_SLEEPBEFORE_END,1516053327250,326
50,WS_SEND_START,1516053327250,326
50,WS_SEND_END,1516053327250,326
50,WS_RECV_START,1516053327250,327
50,WS_RECV_END,1516053329200,327
50,PLAYER_SLEEPBEFORE_START,1516053329200,328
50,PLAYER_SLEEPBEFORE_END,1516053329561,328
50,WS_SEND_START,1516053329561,328
50,WS_SEND_END,1516053329561,328
50,WS_RECV_START,1516053329561,329
50,WS_RECV_END,1516053337109,329
50,PLAYER_SLEEPBEFORE_START,1516053337109,330
50,PLAYER_SLEEPBEFORE_END,1516053337456,330
50,WS_SEND_START,1516053337456,330
50,WS_SEND_END,1516053337456,330
50,WS_RECV_START,1516053337456,331
50,WS_RECV_END,1516053349407,331
50,PLAYER_SLEEPBEFORE_START,1516053349407,332
50,PLAYER_SLEEPBEFORE_END,1516053350254,332
50,WS_SEND_START,1516053350254,332
50,WS_SEND_END,1516053350254,332
50,WS_RECV_START,1516053350254,333
50,WS_RECV_END,1516053356191,333
50,PLAYER_SLEEPBEFORE_START,1516053356191,334
50,PLAYER_SLEEPBEFORE_END,1516053356588,334
50,WS_SEND_START,1516053356588,334
50,WS_SEND_END,1516053356588,334
50,WS_RECV_START,1516053356588,335
50,WS_RECV_END,1516053365205,335
50,PLAYER_SLEEPBEFORE_START,1516053365205,336
50,PLAYER_SLEEPBEFORE_END,1516053365529,336
50,WS_SEND_START,1516053365529,336
50,WS_SEND_END,1516053365529,336
50,WS_RECV_START,1516053365529,337
50,WS_RECV_END,1516053371035,337
50,PLAYER_SLEEPBEFORE_START,1516053371036,338
50,PLAYER_SLEEPBEFORE_END,1516053371051,338
50,WS_SEND_START,1516053371051,338
50,WS_SEND_END,1516053371051,338
50,WS_RECV_START,1516053371051,339
50,WS_RECV_END,1516053382075,339
50,PLAYER_SLEEPBEFORE_START,1516053382075,340
50,PLAYER_SLEEPBEFORE_END,1516053400047,340
50,WS_SEND_START,1516053400047,340
50,WS_SEND_END,1516053400047,340
50,WS_RECV_START,1516053400047,341
50,WS_RECV_END,1516053415252,341
50,PLAYER_SLEEPBEFORE_START,1516053415252,342
50,PLAYER_SLEEPBEFORE_END,1516053415261,342
50,WS_SEND_START,1516053415261,342
50,WS_SEND_END,1516053415261,342
50,WS_RECV_START,1516053415261,343
50,WS_RECV_END,1516053416088,343
50,PLAYER_SLEEPBEFORE_START,1516053416088,344
50,PLAYER_SLEEPBEFORE_END,1516053418400,344
50,WS_SEND_START,1516053418400,344
50,WS_SEND_END,1516053418400,344
50,WS_RECV_START,1516053418400,345
50,WS_RECV_END,1516053431340,345
50,PLAYER_SLEEPBEFORE_START,1516053431340,346
50,PLAYER_SLEEPBEFORE_END,1516053431351,346
50,WS_SEND_START,1516053431351,346
50,WS_SEND_END,1516053431351,346
50,WS_RECV_START,1516053431351,347
50,WS_RECV_END,1516053443417,347
50,PLAYER_SLEEPBEFORE_START,1516053443417,348
50,PLAYER_SLEEPBEFORE_END,1516053464024,348
50,WS_SEND_START,1516053464024,348
50,WS_SEND_END,1516053464024,348
50,WS_RECV_START,1516053464024,349
50,WS_RECV_END,1516053482620,349
50,PLAYER_SLEEPBEFORE_START,1516053482620,350
50,PLAYER_SLEEPBEFORE_END,1516053482628,350
50,WS_SEND_START,1516053482628,350
50,WS_SEND_END,1516053482628,350
50,WS_RECV_START,1516053482628,351
50,WS_RECV_END,1516053495292,351
50,PLAYER_SLEEPBEFORE_START,1516053495292,352
50,PLAYER_SLEEPBEFORE_END,1516053496478,352
50,WS_SEND_START,1516053496478,352
50,WS_SEND_END,1516053496478,352
50,WS_RECV_START,1516053496479,353
50,WS_RECV_END,1516053502973,353
50,PLAYER_SLEEPBEFORE_START,1516053502973,354
50,PLAYER_SLEEPBEFORE_END,1516053502989,354
50,WS_SEND_START,1516053502989,354
50,WS_SEND_END,1516053502989,354
50,WS_RECV_START,1516053502989,355
50,WS_RECV_END,1516053509848,355
50,PLAYER_SLEEPBEFORE_START,1516053509848,356
50,PLAYER_SLEEPBEFORE_END,1516053509894,356
50,WS_SEND_START,1516053509894,356
50,WS_SEND_END,1516053509894,356
50,WS_RECV_START,1516053509894,357
50,WS_RECV_END,1516053516390,357
50,PLAYER_SLEEPBEFORE_START,1516053516390,358
50,PLAYER_SLEEPBEFORE_END,1516053516405,358
50,WS_SEND_START,1516053516405,358
50,WS_SEND_END,1516053516405,358
50,WS_RECV_START,1516053516405,359
50,WS_RECV_END,1516053530896,359
50,PLAYER_SLEEPBEFORE_START,1516053530896,360
50,PLAYER_SLEEPBEFORE_END,1516053551362,360
50,WS_SEND_START,1516053551362,360
50,WS_SEND_END,1516053551362,360
50,WS_RECV_START,1516053551362,361
50,WS_RECV_END,1516053564930,361
50,PLAYER_SLEEPBEFORE_START,1516053564930,362
50,PLAYER_SLEEPBEFORE_END,1516053564939,362
50,WS_SEND_START,1516053564939,362
50,WS_SEND_END,1516053564939,362
50,WS_RECV_START,1516053564939,363
50,WS_RECV_END,1516053567132,363
50,PLAYER_SLEEPBEFORE_START,1516053567132,364
50,PLAYER_SLEEPBEFORE_END,1516053569223,364
50,WS_SEND_START,1516053569223,364
50,WS_SEND_END,1516053569223,364
50,WS_RECV_START,1516053569223,365
50,WS_RECV_END,1516053577012,365
50,PLAYER_SLEEPBEFORE_START,1516053577012,366
50,PLAYER_SLEEPBEFORE_END,1516053577022,366
50,WS_SEND_START,1516053577022,366
50,WS_SEND_END,1516053577022,366
50,WS_RECV_START,1516053577022,367
50,WS_RECV_END,1516053580418,367
50,PLAYER_SLEEPBEFORE_START,1516053580418,368
50,PLAYER_SLEEPBEFORE_END,1516053603878,368
50,WS_SEND_START,1516053603878,368
50,WS_SEND_END,1516053603878,368
50,WS_RECV_START,1516053603878,369
50,WS_RECV_END,1516053616381,369
50,PLAYER_SLEEPBEFORE_START,1516053616381,370
50,PLAYER_SLEEPBEFORE_END,1516053616389,370
50,WS_SEND_START,1516053616389,370
50,WS_SEND_END,1516053616389,370
50,WS_RECV_START,1516053616389,371
50,WS_RECV_END,1516053618728,371
50,PLAYER_SLEEPBEFORE_START,1516053618728,372
50,PLAYER_SLEEPBEFORE_END,1516053619100,372
50,WS_SEND_START,1516053619100,372
50,WS_SEND_END,1516053619100,372
50,WS_RECV_START,1516053619100,373
50,WS_RECV_END,1516053628622,373
50,PLAYER_SLEEPBEFORE_START,1516053628622,374
50,PLAYER_SLEEPBEFORE_END,1516053629324,374
50,WS_SEND_START,1516053629324,374
50,WS_SEND_END,1516053629324,374
50,WS_RECV_START,1516053629324,375
50,WS_RECV_END,1516053632764,375
50,PLAYER_SLEEPBEFORE_START,1516053632764,376
50,PLAYER_SLEEPBEFORE_END,1516053633115,376
50,WS_SEND_START,1516053633115,376
50,WS_SEND_END,1516053633115,376
50,WS_RECV_START,1516053633115,377
50,WS_RECV_END,1516053640081,377
50,PLAYER_SLEEPBEFORE_START,1516053640081,378
50,PLAYER_SLEEPBEFORE_END,1516053640101,378
50,WS_SEND_START,1516053640101,378
50,WS_SEND_END,1516053640101,378
50,WS_RECV_START,1516053640101,379
50,WS_RECV_END,1516053642464,379
50,PLAYER_SLEEPBEFORE_START,1516053642464,380
50,PLAYER_SLEEPBEFORE_END,1516053662956,380
50,WS_SEND_START,1516053662956,380
50,WS_SEND_END,1516053662956,380
50,PLAYER_SLEEPBEFORE_START,1516053662956,381
50,PLAYER_SLEEPBEFORE_END,1516053667170,381
50,WS_SEND_START,1516053667170,381
50,WS_SEND_END,1516053667170,381
50,WS_RECV_START,1516053667170,382
50,WS_RECV_END,1516053668554,382
50,PLAYER_SLEEPBEFORE_START,1516053668554,383
50,PLAYER_SLEEPBEFORE_END,1516053688754,383
50,WS_SEND_START,1516053688754,383
50,WS_SEND_END,1516053688754,383
50,PLAYER_SLEEPBEFORE_START,1516053688754,384
50,PLAYER_SLEEPBEFORE_END,1516053691941,384
50,WS_SEND_START,1516053691941,384
50,WS_SEND_END,1516053691941,384
50,WS_RECV_START,1516053691941,385
50,WS_RECV_END,1516053700787,385
50,PLAYER_SLEEPBEFORE_START,1516053700787,386
50,PLAYER_SLEEPBEFORE_END,1516053700802,386
50,WS_SEND_START,1516053700802,386
50,WS_SEND_END,1516053700802,386
50,WS_RECV_START,1516053700802,387
50,WS_RECV_END,1516053703984,387
50,PLAYER_SLEEPBEFORE_START,1516053703984,388
50,PLAYER_SLEEPBEFORE_END,1516053724514,388
50,WS_SEND_START,1516053724514,388
50,WS_SEND_END,1516053724514,388
50,PLAYER_SLEEPBEFORE_START,1516053724514,389
50,PLAYER_SLEEPBEFORE_END,1516053726733,389
50,WS_SEND_START,1516053726733,389
50,WS_SEND_END,1516053726733,389
50,WS_RECV_START,1516053726733,390
50,WS_RECV_END,1516053729505,390
50,PLAYER_SLEEPBEFORE_START,1516053729505,391
50,PLAYER_SLEEPBEFORE_END,1516053752341,391
50,WS_SEND_START,1516053752341,391
50,WS_SEND_END,1516053752341,391
50,WS_RECV_START,1516053752341,392
50,WS_RECV_END,1516053758712,392
50,PLAYER_SLEEPBEFORE_START,1516053758712,393
50,PLAYER_SLEEPBEFORE_END,1516053783401,393
50,WS_SEND_START,1516053783401,393
50,WS_SEND_END,1516053783401,393
50,PLAYER_SLEEPBEFORE_START,1516053783401,394
50,PLAYER_SLEEPBEFORE_END,1516053785373,394
50,WS_SEND_START,1516053785373,394
50,WS_SEND_END,1516053785373,394
50,WS_RECV_START,1516053785373,395
50,WS_RECV_END,1516053785671,395
50,PLAYER_SLEEPBEFORE_START,1516053785671,396
50,PLAYER_SLEEPBEFORE_END,1516053785678,396
50,WS_SEND_START,1516053785678,396
50,WS_SEND_END,1516053785678,396
50,WS_RECV_START,1516053785678,397
50,WS_RECV_END,1516053785720,397
50,PLAYER_SLEEPBEFORE_START,1516053785720,398
50,PLAYER_SLEEPBEFORE_END,1516053785900,398
50,WS_SEND_START,1516053785900,398
50,WS_SEND_END,1516053785900,398
50,WS_RECV_START,1516053785900,399
50,WS_RECV_END,1516053785972,399
50,PLAYER_SLEEPBEFORE_START,1516053785972,400
50,PLAYER_SLEEPBEFORE_END,1516053787047,400
50,WS_SEND_START,1516053787047,400
50,WS_SEND_END,1516053787047,400
50,WS_RECV_START,1516053787047,401
50,WS_RECV_END,1516053787112,401
50,PLAYER_SLEEPBEFORE_START,1516053787112,402
50,PLAYER_SLEEPBEFORE_END,1516053788471,402
50,WS_SEND_START,1516053788472,402
50,WS_SEND_END,1516053788472,402
50,WS_RECV_START,1516053788472,403
50,WS_RECV_END,1516053789730,403
50,PLAYER_SLEEPBEFORE_START,1516053789730,404
50,PLAYER_SLEEPBEFORE_END,1516053790200,404
50,WS_SEND_START,1516053790200,404
50,WS_SEND_END,1516053790200,404
50,WS_RECV_START,1516053790200,405
50,WS_RECV_END,1516053790345,405
50,PLAYER_SLEEPBEFORE_START,1516053790345,406
50,PLAYER_SLEEPBEFORE_END,1516053793073,406
50,WS_SEND_START,1516053793073,406
50,WS_SEND_END,1516053793073,406
50,WS_RECV_START,1516053793073,407
50,WS_RECV_END,1516053793137,407
50,PLAYER_SLEEPBEFORE_START,1516053793137,408
50,PLAYER_SLEEPBEFORE_END,1516053793466,408
50,WS_SEND_START,1516053793466,408
50,WS_SEND_END,1516053793466,408
50,WS_RECV_START,1516053793466,409
50,WS_RECV_END,1516053793665,409
50,PLAYER_SLEEPBEFORE_START,1516053793665,410
50,PLAYER_SLEEPBEFORE_END,1516053794691,410
50,WS_SEND_START,1516053794691,410
50,WS_SEND_END,1516053794691,410
50,WS_RECV_START,1516053794691,411
50,WS_RECV_END,1516053795542,411
50,PLAYER_SLEEPBEFORE_START,1516053795542,412
50,PLAYER_SLEEPBEFORE_END,1516053796198,412
50,WS_SEND_START,1516053796198,412
50,WS_SEND_END,1516053796198,412
50,WS_RECV_START,1516053796198,413
50,WS_RECV_END,1516053797754,413
50,PLAYER_SLEEPBEFORE_START,1516053797754,414
50,PLAYER_SLEEPBEFORE_END,1516053797770,414
50,WS_SEND_START,1516053797770,414
50,WS_SEND_END,1516053797770,414
50,WS_RECV_START,1516053797770,415
50,WS_RECV_END,1516053799433,415
50,PLAYER_SLEEPBEFORE_START,1516053799433,416
50,PLAYER_SLEEPBEFORE_END,1516053813700,416
50,WS_SEND_START,1516053813700,416
50,WS_SEND_END,1516053813700,416
50,PLAYER_SLEEPBEFORE_START,1516053813700,417
50,PLAYER_SLEEPBEFORE_END,1516053842379,417
50,WS_SEND_START,1516053842379,417
50,WS_SEND_END,1516053842379,417
50,WS_RECV_START,1516053842379,418
50,WS_RECV_END,1516053842560,418
50,PLAYER_SLEEPBEFORE_START,1516053842560,419
50,PLAYER_SLEEPBEFORE_END,1516053847382,419
50,REQ_START,1516053847382,419
50,REQ_END,1516053847390,419
50,PLAYER_SLEEPBEFORE_START,1516053847390,420
50,PLAYER_SLEEPBEFORE_END,1516053866135,420
50,WS_CLOSE_START,1516053866135,420
50,WS_CLOSE_END,1516053866135,420
50,PLAYER_DONE,1516053866135
