# --sessions 180 --app-url=http://shinyloadtest.rstudioservices.com/cran_explorer --output-dir test180 --overwrite-output --log-level warn --start-interval 500 15min.log
thread_id,event,timestamp,input_line_number,comment
36,PLAYER_SESSION_CREATE,1516215133860
36,PLAYER_START_INTERVAL_START,1516215133860
36,PLAYER_START_INTERVAL_END,1516215151860
36,REQ_HOME_START,1516215151860,2
36,REQ_HOME_END,1516215151958,2
36,REQ_START,1516215151958,3
36,REQ_END,1516215151990,3
36,REQ_START,1516215151990,4
36,REQ_END,1516215152020,4
36,REQ_START,1516215152020,5
36,REQ_END,1516215152055,5
36,REQ_START,1516215152055,6
36,REQ_END,1516215152113,6
36,REQ_START,1516215152113,7
36,REQ_END,1516215152149,7
36,REQ_START,1516215152149,8
36,REQ_END,1516215152186,8
36,REQ_START,1516215152186,9
36,REQ_END,1516215152225,9
36,REQ_START,1516215152225,10
36,REQ_END,1516215152233,10
36,REQ_START,1516215152233,11
36,REQ_END,1516215152266,11
36,REQ_START,1516215152266,12
36,REQ_END,1516215152275,12
36,REQ_START,1516215152275,13
36,REQ_END,1516215152412,13
36,REQ_START,1516215152412,14
36,REQ_END,1516215152426,14
36,REQ_START,1516215152426,15
36,REQ_END,1516215152464,15
36,REQ_TOK_START,1516215152464,16
36,REQ_TOK_END,1516215152472,16
36,REQ_SINF_START,1516215152472,17
36,REQ_SINF_END,1516215152482,17
36,WS_OPEN_START,1516215152482,18
36,WS_OPEN_END,1516215152488,18
36,REQ_START,1516215152488,19
36,REQ_END,1516215152519,19
36,WS_RECV_START,1516215152519,20
36,WS_RECV_END,1516215152519,20
36,PLAYER_SLEEPBEFORE_START,1516215152519,21
36,PLAYER_SLEEPBEFORE_END,1516215152524,21
36,WS_SEND_START,1516215152524,21
36,WS_SEND_END,1516215152524,21
36,PLAYER_SLEEPBEFORE_START,1516215152524,22
36,PLAYER_SLEEPBEFORE_END,1516215152525,22
36,WS_SEND_START,1516215152525,22
36,WS_SEND_END,1516215152525,22
36,WS_RECV_INIT_START,1516215152525,23
36,WS_RECV_INIT_END,1516215152547,23
36,WS_RECV_START,1516215152547,24
36,WS_RECV_END,1516215152614,24
36,PLAYER_SLEEPBEFORE_START,1516215152614,25
36,PLAYER_SLEEPBEFORE_END,1516215152622,25
36,REQ_START,1516215152622,25
36,REQ_END,1516215152654,25
36,PLAYER_SLEEPBEFORE_START,1516215152654,26
36,PLAYER_SLEEPBEFORE_END,1516215152656,26
36,REQ_START,1516215152656,26
36,REQ_END,1516215152690,26
36,PLAYER_SLEEPBEFORE_START,1516215152690,27
36,PLAYER_SLEEPBEFORE_END,1516215152693,27
36,REQ_START,1516215152693,27
36,REQ_END,1516215152725,27
36,PLAYER_SLEEPBEFORE_START,1516215152725,28
36,PLAYER_SLEEPBEFORE_END,1516215153010,28
36,REQ_START,1516215153010,28
36,REQ_END,1516215153058,28
36,PLAYER_SLEEPBEFORE_START,1516215153058,29
36,PLAYER_SLEEPBEFORE_END,1516215153233,29
36,WS_SEND_START,1516215153233,29
36,WS_SEND_END,1516215153233,29
36,WS_RECV_START,1516215153233,30
36,WS_RECV_END,1516215153378,30
36,PLAYER_SLEEPBEFORE_START,1516215153378,31
36,PLAYER_SLEEPBEFORE_END,1516215153389,31
36,REQ_START,1516215153389,31
36,REQ_END,1516215153435,31
36,PLAYER_SLEEPBEFORE_START,1516215153435,32
36,PLAYER_SLEEPBEFORE_END,1516215181580,32
36,WS_SEND_START,1516215181580,32
36,WS_SEND_END,1516215181581,32
36,WS_RECV_START,1516215181581,33
36,WS_RECV_END,1516215181828,33
36,PLAYER_SLEEPBEFORE_START,1516215181828,34
36,PLAYER_SLEEPBEFORE_END,1516215207739,34
36,WS_SEND_START,1516215207739,34
36,WS_SEND_END,1516215207739,34
36,WS_RECV_START,1516215207739,35
36,WS_RECV_END,1516215207927,35
36,PLAYER_SLEEPBEFORE_START,1516215207927,36
36,PLAYER_SLEEPBEFORE_END,1516215207936,36
36,WS_SEND_START,1516215207936,36
36,WS_SEND_END,1516215207936,36
36,WS_RECV_START,1516215207936,37
36,WS_RECV_END,1516215208012,37
36,PLAYER_SLEEPBEFORE_START,1516215208012,38
36,PLAYER_SLEEPBEFORE_END,1516215211207,38
36,WS_SEND_START,1516215211207,38
36,WS_SEND_END,1516215211207,38
36,WS_RECV_START,1516215211207,39
36,WS_RECV_END,1516215211682,39
36,PLAYER_SLEEPBEFORE_START,1516215211682,40
36,PLAYER_SLEEPBEFORE_END,1516215211728,40
36,WS_SEND_START,1516215211728,40
36,WS_SEND_END,1516215211729,40
36,WS_RECV_START,1516215211729,41
36,WS_RECV_END,1516215212007,41
36,PLAYER_SLEEPBEFORE_START,1516215212007,42
36,PLAYER_SLEEPBEFORE_END,1516215230142,42
36,WS_SEND_START,1516215230142,42
36,WS_SEND_END,1516215230142,42
36,WS_RECV_START,1516215230142,43
36,WS_RECV_END,1516215231262,43
36,PLAYER_SLEEPBEFORE_START,1516215231262,44
36,PLAYER_SLEEPBEFORE_END,1516215231274,44
36,WS_SEND_START,1516215231274,44
36,WS_SEND_END,1516215231274,44
36,WS_RECV_START,1516215231274,45
36,WS_RECV_END,1516215231924,45
36,PLAYER_SLEEPBEFORE_START,1516215231924,46
36,PLAYER_SLEEPBEFORE_END,1516215233184,46
36,WS_SEND_START,1516215233184,46
36,WS_SEND_END,1516215233184,46
36,WS_RECV_START,1516215233184,47
36,WS_RECV_END,1516215234287,47
36,PLAYER_SLEEPBEFORE_START,1516215234287,48
36,PLAYER_SLEEPBEFORE_END,1516215235607,48
36,WS_SEND_START,1516215235607,48
36,WS_SEND_END,1516215235607,48
36,WS_RECV_START,1516215235607,49
36,WS_RECV_END,1516215236601,49
36,PLAYER_SLEEPBEFORE_START,1516215236601,50
36,PLAYER_SLEEPBEFORE_END,1516215236625,50
36,WS_SEND_START,1516215236625,50
36,WS_SEND_END,1516215236625,50
36,WS_RECV_START,1516215236625,51
36,WS_RECV_END,1516215237154,51
36,PLAYER_SLEEPBEFORE_START,1516215237154,52
36,PLAYER_SLEEPBEFORE_END,1516215259718,52
36,WS_SEND_START,1516215259718,52
36,WS_SEND_END,1516215259718,52
36,WS_RECV_START,1516215259718,53
36,WS_RECV_END,1516215261696,53
36,PLAYER_SLEEPBEFORE_START,1516215261696,54
36,PLAYER_SLEEPBEFORE_END,1516215283000,54
36,WS_SEND_START,1516215283000,54
36,WS_SEND_END,1516215283000,54
36,PLAYER_SLEEPBEFORE_START,1516215283000,55
36,PLAYER_SLEEPBEFORE_END,1516215284941,55
36,WS_SEND_START,1516215284941,55
36,WS_SEND_END,1516215284941,55
36,WS_RECV_START,1516215284941,56
36,WS_RECV_END,1516215285078,56
36,PLAYER_SLEEPBEFORE_START,1516215285078,57
36,PLAYER_SLEEPBEFORE_END,1516215307950,57
36,WS_SEND_START,1516215307950,57
36,WS_SEND_END,1516215307950,57
36,WS_RECV_START,1516215307950,58
36,WS_RECV_END,1516215308024,58
36,PLAYER_SLEEPBEFORE_START,1516215308024,59
36,PLAYER_SLEEPBEFORE_END,1516215310351,59
36,WS_SEND_START,1516215310351,59
36,WS_SEND_END,1516215310351,59
36,WS_RECV_START,1516215310351,60
36,WS_RECV_END,1516215310475,60
36,PLAYER_SLEEPBEFORE_START,1516215310476,61
36,PLAYER_SLEEPBEFORE_END,1516215314067,61
36,WS_SEND_START,1516215314067,61
36,WS_SEND_END,1516215314067,61
36,WS_RECV_START,1516215314067,62
36,WS_RECV_END,1516215314496,62
36,PLAYER_SLEEPBEFORE_START,1516215314496,63
36,PLAYER_SLEEPBEFORE_END,1516215333758,63
36,WS_SEND_START,1516215333758,63
36,WS_SEND_END,1516215333758,63
36,WS_RECV_START,1516215333758,64
36,WS_RECV_END,1516215333935,64
36,PLAYER_SLEEPBEFORE_START,1516215333935,65
36,PLAYER_SLEEPBEFORE_END,1516215360752,65
36,WS_SEND_START,1516215360753,65
36,WS_SEND_END,1516215360753,65
36,WS_RECV_START,1516215360753,66
36,WS_RECV_END,1516215360919,66
36,PLAYER_SLEEPBEFORE_START,1516215360919,67
36,PLAYER_SLEEPBEFORE_END,1516215362426,67
36,WS_SEND_START,1516215362426,67
36,WS_SEND_END,1516215362426,67
36,WS_RECV_START,1516215362426,68
36,WS_RECV_END,1516215362598,68
36,PLAYER_SLEEPBEFORE_START,1516215362598,69
36,PLAYER_SLEEPBEFORE_END,1516215384596,69
36,WS_SEND_START,1516215384596,69
36,WS_SEND_END,1516215384596,69
36,WS_RECV_START,1516215384596,70
36,WS_RECV_END,1516215384728,70
36,PLAYER_SLEEPBEFORE_START,1516215384728,71
36,PLAYER_SLEEPBEFORE_END,1516215409503,71
36,WS_SEND_START,1516215409503,71
36,WS_SEND_END,1516215409503,71
36,PLAYER_SLEEPBEFORE_START,1516215409503,72
36,PLAYER_SLEEPBEFORE_END,1516215412110,72
36,WS_SEND_START,1516215412110,72
36,WS_SEND_END,1516215412110,72
36,WS_RECV_START,1516215412110,73
36,WS_RECV_END,1516215412510,73
36,PLAYER_SLEEPBEFORE_START,1516215412510,74
36,PLAYER_SLEEPBEFORE_END,1516215412519,74
36,WS_SEND_START,1516215412519,74
36,WS_SEND_END,1516215412519,74
36,WS_RECV_START,1516215412519,75
36,WS_RECV_END,1516215412664,75
36,PLAYER_SLEEPBEFORE_START,1516215412664,76
36,PLAYER_SLEEPBEFORE_END,1516215414170,76
36,WS_SEND_START,1516215414170,76
36,WS_SEND_END,1516215414170,76
36,WS_RECV_START,1516215414170,77
36,WS_RECV_END,1516215414974,77
36,PLAYER_SLEEPBEFORE_START,1516215414974,78
36,PLAYER_SLEEPBEFORE_END,1516215415842,78
36,WS_SEND_START,1516215415842,78
36,WS_SEND_END,1516215415842,78
36,WS_RECV_START,1516215415842,79
36,WS_RECV_END,1516215416550,79
36,PLAYER_SLEEPBEFORE_START,1516215416550,80
36,PLAYER_SLEEPBEFORE_END,1516215424216,80
36,WS_SEND_START,1516215424216,80
36,WS_SEND_END,1516215424216,80
36,WS_RECV_START,1516215424216,81
36,WS_RECV_END,1516215424848,81
36,PLAYER_SLEEPBEFORE_START,1516215424848,82
36,PLAYER_SLEEPBEFORE_END,1516215425951,82
36,WS_SEND_START,1516215425951,82
36,WS_SEND_END,1516215425951,82
36,WS_RECV_START,1516215425951,83
36,WS_RECV_END,1516215426518,83
36,PLAYER_SLEEPBEFORE_START,1516215426518,84
36,PLAYER_SLEEPBEFORE_END,1516215427465,84
36,WS_SEND_START,1516215427465,84
36,WS_SEND_END,1516215427465,84
36,WS_RECV_START,1516215427465,85
36,WS_RECV_END,1516215427931,85
36,PLAYER_SLEEPBEFORE_START,1516215427931,86
36,PLAYER_SLEEPBEFORE_END,1516215432103,86
36,WS_SEND_START,1516215432103,86
36,WS_SEND_END,1516215432103,86
36,WS_RECV_START,1516215432103,87
36,WS_RECV_END,1516215432227,87
36,PLAYER_SLEEPBEFORE_START,1516215432227,88
36,PLAYER_SLEEPBEFORE_END,1516215432236,88
36,WS_SEND_START,1516215432236,88
36,WS_SEND_END,1516215432236,88
36,WS_RECV_START,1516215432236,89
36,WS_RECV_END,1516215432482,89
36,PLAYER_SLEEPBEFORE_START,1516215432482,90
36,PLAYER_SLEEPBEFORE_END,1516215459679,90
36,REQ_START,1516215459679,90
36,REQ_END,1516215459686,90
36,PLAYER_SLEEPBEFORE_START,1516215459686,91
36,PLAYER_SLEEPBEFORE_END,1516215467575,91
36,WS_SEND_START,1516215467575,91
36,WS_SEND_END,1516215467575,91
36,WS_RECV_START,1516215467575,92
36,WS_RECV_END,1516215467752,92
36,PLAYER_SLEEPBEFORE_START,1516215467752,93
36,PLAYER_SLEEPBEFORE_END,1516215467767,93
36,WS_SEND_START,1516215467767,93
36,WS_SEND_END,1516215467767,93
36,WS_RECV_START,1516215467767,94
36,WS_RECV_END,1516215468167,94
36,PLAYER_SLEEPBEFORE_START,1516215468167,95
36,PLAYER_SLEEPBEFORE_END,1516215491722,95
36,WS_SEND_START,1516215491722,95
36,WS_SEND_END,1516215491722,95
36,WS_RECV_START,1516215491722,96
36,WS_RECV_END,1516215491939,96
36,PLAYER_SLEEPBEFORE_START,1516215491939,97
36,PLAYER_SLEEPBEFORE_END,1516215514379,97
36,WS_SEND_START,1516215514379,97
36,WS_SEND_END,1516215514379,97
36,WS_RECV_START,1516215514379,98
36,WS_RECV_END,1516215514741,98
36,PLAYER_SLEEPBEFORE_START,1516215514741,99
36,PLAYER_SLEEPBEFORE_END,1516215514762,99
36,WS_SEND_START,1516215514762,99
36,WS_SEND_END,1516215514762,99
36,WS_RECV_START,1516215514763,100
36,WS_RECV_END,1516215514944,100
36,PLAYER_SLEEPBEFORE_START,1516215514944,101
36,PLAYER_SLEEPBEFORE_END,1516215538503,101
36,WS_SEND_START,1516215538503,101
36,WS_SEND_END,1516215538503,101
36,WS_RECV_START,1516215538503,102
36,WS_RECV_END,1516215538641,102
36,PLAYER_SLEEPBEFORE_START,1516215538641,103
36,PLAYER_SLEEPBEFORE_END,1516215562266,103
36,WS_SEND_START,1516215562266,103
36,WS_SEND_END,1516215562266,103
36,WS_RECV_START,1516215562266,104
36,WS_RECV_END,1516215562466,104
36,PLAYER_SLEEPBEFORE_START,1516215562466,105
36,PLAYER_SLEEPBEFORE_END,1516215587844,105
36,WS_SEND_START,1516215587844,105
36,WS_SEND_END,1516215587844,105
36,WS_RECV_START,1516215587844,106
36,WS_RECV_END,1516215588147,106
36,PLAYER_SLEEPBEFORE_START,1516215588147,107
36,PLAYER_SLEEPBEFORE_END,1516215611570,107
36,WS_SEND_START,1516215611570,107
36,WS_SEND_END,1516215611570,107
36,WS_RECV_START,1516215611570,108
36,WS_RECV_END,1516215612022,108
36,PLAYER_SLEEPBEFORE_START,1516215612022,109
36,PLAYER_SLEEPBEFORE_END,1516215612031,109
36,WS_SEND_START,1516215612031,109
36,WS_SEND_END,1516215612031,109
36,WS_RECV_START,1516215612031,110
36,WS_RECV_END,1516215612805,110
36,PLAYER_SLEEPBEFORE_START,1516215612805,111
36,PLAYER_SLEEPBEFORE_END,1516215613764,111
36,WS_SEND_START,1516215613764,111
36,WS_SEND_END,1516215613764,111
36,WS_RECV_START,1516215613764,112
36,WS_RECV_END,1516215613853,112
36,PLAYER_SLEEPBEFORE_START,1516215613853,113
36,PLAYER_SLEEPBEFORE_END,1516215614416,113
36,WS_SEND_START,1516215614416,113
36,WS_SEND_END,1516215614416,113
36,WS_RECV_START,1516215614416,114
36,WS_RECV_END,1516215614570,114
36,PLAYER_SLEEPBEFORE_START,1516215614570,115
36,PLAYER_SLEEPBEFORE_END,1516215614580,115
36,WS_SEND_START,1516215614580,115
36,WS_SEND_END,1516215614580,115
36,WS_RECV_START,1516215614580,116
36,WS_RECV_END,1516215614745,116
36,PLAYER_SLEEPBEFORE_START,1516215614745,117
36,PLAYER_SLEEPBEFORE_END,1516215635105,117
36,WS_SEND_START,1516215635105,117
36,WS_SEND_END,1516215635105,117
36,PLAYER_SLEEPBEFORE_START,1516215635105,118
36,PLAYER_SLEEPBEFORE_END,1516215638857,118
36,WS_SEND_START,1516215638857,118
36,WS_SEND_END,1516215638857,118
36,WS_RECV_START,1516215638857,119
36,WS_RECV_END,1516215640459,119
36,PLAYER_SLEEPBEFORE_START,1516215640459,120
36,PLAYER_SLEEPBEFORE_END,1516215641447,120
36,WS_SEND_START,1516215641447,120
36,WS_SEND_END,1516215641447,120
36,WS_RECV_START,1516215641447,121
36,WS_RECV_END,1516215643319,121
36,PLAYER_SLEEPBEFORE_START,1516215643319,122
36,PLAYER_SLEEPBEFORE_END,1516215644504,122
36,WS_SEND_START,1516215644504,122
36,WS_SEND_END,1516215644504,122
36,WS_RECV_START,1516215644504,123
36,WS_RECV_END,1516215646162,123
36,PLAYER_SLEEPBEFORE_START,1516215646162,124
36,PLAYER_SLEEPBEFORE_END,1516215670567,124
36,WS_SEND_START,1516215670567,124
36,WS_SEND_END,1516215670567,124
36,WS_RECV_START,1516215670567,125
36,WS_RECV_END,1516215671832,125
36,PLAYER_SLEEPBEFORE_START,1516215671832,126
36,PLAYER_SLEEPBEFORE_END,1516215692344,126
36,WS_SEND_START,1516215692344,126
36,WS_SEND_END,1516215692344,126
36,PLAYER_SLEEPBEFORE_START,1516215692345,127
36,PLAYER_SLEEPBEFORE_END,1516215695399,127
36,WS_SEND_START,1516215695399,127
36,WS_SEND_END,1516215695399,127
36,WS_RECV_START,1516215695399,128
36,WS_RECV_END,1516215696985,128
36,PLAYER_SLEEPBEFORE_START,1516215696985,129
36,PLAYER_SLEEPBEFORE_END,1516215697005,129
36,WS_SEND_START,1516215697005,129
36,WS_SEND_END,1516215697005,129
36,WS_RECV_START,1516215697005,130
36,WS_RECV_END,1516215697927,130
36,PLAYER_SLEEPBEFORE_START,1516215697927,131
36,PLAYER_SLEEPBEFORE_END,1516215719551,131
36,WS_SEND_START,1516215719552,131
36,WS_SEND_END,1516215719552,131
36,PLAYER_SLEEPBEFORE_START,1516215719552,132
36,PLAYER_SLEEPBEFORE_END,1516215722632,132
36,WS_SEND_START,1516215722632,132
36,WS_SEND_END,1516215722632,132
36,WS_RECV_START,1516215722632,133
36,WS_RECV_END,1516215722862,133
36,PLAYER_SLEEPBEFORE_START,1516215722862,134
36,PLAYER_SLEEPBEFORE_END,1516215744079,134
36,WS_SEND_START,1516215744079,134
36,WS_SEND_END,1516215744079,134
36,PLAYER_SLEEPBEFORE_START,1516215744079,135
36,PLAYER_SLEEPBEFORE_END,1516215747269,135
36,WS_SEND_START,1516215747269,135
36,WS_SEND_END,1516215747269,135
36,WS_RECV_START,1516215747269,136
36,WS_RECV_END,1516215749024,136
36,PLAYER_SLEEPBEFORE_START,1516215749024,137
36,PLAYER_SLEEPBEFORE_END,1516215749031,137
36,WS_SEND_START,1516215749031,137
36,WS_SEND_END,1516215749031,137
36,WS_RECV_START,1516215749031,138
36,WS_RECV_END,1516215749897,138
36,PLAYER_SLEEPBEFORE_START,1516215749897,139
36,PLAYER_SLEEPBEFORE_END,1516215750587,139
36,WS_SEND_START,1516215750587,139
36,WS_SEND_END,1516215750587,139
36,WS_RECV_START,1516215750587,140
36,WS_RECV_END,1516215751138,140
36,PLAYER_SLEEPBEFORE_START,1516215751138,141
36,PLAYER_SLEEPBEFORE_END,1516215751794,141
36,WS_SEND_START,1516215751794,141
36,WS_SEND_END,1516215751794,141
36,WS_RECV_START,1516215751794,142
36,WS_RECV_END,1516215752179,142
36,PLAYER_SLEEPBEFORE_START,1516215752179,143
36,PLAYER_SLEEPBEFORE_END,1516215752236,143
36,WS_SEND_START,1516215752236,143
36,WS_SEND_END,1516215752236,143
36,WS_RECV_START,1516215752236,144
36,WS_RECV_END,1516215752847,144
36,PLAYER_SLEEPBEFORE_START,1516215752847,145
36,PLAYER_SLEEPBEFORE_END,1516215768909,145
36,REQ_START,1516215768909,145
36,REQ_END,1516215768917,145
36,PLAYER_SLEEPBEFORE_START,1516215768917,146
36,PLAYER_SLEEPBEFORE_END,1516215777794,146
36,WS_SEND_START,1516215777794,146
36,WS_SEND_END,1516215777794,146
36,WS_RECV_START,1516215777794,147
36,WS_RECV_END,1516215778220,147
36,PLAYER_SLEEPBEFORE_START,1516215778220,148
36,PLAYER_SLEEPBEFORE_END,1516215800142,148
36,WS_SEND_START,1516215800142,148
36,WS_SEND_END,1516215800142,148
36,PLAYER_SLEEPBEFORE_START,1516215800142,149
36,PLAYER_SLEEPBEFORE_END,1516215802570,149
36,WS_SEND_START,1516215802570,149
36,WS_SEND_END,1516215802570,149
36,WS_RECV_START,1516215802570,150
36,WS_RECV_END,1516215803550,150
36,PLAYER_SLEEPBEFORE_START,1516215803550,151
36,PLAYER_SLEEPBEFORE_END,1516215803760,151
36,WS_SEND_START,1516215803760,151
36,WS_SEND_END,1516215803760,151
36,WS_RECV_START,1516215803760,152
36,WS_RECV_END,1516215805045,152
36,PLAYER_SLEEPBEFORE_START,1516215805045,153
36,PLAYER_SLEEPBEFORE_END,1516215828972,153
36,WS_SEND_START,1516215828972,153
36,WS_SEND_END,1516215828972,153
36,WS_RECV_START,1516215828972,154
36,WS_RECV_END,1516215829743,154
36,PLAYER_SLEEPBEFORE_START,1516215829743,155
36,PLAYER_SLEEPBEFORE_END,1516215852301,155
36,WS_SEND_START,1516215852301,155
36,WS_SEND_END,1516215852301,155
36,PLAYER_SLEEPBEFORE_START,1516215852301,156
36,PLAYER_SLEEPBEFORE_END,1516215855575,156
36,WS_SEND_START,1516215855575,156
36,WS_SEND_END,1516215855575,156
36,WS_RECV_START,1516215855575,157
36,WS_RECV_END,1516215855875,157
36,PLAYER_SLEEPBEFORE_START,1516215855875,158
36,PLAYER_SLEEPBEFORE_END,1516215855885,158
36,WS_SEND_START,1516215855885,158
36,WS_SEND_END,1516215855885,158
36,WS_RECV_START,1516215855885,159
36,WS_RECV_END,1516215856057,159
36,PLAYER_SLEEPBEFORE_START,1516215856057,160
36,PLAYER_SLEEPBEFORE_END,1516215856233,160
36,WS_SEND_START,1516215856233,160
36,WS_SEND_END,1516215856233,160
36,WS_RECV_START,1516215856233,161
36,WS_RECV_END,1516215856619,161
36,PLAYER_SLEEPBEFORE_START,1516215856619,162
36,PLAYER_SLEEPBEFORE_END,1516215856644,162
36,WS_SEND_START,1516215856644,162
36,WS_SEND_END,1516215856644,162
36,WS_RECV_START,1516215856644,163
36,WS_RECV_END,1516215857015,163
36,PLAYER_SLEEPBEFORE_START,1516215857015,164
36,PLAYER_SLEEPBEFORE_END,1516215877827,164
36,WS_SEND_START,1516215877827,164
36,WS_SEND_END,1516215877827,164
36,WS_RECV_START,1516215877827,165
36,WS_RECV_END,1516215878034,165
36,PLAYER_SLEEPBEFORE_START,1516215878034,166
36,PLAYER_SLEEPBEFORE_END,1516215900490,166
36,WS_SEND_START,1516215900490,166
36,WS_SEND_END,1516215900490,166
36,WS_RECV_START,1516215900490,167
36,WS_RECV_END,1516215900666,167
36,PLAYER_SLEEPBEFORE_START,1516215900666,168
36,PLAYER_SLEEPBEFORE_END,1516215928023,168
36,WS_SEND_START,1516215928023,168
36,WS_SEND_END,1516215928023,168
36,WS_RECV_START,1516215928023,169
36,WS_RECV_END,1516215928315,169
36,PLAYER_SLEEPBEFORE_START,1516215928315,170
36,PLAYER_SLEEPBEFORE_END,1516215928324,170
36,WS_SEND_START,1516215928324,170
36,WS_SEND_END,1516215928324,170
36,WS_RECV_START,1516215928324,171
36,WS_RECV_END,1516215928702,171
36,PLAYER_SLEEPBEFORE_START,1516215928702,172
36,PLAYER_SLEEPBEFORE_END,1516215929071,172
36,WS_SEND_START,1516215929071,172
36,WS_SEND_END,1516215929071,172
36,WS_RECV_START,1516215929071,173
36,WS_RECV_END,1516215929351,173
36,PLAYER_SLEEPBEFORE_START,1516215929351,174
36,PLAYER_SLEEPBEFORE_END,1516215929392,174
36,WS_SEND_START,1516215929392,174
36,WS_SEND_END,1516215929392,174
36,WS_RECV_START,1516215929392,175
36,WS_RECV_END,1516215929533,175
36,PLAYER_SLEEPBEFORE_START,1516215929533,176
36,PLAYER_SLEEPBEFORE_END,1516215951294,176
36,WS_SEND_START,1516215951294,176
36,WS_SEND_END,1516215951294,176
36,PLAYER_SLEEPBEFORE_START,1516215951294,177
36,PLAYER_SLEEPBEFORE_END,1516215953812,177
36,WS_SEND_START,1516215953812,177
36,WS_SEND_END,1516215953812,177
36,WS_RECV_START,1516215953812,178
36,WS_RECV_END,1516215954137,178
36,PLAYER_SLEEPBEFORE_START,1516215954137,179
36,PLAYER_SLEEPBEFORE_END,1516215976478,179
36,WS_SEND_START,1516215976478,179
36,WS_SEND_END,1516215976478,179
36,WS_RECV_START,1516215976478,180
36,WS_RECV_END,1516215979893,180
36,PLAYER_SLEEPBEFORE_START,1516215979893,181
36,PLAYER_SLEEPBEFORE_END,1516215980337,181
36,WS_SEND_START,1516215980337,181
36,WS_SEND_END,1516215980337,181
36,WS_RECV_START,1516215980337,182
36,WS_RECV_END,1516215983625,182
36,PLAYER_SLEEPBEFORE_START,1516215983625,183
36,PLAYER_SLEEPBEFORE_END,1516215984148,183
36,WS_SEND_START,1516215984148,183
36,WS_SEND_END,1516215984148,183
36,WS_RECV_START,1516215984148,184
36,WS_RECV_END,1516215986176,184
36,PLAYER_SLEEPBEFORE_START,1516215986176,185
36,PLAYER_SLEEPBEFORE_END,1516215986444,185
36,WS_SEND_START,1516215986444,185
36,WS_SEND_END,1516215986444,185
36,WS_RECV_START,1516215986444,186
36,WS_RECV_END,1516215989330,186
36,PLAYER_SLEEPBEFORE_START,1516215989330,187
36,PLAYER_SLEEPBEFORE_END,1516216011830,187
36,WS_SEND_START,1516216011830,187
36,WS_SEND_END,1516216011830,187
36,WS_RECV_START,1516216011830,188
36,WS_RECV_END,1516216017130,188
36,PLAYER_SLEEPBEFORE_START,1516216017130,189
36,PLAYER_SLEEPBEFORE_END,1516216023369,189
36,WS_SEND_START,1516216023369,189
36,WS_SEND_END,1516216023369,189
36,WS_RECV_START,1516216023369,190
36,WS_RECV_END,1516216031476,190
36,PLAYER_SLEEPBEFORE_START,1516216031476,191
36,PLAYER_SLEEPBEFORE_END,1516216033391,191
36,WS_SEND_START,1516216033391,191
36,WS_SEND_END,1516216033391,191
36,WS_RECV_START,1516216033391,192
36,WS_RECV_END,1516216043306,192
36,PLAYER_SLEEPBEFORE_START,1516216043306,193
36,PLAYER_SLEEPBEFORE_END,1516216043434,193
36,WS_SEND_START,1516216043434,193
36,WS_SEND_END,1516216043434,193
36,WS_RECV_START,1516216043434,194
36,WS_RECV_END,1516216047688,194
36,PLAYER_SLEEPBEFORE_START,1516216047688,195
36,PLAYER_SLEEPBEFORE_END,1516216049443,195
36,WS_SEND_START,1516216049443,195
36,WS_SEND_END,1516216049443,195
36,WS_RECV_START,1516216049443,196
36,WS_RECV_END,1516216052826,196
36,PLAYER_SLEEPBEFORE_START,1516216052826,197
36,PLAYER_SLEEPBEFORE_END,1516216054631,197
36,WS_SEND_START,1516216054631,197
36,WS_SEND_END,1516216054631,197
36,WS_RECV_START,1516216054631,198
36,WS_RECV_END,1516216058656,198
36,PLAYER_SLEEPBEFORE_START,1516216058656,199
36,PLAYER_SLEEPBEFORE_END,1516216070510,199
36,WS_SEND_START,1516216070510,199
36,WS_SEND_END,1516216070510,199
36,PLAYER_SLEEPBEFORE_START,1516216070510,200
36,PLAYER_SLEEPBEFORE_END,1516216074598,200
36,WS_SEND_START,1516216074598,200
36,WS_SEND_END,1516216074598,200
36,WS_RECV_START,1516216074598,201
36,WS_RECV_END,1516216080323,201
36,PLAYER_SLEEPBEFORE_START,1516216080323,202
36,PLAYER_SLEEPBEFORE_END,1516216080337,202
36,WS_SEND_START,1516216080337,202
36,WS_SEND_END,1516216080337,202
36,WS_RECV_START,1516216080337,203
36,WS_RECV_END,1516216085186,203
36,PLAYER_SLEEPBEFORE_START,1516216085186,204
36,PLAYER_SLEEPBEFORE_END,1516216104835,204
36,WS_SEND_START,1516216104835,204
36,WS_SEND_END,1516216104835,204
36,PLAYER_SLEEPBEFORE_START,1516216104835,205
36,PLAYER_SLEEPBEFORE_END,1516216108733,205
36,WS_SEND_START,1516216108733,205
36,WS_SEND_END,1516216108733,205
36,WS_RECV_START,1516216108733,206
36,WS_RECV_END,1516216110181,206
36,PLAYER_SLEEPBEFORE_START,1516216110181,207
36,PLAYER_SLEEPBEFORE_END,1516216127113,207
36,REQ_START,1516216127113,207
36,REQ_END,1516216127120,207
36,PLAYER_SLEEPBEFORE_START,1516216127120,208
36,PLAYER_SLEEPBEFORE_END,1516216133972,208
36,WS_CLOSE_START,1516216133972,208
36,WS_CLOSE_END,1516216133972,208
36,PLAYER_DONE,1516216133972
