# --sessions 180 --app-url=http://shinyloadtest.rstudioservices.com/cran_explorer --output-dir test180 --overwrite-output --log-level warn --start-interval 500 15min.log
thread_id,event,timestamp,input_line_number,comment
84,PLAYER_SESSION_CREATE,1516215133852
84,PLAYER_START_INTERVAL_START,1516215133852
84,PLAYER_START_INTERVAL_END,1516215175852
84,REQ_HOME_START,1516215175852,2
84,REQ_HOME_END,1516215175967,2
84,REQ_START,1516215175967,3
84,REQ_END,1516215175998,3
84,REQ_START,1516215175998,4
84,REQ_END,1516215176029,4
84,REQ_START,1516215176029,5
84,REQ_END,1516215176063,5
84,REQ_START,1516215176063,6
84,REQ_END,1516215176098,6
84,REQ_START,1516215176098,7
84,REQ_END,1516215176131,7
84,REQ_START,1516215176131,8
84,REQ_END,1516215176282,8
84,REQ_START,1516215176282,9
84,REQ_END,1516215176328,9
84,REQ_START,1516215176328,10
84,REQ_END,1516215176335,10
84,REQ_START,1516215176335,11
84,REQ_END,1516215176369,11
84,REQ_START,1516215176369,12
84,REQ_END,1516215176378,12
84,REQ_START,1516215176378,13
84,REQ_END,1516215176479,13
84,REQ_START,1516215176479,14
84,REQ_END,1516215176493,14
84,REQ_START,1516215176493,15
84,REQ_END,1516215176684,15
84,REQ_TOK_START,1516215176684,16
84,REQ_TOK_END,1516215176691,16
84,REQ_SINF_START,1516215176691,17
84,REQ_SINF_END,1516215176698,17
84,WS_OPEN_START,1516215176698,18
84,WS_OPEN_END,1516215176704,18
84,REQ_START,1516215176704,19
84,REQ_END,1516215176778,19
84,WS_RECV_START,1516215176778,20
84,WS_RECV_END,1516215176778,20
84,PLAYER_SLEEPBEFORE_START,1516215176778,21
84,PLAYER_SLEEPBEFORE_END,1516215176784,21
84,WS_SEND_START,1516215176784,21
84,WS_SEND_END,1516215176784,21
84,PLAYER_SLEEPBEFORE_START,1516215176784,22
84,PLAYER_SLEEPBEFORE_END,1516215176785,22
84,WS_SEND_START,1516215176785,22
84,WS_SEND_END,1516215176785,22
84,WS_RECV_INIT_START,1516215176785,23
84,WS_RECV_INIT_END,1516215176820,23
84,WS_RECV_START,1516215176820,24
84,WS_RECV_END,1516215176899,24
84,PLAYER_SLEEPBEFORE_START,1516215176899,25
84,PLAYER_SLEEPBEFORE_END,1516215176906,25
84,REQ_START,1516215176906,25
84,REQ_END,1516215176953,25
84,PLAYER_SLEEPBEFORE_START,1516215176953,26
84,PLAYER_SLEEPBEFORE_END,1516215176954,26
84,REQ_START,1516215176954,26
84,REQ_END,1516215177002,26
84,PLAYER_SLEEPBEFORE_START,1516215177002,27
84,PLAYER_SLEEPBEFORE_END,1516215177006,27
84,REQ_START,1516215177006,27
84,REQ_END,1516215177051,27
84,PLAYER_SLEEPBEFORE_START,1516215177051,28
84,PLAYER_SLEEPBEFORE_END,1516215177337,28
84,REQ_START,1516215177337,28
84,REQ_END,1516215177465,28
84,PLAYER_SLEEPBEFORE_START,1516215177465,29
84,PLAYER_SLEEPBEFORE_END,1516215177640,29
84,WS_SEND_START,1516215177640,29
84,WS_SEND_END,1516215177640,29
84,WS_RECV_START,1516215177640,30
84,WS_RECV_END,1516215177773,30
84,PLAYER_SLEEPBEFORE_START,1516215177773,31
84,PLAYER_SLEEPBEFORE_END,1516215177784,31
84,REQ_START,1516215177784,31
84,REQ_END,1516215177820,31
84,PLAYER_SLEEPBEFORE_START,1516215177820,32
84,PLAYER_SLEEPBEFORE_END,1516215205965,32
84,WS_SEND_START,1516215205965,32
84,WS_SEND_END,1516215205965,32
84,WS_RECV_START,1516215205965,33
84,WS_RECV_END,1516215206616,33
84,PLAYER_SLEEPBEFORE_START,1516215206616,34
84,PLAYER_SLEEPBEFORE_END,1516215232527,34
84,WS_SEND_START,1516215232527,34
84,WS_SEND_END,1516215232528,34
84,WS_RECV_START,1516215232528,35
84,WS_RECV_END,1516215233399,35
84,PLAYER_SLEEPBEFORE_START,1516215233399,36
84,PLAYER_SLEEPBEFORE_END,1516215233408,36
84,WS_SEND_START,1516215233408,36
84,WS_SEND_END,1516215233408,36
84,WS_RECV_START,1516215233408,37
84,WS_RECV_END,1516215233924,37
84,PLAYER_SLEEPBEFORE_START,1516215233924,38
84,PLAYER_SLEEPBEFORE_END,1516215237119,38
84,WS_SEND_START,1516215237119,38
84,WS_SEND_END,1516215237119,38
84,WS_RECV_START,1516215237119,39
84,WS_RECV_END,1516215238077,39
84,PLAYER_SLEEPBEFORE_START,1516215238077,40
84,PLAYER_SLEEPBEFORE_END,1516215238123,40
84,WS_SEND_START,1516215238123,40
84,WS_SEND_END,1516215238123,40
84,WS_RECV_START,1516215238123,41
84,WS_RECV_END,1516215238608,41
84,PLAYER_SLEEPBEFORE_START,1516215238608,42
84,PLAYER_SLEEPBEFORE_END,1516215256743,42
84,WS_SEND_START,1516215256743,42
84,WS_SEND_END,1516215256743,42
84,WS_RECV_START,1516215256743,43
84,WS_RECV_END,1516215258076,43
84,PLAYER_SLEEPBEFORE_START,1516215258076,44
84,PLAYER_SLEEPBEFORE_END,1516215258088,44
84,WS_SEND_START,1516215258088,44
84,WS_SEND_END,1516215258088,44
84,WS_RECV_START,1516215258088,45
84,WS_RECV_END,1516215258784,45
84,PLAYER_SLEEPBEFORE_START,1516215258784,46
84,PLAYER_SLEEPBEFORE_END,1516215260044,46
84,WS_SEND_START,1516215260044,46
84,WS_SEND_END,1516215260044,46
84,WS_RECV_START,1516215260044,47
84,WS_RECV_END,1516215261744,47
84,PLAYER_SLEEPBEFORE_START,1516215261744,48
84,PLAYER_SLEEPBEFORE_END,1516215263064,48
84,WS_SEND_START,1516215263064,48
84,WS_SEND_END,1516215263065,48
84,WS_RECV_START,1516215263065,49
84,WS_RECV_END,1516215264155,49
84,PLAYER_SLEEPBEFORE_START,1516215264155,50
84,PLAYER_SLEEPBEFORE_END,1516215264179,50
84,WS_SEND_START,1516215264179,50
84,WS_SEND_END,1516215264179,50
84,WS_RECV_START,1516215264179,51
84,WS_RECV_END,1516215264851,51
84,PLAYER_SLEEPBEFORE_START,1516215264851,52
84,PLAYER_SLEEPBEFORE_END,1516215287415,52
84,WS_SEND_START,1516215287415,52
84,WS_SEND_END,1516215287415,52
84,WS_RECV_START,1516215287415,53
84,WS_RECV_END,1516215287555,53
84,PLAYER_SLEEPBEFORE_START,1516215287555,54
84,PLAYER_SLEEPBEFORE_END,1516215308859,54
84,WS_SEND_START,1516215308859,54
84,WS_SEND_END,1516215308859,54
84,PLAYER_SLEEPBEFORE_START,1516215308859,55
84,PLAYER_SLEEPBEFORE_END,1516215310800,55
84,WS_SEND_START,1516215310800,55
84,WS_SEND_END,1516215310800,55
84,WS_RECV_START,1516215310800,56
84,WS_RECV_END,1516215310878,56
84,PLAYER_SLEEPBEFORE_START,1516215310878,57
84,PLAYER_SLEEPBEFORE_END,1516215333750,57
84,WS_SEND_START,1516215333750,57
84,WS_SEND_END,1516215333751,57
84,WS_RECV_START,1516215333751,58
84,WS_RECV_END,1516215333821,58
84,PLAYER_SLEEPBEFORE_START,1516215333821,59
84,PLAYER_SLEEPBEFORE_END,1516215336148,59
84,WS_SEND_START,1516215336148,59
84,WS_SEND_END,1516215336148,59
84,WS_RECV_START,1516215336148,60
84,WS_RECV_END,1516215336275,60
84,PLAYER_SLEEPBEFORE_START,1516215336275,61
84,PLAYER_SLEEPBEFORE_END,1516215339866,61
84,WS_SEND_START,1516215339866,61
84,WS_SEND_END,1516215339866,61
84,WS_RECV_START,1516215339866,62
84,WS_RECV_END,1516215340048,62
84,PLAYER_SLEEPBEFORE_START,1516215340048,63
84,PLAYER_SLEEPBEFORE_END,1516215359310,63
84,WS_SEND_START,1516215359310,63
84,WS_SEND_END,1516215359310,63
84,WS_RECV_START,1516215359310,64
84,WS_RECV_END,1516215359378,64
84,PLAYER_SLEEPBEFORE_START,1516215359379,65
84,PLAYER_SLEEPBEFORE_END,1516215386196,65
84,WS_SEND_START,1516215386196,65
84,WS_SEND_END,1516215386196,65
84,WS_RECV_START,1516215386196,66
84,WS_RECV_END,1516215386418,66
84,PLAYER_SLEEPBEFORE_START,1516215386418,67
84,PLAYER_SLEEPBEFORE_END,1516215387925,67
84,WS_SEND_START,1516215387925,67
84,WS_SEND_END,1516215387925,67
84,WS_RECV_START,1516215387925,68
84,WS_RECV_END,1516215388104,68
84,PLAYER_SLEEPBEFORE_START,1516215388104,69
84,PLAYER_SLEEPBEFORE_END,1516215410102,69
84,WS_SEND_START,1516215410102,69
84,WS_SEND_END,1516215410102,69
84,WS_RECV_START,1516215410102,70
84,WS_RECV_END,1516215410328,70
84,PLAYER_SLEEPBEFORE_START,1516215410328,71
84,PLAYER_SLEEPBEFORE_END,1516215435104,71
84,WS_SEND_START,1516215435104,71
84,WS_SEND_END,1516215435104,71
84,PLAYER_SLEEPBEFORE_START,1516215435104,72
84,PLAYER_SLEEPBEFORE_END,1516215437711,72
84,WS_SEND_START,1516215437711,72
84,WS_SEND_END,1516215437711,72
84,WS_RECV_START,1516215437711,73
84,WS_RECV_END,1516215437767,73
84,PLAYER_SLEEPBEFORE_START,1516215437768,74
84,PLAYER_SLEEPBEFORE_END,1516215437777,74
84,WS_SEND_START,1516215437777,74
84,WS_SEND_END,1516215437777,74
84,WS_RECV_START,1516215437777,75
84,WS_RECV_END,1516215437816,75
84,PLAYER_SLEEPBEFORE_START,1516215437816,76
84,PLAYER_SLEEPBEFORE_END,1516215439323,76
84,WS_SEND_START,1516215439323,76
84,WS_SEND_END,1516215439323,76
84,WS_RECV_START,1516215439323,77
84,WS_RECV_END,1516215439450,77
84,PLAYER_SLEEPBEFORE_START,1516215439450,78
84,PLAYER_SLEEPBEFORE_END,1516215440318,78
84,WS_SEND_START,1516215440318,78
84,WS_SEND_END,1516215440318,78
84,WS_RECV_START,1516215440318,79
84,WS_RECV_END,1516215440744,79
84,PLAYER_SLEEPBEFORE_START,1516215440744,80
84,PLAYER_SLEEPBEFORE_END,1516215448410,80
84,WS_SEND_START,1516215448410,80
84,WS_SEND_END,1516215448410,80
84,WS_RECV_START,1516215448410,81
84,WS_RECV_END,1516215448846,81
84,PLAYER_SLEEPBEFORE_START,1516215448846,82
84,PLAYER_SLEEPBEFORE_END,1516215449948,82
84,WS_SEND_START,1516215449948,82
84,WS_SEND_END,1516215449948,82
84,WS_RECV_START,1516215449948,83
84,WS_RECV_END,1516215450840,83
84,PLAYER_SLEEPBEFORE_START,1516215450840,84
84,PLAYER_SLEEPBEFORE_END,1516215451787,84
84,WS_SEND_START,1516215451787,84
84,WS_SEND_END,1516215451787,84
84,WS_RECV_START,1516215451787,85
84,WS_RECV_END,1516215452593,85
84,PLAYER_SLEEPBEFORE_START,1516215452593,86
84,PLAYER_SLEEPBEFORE_END,1516215456765,86
84,WS_SEND_START,1516215456765,86
84,WS_SEND_END,1516215456765,86
84,WS_RECV_START,1516215456765,87
84,WS_RECV_END,1516215457165,87
84,PLAYER_SLEEPBEFORE_START,1516215457165,88
84,PLAYER_SLEEPBEFORE_END,1516215457173,88
84,WS_SEND_START,1516215457173,88
84,WS_SEND_END,1516215457173,88
84,WS_RECV_START,1516215457173,89
84,WS_RECV_END,1516215458184,89
84,PLAYER_SLEEPBEFORE_START,1516215458184,90
84,PLAYER_SLEEPBEFORE_END,1516215485381,90
84,REQ_START,1516215485381,90
84,REQ_END,1516215485389,90
84,PLAYER_SLEEPBEFORE_START,1516215485389,91
84,PLAYER_SLEEPBEFORE_END,1516215493278,91
84,WS_SEND_START,1516215493278,91
84,WS_SEND_END,1516215493278,91
84,WS_RECV_START,1516215493278,92
84,WS_RECV_END,1516215493402,92
84,PLAYER_SLEEPBEFORE_START,1516215493402,93
84,PLAYER_SLEEPBEFORE_END,1516215493417,93
84,WS_SEND_START,1516215493417,93
84,WS_SEND_END,1516215493418,93
84,WS_RECV_START,1516215493418,94
84,WS_RECV_END,1516215493552,94
84,PLAYER_SLEEPBEFORE_START,1516215493552,95
84,PLAYER_SLEEPBEFORE_END,1516215517107,95
84,WS_SEND_START,1516215517107,95
84,WS_SEND_END,1516215517107,95
84,WS_RECV_START,1516215517107,96
84,WS_RECV_END,1516215517278,96
84,PLAYER_SLEEPBEFORE_START,1516215517278,97
84,PLAYER_SLEEPBEFORE_END,1516215539718,97
84,WS_SEND_START,1516215539718,97
84,WS_SEND_END,1516215539718,97
84,WS_RECV_START,1516215539718,98
84,WS_RECV_END,1516215539939,98
84,PLAYER_SLEEPBEFORE_START,1516215539939,99
84,PLAYER_SLEEPBEFORE_END,1516215539960,99
84,WS_SEND_START,1516215539960,99
84,WS_SEND_END,1516215539960,99
84,WS_RECV_START,1516215539960,100
84,WS_RECV_END,1516215540180,100
84,PLAYER_SLEEPBEFORE_START,1516215540180,101
84,PLAYER_SLEEPBEFORE_END,1516215563739,101
84,WS_SEND_START,1516215563739,101
84,WS_SEND_END,1516215563739,101
84,WS_RECV_START,1516215563739,102
84,WS_RECV_END,1516215563876,102
84,PLAYER_SLEEPBEFORE_START,1516215563876,103
84,PLAYER_SLEEPBEFORE_END,1516215587501,103
84,WS_SEND_START,1516215587501,103
84,WS_SEND_END,1516215587501,103
84,WS_RECV_START,1516215587501,104
84,WS_RECV_END,1516215587835,104
84,PLAYER_SLEEPBEFORE_START,1516215587835,105
84,PLAYER_SLEEPBEFORE_END,1516215613212,105
84,WS_SEND_START,1516215613212,105
84,WS_SEND_END,1516215613212,105
84,WS_RECV_START,1516215613212,106
84,WS_RECV_END,1516215613478,106
84,PLAYER_SLEEPBEFORE_START,1516215613478,107
84,PLAYER_SLEEPBEFORE_END,1516215636901,107
84,WS_SEND_START,1516215636901,107
84,WS_SEND_END,1516215636901,107
84,WS_RECV_START,1516215636901,108
84,WS_RECV_END,1516215638776,108
84,PLAYER_SLEEPBEFORE_START,1516215638776,109
84,PLAYER_SLEEPBEFORE_END,1516215638785,109
84,WS_SEND_START,1516215638785,109
84,WS_SEND_END,1516215638785,109
84,WS_RECV_START,1516215638785,110
84,WS_RECV_END,1516215639525,110
84,PLAYER_SLEEPBEFORE_START,1516215639525,111
84,PLAYER_SLEEPBEFORE_END,1516215640484,111
84,WS_SEND_START,1516215640484,111
84,WS_SEND_END,1516215640484,111
84,WS_RECV_START,1516215640484,112
84,WS_RECV_END,1516215640962,112
84,PLAYER_SLEEPBEFORE_START,1516215640962,113
84,PLAYER_SLEEPBEFORE_END,1516215641524,113
84,WS_SEND_START,1516215641524,113
84,WS_SEND_END,1516215641524,113
84,WS_RECV_START,1516215641524,114
84,WS_RECV_END,1516215642353,114
84,PLAYER_SLEEPBEFORE_START,1516215642353,115
84,PLAYER_SLEEPBEFORE_END,1516215642362,115
84,WS_SEND_START,1516215642362,115
84,WS_SEND_END,1516215642362,115
84,WS_RECV_START,1516215642362,116
84,WS_RECV_END,1516215643768,116
84,PLAYER_SLEEPBEFORE_START,1516215643768,117
84,PLAYER_SLEEPBEFORE_END,1516215664128,117
84,WS_SEND_START,1516215664128,117
84,WS_SEND_END,1516215664128,117
84,PLAYER_SLEEPBEFORE_START,1516215664128,118
84,PLAYER_SLEEPBEFORE_END,1516215667880,118
84,WS_SEND_START,1516215667880,118
84,WS_SEND_END,1516215667880,118
84,WS_RECV_START,1516215667880,119
84,WS_RECV_END,1516215668960,119
84,PLAYER_SLEEPBEFORE_START,1516215668960,120
84,PLAYER_SLEEPBEFORE_END,1516215669949,120
84,WS_SEND_START,1516215669949,120
84,WS_SEND_END,1516215669949,120
84,WS_RECV_START,1516215669949,121
84,WS_RECV_END,1516215671173,121
84,PLAYER_SLEEPBEFORE_START,1516215671173,122
84,PLAYER_SLEEPBEFORE_END,1516215672358,122
84,WS_SEND_START,1516215672358,122
84,WS_SEND_END,1516215672358,122
84,WS_RECV_START,1516215672358,123
84,WS_RECV_END,1516215674495,123
84,PLAYER_SLEEPBEFORE_START,1516215674495,124
84,PLAYER_SLEEPBEFORE_END,1516215698900,124
84,WS_SEND_START,1516215698900,124
84,WS_SEND_END,1516215698901,124
84,WS_RECV_START,1516215698901,125
84,WS_RECV_END,1516215700142,125
84,PLAYER_SLEEPBEFORE_START,1516215700142,126
84,PLAYER_SLEEPBEFORE_END,1516215720654,126
84,WS_SEND_START,1516215720654,126
84,WS_SEND_END,1516215720654,126
84,PLAYER_SLEEPBEFORE_START,1516215720654,127
84,PLAYER_SLEEPBEFORE_END,1516215723708,127
84,WS_SEND_START,1516215723708,127
84,WS_SEND_END,1516215723708,127
84,WS_RECV_START,1516215723709,128
84,WS_RECV_END,1516215724124,128
84,PLAYER_SLEEPBEFORE_START,1516215724124,129
84,PLAYER_SLEEPBEFORE_END,1516215724144,129
84,WS_SEND_START,1516215724144,129
84,WS_SEND_END,1516215724144,129
84,WS_RECV_START,1516215724144,130
84,WS_RECV_END,1516215724673,130
84,PLAYER_SLEEPBEFORE_START,1516215724673,131
84,PLAYER_SLEEPBEFORE_END,1516215746297,131
84,WS_SEND_START,1516215746297,131
84,WS_SEND_END,1516215746297,131
84,PLAYER_SLEEPBEFORE_START,1516215746297,132
84,PLAYER_SLEEPBEFORE_END,1516215749377,132
84,WS_SEND_START,1516215749377,132
84,WS_SEND_END,1516215749377,132
84,WS_RECV_START,1516215749377,133
84,WS_RECV_END,1516215750596,133
84,PLAYER_SLEEPBEFORE_START,1516215750596,134
84,PLAYER_SLEEPBEFORE_END,1516215771814,134
84,WS_SEND_START,1516215771814,134
84,WS_SEND_END,1516215771814,134
84,PLAYER_SLEEPBEFORE_START,1516215771814,135
84,PLAYER_SLEEPBEFORE_END,1516215775004,135
84,WS_SEND_START,1516215775004,135
84,WS_SEND_END,1516215775004,135
84,WS_RECV_START,1516215775004,136
84,WS_RECV_END,1516215775261,136
84,PLAYER_SLEEPBEFORE_START,1516215775261,137
84,PLAYER_SLEEPBEFORE_END,1516215775268,137
84,WS_SEND_START,1516215775268,137
84,WS_SEND_END,1516215775268,137
84,WS_RECV_START,1516215775268,138
84,WS_RECV_END,1516215775345,138
84,PLAYER_SLEEPBEFORE_START,1516215775345,139
84,PLAYER_SLEEPBEFORE_END,1516215776035,139
84,WS_SEND_START,1516215776035,139
84,WS_SEND_END,1516215776035,139
84,WS_RECV_START,1516215776035,140
84,WS_RECV_END,1516215776251,140
84,PLAYER_SLEEPBEFORE_START,1516215776251,141
84,PLAYER_SLEEPBEFORE_END,1516215776906,141
84,WS_SEND_START,1516215776906,141
84,WS_SEND_END,1516215776906,141
84,WS_RECV_START,1516215776906,142
84,WS_RECV_END,1516215777093,142
84,PLAYER_SLEEPBEFORE_START,1516215777093,143
84,PLAYER_SLEEPBEFORE_END,1516215777150,143
84,WS_SEND_START,1516215777150,143
84,WS_SEND_END,1516215777150,143
84,WS_RECV_START,1516215777150,144
84,WS_RECV_END,1516215777466,144
84,PLAYER_SLEEPBEFORE_START,1516215777466,145
84,PLAYER_SLEEPBEFORE_END,1516215793528,145
84,REQ_START,1516215793528,145
84,REQ_END,1516215793536,145
84,PLAYER_SLEEPBEFORE_START,1516215793536,146
84,PLAYER_SLEEPBEFORE_END,1516215802413,146
84,WS_SEND_START,1516215802413,146
84,WS_SEND_END,1516215802413,146
84,WS_RECV_START,1516215802413,147
84,WS_RECV_END,1516215803217,147
84,PLAYER_SLEEPBEFORE_START,1516215803217,148
84,PLAYER_SLEEPBEFORE_END,1516215825139,148
84,WS_SEND_START,1516215825139,148
84,WS_SEND_END,1516215825139,148
84,PLAYER_SLEEPBEFORE_START,1516215825139,149
84,PLAYER_SLEEPBEFORE_END,1516215827568,149
84,WS_SEND_START,1516215827568,149
84,WS_SEND_END,1516215827568,149
84,WS_RECV_START,1516215827568,150
84,WS_RECV_END,1516215827741,150
84,PLAYER_SLEEPBEFORE_START,1516215827741,151
84,PLAYER_SLEEPBEFORE_END,1516215827951,151
84,WS_SEND_START,1516215827951,151
84,WS_SEND_END,1516215827951,151
84,WS_RECV_START,1516215827951,152
84,WS_RECV_END,1516215828074,152
84,PLAYER_SLEEPBEFORE_START,1516215828074,153
84,PLAYER_SLEEPBEFORE_END,1516215852001,153
84,WS_SEND_START,1516215852001,153
84,WS_SEND_END,1516215852001,153
84,WS_RECV_START,1516215852001,154
84,WS_RECV_END,1516215852587,154
84,PLAYER_SLEEPBEFORE_START,1516215852587,155
84,PLAYER_SLEEPBEFORE_END,1516215875145,155
84,WS_SEND_START,1516215875145,155
84,WS_SEND_END,1516215875145,155
84,PLAYER_SLEEPBEFORE_START,1516215875145,156
84,PLAYER_SLEEPBEFORE_END,1516215878419,156
84,WS_SEND_START,1516215878419,156
84,WS_SEND_END,1516215878419,156
84,WS_RECV_START,1516215878419,157
84,WS_RECV_END,1516215878476,157
84,PLAYER_SLEEPBEFORE_START,1516215878476,158
84,PLAYER_SLEEPBEFORE_END,1516215878486,158
84,WS_SEND_START,1516215878486,158
84,WS_SEND_END,1516215878487,158
84,WS_RECV_START,1516215878487,159
84,WS_RECV_END,1516215878650,159
84,PLAYER_SLEEPBEFORE_START,1516215878650,160
84,PLAYER_SLEEPBEFORE_END,1516215878825,160
84,WS_SEND_START,1516215878825,160
84,WS_SEND_END,1516215878825,160
84,WS_RECV_START,1516215878825,161
84,WS_RECV_END,1516215879094,161
84,PLAYER_SLEEPBEFORE_START,1516215879094,162
84,PLAYER_SLEEPBEFORE_END,1516215879119,162
84,WS_SEND_START,1516215879119,162
84,WS_SEND_END,1516215879119,162
84,WS_RECV_START,1516215879119,163
84,WS_RECV_END,1516215879364,163
84,PLAYER_SLEEPBEFORE_START,1516215879364,164
84,PLAYER_SLEEPBEFORE_END,1516215900177,164
84,WS_SEND_START,1516215900177,164
84,WS_SEND_END,1516215900177,164
84,WS_RECV_START,1516215900177,165
84,WS_RECV_END,1516215900372,165
84,PLAYER_SLEEPBEFORE_START,1516215900372,166
84,PLAYER_SLEEPBEFORE_END,1516215922827,166
84,WS_SEND_START,1516215922827,166
84,WS_SEND_END,1516215922827,166
84,WS_RECV_START,1516215922827,167
84,WS_RECV_END,1516215923080,167
84,PLAYER_SLEEPBEFORE_START,1516215923080,168
84,PLAYER_SLEEPBEFORE_END,1516215950437,168
84,WS_SEND_START,1516215950437,168
84,WS_SEND_END,1516215950437,168
84,WS_RECV_START,1516215950437,169
84,WS_RECV_END,1516215951204,169
84,PLAYER_SLEEPBEFORE_START,1516215951204,170
84,PLAYER_SLEEPBEFORE_END,1516215951213,170
84,WS_SEND_START,1516215951213,170
84,WS_SEND_END,1516215951213,170
84,WS_RECV_START,1516215951213,171
84,WS_RECV_END,1516215951726,171
84,PLAYER_SLEEPBEFORE_START,1516215951726,172
84,PLAYER_SLEEPBEFORE_END,1516215952095,172
84,WS_SEND_START,1516215952095,172
84,WS_SEND_END,1516215952095,172
84,WS_RECV_START,1516215952095,173
84,WS_RECV_END,1516215952561,173
84,PLAYER_SLEEPBEFORE_START,1516215952561,174
84,PLAYER_SLEEPBEFORE_END,1516215952602,174
84,WS_SEND_START,1516215952602,174
84,WS_SEND_END,1516215952602,174
84,WS_RECV_START,1516215952602,175
84,WS_RECV_END,1516215953168,175
84,PLAYER_SLEEPBEFORE_START,1516215953168,176
84,PLAYER_SLEEPBEFORE_END,1516215974930,176
84,WS_SEND_START,1516215974930,176
84,WS_SEND_END,1516215974930,176
84,PLAYER_SLEEPBEFORE_START,1516215974930,177
84,PLAYER_SLEEPBEFORE_END,1516215977448,177
84,WS_SEND_START,1516215977448,177
84,WS_SEND_END,1516215977448,177
84,WS_RECV_START,1516215977448,178
84,WS_RECV_END,1516215977667,178
84,PLAYER_SLEEPBEFORE_START,1516215977667,179
84,PLAYER_SLEEPBEFORE_END,1516216000007,179
84,WS_SEND_START,1516216000007,179
84,WS_SEND_END,1516216000007,179
84,WS_RECV_START,1516216000007,180
84,WS_RECV_END,1516216006279,180
84,PLAYER_SLEEPBEFORE_START,1516216006279,181
84,PLAYER_SLEEPBEFORE_END,1516216006723,181
84,WS_SEND_START,1516216006723,181
84,WS_SEND_END,1516216006723,181
84,WS_RECV_START,1516216006723,182
84,WS_RECV_END,1516216009956,182
84,PLAYER_SLEEPBEFORE_START,1516216009956,183
84,PLAYER_SLEEPBEFORE_END,1516216010479,183
84,WS_SEND_START,1516216010479,183
84,WS_SEND_END,1516216010479,183
84,WS_RECV_START,1516216010479,184
84,WS_RECV_END,1516216013841,184
84,PLAYER_SLEEPBEFORE_START,1516216013841,185
84,PLAYER_SLEEPBEFORE_END,1516216014109,185
84,WS_SEND_START,1516216014109,185
84,WS_SEND_END,1516216014109,185
84,WS_RECV_START,1516216014109,186
84,WS_RECV_END,1516216017841,186
84,PLAYER_SLEEPBEFORE_START,1516216017841,187
84,PLAYER_SLEEPBEFORE_END,1516216040341,187
84,WS_SEND_START,1516216040341,187
84,WS_SEND_END,1516216040341,187
84,WS_RECV_START,1516216040341,188
84,WS_RECV_END,1516216049634,188
84,PLAYER_SLEEPBEFORE_START,1516216049634,189
84,PLAYER_SLEEPBEFORE_END,1516216055873,189
84,WS_SEND_START,1516216055873,189
84,WS_SEND_END,1516216055873,189
84,WS_RECV_START,1516216055873,190
84,WS_RECV_END,1516216064602,190
84,PLAYER_SLEEPBEFORE_START,1516216064602,191
84,PLAYER_SLEEPBEFORE_END,1516216066517,191
84,WS_SEND_START,1516216066517,191
84,WS_SEND_END,1516216066517,191
84,WS_RECV_START,1516216066517,192
84,WS_RECV_END,1516216078383,192
84,PLAYER_SLEEPBEFORE_START,1516216078383,193
84,PLAYER_SLEEPBEFORE_END,1516216078511,193
84,WS_SEND_START,1516216078511,193
84,WS_SEND_END,1516216078511,193
84,WS_RECV_START,1516216078511,194
84,WS_RECV_END,1516216084117,194
84,PLAYER_SLEEPBEFORE_START,1516216084117,195
84,PLAYER_SLEEPBEFORE_END,1516216085872,195
84,WS_SEND_START,1516216085872,195
84,WS_SEND_END,1516216085872,195
84,WS_RECV_START,1516216085872,196
84,WS_RECV_END,1516216089891,196
84,PLAYER_SLEEPBEFORE_START,1516216089891,197
84,PLAYER_SLEEPBEFORE_END,1516216091697,197
84,WS_SEND_START,1516216091697,197
84,WS_SEND_END,1516216091697,197
84,WS_RECV_START,1516216091697,198
84,WS_RECV_END,1516216094572,198
84,PLAYER_SLEEPBEFORE_START,1516216094572,199
84,PLAYER_SLEEPBEFORE_END,1516216106426,199
84,WS_SEND_START,1516216106426,199
84,WS_SEND_END,1516216106426,199
84,PLAYER_SLEEPBEFORE_START,1516216106426,200
84,PLAYER_SLEEPBEFORE_END,1516216110514,200
84,WS_SEND_START,1516216110514,200
84,WS_SEND_END,1516216110514,200
84,WS_RECV_START,1516216110514,201
84,WS_RECV_END,1516216114441,201
84,PLAYER_SLEEPBEFORE_START,1516216114441,202
84,PLAYER_SLEEPBEFORE_END,1516216114455,202
84,WS_SEND_START,1516216114455,202
84,WS_SEND_END,1516216114455,202
84,WS_RECV_START,1516216114455,203
84,WS_RECV_END,1516216117536,203
84,PLAYER_SLEEPBEFORE_START,1516216117536,204
84,PLAYER_SLEEPBEFORE_END,1516216137185,204
84,WS_SEND_START,1516216137185,204
84,WS_SEND_END,1516216137185,204
84,PLAYER_SLEEPBEFORE_START,1516216137185,205
84,PLAYER_SLEEPBEFORE_END,1516216141083,205
84,WS_SEND_START,1516216141083,205
84,WS_SEND_END,1516216141084,205
84,WS_RECV_START,1516216141084,206
84,WS_RECV_END,1516216142363,206
84,PLAYER_SLEEPBEFORE_START,1516216142363,207
84,PLAYER_SLEEPBEFORE_END,1516216159294,207
84,REQ_START,1516216159294,207
84,REQ_END,1516216159303,207
84,PLAYER_SLEEPBEFORE_START,1516216159303,208
84,PLAYER_SLEEPBEFORE_END,1516216166155,208
84,WS_CLOSE_START,1516216166155,208
84,WS_CLOSE_END,1516216166155,208
84,PLAYER_DONE,1516216166155
