# --sessions 180 --app-url=http://shinyloadtest.rstudioservices.com/ --output-dir test180 --overwrite-output --log-level warn --start-interval 1500 30min.log
thread_id,event,timestamp,input_line_number,comment
104,PLAYER_SESSION_CREATE,1516056181704
104,PLAYER_START_INTERVAL_START,1516056181704
104,PLAYER_START_INTERVAL_END,1516056337704
104,REQ_HOME_START,1516056337704,2
104,REQ_HOME_END,1516056337790,2
104,REQ_START,1516056337790,3
104,REQ_END,1516056337821,3
104,REQ_START,1516056337821,4
104,REQ_END,1516056337851,4
104,REQ_START,1516056337851,5
104,REQ_END,1516056337881,5
104,REQ_START,1516056337881,6
104,REQ_END,1516056337915,6
104,REQ_START,1516056337915,7
104,REQ_END,1516056337945,7
104,REQ_START,1516056337945,8
104,REQ_END,1516056337976,8
104,REQ_START,1516056337976,9
104,REQ_END,1516056338007,9
104,REQ_START,1516056338007,10
104,REQ_END,1516056338015,10
104,REQ_START,1516056338015,11
104,REQ_END,1516056338045,11
104,REQ_START,1516056338045,12
104,REQ_END,1516056338074,12
104,REQ_START,1516056338074,13
104,REQ_END,1516056338083,13
104,REQ_START,1516056338083,14
104,REQ_END,1516056338096,14
104,REQ_START,1516056338096,15
104,REQ_END,1516056338130,15
104,REQ_TOK_START,1516056338130,16
104,REQ_TOK_END,1516056338137,16
104,REQ_SINF_START,1516056338137,17
104,REQ_SINF_END,1516056338143,17
104,WS_OPEN_START,1516056338144,18
104,WS_OPEN_END,1516056338150,18
104,WS_RECV_START,1516056338150,19
104,WS_RECV_END,1516056338151,19
104,PLAYER_SLEEPBEFORE_START,1516056338151,20
104,PLAYER_SLEEPBEFORE_END,1516056338157,20
104,WS_SEND_START,1516056338157,20
104,WS_SEND_END,1516056338157,20
104,PLAYER_SLEEPBEFORE_START,1516056338157,21
104,PLAYER_SLEEPBEFORE_END,1516056338158,21
104,WS_SEND_START,1516056338158,21
104,WS_SEND_END,1516056338158,21
104,WS_RECV_INIT_START,1516056338158,22
104,WS_RECV_INIT_END,1516056338175,22
104,WS_RECV_START,1516056338175,23
104,WS_RECV_END,1516056338235,23
104,PLAYER_SLEEPBEFORE_START,1516056338235,24
104,PLAYER_SLEEPBEFORE_END,1516056338243,24
104,REQ_START,1516056338243,24
104,REQ_END,1516056338273,24
104,PLAYER_SLEEPBEFORE_START,1516056338273,25
104,PLAYER_SLEEPBEFORE_END,1516056338276,25
104,REQ_START,1516056338276,25
104,REQ_END,1516056338305,25
104,PLAYER_SLEEPBEFORE_START,1516056338305,26
104,PLAYER_SLEEPBEFORE_END,1516056338308,26
104,REQ_START,1516056338308,26
104,REQ_END,1516056338338,26
104,PLAYER_SLEEPBEFORE_START,1516056338338,27
104,PLAYER_SLEEPBEFORE_END,1516056338594,27
104,REQ_START,1516056338594,27
104,REQ_END,1516056338625,27
104,PLAYER_SLEEPBEFORE_START,1516056338625,28
104,PLAYER_SLEEPBEFORE_END,1516056338823,28
104,WS_SEND_START,1516056338823,28
104,WS_SEND_END,1516056338824,28
104,WS_RECV_START,1516056338824,29
104,WS_RECV_END,1516056339011,29
104,PLAYER_SLEEPBEFORE_START,1516056339011,30
104,PLAYER_SLEEPBEFORE_END,1516056339022,30
104,REQ_START,1516056339022,30
104,REQ_END,1516056339056,30
104,PLAYER_SLEEPBEFORE_START,1516056339056,31
104,PLAYER_SLEEPBEFORE_END,1516056369176,31
104,WS_SEND_START,1516056369176,31
104,WS_SEND_END,1516056369176,31
104,WS_RECV_START,1516056369176,32
104,WS_RECV_END,1516056369355,32
104,PLAYER_SLEEPBEFORE_START,1516056369355,33
104,PLAYER_SLEEPBEFORE_END,1516056394121,33
104,WS_SEND_START,1516056394121,33
104,WS_SEND_END,1516056394121,33
104,WS_RECV_START,1516056394121,34
104,WS_RECV_END,1516056394218,34
104,PLAYER_SLEEPBEFORE_START,1516056394218,35
104,PLAYER_SLEEPBEFORE_END,1516056419031,35
104,WS_SEND_START,1516056419031,35
104,WS_SEND_END,1516056419032,35
104,WS_RECV_START,1516056419032,36
104,WS_RECV_END,1516056419095,36
104,PLAYER_SLEEPBEFORE_START,1516056419095,37
104,PLAYER_SLEEPBEFORE_END,1516056419104,37
104,WS_SEND_START,1516056419104,37
104,WS_SEND_END,1516056419104,37
104,WS_RECV_START,1516056419104,38
104,WS_RECV_END,1516056419161,38
104,PLAYER_SLEEPBEFORE_START,1516056419161,39
104,PLAYER_SLEEPBEFORE_END,1516056421858,39
104,WS_SEND_START,1516056421858,39
104,WS_SEND_END,1516056421858,39
104,WS_RECV_START,1516056421859,40
104,WS_RECV_END,1516056421913,40
104,PLAYER_SLEEPBEFORE_START,1516056421913,41
104,PLAYER_SLEEPBEFORE_END,1516056423032,41
104,WS_SEND_START,1516056423032,41
104,WS_SEND_END,1516056423032,41
104,WS_RECV_START,1516056423032,42
104,WS_RECV_END,1516056423927,42
104,PLAYER_SLEEPBEFORE_START,1516056423927,43
104,PLAYER_SLEEPBEFORE_END,1516056423955,43
104,WS_SEND_START,1516056423955,43
104,WS_SEND_END,1516056423955,43
104,WS_RECV_START,1516056423955,44
104,WS_RECV_END,1516056424063,44
104,PLAYER_SLEEPBEFORE_START,1516056424063,45
104,PLAYER_SLEEPBEFORE_END,1516056445553,45
104,WS_SEND_START,1516056445553,45
104,WS_SEND_END,1516056445553,45
104,WS_RECV_START,1516056445553,46
104,WS_RECV_END,1516056445710,46
104,PLAYER_SLEEPBEFORE_START,1516056445710,47
104,PLAYER_SLEEPBEFORE_END,1516056474195,47
104,WS_SEND_START,1516056474195,47
104,WS_SEND_END,1516056474196,47
104,WS_RECV_START,1516056474196,48
104,WS_RECV_END,1516056474317,48
104,PLAYER_SLEEPBEFORE_START,1516056474317,49
104,PLAYER_SLEEPBEFORE_END,1516056500726,49
104,WS_SEND_START,1516056500726,49
104,WS_SEND_END,1516056500726,49
104,WS_RECV_START,1516056500727,50
104,WS_RECV_END,1516056500855,50
104,PLAYER_SLEEPBEFORE_START,1516056500855,51
104,PLAYER_SLEEPBEFORE_END,1516056523406,51
104,WS_SEND_START,1516056523406,51
104,WS_SEND_END,1516056523406,51
104,WS_RECV_START,1516056523406,52
104,WS_RECV_END,1516056524338,52
104,PLAYER_SLEEPBEFORE_START,1516056524338,53
104,PLAYER_SLEEPBEFORE_END,1516056549242,53
104,WS_SEND_START,1516056549242,53
104,WS_SEND_END,1516056549242,53
104,WS_RECV_START,1516056549242,54
104,WS_RECV_END,1516056549355,54
104,PLAYER_SLEEPBEFORE_START,1516056549355,55
104,PLAYER_SLEEPBEFORE_END,1516056574756,55
104,WS_SEND_START,1516056574756,55
104,WS_SEND_END,1516056574757,55
104,WS_RECV_START,1516056574757,56
104,WS_RECV_END,1516056575400,56
104,PLAYER_SLEEPBEFORE_START,1516056575400,57
104,PLAYER_SLEEPBEFORE_END,1516056600738,57
104,WS_SEND_START,1516056600738,57
104,WS_SEND_END,1516056600738,57
104,WS_RECV_START,1516056600738,58
104,WS_RECV_END,1516056600948,58
104,PLAYER_SLEEPBEFORE_START,1516056600948,59
104,PLAYER_SLEEPBEFORE_END,1516056627805,59
104,WS_SEND_START,1516056627805,59
104,WS_SEND_END,1516056627805,59
104,WS_RECV_START,1516056627805,60
104,WS_RECV_END,1516056629218,60
104,PLAYER_SLEEPBEFORE_START,1516056629218,61
104,PLAYER_SLEEPBEFORE_END,1516056629241,61
104,WS_SEND_START,1516056629241,61
104,WS_SEND_END,1516056629241,61
104,WS_RECV_START,1516056629241,62
104,WS_RECV_END,1516056629862,62
104,PLAYER_SLEEPBEFORE_START,1516056629862,63
104,PLAYER_SLEEPBEFORE_END,1516056638866,63
104,REQ_START,1516056638866,63
104,REQ_END,1516056638874,63
104,PLAYER_SLEEPBEFORE_START,1516056638874,64
104,PLAYER_SLEEPBEFORE_END,1516056653080,64
104,WS_SEND_START,1516056653080,64
104,WS_SEND_END,1516056653080,64
104,WS_RECV_START,1516056653080,65
104,WS_RECV_END,1516056653206,65
104,PLAYER_SLEEPBEFORE_START,1516056653206,66
104,PLAYER_SLEEPBEFORE_END,1516056677193,66
104,WS_SEND_START,1516056677193,66
104,WS_SEND_END,1516056677193,66
104,WS_RECV_START,1516056677193,67
104,WS_RECV_END,1516056677443,67
104,PLAYER_SLEEPBEFORE_START,1516056677443,68
104,PLAYER_SLEEPBEFORE_END,1516056703017,68
104,WS_SEND_START,1516056703017,68
104,WS_SEND_END,1516056703017,68
104,WS_RECV_START,1516056703017,69
104,WS_RECV_END,1516056703504,69
104,PLAYER_SLEEPBEFORE_START,1516056703504,70
104,PLAYER_SLEEPBEFORE_END,1516056703513,70
104,WS_SEND_START,1516056703513,70
104,WS_SEND_END,1516056703513,70
104,WS_RECV_START,1516056703513,71
104,WS_RECV_END,1516056703705,71
104,PLAYER_SLEEPBEFORE_START,1516056703705,72
104,PLAYER_SLEEPBEFORE_END,1516056703911,72
104,WS_SEND_START,1516056703911,72
104,WS_SEND_END,1516056703911,72
104,WS_RECV_START,1516056703911,73
104,WS_RECV_END,1516056703967,73
104,PLAYER_SLEEPBEFORE_START,1516056703967,74
104,PLAYER_SLEEPBEFORE_END,1516056705389,74
104,WS_SEND_START,1516056705389,74
104,WS_SEND_END,1516056705389,74
104,WS_RECV_START,1516056705389,75
104,WS_RECV_END,1516056705682,75
104,PLAYER_SLEEPBEFORE_START,1516056705682,76
104,PLAYER_SLEEPBEFORE_END,1516056706177,76
104,WS_SEND_START,1516056706177,76
104,WS_SEND_END,1516056706177,76
104,WS_RECV_START,1516056706177,77
104,WS_RECV_END,1516056707309,77
104,PLAYER_SLEEPBEFORE_START,1516056707309,78
104,PLAYER_SLEEPBEFORE_END,1516056707328,78
104,WS_SEND_START,1516056707328,78
104,WS_SEND_END,1516056707328,78
104,WS_RECV_START,1516056707328,79
104,WS_RECV_END,1516056707538,79
104,PLAYER_SLEEPBEFORE_START,1516056707538,80
104,PLAYER_SLEEPBEFORE_END,1516056728272,80
104,WS_SEND_START,1516056728272,80
104,WS_SEND_END,1516056728272,80
104,WS_RECV_START,1516056728272,81
104,WS_RECV_END,1516056729540,81
104,PLAYER_SLEEPBEFORE_START,1516056729540,82
104,PLAYER_SLEEPBEFORE_END,1516056729551,82
104,WS_SEND_START,1516056729551,82
104,WS_SEND_END,1516056729551,82
104,WS_RECV_START,1516056729551,83
104,WS_RECV_END,1516056729865,83
104,PLAYER_SLEEPBEFORE_START,1516056729865,84
104,PLAYER_SLEEPBEFORE_END,1516056730728,84
104,WS_SEND_START,1516056730728,84
104,WS_SEND_END,1516056730728,84
104,WS_RECV_START,1516056730728,85
104,WS_RECV_END,1516056730956,85
104,PLAYER_SLEEPBEFORE_START,1516056730956,86
104,PLAYER_SLEEPBEFORE_END,1516056731683,86
104,WS_SEND_START,1516056731683,86
104,WS_SEND_END,1516056731683,86
104,WS_RECV_START,1516056731683,87
104,WS_RECV_END,1516056732986,87
104,PLAYER_SLEEPBEFORE_START,1516056732986,88
104,PLAYER_SLEEPBEFORE_END,1516056733007,88
104,WS_SEND_START,1516056733007,88
104,WS_SEND_END,1516056733007,88
104,WS_RECV_START,1516056733007,89
104,WS_RECV_END,1516056733470,89
104,PLAYER_SLEEPBEFORE_START,1516056733470,90
104,PLAYER_SLEEPBEFORE_END,1516056754899,90
104,WS_SEND_START,1516056754899,90
104,WS_SEND_END,1516056754899,90
104,PLAYER_SLEEPBEFORE_START,1516056754899,91
104,PLAYER_SLEEPBEFORE_END,1516056781754,91
104,WS_SEND_START,1516056781754,91
104,WS_SEND_END,1516056781754,91
104,WS_RECV_START,1516056781754,92
104,WS_RECV_END,1516056783029,92
104,PLAYER_SLEEPBEFORE_START,1516056783029,93
104,PLAYER_SLEEPBEFORE_END,1516056785303,93
104,WS_SEND_START,1516056785303,93
104,WS_SEND_END,1516056785304,93
104,WS_RECV_START,1516056785304,94
104,WS_RECV_END,1516056787049,94
104,PLAYER_SLEEPBEFORE_START,1516056787049,95
104,PLAYER_SLEEPBEFORE_END,1516056813045,95
104,WS_SEND_START,1516056813046,95
104,WS_SEND_END,1516056813046,95
104,WS_RECV_START,1516056813046,96
104,WS_RECV_END,1516056813244,96
104,PLAYER_SLEEPBEFORE_START,1516056813244,97
104,PLAYER_SLEEPBEFORE_END,1516056818332,97
104,WS_SEND_START,1516056818332,97
104,WS_SEND_END,1516056818332,97
104,WS_RECV_START,1516056818332,98
104,WS_RECV_END,1516056819042,98
104,PLAYER_SLEEPBEFORE_START,1516056819042,99
104,PLAYER_SLEEPBEFORE_END,1516056820742,99
104,WS_SEND_START,1516056820743,99
104,WS_SEND_END,1516056820743,99
104,WS_RECV_START,1516056820743,100
104,WS_RECV_END,1516056821305,100
104,PLAYER_SLEEPBEFORE_START,1516056821305,101
104,PLAYER_SLEEPBEFORE_END,1516056823144,101
104,WS_SEND_START,1516056823144,101
104,WS_SEND_END,1516056823144,101
104,WS_RECV_START,1516056823144,102
104,WS_RECV_END,1516056823921,102
104,PLAYER_SLEEPBEFORE_START,1516056823921,103
104,PLAYER_SLEEPBEFORE_END,1516056836971,103
104,WS_SEND_START,1516056836971,103
104,WS_SEND_END,1516056836971,103
104,PLAYER_SLEEPBEFORE_START,1516056836971,104
104,PLAYER_SLEEPBEFORE_END,1516056841397,104
104,WS_SEND_START,1516056841397,104
104,WS_SEND_END,1516056841397,104
104,WS_RECV_START,1516056841397,105
104,WS_RECV_END,1516056841885,105
104,PLAYER_SLEEPBEFORE_START,1516056841885,106
104,PLAYER_SLEEPBEFORE_END,1516056841894,106
104,WS_SEND_START,1516056841894,106
104,WS_SEND_END,1516056841894,106
104,WS_RECV_START,1516056841894,107
104,WS_RECV_END,1516056842049,107
104,PLAYER_SLEEPBEFORE_START,1516056842049,108
104,PLAYER_SLEEPBEFORE_END,1516056842513,108
104,WS_SEND_START,1516056842513,108
104,WS_SEND_END,1516056842513,108
104,WS_RECV_START,1516056842513,109
104,WS_RECV_END,1516056844300,109
104,PLAYER_SLEEPBEFORE_START,1516056844300,110
104,PLAYER_SLEEPBEFORE_END,1516056844315,110
104,WS_SEND_START,1516056844315,110
104,WS_SEND_END,1516056844315,110
104,WS_RECV_START,1516056844315,111
104,WS_RECV_END,1516056845479,111
104,PLAYER_SLEEPBEFORE_START,1516056845479,112
104,PLAYER_SLEEPBEFORE_END,1516056866243,112
104,WS_SEND_START,1516056866243,112
104,WS_SEND_END,1516056866243,112
104,PLAYER_SLEEPBEFORE_START,1516056866243,113
104,PLAYER_SLEEPBEFORE_END,1516056868637,113
104,WS_SEND_START,1516056868637,113
104,WS_SEND_END,1516056868637,113
104,WS_RECV_START,1516056868637,114
104,WS_RECV_END,1516056868892,114
104,PLAYER_SLEEPBEFORE_START,1516056868892,115
104,PLAYER_SLEEPBEFORE_END,1516056869674,115
104,WS_SEND_START,1516056869674,115
104,WS_SEND_END,1516056869674,115
104,WS_RECV_START,1516056869674,116
104,WS_RECV_END,1516056871037,116
104,PLAYER_SLEEPBEFORE_START,1516056871037,117
104,PLAYER_SLEEPBEFORE_END,1516056893422,117
104,WS_SEND_START,1516056893424,117
104,WS_SEND_END,1516056893424,117
104,WS_RECV_START,1516056893425,118
104,WS_RECV_END,1516056893681,118
104,PLAYER_SLEEPBEFORE_START,1516056893681,119
104,PLAYER_SLEEPBEFORE_END,1516056895585,119
104,WS_SEND_START,1516056895586,119
104,WS_SEND_END,1516056895586,119
104,WS_RECV_START,1516056895586,120
104,WS_RECV_END,1516056895895,120
104,PLAYER_SLEEPBEFORE_START,1516056895895,121
104,PLAYER_SLEEPBEFORE_END,1516056897047,121
104,WS_SEND_START,1516056897047,121
104,WS_SEND_END,1516056897047,121
104,WS_RECV_START,1516056897047,122
104,WS_RECV_END,1516056899501,122
104,PLAYER_SLEEPBEFORE_START,1516056899501,123
104,PLAYER_SLEEPBEFORE_END,1516056900625,123
104,WS_SEND_START,1516056900625,123
104,WS_SEND_END,1516056900625,123
104,WS_RECV_START,1516056900625,124
104,WS_RECV_END,1516056901441,124
104,PLAYER_SLEEPBEFORE_START,1516056901441,125
104,PLAYER_SLEEPBEFORE_END,1516056902937,125
104,WS_SEND_START,1516056902937,125
104,WS_SEND_END,1516056902937,125
104,WS_RECV_START,1516056902937,126
104,WS_RECV_END,1516056904628,126
104,PLAYER_SLEEPBEFORE_START,1516056904628,127
104,PLAYER_SLEEPBEFORE_END,1516056925238,127
104,WS_SEND_START,1516056925238,127
104,WS_SEND_END,1516056925238,127
104,WS_RECV_START,1516056925238,128
104,WS_RECV_END,1516056927520,128
104,PLAYER_SLEEPBEFORE_START,1516056927520,129
104,PLAYER_SLEEPBEFORE_END,1516056952551,129
104,WS_SEND_START,1516056952551,129
104,WS_SEND_END,1516056952551,129
104,PLAYER_SLEEPBEFORE_START,1516056952551,130
104,PLAYER_SLEEPBEFORE_END,1516056954532,130
104,WS_SEND_START,1516056954532,130
104,WS_SEND_END,1516056954532,130
104,WS_RECV_START,1516056954532,131
104,WS_RECV_END,1516056954625,131
104,PLAYER_SLEEPBEFORE_START,1516056954625,132
104,PLAYER_SLEEPBEFORE_END,1516056954634,132
104,WS_SEND_START,1516056954634,132
104,WS_SEND_END,1516056954634,132
104,WS_RECV_START,1516056954634,133
104,WS_RECV_END,1516056954677,133
104,PLAYER_SLEEPBEFORE_START,1516056954677,134
104,PLAYER_SLEEPBEFORE_END,1516056955753,134
104,REQ_START,1516056955753,134
104,REQ_END,1516056955761,134
104,PLAYER_SLEEPBEFORE_START,1516056955761,135
104,PLAYER_SLEEPBEFORE_END,1516056956351,135
104,WS_SEND_START,1516056956351,135
104,WS_SEND_END,1516056956351,135
104,WS_RECV_START,1516056956351,136
104,WS_RECV_END,1516056957245,136
104,PLAYER_SLEEPBEFORE_START,1516056957245,137
104,PLAYER_SLEEPBEFORE_END,1516056957258,137
104,WS_SEND_START,1516056957258,137
104,WS_SEND_END,1516056957258,137
104,WS_RECV_START,1516056957258,138
104,WS_RECV_END,1516056957492,138
104,PLAYER_SLEEPBEFORE_START,1516056957492,139
104,PLAYER_SLEEPBEFORE_END,1516056975166,139
104,WS_SEND_START,1516056975166,139
104,WS_SEND_END,1516056975166,139
104,PLAYER_SLEEPBEFORE_START,1516056975166,140
104,PLAYER_SLEEPBEFORE_END,1516056979069,140
104,WS_SEND_START,1516056979069,140
104,WS_SEND_END,1516056979069,140
104,PLAYER_SLEEPBEFORE_START,1516056979069,141
104,PLAYER_SLEEPBEFORE_END,1516056981361,141
104,WS_SEND_START,1516056981361,141
104,WS_SEND_END,1516056981361,141
104,WS_RECV_START,1516056981361,142
104,WS_RECV_END,1516056981457,142
104,PLAYER_SLEEPBEFORE_START,1516056981457,143
104,PLAYER_SLEEPBEFORE_END,1516056981465,143
104,WS_SEND_START,1516056981465,143
104,WS_SEND_END,1516056981465,143
104,WS_RECV_START,1516056981465,144
104,WS_RECV_END,1516056981787,144
104,PLAYER_SLEEPBEFORE_START,1516056981787,145
104,PLAYER_SLEEPBEFORE_END,1516056983530,145
104,WS_SEND_START,1516056983530,145
104,WS_SEND_END,1516056983530,145
104,WS_RECV_START,1516056983530,146
104,WS_RECV_END,1516056984954,146
104,PLAYER_SLEEPBEFORE_START,1516056984955,147
104,PLAYER_SLEEPBEFORE_END,1516056984964,147
104,WS_SEND_START,1516056984964,147
104,WS_SEND_END,1516056984964,147
104,WS_RECV_START,1516056984964,148
104,WS_RECV_END,1516056985303,148
104,PLAYER_SLEEPBEFORE_START,1516056985303,149
104,PLAYER_SLEEPBEFORE_END,1516057000416,149
104,WS_SEND_START,1516057000416,149
104,WS_SEND_END,1516057000416,149
104,PLAYER_SLEEPBEFORE_START,1516057000416,150
104,PLAYER_SLEEPBEFORE_END,1516057011091,150
104,WS_SEND_START,1516057011091,150
104,WS_SEND_END,1516057011091,150
104,PLAYER_SLEEPBEFORE_START,1516057011091,151
104,PLAYER_SLEEPBEFORE_END,1516057014082,151
104,WS_SEND_START,1516057014082,151
104,WS_SEND_END,1516057014082,151
104,WS_RECV_START,1516057014082,152
104,WS_RECV_END,1516057015399,152
104,PLAYER_SLEEPBEFORE_START,1516057015399,153
104,PLAYER_SLEEPBEFORE_END,1516057015406,153
104,WS_SEND_START,1516057015406,153
104,WS_SEND_END,1516057015406,153
104,WS_RECV_START,1516057015406,154
104,WS_RECV_END,1516057016593,154
104,PLAYER_SLEEPBEFORE_START,1516057016593,155
104,PLAYER_SLEEPBEFORE_END,1516057017201,155
104,WS_SEND_START,1516057017201,155
104,WS_SEND_END,1516057017201,155
104,WS_RECV_START,1516057017201,156
104,WS_RECV_END,1516057019051,156
104,PLAYER_SLEEPBEFORE_START,1516057019051,157
104,PLAYER_SLEEPBEFORE_END,1516057020394,157
104,WS_SEND_START,1516057020394,157
104,WS_SEND_END,1516057020394,157
104,WS_RECV_START,1516057020394,158
104,WS_RECV_END,1516057021429,158
104,PLAYER_SLEEPBEFORE_START,1516057021429,159
104,PLAYER_SLEEPBEFORE_END,1516057025330,159
104,WS_SEND_START,1516057025330,159
104,WS_SEND_END,1516057025330,159
104,WS_RECV_START,1516057025330,160
104,WS_RECV_END,1516057026997,160
104,PLAYER_SLEEPBEFORE_START,1516057026997,161
104,PLAYER_SLEEPBEFORE_END,1516057027780,161
104,WS_SEND_START,1516057027780,161
104,WS_SEND_END,1516057027780,161
104,WS_RECV_START,1516057027780,162
104,WS_RECV_END,1516057028621,162
104,PLAYER_SLEEPBEFORE_START,1516057028621,163
104,PLAYER_SLEEPBEFORE_END,1516057028630,163
104,WS_SEND_START,1516057028630,163
104,WS_SEND_END,1516057028630,163
104,WS_RECV_START,1516057028630,164
104,WS_RECV_END,1516057029011,164
104,PLAYER_SLEEPBEFORE_START,1516057029011,165
104,PLAYER_SLEEPBEFORE_END,1516057036384,165
104,WS_SEND_START,1516057036384,165
104,WS_SEND_END,1516057036384,165
104,WS_RECV_START,1516057036384,166
104,WS_RECV_END,1516057037167,166
104,PLAYER_SLEEPBEFORE_START,1516057037167,167
104,PLAYER_SLEEPBEFORE_END,1516057058416,167
104,WS_SEND_START,1516057058416,167
104,WS_SEND_END,1516057058416,167
104,PLAYER_SLEEPBEFORE_START,1516057058416,168
104,PLAYER_SLEEPBEFORE_END,1516057063151,168
104,WS_SEND_START,1516057063151,168
104,WS_SEND_END,1516057063151,168
104,PLAYER_SLEEPBEFORE_START,1516057063151,169
104,PLAYER_SLEEPBEFORE_END,1516057064702,169
104,WS_SEND_START,1516057064702,169
104,WS_SEND_END,1516057064702,169
104,WS_RECV_START,1516057064702,170
104,WS_RECV_END,1516057066325,170
104,PLAYER_SLEEPBEFORE_START,1516057066326,171
104,PLAYER_SLEEPBEFORE_END,1516057066333,171
104,WS_SEND_START,1516057066333,171
104,WS_SEND_END,1516057066333,171
104,WS_RECV_START,1516057066333,172
104,WS_RECV_END,1516057066937,172
104,PLAYER_SLEEPBEFORE_START,1516057066937,173
104,PLAYER_SLEEPBEFORE_END,1516057067705,173
104,WS_SEND_START,1516057067705,173
104,WS_SEND_END,1516057067705,173
104,WS_RECV_START,1516057067705,174
104,WS_RECV_END,1516057067792,174
104,PLAYER_SLEEPBEFORE_START,1516057067792,175
104,PLAYER_SLEEPBEFORE_END,1516057068553,175
104,WS_SEND_START,1516057068553,175
104,WS_SEND_END,1516057068553,175
104,WS_RECV_START,1516057068553,176
104,WS_RECV_END,1516057069422,176
104,PLAYER_SLEEPBEFORE_START,1516057069422,177
104,PLAYER_SLEEPBEFORE_END,1516057070223,177
104,WS_SEND_START,1516057070223,177
104,WS_SEND_END,1516057070223,177
104,WS_RECV_START,1516057070223,178
104,WS_RECV_END,1516057071831,178
104,PLAYER_SLEEPBEFORE_START,1516057071831,179
104,PLAYER_SLEEPBEFORE_END,1516057077085,179
104,WS_SEND_START,1516057077085,179
104,WS_SEND_END,1516057077085,179
104,PLAYER_SLEEPBEFORE_START,1516057077085,180
104,PLAYER_SLEEPBEFORE_END,1516057083703,180
104,WS_SEND_START,1516057083703,180
104,WS_SEND_END,1516057083703,180
104,PLAYER_SLEEPBEFORE_START,1516057083703,181
104,PLAYER_SLEEPBEFORE_END,1516057085439,181
104,WS_SEND_START,1516057085439,181
104,WS_SEND_END,1516057085439,181
104,WS_RECV_START,1516057085439,182
104,WS_RECV_END,1516057086877,182
104,PLAYER_SLEEPBEFORE_START,1516057086877,183
104,PLAYER_SLEEPBEFORE_END,1516057087614,183
104,WS_SEND_START,1516057087614,183
104,WS_SEND_END,1516057087614,183
104,WS_RECV_START,1516057087614,184
104,WS_RECV_END,1516057088504,184
104,PLAYER_SLEEPBEFORE_START,1516057088504,185
104,PLAYER_SLEEPBEFORE_END,1516057088517,185
104,WS_SEND_START,1516057088517,185
104,WS_SEND_END,1516057088517,185
104,WS_RECV_START,1516057088517,186
104,WS_RECV_END,1516057088828,186
104,PLAYER_SLEEPBEFORE_START,1516057088828,187
104,PLAYER_SLEEPBEFORE_END,1516057113835,187
104,WS_SEND_START,1516057113835,187
104,WS_SEND_END,1516057113835,187
104,WS_RECV_START,1516057113835,188
104,WS_RECV_END,1516057114029,188
104,PLAYER_SLEEPBEFORE_START,1516057114029,189
104,PLAYER_SLEEPBEFORE_END,1516057139252,189
104,WS_SEND_START,1516057139252,189
104,WS_SEND_END,1516057139252,189
104,WS_RECV_START,1516057139252,190
104,WS_RECV_END,1516057141266,190
104,PLAYER_SLEEPBEFORE_START,1516057141266,191
104,PLAYER_SLEEPBEFORE_END,1516057141271,191
104,WS_SEND_START,1516057141271,191
104,WS_SEND_END,1516057141271,191
104,WS_RECV_START,1516057141271,192
104,WS_RECV_END,1516057141477,192
104,PLAYER_SLEEPBEFORE_START,1516057141477,193
104,PLAYER_SLEEPBEFORE_END,1516057141914,193
104,WS_SEND_START,1516057141914,193
104,WS_SEND_END,1516057141914,193
104,WS_RECV_START,1516057141914,194
104,WS_RECV_END,1516057142680,194
104,PLAYER_SLEEPBEFORE_START,1516057142680,195
104,PLAYER_SLEEPBEFORE_END,1516057142693,195
104,WS_SEND_START,1516057142693,195
104,WS_SEND_END,1516057142693,195
104,WS_RECV_START,1516057142693,196
104,WS_RECV_END,1516057145997,196
104,PLAYER_SLEEPBEFORE_START,1516057145997,197
104,PLAYER_SLEEPBEFORE_END,1516057170767,197
104,WS_SEND_START,1516057170767,197
104,WS_SEND_END,1516057170767,197
104,WS_RECV_START,1516057170767,198
104,WS_RECV_END,1516057170883,198
104,PLAYER_SLEEPBEFORE_START,1516057170883,199
104,PLAYER_SLEEPBEFORE_END,1516057170890,199
104,WS_SEND_START,1516057170890,199
104,WS_SEND_END,1516057170890,199
104,WS_RECV_START,1516057170890,200
104,WS_RECV_END,1516057171044,200
104,PLAYER_SLEEPBEFORE_START,1516057171044,201
104,PLAYER_SLEEPBEFORE_END,1516057172342,201
104,WS_SEND_START,1516057172342,201
104,WS_SEND_END,1516057172342,201
104,WS_RECV_START,1516057172342,202
104,WS_RECV_END,1516057173246,202
104,PLAYER_SLEEPBEFORE_START,1516057173246,203
104,PLAYER_SLEEPBEFORE_END,1516057173258,203
104,WS_SEND_START,1516057173258,203
104,WS_SEND_END,1516057173258,203
104,WS_RECV_START,1516057173258,204
104,WS_RECV_END,1516057175466,204
104,PLAYER_SLEEPBEFORE_START,1516057175466,205
104,PLAYER_SLEEPBEFORE_END,1516057197098,205
104,WS_SEND_START,1516057197098,205
104,WS_SEND_END,1516057197098,205
104,WS_RECV_START,1516057197098,206
104,WS_RECV_END,1516057198067,206
104,PLAYER_SLEEPBEFORE_START,1516057198067,207
104,PLAYER_SLEEPBEFORE_END,1516057222190,207
104,WS_SEND_START,1516057222190,207
104,WS_SEND_END,1516057222190,207
104,WS_RECV_START,1516057222190,208
104,WS_RECV_END,1516057222314,208
104,PLAYER_SLEEPBEFORE_START,1516057222314,209
104,PLAYER_SLEEPBEFORE_END,1516057228728,209
104,WS_SEND_START,1516057228728,209
104,WS_SEND_END,1516057228729,209
104,WS_RECV_START,1516057228729,210
104,WS_RECV_END,1516057228891,210
104,PLAYER_SLEEPBEFORE_START,1516057228891,211
104,PLAYER_SLEEPBEFORE_END,1516057247723,211
104,WS_SEND_START,1516057247723,211
104,WS_SEND_END,1516057247723,211
104,WS_RECV_START,1516057247723,212
104,WS_RECV_END,1516057250014,212
104,PLAYER_SLEEPBEFORE_START,1516057250014,213
104,PLAYER_SLEEPBEFORE_END,1516057275068,213
104,WS_SEND_START,1516057275068,213
104,WS_SEND_END,1516057275068,213
104,WS_RECV_START,1516057275068,214
104,WS_RECV_END,1516057275185,214
104,PLAYER_SLEEPBEFORE_START,1516057275185,215
104,PLAYER_SLEEPBEFORE_END,1516057283296,215
104,REQ_START,1516057283296,215
104,REQ_END,1516057283305,215
104,PLAYER_SLEEPBEFORE_START,1516057283305,216
104,PLAYER_SLEEPBEFORE_END,1516057299866,216
104,WS_SEND_START,1516057299866,216
104,WS_SEND_END,1516057299866,216
104,WS_RECV_START,1516057299866,217
104,WS_RECV_END,1516057299949,217
104,PLAYER_SLEEPBEFORE_START,1516057299949,218
104,PLAYER_SLEEPBEFORE_END,1516057299957,218
104,WS_SEND_START,1516057299957,218
104,WS_SEND_END,1516057299957,218
104,WS_RECV_START,1516057299957,219
104,WS_RECV_END,1516057300000,219
104,PLAYER_SLEEPBEFORE_START,1516057300000,220
104,PLAYER_SLEEPBEFORE_END,1516057300769,220
104,WS_SEND_START,1516057300769,220
104,WS_SEND_END,1516057300769,220
104,WS_RECV_START,1516057300769,221
104,WS_RECV_END,1516057302926,221
104,PLAYER_SLEEPBEFORE_START,1516057302926,222
104,PLAYER_SLEEPBEFORE_END,1516057302983,222
104,WS_SEND_START,1516057302983,222
104,WS_SEND_END,1516057302983,222
104,WS_RECV_START,1516057302983,223
104,WS_RECV_END,1516057303670,223
104,PLAYER_SLEEPBEFORE_START,1516057303670,224
104,PLAYER_SLEEPBEFORE_END,1516057326326,224
104,WS_SEND_START,1516057326326,224
104,WS_SEND_END,1516057326326,224
104,WS_RECV_START,1516057326326,225
104,WS_RECV_END,1516057326450,225
104,PLAYER_SLEEPBEFORE_START,1516057326450,226
104,PLAYER_SLEEPBEFORE_END,1516057352185,226
104,WS_SEND_START,1516057352185,226
104,WS_SEND_END,1516057352185,226
104,WS_RECV_START,1516057352185,227
104,WS_RECV_END,1516057355966,227
104,PLAYER_SLEEPBEFORE_START,1516057355966,228
104,PLAYER_SLEEPBEFORE_END,1516057378959,228
104,WS_SEND_START,1516057378959,228
104,WS_SEND_END,1516057378959,228
104,WS_RECV_START,1516057378959,229
104,WS_RECV_END,1516057379169,229
104,PLAYER_SLEEPBEFORE_START,1516057379169,230
104,PLAYER_SLEEPBEFORE_END,1516057403385,230
104,WS_SEND_START,1516057403385,230
104,WS_SEND_END,1516057403385,230
104,WS_RECV_START,1516057403385,231
104,WS_RECV_END,1516057403590,231
104,PLAYER_SLEEPBEFORE_START,1516057403590,232
104,PLAYER_SLEEPBEFORE_END,1516057428346,232
104,WS_SEND_START,1516057428346,232
104,WS_SEND_END,1516057428346,232
104,WS_RECV_START,1516057428346,233
104,WS_RECV_END,1516057428696,233
104,PLAYER_SLEEPBEFORE_START,1516057428696,234
104,PLAYER_SLEEPBEFORE_END,1516057455729,234
104,WS_SEND_START,1516057455729,234
104,WS_SEND_END,1516057455729,234
104,WS_RECV_START,1516057455729,235
104,WS_RECV_END,1516057457556,235
104,PLAYER_SLEEPBEFORE_START,1516057457556,236
104,PLAYER_SLEEPBEFORE_END,1516057481396,236
104,WS_SEND_START,1516057481396,236
104,WS_SEND_END,1516057481396,236
104,WS_RECV_START,1516057481396,237
104,WS_RECV_END,1516057482375,237
104,PLAYER_SLEEPBEFORE_START,1516057482375,238
104,PLAYER_SLEEPBEFORE_END,1516057495185,238
104,WS_SEND_START,1516057495185,238
104,WS_SEND_END,1516057495185,238
104,WS_RECV_START,1516057495185,239
104,WS_RECV_END,1516057495796,239
104,PLAYER_SLEEPBEFORE_START,1516057495796,240
104,PLAYER_SLEEPBEFORE_END,1516057508452,240
104,WS_SEND_START,1516057508452,240
104,WS_SEND_END,1516057508452,240
104,WS_RECV_START,1516057508452,241
104,WS_RECV_END,1516057511223,241
104,PLAYER_SLEEPBEFORE_START,1516057511223,242
104,PLAYER_SLEEPBEFORE_END,1516057511246,242
104,WS_SEND_START,1516057511246,242
104,WS_SEND_END,1516057511247,242
104,WS_RECV_START,1516057511247,243
104,WS_RECV_END,1516057512377,243
104,PLAYER_SLEEPBEFORE_START,1516057512377,244
104,PLAYER_SLEEPBEFORE_END,1516057534615,244
104,WS_SEND_START,1516057534615,244
104,WS_SEND_END,1516057534615,244
104,WS_RECV_START,1516057534615,245
104,WS_RECV_END,1516057536784,245
104,PLAYER_SLEEPBEFORE_START,1516057536784,246
104,PLAYER_SLEEPBEFORE_END,1516057536793,246
104,WS_SEND_START,1516057536793,246
104,WS_SEND_END,1516057536793,246
104,WS_RECV_START,1516057536793,247
104,WS_RECV_END,1516057539169,247
104,PLAYER_SLEEPBEFORE_START,1516057539169,248
104,PLAYER_SLEEPBEFORE_END,1516057541206,248
104,WS_SEND_START,1516057541206,248
104,WS_SEND_END,1516057541206,248
104,WS_RECV_START,1516057541206,249
104,WS_RECV_END,1516057543090,249
104,PLAYER_SLEEPBEFORE_START,1516057543090,250
104,PLAYER_SLEEPBEFORE_END,1516057543128,250
104,WS_SEND_START,1516057543128,250
104,WS_SEND_END,1516057543128,250
104,WS_RECV_START,1516057543128,251
104,WS_RECV_END,1516057545108,251
104,PLAYER_SLEEPBEFORE_START,1516057545108,252
104,PLAYER_SLEEPBEFORE_END,1516057567750,252
104,WS_SEND_START,1516057567750,252
104,WS_SEND_END,1516057567750,252
104,WS_RECV_START,1516057567750,253
104,WS_RECV_END,1516057569159,253
104,PLAYER_SLEEPBEFORE_START,1516057569159,254
104,PLAYER_SLEEPBEFORE_END,1516057569175,254
104,WS_SEND_START,1516057569175,254
104,WS_SEND_END,1516057569175,254
104,WS_RECV_START,1516057569175,255
104,WS_RECV_END,1516057570890,255
104,PLAYER_SLEEPBEFORE_START,1516057570890,256
104,PLAYER_SLEEPBEFORE_END,1516057595512,256
104,WS_SEND_START,1516057595512,256
104,WS_SEND_END,1516057595512,256
104,WS_RECV_START,1516057595512,257
104,WS_RECV_END,1516057598402,257
104,PLAYER_SLEEPBEFORE_START,1516057598402,258
104,PLAYER_SLEEPBEFORE_END,1516057598410,258
104,WS_SEND_START,1516057598410,258
104,WS_SEND_END,1516057598410,258
104,WS_RECV_START,1516057598410,259
104,WS_RECV_END,1516057599641,259
104,PLAYER_SLEEPBEFORE_START,1516057599641,260
104,PLAYER_SLEEPBEFORE_END,1516057600165,260
104,WS_SEND_START,1516057600165,260
104,WS_SEND_END,1516057600165,260
104,WS_RECV_START,1516057600165,261
104,WS_RECV_END,1516057603243,261
104,PLAYER_SLEEPBEFORE_START,1516057603243,262
104,PLAYER_SLEEPBEFORE_END,1516057603515,262
104,WS_SEND_START,1516057603515,262
104,WS_SEND_END,1516057603515,262
104,WS_RECV_START,1516057603515,263
104,WS_RECV_END,1516057604861,263
104,PLAYER_SLEEPBEFORE_START,1516057604861,264
104,PLAYER_SLEEPBEFORE_END,1516057607274,264
104,WS_SEND_START,1516057607274,264
104,WS_SEND_END,1516057607274,264
104,WS_RECV_START,1516057607274,265
104,WS_RECV_END,1516057611074,265
104,PLAYER_SLEEPBEFORE_START,1516057611074,266
104,PLAYER_SLEEPBEFORE_END,1516057611086,266
104,WS_SEND_START,1516057611086,266
104,WS_SEND_END,1516057611086,266
104,WS_RECV_START,1516057611086,267
104,WS_RECV_END,1516057611617,267
104,PLAYER_SLEEPBEFORE_START,1516057611617,268
104,PLAYER_SLEEPBEFORE_END,1516057613087,268
104,REQ_START,1516057613087,268
104,REQ_END,1516057613096,268
104,PLAYER_SLEEPBEFORE_START,1516057613096,269
104,PLAYER_SLEEPBEFORE_END,1516057630490,269
104,WS_SEND_START,1516057630490,269
104,WS_SEND_END,1516057630490,269
104,WS_RECV_START,1516057630490,270
104,WS_RECV_END,1516057639384,270
104,PLAYER_SLEEPBEFORE_START,1516057639384,271
104,PLAYER_SLEEPBEFORE_END,1516057639392,271
104,WS_SEND_START,1516057639392,271
104,WS_SEND_END,1516057639392,271
104,WS_RECV_START,1516057639392,272
104,WS_RECV_END,1516057640317,272
104,PLAYER_SLEEPBEFORE_START,1516057640317,273
104,PLAYER_SLEEPBEFORE_END,1516057641614,273
104,WS_SEND_START,1516057641614,273
104,WS_SEND_END,1516057641614,273
104,WS_RECV_START,1516057641614,274
104,WS_RECV_END,1516057646786,274
104,PLAYER_SLEEPBEFORE_START,1516057646786,275
104,PLAYER_SLEEPBEFORE_END,1516057647959,275
104,WS_SEND_START,1516057647959,275
104,WS_SEND_END,1516057647959,275
104,WS_RECV_START,1516057647959,276
104,WS_RECV_END,1516057653272,276
104,PLAYER_SLEEPBEFORE_START,1516057653272,277
104,PLAYER_SLEEPBEFORE_END,1516057653294,277
104,WS_SEND_START,1516057653294,277
104,WS_SEND_END,1516057653294,277
104,WS_RECV_START,1516057653294,278
104,WS_RECV_END,1516057656523,278
104,PLAYER_SLEEPBEFORE_START,1516057656523,279
104,PLAYER_SLEEPBEFORE_END,1516057681047,279
104,WS_SEND_START,1516057681047,279
104,WS_SEND_END,1516057681047,279
104,WS_RECV_START,1516057681047,280
104,WS_RECV_END,1516057688506,280
104,PLAYER_SLEEPBEFORE_START,1516057688506,281
104,PLAYER_SLEEPBEFORE_END,1516057710794,281
104,WS_SEND_START,1516057710794,281
104,WS_SEND_END,1516057710794,281
104,WS_RECV_START,1516057710794,282
104,WS_RECV_END,1516057714180,282
104,PLAYER_SLEEPBEFORE_START,1516057714180,283
104,PLAYER_SLEEPBEFORE_END,1516057714198,283
104,WS_SEND_START,1516057714198,283
104,WS_SEND_END,1516057714198,283
104,WS_RECV_START,1516057714198,284
104,WS_RECV_END,1516057715888,284
104,PLAYER_SLEEPBEFORE_START,1516057715888,285
104,PLAYER_SLEEPBEFORE_END,1516057740019,285
104,WS_SEND_START,1516057740019,285
104,WS_SEND_END,1516057740019,285
104,WS_RECV_START,1516057740019,286
104,WS_RECV_END,1516057741362,286
104,PLAYER_SLEEPBEFORE_START,1516057741362,287
104,PLAYER_SLEEPBEFORE_END,1516057764516,287
104,WS_SEND_START,1516057764516,287
104,WS_SEND_END,1516057764516,287
104,WS_RECV_START,1516057764516,288
104,WS_RECV_END,1516057765510,288
104,PLAYER_SLEEPBEFORE_START,1516057765510,289
104,PLAYER_SLEEPBEFORE_END,1516057765532,289
104,WS_SEND_START,1516057765532,289
104,WS_SEND_END,1516057765532,289
104,WS_RECV_START,1516057765532,290
104,WS_RECV_END,1516057765807,290
104,PLAYER_SLEEPBEFORE_START,1516057765807,291
104,PLAYER_SLEEPBEFORE_END,1516057776421,291
104,WS_SEND_START,1516057776421,291
104,WS_SEND_END,1516057776421,291
104,WS_RECV_START,1516057776421,292
104,WS_RECV_END,1516057776584,292
104,PLAYER_SLEEPBEFORE_START,1516057776584,293
104,PLAYER_SLEEPBEFORE_END,1516057792340,293
104,WS_SEND_START,1516057792340,293
104,WS_SEND_END,1516057792340,293
104,WS_RECV_START,1516057792341,294
104,WS_RECV_END,1516057793250,294
104,PLAYER_SLEEPBEFORE_START,1516057793250,295
104,PLAYER_SLEEPBEFORE_END,1516057793275,295
104,WS_SEND_START,1516057793275,295
104,WS_SEND_END,1516057793275,295
104,WS_RECV_START,1516057793275,296
104,WS_RECV_END,1516057793481,296
104,PLAYER_SLEEPBEFORE_START,1516057793481,297
104,PLAYER_SLEEPBEFORE_END,1516057814978,297
104,WS_SEND_START,1516057814978,297
104,WS_SEND_END,1516057814978,297
104,WS_RECV_START,1516057814978,298
104,WS_RECV_END,1516057817447,298
104,PLAYER_SLEEPBEFORE_START,1516057817447,299
104,PLAYER_SLEEPBEFORE_END,1516057817457,299
104,WS_SEND_START,1516057817457,299
104,WS_SEND_END,1516057817457,299
104,WS_RECV_START,1516057817457,300
104,WS_RECV_END,1516057823353,300
104,PLAYER_SLEEPBEFORE_START,1516057823353,301
104,PLAYER_SLEEPBEFORE_END,1516057825713,301
104,WS_SEND_START,1516057825713,301
104,WS_SEND_END,1516057825713,301
104,WS_RECV_START,1516057825713,302
104,WS_RECV_END,1516057827098,302
104,PLAYER_SLEEPBEFORE_START,1516057827098,303
104,PLAYER_SLEEPBEFORE_END,1516057827122,303
104,WS_SEND_START,1516057827122,303
104,WS_SEND_END,1516057827122,303
104,WS_RECV_START,1516057827122,304
104,WS_RECV_END,1516057828914,304
104,PLAYER_SLEEPBEFORE_START,1516057828914,305
104,PLAYER_SLEEPBEFORE_END,1516057853904,305
104,WS_SEND_START,1516057853904,305
104,WS_SEND_END,1516057853904,305
104,WS_RECV_START,1516057853904,306
104,WS_RECV_END,1516057856930,306
104,PLAYER_SLEEPBEFORE_START,1516057856930,307
104,PLAYER_SLEEPBEFORE_END,1516057880805,307
104,WS_SEND_START,1516057880805,307
104,WS_SEND_END,1516057880805,307
104,WS_RECV_START,1516057880805,308
104,WS_RECV_END,1516057883640,308
104,PLAYER_SLEEPBEFORE_START,1516057883640,309
104,PLAYER_SLEEPBEFORE_END,1516057905331,309
104,WS_SEND_START,1516057905331,309
104,WS_SEND_END,1516057905331,309
104,WS_RECV_START,1516057905331,310
104,WS_RECV_END,1516057908120,310
104,PLAYER_SLEEPBEFORE_START,1516057908120,311
104,PLAYER_SLEEPBEFORE_END,1516057936948,311
104,WS_SEND_START,1516057936948,311
104,WS_SEND_END,1516057936948,311
104,WS_RECV_START,1516057936948,312
104,WS_RECV_END,1516057939360,312
104,PLAYER_SLEEPBEFORE_START,1516057939360,313
104,PLAYER_SLEEPBEFORE_END,1516057939380,313
104,WS_SEND_START,1516057939380,313
104,WS_SEND_END,1516057939380,313
104,WS_RECV_START,1516057939380,314
104,WS_RECV_END,1516057941841,314
104,PLAYER_SLEEPBEFORE_START,1516057941841,315
104,PLAYER_SLEEPBEFORE_END,1516057963427,315
104,WS_SEND_START,1516057963427,315
104,WS_SEND_END,1516057963427,315
104,WS_RECV_START,1516057963427,316
104,WS_RECV_END,1516057966008,316
104,PLAYER_SLEEPBEFORE_START,1516057966008,317
104,PLAYER_SLEEPBEFORE_END,1516057966017,317
104,WS_SEND_START,1516057966017,317
104,WS_SEND_END,1516057966017,317
104,WS_RECV_START,1516057966017,318
104,WS_RECV_END,1516057968521,318
104,PLAYER_SLEEPBEFORE_START,1516057968521,319
104,PLAYER_SLEEPBEFORE_END,1516057968853,319
104,WS_SEND_START,1516057968853,319
104,WS_SEND_END,1516057968853,319
104,WS_RECV_START,1516057968853,320
104,WS_RECV_END,1516057975493,320
104,PLAYER_SLEEPBEFORE_START,1516057975493,321
104,PLAYER_SLEEPBEFORE_END,1516057975512,321
104,WS_SEND_START,1516057975512,321
104,WS_SEND_END,1516057975512,321
104,WS_RECV_START,1516057975512,322
104,WS_RECV_END,1516057978138,322
104,PLAYER_SLEEPBEFORE_START,1516057978138,323
104,PLAYER_SLEEPBEFORE_END,1516057982531,323
104,REQ_START,1516057982531,323
104,REQ_END,1516057982539,323
104,PLAYER_SLEEPBEFORE_START,1516057982539,324
104,PLAYER_SLEEPBEFORE_END,1516058002425,324
104,WS_SEND_START,1516058002425,324
104,WS_SEND_END,1516058002425,324
104,WS_RECV_START,1516058002425,325
104,WS_RECV_END,1516058004981,325
104,PLAYER_SLEEPBEFORE_START,1516058004981,326
104,PLAYER_SLEEPBEFORE_END,1516058004990,326
104,WS_SEND_START,1516058004990,326
104,WS_SEND_END,1516058004990,326
104,WS_RECV_START,1516058004990,327
104,WS_RECV_END,1516058005221,327
104,PLAYER_SLEEPBEFORE_START,1516058005221,328
104,PLAYER_SLEEPBEFORE_END,1516058005582,328
104,WS_SEND_START,1516058005582,328
104,WS_SEND_END,1516058005582,328
104,WS_RECV_START,1516058005582,329
104,WS_RECV_END,1516058007859,329
104,PLAYER_SLEEPBEFORE_START,1516058007859,330
104,PLAYER_SLEEPBEFORE_END,1516058008205,330
104,WS_SEND_START,1516058008205,330
104,WS_SEND_END,1516058008205,330
104,WS_RECV_START,1516058008205,331
104,WS_RECV_END,1516058014621,331
104,PLAYER_SLEEPBEFORE_START,1516058014621,332
104,PLAYER_SLEEPBEFORE_END,1516058015469,332
104,WS_SEND_START,1516058015469,332
104,WS_SEND_END,1516058015469,332
104,WS_RECV_START,1516058015469,333
104,WS_RECV_END,1516058018659,333
104,PLAYER_SLEEPBEFORE_START,1516058018659,334
104,PLAYER_SLEEPBEFORE_END,1516058019056,334
104,WS_SEND_START,1516058019056,334
104,WS_SEND_END,1516058019056,334
104,WS_RECV_START,1516058019056,335
104,WS_RECV_END,1516058023033,335
104,PLAYER_SLEEPBEFORE_START,1516058023033,336
104,PLAYER_SLEEPBEFORE_END,1516058023357,336
104,WS_SEND_START,1516058023357,336
104,WS_SEND_END,1516058023357,336
104,WS_RECV_START,1516058023357,337
104,WS_RECV_END,1516058026646,337
104,PLAYER_SLEEPBEFORE_START,1516058026646,338
104,PLAYER_SLEEPBEFORE_END,1516058026662,338
104,WS_SEND_START,1516058026662,338
104,WS_SEND_END,1516058026662,338
104,WS_RECV_START,1516058026662,339
104,WS_RECV_END,1516058027407,339
104,PLAYER_SLEEPBEFORE_START,1516058027407,340
104,PLAYER_SLEEPBEFORE_END,1516058045379,340
104,WS_SEND_START,1516058045379,340
104,WS_SEND_END,1516058045379,340
104,WS_RECV_START,1516058045379,341
104,WS_RECV_END,1516058046675,341
104,PLAYER_SLEEPBEFORE_START,1516058046675,342
104,PLAYER_SLEEPBEFORE_END,1516058046684,342
104,WS_SEND_START,1516058046684,342
104,WS_SEND_END,1516058046684,342
104,WS_RECV_START,1516058046684,343
104,WS_RECV_END,1516058049481,343
104,PLAYER_SLEEPBEFORE_START,1516058049481,344
104,PLAYER_SLEEPBEFORE_END,1516058051793,344
104,WS_SEND_START,1516058051793,344
104,WS_SEND_END,1516058051793,344
104,WS_RECV_START,1516058051793,345
104,WS_RECV_END,1516058055572,345
104,PLAYER_SLEEPBEFORE_START,1516058055572,346
104,PLAYER_SLEEPBEFORE_END,1516058055583,346
104,WS_SEND_START,1516058055583,346
104,WS_SEND_END,1516058055583,346
104,WS_RECV_START,1516058055583,347
104,WS_RECV_END,1516058058573,347
104,PLAYER_SLEEPBEFORE_START,1516058058573,348
104,PLAYER_SLEEPBEFORE_END,1516058079180,348
104,WS_SEND_START,1516058079180,348
104,WS_SEND_END,1516058079180,348
104,WS_RECV_START,1516058079180,349
104,WS_RECV_END,1516058081975,349
104,PLAYER_SLEEPBEFORE_START,1516058081975,350
104,PLAYER_SLEEPBEFORE_END,1516058081983,350
104,WS_SEND_START,1516058081983,350
104,WS_SEND_END,1516058081983,350
104,WS_RECV_START,1516058081983,351
104,WS_RECV_END,1516058085217,351
104,PLAYER_SLEEPBEFORE_START,1516058085217,352
104,PLAYER_SLEEPBEFORE_END,1516058086403,352
104,WS_SEND_START,1516058086403,352
104,WS_SEND_END,1516058086403,352
104,WS_RECV_START,1516058086403,353
104,WS_RECV_END,1516058091380,353
104,PLAYER_SLEEPBEFORE_START,1516058091380,354
104,PLAYER_SLEEPBEFORE_END,1516058091396,354
104,WS_SEND_START,1516058091396,354
104,WS_SEND_END,1516058091396,354
104,WS_RECV_START,1516058091396,355
104,WS_RECV_END,1516058093391,355
104,PLAYER_SLEEPBEFORE_START,1516058093391,356
104,PLAYER_SLEEPBEFORE_END,1516058093437,356
104,WS_SEND_START,1516058093437,356
104,WS_SEND_END,1516058093437,356
104,WS_RECV_START,1516058093437,357
104,WS_RECV_END,1516058095562,357
104,PLAYER_SLEEPBEFORE_START,1516058095562,358
104,PLAYER_SLEEPBEFORE_END,1516058095577,358
104,WS_SEND_START,1516058095577,358
104,WS_SEND_END,1516058095577,358
104,WS_RECV_START,1516058095577,359
104,WS_RECV_END,1516058096682,359
104,PLAYER_SLEEPBEFORE_START,1516058096682,360
104,PLAYER_SLEEPBEFORE_END,1516058117148,360
104,WS_SEND_START,1516058117148,360
104,WS_SEND_END,1516058117148,360
104,WS_RECV_START,1516058117148,361
104,WS_RECV_END,1516058122598,361
104,PLAYER_SLEEPBEFORE_START,1516058122598,362
104,PLAYER_SLEEPBEFORE_END,1516058122607,362
104,WS_SEND_START,1516058122607,362
104,WS_SEND_END,1516058122607,362
104,WS_RECV_START,1516058122607,363
104,WS_RECV_END,1516058123208,363
104,PLAYER_SLEEPBEFORE_START,1516058123208,364
104,PLAYER_SLEEPBEFORE_END,1516058125299,364
104,WS_SEND_START,1516058125299,364
104,WS_SEND_END,1516058125299,364
104,WS_RECV_START,1516058125299,365
104,WS_RECV_END,1516058127669,365
104,PLAYER_SLEEPBEFORE_START,1516058127669,366
104,PLAYER_SLEEPBEFORE_END,1516058127679,366
104,WS_SEND_START,1516058127679,366
104,WS_SEND_END,1516058127679,366
104,WS_RECV_START,1516058127679,367
104,WS_RECV_END,1516058129470,367
104,PLAYER_SLEEPBEFORE_START,1516058129470,368
104,PLAYER_SLEEPBEFORE_END,1516058152931,368
104,WS_SEND_START,1516058152931,368
104,WS_SEND_END,1516058152931,368
104,WS_RECV_START,1516058152931,369
104,WS_RECV_END,1516058157885,369
104,PLAYER_SLEEPBEFORE_START,1516058157885,370
104,PLAYER_SLEEPBEFORE_END,1516058157893,370
104,WS_SEND_START,1516058157893,370
104,WS_SEND_END,1516058157893,370
104,WS_RECV_START,1516058157893,371
104,WS_RECV_END,1516058161037,371
104,PLAYER_SLEEPBEFORE_START,1516058161037,372
104,PLAYER_SLEEPBEFORE_END,1516058161409,372
104,WS_SEND_START,1516058161409,372
104,WS_SEND_END,1516058161409,372
104,WS_RECV_START,1516058161409,373
104,WS_RECV_END,1516058164876,373
104,PLAYER_SLEEPBEFORE_START,1516058164876,374
104,PLAYER_SLEEPBEFORE_END,1516058165579,374
104,WS_SEND_START,1516058165579,374
104,WS_SEND_END,1516058165579,374
104,WS_RECV_START,1516058165579,375
104,WS_RECV_END,1516058167796,375
104,PLAYER_SLEEPBEFORE_START,1516058167796,376
104,PLAYER_SLEEPBEFORE_END,1516058168147,376
104,WS_SEND_START,1516058168147,376
104,WS_SEND_END,1516058168148,376
104,WS_RECV_START,1516058168148,377
104,WS_RECV_END,1516058171335,377
104,PLAYER_SLEEPBEFORE_START,1516058171335,378
104,PLAYER_SLEEPBEFORE_END,1516058171354,378
104,WS_SEND_START,1516058171354,378
104,WS_SEND_END,1516058171354,378
104,WS_RECV_START,1516058171354,379
104,WS_RECV_END,1516058172105,379
104,PLAYER_SLEEPBEFORE_START,1516058172106,380
104,PLAYER_SLEEPBEFORE_END,1516058192598,380
104,WS_SEND_START,1516058192598,380
104,WS_SEND_END,1516058192598,380
104,PLAYER_SLEEPBEFORE_START,1516058192598,381
104,PLAYER_SLEEPBEFORE_END,1516058196812,381
104,WS_SEND_START,1516058196812,381
104,WS_SEND_END,1516058196812,381
104,WS_RECV_START,1516058196812,382
104,WS_RECV_END,1516058198618,382
104,PLAYER_SLEEPBEFORE_START,1516058198618,383
104,PLAYER_SLEEPBEFORE_END,1516058218818,383
104,WS_SEND_START,1516058218818,383
104,WS_SEND_END,1516058218818,383
104,PLAYER_SLEEPBEFORE_START,1516058218818,384
104,PLAYER_SLEEPBEFORE_END,1516058222004,384
104,WS_SEND_START,1516058222004,384
104,WS_SEND_END,1516058222005,384
104,WS_RECV_START,1516058222005,385
104,WS_RECV_END,1516058223133,385
104,PLAYER_SLEEPBEFORE_START,1516058223133,386
104,PLAYER_SLEEPBEFORE_END,1516058223148,386
104,WS_SEND_START,1516058223148,386
104,WS_SEND_END,1516058223148,386
104,WS_RECV_START,1516058223148,387
104,WS_RECV_END,1516058227657,387
104,PLAYER_SLEEPBEFORE_START,1516058227657,388
104,PLAYER_SLEEPBEFORE_END,1516058248188,388
104,WS_SEND_START,1516058248188,388
104,WS_SEND_END,1516058248188,388
104,PLAYER_SLEEPBEFORE_START,1516058248188,389
104,PLAYER_SLEEPBEFORE_END,1516058250407,389
104,WS_SEND_START,1516058250407,389
104,WS_SEND_END,1516058250407,389
104,WS_RECV_START,1516058250407,390
104,WS_RECV_END,1516058250966,390
104,PLAYER_SLEEPBEFORE_START,1516058250966,391
104,PLAYER_SLEEPBEFORE_END,1516058273802,391
104,WS_SEND_START,1516058273802,391
104,WS_SEND_END,1516058273802,391
104,WS_RECV_START,1516058273802,392
104,WS_RECV_END,1516058273969,392
104,PLAYER_SLEEPBEFORE_START,1516058273969,393
104,PLAYER_SLEEPBEFORE_END,1516058298659,393
104,WS_SEND_START,1516058298659,393
104,WS_SEND_END,1516058298659,393
104,PLAYER_SLEEPBEFORE_START,1516058298659,394
104,PLAYER_SLEEPBEFORE_END,1516058300631,394
104,WS_SEND_START,1516058300631,394
104,WS_SEND_END,1516058300631,394
104,WS_RECV_START,1516058300631,395
104,WS_RECV_END,1516058300728,395
104,PLAYER_SLEEPBEFORE_START,1516058300728,396
104,PLAYER_SLEEPBEFORE_END,1516058300735,396
104,WS_SEND_START,1516058300735,396
104,WS_SEND_END,1516058300735,396
104,WS_RECV_START,1516058300736,397
104,WS_RECV_END,1516058300781,397
104,PLAYER_SLEEPBEFORE_START,1516058300781,398
104,PLAYER_SLEEPBEFORE_END,1516058300961,398
104,WS_SEND_START,1516058300961,398
104,WS_SEND_END,1516058300961,398
104,WS_RECV_START,1516058300961,399
104,WS_RECV_END,1516058301018,399
104,PLAYER_SLEEPBEFORE_START,1516058301018,400
104,PLAYER_SLEEPBEFORE_END,1516058302093,400
104,WS_SEND_START,1516058302093,400
104,WS_SEND_END,1516058302093,400
104,WS_RECV_START,1516058302093,401
104,WS_RECV_END,1516058302197,401
104,PLAYER_SLEEPBEFORE_START,1516058302197,402
104,PLAYER_SLEEPBEFORE_END,1516058303556,402
104,WS_SEND_START,1516058303556,402
104,WS_SEND_END,1516058303556,402
104,WS_RECV_START,1516058303556,403
104,WS_RECV_END,1516058303751,403
104,PLAYER_SLEEPBEFORE_START,1516058303751,404
104,PLAYER_SLEEPBEFORE_END,1516058304221,404
104,WS_SEND_START,1516058304221,404
104,WS_SEND_END,1516058304221,404
104,WS_RECV_START,1516058304221,405
104,WS_RECV_END,1516058305376,405
104,PLAYER_SLEEPBEFORE_START,1516058305376,406
104,PLAYER_SLEEPBEFORE_END,1516058308103,406
104,WS_SEND_START,1516058308103,406
104,WS_SEND_END,1516058308103,406
104,WS_RECV_START,1516058308103,407
104,WS_RECV_END,1516058308189,407
104,PLAYER_SLEEPBEFORE_START,1516058308189,408
104,PLAYER_SLEEPBEFORE_END,1516058308518,408
104,WS_SEND_START,1516058308518,408
104,WS_SEND_END,1516058308518,408
104,WS_RECV_START,1516058308518,409
104,WS_RECV_END,1516058308574,409
104,PLAYER_SLEEPBEFORE_START,1516058308574,410
104,PLAYER_SLEEPBEFORE_END,1516058309599,410
104,WS_SEND_START,1516058309599,410
104,WS_SEND_END,1516058309599,410
104,WS_RECV_START,1516058309599,411
104,WS_RECV_END,1516058309655,411
104,PLAYER_SLEEPBEFORE_START,1516058309655,412
104,PLAYER_SLEEPBEFORE_END,1516058310311,412
104,WS_SEND_START,1516058310311,412
104,WS_SEND_END,1516058310311,412
104,WS_RECV_START,1516058310311,413
104,WS_RECV_END,1516058311139,413
104,PLAYER_SLEEPBEFORE_START,1516058311139,414
104,PLAYER_SLEEPBEFORE_END,1516058311155,414
104,WS_SEND_START,1516058311155,414
104,WS_SEND_END,1516058311155,414
104,WS_RECV_START,1516058311155,415
104,WS_RECV_END,1516058311634,415
104,PLAYER_SLEEPBEFORE_START,1516058311634,416
104,PLAYER_SLEEPBEFORE_END,1516058325901,416
104,WS_SEND_START,1516058325901,416
104,WS_SEND_END,1516058325902,416
104,PLAYER_SLEEPBEFORE_START,1516058325902,417
104,PLAYER_SLEEPBEFORE_END,1516058354581,417
104,WS_SEND_START,1516058354581,417
104,WS_SEND_END,1516058354581,417
104,WS_RECV_START,1516058354581,418
104,WS_RECV_END,1516058354737,418
104,PLAYER_SLEEPBEFORE_START,1516058354737,419
104,PLAYER_SLEEPBEFORE_END,1516058359559,419
104,REQ_START,1516058359559,419
104,REQ_END,1516058359567,419
104,PLAYER_SLEEPBEFORE_START,1516058359567,420
104,PLAYER_SLEEPBEFORE_END,1516058378313,420
104,WS_CLOSE_START,1516058378313,420
104,WS_CLOSE_END,1516058378313,420
104,PLAYER_DONE,1516058378313
