# --sessions 180 --app-url=http://shinyloadtest.rstudioservices.com/ --output-dir test180 --overwrite-output --log-level warn --start-interval 1500 30min.log
thread_id,event,timestamp,input_line_number,comment
127,PLAYER_SESSION_CREATE,1516056181718
127,PLAYER_START_INTERVAL_START,1516056181718
127,PLAYER_START_INTERVAL_END,1516056372218
127,REQ_HOME_START,1516056372218,2
127,REQ_HOME_END,1516056372305,2
127,REQ_START,1516056372305,3
127,REQ_END,1516056372336,3
127,REQ_START,1516056372336,4
127,REQ_END,1516056372367,4
127,REQ_START,1516056372367,5
127,REQ_END,1516056372677,5
127,REQ_START,1516056372677,6
127,REQ_END,1516056372772,6
127,REQ_START,1516056372772,7
127,REQ_END,1516056372806,7
127,REQ_START,1516056372806,8
127,REQ_END,1516056372837,8
127,REQ_START,1516056372837,9
127,REQ_END,1516056372875,9
127,REQ_START,1516056372875,10
127,REQ_END,1516056372883,10
127,REQ_START,1516056372883,11
127,REQ_END,1516056372913,11
127,REQ_START,1516056372913,12
127,REQ_END,1516056372946,12
127,REQ_START,1516056372946,13
127,REQ_END,1516056372956,13
127,REQ_START,1516056372956,14
127,REQ_END,1516056372971,14
127,REQ_START,1516056372971,15
127,REQ_END,1516056373003,15
127,REQ_TOK_START,1516056373003,16
127,REQ_TOK_END,1516056373011,16
127,REQ_SINF_START,1516056373011,17
127,REQ_SINF_END,1516056373018,17
127,WS_OPEN_START,1516056373018,18
127,WS_OPEN_END,1516056373025,18
127,WS_RECV_START,1516056373026,19
127,WS_RECV_END,1516056373026,19
127,PLAYER_SLEEPBEFORE_START,1516056373026,20
127,PLAYER_SLEEPBEFORE_END,1516056373032,20
127,WS_SEND_START,1516056373032,20
127,WS_SEND_END,1516056373032,20
127,PLAYER_SLEEPBEFORE_START,1516056373032,21
127,PLAYER_SLEEPBEFORE_END,1516056373033,21
127,WS_SEND_START,1516056373033,21
127,WS_SEND_END,1516056373033,21
127,WS_RECV_INIT_START,1516056373033,22
127,WS_RECV_INIT_END,1516056373050,22
127,WS_RECV_START,1516056373050,23
127,WS_RECV_END,1516056373111,23
127,PLAYER_SLEEPBEFORE_START,1516056373111,24
127,PLAYER_SLEEPBEFORE_END,1516056373118,24
127,REQ_START,1516056373118,24
127,REQ_END,1516056373150,24
127,PLAYER_SLEEPBEFORE_START,1516056373150,25
127,PLAYER_SLEEPBEFORE_END,1516056373152,25
127,REQ_START,1516056373152,25
127,REQ_END,1516056373184,25
127,PLAYER_SLEEPBEFORE_START,1516056373184,26
127,PLAYER_SLEEPBEFORE_END,1516056373187,26
127,REQ_START,1516056373187,26
127,REQ_END,1516056373219,26
127,PLAYER_SLEEPBEFORE_START,1516056373219,27
127,PLAYER_SLEEPBEFORE_END,1516056373475,27
127,REQ_START,1516056373475,27
127,REQ_END,1516056373507,27
127,PLAYER_SLEEPBEFORE_START,1516056373507,28
127,PLAYER_SLEEPBEFORE_END,1516056373706,28
127,WS_SEND_START,1516056373706,28
127,WS_SEND_END,1516056373706,28
127,WS_RECV_START,1516056373706,29
127,WS_RECV_END,1516056374637,29
127,PLAYER_SLEEPBEFORE_START,1516056374637,30
127,PLAYER_SLEEPBEFORE_END,1516056374648,30
127,REQ_START,1516056374648,30
127,REQ_END,1516056374771,30
127,PLAYER_SLEEPBEFORE_START,1516056374771,31
127,PLAYER_SLEEPBEFORE_END,1516056404891,31
127,WS_SEND_START,1516056404891,31
127,WS_SEND_END,1516056404891,31
127,WS_RECV_START,1516056404891,32
127,WS_RECV_END,1516056405070,32
127,PLAYER_SLEEPBEFORE_START,1516056405070,33
127,PLAYER_SLEEPBEFORE_END,1516056429836,33
127,WS_SEND_START,1516056429836,33
127,WS_SEND_END,1516056429836,33
127,WS_RECV_START,1516056429836,34
127,WS_RECV_END,1516056430228,34
127,PLAYER_SLEEPBEFORE_START,1516056430228,35
127,PLAYER_SLEEPBEFORE_END,1516056455041,35
127,WS_SEND_START,1516056455041,35
127,WS_SEND_END,1516056455042,35
127,WS_RECV_START,1516056455042,36
127,WS_RECV_END,1516056455113,36
127,PLAYER_SLEEPBEFORE_START,1516056455113,37
127,PLAYER_SLEEPBEFORE_END,1516056455123,37
127,WS_SEND_START,1516056455123,37
127,WS_SEND_END,1516056455123,37
127,WS_RECV_START,1516056455123,38
127,WS_RECV_END,1516056455165,38
127,PLAYER_SLEEPBEFORE_START,1516056455165,39
127,PLAYER_SLEEPBEFORE_END,1516056457862,39
127,WS_SEND_START,1516056457862,39
127,WS_SEND_END,1516056457862,39
127,WS_RECV_START,1516056457862,40
127,WS_RECV_END,1516056458006,40
127,PLAYER_SLEEPBEFORE_START,1516056458006,41
127,PLAYER_SLEEPBEFORE_END,1516056459125,41
127,WS_SEND_START,1516056459125,41
127,WS_SEND_END,1516056459125,41
127,WS_RECV_START,1516056459125,42
127,WS_RECV_END,1516056459975,42
127,PLAYER_SLEEPBEFORE_START,1516056459975,43
127,PLAYER_SLEEPBEFORE_END,1516056460003,43
127,WS_SEND_START,1516056460003,43
127,WS_SEND_END,1516056460003,43
127,WS_RECV_START,1516056460003,44
127,WS_RECV_END,1516056460362,44
127,PLAYER_SLEEPBEFORE_START,1516056460362,45
127,PLAYER_SLEEPBEFORE_END,1516056481851,45
127,WS_SEND_START,1516056481851,45
127,WS_SEND_END,1516056481851,45
127,WS_RECV_START,1516056481851,46
127,WS_RECV_END,1516056482016,46
127,PLAYER_SLEEPBEFORE_START,1516056482016,47
127,PLAYER_SLEEPBEFORE_END,1516056510502,47
127,WS_SEND_START,1516056510502,47
127,WS_SEND_END,1516056510502,47
127,WS_RECV_START,1516056510502,48
127,WS_RECV_END,1516056511832,48
127,PLAYER_SLEEPBEFORE_START,1516056511832,49
127,PLAYER_SLEEPBEFORE_END,1516056538241,49
127,WS_SEND_START,1516056538241,49
127,WS_SEND_END,1516056538241,49
127,WS_RECV_START,1516056538241,50
127,WS_RECV_END,1516056538644,50
127,PLAYER_SLEEPBEFORE_START,1516056538644,51
127,PLAYER_SLEEPBEFORE_END,1516056561195,51
127,WS_SEND_START,1516056561195,51
127,WS_SEND_END,1516056561195,51
127,WS_RECV_START,1516056561195,52
127,WS_RECV_END,1516056561402,52
127,PLAYER_SLEEPBEFORE_START,1516056561402,53
127,PLAYER_SLEEPBEFORE_END,1516056586306,53
127,WS_SEND_START,1516056586306,53
127,WS_SEND_END,1516056586306,53
127,WS_RECV_START,1516056586306,54
127,WS_RECV_END,1516056586440,54
127,PLAYER_SLEEPBEFORE_START,1516056586440,55
127,PLAYER_SLEEPBEFORE_END,1516056611841,55
127,WS_SEND_START,1516056611841,55
127,WS_SEND_END,1516056611841,55
127,WS_RECV_START,1516056611841,56
127,WS_RECV_END,1516056612712,56
127,PLAYER_SLEEPBEFORE_START,1516056612712,57
127,PLAYER_SLEEPBEFORE_END,1516056638051,57
127,WS_SEND_START,1516056638051,57
127,WS_SEND_END,1516056638051,57
127,WS_RECV_START,1516056638051,58
127,WS_RECV_END,1516056638189,58
127,PLAYER_SLEEPBEFORE_START,1516056638189,59
127,PLAYER_SLEEPBEFORE_END,1516056665046,59
127,WS_SEND_START,1516056665046,59
127,WS_SEND_END,1516056665047,59
127,WS_RECV_START,1516056665047,60
127,WS_RECV_END,1516056665942,60
127,PLAYER_SLEEPBEFORE_START,1516056665942,61
127,PLAYER_SLEEPBEFORE_END,1516056665965,61
127,WS_SEND_START,1516056665965,61
127,WS_SEND_END,1516056665965,61
127,WS_RECV_START,1516056665965,62
127,WS_RECV_END,1516056666337,62
127,PLAYER_SLEEPBEFORE_START,1516056666337,63
127,PLAYER_SLEEPBEFORE_END,1516056675341,63
127,REQ_START,1516056675341,63
127,REQ_END,1516056675349,63
127,PLAYER_SLEEPBEFORE_START,1516056675349,64
127,PLAYER_SLEEPBEFORE_END,1516056689555,64
127,WS_SEND_START,1516056689555,64
127,WS_SEND_END,1516056689555,64
127,WS_RECV_START,1516056689555,65
127,WS_RECV_END,1516056689721,65
127,PLAYER_SLEEPBEFORE_START,1516056689721,66
127,PLAYER_SLEEPBEFORE_END,1516056713709,66
127,WS_SEND_START,1516056713709,66
127,WS_SEND_END,1516056713709,66
127,WS_RECV_START,1516056713709,67
127,WS_RECV_END,1516056713834,67
127,PLAYER_SLEEPBEFORE_START,1516056713835,68
127,PLAYER_SLEEPBEFORE_END,1516056739409,68
127,WS_SEND_START,1516056739409,68
127,WS_SEND_END,1516056739409,68
127,WS_RECV_START,1516056739409,69
127,WS_RECV_END,1516056739502,69
127,PLAYER_SLEEPBEFORE_START,1516056739502,70
127,PLAYER_SLEEPBEFORE_END,1516056739512,70
127,WS_SEND_START,1516056739512,70
127,WS_SEND_END,1516056739512,70
127,WS_RECV_START,1516056739512,71
127,WS_RECV_END,1516056739553,71
127,PLAYER_SLEEPBEFORE_START,1516056739553,72
127,PLAYER_SLEEPBEFORE_END,1516056739758,72
127,WS_SEND_START,1516056739758,72
127,WS_SEND_END,1516056739759,72
127,WS_RECV_START,1516056739759,73
127,WS_RECV_END,1516056739883,73
127,PLAYER_SLEEPBEFORE_START,1516056739883,74
127,PLAYER_SLEEPBEFORE_END,1516056741305,74
127,WS_SEND_START,1516056741305,74
127,WS_SEND_END,1516056741305,74
127,WS_RECV_START,1516056741305,75
127,WS_RECV_END,1516056741851,75
127,PLAYER_SLEEPBEFORE_START,1516056741852,76
127,PLAYER_SLEEPBEFORE_END,1516056742347,76
127,WS_SEND_START,1516056742347,76
127,WS_SEND_END,1516056742347,76
127,WS_RECV_START,1516056742347,77
127,WS_RECV_END,1516056743440,77
127,PLAYER_SLEEPBEFORE_START,1516056743440,78
127,PLAYER_SLEEPBEFORE_END,1516056743458,78
127,WS_SEND_START,1516056743458,78
127,WS_SEND_END,1516056743458,78
127,WS_RECV_START,1516056743458,79
127,WS_RECV_END,1516056746050,79
127,PLAYER_SLEEPBEFORE_START,1516056746050,80
127,PLAYER_SLEEPBEFORE_END,1516056766784,80
127,WS_SEND_START,1516056766784,80
127,WS_SEND_END,1516056766784,80
127,WS_RECV_START,1516056766784,81
127,WS_RECV_END,1516056767607,81
127,PLAYER_SLEEPBEFORE_START,1516056767607,82
127,PLAYER_SLEEPBEFORE_END,1516056767619,82
127,WS_SEND_START,1516056767619,82
127,WS_SEND_END,1516056767619,82
127,WS_RECV_START,1516056767619,83
127,WS_RECV_END,1516056767853,83
127,PLAYER_SLEEPBEFORE_START,1516056767853,84
127,PLAYER_SLEEPBEFORE_END,1516056768716,84
127,WS_SEND_START,1516056768716,84
127,WS_SEND_END,1516056768716,84
127,WS_RECV_START,1516056768716,85
127,WS_RECV_END,1516056768802,85
127,PLAYER_SLEEPBEFORE_START,1516056768802,86
127,PLAYER_SLEEPBEFORE_END,1516056769529,86
127,WS_SEND_START,1516056769529,86
127,WS_SEND_END,1516056769529,86
127,WS_RECV_START,1516056769529,87
127,WS_RECV_END,1516056770640,87
127,PLAYER_SLEEPBEFORE_START,1516056770640,88
127,PLAYER_SLEEPBEFORE_END,1516056770661,88
127,WS_SEND_START,1516056770661,88
127,WS_SEND_END,1516056770661,88
127,WS_RECV_START,1516056770661,89
127,WS_RECV_END,1516056771786,89
127,PLAYER_SLEEPBEFORE_START,1516056771786,90
127,PLAYER_SLEEPBEFORE_END,1516056793216,90
127,WS_SEND_START,1516056793216,90
127,WS_SEND_END,1516056793216,90
127,PLAYER_SLEEPBEFORE_START,1516056793216,91
127,PLAYER_SLEEPBEFORE_END,1516056820071,91
127,WS_SEND_START,1516056820071,91
127,WS_SEND_END,1516056820071,91
127,WS_RECV_START,1516056820071,92
127,WS_RECV_END,1516056821231,92
127,PLAYER_SLEEPBEFORE_START,1516056821231,93
127,PLAYER_SLEEPBEFORE_END,1516056823505,93
127,WS_SEND_START,1516056823505,93
127,WS_SEND_END,1516056823505,93
127,WS_RECV_START,1516056823505,94
127,WS_RECV_END,1516056825868,94
127,PLAYER_SLEEPBEFORE_START,1516056825868,95
127,PLAYER_SLEEPBEFORE_END,1516056851864,95
127,WS_SEND_START,1516056851864,95
127,WS_SEND_END,1516056851864,95
127,WS_RECV_START,1516056851864,96
127,WS_RECV_END,1516056852272,96
127,PLAYER_SLEEPBEFORE_START,1516056852272,97
127,PLAYER_SLEEPBEFORE_END,1516056857360,97
127,WS_SEND_START,1516056857360,97
127,WS_SEND_END,1516056857360,97
127,WS_RECV_START,1516056857360,98
127,WS_RECV_END,1516056859149,98
127,PLAYER_SLEEPBEFORE_START,1516056859149,99
127,PLAYER_SLEEPBEFORE_END,1516056860849,99
127,WS_SEND_START,1516056860849,99
127,WS_SEND_END,1516056860849,99
127,WS_RECV_START,1516056860849,100
127,WS_RECV_END,1516056861061,100
127,PLAYER_SLEEPBEFORE_START,1516056861061,101
127,PLAYER_SLEEPBEFORE_END,1516056862900,101
127,WS_SEND_START,1516056862900,101
127,WS_SEND_END,1516056862900,101
127,WS_RECV_START,1516056862900,102
127,WS_RECV_END,1516056863853,102
127,PLAYER_SLEEPBEFORE_START,1516056863853,103
127,PLAYER_SLEEPBEFORE_END,1516056876903,103
127,WS_SEND_START,1516056876903,103
127,WS_SEND_END,1516056876904,103
127,PLAYER_SLEEPBEFORE_START,1516056876904,104
127,PLAYER_SLEEPBEFORE_END,1516056881330,104
127,WS_SEND_START,1516056881330,104
127,WS_SEND_END,1516056881330,104
127,WS_RECV_START,1516056881330,105
127,WS_RECV_END,1516056881423,105
127,PLAYER_SLEEPBEFORE_START,1516056881423,106
127,PLAYER_SLEEPBEFORE_END,1516056881432,106
127,WS_SEND_START,1516056881432,106
127,WS_SEND_END,1516056881432,106
127,WS_RECV_START,1516056881432,107
127,WS_RECV_END,1516056881477,107
127,PLAYER_SLEEPBEFORE_START,1516056881477,108
127,PLAYER_SLEEPBEFORE_END,1516056881941,108
127,WS_SEND_START,1516056881941,108
127,WS_SEND_END,1516056881941,108
127,WS_RECV_START,1516056881941,109
127,WS_RECV_END,1516056882991,109
127,PLAYER_SLEEPBEFORE_START,1516056882991,110
127,PLAYER_SLEEPBEFORE_END,1516056883006,110
127,WS_SEND_START,1516056883006,110
127,WS_SEND_END,1516056883006,110
127,WS_RECV_START,1516056883006,111
127,WS_RECV_END,1516056883863,111
127,PLAYER_SLEEPBEFORE_START,1516056883863,112
127,PLAYER_SLEEPBEFORE_END,1516056904627,112
127,WS_SEND_START,1516056904627,112
127,WS_SEND_END,1516056904627,112
127,PLAYER_SLEEPBEFORE_START,1516056904627,113
127,PLAYER_SLEEPBEFORE_END,1516056907021,113
127,WS_SEND_START,1516056907021,113
127,WS_SEND_END,1516056907021,113
127,WS_RECV_START,1516056907021,114
127,WS_RECV_END,1516056907805,114
127,PLAYER_SLEEPBEFORE_START,1516056907805,115
127,PLAYER_SLEEPBEFORE_END,1516056908587,115
127,WS_SEND_START,1516056908587,115
127,WS_SEND_END,1516056908587,115
127,WS_RECV_START,1516056908587,116
127,WS_RECV_END,1516056908899,116
127,PLAYER_SLEEPBEFORE_START,1516056908899,117
127,PLAYER_SLEEPBEFORE_END,1516056931285,117
127,WS_SEND_START,1516056931285,117
127,WS_SEND_END,1516056931285,117
127,WS_RECV_START,1516056931285,118
127,WS_RECV_END,1516056932631,118
127,PLAYER_SLEEPBEFORE_START,1516056932631,119
127,PLAYER_SLEEPBEFORE_END,1516056934536,119
127,WS_SEND_START,1516056934536,119
127,WS_SEND_END,1516056934536,119
127,WS_RECV_START,1516056934536,120
127,WS_RECV_END,1516056936431,120
127,PLAYER_SLEEPBEFORE_START,1516056936431,121
127,PLAYER_SLEEPBEFORE_END,1516056937583,121
127,WS_SEND_START,1516056937583,121
127,WS_SEND_END,1516056937583,121
127,WS_RECV_START,1516056937583,122
127,WS_RECV_END,1516056938016,122
127,PLAYER_SLEEPBEFORE_START,1516056938017,123
127,PLAYER_SLEEPBEFORE_END,1516056939141,123
127,WS_SEND_START,1516056939141,123
127,WS_SEND_END,1516056939141,123
127,WS_RECV_START,1516056939141,124
127,WS_RECV_END,1516056939977,124
127,PLAYER_SLEEPBEFORE_START,1516056939977,125
127,PLAYER_SLEEPBEFORE_END,1516056941473,125
127,WS_SEND_START,1516056941473,125
127,WS_SEND_END,1516056941473,125
127,WS_RECV_START,1516056941473,126
127,WS_RECV_END,1516056943266,126
127,PLAYER_SLEEPBEFORE_START,1516056943266,127
127,PLAYER_SLEEPBEFORE_END,1516056963876,127
127,WS_SEND_START,1516056963876,127
127,WS_SEND_END,1516056963876,127
127,WS_RECV_START,1516056963876,128
127,WS_RECV_END,1516056965845,128
127,PLAYER_SLEEPBEFORE_START,1516056965845,129
127,PLAYER_SLEEPBEFORE_END,1516056990876,129
127,WS_SEND_START,1516056990876,129
127,WS_SEND_END,1516056990876,129
127,PLAYER_SLEEPBEFORE_START,1516056990876,130
127,PLAYER_SLEEPBEFORE_END,1516056992856,130
127,WS_SEND_START,1516056992856,130
127,WS_SEND_END,1516056992856,130
127,WS_RECV_START,1516056992856,131
127,WS_RECV_END,1516056993278,131
127,PLAYER_SLEEPBEFORE_START,1516056993278,132
127,PLAYER_SLEEPBEFORE_END,1516056993287,132
127,WS_SEND_START,1516056993287,132
127,WS_SEND_END,1516056993287,132
127,WS_RECV_START,1516056993287,133
127,WS_RECV_END,1516056993381,133
127,PLAYER_SLEEPBEFORE_START,1516056993381,134
127,PLAYER_SLEEPBEFORE_END,1516056994457,134
127,REQ_START,1516056994457,134
127,REQ_END,1516056994466,134
127,PLAYER_SLEEPBEFORE_START,1516056994466,135
127,PLAYER_SLEEPBEFORE_END,1516056995056,135
127,WS_SEND_START,1516056995056,135
127,WS_SEND_END,1516056995056,135
127,WS_RECV_START,1516056995056,136
127,WS_RECV_END,1516056995942,136
127,PLAYER_SLEEPBEFORE_START,1516056995942,137
127,PLAYER_SLEEPBEFORE_END,1516056995955,137
127,WS_SEND_START,1516056995955,137
127,WS_SEND_END,1516056995956,137
127,WS_RECV_START,1516056995956,138
127,WS_RECV_END,1516056996284,138
127,PLAYER_SLEEPBEFORE_START,1516056996284,139
127,PLAYER_SLEEPBEFORE_END,1516057013958,139
127,WS_SEND_START,1516057013958,139
127,WS_SEND_END,1516057013958,139
127,PLAYER_SLEEPBEFORE_START,1516057013958,140
127,PLAYER_SLEEPBEFORE_END,1516057017861,140
127,WS_SEND_START,1516057017861,140
127,WS_SEND_END,1516057017861,140
127,PLAYER_SLEEPBEFORE_START,1516057017861,141
127,PLAYER_SLEEPBEFORE_END,1516057020153,141
127,WS_SEND_START,1516057020153,141
127,WS_SEND_END,1516057020153,141
127,WS_RECV_START,1516057020153,142
127,WS_RECV_END,1516057020763,142
127,PLAYER_SLEEPBEFORE_START,1516057020763,143
127,PLAYER_SLEEPBEFORE_END,1516057020771,143
127,WS_SEND_START,1516057020771,143
127,WS_SEND_END,1516057020771,143
127,WS_RECV_START,1516057020771,144
127,WS_RECV_END,1516057021109,144
127,PLAYER_SLEEPBEFORE_START,1516057021109,145
127,PLAYER_SLEEPBEFORE_END,1516057022852,145
127,WS_SEND_START,1516057022852,145
127,WS_SEND_END,1516057022852,145
127,WS_RECV_START,1516057022852,146
127,WS_RECV_END,1516057024953,146
127,PLAYER_SLEEPBEFORE_START,1516057024953,147
127,PLAYER_SLEEPBEFORE_END,1516057024962,147
127,WS_SEND_START,1516057024962,147
127,WS_SEND_END,1516057024962,147
127,WS_RECV_START,1516057024962,148
127,WS_RECV_END,1516057025359,148
127,PLAYER_SLEEPBEFORE_START,1516057025359,149
127,PLAYER_SLEEPBEFORE_END,1516057040473,149
127,WS_SEND_START,1516057040473,149
127,WS_SEND_END,1516057040473,149
127,PLAYER_SLEEPBEFORE_START,1516057040473,150
127,PLAYER_SLEEPBEFORE_END,1516057051148,150
127,WS_SEND_START,1516057051148,150
127,WS_SEND_END,1516057051148,150
127,PLAYER_SLEEPBEFORE_START,1516057051148,151
127,PLAYER_SLEEPBEFORE_END,1516057054139,151
127,WS_SEND_START,1516057054139,151
127,WS_SEND_END,1516057054139,151
127,WS_RECV_START,1516057054139,152
127,WS_RECV_END,1516057054966,152
127,PLAYER_SLEEPBEFORE_START,1516057054966,153
127,PLAYER_SLEEPBEFORE_END,1516057054973,153
127,WS_SEND_START,1516057054973,153
127,WS_SEND_END,1516057054973,153
127,WS_RECV_START,1516057054973,154
127,WS_RECV_END,1516057056157,154
127,PLAYER_SLEEPBEFORE_START,1516057056157,155
127,PLAYER_SLEEPBEFORE_END,1516057056765,155
127,WS_SEND_START,1516057056765,155
127,WS_SEND_END,1516057056765,155
127,WS_RECV_START,1516057056765,156
127,WS_RECV_END,1516057056868,156
127,PLAYER_SLEEPBEFORE_START,1516057056868,157
127,PLAYER_SLEEPBEFORE_END,1516057058211,157
127,WS_SEND_START,1516057058211,157
127,WS_SEND_END,1516057058211,157
127,WS_RECV_START,1516057058211,158
127,WS_RECV_END,1516057058266,158
127,PLAYER_SLEEPBEFORE_START,1516057058266,159
127,PLAYER_SLEEPBEFORE_END,1516057062166,159
127,WS_SEND_START,1516057062166,159
127,WS_SEND_END,1516057062166,159
127,WS_RECV_START,1516057062166,160
127,WS_RECV_END,1516057062243,160
127,PLAYER_SLEEPBEFORE_START,1516057062243,161
127,PLAYER_SLEEPBEFORE_END,1516057063026,161
127,WS_SEND_START,1516057063026,161
127,WS_SEND_END,1516057063026,161
127,WS_RECV_START,1516057063026,162
127,WS_RECV_END,1516057063892,162
127,PLAYER_SLEEPBEFORE_START,1516057063892,163
127,PLAYER_SLEEPBEFORE_END,1516057063901,163
127,WS_SEND_START,1516057063901,163
127,WS_SEND_END,1516057063901,163
127,WS_RECV_START,1516057063901,164
127,WS_RECV_END,1516057065035,164
127,PLAYER_SLEEPBEFORE_START,1516057065035,165
127,PLAYER_SLEEPBEFORE_END,1516057072408,165
127,WS_SEND_START,1516057072408,165
127,WS_SEND_END,1516057072408,165
127,WS_RECV_START,1516057072408,166
127,WS_RECV_END,1516057074459,166
127,PLAYER_SLEEPBEFORE_START,1516057074459,167
127,PLAYER_SLEEPBEFORE_END,1516057095708,167
127,WS_SEND_START,1516057095708,167
127,WS_SEND_END,1516057095708,167
127,PLAYER_SLEEPBEFORE_START,1516057095708,168
127,PLAYER_SLEEPBEFORE_END,1516057100443,168
127,WS_SEND_START,1516057100443,168
127,WS_SEND_END,1516057100444,168
127,PLAYER_SLEEPBEFORE_START,1516057100444,169
127,PLAYER_SLEEPBEFORE_END,1516057101995,169
127,WS_SEND_START,1516057101995,169
127,WS_SEND_END,1516057101995,169
127,WS_RECV_START,1516057101995,170
127,WS_RECV_END,1516057103939,170
127,PLAYER_SLEEPBEFORE_START,1516057103939,171
127,PLAYER_SLEEPBEFORE_END,1516057103946,171
127,WS_SEND_START,1516057103946,171
127,WS_SEND_END,1516057103946,171
127,WS_RECV_START,1516057103946,172
127,WS_RECV_END,1516057104633,172
127,PLAYER_SLEEPBEFORE_START,1516057104633,173
127,PLAYER_SLEEPBEFORE_END,1516057105401,173
127,WS_SEND_START,1516057105401,173
127,WS_SEND_END,1516057105401,173
127,WS_RECV_START,1516057105401,174
127,WS_RECV_END,1516057106132,174
127,PLAYER_SLEEPBEFORE_START,1516057106132,175
127,PLAYER_SLEEPBEFORE_END,1516057106892,175
127,WS_SEND_START,1516057106892,175
127,WS_SEND_END,1516057106892,175
127,WS_RECV_START,1516057106892,176
127,WS_RECV_END,1516057107780,176
127,PLAYER_SLEEPBEFORE_START,1516057107780,177
127,PLAYER_SLEEPBEFORE_END,1516057108581,177
127,WS_SEND_START,1516057108581,177
127,WS_SEND_END,1516057108581,177
127,WS_RECV_START,1516057108581,178
127,WS_RECV_END,1516057109051,178
127,PLAYER_SLEEPBEFORE_START,1516057109051,179
127,PLAYER_SLEEPBEFORE_END,1516057114305,179
127,WS_SEND_START,1516057114305,179
127,WS_SEND_END,1516057114305,179
127,PLAYER_SLEEPBEFORE_START,1516057114305,180
127,PLAYER_SLEEPBEFORE_END,1516057120923,180
127,WS_SEND_START,1516057120923,180
127,WS_SEND_END,1516057120923,180
127,PLAYER_SLEEPBEFORE_START,1516057120923,181
127,PLAYER_SLEEPBEFORE_END,1516057122659,181
127,WS_SEND_START,1516057122659,181
127,WS_SEND_END,1516057122659,181
127,WS_RECV_START,1516057122659,182
127,WS_RECV_END,1516057122775,182
127,PLAYER_SLEEPBEFORE_START,1516057122775,183
127,PLAYER_SLEEPBEFORE_END,1516057123513,183
127,WS_SEND_START,1516057123513,183
127,WS_SEND_END,1516057123513,183
127,WS_RECV_START,1516057123513,184
127,WS_RECV_END,1516057124525,184
127,PLAYER_SLEEPBEFORE_START,1516057124525,185
127,PLAYER_SLEEPBEFORE_END,1516057124538,185
127,WS_SEND_START,1516057124538,185
127,WS_SEND_END,1516057124538,185
127,WS_RECV_START,1516057124538,186
127,WS_RECV_END,1516057124753,186
127,PLAYER_SLEEPBEFORE_START,1516057124753,187
127,PLAYER_SLEEPBEFORE_END,1516057149760,187
127,WS_SEND_START,1516057149760,187
127,WS_SEND_END,1516057149760,187
127,WS_RECV_START,1516057149760,188
127,WS_RECV_END,1516057152532,188
127,PLAYER_SLEEPBEFORE_START,1516057152532,189
127,PLAYER_SLEEPBEFORE_END,1516057177756,189
127,WS_SEND_START,1516057177756,189
127,WS_SEND_END,1516057177756,189
127,WS_RECV_START,1516057177756,190
127,WS_RECV_END,1516057179880,190
127,PLAYER_SLEEPBEFORE_START,1516057179880,191
127,PLAYER_SLEEPBEFORE_END,1516057179885,191
127,WS_SEND_START,1516057179885,191
127,WS_SEND_END,1516057179885,191
127,WS_RECV_START,1516057179885,192
127,WS_RECV_END,1516057181565,192
127,PLAYER_SLEEPBEFORE_START,1516057181565,193
127,PLAYER_SLEEPBEFORE_END,1516057182002,193
127,WS_SEND_START,1516057182002,193
127,WS_SEND_END,1516057182002,193
127,WS_RECV_START,1516057182002,194
127,WS_RECV_END,1516057182913,194
127,PLAYER_SLEEPBEFORE_START,1516057182913,195
127,PLAYER_SLEEPBEFORE_END,1516057182926,195
127,WS_SEND_START,1516057182926,195
127,WS_SEND_END,1516057182926,195
127,WS_RECV_START,1516057182926,196
127,WS_RECV_END,1516057185915,196
127,PLAYER_SLEEPBEFORE_START,1516057185915,197
127,PLAYER_SLEEPBEFORE_END,1516057210686,197
127,WS_SEND_START,1516057210686,197
127,WS_SEND_END,1516057210686,197
127,WS_RECV_START,1516057210686,198
127,WS_RECV_END,1516057210746,198
127,PLAYER_SLEEPBEFORE_START,1516057210746,199
127,PLAYER_SLEEPBEFORE_END,1516057210753,199
127,WS_SEND_START,1516057210753,199
127,WS_SEND_END,1516057210753,199
127,WS_RECV_START,1516057210753,200
127,WS_RECV_END,1516057210792,200
127,PLAYER_SLEEPBEFORE_START,1516057210792,201
127,PLAYER_SLEEPBEFORE_END,1516057212090,201
127,WS_SEND_START,1516057212090,201
127,WS_SEND_END,1516057212090,201
127,WS_RECV_START,1516057212090,202
127,WS_RECV_END,1516057212839,202
127,PLAYER_SLEEPBEFORE_START,1516057212839,203
127,PLAYER_SLEEPBEFORE_END,1516057212851,203
127,WS_SEND_START,1516057212851,203
127,WS_SEND_END,1516057212851,203
127,WS_RECV_START,1516057212851,204
127,WS_RECV_END,1516057212994,204
127,PLAYER_SLEEPBEFORE_START,1516057212994,205
127,PLAYER_SLEEPBEFORE_END,1516057234626,205
127,WS_SEND_START,1516057234626,205
127,WS_SEND_END,1516057234626,205
127,WS_RECV_START,1516057234626,206
127,WS_RECV_END,1516057239692,206
127,PLAYER_SLEEPBEFORE_START,1516057239692,207
127,PLAYER_SLEEPBEFORE_END,1516057263815,207
127,WS_SEND_START,1516057263815,207
127,WS_SEND_END,1516057263815,207
127,WS_RECV_START,1516057263815,208
127,WS_RECV_END,1516057264343,208
127,PLAYER_SLEEPBEFORE_START,1516057264343,209
127,PLAYER_SLEEPBEFORE_END,1516057270757,209
127,WS_SEND_START,1516057270757,209
127,WS_SEND_END,1516057270757,209
127,WS_RECV_START,1516057270757,210
127,WS_RECV_END,1516057270908,210
127,PLAYER_SLEEPBEFORE_START,1516057270908,211
127,PLAYER_SLEEPBEFORE_END,1516057289740,211
127,WS_SEND_START,1516057289740,211
127,WS_SEND_END,1516057289740,211
127,WS_RECV_START,1516057289740,212
127,WS_RECV_END,1516057289857,212
127,PLAYER_SLEEPBEFORE_START,1516057289857,213
127,PLAYER_SLEEPBEFORE_END,1516057314911,213
127,WS_SEND_START,1516057314911,213
127,WS_SEND_END,1516057314911,213
127,WS_RECV_START,1516057314911,214
127,WS_RECV_END,1516057315416,214
127,PLAYER_SLEEPBEFORE_START,1516057315416,215
127,PLAYER_SLEEPBEFORE_END,1516057323527,215
127,REQ_START,1516057323527,215
127,REQ_END,1516057323536,215
127,PLAYER_SLEEPBEFORE_START,1516057323537,216
127,PLAYER_SLEEPBEFORE_END,1516057340098,216
127,WS_SEND_START,1516057340098,216
127,WS_SEND_END,1516057340098,216
127,WS_RECV_START,1516057340098,217
127,WS_RECV_END,1516057340170,217
127,PLAYER_SLEEPBEFORE_START,1516057340170,218
127,PLAYER_SLEEPBEFORE_END,1516057340177,218
127,WS_SEND_START,1516057340177,218
127,WS_SEND_END,1516057340177,218
127,WS_RECV_START,1516057340177,219
127,WS_RECV_END,1516057340216,219
127,PLAYER_SLEEPBEFORE_START,1516057340216,220
127,PLAYER_SLEEPBEFORE_END,1516057340984,220
127,WS_SEND_START,1516057340984,220
127,WS_SEND_END,1516057340984,220
127,WS_RECV_START,1516057340984,221
127,WS_RECV_END,1516057343071,221
127,PLAYER_SLEEPBEFORE_START,1516057343071,222
127,PLAYER_SLEEPBEFORE_END,1516057343128,222
127,WS_SEND_START,1516057343128,222
127,WS_SEND_END,1516057343128,222
127,WS_RECV_START,1516057343128,223
127,WS_RECV_END,1516057345314,223
127,PLAYER_SLEEPBEFORE_START,1516057345314,224
127,PLAYER_SLEEPBEFORE_END,1516057367970,224
127,WS_SEND_START,1516057367970,224
127,WS_SEND_END,1516057367970,224
127,WS_RECV_START,1516057367970,225
127,WS_RECV_END,1516057368090,225
127,PLAYER_SLEEPBEFORE_START,1516057368090,226
127,PLAYER_SLEEPBEFORE_END,1516057393825,226
127,WS_SEND_START,1516057393825,226
127,WS_SEND_END,1516057393825,226
127,WS_RECV_START,1516057393825,227
127,WS_RECV_END,1516057394027,227
127,PLAYER_SLEEPBEFORE_START,1516057394027,228
127,PLAYER_SLEEPBEFORE_END,1516057417021,228
127,WS_SEND_START,1516057417021,228
127,WS_SEND_END,1516057417021,228
127,WS_RECV_START,1516057417021,229
127,WS_RECV_END,1516057417218,229
127,PLAYER_SLEEPBEFORE_START,1516057417218,230
127,PLAYER_SLEEPBEFORE_END,1516057441434,230
127,WS_SEND_START,1516057441434,230
127,WS_SEND_END,1516057441434,230
127,WS_RECV_START,1516057441434,231
127,WS_RECV_END,1516057442576,231
127,PLAYER_SLEEPBEFORE_START,1516057442576,232
127,PLAYER_SLEEPBEFORE_END,1516057467332,232
127,WS_SEND_START,1516057467332,232
127,WS_SEND_END,1516057467333,232
127,WS_RECV_START,1516057467333,233
127,WS_RECV_END,1516057467782,233
127,PLAYER_SLEEPBEFORE_START,1516057467782,234
127,PLAYER_SLEEPBEFORE_END,1516057494815,234
127,WS_SEND_START,1516057494815,234
127,WS_SEND_END,1516057494815,234
127,WS_RECV_START,1516057494815,235
127,WS_RECV_END,1516057495110,235
127,PLAYER_SLEEPBEFORE_START,1516057495110,236
127,PLAYER_SLEEPBEFORE_END,1516057518950,236
127,WS_SEND_START,1516057518950,236
127,WS_SEND_END,1516057518951,236
127,WS_RECV_START,1516057518951,237
127,WS_RECV_END,1516057524297,237
127,PLAYER_SLEEPBEFORE_START,1516057524297,238
127,PLAYER_SLEEPBEFORE_END,1516057537107,238
127,WS_SEND_START,1516057537107,238
127,WS_SEND_END,1516057537107,238
127,WS_RECV_START,1516057537107,239
127,WS_RECV_END,1516057537755,239
127,PLAYER_SLEEPBEFORE_START,1516057537755,240
127,PLAYER_SLEEPBEFORE_END,1516057550410,240
127,WS_SEND_START,1516057550410,240
127,WS_SEND_END,1516057550411,240
127,WS_RECV_START,1516057550411,241
127,WS_RECV_END,1516057551465,241
127,PLAYER_SLEEPBEFORE_START,1516057551465,242
127,PLAYER_SLEEPBEFORE_END,1516057551488,242
127,WS_SEND_START,1516057551488,242
127,WS_SEND_END,1516057551488,242
127,WS_RECV_START,1516057551488,243
127,WS_RECV_END,1516057551731,243
127,PLAYER_SLEEPBEFORE_START,1516057551731,244
127,PLAYER_SLEEPBEFORE_END,1516057573969,244
127,WS_SEND_START,1516057573969,244
127,WS_SEND_END,1516057573969,244
127,WS_RECV_START,1516057573969,245
127,WS_RECV_END,1516057578970,245
127,PLAYER_SLEEPBEFORE_START,1516057578970,246
127,PLAYER_SLEEPBEFORE_END,1516057578979,246
127,WS_SEND_START,1516057578979,246
127,WS_SEND_END,1516057578979,246
127,WS_RECV_START,1516057578979,247
127,WS_RECV_END,1516057580137,247
127,PLAYER_SLEEPBEFORE_START,1516057580137,248
127,PLAYER_SLEEPBEFORE_END,1516057582174,248
127,WS_SEND_START,1516057582174,248
127,WS_SEND_END,1516057582174,248
127,WS_RECV_START,1516057582174,249
127,WS_RECV_END,1516057584548,249
127,PLAYER_SLEEPBEFORE_START,1516057584548,250
127,PLAYER_SLEEPBEFORE_END,1516057584585,250
127,WS_SEND_START,1516057584585,250
127,WS_SEND_END,1516057584585,250
127,WS_RECV_START,1516057584585,251
127,WS_RECV_END,1516057587196,251
127,PLAYER_SLEEPBEFORE_START,1516057587196,252
127,PLAYER_SLEEPBEFORE_END,1516057609838,252
127,WS_SEND_START,1516057609838,252
127,WS_SEND_END,1516057609838,252
127,WS_RECV_START,1516057609838,253
127,WS_RECV_END,1516057611461,253
127,PLAYER_SLEEPBEFORE_START,1516057611461,254
127,PLAYER_SLEEPBEFORE_END,1516057611477,254
127,WS_SEND_START,1516057611477,254
127,WS_SEND_END,1516057611477,254
127,WS_RECV_START,1516057611477,255
127,WS_RECV_END,1516057612786,255
127,PLAYER_SLEEPBEFORE_START,1516057612786,256
127,PLAYER_SLEEPBEFORE_END,1516057637408,256
127,WS_SEND_START,1516057637408,256
127,WS_SEND_END,1516057637408,256
127,WS_RECV_START,1516057637408,257
127,WS_RECV_END,1516057645932,257
127,PLAYER_SLEEPBEFORE_START,1516057645932,258
127,PLAYER_SLEEPBEFORE_END,1516057645940,258
127,WS_SEND_START,1516057645940,258
127,WS_SEND_END,1516057645940,258
127,WS_RECV_START,1516057645940,259
127,WS_RECV_END,1516057648669,259
127,PLAYER_SLEEPBEFORE_START,1516057648669,260
127,PLAYER_SLEEPBEFORE_END,1516057649193,260
127,WS_SEND_START,1516057649193,260
127,WS_SEND_END,1516057649193,260
127,WS_RECV_START,1516057649193,261
127,WS_RECV_END,1516057650150,261
127,PLAYER_SLEEPBEFORE_START,1516057650150,262
127,PLAYER_SLEEPBEFORE_END,1516057650422,262
127,WS_SEND_START,1516057650422,262
127,WS_SEND_END,1516057650422,262
127,WS_RECV_START,1516057650423,263
127,WS_RECV_END,1516057654802,263
127,PLAYER_SLEEPBEFORE_START,1516057654802,264
127,PLAYER_SLEEPBEFORE_END,1516057657215,264
127,WS_SEND_START,1516057657215,264
127,WS_SEND_END,1516057657216,264
127,WS_RECV_START,1516057657216,265
127,WS_RECV_END,1516057661367,265
127,PLAYER_SLEEPBEFORE_START,1516057661367,266
127,PLAYER_SLEEPBEFORE_END,1516057661380,266
127,WS_SEND_START,1516057661380,266
127,WS_SEND_END,1516057661380,266
127,WS_RECV_START,1516057661380,267
127,WS_RECV_END,1516057662017,267
127,PLAYER_SLEEPBEFORE_START,1516057662017,268
127,PLAYER_SLEEPBEFORE_END,1516057663487,268
127,REQ_START,1516057663487,268
127,REQ_END,1516057663495,268
127,PLAYER_SLEEPBEFORE_START,1516057663495,269
127,PLAYER_SLEEPBEFORE_END,1516057680889,269
127,WS_SEND_START,1516057680889,269
127,WS_SEND_END,1516057680889,269
127,WS_RECV_START,1516057680889,270
127,WS_RECV_END,1516057686922,270
127,PLAYER_SLEEPBEFORE_START,1516057686922,271
127,PLAYER_SLEEPBEFORE_END,1516057686929,271
127,WS_SEND_START,1516057686929,271
127,WS_SEND_END,1516057686929,271
127,WS_RECV_START,1516057686929,272
127,WS_RECV_END,1516057687973,272
127,PLAYER_SLEEPBEFORE_START,1516057687973,273
127,PLAYER_SLEEPBEFORE_END,1516057689270,273
127,WS_SEND_START,1516057689270,273
127,WS_SEND_END,1516057689270,273
127,WS_RECV_START,1516057689270,274
127,WS_RECV_END,1516057691979,274
127,PLAYER_SLEEPBEFORE_START,1516057691979,275
127,PLAYER_SLEEPBEFORE_END,1516057693152,275
127,WS_SEND_START,1516057693152,275
127,WS_SEND_END,1516057693152,275
127,WS_RECV_START,1516057693152,276
127,WS_RECV_END,1516057696726,276
127,PLAYER_SLEEPBEFORE_START,1516057696726,277
127,PLAYER_SLEEPBEFORE_END,1516057696749,277
127,WS_SEND_START,1516057696749,277
127,WS_SEND_END,1516057696749,277
127,WS_RECV_START,1516057696749,278
127,WS_RECV_END,1516057699640,278
127,PLAYER_SLEEPBEFORE_START,1516057699640,279
127,PLAYER_SLEEPBEFORE_END,1516057724163,279
127,WS_SEND_START,1516057724163,279
127,WS_SEND_END,1516057724163,279
127,WS_RECV_START,1516057724163,280
127,WS_RECV_END,1516057724519,280
127,PLAYER_SLEEPBEFORE_START,1516057724519,281
127,PLAYER_SLEEPBEFORE_END,1516057746807,281
127,WS_SEND_START,1516057746807,281
127,WS_SEND_END,1516057746807,281
127,WS_RECV_START,1516057746807,282
127,WS_RECV_END,1516057747778,282
127,PLAYER_SLEEPBEFORE_START,1516057747778,283
127,PLAYER_SLEEPBEFORE_END,1516057747796,283
127,WS_SEND_START,1516057747796,283
127,WS_SEND_END,1516057747796,283
127,WS_RECV_START,1516057747796,284
127,WS_RECV_END,1516057749107,284
127,PLAYER_SLEEPBEFORE_START,1516057749108,285
127,PLAYER_SLEEPBEFORE_END,1516057773239,285
127,WS_SEND_START,1516057773239,285
127,WS_SEND_END,1516057773239,285
127,WS_RECV_START,1516057773239,286
127,WS_RECV_END,1516057774192,286
127,PLAYER_SLEEPBEFORE_START,1516057774192,287
127,PLAYER_SLEEPBEFORE_END,1516057797346,287
127,WS_SEND_START,1516057797346,287
127,WS_SEND_END,1516057797346,287
127,WS_RECV_START,1516057797346,288
127,WS_RECV_END,1516057800383,288
127,PLAYER_SLEEPBEFORE_START,1516057800383,289
127,PLAYER_SLEEPBEFORE_END,1516057800405,289
127,WS_SEND_START,1516057800405,289
127,WS_SEND_END,1516057800405,289
127,WS_RECV_START,1516057800405,290
127,WS_RECV_END,1516057804883,290
127,PLAYER_SLEEPBEFORE_START,1516057804883,291
127,PLAYER_SLEEPBEFORE_END,1516057815497,291
127,WS_SEND_START,1516057815497,291
127,WS_SEND_END,1516057815497,291
127,WS_RECV_START,1516057815497,292
127,WS_RECV_END,1516057817206,292
127,PLAYER_SLEEPBEFORE_START,1516057817206,293
127,PLAYER_SLEEPBEFORE_END,1516057832962,293
127,WS_SEND_START,1516057832962,293
127,WS_SEND_END,1516057832962,293
127,WS_RECV_START,1516057832962,294
127,WS_RECV_END,1516057837377,294
127,PLAYER_SLEEPBEFORE_START,1516057837377,295
127,PLAYER_SLEEPBEFORE_END,1516057837402,295
127,WS_SEND_START,1516057837402,295
127,WS_SEND_END,1516057837402,295
127,WS_RECV_START,1516057837402,296
127,WS_RECV_END,1516057839738,296
127,PLAYER_SLEEPBEFORE_START,1516057839738,297
127,PLAYER_SLEEPBEFORE_END,1516057861235,297
127,WS_SEND_START,1516057861235,297
127,WS_SEND_END,1516057861235,297
127,WS_RECV_START,1516057861235,298
127,WS_RECV_END,1516057863945,298
127,PLAYER_SLEEPBEFORE_START,1516057863945,299
127,PLAYER_SLEEPBEFORE_END,1516057863955,299
127,WS_SEND_START,1516057863955,299
127,WS_SEND_END,1516057863955,299
127,WS_RECV_START,1516057863955,300
127,WS_RECV_END,1516057866929,300
127,PLAYER_SLEEPBEFORE_START,1516057866929,301
127,PLAYER_SLEEPBEFORE_END,1516057869289,301
127,WS_SEND_START,1516057869289,301
127,WS_SEND_END,1516057869289,301
127,WS_RECV_START,1516057869289,302
127,WS_RECV_END,1516057875522,302
127,PLAYER_SLEEPBEFORE_START,1516057875522,303
127,PLAYER_SLEEPBEFORE_END,1516057875546,303
127,WS_SEND_START,1516057875546,303
127,WS_SEND_END,1516057875546,303
127,WS_RECV_START,1516057875546,304
127,WS_RECV_END,1516057879338,304
127,PLAYER_SLEEPBEFORE_START,1516057879338,305
127,PLAYER_SLEEPBEFORE_END,1516057904328,305
127,WS_SEND_START,1516057904328,305
127,WS_SEND_END,1516057904328,305
127,WS_RECV_START,1516057904328,306
127,WS_RECV_END,1516057904755,306
127,PLAYER_SLEEPBEFORE_START,1516057904755,307
127,PLAYER_SLEEPBEFORE_END,1516057928631,307
127,WS_SEND_START,1516057928631,307
127,WS_SEND_END,1516057928631,307
127,WS_RECV_START,1516057928631,308
127,WS_RECV_END,1516057932009,308
127,PLAYER_SLEEPBEFORE_START,1516057932009,309
127,PLAYER_SLEEPBEFORE_END,1516057953700,309
127,WS_SEND_START,1516057953700,309
127,WS_SEND_END,1516057953700,309
127,WS_RECV_START,1516057953700,310
127,WS_RECV_END,1516057958472,310
127,PLAYER_SLEEPBEFORE_START,1516057958472,311
127,PLAYER_SLEEPBEFORE_END,1516057987300,311
127,WS_SEND_START,1516057987300,311
127,WS_SEND_END,1516057987300,311
127,WS_RECV_START,1516057987300,312
127,WS_RECV_END,1516057989324,312
127,PLAYER_SLEEPBEFORE_START,1516057989324,313
127,PLAYER_SLEEPBEFORE_END,1516057989344,313
127,WS_SEND_START,1516057989344,313
127,WS_SEND_END,1516057989344,313
127,WS_RECV_START,1516057989344,314
127,WS_RECV_END,1516057990934,314
127,PLAYER_SLEEPBEFORE_START,1516057990934,315
127,PLAYER_SLEEPBEFORE_END,1516058012520,315
127,WS_SEND_START,1516058012520,315
127,WS_SEND_END,1516058012520,315
127,WS_RECV_START,1516058012520,316
127,WS_RECV_END,1516058014640,316
127,PLAYER_SLEEPBEFORE_START,1516058014640,317
127,PLAYER_SLEEPBEFORE_END,1516058014648,317
127,WS_SEND_START,1516058014648,317
127,WS_SEND_END,1516058014648,317
127,WS_RECV_START,1516058014648,318
127,WS_RECV_END,1516058018533,318
127,PLAYER_SLEEPBEFORE_START,1516058018533,319
127,PLAYER_SLEEPBEFORE_END,1516058018865,319
127,WS_SEND_START,1516058018865,319
127,WS_SEND_END,1516058018865,319
127,WS_RECV_START,1516058018865,320
127,WS_RECV_END,1516058021679,320
127,PLAYER_SLEEPBEFORE_START,1516058021679,321
127,PLAYER_SLEEPBEFORE_END,1516058021698,321
127,WS_SEND_START,1516058021698,321
127,WS_SEND_END,1516058021698,321
127,WS_RECV_START,1516058021698,322
127,WS_RECV_END,1516058023398,322
127,PLAYER_SLEEPBEFORE_START,1516058023398,323
127,PLAYER_SLEEPBEFORE_END,1516058027791,323
127,REQ_START,1516058027791,323
127,REQ_END,1516058027799,323
127,PLAYER_SLEEPBEFORE_START,1516058027799,324
127,PLAYER_SLEEPBEFORE_END,1516058047685,324
127,WS_SEND_START,1516058047685,324
127,WS_SEND_END,1516058047685,324
127,WS_RECV_START,1516058047685,325
127,WS_RECV_END,1516058051883,325
127,PLAYER_SLEEPBEFORE_START,1516058051883,326
127,PLAYER_SLEEPBEFORE_END,1516058051892,326
127,WS_SEND_START,1516058051892,326
127,WS_SEND_END,1516058051892,326
127,WS_RECV_START,1516058051892,327
127,WS_RECV_END,1516058055361,327
127,PLAYER_SLEEPBEFORE_START,1516058055361,328
127,PLAYER_SLEEPBEFORE_END,1516058055722,328
127,WS_SEND_START,1516058055722,328
127,WS_SEND_END,1516058055722,328
127,WS_RECV_START,1516058055722,329
127,WS_RECV_END,1516058060579,329
127,PLAYER_SLEEPBEFORE_START,1516058060579,330
127,PLAYER_SLEEPBEFORE_END,1516058060926,330
127,WS_SEND_START,1516058060926,330
127,WS_SEND_END,1516058060926,330
127,WS_RECV_START,1516058060926,331
127,WS_RECV_END,1516058061719,331
127,PLAYER_SLEEPBEFORE_START,1516058061719,332
127,PLAYER_SLEEPBEFORE_END,1516058062566,332
127,WS_SEND_START,1516058062566,332
127,WS_SEND_END,1516058062566,332
127,WS_RECV_START,1516058062566,333
127,WS_RECV_END,1516058066161,333
127,PLAYER_SLEEPBEFORE_START,1516058066161,334
127,PLAYER_SLEEPBEFORE_END,1516058066558,334
127,WS_SEND_START,1516058066558,334
127,WS_SEND_END,1516058066558,334
127,WS_RECV_START,1516058066558,335
127,WS_RECV_END,1516058071376,335
127,PLAYER_SLEEPBEFORE_START,1516058071376,336
127,PLAYER_SLEEPBEFORE_END,1516058071700,336
127,WS_SEND_START,1516058071700,336
127,WS_SEND_END,1516058071700,336
127,WS_RECV_START,1516058071700,337
127,WS_RECV_END,1516058073431,337
127,PLAYER_SLEEPBEFORE_START,1516058073431,338
127,PLAYER_SLEEPBEFORE_END,1516058073446,338
127,WS_SEND_START,1516058073446,338
127,WS_SEND_END,1516058073446,338
127,WS_RECV_START,1516058073446,339
127,WS_RECV_END,1516058074643,339
127,PLAYER_SLEEPBEFORE_START,1516058074643,340
127,PLAYER_SLEEPBEFORE_END,1516058092615,340
127,WS_SEND_START,1516058092615,340
127,WS_SEND_END,1516058092615,340
127,WS_RECV_START,1516058092615,341
127,WS_RECV_END,1516058095764,341
127,PLAYER_SLEEPBEFORE_START,1516058095764,342
127,PLAYER_SLEEPBEFORE_END,1516058095773,342
127,WS_SEND_START,1516058095773,342
127,WS_SEND_END,1516058095773,342
127,WS_RECV_START,1516058095773,343
127,WS_RECV_END,1516058098197,343
127,PLAYER_SLEEPBEFORE_START,1516058098197,344
127,PLAYER_SLEEPBEFORE_END,1516058100509,344
127,WS_SEND_START,1516058100509,344
127,WS_SEND_END,1516058100509,344
127,WS_RECV_START,1516058100509,345
127,WS_RECV_END,1516058106577,345
127,PLAYER_SLEEPBEFORE_START,1516058106577,346
127,PLAYER_SLEEPBEFORE_END,1516058106588,346
127,WS_SEND_START,1516058106588,346
127,WS_SEND_END,1516058106588,346
127,WS_RECV_START,1516058106588,347
127,WS_RECV_END,1516058110659,347
127,PLAYER_SLEEPBEFORE_START,1516058110659,348
127,PLAYER_SLEEPBEFORE_END,1516058131266,348
127,WS_SEND_START,1516058131266,348
127,WS_SEND_END,1516058131266,348
127,WS_RECV_START,1516058131266,349
127,WS_RECV_END,1516058134151,349
127,PLAYER_SLEEPBEFORE_START,1516058134151,350
127,PLAYER_SLEEPBEFORE_END,1516058134159,350
127,WS_SEND_START,1516058134159,350
127,WS_SEND_END,1516058134159,350
127,WS_RECV_START,1516058134159,351
127,WS_RECV_END,1516058134473,351
127,PLAYER_SLEEPBEFORE_START,1516058134473,352
127,PLAYER_SLEEPBEFORE_END,1516058135659,352
127,WS_SEND_START,1516058135659,352
127,WS_SEND_END,1516058135659,352
127,WS_RECV_START,1516058135659,353
127,WS_RECV_END,1516058136720,353
127,PLAYER_SLEEPBEFORE_START,1516058136720,354
127,PLAYER_SLEEPBEFORE_END,1516058136737,354
127,WS_SEND_START,1516058136737,354
127,WS_SEND_END,1516058136737,354
127,WS_RECV_START,1516058136737,355
127,WS_RECV_END,1516058139029,355
127,PLAYER_SLEEPBEFORE_START,1516058139030,356
127,PLAYER_SLEEPBEFORE_END,1516058139076,356
127,WS_SEND_START,1516058139076,356
127,WS_SEND_END,1516058139076,356
127,WS_RECV_START,1516058139076,357
127,WS_RECV_END,1516058142283,357
127,PLAYER_SLEEPBEFORE_START,1516058142283,358
127,PLAYER_SLEEPBEFORE_END,1516058142299,358
127,WS_SEND_START,1516058142299,358
127,WS_SEND_END,1516058142299,358
127,WS_RECV_START,1516058142299,359
127,WS_RECV_END,1516058144488,359
127,PLAYER_SLEEPBEFORE_START,1516058144489,360
127,PLAYER_SLEEPBEFORE_END,1516058164955,360
127,WS_SEND_START,1516058164955,360
127,WS_SEND_END,1516058164955,360
127,WS_RECV_START,1516058164955,361
127,WS_RECV_END,1516058165839,361
127,PLAYER_SLEEPBEFORE_START,1516058165839,362
127,PLAYER_SLEEPBEFORE_END,1516058165848,362
127,WS_SEND_START,1516058165848,362
127,WS_SEND_END,1516058165848,362
127,WS_RECV_START,1516058165848,363
127,WS_RECV_END,1516058169581,363
127,PLAYER_SLEEPBEFORE_START,1516058169581,364
127,PLAYER_SLEEPBEFORE_END,1516058171672,364
127,WS_SEND_START,1516058171672,364
127,WS_SEND_END,1516058171672,364
127,WS_RECV_START,1516058171672,365
127,WS_RECV_END,1516058174504,365
127,PLAYER_SLEEPBEFORE_START,1516058174504,366
127,PLAYER_SLEEPBEFORE_END,1516058174514,366
127,WS_SEND_START,1516058174514,366
127,WS_SEND_END,1516058174514,366
127,WS_RECV_START,1516058174514,367
127,WS_RECV_END,1516058178711,367
127,PLAYER_SLEEPBEFORE_START,1516058178711,368
127,PLAYER_SLEEPBEFORE_END,1516058202171,368
127,WS_SEND_START,1516058202171,368
127,WS_SEND_END,1516058202172,368
127,WS_RECV_START,1516058202172,369
127,WS_RECV_END,1516058202266,369
127,PLAYER_SLEEPBEFORE_START,1516058202266,370
127,PLAYER_SLEEPBEFORE_END,1516058202274,370
127,WS_SEND_START,1516058202274,370
127,WS_SEND_END,1516058202274,370
127,WS_RECV_START,1516058202274,371
127,WS_RECV_END,1516058202397,371
127,PLAYER_SLEEPBEFORE_START,1516058202397,372
127,PLAYER_SLEEPBEFORE_END,1516058202769,372
127,WS_SEND_START,1516058202769,372
127,WS_SEND_END,1516058202769,372
127,WS_RECV_START,1516058202769,373
127,WS_RECV_END,1516058202853,373
127,PLAYER_SLEEPBEFORE_START,1516058202853,374
127,PLAYER_SLEEPBEFORE_END,1516058203555,374
127,WS_SEND_START,1516058203555,374
127,WS_SEND_END,1516058203555,374
127,WS_RECV_START,1516058203555,375
127,WS_RECV_END,1516058204213,375
127,PLAYER_SLEEPBEFORE_START,1516058204213,376
127,PLAYER_SLEEPBEFORE_END,1516058204564,376
127,WS_SEND_START,1516058204564,376
127,WS_SEND_END,1516058204564,376
127,WS_RECV_START,1516058204564,377
127,WS_RECV_END,1516058205765,377
127,PLAYER_SLEEPBEFORE_START,1516058205765,378
127,PLAYER_SLEEPBEFORE_END,1516058205784,378
127,WS_SEND_START,1516058205784,378
127,WS_SEND_END,1516058205784,378
127,WS_RECV_START,1516058205784,379
127,WS_RECV_END,1516058206529,379
127,PLAYER_SLEEPBEFORE_START,1516058206529,380
127,PLAYER_SLEEPBEFORE_END,1516058227021,380
127,WS_SEND_START,1516058227021,380
127,WS_SEND_END,1516058227021,380
127,PLAYER_SLEEPBEFORE_START,1516058227021,381
127,PLAYER_SLEEPBEFORE_END,1516058231236,381
127,WS_SEND_START,1516058231236,381
127,WS_SEND_END,1516058231236,381
127,WS_RECV_START,1516058231236,382
127,WS_RECV_END,1516058231687,382
127,PLAYER_SLEEPBEFORE_START,1516058231687,383
127,PLAYER_SLEEPBEFORE_END,1516058251887,383
127,WS_SEND_START,1516058251888,383
127,WS_SEND_END,1516058251888,383
127,PLAYER_SLEEPBEFORE_START,1516058251888,384
127,PLAYER_SLEEPBEFORE_END,1516058255074,384
127,WS_SEND_START,1516058255074,384
127,WS_SEND_END,1516058255074,384
127,WS_RECV_START,1516058255074,385
127,WS_RECV_END,1516058255777,385
127,PLAYER_SLEEPBEFORE_START,1516058255777,386
127,PLAYER_SLEEPBEFORE_END,1516058255792,386
127,WS_SEND_START,1516058255792,386
127,WS_SEND_END,1516058255792,386
127,WS_RECV_START,1516058255792,387
127,WS_RECV_END,1516058255911,387
127,PLAYER_SLEEPBEFORE_START,1516058255911,388
127,PLAYER_SLEEPBEFORE_END,1516058276441,388
127,WS_SEND_START,1516058276441,388
127,WS_SEND_END,1516058276441,388
127,PLAYER_SLEEPBEFORE_START,1516058276441,389
127,PLAYER_SLEEPBEFORE_END,1516058278660,389
127,WS_SEND_START,1516058278660,389
127,WS_SEND_END,1516058278660,389
127,WS_RECV_START,1516058278660,390
127,WS_RECV_END,1516058278844,390
127,PLAYER_SLEEPBEFORE_START,1516058278844,391
127,PLAYER_SLEEPBEFORE_END,1516058301680,391
127,WS_SEND_START,1516058301680,391
127,WS_SEND_END,1516058301680,391
127,WS_RECV_START,1516058301680,392
127,WS_RECV_END,1516058301859,392
127,PLAYER_SLEEPBEFORE_START,1516058301860,393
127,PLAYER_SLEEPBEFORE_END,1516058326549,393
127,WS_SEND_START,1516058326549,393
127,WS_SEND_END,1516058326549,393
127,PLAYER_SLEEPBEFORE_START,1516058326549,394
127,PLAYER_SLEEPBEFORE_END,1516058328521,394
127,WS_SEND_START,1516058328521,394
127,WS_SEND_END,1516058328521,394
127,WS_RECV_START,1516058328521,395
127,WS_RECV_END,1516058328716,395
127,PLAYER_SLEEPBEFORE_START,1516058328716,396
127,PLAYER_SLEEPBEFORE_END,1516058328724,396
127,WS_SEND_START,1516058328724,396
127,WS_SEND_END,1516058328724,396
127,WS_RECV_START,1516058328724,397
127,WS_RECV_END,1516058328765,397
127,PLAYER_SLEEPBEFORE_START,1516058328765,398
127,PLAYER_SLEEPBEFORE_END,1516058328945,398
127,WS_SEND_START,1516058328945,398
127,WS_SEND_END,1516058328945,398
127,WS_RECV_START,1516058328945,399
127,WS_RECV_END,1516058328997,399
127,PLAYER_SLEEPBEFORE_START,1516058328997,400
127,PLAYER_SLEEPBEFORE_END,1516058330073,400
127,WS_SEND_START,1516058330073,400
127,WS_SEND_END,1516058330073,400
127,WS_RECV_START,1516058330073,401
127,WS_RECV_END,1516058330124,401
127,PLAYER_SLEEPBEFORE_START,1516058330124,402
127,PLAYER_SLEEPBEFORE_END,1516058331483,402
127,WS_SEND_START,1516058331483,402
127,WS_SEND_END,1516058331483,402
127,WS_RECV_START,1516058331483,403
127,WS_RECV_END,1516058331534,403
127,PLAYER_SLEEPBEFORE_START,1516058331534,404
127,PLAYER_SLEEPBEFORE_END,1516058332004,404
127,WS_SEND_START,1516058332004,404
127,WS_SEND_END,1516058332004,404
127,WS_RECV_START,1516058332004,405
127,WS_RECV_END,1516058332055,405
127,PLAYER_SLEEPBEFORE_START,1516058332055,406
127,PLAYER_SLEEPBEFORE_END,1516058334782,406
127,WS_SEND_START,1516058334782,406
127,WS_SEND_END,1516058334782,406
127,WS_RECV_START,1516058334782,407
127,WS_RECV_END,1516058334834,407
127,PLAYER_SLEEPBEFORE_START,1516058334834,408
127,PLAYER_SLEEPBEFORE_END,1516058335163,408
127,WS_SEND_START,1516058335163,408
127,WS_SEND_END,1516058335163,408
127,WS_RECV_START,1516058335163,409
127,WS_RECV_END,1516058335214,409
127,PLAYER_SLEEPBEFORE_START,1516058335214,410
127,PLAYER_SLEEPBEFORE_END,1516058336239,410
127,WS_SEND_START,1516058336239,410
127,WS_SEND_END,1516058336239,410
127,WS_RECV_START,1516058336239,411
127,WS_RECV_END,1516058336292,411
127,PLAYER_SLEEPBEFORE_START,1516058336292,412
127,PLAYER_SLEEPBEFORE_END,1516058336948,412
127,WS_SEND_START,1516058336948,412
127,WS_SEND_END,1516058336948,412
127,WS_RECV_START,1516058336948,413
127,WS_RECV_END,1516058337682,413
127,PLAYER_SLEEPBEFORE_START,1516058337682,414
127,PLAYER_SLEEPBEFORE_END,1516058337699,414
127,WS_SEND_START,1516058337699,414
127,WS_SEND_END,1516058337699,414
127,WS_RECV_START,1516058337699,415
127,WS_RECV_END,1516058337806,415
127,PLAYER_SLEEPBEFORE_START,1516058337806,416
127,PLAYER_SLEEPBEFORE_END,1516058352073,416
127,WS_SEND_START,1516058352073,416
127,WS_SEND_END,1516058352073,416
127,PLAYER_SLEEPBEFORE_START,1516058352073,417
127,PLAYER_SLEEPBEFORE_END,1516058380753,417
127,WS_SEND_START,1516058380753,417
127,WS_SEND_END,1516058380753,417
127,WS_RECV_START,1516058380753,418
127,WS_RECV_END,1516058381356,418
127,PLAYER_SLEEPBEFORE_START,1516058381356,419
127,PLAYER_SLEEPBEFORE_END,1516058386178,419
127,REQ_START,1516058386178,419
127,REQ_END,1516058386186,419
127,PLAYER_SLEEPBEFORE_START,1516058386186,420
127,PLAYER_SLEEPBEFORE_END,1516058404931,420
127,WS_CLOSE_START,1516058404931,420
127,WS_CLOSE_END,1516058404931,420
127,PLAYER_DONE,1516058404931
