# --sessions 180 --app-url=http://shinyloadtest.rstudioservices.com/ --output-dir test180 --overwrite-output --log-level warn --start-interval 1500 30min.log
thread_id,event,timestamp,input_line_number,comment
160,PLAYER_SESSION_CREATE,1516056181722
160,PLAYER_START_INTERVAL_START,1516056181722
160,PLAYER_START_INTERVAL_END,1516056421722
160,REQ_HOME_START,1516056421722,2
160,REQ_HOME_END,1516056421806,2
160,REQ_START,1516056421806,3
160,REQ_END,1516056421946,3
160,REQ_START,1516056421946,4
160,REQ_END,1516056422020,4
160,REQ_START,1516056422020,5
160,REQ_END,1516056422051,5
160,REQ_START,1516056422051,6
160,REQ_END,1516056422083,6
160,REQ_START,1516056422083,7
160,REQ_END,1516056422114,7
160,REQ_START,1516056422114,8
160,REQ_END,1516056422147,8
160,REQ_START,1516056422147,9
160,REQ_END,1516056422180,9
160,REQ_START,1516056422180,10
160,REQ_END,1516056422187,10
160,REQ_START,1516056422187,11
160,REQ_END,1516056422219,11
160,REQ_START,1516056422219,12
160,REQ_END,1516056422250,12
160,REQ_START,1516056422250,13
160,REQ_END,1516056422259,13
160,REQ_START,1516056422259,14
160,REQ_END,1516056422272,14
160,REQ_START,1516056422272,15
160,REQ_END,1516056422304,15
160,REQ_TOK_START,1516056422304,16
160,REQ_TOK_END,1516056422310,16
160,REQ_SINF_START,1516056422310,17
160,REQ_SINF_END,1516056422319,17
160,WS_OPEN_START,1516056422319,18
160,WS_OPEN_END,1516056422326,18
160,WS_RECV_START,1516056422326,19
160,WS_RECV_END,1516056422327,19
160,PLAYER_SLEEPBEFORE_START,1516056422327,20
160,PLAYER_SLEEPBEFORE_END,1516056422333,20
160,WS_SEND_START,1516056422333,20
160,WS_SEND_END,1516056422333,20
160,PLAYER_SLEEPBEFORE_START,1516056422333,21
160,PLAYER_SLEEPBEFORE_END,1516056422334,21
160,WS_SEND_START,1516056422334,21
160,WS_SEND_END,1516056422334,21
160,WS_RECV_INIT_START,1516056422334,22
160,WS_RECV_INIT_END,1516056422351,22
160,WS_RECV_START,1516056422351,23
160,WS_RECV_END,1516056422415,23
160,PLAYER_SLEEPBEFORE_START,1516056422415,24
160,PLAYER_SLEEPBEFORE_END,1516056422422,24
160,REQ_START,1516056422422,24
160,REQ_END,1516056422650,24
160,PLAYER_SLEEPBEFORE_START,1516056422650,25
160,PLAYER_SLEEPBEFORE_END,1516056422652,25
160,REQ_START,1516056422652,25
160,REQ_END,1516056422682,25
160,PLAYER_SLEEPBEFORE_START,1516056422682,26
160,PLAYER_SLEEPBEFORE_END,1516056422685,26
160,REQ_START,1516056422685,26
160,REQ_END,1516056422717,26
160,PLAYER_SLEEPBEFORE_START,1516056422717,27
160,PLAYER_SLEEPBEFORE_END,1516056422973,27
160,REQ_START,1516056422973,27
160,REQ_END,1516056423005,27
160,PLAYER_SLEEPBEFORE_START,1516056423005,28
160,PLAYER_SLEEPBEFORE_END,1516056423203,28
160,WS_SEND_START,1516056423203,28
160,WS_SEND_END,1516056423204,28
160,WS_RECV_START,1516056423204,29
160,WS_RECV_END,1516056424152,29
160,PLAYER_SLEEPBEFORE_START,1516056424152,30
160,PLAYER_SLEEPBEFORE_END,1516056424163,30
160,REQ_START,1516056424163,30
160,REQ_END,1516056424279,30
160,PLAYER_SLEEPBEFORE_START,1516056424279,31
160,PLAYER_SLEEPBEFORE_END,1516056454399,31
160,WS_SEND_START,1516056454399,31
160,WS_SEND_END,1516056454399,31
160,WS_RECV_START,1516056454399,32
160,WS_RECV_END,1516056454577,32
160,PLAYER_SLEEPBEFORE_START,1516056454577,33
160,PLAYER_SLEEPBEFORE_END,1516056479344,33
160,WS_SEND_START,1516056479344,33
160,WS_SEND_END,1516056479344,33
160,WS_RECV_START,1516056479344,34
160,WS_RECV_END,1516056480003,34
160,PLAYER_SLEEPBEFORE_START,1516056480003,35
160,PLAYER_SLEEPBEFORE_END,1516056504816,35
160,WS_SEND_START,1516056504816,35
160,WS_SEND_END,1516056504816,35
160,WS_RECV_START,1516056504816,36
160,WS_RECV_END,1516056504935,36
160,PLAYER_SLEEPBEFORE_START,1516056504935,37
160,PLAYER_SLEEPBEFORE_END,1516056504944,37
160,WS_SEND_START,1516056504944,37
160,WS_SEND_END,1516056504944,37
160,WS_RECV_START,1516056504944,38
160,WS_RECV_END,1516056504985,38
160,PLAYER_SLEEPBEFORE_START,1516056504985,39
160,PLAYER_SLEEPBEFORE_END,1516056507682,39
160,WS_SEND_START,1516056507683,39
160,WS_SEND_END,1516056507683,39
160,WS_RECV_START,1516056507683,40
160,WS_RECV_END,1516056507757,40
160,PLAYER_SLEEPBEFORE_START,1516056507757,41
160,PLAYER_SLEEPBEFORE_END,1516056508876,41
160,WS_SEND_START,1516056508876,41
160,WS_SEND_END,1516056508876,41
160,WS_RECV_START,1516056508876,42
160,WS_RECV_END,1516056510086,42
160,PLAYER_SLEEPBEFORE_START,1516056510086,43
160,PLAYER_SLEEPBEFORE_END,1516056510114,43
160,WS_SEND_START,1516056510114,43
160,WS_SEND_END,1516056510115,43
160,WS_RECV_START,1516056510115,44
160,WS_RECV_END,1516056510305,44
160,PLAYER_SLEEPBEFORE_START,1516056510305,45
160,PLAYER_SLEEPBEFORE_END,1516056531794,45
160,WS_SEND_START,1516056531794,45
160,WS_SEND_END,1516056531794,45
160,WS_RECV_START,1516056531794,46
160,WS_RECV_END,1516056532019,46
160,PLAYER_SLEEPBEFORE_START,1516056532019,47
160,PLAYER_SLEEPBEFORE_END,1516056560504,47
160,WS_SEND_START,1516056560504,47
160,WS_SEND_END,1516056560504,47
160,WS_RECV_START,1516056560504,48
160,WS_RECV_END,1516056560624,48
160,PLAYER_SLEEPBEFORE_START,1516056560624,49
160,PLAYER_SLEEPBEFORE_END,1516056587033,49
160,WS_SEND_START,1516056587033,49
160,WS_SEND_END,1516056587033,49
160,WS_RECV_START,1516056587033,50
160,WS_RECV_END,1516056587335,50
160,PLAYER_SLEEPBEFORE_START,1516056587335,51
160,PLAYER_SLEEPBEFORE_END,1516056609886,51
160,WS_SEND_START,1516056609886,51
160,WS_SEND_END,1516056609886,51
160,WS_RECV_START,1516056609886,52
160,WS_RECV_END,1516056610021,52
160,PLAYER_SLEEPBEFORE_START,1516056610021,53
160,PLAYER_SLEEPBEFORE_END,1516056634925,53
160,WS_SEND_START,1516056634925,53
160,WS_SEND_END,1516056634925,53
160,WS_RECV_START,1516056634925,54
160,WS_RECV_END,1516056635830,54
160,PLAYER_SLEEPBEFORE_START,1516056635830,55
160,PLAYER_SLEEPBEFORE_END,1516056661231,55
160,WS_SEND_START,1516056661231,55
160,WS_SEND_END,1516056661231,55
160,WS_RECV_START,1516056661231,56
160,WS_RECV_END,1516056661483,56
160,PLAYER_SLEEPBEFORE_START,1516056661483,57
160,PLAYER_SLEEPBEFORE_END,1516056686821,57
160,WS_SEND_START,1516056686821,57
160,WS_SEND_END,1516056686821,57
160,WS_RECV_START,1516056686821,58
160,WS_RECV_END,1516056687059,58
160,PLAYER_SLEEPBEFORE_START,1516056687059,59
160,PLAYER_SLEEPBEFORE_END,1516056713916,59
160,WS_SEND_START,1516056713916,59
160,WS_SEND_END,1516056713916,59
160,WS_RECV_START,1516056713916,60
160,WS_RECV_END,1516056715844,60
160,PLAYER_SLEEPBEFORE_START,1516056715844,61
160,PLAYER_SLEEPBEFORE_END,1516056715867,61
160,WS_SEND_START,1516056715867,61
160,WS_SEND_END,1516056715867,61
160,WS_RECV_START,1516056715867,62
160,WS_RECV_END,1516056716245,62
160,PLAYER_SLEEPBEFORE_START,1516056716245,63
160,PLAYER_SLEEPBEFORE_END,1516056725249,63
160,REQ_START,1516056725249,63
160,REQ_END,1516056725258,63
160,PLAYER_SLEEPBEFORE_START,1516056725258,64
160,PLAYER_SLEEPBEFORE_END,1516056739464,64
160,WS_SEND_START,1516056739464,64
160,WS_SEND_END,1516056739464,64
160,WS_RECV_START,1516056739464,65
160,WS_RECV_END,1516056740900,65
160,PLAYER_SLEEPBEFORE_START,1516056740900,66
160,PLAYER_SLEEPBEFORE_END,1516056764888,66
160,WS_SEND_START,1516056764888,66
160,WS_SEND_END,1516056764888,66
160,WS_RECV_START,1516056764888,67
160,WS_RECV_END,1516056765008,67
160,PLAYER_SLEEPBEFORE_START,1516056765008,68
160,PLAYER_SLEEPBEFORE_END,1516056790582,68
160,WS_SEND_START,1516056790582,68
160,WS_SEND_END,1516056790582,68
160,WS_RECV_START,1516056790582,69
160,WS_RECV_END,1516056790646,69
160,PLAYER_SLEEPBEFORE_START,1516056790646,70
160,PLAYER_SLEEPBEFORE_END,1516056790656,70
160,WS_SEND_START,1516056790656,70
160,WS_SEND_END,1516056790656,70
160,WS_RECV_START,1516056790656,71
160,WS_RECV_END,1516056790697,71
160,PLAYER_SLEEPBEFORE_START,1516056790697,72
160,PLAYER_SLEEPBEFORE_END,1516056790902,72
160,WS_SEND_START,1516056790902,72
160,WS_SEND_END,1516056790902,72
160,WS_RECV_START,1516056790902,73
160,WS_RECV_END,1516056792185,73
160,PLAYER_SLEEPBEFORE_START,1516056792186,74
160,PLAYER_SLEEPBEFORE_END,1516056793608,74
160,WS_SEND_START,1516056793608,74
160,WS_SEND_END,1516056793608,74
160,WS_RECV_START,1516056793608,75
160,WS_RECV_END,1516056793925,75
160,PLAYER_SLEEPBEFORE_START,1516056793925,76
160,PLAYER_SLEEPBEFORE_END,1516056794421,76
160,WS_SEND_START,1516056794421,76
160,WS_SEND_END,1516056794421,76
160,WS_RECV_START,1516056794421,77
160,WS_RECV_END,1516056795286,77
160,PLAYER_SLEEPBEFORE_START,1516056795286,78
160,PLAYER_SLEEPBEFORE_END,1516056795304,78
160,WS_SEND_START,1516056795304,78
160,WS_SEND_END,1516056795304,78
160,WS_RECV_START,1516056795304,79
160,WS_RECV_END,1516056795643,79
160,PLAYER_SLEEPBEFORE_START,1516056795643,80
160,PLAYER_SLEEPBEFORE_END,1516056816377,80
160,WS_SEND_START,1516056816377,80
160,WS_SEND_END,1516056816377,80
160,WS_RECV_START,1516056816377,81
160,WS_RECV_END,1516056816640,81
160,PLAYER_SLEEPBEFORE_START,1516056816640,82
160,PLAYER_SLEEPBEFORE_END,1516056816651,82
160,WS_SEND_START,1516056816651,82
160,WS_SEND_END,1516056816652,82
160,WS_RECV_START,1516056816652,83
160,WS_RECV_END,1516056816873,83
160,PLAYER_SLEEPBEFORE_START,1516056816873,84
160,PLAYER_SLEEPBEFORE_END,1516056817736,84
160,WS_SEND_START,1516056817736,84
160,WS_SEND_END,1516056817736,84
160,WS_RECV_START,1516056817736,85
160,WS_RECV_END,1516056819802,85
160,PLAYER_SLEEPBEFORE_START,1516056819802,86
160,PLAYER_SLEEPBEFORE_END,1516056820529,86
160,WS_SEND_START,1516056820529,86
160,WS_SEND_END,1516056820529,86
160,WS_RECV_START,1516056820529,87
160,WS_RECV_END,1516056822674,87
160,PLAYER_SLEEPBEFORE_START,1516056822674,88
160,PLAYER_SLEEPBEFORE_END,1516056822695,88
160,WS_SEND_START,1516056822695,88
160,WS_SEND_END,1516056822695,88
160,WS_RECV_START,1516056822695,89
160,WS_RECV_END,1516056823390,89
160,PLAYER_SLEEPBEFORE_START,1516056823390,90
160,PLAYER_SLEEPBEFORE_END,1516056844819,90
160,WS_SEND_START,1516056844819,90
160,WS_SEND_END,1516056844819,90
160,PLAYER_SLEEPBEFORE_START,1516056844819,91
160,PLAYER_SLEEPBEFORE_END,1516056871674,91
160,WS_SEND_START,1516056871674,91
160,WS_SEND_END,1516056871674,91
160,WS_RECV_START,1516056871674,92
160,WS_RECV_END,1516056872600,92
160,PLAYER_SLEEPBEFORE_START,1516056872600,93
160,PLAYER_SLEEPBEFORE_END,1516056874874,93
160,WS_SEND_START,1516056874874,93
160,WS_SEND_END,1516056874874,93
160,WS_RECV_START,1516056874874,94
160,WS_RECV_END,1516056876320,94
160,PLAYER_SLEEPBEFORE_START,1516056876320,95
160,PLAYER_SLEEPBEFORE_END,1516056902316,95
160,WS_SEND_START,1516056902316,95
160,WS_SEND_END,1516056902316,95
160,WS_RECV_START,1516056902316,96
160,WS_RECV_END,1516056902604,96
160,PLAYER_SLEEPBEFORE_START,1516056902605,97
160,PLAYER_SLEEPBEFORE_END,1516056907693,97
160,WS_SEND_START,1516056907693,97
160,WS_SEND_END,1516056907693,97
160,WS_RECV_START,1516056907693,98
160,WS_RECV_END,1516056909490,98
160,PLAYER_SLEEPBEFORE_START,1516056909490,99
160,PLAYER_SLEEPBEFORE_END,1516056911190,99
160,WS_SEND_START,1516056911190,99
160,WS_SEND_END,1516056911190,99
160,WS_RECV_START,1516056911190,100
160,WS_RECV_END,1516056912588,100
160,PLAYER_SLEEPBEFORE_START,1516056912588,101
160,PLAYER_SLEEPBEFORE_END,1516056914427,101
160,WS_SEND_START,1516056914427,101
160,WS_SEND_END,1516056914427,101
160,WS_RECV_START,1516056914427,102
160,WS_RECV_END,1516056914787,102
160,PLAYER_SLEEPBEFORE_START,1516056914787,103
160,PLAYER_SLEEPBEFORE_END,1516056927837,103
160,WS_SEND_START,1516056927837,103
160,WS_SEND_END,1516056927837,103
160,PLAYER_SLEEPBEFORE_START,1516056927837,104
160,PLAYER_SLEEPBEFORE_END,1516056932263,104
160,WS_SEND_START,1516056932263,104
160,WS_SEND_END,1516056932263,104
160,WS_RECV_START,1516056932263,105
160,WS_RECV_END,1516056933208,105
160,PLAYER_SLEEPBEFORE_START,1516056933208,106
160,PLAYER_SLEEPBEFORE_END,1516056933217,106
160,WS_SEND_START,1516056933217,106
160,WS_SEND_END,1516056933217,106
160,WS_RECV_START,1516056933217,107
160,WS_RECV_END,1516056933417,107
160,PLAYER_SLEEPBEFORE_START,1516056933417,108
160,PLAYER_SLEEPBEFORE_END,1516056933881,108
160,WS_SEND_START,1516056933881,108
160,WS_SEND_END,1516056933881,108
160,WS_RECV_START,1516056933881,109
160,WS_RECV_END,1516056934856,109
160,PLAYER_SLEEPBEFORE_START,1516056934856,110
160,PLAYER_SLEEPBEFORE_END,1516056934871,110
160,WS_SEND_START,1516056934871,110
160,WS_SEND_END,1516056934871,110
160,WS_RECV_START,1516056934871,111
160,WS_RECV_END,1516056935426,111
160,PLAYER_SLEEPBEFORE_START,1516056935426,112
160,PLAYER_SLEEPBEFORE_END,1516056956190,112
160,WS_SEND_START,1516056956190,112
160,WS_SEND_END,1516056956190,112
160,PLAYER_SLEEPBEFORE_START,1516056956190,113
160,PLAYER_SLEEPBEFORE_END,1516056958584,113
160,WS_SEND_START,1516056958584,113
160,WS_SEND_END,1516056958584,113
160,WS_RECV_START,1516056958584,114
160,WS_RECV_END,1516056958873,114
160,PLAYER_SLEEPBEFORE_START,1516056958873,115
160,PLAYER_SLEEPBEFORE_END,1516056959656,115
160,WS_SEND_START,1516056959656,115
160,WS_SEND_END,1516056959656,115
160,WS_RECV_START,1516056959656,116
160,WS_RECV_END,1516056959867,116
160,PLAYER_SLEEPBEFORE_START,1516056959867,117
160,PLAYER_SLEEPBEFORE_END,1516056982252,117
160,WS_SEND_START,1516056982252,117
160,WS_SEND_END,1516056982252,117
160,WS_RECV_START,1516056982252,118
160,WS_RECV_END,1516056983949,118
160,PLAYER_SLEEPBEFORE_START,1516056983949,119
160,PLAYER_SLEEPBEFORE_END,1516056985853,119
160,WS_SEND_START,1516056985853,119
160,WS_SEND_END,1516056985853,119
160,WS_RECV_START,1516056985853,120
160,WS_RECV_END,1516056986142,120
160,PLAYER_SLEEPBEFORE_START,1516056986142,121
160,PLAYER_SLEEPBEFORE_END,1516056987294,121
160,WS_SEND_START,1516056987294,121
160,WS_SEND_END,1516056987294,121
160,WS_RECV_START,1516056987294,122
160,WS_RECV_END,1516056988197,122
160,PLAYER_SLEEPBEFORE_START,1516056988197,123
160,PLAYER_SLEEPBEFORE_END,1516056989321,123
160,WS_SEND_START,1516056989322,123
160,WS_SEND_END,1516056989322,123
160,WS_RECV_START,1516056989322,124
160,WS_RECV_END,1516056990187,124
160,PLAYER_SLEEPBEFORE_START,1516056990187,125
160,PLAYER_SLEEPBEFORE_END,1516056991683,125
160,WS_SEND_START,1516056991683,125
160,WS_SEND_END,1516056991684,125
160,WS_RECV_START,1516056991684,126
160,WS_RECV_END,1516056991994,126
160,PLAYER_SLEEPBEFORE_START,1516056991994,127
160,PLAYER_SLEEPBEFORE_END,1516057012604,127
160,WS_SEND_START,1516057012604,127
160,WS_SEND_END,1516057012604,127
160,WS_RECV_START,1516057012604,128
160,WS_RECV_END,1516057016100,128
160,PLAYER_SLEEPBEFORE_START,1516057016100,129
160,PLAYER_SLEEPBEFORE_END,1516057041131,129
160,WS_SEND_START,1516057041131,129
160,WS_SEND_END,1516057041131,129
160,PLAYER_SLEEPBEFORE_START,1516057041131,130
160,PLAYER_SLEEPBEFORE_END,1516057043111,130
160,WS_SEND_START,1516057043111,130
160,WS_SEND_END,1516057043112,130
160,WS_RECV_START,1516057043112,131
160,WS_RECV_END,1516057044495,131
160,PLAYER_SLEEPBEFORE_START,1516057044495,132
160,PLAYER_SLEEPBEFORE_END,1516057044504,132
160,WS_SEND_START,1516057044504,132
160,WS_SEND_END,1516057044504,132
160,WS_RECV_START,1516057044504,133
160,WS_RECV_END,1516057045321,133
160,PLAYER_SLEEPBEFORE_START,1516057045321,134
160,PLAYER_SLEEPBEFORE_END,1516057046397,134
160,REQ_START,1516057046397,134
160,REQ_END,1516057046406,134
160,PLAYER_SLEEPBEFORE_START,1516057046406,135
160,PLAYER_SLEEPBEFORE_END,1516057046996,135
160,WS_SEND_START,1516057046996,135
160,WS_SEND_END,1516057046996,135
160,WS_RECV_START,1516057046996,136
160,WS_RECV_END,1516057047693,136
160,PLAYER_SLEEPBEFORE_START,1516057047693,137
160,PLAYER_SLEEPBEFORE_END,1516057047707,137
160,WS_SEND_START,1516057047707,137
160,WS_SEND_END,1516057047707,137
160,WS_RECV_START,1516057047707,138
160,WS_RECV_END,1516057047907,138
160,PLAYER_SLEEPBEFORE_START,1516057047907,139
160,PLAYER_SLEEPBEFORE_END,1516057065581,139
160,WS_SEND_START,1516057065581,139
160,WS_SEND_END,1516057065582,139
160,PLAYER_SLEEPBEFORE_START,1516057065582,140
160,PLAYER_SLEEPBEFORE_END,1516057069485,140
160,WS_SEND_START,1516057069485,140
160,WS_SEND_END,1516057069485,140
160,PLAYER_SLEEPBEFORE_START,1516057069485,141
160,PLAYER_SLEEPBEFORE_END,1516057071777,141
160,WS_SEND_START,1516057071777,141
160,WS_SEND_END,1516057071777,141
160,WS_RECV_START,1516057071777,142
160,WS_RECV_END,1516057073867,142
160,PLAYER_SLEEPBEFORE_START,1516057073867,143
160,PLAYER_SLEEPBEFORE_END,1516057073875,143
160,WS_SEND_START,1516057073875,143
160,WS_SEND_END,1516057073875,143
160,WS_RECV_START,1516057073875,144
160,WS_RECV_END,1516057074296,144
160,PLAYER_SLEEPBEFORE_START,1516057074297,145
160,PLAYER_SLEEPBEFORE_END,1516057076040,145
160,WS_SEND_START,1516057076040,145
160,WS_SEND_END,1516057076040,145
160,WS_RECV_START,1516057076040,146
160,WS_RECV_END,1516057076939,146
160,PLAYER_SLEEPBEFORE_START,1516057076939,147
160,PLAYER_SLEEPBEFORE_END,1516057076948,147
160,WS_SEND_START,1516057076948,147
160,WS_SEND_END,1516057076948,147
160,WS_RECV_START,1516057076948,148
160,WS_RECV_END,1516057077310,148
160,PLAYER_SLEEPBEFORE_START,1516057077310,149
160,PLAYER_SLEEPBEFORE_END,1516057092424,149
160,WS_SEND_START,1516057092424,149
160,WS_SEND_END,1516057092424,149
160,PLAYER_SLEEPBEFORE_START,1516057092424,150
160,PLAYER_SLEEPBEFORE_END,1516057103099,150
160,WS_SEND_START,1516057103099,150
160,WS_SEND_END,1516057103099,150
160,PLAYER_SLEEPBEFORE_START,1516057103099,151
160,PLAYER_SLEEPBEFORE_END,1516057106090,151
160,WS_SEND_START,1516057106090,151
160,WS_SEND_END,1516057106090,151
160,WS_RECV_START,1516057106090,152
160,WS_RECV_END,1516057106185,152
160,PLAYER_SLEEPBEFORE_START,1516057106185,153
160,PLAYER_SLEEPBEFORE_END,1516057106192,153
160,WS_SEND_START,1516057106192,153
160,WS_SEND_END,1516057106192,153
160,WS_RECV_START,1516057106192,154
160,WS_RECV_END,1516057106236,154
160,PLAYER_SLEEPBEFORE_START,1516057106236,155
160,PLAYER_SLEEPBEFORE_END,1516057106845,155
160,WS_SEND_START,1516057106845,155
160,WS_SEND_END,1516057106845,155
160,WS_RECV_START,1516057106845,156
160,WS_RECV_END,1516057106929,156
160,PLAYER_SLEEPBEFORE_START,1516057106929,157
160,PLAYER_SLEEPBEFORE_END,1516057108273,157
160,WS_SEND_START,1516057108273,157
160,WS_SEND_END,1516057108273,157
160,WS_RECV_START,1516057108273,158
160,WS_RECV_END,1516057108390,158
160,PLAYER_SLEEPBEFORE_START,1516057108390,159
160,PLAYER_SLEEPBEFORE_END,1516057112290,159
160,WS_SEND_START,1516057112290,159
160,WS_SEND_END,1516057112290,159
160,WS_RECV_START,1516057112290,160
160,WS_RECV_END,1516057112992,160
160,PLAYER_SLEEPBEFORE_START,1516057112992,161
160,PLAYER_SLEEPBEFORE_END,1516057113776,161
160,WS_SEND_START,1516057113776,161
160,WS_SEND_END,1516057113776,161
160,WS_RECV_START,1516057113776,162
160,WS_RECV_END,1516057114570,162
160,PLAYER_SLEEPBEFORE_START,1516057114570,163
160,PLAYER_SLEEPBEFORE_END,1516057114579,163
160,WS_SEND_START,1516057114579,163
160,WS_SEND_END,1516057114579,163
160,WS_RECV_START,1516057114579,164
160,WS_RECV_END,1516057115661,164
160,PLAYER_SLEEPBEFORE_START,1516057115661,165
160,PLAYER_SLEEPBEFORE_END,1516057123034,165
160,WS_SEND_START,1516057123034,165
160,WS_SEND_END,1516057123034,165
160,WS_RECV_START,1516057123034,166
160,WS_RECV_END,1516057123158,166
160,PLAYER_SLEEPBEFORE_START,1516057123158,167
160,PLAYER_SLEEPBEFORE_END,1516057144407,167
160,WS_SEND_START,1516057144407,167
160,WS_SEND_END,1516057144407,167
160,PLAYER_SLEEPBEFORE_START,1516057144407,168
160,PLAYER_SLEEPBEFORE_END,1516057149142,168
160,WS_SEND_START,1516057149142,168
160,WS_SEND_END,1516057149142,168
160,PLAYER_SLEEPBEFORE_START,1516057149142,169
160,PLAYER_SLEEPBEFORE_END,1516057150693,169
160,WS_SEND_START,1516057150693,169
160,WS_SEND_END,1516057150693,169
160,WS_RECV_START,1516057150693,170
160,WS_RECV_END,1516057150785,170
160,PLAYER_SLEEPBEFORE_START,1516057150785,171
160,PLAYER_SLEEPBEFORE_END,1516057150792,171
160,WS_SEND_START,1516057150792,171
160,WS_SEND_END,1516057150792,171
160,WS_RECV_START,1516057150792,172
160,WS_RECV_END,1516057150832,172
160,PLAYER_SLEEPBEFORE_START,1516057150832,173
160,PLAYER_SLEEPBEFORE_END,1516057151601,173
160,WS_SEND_START,1516057151601,173
160,WS_SEND_END,1516057151601,173
160,WS_RECV_START,1516057151601,174
160,WS_RECV_END,1516057151717,174
160,PLAYER_SLEEPBEFORE_START,1516057151717,175
160,PLAYER_SLEEPBEFORE_END,1516057152477,175
160,WS_SEND_START,1516057152477,175
160,WS_SEND_END,1516057152477,175
160,WS_RECV_START,1516057152477,176
160,WS_RECV_END,1516057152562,176
160,PLAYER_SLEEPBEFORE_START,1516057152562,177
160,PLAYER_SLEEPBEFORE_END,1516057153362,177
160,WS_SEND_START,1516057153362,177
160,WS_SEND_END,1516057153362,177
160,WS_RECV_START,1516057153362,178
160,WS_RECV_END,1516057155367,178
160,PLAYER_SLEEPBEFORE_START,1516057155367,179
160,PLAYER_SLEEPBEFORE_END,1516057160621,179
160,WS_SEND_START,1516057160621,179
160,WS_SEND_END,1516057160621,179
160,PLAYER_SLEEPBEFORE_START,1516057160621,180
160,PLAYER_SLEEPBEFORE_END,1516057167239,180
160,WS_SEND_START,1516057167239,180
160,WS_SEND_END,1516057167239,180
160,PLAYER_SLEEPBEFORE_START,1516057167239,181
160,PLAYER_SLEEPBEFORE_END,1516057168975,181
160,WS_SEND_START,1516057168975,181
160,WS_SEND_END,1516057168975,181
160,WS_RECV_START,1516057168975,182
160,WS_RECV_END,1516057169947,182
160,PLAYER_SLEEPBEFORE_START,1516057169947,183
160,PLAYER_SLEEPBEFORE_END,1516057170684,183
160,WS_SEND_START,1516057170684,183
160,WS_SEND_END,1516057170684,183
160,WS_RECV_START,1516057170684,184
160,WS_RECV_END,1516057172399,184
160,PLAYER_SLEEPBEFORE_START,1516057172399,185
160,PLAYER_SLEEPBEFORE_END,1516057172412,185
160,WS_SEND_START,1516057172412,185
160,WS_SEND_END,1516057172412,185
160,WS_RECV_START,1516057172412,186
160,WS_RECV_END,1516057172667,186
160,PLAYER_SLEEPBEFORE_START,1516057172667,187
160,PLAYER_SLEEPBEFORE_END,1516057197674,187
160,WS_SEND_START,1516057197674,187
160,WS_SEND_END,1516057197674,187
160,WS_RECV_START,1516057197674,188
160,WS_RECV_END,1516057199199,188
160,PLAYER_SLEEPBEFORE_START,1516057199199,189
160,PLAYER_SLEEPBEFORE_END,1516057224423,189
160,WS_SEND_START,1516057224423,189
160,WS_SEND_END,1516057224423,189
160,WS_RECV_START,1516057224423,190
160,WS_RECV_END,1516057226138,190
160,PLAYER_SLEEPBEFORE_START,1516057226138,191
160,PLAYER_SLEEPBEFORE_END,1516057226143,191
160,WS_SEND_START,1516057226143,191
160,WS_SEND_END,1516057226143,191
160,WS_RECV_START,1516057226143,192
160,WS_RECV_END,1516057226564,192
160,PLAYER_SLEEPBEFORE_START,1516057226564,193
160,PLAYER_SLEEPBEFORE_END,1516057227002,193
160,WS_SEND_START,1516057227002,193
160,WS_SEND_END,1516057227002,193
160,WS_RECV_START,1516057227002,194
160,WS_RECV_END,1516057227670,194
160,PLAYER_SLEEPBEFORE_START,1516057227670,195
160,PLAYER_SLEEPBEFORE_END,1516057227683,195
160,WS_SEND_START,1516057227683,195
160,WS_SEND_END,1516057227683,195
160,WS_RECV_START,1516057227683,196
160,WS_RECV_END,1516057228131,196
160,PLAYER_SLEEPBEFORE_START,1516057228131,197
160,PLAYER_SLEEPBEFORE_END,1516057252901,197
160,WS_SEND_START,1516057252901,197
160,WS_SEND_END,1516057252901,197
160,WS_RECV_START,1516057252901,198
160,WS_RECV_END,1516057252958,198
160,PLAYER_SLEEPBEFORE_START,1516057252958,199
160,PLAYER_SLEEPBEFORE_END,1516057252965,199
160,WS_SEND_START,1516057252965,199
160,WS_SEND_END,1516057252965,199
160,WS_RECV_START,1516057252965,200
160,WS_RECV_END,1516057253008,200
160,PLAYER_SLEEPBEFORE_START,1516057253008,201
160,PLAYER_SLEEPBEFORE_END,1516057254306,201
160,WS_SEND_START,1516057254306,201
160,WS_SEND_END,1516057254306,201
160,WS_RECV_START,1516057254306,202
160,WS_RECV_END,1516057255133,202
160,PLAYER_SLEEPBEFORE_START,1516057255133,203
160,PLAYER_SLEEPBEFORE_END,1516057255145,203
160,WS_SEND_START,1516057255145,203
160,WS_SEND_END,1516057255145,203
160,WS_RECV_START,1516057255145,204
160,WS_RECV_END,1516057255259,204
160,PLAYER_SLEEPBEFORE_START,1516057255259,205
160,PLAYER_SLEEPBEFORE_END,1516057276890,205
160,WS_SEND_START,1516057276890,205
160,WS_SEND_END,1516057276890,205
160,WS_RECV_START,1516057276890,206
160,WS_RECV_END,1516057277011,206
160,PLAYER_SLEEPBEFORE_START,1516057277011,207
160,PLAYER_SLEEPBEFORE_END,1516057301135,207
160,WS_SEND_START,1516057301135,207
160,WS_SEND_END,1516057301135,207
160,WS_RECV_START,1516057301135,208
160,WS_RECV_END,1516057301359,208
160,PLAYER_SLEEPBEFORE_START,1516057301359,209
160,PLAYER_SLEEPBEFORE_END,1516057307773,209
160,WS_SEND_START,1516057307773,209
160,WS_SEND_END,1516057307773,209
160,WS_RECV_START,1516057307773,210
160,WS_RECV_END,1516057308398,210
160,PLAYER_SLEEPBEFORE_START,1516057308399,211
160,PLAYER_SLEEPBEFORE_END,1516057327231,211
160,WS_SEND_START,1516057327231,211
160,WS_SEND_END,1516057327231,211
160,WS_RECV_START,1516057327231,212
160,WS_RECV_END,1516057327349,212
160,PLAYER_SLEEPBEFORE_START,1516057327349,213
160,PLAYER_SLEEPBEFORE_END,1516057352402,213
160,WS_SEND_START,1516057352402,213
160,WS_SEND_END,1516057352402,213
160,WS_RECV_START,1516057352402,214
160,WS_RECV_END,1516057355867,214
160,PLAYER_SLEEPBEFORE_START,1516057355867,215
160,PLAYER_SLEEPBEFORE_END,1516057363978,215
160,REQ_START,1516057363978,215
160,REQ_END,1516057363986,215
160,PLAYER_SLEEPBEFORE_START,1516057363986,216
160,PLAYER_SLEEPBEFORE_END,1516057380548,216
160,WS_SEND_START,1516057380548,216
160,WS_SEND_END,1516057380548,216
160,WS_RECV_START,1516057380548,217
160,WS_RECV_END,1516057380606,217
160,PLAYER_SLEEPBEFORE_START,1516057380606,218
160,PLAYER_SLEEPBEFORE_END,1516057380613,218
160,WS_SEND_START,1516057380613,218
160,WS_SEND_END,1516057380613,218
160,WS_RECV_START,1516057380613,219
160,WS_RECV_END,1516057380656,219
160,PLAYER_SLEEPBEFORE_START,1516057380656,220
160,PLAYER_SLEEPBEFORE_END,1516057381424,220
160,WS_SEND_START,1516057381424,220
160,WS_SEND_END,1516057381424,220
160,WS_RECV_START,1516057381424,221
160,WS_RECV_END,1516057383432,221
160,PLAYER_SLEEPBEFORE_START,1516057383432,222
160,PLAYER_SLEEPBEFORE_END,1516057383489,222
160,WS_SEND_START,1516057383489,222
160,WS_SEND_END,1516057383489,222
160,WS_RECV_START,1516057383489,223
160,WS_RECV_END,1516057383930,223
160,PLAYER_SLEEPBEFORE_START,1516057383930,224
160,PLAYER_SLEEPBEFORE_END,1516057406586,224
160,WS_SEND_START,1516057406586,224
160,WS_SEND_END,1516057406586,224
160,WS_RECV_START,1516057406586,225
160,WS_RECV_END,1516057406804,225
160,PLAYER_SLEEPBEFORE_START,1516057406804,226
160,PLAYER_SLEEPBEFORE_END,1516057432539,226
160,WS_SEND_START,1516057432539,226
160,WS_SEND_END,1516057432539,226
160,WS_RECV_START,1516057432539,227
160,WS_RECV_END,1516057432752,227
160,PLAYER_SLEEPBEFORE_START,1516057432752,228
160,PLAYER_SLEEPBEFORE_END,1516057455745,228
160,WS_SEND_START,1516057455745,228
160,WS_SEND_END,1516057455745,228
160,WS_RECV_START,1516057455745,229
160,WS_RECV_END,1516057456708,229
160,PLAYER_SLEEPBEFORE_START,1516057456708,230
160,PLAYER_SLEEPBEFORE_END,1516057480924,230
160,WS_SEND_START,1516057480924,230
160,WS_SEND_END,1516057480924,230
160,WS_RECV_START,1516057480924,231
160,WS_RECV_END,1516057485088,231
160,PLAYER_SLEEPBEFORE_START,1516057485088,232
160,PLAYER_SLEEPBEFORE_END,1516057509844,232
160,WS_SEND_START,1516057509844,232
160,WS_SEND_END,1516057509844,232
160,WS_RECV_START,1516057509844,233
160,WS_RECV_END,1516057510352,233
160,PLAYER_SLEEPBEFORE_START,1516057510352,234
160,PLAYER_SLEEPBEFORE_END,1516057537385,234
160,WS_SEND_START,1516057537385,234
160,WS_SEND_END,1516057537386,234
160,WS_RECV_START,1516057537386,235
160,WS_RECV_END,1516057537782,235
160,PLAYER_SLEEPBEFORE_START,1516057537782,236
160,PLAYER_SLEEPBEFORE_END,1516057561622,236
160,WS_SEND_START,1516057561622,236
160,WS_SEND_END,1516057561622,236
160,WS_RECV_START,1516057561622,237
160,WS_RECV_END,1516057564193,237
160,PLAYER_SLEEPBEFORE_START,1516057564193,238
160,PLAYER_SLEEPBEFORE_END,1516057577004,238
160,WS_SEND_START,1516057577004,238
160,WS_SEND_END,1516057577004,238
160,WS_RECV_START,1516057577004,239
160,WS_RECV_END,1516057583314,239
160,PLAYER_SLEEPBEFORE_START,1516057583314,240
160,PLAYER_SLEEPBEFORE_END,1516057595969,240
160,WS_SEND_START,1516057595969,240
160,WS_SEND_END,1516057595969,240
160,WS_RECV_START,1516057595969,241
160,WS_RECV_END,1516057601540,241
160,PLAYER_SLEEPBEFORE_START,1516057601540,242
160,PLAYER_SLEEPBEFORE_END,1516057601564,242
160,WS_SEND_START,1516057601564,242
160,WS_SEND_END,1516057601564,242
160,WS_RECV_START,1516057601564,243
160,WS_RECV_END,1516057602604,243
160,PLAYER_SLEEPBEFORE_START,1516057602604,244
160,PLAYER_SLEEPBEFORE_END,1516057624842,244
160,WS_SEND_START,1516057624842,244
160,WS_SEND_END,1516057624842,244
160,WS_RECV_START,1516057624842,245
160,WS_RECV_END,1516057631695,245
160,PLAYER_SLEEPBEFORE_START,1516057631695,246
160,PLAYER_SLEEPBEFORE_END,1516057631704,246
160,WS_SEND_START,1516057631704,246
160,WS_SEND_END,1516057631704,246
160,WS_RECV_START,1516057631704,247
160,WS_RECV_END,1516057635905,247
160,PLAYER_SLEEPBEFORE_START,1516057635905,248
160,PLAYER_SLEEPBEFORE_END,1516057637942,248
160,WS_SEND_START,1516057637942,248
160,WS_SEND_END,1516057637942,248
160,WS_RECV_START,1516057637942,249
160,WS_RECV_END,1516057642354,249
160,PLAYER_SLEEPBEFORE_START,1516057642354,250
160,PLAYER_SLEEPBEFORE_END,1516057642391,250
160,WS_SEND_START,1516057642391,250
160,WS_SEND_END,1516057642392,250
160,WS_RECV_START,1516057642392,251
160,WS_RECV_END,1516057645160,251
160,PLAYER_SLEEPBEFORE_START,1516057645160,252
160,PLAYER_SLEEPBEFORE_END,1516057667802,252
160,WS_SEND_START,1516057667802,252
160,WS_SEND_END,1516057667802,252
160,WS_RECV_START,1516057667802,253
160,WS_RECV_END,1516057675175,253
160,PLAYER_SLEEPBEFORE_START,1516057675175,254
160,PLAYER_SLEEPBEFORE_END,1516057675192,254
160,WS_SEND_START,1516057675192,254
160,WS_SEND_END,1516057675192,254
160,WS_RECV_START,1516057675192,255
160,WS_RECV_END,1516057676774,255
160,PLAYER_SLEEPBEFORE_START,1516057676774,256
160,PLAYER_SLEEPBEFORE_END,1516057701396,256
160,WS_SEND_START,1516057701396,256
160,WS_SEND_END,1516057701396,256
160,WS_RECV_START,1516057701396,257
160,WS_RECV_END,1516057704191,257
160,PLAYER_SLEEPBEFORE_START,1516057704191,258
160,PLAYER_SLEEPBEFORE_END,1516057704199,258
160,WS_SEND_START,1516057704199,258
160,WS_SEND_END,1516057704199,258
160,WS_RECV_START,1516057704199,259
160,WS_RECV_END,1516057705129,259
160,PLAYER_SLEEPBEFORE_START,1516057705129,260
160,PLAYER_SLEEPBEFORE_END,1516057705653,260
160,WS_SEND_START,1516057705653,260
160,WS_SEND_END,1516057705653,260
160,WS_RECV_START,1516057705653,261
160,WS_RECV_END,1516057705745,261
160,PLAYER_SLEEPBEFORE_START,1516057705745,262
160,PLAYER_SLEEPBEFORE_END,1516057706017,262
160,WS_SEND_START,1516057706017,262
160,WS_SEND_END,1516057706017,262
160,WS_RECV_START,1516057706017,263
160,WS_RECV_END,1516057706096,263
160,PLAYER_SLEEPBEFORE_START,1516057706096,264
160,PLAYER_SLEEPBEFORE_END,1516057708509,264
160,WS_SEND_START,1516057708509,264
160,WS_SEND_END,1516057708509,264
160,WS_RECV_START,1516057708509,265
160,WS_RECV_END,1516057714437,265
160,PLAYER_SLEEPBEFORE_START,1516057714437,266
160,PLAYER_SLEEPBEFORE_END,1516057714449,266
160,WS_SEND_START,1516057714449,266
160,WS_SEND_END,1516057714449,266
160,WS_RECV_START,1516057714449,267
160,WS_RECV_END,1516057716769,267
160,PLAYER_SLEEPBEFORE_START,1516057716769,268
160,PLAYER_SLEEPBEFORE_END,1516057718240,268
160,REQ_START,1516057718240,268
160,REQ_END,1516057718248,268
160,PLAYER_SLEEPBEFORE_START,1516057718248,269
160,PLAYER_SLEEPBEFORE_END,1516057735642,269
160,WS_SEND_START,1516057735642,269
160,WS_SEND_END,1516057735642,269
160,WS_RECV_START,1516057735642,270
160,WS_RECV_END,1516057735701,270
160,PLAYER_SLEEPBEFORE_START,1516057735701,271
160,PLAYER_SLEEPBEFORE_END,1516057735708,271
160,WS_SEND_START,1516057735708,271
160,WS_SEND_END,1516057735708,271
160,WS_RECV_START,1516057735708,272
160,WS_RECV_END,1516057735749,272
160,PLAYER_SLEEPBEFORE_START,1516057735749,273
160,PLAYER_SLEEPBEFORE_END,1516057737046,273
160,WS_SEND_START,1516057737046,273
160,WS_SEND_END,1516057737046,273
160,WS_RECV_START,1516057737046,274
160,WS_RECV_END,1516057737134,274
160,PLAYER_SLEEPBEFORE_START,1516057737134,275
160,PLAYER_SLEEPBEFORE_END,1516057738307,275
160,WS_SEND_START,1516057738307,275
160,WS_SEND_END,1516057738308,275
160,WS_RECV_START,1516057738308,276
160,WS_RECV_END,1516057739630,276
160,PLAYER_SLEEPBEFORE_START,1516057739630,277
160,PLAYER_SLEEPBEFORE_END,1516057739652,277
160,WS_SEND_START,1516057739652,277
160,WS_SEND_END,1516057739653,277
160,WS_RECV_START,1516057739653,278
160,WS_RECV_END,1516057744297,278
160,PLAYER_SLEEPBEFORE_START,1516057744297,279
160,PLAYER_SLEEPBEFORE_END,1516057768821,279
160,WS_SEND_START,1516057768821,279
160,WS_SEND_END,1516057768821,279
160,WS_RECV_START,1516057768821,280
160,WS_RECV_END,1516057769006,280
160,PLAYER_SLEEPBEFORE_START,1516057769006,281
160,PLAYER_SLEEPBEFORE_END,1516057791294,281
160,WS_SEND_START,1516057791294,281
160,WS_SEND_END,1516057791294,281
160,WS_RECV_START,1516057791294,282
160,WS_RECV_END,1516057792126,282
160,PLAYER_SLEEPBEFORE_START,1516057792126,283
160,PLAYER_SLEEPBEFORE_END,1516057792144,283
160,WS_SEND_START,1516057792144,283
160,WS_SEND_END,1516057792144,283
160,WS_RECV_START,1516057792144,284
160,WS_RECV_END,1516057792262,284
160,PLAYER_SLEEPBEFORE_START,1516057792262,285
160,PLAYER_SLEEPBEFORE_END,1516057816393,285
160,WS_SEND_START,1516057816393,285
160,WS_SEND_END,1516057816393,285
160,WS_RECV_START,1516057816393,286
160,WS_RECV_END,1516057819308,286
160,PLAYER_SLEEPBEFORE_START,1516057819308,287
160,PLAYER_SLEEPBEFORE_END,1516057842462,287
160,WS_SEND_START,1516057842462,287
160,WS_SEND_END,1516057842462,287
160,WS_RECV_START,1516057842462,288
160,WS_RECV_END,1516057845821,288
160,PLAYER_SLEEPBEFORE_START,1516057845821,289
160,PLAYER_SLEEPBEFORE_END,1516057845843,289
160,WS_SEND_START,1516057845843,289
160,WS_SEND_END,1516057845843,289
160,WS_RECV_START,1516057845843,290
160,WS_RECV_END,1516057845999,290
160,PLAYER_SLEEPBEFORE_START,1516057845999,291
160,PLAYER_SLEEPBEFORE_END,1516057856614,291
160,WS_SEND_START,1516057856614,291
160,WS_SEND_END,1516057856614,291
160,WS_RECV_START,1516057856614,292
160,WS_RECV_END,1516057860434,292
160,PLAYER_SLEEPBEFORE_START,1516057860434,293
160,PLAYER_SLEEPBEFORE_END,1516057876190,293
160,WS_SEND_START,1516057876190,293
160,WS_SEND_END,1516057876190,293
160,WS_RECV_START,1516057876190,294
160,WS_RECV_END,1516057879083,294
160,PLAYER_SLEEPBEFORE_START,1516057879083,295
160,PLAYER_SLEEPBEFORE_END,1516057879108,295
160,WS_SEND_START,1516057879108,295
160,WS_SEND_END,1516057879108,295
160,WS_RECV_START,1516057879108,296
160,WS_RECV_END,1516057881508,296
160,PLAYER_SLEEPBEFORE_START,1516057881508,297
160,PLAYER_SLEEPBEFORE_END,1516057903005,297
160,WS_SEND_START,1516057903006,297
160,WS_SEND_END,1516057903006,297
160,WS_RECV_START,1516057903006,298
160,WS_RECV_END,1516057906108,298
160,PLAYER_SLEEPBEFORE_START,1516057906108,299
160,PLAYER_SLEEPBEFORE_END,1516057906118,299
160,WS_SEND_START,1516057906118,299
160,WS_SEND_END,1516057906119,299
160,WS_RECV_START,1516057906119,300
160,WS_RECV_END,1516057910372,300
160,PLAYER_SLEEPBEFORE_START,1516057910372,301
160,PLAYER_SLEEPBEFORE_END,1516057912732,301
160,WS_SEND_START,1516057912732,301
160,WS_SEND_END,1516057912732,301
160,WS_RECV_START,1516057912732,302
160,WS_RECV_END,1516057915903,302
160,PLAYER_SLEEPBEFORE_START,1516057915903,303
160,PLAYER_SLEEPBEFORE_END,1516057915927,303
160,WS_SEND_START,1516057915927,303
160,WS_SEND_END,1516057915927,303
160,WS_RECV_START,1516057915927,304
160,WS_RECV_END,1516057917573,304
160,PLAYER_SLEEPBEFORE_START,1516057917573,305
160,PLAYER_SLEEPBEFORE_END,1516057942563,305
160,WS_SEND_START,1516057942563,305
160,WS_SEND_END,1516057942563,305
160,WS_RECV_START,1516057942563,306
160,WS_RECV_END,1516057944082,306
160,PLAYER_SLEEPBEFORE_START,1516057944082,307
160,PLAYER_SLEEPBEFORE_END,1516057967957,307
160,WS_SEND_START,1516057967957,307
160,WS_SEND_END,1516057967957,307
160,WS_RECV_START,1516057967957,308
160,WS_RECV_END,1516057972432,308
160,PLAYER_SLEEPBEFORE_START,1516057972432,309
160,PLAYER_SLEEPBEFORE_END,1516057994123,309
160,WS_SEND_START,1516057994123,309
160,WS_SEND_END,1516057994123,309
160,WS_RECV_START,1516057994123,310
160,WS_RECV_END,1516057996223,310
160,PLAYER_SLEEPBEFORE_START,1516057996223,311
160,PLAYER_SLEEPBEFORE_END,1516058025050,311
160,WS_SEND_START,1516058025050,311
160,WS_SEND_END,1516058025050,311
160,WS_RECV_START,1516058025050,312
160,WS_RECV_END,1516058030152,312
160,PLAYER_SLEEPBEFORE_START,1516058030152,313
160,PLAYER_SLEEPBEFORE_END,1516058030172,313
160,WS_SEND_START,1516058030172,313
160,WS_SEND_END,1516058030172,313
160,WS_RECV_START,1516058030173,314
160,WS_RECV_END,1516058037120,314
160,PLAYER_SLEEPBEFORE_START,1516058037120,315
160,PLAYER_SLEEPBEFORE_END,1516058058706,315
160,WS_SEND_START,1516058058706,315
160,WS_SEND_END,1516058058706,315
160,WS_RECV_START,1516058058706,316
160,WS_RECV_END,1516058060598,316
160,PLAYER_SLEEPBEFORE_START,1516058060598,317
160,PLAYER_SLEEPBEFORE_END,1516058060607,317
160,WS_SEND_START,1516058060607,317
160,WS_SEND_END,1516058060607,317
160,WS_RECV_START,1516058060607,318
160,WS_RECV_END,1516058063561,318
160,PLAYER_SLEEPBEFORE_START,1516058063561,319
160,PLAYER_SLEEPBEFORE_END,1516058063893,319
160,WS_SEND_START,1516058063893,319
160,WS_SEND_END,1516058063893,319
160,WS_RECV_START,1516058063893,320
160,WS_RECV_END,1516058066946,320
160,PLAYER_SLEEPBEFORE_START,1516058066946,321
160,PLAYER_SLEEPBEFORE_END,1516058066965,321
160,WS_SEND_START,1516058066965,321
160,WS_SEND_END,1516058066965,321
160,WS_RECV_START,1516058066965,322
160,WS_RECV_END,1516058068426,322
160,PLAYER_SLEEPBEFORE_START,1516058068426,323
160,PLAYER_SLEEPBEFORE_END,1516058072819,323
160,REQ_START,1516058072819,323
160,REQ_END,1516058072828,323
160,PLAYER_SLEEPBEFORE_START,1516058072828,324
160,PLAYER_SLEEPBEFORE_END,1516058092714,324
160,WS_SEND_START,1516058092714,324
160,WS_SEND_END,1516058092714,324
160,WS_RECV_START,1516058092714,325
160,WS_RECV_END,1516058096464,325
160,PLAYER_SLEEPBEFORE_START,1516058096464,326
160,PLAYER_SLEEPBEFORE_END,1516058096473,326
160,WS_SEND_START,1516058096473,326
160,WS_SEND_END,1516058096473,326
160,WS_RECV_START,1516058096473,327
160,WS_RECV_END,1516058101077,327
160,PLAYER_SLEEPBEFORE_START,1516058101077,328
160,PLAYER_SLEEPBEFORE_END,1516058101438,328
160,WS_SEND_START,1516058101438,328
160,WS_SEND_END,1516058101438,328
160,WS_RECV_START,1516058101438,329
160,WS_RECV_END,1516058102143,329
160,PLAYER_SLEEPBEFORE_START,1516058102143,330
160,PLAYER_SLEEPBEFORE_END,1516058102489,330
160,WS_SEND_START,1516058102489,330
160,WS_SEND_END,1516058102490,330
160,WS_RECV_START,1516058102490,331
160,WS_RECV_END,1516058105234,331
160,PLAYER_SLEEPBEFORE_START,1516058105234,332
160,PLAYER_SLEEPBEFORE_END,1516058106081,332
160,WS_SEND_START,1516058106081,332
160,WS_SEND_END,1516058106081,332
160,WS_RECV_START,1516058106081,333
160,WS_RECV_END,1516058107440,333
160,PLAYER_SLEEPBEFORE_START,1516058107440,334
160,PLAYER_SLEEPBEFORE_END,1516058107837,334
160,WS_SEND_START,1516058107837,334
160,WS_SEND_END,1516058107837,334
160,WS_RECV_START,1516058107837,335
160,WS_RECV_END,1516058111965,335
160,PLAYER_SLEEPBEFORE_START,1516058111966,336
160,PLAYER_SLEEPBEFORE_END,1516058112290,336
160,WS_SEND_START,1516058112290,336
160,WS_SEND_END,1516058112290,336
160,WS_RECV_START,1516058112290,337
160,WS_RECV_END,1516058115408,337
160,PLAYER_SLEEPBEFORE_START,1516058115408,338
160,PLAYER_SLEEPBEFORE_END,1516058115423,338
160,WS_SEND_START,1516058115423,338
160,WS_SEND_END,1516058115423,338
160,WS_RECV_START,1516058115423,339
160,WS_RECV_END,1516058115975,339
160,PLAYER_SLEEPBEFORE_START,1516058115975,340
160,PLAYER_SLEEPBEFORE_END,1516058133947,340
160,WS_SEND_START,1516058133947,340
160,WS_SEND_END,1516058133947,340
160,WS_RECV_START,1516058133947,341
160,WS_RECV_END,1516058138323,341
160,PLAYER_SLEEPBEFORE_START,1516058138323,342
160,PLAYER_SLEEPBEFORE_END,1516058138333,342
160,WS_SEND_START,1516058138333,342
160,WS_SEND_END,1516058138333,342
160,WS_RECV_START,1516058138333,343
160,WS_RECV_END,1516058139157,343
160,PLAYER_SLEEPBEFORE_START,1516058139157,344
160,PLAYER_SLEEPBEFORE_END,1516058141469,344
160,WS_SEND_START,1516058141469,344
160,WS_SEND_END,1516058141469,344
160,WS_RECV_START,1516058141469,345
160,WS_RECV_END,1516058150816,345
160,PLAYER_SLEEPBEFORE_START,1516058150816,346
160,PLAYER_SLEEPBEFORE_END,1516058150827,346
160,WS_SEND_START,1516058150827,346
160,WS_SEND_END,1516058150827,346
160,WS_RECV_START,1516058150827,347
160,WS_RECV_END,1516058155690,347
160,PLAYER_SLEEPBEFORE_START,1516058155691,348
160,PLAYER_SLEEPBEFORE_END,1516058176298,348
160,WS_SEND_START,1516058176298,348
160,WS_SEND_END,1516058176298,348
160,WS_RECV_START,1516058176298,349
160,WS_RECV_END,1516058177478,349
160,PLAYER_SLEEPBEFORE_START,1516058177479,350
160,PLAYER_SLEEPBEFORE_END,1516058177487,350
160,WS_SEND_START,1516058177487,350
160,WS_SEND_END,1516058177487,350
160,WS_RECV_START,1516058177487,351
160,WS_RECV_END,1516058177973,351
160,PLAYER_SLEEPBEFORE_START,1516058177973,352
160,PLAYER_SLEEPBEFORE_END,1516058179159,352
160,WS_SEND_START,1516058179159,352
160,WS_SEND_END,1516058179159,352
160,WS_RECV_START,1516058179159,353
160,WS_RECV_END,1516058180138,353
160,PLAYER_SLEEPBEFORE_START,1516058180138,354
160,PLAYER_SLEEPBEFORE_END,1516058180154,354
160,WS_SEND_START,1516058180154,354
160,WS_SEND_END,1516058180154,354
160,WS_RECV_START,1516058180154,355
160,WS_RECV_END,1516058182995,355
160,PLAYER_SLEEPBEFORE_START,1516058182995,356
160,PLAYER_SLEEPBEFORE_END,1516058183041,356
160,WS_SEND_START,1516058183041,356
160,WS_SEND_END,1516058183042,356
160,WS_RECV_START,1516058183042,357
160,WS_RECV_END,1516058184265,357
160,PLAYER_SLEEPBEFORE_START,1516058184265,358
160,PLAYER_SLEEPBEFORE_END,1516058184280,358
160,WS_SEND_START,1516058184280,358
160,WS_SEND_END,1516058184280,358
160,WS_RECV_START,1516058184280,359
160,WS_RECV_END,1516058184589,359
160,PLAYER_SLEEPBEFORE_START,1516058184589,360
160,PLAYER_SLEEPBEFORE_END,1516058205055,360
160,WS_SEND_START,1516058205055,360
160,WS_SEND_END,1516058205055,360
160,WS_RECV_START,1516058205055,361
160,WS_RECV_END,1516058205144,361
160,PLAYER_SLEEPBEFORE_START,1516058205144,362
160,PLAYER_SLEEPBEFORE_END,1516058205153,362
160,WS_SEND_START,1516058205153,362
160,WS_SEND_END,1516058205153,362
160,WS_RECV_START,1516058205153,363
160,WS_RECV_END,1516058205193,363
160,PLAYER_SLEEPBEFORE_START,1516058205193,364
160,PLAYER_SLEEPBEFORE_END,1516058207284,364
160,WS_SEND_START,1516058207284,364
160,WS_SEND_END,1516058207284,364
160,WS_RECV_START,1516058207284,365
160,WS_RECV_END,1516058209165,365
160,PLAYER_SLEEPBEFORE_START,1516058209165,366
160,PLAYER_SLEEPBEFORE_END,1516058209175,366
160,WS_SEND_START,1516058209175,366
160,WS_SEND_END,1516058209175,366
160,WS_RECV_START,1516058209175,367
160,WS_RECV_END,1516058209773,367
160,PLAYER_SLEEPBEFORE_START,1516058209773,368
160,PLAYER_SLEEPBEFORE_END,1516058233233,368
160,WS_SEND_START,1516058233233,368
160,WS_SEND_END,1516058233233,368
160,WS_RECV_START,1516058233233,369
160,WS_RECV_END,1516058233295,369
160,PLAYER_SLEEPBEFORE_START,1516058233295,370
160,PLAYER_SLEEPBEFORE_END,1516058233303,370
160,WS_SEND_START,1516058233303,370
160,WS_SEND_END,1516058233303,370
160,WS_RECV_START,1516058233303,371
160,WS_RECV_END,1516058233413,371
160,PLAYER_SLEEPBEFORE_START,1516058233413,372
160,PLAYER_SLEEPBEFORE_END,1516058233785,372
160,WS_SEND_START,1516058233785,372
160,WS_SEND_END,1516058233785,372
160,WS_RECV_START,1516058233785,373
160,WS_RECV_END,1516058233876,373
160,PLAYER_SLEEPBEFORE_START,1516058233876,374
160,PLAYER_SLEEPBEFORE_END,1516058234578,374
160,WS_SEND_START,1516058234578,374
160,WS_SEND_END,1516058234578,374
160,WS_RECV_START,1516058234578,375
160,WS_RECV_END,1516058234718,375
160,PLAYER_SLEEPBEFORE_START,1516058234718,376
160,PLAYER_SLEEPBEFORE_END,1516058235069,376
160,WS_SEND_START,1516058235069,376
160,WS_SEND_END,1516058235069,376
160,WS_RECV_START,1516058235069,377
160,WS_RECV_END,1516058236039,377
160,PLAYER_SLEEPBEFORE_START,1516058236039,378
160,PLAYER_SLEEPBEFORE_END,1516058236058,378
160,WS_SEND_START,1516058236058,378
160,WS_SEND_END,1516058236058,378
160,WS_RECV_START,1516058236058,379
160,WS_RECV_END,1516058236172,379
160,PLAYER_SLEEPBEFORE_START,1516058236172,380
160,PLAYER_SLEEPBEFORE_END,1516058256664,380
160,WS_SEND_START,1516058256664,380
160,WS_SEND_END,1516058256664,380
160,PLAYER_SLEEPBEFORE_START,1516058256664,381
160,PLAYER_SLEEPBEFORE_END,1516058260879,381
160,WS_SEND_START,1516058260879,381
160,WS_SEND_END,1516058260879,381
160,WS_RECV_START,1516058260879,382
160,WS_RECV_END,1516058261068,382
160,PLAYER_SLEEPBEFORE_START,1516058261068,383
160,PLAYER_SLEEPBEFORE_END,1516058281268,383
160,WS_SEND_START,1516058281268,383
160,WS_SEND_END,1516058281268,383
160,PLAYER_SLEEPBEFORE_START,1516058281268,384
160,PLAYER_SLEEPBEFORE_END,1516058284454,384
160,WS_SEND_START,1516058284454,384
160,WS_SEND_END,1516058284454,384
160,WS_RECV_START,1516058284454,385
160,WS_RECV_END,1516058285248,385
160,PLAYER_SLEEPBEFORE_START,1516058285248,386
160,PLAYER_SLEEPBEFORE_END,1516058285264,386
160,WS_SEND_START,1516058285264,386
160,WS_SEND_END,1516058285264,386
160,WS_RECV_START,1516058285264,387
160,WS_RECV_END,1516058285539,387
160,PLAYER_SLEEPBEFORE_START,1516058285539,388
160,PLAYER_SLEEPBEFORE_END,1516058306069,388
160,WS_SEND_START,1516058306069,388
160,WS_SEND_END,1516058306069,388
160,PLAYER_SLEEPBEFORE_START,1516058306069,389
160,PLAYER_SLEEPBEFORE_END,1516058308289,389
160,WS_SEND_START,1516058308289,389
160,WS_SEND_END,1516058308289,389
160,WS_RECV_START,1516058308289,390
160,WS_RECV_END,1516058308458,390
160,PLAYER_SLEEPBEFORE_START,1516058308458,391
160,PLAYER_SLEEPBEFORE_END,1516058331294,391
160,WS_SEND_START,1516058331294,391
160,WS_SEND_END,1516058331294,391
160,WS_RECV_START,1516058331294,392
160,WS_RECV_END,1516058331450,392
160,PLAYER_SLEEPBEFORE_START,1516058331450,393
160,PLAYER_SLEEPBEFORE_END,1516058356139,393
160,WS_SEND_START,1516058356139,393
160,WS_SEND_END,1516058356139,393
160,PLAYER_SLEEPBEFORE_START,1516058356139,394
160,PLAYER_SLEEPBEFORE_END,1516058358111,394
160,WS_SEND_START,1516058358111,394
160,WS_SEND_END,1516058358111,394
160,WS_RECV_START,1516058358111,395
160,WS_RECV_END,1516058358717,395
160,PLAYER_SLEEPBEFORE_START,1516058358717,396
160,PLAYER_SLEEPBEFORE_END,1516058358724,396
160,WS_SEND_START,1516058358724,396
160,WS_SEND_END,1516058358724,396
160,WS_RECV_START,1516058358724,397
160,WS_RECV_END,1516058358809,397
160,PLAYER_SLEEPBEFORE_START,1516058358809,398
160,PLAYER_SLEEPBEFORE_END,1516058358989,398
160,WS_SEND_START,1516058358989,398
160,WS_SEND_END,1516058358989,398
160,WS_RECV_START,1516058358989,399
160,WS_RECV_END,1516058359041,399
160,PLAYER_SLEEPBEFORE_START,1516058359041,400
160,PLAYER_SLEEPBEFORE_END,1516058360116,400
160,WS_SEND_START,1516058360116,400
160,WS_SEND_END,1516058360116,400
160,WS_RECV_START,1516058360116,401
160,WS_RECV_END,1516058360168,401
160,PLAYER_SLEEPBEFORE_START,1516058360168,402
160,PLAYER_SLEEPBEFORE_END,1516058361527,402
160,WS_SEND_START,1516058361527,402
160,WS_SEND_END,1516058361527,402
160,WS_RECV_START,1516058361527,403
160,WS_RECV_END,1516058361715,403
160,PLAYER_SLEEPBEFORE_START,1516058361715,404
160,PLAYER_SLEEPBEFORE_END,1516058362185,404
160,WS_SEND_START,1516058362185,404
160,WS_SEND_END,1516058362185,404
160,WS_RECV_START,1516058362185,405
160,WS_RECV_END,1516058362236,405
160,PLAYER_SLEEPBEFORE_START,1516058362236,406
160,PLAYER_SLEEPBEFORE_END,1516058364963,406
160,WS_SEND_START,1516058364963,406
160,WS_SEND_END,1516058364963,406
160,WS_RECV_START,1516058364963,407
160,WS_RECV_END,1516058365032,407
160,PLAYER_SLEEPBEFORE_START,1516058365032,408
160,PLAYER_SLEEPBEFORE_END,1516058365362,408
160,WS_SEND_START,1516058365362,408
160,WS_SEND_END,1516058365362,408
160,WS_RECV_START,1516058365362,409
160,WS_RECV_END,1516058365413,409
160,PLAYER_SLEEPBEFORE_START,1516058365413,410
160,PLAYER_SLEEPBEFORE_END,1516058366438,410
160,WS_SEND_START,1516058366438,410
160,WS_SEND_END,1516058366438,410
160,WS_RECV_START,1516058366438,411
160,WS_RECV_END,1516058366491,411
160,PLAYER_SLEEPBEFORE_START,1516058366491,412
160,PLAYER_SLEEPBEFORE_END,1516058367148,412
160,WS_SEND_START,1516058367148,412
160,WS_SEND_END,1516058367148,412
160,WS_RECV_START,1516058367148,413
160,WS_RECV_END,1516058367905,413
160,PLAYER_SLEEPBEFORE_START,1516058367905,414
160,PLAYER_SLEEPBEFORE_END,1516058367921,414
160,WS_SEND_START,1516058367921,414
160,WS_SEND_END,1516058367921,414
160,WS_RECV_START,1516058367921,415
160,WS_RECV_END,1516058368186,415
160,PLAYER_SLEEPBEFORE_START,1516058368186,416
160,PLAYER_SLEEPBEFORE_END,1516058382453,416
160,WS_SEND_START,1516058382453,416
160,WS_SEND_END,1516058382453,416
160,PLAYER_SLEEPBEFORE_START,1516058382453,417
160,PLAYER_SLEEPBEFORE_END,1516058411132,417
160,WS_SEND_START,1516058411133,417
160,WS_SEND_END,1516058411133,417
160,WS_RECV_START,1516058411133,418
160,WS_RECV_END,1516058411301,418
160,PLAYER_SLEEPBEFORE_START,1516058411301,419
160,PLAYER_SLEEPBEFORE_END,1516058416123,419
160,REQ_START,1516058416123,419
160,REQ_END,1516058416131,419
160,PLAYER_SLEEPBEFORE_START,1516058416132,420
160,PLAYER_SLEEPBEFORE_END,1516058434877,420
160,WS_CLOSE_START,1516058434877,420
160,WS_CLOSE_END,1516058434877,420
160,PLAYER_DONE,1516058434877
