# --sessions 120 --app-url=http://shinyloadtest.rstudioservices.com/cran_explorer --output-dir test120 --overwrite-output --log-level warn --start-interval 500 15min.log
thread_id,event,timestamp,input_line_number,comment
15,PLAYER_SESSION_CREATE,1516210892074
15,PLAYER_START_INTERVAL_START,1516210892074
15,PLAYER_START_INTERVAL_END,1516210899574
15,REQ_HOME_START,1516210899575,2
15,REQ_HOME_END,1516210899889,2
15,REQ_START,1516210899889,3
15,REQ_END,1516210900039,3
15,REQ_START,1516210900039,4
15,REQ_END,1516210900224,4
15,REQ_START,1516210900224,5
15,REQ_END,1516210900432,5
15,REQ_START,1516210900432,6
15,REQ_END,1516210900580,6
15,REQ_START,1516210900580,7
15,REQ_END,1516210900872,7
15,REQ_START,1516210900872,8
15,REQ_END,1516210901236,8
15,REQ_START,1516210901236,9
15,REQ_END,1516210901454,9
15,REQ_START,1516210901454,10
15,REQ_END,1516210901475,10
15,REQ_START,1516210901475,11
15,REQ_END,1516210901653,11
15,REQ_START,1516210901653,12
15,REQ_END,1516210901664,12
15,REQ_START,1516210901664,13
15,REQ_END,1516210902041,13
15,REQ_START,1516210902041,14
15,REQ_END,1516210902057,14
15,REQ_START,1516210902057,15
15,REQ_END,1516210902194,15
15,REQ_TOK_START,1516210902194,16
15,REQ_TOK_END,1516210902202,16
15,REQ_SINF_START,1516210902202,17
15,REQ_SINF_END,1516210902209,17
15,WS_OPEN_START,1516210902209,18
15,WS_OPEN_END,1516210902216,18
15,REQ_START,1516210902216,19
15,REQ_END,1516210902603,19
15,WS_RECV_START,1516210902603,20
15,WS_RECV_END,1516210902604,20
15,PLAYER_SLEEPBEFORE_START,1516210902604,21
15,PLAYER_SLEEPBEFORE_END,1516210902609,21
15,WS_SEND_START,1516210902609,21
15,WS_SEND_END,1516210902609,21
15,PLAYER_SLEEPBEFORE_START,1516210902609,22
15,PLAYER_SLEEPBEFORE_END,1516210902610,22
15,WS_SEND_START,1516210902610,22
15,WS_SEND_END,1516210902610,22
15,WS_RECV_INIT_START,1516210902610,23
15,WS_RECV_INIT_END,1516210902794,23
15,WS_RECV_START,1516210902794,24
15,WS_RECV_END,1516210902895,24
15,PLAYER_SLEEPBEFORE_START,1516210902895,25
15,PLAYER_SLEEPBEFORE_END,1516210902902,25
15,REQ_START,1516210902902,25
15,REQ_END,1516210903092,25
15,PLAYER_SLEEPBEFORE_START,1516210903092,26
15,PLAYER_SLEEPBEFORE_END,1516210903093,26
15,REQ_START,1516210903093,26
15,REQ_END,1516210903456,26
15,PLAYER_SLEEPBEFORE_START,1516210903456,27
15,PLAYER_SLEEPBEFORE_END,1516210903459,27
15,REQ_START,1516210903459,27
15,REQ_END,1516210903675,27
15,PLAYER_SLEEPBEFORE_START,1516210903675,28
15,PLAYER_SLEEPBEFORE_END,1516210903960,28
15,REQ_START,1516210903960,28
15,REQ_END,1516210904212,28
15,PLAYER_SLEEPBEFORE_START,1516210904212,29
15,PLAYER_SLEEPBEFORE_END,1516210904387,29
15,WS_SEND_START,1516210904387,29
15,WS_SEND_END,1516210904387,29
15,WS_RECV_START,1516210904387,30
15,WS_RECV_END,1516210904609,30
15,PLAYER_SLEEPBEFORE_START,1516210904609,31
15,PLAYER_SLEEPBEFORE_END,1516210904620,31
15,REQ_START,1516210904620,31
15,REQ_END,1516210904928,31
15,PLAYER_SLEEPBEFORE_START,1516210904928,32
15,PLAYER_SLEEPBEFORE_END,1516210933073,32
15,WS_SEND_START,1516210933073,32
15,WS_SEND_END,1516210933073,32
15,WS_RECV_START,1516210933073,33
15,WS_RECV_END,1516210933760,33
15,PLAYER_SLEEPBEFORE_START,1516210933760,34
15,PLAYER_SLEEPBEFORE_END,1516210959671,34
15,WS_SEND_START,1516210959671,34
15,WS_SEND_END,1516210959671,34
15,WS_RECV_START,1516210959671,35
15,WS_RECV_END,1516210960777,35
15,PLAYER_SLEEPBEFORE_START,1516210960777,36
15,PLAYER_SLEEPBEFORE_END,1516210960786,36
15,WS_SEND_START,1516210960787,36
15,WS_SEND_END,1516210960787,36
15,WS_RECV_START,1516210960787,37
15,WS_RECV_END,1516210961334,37
15,PLAYER_SLEEPBEFORE_START,1516210961334,38
15,PLAYER_SLEEPBEFORE_END,1516210964529,38
15,WS_SEND_START,1516210964529,38
15,WS_SEND_END,1516210964529,38
15,WS_RECV_START,1516210964529,39
15,WS_RECV_END,1516210965685,39
15,PLAYER_SLEEPBEFORE_START,1516210965685,40
15,PLAYER_SLEEPBEFORE_END,1516210965731,40
15,WS_SEND_START,1516210965731,40
15,WS_SEND_END,1516210965731,40
15,WS_RECV_START,1516210965731,41
15,WS_RECV_END,1516210966253,41
15,PLAYER_SLEEPBEFORE_START,1516210966253,42
15,PLAYER_SLEEPBEFORE_END,1516210984389,42
15,WS_SEND_START,1516210984389,42
15,WS_SEND_END,1516210984389,42
15,WS_RECV_START,1516210984389,43
15,WS_RECV_END,1516210987698,43
15,PLAYER_SLEEPBEFORE_START,1516210987698,44
15,PLAYER_SLEEPBEFORE_END,1516210987710,44
15,WS_SEND_START,1516210987710,44
15,WS_SEND_END,1516210987710,44
15,WS_RECV_START,1516210987710,45
15,WS_RECV_END,1516210989198,45
15,PLAYER_SLEEPBEFORE_START,1516210989198,46
15,PLAYER_SLEEPBEFORE_END,1516210990458,46
15,WS_SEND_START,1516210990458,46
15,WS_SEND_END,1516210990458,46
15,WS_RECV_START,1516210990458,47
15,WS_RECV_END,1516210991577,47
15,PLAYER_SLEEPBEFORE_START,1516210991577,48
15,PLAYER_SLEEPBEFORE_END,1516210992897,48
15,WS_SEND_START,1516210992897,48
15,WS_SEND_END,1516210992897,48
15,WS_RECV_START,1516210992897,49
15,WS_RECV_END,1516210993296,49
15,PLAYER_SLEEPBEFORE_START,1516210993296,50
15,PLAYER_SLEEPBEFORE_END,1516210993321,50
15,WS_SEND_START,1516210993321,50
15,WS_SEND_END,1516210993321,50
15,WS_RECV_START,1516210993321,51
15,WS_RECV_END,1516210995405,51
15,PLAYER_SLEEPBEFORE_START,1516210995405,52
15,PLAYER_SLEEPBEFORE_END,1516211017969,52
15,WS_SEND_START,1516211017969,52
15,WS_SEND_END,1516211017969,52
15,WS_RECV_START,1516211017969,53
15,WS_RECV_END,1516211020944,53
15,PLAYER_SLEEPBEFORE_START,1516211020944,54
15,PLAYER_SLEEPBEFORE_END,1516211042247,54
15,WS_SEND_START,1516211042247,54
15,WS_SEND_END,1516211042247,54
15,PLAYER_SLEEPBEFORE_START,1516211042247,55
15,PLAYER_SLEEPBEFORE_END,1516211044189,55
15,WS_SEND_START,1516211044189,55
15,WS_SEND_END,1516211044189,55
15,WS_RECV_START,1516211044189,56
15,WS_RECV_END,1516211044658,56
15,PLAYER_SLEEPBEFORE_START,1516211044658,57
15,PLAYER_SLEEPBEFORE_END,1516211067530,57
15,WS_SEND_START,1516211067530,57
15,WS_SEND_END,1516211067530,57
15,WS_RECV_START,1516211067530,58
15,WS_RECV_END,1516211068508,58
15,PLAYER_SLEEPBEFORE_START,1516211068508,59
15,PLAYER_SLEEPBEFORE_END,1516211070835,59
15,WS_SEND_START,1516211070835,59
15,WS_SEND_END,1516211070835,59
15,WS_RECV_START,1516211070835,60
15,WS_RECV_END,1516211072153,60
15,PLAYER_SLEEPBEFORE_START,1516211072153,61
15,PLAYER_SLEEPBEFORE_END,1516211075745,61
15,WS_SEND_START,1516211075745,61
15,WS_SEND_END,1516211075745,61
15,WS_RECV_START,1516211075745,62
15,WS_RECV_END,1516211077507,62
15,PLAYER_SLEEPBEFORE_START,1516211077507,63
15,PLAYER_SLEEPBEFORE_END,1516211096769,63
15,WS_SEND_START,1516211096769,63
15,WS_SEND_END,1516211096769,63
15,WS_RECV_START,1516211096769,64
15,WS_RECV_END,1516211097758,64
15,PLAYER_SLEEPBEFORE_START,1516211097758,65
15,PLAYER_SLEEPBEFORE_END,1516211124576,65
15,WS_SEND_START,1516211124576,65
15,WS_SEND_END,1516211124576,65
15,WS_RECV_START,1516211124576,66
15,WS_RECV_END,1516211125852,66
15,PLAYER_SLEEPBEFORE_START,1516211125852,67
15,PLAYER_SLEEPBEFORE_END,1516211127359,67
15,WS_SEND_START,1516211127359,67
15,WS_SEND_END,1516211127359,67
15,WS_RECV_START,1516211127359,68
15,WS_RECV_END,1516211128921,68
15,PLAYER_SLEEPBEFORE_START,1516211128921,69
15,PLAYER_SLEEPBEFORE_END,1516211150919,69
15,WS_SEND_START,1516211150919,69
15,WS_SEND_END,1516211150919,69
15,WS_RECV_START,1516211150919,70
15,WS_RECV_END,1516211151071,70
15,PLAYER_SLEEPBEFORE_START,1516211151071,71
15,PLAYER_SLEEPBEFORE_END,1516211175846,71
15,WS_SEND_START,1516211175846,71
15,WS_SEND_END,1516211175847,71
15,PLAYER_SLEEPBEFORE_START,1516211175847,72
15,PLAYER_SLEEPBEFORE_END,1516211178454,72
15,WS_SEND_START,1516211178454,72
15,WS_SEND_END,1516211178454,72
15,WS_RECV_START,1516211178454,73
15,WS_RECV_END,1516211178700,73
15,PLAYER_SLEEPBEFORE_START,1516211178700,74
15,PLAYER_SLEEPBEFORE_END,1516211178709,74
15,WS_SEND_START,1516211178709,74
15,WS_SEND_END,1516211178709,74
15,WS_RECV_START,1516211178709,75
15,WS_RECV_END,1516211178789,75
15,PLAYER_SLEEPBEFORE_START,1516211178789,76
15,PLAYER_SLEEPBEFORE_END,1516211180295,76
15,WS_SEND_START,1516211180296,76
15,WS_SEND_END,1516211180296,76
15,WS_RECV_START,1516211180296,77
15,WS_RECV_END,1516211180664,77
15,PLAYER_SLEEPBEFORE_START,1516211180664,78
15,PLAYER_SLEEPBEFORE_END,1516211181532,78
15,WS_SEND_START,1516211181532,78
15,WS_SEND_END,1516211181532,78
15,WS_RECV_START,1516211181532,79
15,WS_RECV_END,1516211181718,79
15,PLAYER_SLEEPBEFORE_START,1516211181718,80
15,PLAYER_SLEEPBEFORE_END,1516211189384,80
15,WS_SEND_START,1516211189384,80
15,WS_SEND_END,1516211189384,80
15,WS_RECV_START,1516211189384,81
15,WS_RECV_END,1516211190959,81
15,PLAYER_SLEEPBEFORE_START,1516211190959,82
15,PLAYER_SLEEPBEFORE_END,1516211192062,82
15,WS_SEND_START,1516211192062,82
15,WS_SEND_END,1516211192062,82
15,WS_RECV_START,1516211192062,83
15,WS_RECV_END,1516211194651,83
15,PLAYER_SLEEPBEFORE_START,1516211194651,84
15,PLAYER_SLEEPBEFORE_END,1516211195599,84
15,WS_SEND_START,1516211195599,84
15,WS_SEND_END,1516211195599,84
15,WS_RECV_START,1516211195599,85
15,WS_RECV_END,1516211196747,85
15,PLAYER_SLEEPBEFORE_START,1516211196747,86
15,PLAYER_SLEEPBEFORE_END,1516211200919,86
15,WS_SEND_START,1516211200919,86
15,WS_SEND_END,1516211200919,86
15,WS_RECV_START,1516211200919,87
15,WS_RECV_END,1516211205149,87
15,PLAYER_SLEEPBEFORE_START,1516211205149,88
15,PLAYER_SLEEPBEFORE_END,1516211205158,88
15,WS_SEND_START,1516211205158,88
15,WS_SEND_END,1516211205158,88
15,WS_RECV_START,1516211205158,89
15,WS_RECV_END,1516211206709,89
15,PLAYER_SLEEPBEFORE_START,1516211206709,90
15,PLAYER_SLEEPBEFORE_END,1516211233906,90
15,REQ_START,1516211233906,90
15,REQ_END,1516211233914,90
15,PLAYER_SLEEPBEFORE_START,1516211233914,91
15,PLAYER_SLEEPBEFORE_END,1516211241804,91
15,WS_SEND_START,1516211241804,91
15,WS_SEND_END,1516211241804,91
15,WS_RECV_START,1516211241804,92
15,WS_RECV_END,1516211245652,92
15,PLAYER_SLEEPBEFORE_START,1516211245652,93
15,PLAYER_SLEEPBEFORE_END,1516211245667,93
15,WS_SEND_START,1516211245667,93
15,WS_SEND_END,1516211245667,93
15,WS_RECV_START,1516211245667,94
15,WS_RECV_END,1516211247250,94
15,PLAYER_SLEEPBEFORE_START,1516211247250,95
15,PLAYER_SLEEPBEFORE_END,1516211270805,95
15,WS_SEND_START,1516211270805,95
15,WS_SEND_END,1516211270805,95
15,WS_RECV_START,1516211270805,96
15,WS_RECV_END,1516211274333,96
15,PLAYER_SLEEPBEFORE_START,1516211274333,97
15,PLAYER_SLEEPBEFORE_END,1516211296774,97
15,WS_SEND_START,1516211296774,97
15,WS_SEND_END,1516211296774,97
15,WS_RECV_START,1516211296774,98
15,WS_RECV_END,1516211301715,98
15,PLAYER_SLEEPBEFORE_START,1516211301715,99
15,PLAYER_SLEEPBEFORE_END,1516211301737,99
15,WS_SEND_START,1516211301737,99
15,WS_SEND_END,1516211301737,99
15,WS_RECV_START,1516211301737,100
15,WS_RECV_END,1516211303387,100
15,PLAYER_SLEEPBEFORE_START,1516211303387,101
15,PLAYER_SLEEPBEFORE_END,1516211326947,101
15,WS_SEND_START,1516211326947,101
15,WS_SEND_END,1516211326947,101
15,WS_RECV_START,1516211326947,102
15,WS_RECV_END,1516211329707,102
15,PLAYER_SLEEPBEFORE_START,1516211329707,103
15,PLAYER_SLEEPBEFORE_END,1516211353332,103
15,WS_SEND_START,1516211353332,103
15,WS_SEND_END,1516211353332,103
15,WS_RECV_START,1516211353332,104
15,WS_RECV_END,1516211357394,104
15,PLAYER_SLEEPBEFORE_START,1516211357394,105
15,PLAYER_SLEEPBEFORE_END,1516211382771,105
15,WS_SEND_START,1516211382771,105
15,WS_SEND_END,1516211382771,105
15,WS_RECV_START,1516211382771,106
15,WS_RECV_END,1516211382985,106
15,PLAYER_SLEEPBEFORE_START,1516211382985,107
15,PLAYER_SLEEPBEFORE_END,1516211406408,107
15,WS_SEND_START,1516211406409,107
15,WS_SEND_END,1516211406409,107
15,WS_RECV_START,1516211406409,108
15,WS_RECV_END,1516211409518,108
15,PLAYER_SLEEPBEFORE_START,1516211409518,109
15,PLAYER_SLEEPBEFORE_END,1516211409527,109
15,WS_SEND_START,1516211409527,109
15,WS_SEND_END,1516211409527,109
15,WS_RECV_START,1516211409527,110
15,WS_RECV_END,1516211411717,110
15,PLAYER_SLEEPBEFORE_START,1516211411717,111
15,PLAYER_SLEEPBEFORE_END,1516211412676,111
15,WS_SEND_START,1516211412676,111
15,WS_SEND_END,1516211412676,111
15,WS_RECV_START,1516211412676,112
15,WS_RECV_END,1516211413400,112
15,PLAYER_SLEEPBEFORE_START,1516211413400,113
15,PLAYER_SLEEPBEFORE_END,1516211413962,113
15,WS_SEND_START,1516211413962,113
15,WS_SEND_END,1516211413962,113
15,WS_RECV_START,1516211413962,114
15,WS_RECV_END,1516211415197,114
15,PLAYER_SLEEPBEFORE_START,1516211415197,115
15,PLAYER_SLEEPBEFORE_END,1516211415206,115
15,WS_SEND_START,1516211415206,115
15,WS_SEND_END,1516211415206,115
15,WS_RECV_START,1516211415206,116
15,WS_RECV_END,1516211416663,116
15,PLAYER_SLEEPBEFORE_START,1516211416663,117
15,PLAYER_SLEEPBEFORE_END,1516211437023,117
15,WS_SEND_START,1516211437023,117
15,WS_SEND_END,1516211437023,117
15,PLAYER_SLEEPBEFORE_START,1516211437023,118
15,PLAYER_SLEEPBEFORE_END,1516211440775,118
15,WS_SEND_START,1516211440775,118
15,WS_SEND_END,1516211440775,118
15,WS_RECV_START,1516211440775,119
15,WS_RECV_END,1516211442819,119
15,PLAYER_SLEEPBEFORE_START,1516211442819,120
15,PLAYER_SLEEPBEFORE_END,1516211443807,120
15,WS_SEND_START,1516211443807,120
15,WS_SEND_END,1516211443807,120
15,WS_RECV_START,1516211443807,121
15,WS_RECV_END,1516211446704,121
15,PLAYER_SLEEPBEFORE_START,1516211446704,122
15,PLAYER_SLEEPBEFORE_END,1516211447890,122
15,WS_SEND_START,1516211447890,122
15,WS_SEND_END,1516211447890,122
15,WS_RECV_START,1516211447890,123
15,WS_RECV_END,1516211450370,123
15,PLAYER_SLEEPBEFORE_START,1516211450370,124
15,PLAYER_SLEEPBEFORE_END,1516211474775,124
15,WS_SEND_START,1516211474775,124
15,WS_SEND_END,1516211474775,124
15,WS_RECV_START,1516211474775,125
15,WS_RECV_END,1516211481650,125
15,PLAYER_SLEEPBEFORE_START,1516211481650,126
15,PLAYER_SLEEPBEFORE_END,1516211502163,126
15,WS_SEND_START,1516211502163,126
15,WS_SEND_END,1516211502163,126
15,PLAYER_SLEEPBEFORE_START,1516211502163,127
15,PLAYER_SLEEPBEFORE_END,1516211505217,127
15,WS_SEND_START,1516211505217,127
15,WS_SEND_END,1516211505217,127
15,WS_RECV_START,1516211505217,128
15,WS_RECV_END,1516211506429,128
15,PLAYER_SLEEPBEFORE_START,1516211506429,129
15,PLAYER_SLEEPBEFORE_END,1516211506449,129
15,WS_SEND_START,1516211506449,129
15,WS_SEND_END,1516211506449,129
15,WS_RECV_START,1516211506449,130
15,WS_RECV_END,1516211508682,130
15,PLAYER_SLEEPBEFORE_START,1516211508682,131
15,PLAYER_SLEEPBEFORE_END,1516211530306,131
15,WS_SEND_START,1516211530307,131
15,WS_SEND_END,1516211530307,131
15,PLAYER_SLEEPBEFORE_START,1516211530307,132
15,PLAYER_SLEEPBEFORE_END,1516211533387,132
15,WS_SEND_START,1516211533387,132
15,WS_SEND_END,1516211533387,132
15,WS_RECV_START,1516211533387,133
15,WS_RECV_END,1516211536636,133
15,PLAYER_SLEEPBEFORE_START,1516211536636,134
15,PLAYER_SLEEPBEFORE_END,1516211557853,134
15,WS_SEND_START,1516211557853,134
15,WS_SEND_END,1516211557854,134
15,PLAYER_SLEEPBEFORE_START,1516211557854,135
15,PLAYER_SLEEPBEFORE_END,1516211561044,135
15,WS_SEND_START,1516211561044,135
15,WS_SEND_END,1516211561044,135
15,WS_RECV_START,1516211561044,136
15,WS_RECV_END,1516211562583,136
15,PLAYER_SLEEPBEFORE_START,1516211562583,137
15,PLAYER_SLEEPBEFORE_END,1516211562590,137
15,WS_SEND_START,1516211562590,137
15,WS_SEND_END,1516211562590,137
15,WS_RECV_START,1516211562590,138
15,WS_RECV_END,1516211565699,138
15,PLAYER_SLEEPBEFORE_START,1516211565699,139
15,PLAYER_SLEEPBEFORE_END,1516211566389,139
15,WS_SEND_START,1516211566389,139
15,WS_SEND_END,1516211566390,139
15,WS_RECV_START,1516211566390,140
15,WS_RECV_END,1516211570040,140
15,PLAYER_SLEEPBEFORE_START,1516211570040,141
15,PLAYER_SLEEPBEFORE_END,1516211570695,141
15,WS_SEND_START,1516211570695,141
15,WS_SEND_END,1516211570695,141
15,WS_RECV_START,1516211570695,142
15,WS_RECV_END,1516211574075,142
15,PLAYER_SLEEPBEFORE_START,1516211574075,143
15,PLAYER_SLEEPBEFORE_END,1516211574132,143
15,WS_SEND_START,1516211574132,143
15,WS_SEND_END,1516211574132,143
15,WS_RECV_START,1516211574132,144
15,WS_RECV_END,1516211578462,144
15,PLAYER_SLEEPBEFORE_START,1516211578462,145
15,PLAYER_SLEEPBEFORE_END,1516211594524,145
15,REQ_START,1516211594524,145
15,REQ_END,1516211594533,145
15,PLAYER_SLEEPBEFORE_START,1516211594533,146
15,PLAYER_SLEEPBEFORE_END,1516211603411,146
15,WS_SEND_START,1516211603411,146
15,WS_SEND_END,1516211603411,146
15,WS_RECV_START,1516211603411,147
15,WS_RECV_END,1516211611276,147
15,PLAYER_SLEEPBEFORE_START,1516211611276,148
15,PLAYER_SLEEPBEFORE_END,1516211633198,148
15,WS_SEND_START,1516211633198,148
15,WS_SEND_END,1516211633198,148
15,PLAYER_SLEEPBEFORE_START,1516211633198,149
15,PLAYER_SLEEPBEFORE_END,1516211635627,149
15,WS_SEND_START,1516211635627,149
15,WS_SEND_END,1516211635627,149
15,WS_RECV_START,1516211635627,150
15,WS_RECV_END,1516211640084,150
15,PLAYER_SLEEPBEFORE_START,1516211640084,151
15,PLAYER_SLEEPBEFORE_END,1516211640294,151
15,WS_SEND_START,1516211640294,151
15,WS_SEND_END,1516211640294,151
15,WS_RECV_START,1516211640294,152
15,WS_RECV_END,1516211644134,152
15,PLAYER_SLEEPBEFORE_START,1516211644134,153
15,PLAYER_SLEEPBEFORE_END,1516211668061,153
15,WS_SEND_START,1516211668061,153
15,WS_SEND_END,1516211668061,153
15,WS_RECV_START,1516211668061,154
15,WS_RECV_END,1516211672545,154
15,PLAYER_SLEEPBEFORE_START,1516211672545,155
15,PLAYER_SLEEPBEFORE_END,1516211695103,155
15,WS_SEND_START,1516211695103,155
15,WS_SEND_END,1516211695103,155
15,PLAYER_SLEEPBEFORE_START,1516211695103,156
15,PLAYER_SLEEPBEFORE_END,1516211698377,156
15,WS_SEND_START,1516211698377,156
15,WS_SEND_END,1516211698377,156
15,WS_RECV_START,1516211698377,157
15,WS_RECV_END,1516211699428,157
15,PLAYER_SLEEPBEFORE_START,1516211699428,158
15,PLAYER_SLEEPBEFORE_END,1516211699438,158
15,WS_SEND_START,1516211699438,158
15,WS_SEND_END,1516211699438,158
15,WS_RECV_START,1516211699438,159
15,WS_RECV_END,1516211701695,159
15,PLAYER_SLEEPBEFORE_START,1516211701695,160
15,PLAYER_SLEEPBEFORE_END,1516211701870,160
15,WS_SEND_START,1516211701870,160
15,WS_SEND_END,1516211701870,160
15,WS_RECV_START,1516211701870,161
15,WS_RECV_END,1516211704897,161
15,PLAYER_SLEEPBEFORE_START,1516211704897,162
15,PLAYER_SLEEPBEFORE_END,1516211704922,162
15,WS_SEND_START,1516211704922,162
15,WS_SEND_END,1516211704922,162
15,WS_RECV_START,1516211704922,163
15,WS_RECV_END,1516211708232,163
15,PLAYER_SLEEPBEFORE_START,1516211708232,164
15,PLAYER_SLEEPBEFORE_END,1516211729045,164
15,WS_SEND_START,1516211729045,164
15,WS_SEND_END,1516211729045,164
15,WS_RECV_START,1516211729045,165
15,WS_RECV_END,1516211733880,165
15,PLAYER_SLEEPBEFORE_START,1516211733880,166
15,PLAYER_SLEEPBEFORE_END,1516211756335,166
15,WS_SEND_START,1516211756335,166
15,WS_SEND_END,1516211756335,166
15,WS_RECV_START,1516211756335,167
15,WS_RECV_END,1516211759214,167
15,PLAYER_SLEEPBEFORE_START,1516211759214,168
15,PLAYER_SLEEPBEFORE_END,1516211786571,168
15,WS_SEND_START,1516211786571,168
15,WS_SEND_END,1516211786571,168
15,WS_RECV_START,1516211786571,169
15,WS_RECV_END,1516211788115,169
15,PLAYER_SLEEPBEFORE_START,1516211788115,170
15,PLAYER_SLEEPBEFORE_END,1516211788125,170
15,WS_SEND_START,1516211788125,170
15,WS_SEND_END,1516211788125,170
15,WS_RECV_START,1516211788125,171
15,WS_RECV_END,1516211789348,171
15,PLAYER_SLEEPBEFORE_START,1516211789348,172
15,PLAYER_SLEEPBEFORE_END,1516211789717,172
15,WS_SEND_START,1516211789717,172
15,WS_SEND_END,1516211789717,172
15,WS_RECV_START,1516211789717,173
15,WS_RECV_END,1516211791109,173
15,PLAYER_SLEEPBEFORE_START,1516211791109,174
15,PLAYER_SLEEPBEFORE_END,1516211791150,174
15,WS_SEND_START,1516211791150,174
15,WS_SEND_END,1516211791150,174
15,WS_RECV_START,1516211791150,175
15,WS_RECV_END,1516211791956,175
15,PLAYER_SLEEPBEFORE_START,1516211791956,176
15,PLAYER_SLEEPBEFORE_END,1516211813717,176
15,WS_SEND_START,1516211813717,176
15,WS_SEND_END,1516211813717,176
15,PLAYER_SLEEPBEFORE_START,1516211813717,177
15,PLAYER_SLEEPBEFORE_END,1516211816236,177
15,WS_SEND_START,1516211816236,177
15,WS_SEND_END,1516211816236,177
15,WS_RECV_START,1516211816236,178
15,WS_RECV_END,1516211818490,178
15,PLAYER_SLEEPBEFORE_START,1516211818490,179
15,PLAYER_SLEEPBEFORE_END,1516211840830,179
15,WS_SEND_START,1516211840830,179
15,WS_SEND_END,1516211840830,179
15,WS_RECV_START,1516211840830,180
15,WS_RECV_END,1516211846941,180
15,PLAYER_SLEEPBEFORE_START,1516211846941,181
15,PLAYER_SLEEPBEFORE_END,1516211847385,181
15,WS_SEND_START,1516211847385,181
15,WS_SEND_END,1516211847385,181
15,WS_RECV_START,1516211847385,182
15,WS_RECV_END,1516211850942,182
15,PLAYER_SLEEPBEFORE_START,1516211850942,183
15,PLAYER_SLEEPBEFORE_END,1516211851465,183
15,WS_SEND_START,1516211851465,183
15,WS_SEND_END,1516211851465,183
15,WS_RECV_START,1516211851465,184
15,WS_RECV_END,1516211855298,184
15,PLAYER_SLEEPBEFORE_START,1516211855298,185
15,PLAYER_SLEEPBEFORE_END,1516211855567,185
15,WS_SEND_START,1516211855567,185
15,WS_SEND_END,1516211855567,185
15,WS_RECV_START,1516211855567,186
15,WS_RECV_END,1516211858778,186
15,PLAYER_SLEEPBEFORE_START,1516211858778,187
15,PLAYER_SLEEPBEFORE_END,1516211881278,187
15,WS_SEND_START,1516211881278,187
15,WS_SEND_END,1516211881278,187
15,WS_RECV_START,1516211881278,188
15,WS_RECV_END,1516211890289,188
15,PLAYER_SLEEPBEFORE_START,1516211890289,189
15,PLAYER_SLEEPBEFORE_END,1516211896528,189
15,WS_SEND_START,1516211896528,189
15,WS_SEND_END,1516211896528,189
15,WS_RECV_START,1516211896528,190
15,WS_RECV_END,1516211904936,190
15,PLAYER_SLEEPBEFORE_START,1516211904936,191
15,PLAYER_SLEEPBEFORE_END,1516211906851,191
15,WS_SEND_START,1516211906851,191
15,WS_SEND_END,1516211906851,191
15,WS_RECV_START,1516211906851,192
15,WS_RECV_END,1516211920913,192
15,PLAYER_SLEEPBEFORE_START,1516211920913,193
15,PLAYER_SLEEPBEFORE_END,1516211921042,193
15,WS_SEND_START,1516211921042,193
15,WS_SEND_END,1516211921042,193
15,WS_RECV_START,1516211921042,194
15,WS_RECV_END,1516211928766,194
15,PLAYER_SLEEPBEFORE_START,1516211928766,195
15,PLAYER_SLEEPBEFORE_END,1516211930521,195
15,WS_SEND_START,1516211930521,195
15,WS_SEND_END,1516211930521,195
15,WS_RECV_START,1516211930521,196
15,WS_RECV_END,1516211935539,196
15,PLAYER_SLEEPBEFORE_START,1516211935539,197
15,PLAYER_SLEEPBEFORE_END,1516211937344,197
15,WS_SEND_START,1516211937344,197
15,WS_SEND_END,1516211937344,197
15,WS_RECV_START,1516211937344,198
15,WS_RECV_END,1516211943534,198
15,PLAYER_SLEEPBEFORE_START,1516211943534,199
15,PLAYER_SLEEPBEFORE_END,1516211955388,199
15,WS_SEND_START,1516211955388,199
15,WS_SEND_END,1516211955388,199
15,PLAYER_SLEEPBEFORE_START,1516211955388,200
15,PLAYER_SLEEPBEFORE_END,1516211959476,200
15,WS_SEND_START,1516211959476,200
15,WS_SEND_END,1516211959476,200
15,WS_RECV_START,1516211959476,201
15,WS_RECV_END,1516211968036,201
15,PLAYER_SLEEPBEFORE_START,1516211968036,202
15,PLAYER_SLEEPBEFORE_END,1516211968050,202
15,WS_SEND_START,1516211968050,202
15,WS_SEND_END,1516211968051,202
15,WS_RECV_START,1516211968051,203
15,WS_RECV_END,1516211976577,203
15,PLAYER_SLEEPBEFORE_START,1516211976577,204
15,PLAYER_SLEEPBEFORE_END,1516211996226,204
15,WS_SEND_START,1516211996226,204
15,WS_SEND_END,1516211996226,204
15,PLAYER_SLEEPBEFORE_START,1516211996227,205
15,PLAYER_SLEEPBEFORE_END,1516212000125,205
15,WS_SEND_START,1516212000125,205
15,WS_SEND_END,1516212000125,205
15,WS_RECV_START,1516212000125,206
15,WS_RECV_END,1516212008206,206
15,PLAYER_SLEEPBEFORE_START,1516212008206,207
15,PLAYER_SLEEPBEFORE_END,1516212025137,207
15,REQ_START,1516212025137,207
15,REQ_END,1516212025145,207
15,PLAYER_SLEEPBEFORE_START,1516212025145,208
15,PLAYER_SLEEPBEFORE_END,1516212031998,208
15,WS_CLOSE_START,1516212031998,208
15,WS_CLOSE_END,1516212031998,208
15,PLAYER_DONE,1516212031998
