# --sessions 210 --app-url=http://shinyloadtest.rstudioservices.com/ --output-dir test210 --overwrite-output --log-level warn --start-interval 1500 30min.log
thread_id,event,timestamp,input_line_number,comment
107,PLAYER_SESSION_CREATE,1516065988819
107,PLAYER_START_INTERVAL_START,1516065988819
107,PLAYER_START_INTERVAL_END,1516066149319
107,REQ_HOME_START,1516066149319,2
107,REQ_HOME_END,1516066149409,2
107,REQ_START,1516066149409,3
107,REQ_END,1516066149444,3
107,REQ_START,1516066149444,4
107,REQ_END,1516066149478,4
107,REQ_START,1516066149478,5
107,REQ_END,1516066149639,5
107,REQ_START,1516066149639,6
107,REQ_END,1516066149675,6
107,REQ_START,1516066149675,7
107,REQ_END,1516066149711,7
107,REQ_START,1516066149711,8
107,REQ_END,1516066149744,8
107,REQ_START,1516066149744,9
107,REQ_END,1516066149787,9
107,REQ_START,1516066149787,10
107,REQ_END,1516066149794,10
107,REQ_START,1516066149794,11
107,REQ_END,1516066149826,11
107,REQ_START,1516066149826,12
107,REQ_END,1516066149857,12
107,REQ_START,1516066149857,13
107,REQ_END,1516066149874,13
107,REQ_START,1516066149874,14
107,REQ_END,1516066149890,14
107,REQ_START,1516066149890,15
107,REQ_END,1516066149928,15
107,REQ_TOK_START,1516066149928,16
107,REQ_TOK_END,1516066149935,16
107,REQ_SINF_START,1516066149935,17
107,REQ_SINF_END,1516066149942,17
107,WS_OPEN_START,1516066149943,18
107,WS_OPEN_END,1516066149950,18
107,WS_RECV_START,1516066149951,19
107,WS_RECV_END,1516066149952,19
107,PLAYER_SLEEPBEFORE_START,1516066149952,20
107,PLAYER_SLEEPBEFORE_END,1516066149958,20
107,WS_SEND_START,1516066149958,20
107,WS_SEND_END,1516066149958,20
107,PLAYER_SLEEPBEFORE_START,1516066149958,21
107,PLAYER_SLEEPBEFORE_END,1516066149959,21
107,WS_SEND_START,1516066149959,21
107,WS_SEND_END,1516066149959,21
107,WS_RECV_INIT_START,1516066149959,22
107,WS_RECV_INIT_END,1516066149979,22
107,WS_RECV_START,1516066149979,23
107,WS_RECV_END,1516066150055,23
107,PLAYER_SLEEPBEFORE_START,1516066150055,24
107,PLAYER_SLEEPBEFORE_END,1516066150062,24
107,REQ_START,1516066150062,24
107,REQ_END,1516066150092,24
107,PLAYER_SLEEPBEFORE_START,1516066150092,25
107,PLAYER_SLEEPBEFORE_END,1516066150095,25
107,REQ_START,1516066150095,25
107,REQ_END,1516066150125,25
107,PLAYER_SLEEPBEFORE_START,1516066150125,26
107,PLAYER_SLEEPBEFORE_END,1516066150128,26
107,REQ_START,1516066150128,26
107,REQ_END,1516066150165,26
107,PLAYER_SLEEPBEFORE_START,1516066150165,27
107,PLAYER_SLEEPBEFORE_END,1516066150421,27
107,REQ_START,1516066150421,27
107,REQ_END,1516066150454,27
107,PLAYER_SLEEPBEFORE_START,1516066150454,28
107,PLAYER_SLEEPBEFORE_END,1516066150652,28
107,WS_SEND_START,1516066150652,28
107,WS_SEND_END,1516066150652,28
107,WS_RECV_START,1516066150652,29
107,WS_RECV_END,1516066150841,29
107,PLAYER_SLEEPBEFORE_START,1516066150841,30
107,PLAYER_SLEEPBEFORE_END,1516066150852,30
107,REQ_START,1516066150852,30
107,REQ_END,1516066150886,30
107,PLAYER_SLEEPBEFORE_START,1516066150886,31
107,PLAYER_SLEEPBEFORE_END,1516066181007,31
107,WS_SEND_START,1516066181007,31
107,WS_SEND_END,1516066181007,31
107,WS_RECV_START,1516066181007,32
107,WS_RECV_END,1516066181179,32
107,PLAYER_SLEEPBEFORE_START,1516066181179,33
107,PLAYER_SLEEPBEFORE_END,1516066205945,33
107,WS_SEND_START,1516066205945,33
107,WS_SEND_END,1516066205945,33
107,WS_RECV_START,1516066205945,34
107,WS_RECV_END,1516066206220,34
107,PLAYER_SLEEPBEFORE_START,1516066206220,35
107,PLAYER_SLEEPBEFORE_END,1516066231033,35
107,WS_SEND_START,1516066231033,35
107,WS_SEND_END,1516066231033,35
107,WS_RECV_START,1516066231033,36
107,WS_RECV_END,1516066231095,36
107,PLAYER_SLEEPBEFORE_START,1516066231095,37
107,PLAYER_SLEEPBEFORE_END,1516066231104,37
107,WS_SEND_START,1516066231104,37
107,WS_SEND_END,1516066231104,37
107,WS_RECV_START,1516066231104,38
107,WS_RECV_END,1516066231147,38
107,PLAYER_SLEEPBEFORE_START,1516066231147,39
107,PLAYER_SLEEPBEFORE_END,1516066233844,39
107,WS_SEND_START,1516066233844,39
107,WS_SEND_END,1516066233844,39
107,WS_RECV_START,1516066233844,40
107,WS_RECV_END,1516066233904,40
107,PLAYER_SLEEPBEFORE_START,1516066233904,41
107,PLAYER_SLEEPBEFORE_END,1516066235023,41
107,WS_SEND_START,1516066235023,41
107,WS_SEND_END,1516066235023,41
107,WS_RECV_START,1516066235023,42
107,WS_RECV_END,1516066236103,42
107,PLAYER_SLEEPBEFORE_START,1516066236103,43
107,PLAYER_SLEEPBEFORE_END,1516066236131,43
107,WS_SEND_START,1516066236131,43
107,WS_SEND_END,1516066236131,43
107,WS_RECV_START,1516066236131,44
107,WS_RECV_END,1516066236253,44
107,PLAYER_SLEEPBEFORE_START,1516066236253,45
107,PLAYER_SLEEPBEFORE_END,1516066257742,45
107,WS_SEND_START,1516066257742,45
107,WS_SEND_END,1516066257742,45
107,WS_RECV_START,1516066257742,46
107,WS_RECV_END,1516066258029,46
107,PLAYER_SLEEPBEFORE_START,1516066258029,47
107,PLAYER_SLEEPBEFORE_END,1516066286514,47
107,WS_SEND_START,1516066286514,47
107,WS_SEND_END,1516066286514,47
107,WS_RECV_START,1516066286514,48
107,WS_RECV_END,1516066286962,48
107,PLAYER_SLEEPBEFORE_START,1516066286962,49
107,PLAYER_SLEEPBEFORE_END,1516066313371,49
107,WS_SEND_START,1516066313371,49
107,WS_SEND_END,1516066313371,49
107,WS_RECV_START,1516066313371,50
107,WS_RECV_END,1516066313505,50
107,PLAYER_SLEEPBEFORE_START,1516066313505,51
107,PLAYER_SLEEPBEFORE_END,1516066336057,51
107,WS_SEND_START,1516066336057,51
107,WS_SEND_END,1516066336057,51
107,WS_RECV_START,1516066336057,52
107,WS_RECV_END,1516066337208,52
107,PLAYER_SLEEPBEFORE_START,1516066337208,53
107,PLAYER_SLEEPBEFORE_END,1516066362112,53
107,WS_SEND_START,1516066362112,53
107,WS_SEND_END,1516066362112,53
107,WS_RECV_START,1516066362112,54
107,WS_RECV_END,1516066363318,54
107,PLAYER_SLEEPBEFORE_START,1516066363318,55
107,PLAYER_SLEEPBEFORE_END,1516066388719,55
107,WS_SEND_START,1516066388719,55
107,WS_SEND_END,1516066388719,55
107,WS_RECV_START,1516066388719,56
107,WS_RECV_END,1516066389703,56
107,PLAYER_SLEEPBEFORE_START,1516066389703,57
107,PLAYER_SLEEPBEFORE_END,1516066415042,57
107,WS_SEND_START,1516066415042,57
107,WS_SEND_END,1516066415042,57
107,WS_RECV_START,1516066415042,58
107,WS_RECV_END,1516066415816,58
107,PLAYER_SLEEPBEFORE_START,1516066415816,59
107,PLAYER_SLEEPBEFORE_END,1516066442673,59
107,WS_SEND_START,1516066442673,59
107,WS_SEND_END,1516066442673,59
107,WS_RECV_START,1516066442673,60
107,WS_RECV_END,1516066444748,60
107,PLAYER_SLEEPBEFORE_START,1516066444748,61
107,PLAYER_SLEEPBEFORE_END,1516066444772,61
107,WS_SEND_START,1516066444772,61
107,WS_SEND_END,1516066444772,61
107,WS_RECV_START,1516066444772,62
107,WS_RECV_END,1516066444979,62
107,PLAYER_SLEEPBEFORE_START,1516066444979,63
107,PLAYER_SLEEPBEFORE_END,1516066453983,63
107,REQ_START,1516066453983,63
107,REQ_END,1516066453991,63
107,PLAYER_SLEEPBEFORE_START,1516066453991,64
107,PLAYER_SLEEPBEFORE_END,1516066468197,64
107,WS_SEND_START,1516066468197,64
107,WS_SEND_END,1516066468197,64
107,WS_RECV_START,1516066468197,65
107,WS_RECV_END,1516066468362,65
107,PLAYER_SLEEPBEFORE_START,1516066468362,66
107,PLAYER_SLEEPBEFORE_END,1516066492349,66
107,WS_SEND_START,1516066492349,66
107,WS_SEND_END,1516066492350,66
107,WS_RECV_START,1516066492350,67
107,WS_RECV_END,1516066492543,67
107,PLAYER_SLEEPBEFORE_START,1516066492543,68
107,PLAYER_SLEEPBEFORE_END,1516066518117,68
107,WS_SEND_START,1516066518117,68
107,WS_SEND_END,1516066518117,68
107,WS_RECV_START,1516066518117,69
107,WS_RECV_END,1516066518189,69
107,PLAYER_SLEEPBEFORE_START,1516066518189,70
107,PLAYER_SLEEPBEFORE_END,1516066518198,70
107,WS_SEND_START,1516066518198,70
107,WS_SEND_END,1516066518198,70
107,WS_RECV_START,1516066518198,71
107,WS_RECV_END,1516066518423,71
107,PLAYER_SLEEPBEFORE_START,1516066518423,72
107,PLAYER_SLEEPBEFORE_END,1516066518628,72
107,WS_SEND_START,1516066518628,72
107,WS_SEND_END,1516066518628,72
107,WS_RECV_START,1516066518628,73
107,WS_RECV_END,1516066518720,73
107,PLAYER_SLEEPBEFORE_START,1516066518720,74
107,PLAYER_SLEEPBEFORE_END,1516066520142,74
107,WS_SEND_START,1516066520142,74
107,WS_SEND_END,1516066520142,74
107,WS_RECV_START,1516066520142,75
107,WS_RECV_END,1516066520662,75
107,PLAYER_SLEEPBEFORE_START,1516066520662,76
107,PLAYER_SLEEPBEFORE_END,1516066521157,76
107,WS_SEND_START,1516066521157,76
107,WS_SEND_END,1516066521157,76
107,WS_RECV_START,1516066521157,77
107,WS_RECV_END,1516066522284,77
107,PLAYER_SLEEPBEFORE_START,1516066522284,78
107,PLAYER_SLEEPBEFORE_END,1516066522302,78
107,WS_SEND_START,1516066522302,78
107,WS_SEND_END,1516066522302,78
107,WS_RECV_START,1516066522302,79
107,WS_RECV_END,1516066522989,79
107,PLAYER_SLEEPBEFORE_START,1516066522989,80
107,PLAYER_SLEEPBEFORE_END,1516066543724,80
107,WS_SEND_START,1516066543724,80
107,WS_SEND_END,1516066543724,80
107,WS_RECV_START,1516066543724,81
107,WS_RECV_END,1516066543821,81
107,PLAYER_SLEEPBEFORE_START,1516066543821,82
107,PLAYER_SLEEPBEFORE_END,1516066543832,82
107,WS_SEND_START,1516066543832,82
107,WS_SEND_END,1516066543832,82
107,WS_RECV_START,1516066543832,83
107,WS_RECV_END,1516066544431,83
107,PLAYER_SLEEPBEFORE_START,1516066544431,84
107,PLAYER_SLEEPBEFORE_END,1516066545294,84
107,WS_SEND_START,1516066545294,84
107,WS_SEND_END,1516066545294,84
107,WS_RECV_START,1516066545294,85
107,WS_RECV_END,1516066546382,85
107,PLAYER_SLEEPBEFORE_START,1516066546382,86
107,PLAYER_SLEEPBEFORE_END,1516066547109,86
107,WS_SEND_START,1516066547109,86
107,WS_SEND_END,1516066547109,86
107,WS_RECV_START,1516066547109,87
107,WS_RECV_END,1516066548871,87
107,PLAYER_SLEEPBEFORE_START,1516066548871,88
107,PLAYER_SLEEPBEFORE_END,1516066548892,88
107,WS_SEND_START,1516066548892,88
107,WS_SEND_END,1516066548892,88
107,WS_RECV_START,1516066548892,89
107,WS_RECV_END,1516066551101,89
107,PLAYER_SLEEPBEFORE_START,1516066551101,90
107,PLAYER_SLEEPBEFORE_END,1516066572531,90
107,WS_SEND_START,1516066572531,90
107,WS_SEND_END,1516066572531,90
107,PLAYER_SLEEPBEFORE_START,1516066572531,91
107,PLAYER_SLEEPBEFORE_END,1516066599386,91
107,WS_SEND_START,1516066599386,91
107,WS_SEND_END,1516066599386,91
107,WS_RECV_START,1516066599386,92
107,WS_RECV_END,1516066599597,92
107,PLAYER_SLEEPBEFORE_START,1516066599597,93
107,PLAYER_SLEEPBEFORE_END,1516066601871,93
107,WS_SEND_START,1516066601871,93
107,WS_SEND_END,1516066601871,93
107,WS_RECV_START,1516066601871,94
107,WS_RECV_END,1516066603972,94
107,PLAYER_SLEEPBEFORE_START,1516066603972,95
107,PLAYER_SLEEPBEFORE_END,1516066629968,95
107,WS_SEND_START,1516066629968,95
107,WS_SEND_END,1516066629968,95
107,WS_RECV_START,1516066629968,96
107,WS_RECV_END,1516066631305,96
107,PLAYER_SLEEPBEFORE_START,1516066631305,97
107,PLAYER_SLEEPBEFORE_END,1516066636393,97
107,WS_SEND_START,1516066636393,97
107,WS_SEND_END,1516066636393,97
107,WS_RECV_START,1516066636393,98
107,WS_RECV_END,1516066636681,98
107,PLAYER_SLEEPBEFORE_START,1516066636681,99
107,PLAYER_SLEEPBEFORE_END,1516066638381,99
107,WS_SEND_START,1516066638382,99
107,WS_SEND_END,1516066638382,99
107,WS_RECV_START,1516066638382,100
107,WS_RECV_END,1516066639297,100
107,PLAYER_SLEEPBEFORE_START,1516066639297,101
107,PLAYER_SLEEPBEFORE_END,1516066641136,101
107,WS_SEND_START,1516066641136,101
107,WS_SEND_END,1516066641136,101
107,WS_RECV_START,1516066641136,102
107,WS_RECV_END,1516066641772,102
107,PLAYER_SLEEPBEFORE_START,1516066641772,103
107,PLAYER_SLEEPBEFORE_END,1516066654822,103
107,WS_SEND_START,1516066654822,103
107,WS_SEND_END,1516066654822,103
107,PLAYER_SLEEPBEFORE_START,1516066654822,104
107,PLAYER_SLEEPBEFORE_END,1516066659248,104
107,WS_SEND_START,1516066659248,104
107,WS_SEND_END,1516066659248,104
107,WS_RECV_START,1516066659248,105
107,WS_RECV_END,1516066660622,105
107,PLAYER_SLEEPBEFORE_START,1516066660622,106
107,PLAYER_SLEEPBEFORE_END,1516066660631,106
107,WS_SEND_START,1516066660631,106
107,WS_SEND_END,1516066660631,106
107,WS_RECV_START,1516066660631,107
107,WS_RECV_END,1516066661038,107
107,PLAYER_SLEEPBEFORE_START,1516066661038,108
107,PLAYER_SLEEPBEFORE_END,1516066661503,108
107,WS_SEND_START,1516066661503,108
107,WS_SEND_END,1516066661503,108
107,WS_RECV_START,1516066661503,109
107,WS_RECV_END,1516066663496,109
107,PLAYER_SLEEPBEFORE_START,1516066663496,110
107,PLAYER_SLEEPBEFORE_END,1516066663511,110
107,WS_SEND_START,1516066663511,110
107,WS_SEND_END,1516066663511,110
107,WS_RECV_START,1516066663511,111
107,WS_RECV_END,1516066666400,111
107,PLAYER_SLEEPBEFORE_START,1516066666400,112
107,PLAYER_SLEEPBEFORE_END,1516066687164,112
107,WS_SEND_START,1516066687164,112
107,WS_SEND_END,1516066687164,112
107,PLAYER_SLEEPBEFORE_START,1516066687164,113
107,PLAYER_SLEEPBEFORE_END,1516066689559,113
107,WS_SEND_START,1516066689559,113
107,WS_SEND_END,1516066689559,113
107,WS_RECV_START,1516066689559,114
107,WS_RECV_END,1516066691218,114
107,PLAYER_SLEEPBEFORE_START,1516066691218,115
107,PLAYER_SLEEPBEFORE_END,1516066692000,115
107,WS_SEND_START,1516066692000,115
107,WS_SEND_END,1516066692000,115
107,WS_RECV_START,1516066692000,116
107,WS_RECV_END,1516066696313,116
107,PLAYER_SLEEPBEFORE_START,1516066696313,117
107,PLAYER_SLEEPBEFORE_END,1516066718698,117
107,WS_SEND_START,1516066718698,117
107,WS_SEND_END,1516066718698,117
107,WS_RECV_START,1516066718698,118
107,WS_RECV_END,1516066720334,118
107,PLAYER_SLEEPBEFORE_START,1516066720334,119
107,PLAYER_SLEEPBEFORE_END,1516066722238,119
107,WS_SEND_START,1516066722238,119
107,WS_SEND_END,1516066722238,119
107,WS_RECV_START,1516066722238,120
107,WS_RECV_END,1516066723455,120
107,PLAYER_SLEEPBEFORE_START,1516066723455,121
107,PLAYER_SLEEPBEFORE_END,1516066724608,121
107,WS_SEND_START,1516066724608,121
107,WS_SEND_END,1516066724608,121
107,WS_RECV_START,1516066724608,122
107,WS_RECV_END,1516066727676,122
107,PLAYER_SLEEPBEFORE_START,1516066727676,123
107,PLAYER_SLEEPBEFORE_END,1516066728800,123
107,WS_SEND_START,1516066728800,123
107,WS_SEND_END,1516066728800,123
107,WS_RECV_START,1516066728800,124
107,WS_RECV_END,1516066729410,124
107,PLAYER_SLEEPBEFORE_START,1516066729410,125
107,PLAYER_SLEEPBEFORE_END,1516066730907,125
107,WS_SEND_START,1516066730907,125
107,WS_SEND_END,1516066730907,125
107,WS_RECV_START,1516066730907,126
107,WS_RECV_END,1516066732298,126
107,PLAYER_SLEEPBEFORE_START,1516066732298,127
107,PLAYER_SLEEPBEFORE_END,1516066752909,127
107,WS_SEND_START,1516066752909,127
107,WS_SEND_END,1516066752909,127
107,WS_RECV_START,1516066752909,128
107,WS_RECV_END,1516066753209,128
107,PLAYER_SLEEPBEFORE_START,1516066753209,129
107,PLAYER_SLEEPBEFORE_END,1516066778240,129
107,WS_SEND_START,1516066778240,129
107,WS_SEND_END,1516066778240,129
107,PLAYER_SLEEPBEFORE_START,1516066778240,130
107,PLAYER_SLEEPBEFORE_END,1516066780220,130
107,WS_SEND_START,1516066780220,130
107,WS_SEND_END,1516066780220,130
107,WS_RECV_START,1516066780220,131
107,WS_RECV_END,1516066782660,131
107,PLAYER_SLEEPBEFORE_START,1516066782660,132
107,PLAYER_SLEEPBEFORE_END,1516066782669,132
107,WS_SEND_START,1516066782669,132
107,WS_SEND_END,1516066782669,132
107,WS_RECV_START,1516066782669,133
107,WS_RECV_END,1516066784072,133
107,PLAYER_SLEEPBEFORE_START,1516066784072,134
107,PLAYER_SLEEPBEFORE_END,1516066785148,134
107,REQ_START,1516066785148,134
107,REQ_END,1516066785157,134
107,PLAYER_SLEEPBEFORE_START,1516066785157,135
107,PLAYER_SLEEPBEFORE_END,1516066785747,135
107,WS_SEND_START,1516066785747,135
107,WS_SEND_END,1516066785747,135
107,WS_RECV_START,1516066785747,136
107,WS_RECV_END,1516066786833,136
107,PLAYER_SLEEPBEFORE_START,1516066786833,137
107,PLAYER_SLEEPBEFORE_END,1516066786847,137
107,WS_SEND_START,1516066786847,137
107,WS_SEND_END,1516066786847,137
107,WS_RECV_START,1516066786847,138
107,WS_RECV_END,1516066790329,138
107,PLAYER_SLEEPBEFORE_START,1516066790329,139
107,PLAYER_SLEEPBEFORE_END,1516066808003,139
107,WS_SEND_START,1516066808004,139
107,WS_SEND_END,1516066808004,139
107,PLAYER_SLEEPBEFORE_START,1516066808004,140
107,PLAYER_SLEEPBEFORE_END,1516066811907,140
107,WS_SEND_START,1516066811907,140
107,WS_SEND_END,1516066811907,140
107,PLAYER_SLEEPBEFORE_START,1516066811907,141
107,PLAYER_SLEEPBEFORE_END,1516066814199,141
107,WS_SEND_START,1516066814199,141
107,WS_SEND_END,1516066814199,141
107,WS_RECV_START,1516066814199,142
107,WS_RECV_END,1516066815295,142
107,PLAYER_SLEEPBEFORE_START,1516066815295,143
107,PLAYER_SLEEPBEFORE_END,1516066815303,143
107,WS_SEND_START,1516066815303,143
107,WS_SEND_END,1516066815303,143
107,WS_RECV_START,1516066815303,144
107,WS_RECV_END,1516066817830,144
107,PLAYER_SLEEPBEFORE_START,1516066817830,145
107,PLAYER_SLEEPBEFORE_END,1516066819573,145
107,WS_SEND_START,1516066819573,145
107,WS_SEND_END,1516066819573,145
107,WS_RECV_START,1516066819573,146
107,WS_RECV_END,1516066824000,146
107,PLAYER_SLEEPBEFORE_START,1516066824000,147
107,PLAYER_SLEEPBEFORE_END,1516066824009,147
107,WS_SEND_START,1516066824009,147
107,WS_SEND_END,1516066824009,147
107,WS_RECV_START,1516066824009,148
107,WS_RECV_END,1516066824853,148
107,PLAYER_SLEEPBEFORE_START,1516066824853,149
107,PLAYER_SLEEPBEFORE_END,1516066839966,149
107,WS_SEND_START,1516066839966,149
107,WS_SEND_END,1516066839966,149
107,PLAYER_SLEEPBEFORE_START,1516066839967,150
107,PLAYER_SLEEPBEFORE_END,1516066850642,150
107,WS_SEND_START,1516066850642,150
107,WS_SEND_END,1516066850642,150
107,PLAYER_SLEEPBEFORE_START,1516066850642,151
107,PLAYER_SLEEPBEFORE_END,1516066853633,151
107,WS_SEND_START,1516066853633,151
107,WS_SEND_END,1516066853633,151
107,WS_RECV_START,1516066853633,152
107,WS_RECV_END,1516066855821,152
107,PLAYER_SLEEPBEFORE_START,1516066855821,153
107,PLAYER_SLEEPBEFORE_END,1516066855828,153
107,WS_SEND_START,1516066855828,153
107,WS_SEND_END,1516066855828,153
107,WS_RECV_START,1516066855828,154
107,WS_RECV_END,1516066857550,154
107,PLAYER_SLEEPBEFORE_START,1516066857550,155
107,PLAYER_SLEEPBEFORE_END,1516066858158,155
107,WS_SEND_START,1516066858158,155
107,WS_SEND_END,1516066858158,155
107,WS_RECV_START,1516066858158,156
107,WS_RECV_END,1516066860024,156
107,PLAYER_SLEEPBEFORE_START,1516066860024,157
107,PLAYER_SLEEPBEFORE_END,1516066861367,157
107,WS_SEND_START,1516066861367,157
107,WS_SEND_END,1516066861367,157
107,WS_RECV_START,1516066861367,158
107,WS_RECV_END,1516066863839,158
107,PLAYER_SLEEPBEFORE_START,1516066863839,159
107,PLAYER_SLEEPBEFORE_END,1516066867739,159
107,WS_SEND_START,1516066867739,159
107,WS_SEND_END,1516066867739,159
107,WS_RECV_START,1516066867739,160
107,WS_RECV_END,1516066870869,160
107,PLAYER_SLEEPBEFORE_START,1516066870869,161
107,PLAYER_SLEEPBEFORE_END,1516066871652,161
107,WS_SEND_START,1516066871652,161
107,WS_SEND_END,1516066871652,161
107,WS_RECV_START,1516066871652,162
107,WS_RECV_END,1516066875491,162
107,PLAYER_SLEEPBEFORE_START,1516066875491,163
107,PLAYER_SLEEPBEFORE_END,1516066875500,163
107,WS_SEND_START,1516066875500,163
107,WS_SEND_END,1516066875500,163
107,WS_RECV_START,1516066875500,164
107,WS_RECV_END,1516066877624,164
107,PLAYER_SLEEPBEFORE_START,1516066877624,165
107,PLAYER_SLEEPBEFORE_END,1516066884997,165
107,WS_SEND_START,1516066884997,165
107,WS_SEND_END,1516066884997,165
107,WS_RECV_START,1516066884997,166
107,WS_RECV_END,1516066885220,166
107,PLAYER_SLEEPBEFORE_START,1516066885220,167
107,PLAYER_SLEEPBEFORE_END,1516066906469,167
107,WS_SEND_START,1516066906469,167
107,WS_SEND_END,1516066906469,167
107,PLAYER_SLEEPBEFORE_START,1516066906469,168
107,PLAYER_SLEEPBEFORE_END,1516066911204,168
107,WS_SEND_START,1516066911204,168
107,WS_SEND_END,1516066911204,168
107,PLAYER_SLEEPBEFORE_START,1516066911204,169
107,PLAYER_SLEEPBEFORE_END,1516066912755,169
107,WS_SEND_START,1516066912755,169
107,WS_SEND_END,1516066912755,169
107,WS_RECV_START,1516066912755,170
107,WS_RECV_END,1516066912892,170
107,PLAYER_SLEEPBEFORE_START,1516066912892,171
107,PLAYER_SLEEPBEFORE_END,1516066912899,171
107,WS_SEND_START,1516066912899,171
107,WS_SEND_END,1516066912899,171
107,WS_RECV_START,1516066912899,172
107,WS_RECV_END,1516066913246,172
107,PLAYER_SLEEPBEFORE_START,1516066913246,173
107,PLAYER_SLEEPBEFORE_END,1516066914014,173
107,WS_SEND_START,1516066914014,173
107,WS_SEND_END,1516066914014,173
107,WS_RECV_START,1516066914014,174
107,WS_RECV_END,1516066914945,174
107,PLAYER_SLEEPBEFORE_START,1516066914945,175
107,PLAYER_SLEEPBEFORE_END,1516066915705,175
107,WS_SEND_START,1516066915705,175
107,WS_SEND_END,1516066915705,175
107,WS_RECV_START,1516066915705,176
107,WS_RECV_END,1516066915802,176
107,PLAYER_SLEEPBEFORE_START,1516066915802,177
107,PLAYER_SLEEPBEFORE_END,1516066916602,177
107,WS_SEND_START,1516066916602,177
107,WS_SEND_END,1516066916602,177
107,WS_RECV_START,1516066916602,178
107,WS_RECV_END,1516066917048,178
107,PLAYER_SLEEPBEFORE_START,1516066917048,179
107,PLAYER_SLEEPBEFORE_END,1516066922302,179
107,WS_SEND_START,1516066922302,179
107,WS_SEND_END,1516066922302,179
107,PLAYER_SLEEPBEFORE_START,1516066922302,180
107,PLAYER_SLEEPBEFORE_END,1516066928920,180
107,WS_SEND_START,1516066928920,180
107,WS_SEND_END,1516066928920,180
107,PLAYER_SLEEPBEFORE_START,1516066928920,181
107,PLAYER_SLEEPBEFORE_END,1516066930657,181
107,WS_SEND_START,1516066930657,181
107,WS_SEND_END,1516066930657,181
107,WS_RECV_START,1516066930657,182
107,WS_RECV_END,1516066931027,182
107,PLAYER_SLEEPBEFORE_START,1516066931027,183
107,PLAYER_SLEEPBEFORE_END,1516066931764,183
107,WS_SEND_START,1516066931764,183
107,WS_SEND_END,1516066931764,183
107,WS_RECV_START,1516066931764,184
107,WS_RECV_END,1516066932846,184
107,PLAYER_SLEEPBEFORE_START,1516066932846,185
107,PLAYER_SLEEPBEFORE_END,1516066932859,185
107,WS_SEND_START,1516066932859,185
107,WS_SEND_END,1516066932859,185
107,WS_RECV_START,1516066932859,186
107,WS_RECV_END,1516066933212,186
107,PLAYER_SLEEPBEFORE_START,1516066933212,187
107,PLAYER_SLEEPBEFORE_END,1516066958219,187
107,WS_SEND_START,1516066958219,187
107,WS_SEND_END,1516066958219,187
107,WS_RECV_START,1516066958219,188
107,WS_RECV_END,1516066960970,188
107,PLAYER_SLEEPBEFORE_START,1516066960970,189
107,PLAYER_SLEEPBEFORE_END,1516066986193,189
107,WS_SEND_START,1516066986193,189
107,WS_SEND_END,1516066986193,189
107,WS_RECV_START,1516066986193,190
107,WS_RECV_END,1516066986755,190
107,PLAYER_SLEEPBEFORE_START,1516066986755,191
107,PLAYER_SLEEPBEFORE_END,1516066986760,191
107,WS_SEND_START,1516066986760,191
107,WS_SEND_END,1516066986760,191
107,WS_RECV_START,1516066986760,192
107,WS_RECV_END,1516066986834,192
107,PLAYER_SLEEPBEFORE_START,1516066986834,193
107,PLAYER_SLEEPBEFORE_END,1516066987271,193
107,WS_SEND_START,1516066987271,193
107,WS_SEND_END,1516066987271,193
107,WS_RECV_START,1516066987271,194
107,WS_RECV_END,1516066991737,194
107,PLAYER_SLEEPBEFORE_START,1516066991737,195
107,PLAYER_SLEEPBEFORE_END,1516066991750,195
107,WS_SEND_START,1516066991750,195
107,WS_SEND_END,1516066991750,195
107,WS_RECV_START,1516066991750,196
107,WS_RECV_END,1516066994725,196
107,PLAYER_SLEEPBEFORE_START,1516066994725,197
107,PLAYER_SLEEPBEFORE_END,1516067019495,197
107,WS_SEND_START,1516067019495,197
107,WS_SEND_END,1516067019496,197
107,WS_RECV_START,1516067019496,198
107,WS_RECV_END,1516067020884,198
107,PLAYER_SLEEPBEFORE_START,1516067020884,199
107,PLAYER_SLEEPBEFORE_END,1516067020891,199
107,WS_SEND_START,1516067020891,199
107,WS_SEND_END,1516067020891,199
107,WS_RECV_START,1516067020891,200
107,WS_RECV_END,1516067021262,200
107,PLAYER_SLEEPBEFORE_START,1516067021262,201
107,PLAYER_SLEEPBEFORE_END,1516067022559,201
107,WS_SEND_START,1516067022559,201
107,WS_SEND_END,1516067022559,201
107,WS_RECV_START,1516067022559,202
107,WS_RECV_END,1516067028950,202
107,PLAYER_SLEEPBEFORE_START,1516067028950,203
107,PLAYER_SLEEPBEFORE_END,1516067028962,203
107,WS_SEND_START,1516067028962,203
107,WS_SEND_END,1516067028962,203
107,WS_RECV_START,1516067028962,204
107,WS_RECV_END,1516067029659,204
107,PLAYER_SLEEPBEFORE_START,1516067029659,205
107,PLAYER_SLEEPBEFORE_END,1516067051290,205
107,WS_SEND_START,1516067051290,205
107,WS_SEND_END,1516067051290,205
107,WS_RECV_START,1516067051290,206
107,WS_RECV_END,1516067052995,206
107,PLAYER_SLEEPBEFORE_START,1516067052995,207
107,PLAYER_SLEEPBEFORE_END,1516067077118,207
107,WS_SEND_START,1516067077118,207
107,WS_SEND_END,1516067077118,207
107,WS_RECV_START,1516067077118,208
107,WS_RECV_END,1516067077354,208
107,PLAYER_SLEEPBEFORE_START,1516067077354,209
107,PLAYER_SLEEPBEFORE_END,1516067083768,209
107,WS_SEND_START,1516067083768,209
107,WS_SEND_END,1516067083768,209
107,WS_RECV_START,1516067083768,210
107,WS_RECV_END,1516067083911,210
107,PLAYER_SLEEPBEFORE_START,1516067083911,211
107,PLAYER_SLEEPBEFORE_END,1516067102743,211
107,WS_SEND_START,1516067102743,211
107,WS_SEND_END,1516067102743,211
107,WS_RECV_START,1516067102743,212
107,WS_RECV_END,1516067102976,212
107,PLAYER_SLEEPBEFORE_START,1516067102976,213
107,PLAYER_SLEEPBEFORE_END,1516067128029,213
107,WS_SEND_START,1516067128029,213
107,WS_SEND_END,1516067128029,213
107,WS_RECV_START,1516067128029,214
107,WS_RECV_END,1516067128174,214
107,PLAYER_SLEEPBEFORE_START,1516067128174,215
107,PLAYER_SLEEPBEFORE_END,1516067136285,215
107,REQ_START,1516067136285,215
107,REQ_END,1516067136293,215
107,PLAYER_SLEEPBEFORE_START,1516067136293,216
107,PLAYER_SLEEPBEFORE_END,1516067152855,216
107,WS_SEND_START,1516067152855,216
107,WS_SEND_END,1516067152855,216
107,WS_RECV_START,1516067152855,217
107,WS_RECV_END,1516067153000,217
107,PLAYER_SLEEPBEFORE_START,1516067153000,218
107,PLAYER_SLEEPBEFORE_END,1516067153007,218
107,WS_SEND_START,1516067153007,218
107,WS_SEND_END,1516067153007,218
107,WS_RECV_START,1516067153007,219
107,WS_RECV_END,1516067153958,219
107,PLAYER_SLEEPBEFORE_START,1516067153958,220
107,PLAYER_SLEEPBEFORE_END,1516067154726,220
107,WS_SEND_START,1516067154726,220
107,WS_SEND_END,1516067154726,220
107,WS_RECV_START,1516067154726,221
107,WS_RECV_END,1516067157503,221
107,PLAYER_SLEEPBEFORE_START,1516067157503,222
107,PLAYER_SLEEPBEFORE_END,1516067157560,222
107,WS_SEND_START,1516067157561,222
107,WS_SEND_END,1516067157561,222
107,WS_RECV_START,1516067157561,223
107,WS_RECV_END,1516067157701,223
107,PLAYER_SLEEPBEFORE_START,1516067157701,224
107,PLAYER_SLEEPBEFORE_END,1516067180357,224
107,WS_SEND_START,1516067180357,224
107,WS_SEND_END,1516067180357,224
107,WS_RECV_START,1516067180357,225
107,WS_RECV_END,1516067180499,225
107,PLAYER_SLEEPBEFORE_START,1516067180499,226
107,PLAYER_SLEEPBEFORE_END,1516067206234,226
107,WS_SEND_START,1516067206234,226
107,WS_SEND_END,1516067206234,226
107,WS_RECV_START,1516067206234,227
107,WS_RECV_END,1516067206398,227
107,PLAYER_SLEEPBEFORE_START,1516067206398,228
107,PLAYER_SLEEPBEFORE_END,1516067229391,228
107,WS_SEND_START,1516067229391,228
107,WS_SEND_END,1516067229391,228
107,WS_RECV_START,1516067229391,229
107,WS_RECV_END,1516067233989,229
107,PLAYER_SLEEPBEFORE_START,1516067233989,230
107,PLAYER_SLEEPBEFORE_END,1516067258205,230
107,WS_SEND_START,1516067258205,230
107,WS_SEND_END,1516067258205,230
107,WS_RECV_START,1516067258205,231
107,WS_RECV_END,1516067261441,231
107,PLAYER_SLEEPBEFORE_START,1516067261441,232
107,PLAYER_SLEEPBEFORE_END,1516067286197,232
107,WS_SEND_START,1516067286197,232
107,WS_SEND_END,1516067286197,232
107,WS_RECV_START,1516067286197,233
107,WS_RECV_END,1516067286448,233
107,PLAYER_SLEEPBEFORE_START,1516067286448,234
107,PLAYER_SLEEPBEFORE_END,1516067313481,234
107,WS_SEND_START,1516067313481,234
107,WS_SEND_END,1516067313481,234
107,WS_RECV_START,1516067313481,235
107,WS_RECV_END,1516067315263,235
107,PLAYER_SLEEPBEFORE_START,1516067315263,236
107,PLAYER_SLEEPBEFORE_END,1516067339103,236
107,WS_SEND_START,1516067339103,236
107,WS_SEND_END,1516067339103,236
107,WS_RECV_START,1516067339103,237
107,WS_RECV_END,1516067344381,237
107,PLAYER_SLEEPBEFORE_START,1516067344381,238
107,PLAYER_SLEEPBEFORE_END,1516067357191,238
107,WS_SEND_START,1516067357191,238
107,WS_SEND_END,1516067357191,238
107,WS_RECV_START,1516067357191,239
107,WS_RECV_END,1516067357396,239
107,PLAYER_SLEEPBEFORE_START,1516067357396,240
107,PLAYER_SLEEPBEFORE_END,1516067370051,240
107,WS_SEND_START,1516067370051,240
107,WS_SEND_END,1516067370051,240
107,WS_RECV_START,1516067370051,241
107,WS_RECV_END,1516067374254,241
107,PLAYER_SLEEPBEFORE_START,1516067374254,242
107,PLAYER_SLEEPBEFORE_END,1516067374277,242
107,WS_SEND_START,1516067374277,242
107,WS_SEND_END,1516067374277,242
107,WS_RECV_START,1516067374277,243
107,WS_RECV_END,1516067374728,243
107,PLAYER_SLEEPBEFORE_START,1516067374728,244
107,PLAYER_SLEEPBEFORE_END,1516067396966,244
107,WS_SEND_START,1516067396966,244
107,WS_SEND_END,1516067396966,244
107,WS_RECV_START,1516067396966,245
107,WS_RECV_END,1516067400888,245
107,PLAYER_SLEEPBEFORE_START,1516067400888,246
107,PLAYER_SLEEPBEFORE_END,1516067400897,246
107,WS_SEND_START,1516067400897,246
107,WS_SEND_END,1516067400897,246
107,WS_RECV_START,1516067400897,247
107,WS_RECV_END,1516067402993,247
107,PLAYER_SLEEPBEFORE_START,1516067402993,248
107,PLAYER_SLEEPBEFORE_END,1516067405031,248
107,WS_SEND_START,1516067405031,248
107,WS_SEND_END,1516067405031,248
107,WS_RECV_START,1516067405031,249
107,WS_RECV_END,1516067407432,249
107,PLAYER_SLEEPBEFORE_START,1516067407432,250
107,PLAYER_SLEEPBEFORE_END,1516067407469,250
107,WS_SEND_START,1516067407469,250
107,WS_SEND_END,1516067407469,250
107,WS_RECV_START,1516067407469,251
107,WS_RECV_END,1516067413273,251
107,PLAYER_SLEEPBEFORE_START,1516067413273,252
107,PLAYER_SLEEPBEFORE_END,1516067435916,252
107,WS_SEND_START,1516067435916,252
107,WS_SEND_END,1516067435916,252
107,WS_RECV_START,1516067435916,253
107,WS_RECV_END,1516067441141,253
107,PLAYER_SLEEPBEFORE_START,1516067441141,254
107,PLAYER_SLEEPBEFORE_END,1516067441157,254
107,WS_SEND_START,1516067441157,254
107,WS_SEND_END,1516067441157,254
107,WS_RECV_START,1516067441157,255
107,WS_RECV_END,1516067444900,255
107,PLAYER_SLEEPBEFORE_START,1516067444900,256
107,PLAYER_SLEEPBEFORE_END,1516067469522,256
107,WS_SEND_START,1516067469522,256
107,WS_SEND_END,1516067469522,256
107,WS_RECV_START,1516067469522,257
107,WS_RECV_END,1516067474180,257
107,PLAYER_SLEEPBEFORE_START,1516067474180,258
107,PLAYER_SLEEPBEFORE_END,1516067474188,258
107,WS_SEND_START,1516067474188,258
107,WS_SEND_END,1516067474188,258
107,WS_RECV_START,1516067474188,259
107,WS_RECV_END,1516067477193,259
107,PLAYER_SLEEPBEFORE_START,1516067477193,260
107,PLAYER_SLEEPBEFORE_END,1516067477718,260
107,WS_SEND_START,1516067477718,260
107,WS_SEND_END,1516067477718,260
107,WS_RECV_START,1516067477718,261
107,WS_RECV_END,1516067480270,261
107,PLAYER_SLEEPBEFORE_START,1516067480270,262
107,PLAYER_SLEEPBEFORE_END,1516067480542,262
107,WS_SEND_START,1516067480542,262
107,WS_SEND_END,1516067480542,262
107,WS_RECV_START,1516067480543,263
107,WS_RECV_END,1516067481313,263
107,PLAYER_SLEEPBEFORE_START,1516067481313,264
107,PLAYER_SLEEPBEFORE_END,1516067483726,264
107,WS_SEND_START,1516067483726,264
107,WS_SEND_END,1516067483726,264
107,WS_RECV_START,1516067483726,265
107,WS_RECV_END,1516067486734,265
107,PLAYER_SLEEPBEFORE_START,1516067486734,266
107,PLAYER_SLEEPBEFORE_END,1516067486746,266
107,WS_SEND_START,1516067486746,266
107,WS_SEND_END,1516067486746,266
107,WS_RECV_START,1516067486746,267
107,WS_RECV_END,1516067489693,267
107,PLAYER_SLEEPBEFORE_START,1516067489693,268
107,PLAYER_SLEEPBEFORE_END,1516067491163,268
107,REQ_START,1516067491163,268
107,REQ_END,1516067491172,268
107,PLAYER_SLEEPBEFORE_START,1516067491172,269
107,PLAYER_SLEEPBEFORE_END,1516067508567,269
107,WS_SEND_START,1516067508567,269
107,WS_SEND_END,1516067508567,269
107,WS_RECV_START,1516067508567,270
107,WS_RECV_END,1516067513458,270
107,PLAYER_SLEEPBEFORE_START,1516067513458,271
107,PLAYER_SLEEPBEFORE_END,1516067513465,271
107,WS_SEND_START,1516067513465,271
107,WS_SEND_END,1516067513465,271
107,WS_RECV_START,1516067513465,272
107,WS_RECV_END,1516067519353,272
107,PLAYER_SLEEPBEFORE_START,1516067519353,273
107,PLAYER_SLEEPBEFORE_END,1516067520651,273
107,WS_SEND_START,1516067520651,273
107,WS_SEND_END,1516067520651,273
107,WS_RECV_START,1516067520651,274
107,WS_RECV_END,1516067523704,274
107,PLAYER_SLEEPBEFORE_START,1516067523704,275
107,PLAYER_SLEEPBEFORE_END,1516067524878,275
107,WS_SEND_START,1516067524878,275
107,WS_SEND_END,1516067524878,275
107,WS_RECV_START,1516067524878,276
107,WS_RECV_END,1516067532123,276
107,PLAYER_SLEEPBEFORE_START,1516067532123,277
107,PLAYER_SLEEPBEFORE_END,1516067532145,277
107,WS_SEND_START,1516067532145,277
107,WS_SEND_END,1516067532145,277
107,WS_RECV_START,1516067532145,278
107,WS_RECV_END,1516067536385,278
107,PLAYER_SLEEPBEFORE_START,1516067536385,279
107,PLAYER_SLEEPBEFORE_END,1516067560908,279
107,WS_SEND_START,1516067560908,279
107,WS_SEND_END,1516067560908,279
107,WS_RECV_START,1516067560908,280
107,WS_RECV_END,1516067568647,280
107,PLAYER_SLEEPBEFORE_START,1516067568647,281
107,PLAYER_SLEEPBEFORE_END,1516067590935,281
107,WS_SEND_START,1516067590935,281
107,WS_SEND_END,1516067590935,281
107,WS_RECV_START,1516067590935,282
107,WS_RECV_END,1516067601875,282
107,PLAYER_SLEEPBEFORE_START,1516067601875,283
107,PLAYER_SLEEPBEFORE_END,1516067601893,283
107,WS_SEND_START,1516067601893,283
107,WS_SEND_END,1516067601893,283
107,WS_RECV_START,1516067601893,284
107,WS_RECV_END,1516067610170,284
107,PLAYER_SLEEPBEFORE_START,1516067610170,285
107,PLAYER_SLEEPBEFORE_END,1516067634301,285
107,WS_SEND_START,1516067634301,285
107,WS_SEND_END,1516067634301,285
107,WS_RECV_START,1516067634301,286
107,WS_RECV_END,1516067638722,286
107,PLAYER_SLEEPBEFORE_START,1516067638722,287
107,PLAYER_SLEEPBEFORE_END,1516067661877,287
107,WS_SEND_START,1516067661877,287
107,WS_SEND_END,1516067661877,287
107,WS_RECV_START,1516067661877,288
107,WS_RECV_END,1516067668857,288
107,PLAYER_SLEEPBEFORE_START,1516067668857,289
107,PLAYER_SLEEPBEFORE_END,1516067668879,289
107,WS_SEND_START,1516067668879,289
107,WS_SEND_END,1516067668879,289
107,WS_RECV_START,1516067668879,290
107,WS_RECV_END,1516067677319,290
107,PLAYER_SLEEPBEFORE_START,1516067677319,291
107,PLAYER_SLEEPBEFORE_END,1516067687933,291
107,WS_SEND_START,1516067687933,291
107,WS_SEND_END,1516067687933,291
107,WS_RECV_START,1516067687933,292
107,WS_RECV_END,1516067692206,292
107,PLAYER_SLEEPBEFORE_START,1516067692206,293
107,PLAYER_SLEEPBEFORE_END,1516067707962,293
107,WS_SEND_START,1516067707962,293
107,WS_SEND_END,1516067707962,293
107,WS_RECV_START,1516067707962,294
107,WS_RECV_END,1516067713848,294
107,PLAYER_SLEEPBEFORE_START,1516067713848,295
107,PLAYER_SLEEPBEFORE_END,1516067713873,295
107,WS_SEND_START,1516067713873,295
107,WS_SEND_END,1516067713873,295
107,WS_RECV_START,1516067713873,296
107,WS_RECV_END,1516067715398,296
107,PLAYER_SLEEPBEFORE_START,1516067715398,297
107,PLAYER_SLEEPBEFORE_END,1516067736895,297
107,WS_SEND_START,1516067736895,297
107,WS_SEND_END,1516067736895,297
107,WS_RECV_START,1516067736895,298
107,WS_RECV_END,1516067743267,298
107,PLAYER_SLEEPBEFORE_START,1516067743267,299
107,PLAYER_SLEEPBEFORE_END,1516067743277,299
107,WS_SEND_START,1516067743277,299
107,WS_SEND_END,1516067743277,299
107,WS_RECV_START,1516067743277,300
107,WS_RECV_END,1516067748197,300
107,PLAYER_SLEEPBEFORE_START,1516067748197,301
107,PLAYER_SLEEPBEFORE_END,1516067750557,301
107,WS_SEND_START,1516067750557,301
107,WS_SEND_END,1516067750557,301
107,WS_RECV_START,1516067750557,302
107,WS_RECV_END,1516067756714,302
107,PLAYER_SLEEPBEFORE_START,1516067756715,303
107,PLAYER_SLEEPBEFORE_END,1516067756739,303
107,WS_SEND_START,1516067756739,303
107,WS_SEND_END,1516067756739,303
107,WS_RECV_START,1516067756739,304
107,WS_RECV_END,1516067761402,304
107,PLAYER_SLEEPBEFORE_START,1516067761402,305
107,PLAYER_SLEEPBEFORE_END,1516067786392,305
107,WS_SEND_START,1516067786392,305
107,WS_SEND_END,1516067786392,305
107,WS_RECV_START,1516067786392,306
107,WS_RECV_END,1516067791022,306
107,PLAYER_SLEEPBEFORE_START,1516067791022,307
107,PLAYER_SLEEPBEFORE_END,1516067814897,307
107,WS_SEND_START,1516067814897,307
107,WS_SEND_END,1516067814898,307
107,WS_RECV_START,1516067814898,308
107,WS_RECV_END,1516067821967,308
107,PLAYER_SLEEPBEFORE_START,1516067821967,309
107,PLAYER_SLEEPBEFORE_END,1516067843658,309
107,WS_SEND_START,1516067843658,309
107,WS_SEND_END,1516067843658,309
107,WS_RECV_START,1516067843658,310
107,WS_RECV_END,1516067848446,310
107,PLAYER_SLEEPBEFORE_START,1516067848446,311
107,PLAYER_SLEEPBEFORE_END,1516067877274,311
107,WS_SEND_START,1516067877274,311
107,WS_SEND_END,1516067877274,311
107,WS_RECV_START,1516067877274,312
107,WS_RECV_END,1516067887230,312
107,PLAYER_SLEEPBEFORE_START,1516067887230,313
107,PLAYER_SLEEPBEFORE_END,1516067887251,313
107,WS_SEND_START,1516067887251,313
107,WS_SEND_END,1516067887251,313
107,WS_RECV_START,1516067887251,314
107,WS_RECV_END,1516067892640,314
107,PLAYER_SLEEPBEFORE_START,1516067892640,315
107,PLAYER_SLEEPBEFORE_END,1516067914226,315
107,WS_SEND_START,1516067914226,315
107,WS_SEND_END,1516067914226,315
107,WS_RECV_START,1516067914226,316
107,WS_RECV_END,1516067924953,316
107,PLAYER_SLEEPBEFORE_START,1516067924953,317
107,PLAYER_SLEEPBEFORE_END,1516067924961,317
107,WS_SEND_START,1516067924961,317
107,WS_SEND_END,1516067924961,317
107,WS_RECV_START,1516067924961,318
107,WS_RECV_END,1516067930932,318
107,PLAYER_SLEEPBEFORE_START,1516067930932,319
107,PLAYER_SLEEPBEFORE_END,1516067931265,319
107,WS_SEND_START,1516067931265,319
107,WS_SEND_END,1516067931265,319
107,WS_RECV_START,1516067931265,320
107,WS_RECV_END,1516067936723,320
107,PLAYER_SLEEPBEFORE_START,1516067936723,321
107,PLAYER_SLEEPBEFORE_END,1516067936742,321
107,WS_SEND_START,1516067936742,321
107,WS_SEND_END,1516067936742,321
107,WS_RECV_START,1516067936742,322
107,WS_RECV_END,1516067939143,322
107,PLAYER_SLEEPBEFORE_START,1516067939143,323
107,PLAYER_SLEEPBEFORE_END,1516067943536,323
107,REQ_START,1516067943536,323
107,REQ_END,1516067943545,323
107,PLAYER_SLEEPBEFORE_START,1516067943545,324
107,PLAYER_SLEEPBEFORE_END,1516067963431,324
107,WS_SEND_START,1516067963431,324
107,WS_SEND_END,1516067963431,324
107,WS_RECV_START,1516067963431,325
107,WS_RECV_END,1516067975741,325
107,PLAYER_SLEEPBEFORE_START,1516067975741,326
107,PLAYER_SLEEPBEFORE_END,1516067975750,326
107,WS_SEND_START,1516067975750,326
107,WS_SEND_END,1516067975750,326
107,WS_RECV_START,1516067975750,327
107,WS_RECV_END,1516067979732,327
107,PLAYER_SLEEPBEFORE_START,1516067979732,328
107,PLAYER_SLEEPBEFORE_END,1516067980093,328
107,WS_SEND_START,1516067980094,328
107,WS_SEND_END,1516067980094,328
107,WS_RECV_START,1516067980094,329
107,WS_RECV_END,1516067986172,329
107,PLAYER_SLEEPBEFORE_START,1516067986172,330
107,PLAYER_SLEEPBEFORE_END,1516067986519,330
107,WS_SEND_START,1516067986519,330
107,WS_SEND_END,1516067986519,330
107,WS_RECV_START,1516067986519,331
107,WS_RECV_END,1516067987897,331
107,PLAYER_SLEEPBEFORE_START,1516067987897,332
107,PLAYER_SLEEPBEFORE_END,1516067988744,332
107,WS_SEND_START,1516067988744,332
107,WS_SEND_END,1516067988744,332
107,WS_RECV_START,1516067988744,333
107,WS_RECV_END,1516067991229,333
107,PLAYER_SLEEPBEFORE_START,1516067991229,334
107,PLAYER_SLEEPBEFORE_END,1516067991626,334
107,WS_SEND_START,1516067991626,334
107,WS_SEND_END,1516067991626,334
107,WS_RECV_START,1516067991626,335
107,WS_RECV_END,1516067998335,335
107,PLAYER_SLEEPBEFORE_START,1516067998335,336
107,PLAYER_SLEEPBEFORE_END,1516067998659,336
107,WS_SEND_START,1516067998659,336
107,WS_SEND_END,1516067998659,336
107,WS_RECV_START,1516067998659,337
107,WS_RECV_END,1516068004980,337
107,PLAYER_SLEEPBEFORE_START,1516068004980,338
107,PLAYER_SLEEPBEFORE_END,1516068004995,338
107,WS_SEND_START,1516068004995,338
107,WS_SEND_END,1516068004995,338
107,WS_RECV_START,1516068004995,339
107,WS_RECV_END,1516068010809,339
107,PLAYER_SLEEPBEFORE_START,1516068010809,340
107,PLAYER_SLEEPBEFORE_END,1516068028781,340
107,WS_SEND_START,1516068028781,340
107,WS_SEND_END,1516068028781,340
107,WS_RECV_START,1516068028781,341
107,WS_RECV_END,1516068033713,341
107,PLAYER_SLEEPBEFORE_START,1516068033713,342
107,PLAYER_SLEEPBEFORE_END,1516068033722,342
107,WS_SEND_START,1516068033722,342
107,WS_SEND_END,1516068033722,342
107,WS_RECV_START,1516068033722,343
107,WS_RECV_END,1516068041172,343
107,PLAYER_SLEEPBEFORE_START,1516068041172,344
107,PLAYER_SLEEPBEFORE_END,1516068043484,344
107,WS_SEND_START,1516068043484,344
107,WS_SEND_END,1516068043484,344
107,WS_RECV_START,1516068043484,345
107,WS_RECV_END,1516068049476,345
107,PLAYER_SLEEPBEFORE_START,1516068049476,346
107,PLAYER_SLEEPBEFORE_END,1516068049487,346
107,WS_SEND_START,1516068049487,346
107,WS_SEND_END,1516068049487,346
107,WS_RECV_START,1516068049487,347
107,WS_RECV_END,1516068052906,347
107,PLAYER_SLEEPBEFORE_START,1516068052906,348
107,PLAYER_SLEEPBEFORE_END,1516068073514,348
107,WS_SEND_START,1516068073514,348
107,WS_SEND_END,1516068073514,348
107,WS_RECV_START,1516068073514,349
107,WS_RECV_END,1516068082801,349
107,PLAYER_SLEEPBEFORE_START,1516068082801,350
107,PLAYER_SLEEPBEFORE_END,1516068082809,350
107,WS_SEND_START,1516068082809,350
107,WS_SEND_END,1516068082809,350
107,WS_RECV_START,1516068082809,351
107,WS_RECV_END,1516068085276,351
107,PLAYER_SLEEPBEFORE_START,1516068085276,352
107,PLAYER_SLEEPBEFORE_END,1516068086463,352
107,WS_SEND_START,1516068086463,352
107,WS_SEND_END,1516068086463,352
107,WS_RECV_START,1516068086463,353
107,WS_RECV_END,1516068093824,353
107,PLAYER_SLEEPBEFORE_START,1516068093824,354
107,PLAYER_SLEEPBEFORE_END,1516068093841,354
107,WS_SEND_START,1516068093841,354
107,WS_SEND_END,1516068093841,354
107,WS_RECV_START,1516068093841,355
107,WS_RECV_END,1516068100286,355
107,PLAYER_SLEEPBEFORE_START,1516068100286,356
107,PLAYER_SLEEPBEFORE_END,1516068100332,356
107,WS_SEND_START,1516068100332,356
107,WS_SEND_END,1516068100332,356
107,WS_RECV_START,1516068100332,357
107,WS_RECV_END,1516068104731,357
107,PLAYER_SLEEPBEFORE_START,1516068104731,358
107,PLAYER_SLEEPBEFORE_END,1516068104746,358
107,WS_SEND_START,1516068104746,358
107,WS_SEND_END,1516068104746,358
107,WS_RECV_START,1516068104746,359
107,WS_RECV_END,1516068108697,359
107,PLAYER_SLEEPBEFORE_START,1516068108697,360
107,PLAYER_SLEEPBEFORE_END,1516068129163,360
107,WS_SEND_START,1516068129163,360
107,WS_SEND_END,1516068129163,360
107,WS_RECV_START,1516068129163,361
107,WS_RECV_END,1516068137381,361
107,PLAYER_SLEEPBEFORE_START,1516068137381,362
107,PLAYER_SLEEPBEFORE_END,1516068137390,362
107,WS_SEND_START,1516068137390,362
107,WS_SEND_END,1516068137390,362
107,WS_RECV_START,1516068137390,363
107,WS_RECV_END,1516068140924,363
107,PLAYER_SLEEPBEFORE_START,1516068140924,364
107,PLAYER_SLEEPBEFORE_END,1516068143015,364
107,WS_SEND_START,1516068143015,364
107,WS_SEND_END,1516068143015,364
107,WS_RECV_START,1516068143015,365
107,WS_RECV_END,1516068150605,365
107,PLAYER_SLEEPBEFORE_START,1516068150605,366
107,PLAYER_SLEEPBEFORE_END,1516068150616,366
107,WS_SEND_START,1516068150616,366
107,WS_SEND_END,1516068150616,366
107,WS_RECV_START,1516068150616,367
107,WS_RECV_END,1516068156993,367
107,PLAYER_SLEEPBEFORE_START,1516068156993,368
107,PLAYER_SLEEPBEFORE_END,1516068180453,368
107,WS_SEND_START,1516068180453,368
107,WS_SEND_END,1516068180453,368
107,WS_RECV_START,1516068180453,369
107,WS_RECV_END,1516068185653,369
107,PLAYER_SLEEPBEFORE_START,1516068185653,370
107,PLAYER_SLEEPBEFORE_END,1516068185661,370
107,WS_SEND_START,1516068185661,370
107,WS_SEND_END,1516068185661,370
107,WS_RECV_START,1516068185661,371
107,WS_RECV_END,1516068188228,371
107,PLAYER_SLEEPBEFORE_START,1516068188228,372
107,PLAYER_SLEEPBEFORE_END,1516068188600,372
107,WS_SEND_START,1516068188600,372
107,WS_SEND_END,1516068188600,372
107,WS_RECV_START,1516068188600,373
107,WS_RECV_END,1516068192804,373
107,PLAYER_SLEEPBEFORE_START,1516068192804,374
107,PLAYER_SLEEPBEFORE_END,1516068193507,374
107,WS_SEND_START,1516068193507,374
107,WS_SEND_END,1516068193507,374
107,WS_RECV_START,1516068193507,375
107,WS_RECV_END,1516068196910,375
107,PLAYER_SLEEPBEFORE_START,1516068196910,376
107,PLAYER_SLEEPBEFORE_END,1516068197261,376
107,WS_SEND_START,1516068197261,376
107,WS_SEND_END,1516068197261,376
107,WS_RECV_START,1516068197261,377
107,WS_RECV_END,1516068203483,377
107,PLAYER_SLEEPBEFORE_START,1516068203483,378
107,PLAYER_SLEEPBEFORE_END,1516068203502,378
107,WS_SEND_START,1516068203502,378
107,WS_SEND_END,1516068203502,378
107,WS_RECV_START,1516068203502,379
107,WS_RECV_END,1516068205975,379
107,PLAYER_SLEEPBEFORE_START,1516068205975,380
107,PLAYER_SLEEPBEFORE_END,1516068226468,380
107,WS_SEND_START,1516068226468,380
107,WS_SEND_END,1516068226468,380
107,PLAYER_SLEEPBEFORE_START,1516068226468,381
107,PLAYER_SLEEPBEFORE_END,1516068230682,381
107,WS_SEND_START,1516068230682,381
107,WS_SEND_END,1516068230682,381
107,WS_RECV_START,1516068230682,382
107,WS_RECV_END,1516068231453,382
107,PLAYER_SLEEPBEFORE_START,1516068231453,383
107,PLAYER_SLEEPBEFORE_END,1516068251653,383
107,WS_SEND_START,1516068251653,383
107,WS_SEND_END,1516068251653,383
107,PLAYER_SLEEPBEFORE_START,1516068251653,384
107,PLAYER_SLEEPBEFORE_END,1516068254839,384
107,WS_SEND_START,1516068254839,384
107,WS_SEND_END,1516068254839,384
107,WS_RECV_START,1516068254839,385
107,WS_RECV_END,1516068258938,385
107,PLAYER_SLEEPBEFORE_START,1516068258938,386
107,PLAYER_SLEEPBEFORE_END,1516068258953,386
107,WS_SEND_START,1516068258953,386
107,WS_SEND_END,1516068258953,386
107,WS_RECV_START,1516068258953,387
107,WS_RECV_END,1516068261904,387
107,PLAYER_SLEEPBEFORE_START,1516068261904,388
107,PLAYER_SLEEPBEFORE_END,1516068282434,388
107,WS_SEND_START,1516068282435,388
107,WS_SEND_END,1516068282435,388
107,PLAYER_SLEEPBEFORE_START,1516068282435,389
107,PLAYER_SLEEPBEFORE_END,1516068284654,389
107,WS_SEND_START,1516068284654,389
107,WS_SEND_END,1516068284654,389
107,WS_RECV_START,1516068284654,390
107,WS_RECV_END,1516068284876,390
107,PLAYER_SLEEPBEFORE_START,1516068284876,391
107,PLAYER_SLEEPBEFORE_END,1516068307712,391
107,WS_SEND_START,1516068307712,391
107,WS_SEND_END,1516068307712,391
107,WS_RECV_START,1516068307712,392
107,WS_RECV_END,1516068308557,392
107,PLAYER_SLEEPBEFORE_START,1516068308557,393
107,PLAYER_SLEEPBEFORE_END,1516068333246,393
107,WS_SEND_START,1516068333246,393
107,WS_SEND_END,1516068333246,393
107,PLAYER_SLEEPBEFORE_START,1516068333246,394
107,PLAYER_SLEEPBEFORE_END,1516068335218,394
107,WS_SEND_START,1516068335218,394
107,WS_SEND_END,1516068335218,394
107,WS_RECV_START,1516068335218,395
107,WS_RECV_END,1516068335840,395
107,PLAYER_SLEEPBEFORE_START,1516068335840,396
107,PLAYER_SLEEPBEFORE_END,1516068335847,396
107,WS_SEND_START,1516068335847,396
107,WS_SEND_END,1516068335847,396
107,WS_RECV_START,1516068335847,397
107,WS_RECV_END,1516068335953,397
107,PLAYER_SLEEPBEFORE_START,1516068335953,398
107,PLAYER_SLEEPBEFORE_END,1516068336133,398
107,WS_SEND_START,1516068336133,398
107,WS_SEND_END,1516068336133,398
107,WS_RECV_START,1516068336133,399
107,WS_RECV_END,1516068336333,399
107,PLAYER_SLEEPBEFORE_START,1516068336333,400
107,PLAYER_SLEEPBEFORE_END,1516068337408,400
107,WS_SEND_START,1516068337408,400
107,WS_SEND_END,1516068337408,400
107,WS_RECV_START,1516068337408,401
107,WS_RECV_END,1516068338191,401
107,PLAYER_SLEEPBEFORE_START,1516068338191,402
107,PLAYER_SLEEPBEFORE_END,1516068339551,402
107,WS_SEND_START,1516068339551,402
107,WS_SEND_END,1516068339551,402
107,WS_RECV_START,1516068339551,403
107,WS_RECV_END,1516068339611,403
107,PLAYER_SLEEPBEFORE_START,1516068339611,404
107,PLAYER_SLEEPBEFORE_END,1516068340081,404
107,WS_SEND_START,1516068340081,404
107,WS_SEND_END,1516068340081,404
107,WS_RECV_START,1516068340081,405
107,WS_RECV_END,1516068340154,405
107,PLAYER_SLEEPBEFORE_START,1516068340154,406
107,PLAYER_SLEEPBEFORE_END,1516068342881,406
107,WS_SEND_START,1516068342881,406
107,WS_SEND_END,1516068342881,406
107,WS_RECV_START,1516068342881,407
107,WS_RECV_END,1516068342941,407
107,PLAYER_SLEEPBEFORE_START,1516068342941,408
107,PLAYER_SLEEPBEFORE_END,1516068343270,408
107,WS_SEND_START,1516068343270,408
107,WS_SEND_END,1516068343270,408
107,WS_RECV_START,1516068343270,409
107,WS_RECV_END,1516068343359,409
107,PLAYER_SLEEPBEFORE_START,1516068343359,410
107,PLAYER_SLEEPBEFORE_END,1516068344384,410
107,WS_SEND_START,1516068344384,410
107,WS_SEND_END,1516068344384,410
107,WS_RECV_START,1516068344384,411
107,WS_RECV_END,1516068344442,411
107,PLAYER_SLEEPBEFORE_START,1516068344442,412
107,PLAYER_SLEEPBEFORE_END,1516068345098,412
107,WS_SEND_START,1516068345098,412
107,WS_SEND_END,1516068345098,412
107,WS_RECV_START,1516068345098,413
107,WS_RECV_END,1516068346002,413
107,PLAYER_SLEEPBEFORE_START,1516068346002,414
107,PLAYER_SLEEPBEFORE_END,1516068346018,414
107,WS_SEND_START,1516068346018,414
107,WS_SEND_END,1516068346018,414
107,WS_RECV_START,1516068346018,415
107,WS_RECV_END,1516068348185,415
107,PLAYER_SLEEPBEFORE_START,1516068348185,416
107,PLAYER_SLEEPBEFORE_END,1516068362453,416
107,WS_SEND_START,1516068362453,416
107,WS_SEND_END,1516068362453,416
107,PLAYER_SLEEPBEFORE_START,1516068362453,417
107,PLAYER_SLEEPBEFORE_END,1516068391132,417
107,WS_SEND_START,1516068391132,417
107,WS_SEND_END,1516068391132,417
107,WS_RECV_START,1516068391132,418
107,WS_RECV_END,1516068392227,418
107,PLAYER_SLEEPBEFORE_START,1516068392227,419
107,PLAYER_SLEEPBEFORE_END,1516068397050,419
107,REQ_START,1516068397050,419
107,REQ_END,1516068397058,419
107,PLAYER_SLEEPBEFORE_START,1516068397058,420
107,PLAYER_SLEEPBEFORE_END,1516068415803,420
107,WS_CLOSE_START,1516068415803,420
107,WS_CLOSE_END,1516068415803,420
107,PLAYER_DONE,1516068415803
