# --sessions 210 --app-url=http://shinyloadtest.rstudioservices.com/ --output-dir test210 --overwrite-output --log-level warn --start-interval 1500 30min.log
thread_id,event,timestamp,input_line_number,comment
44,PLAYER_SESSION_CREATE,1516065988767
44,PLAYER_START_INTERVAL_START,1516065988767
44,PLAYER_START_INTERVAL_END,1516066054767
44,REQ_HOME_START,1516066054767,2
44,REQ_HOME_END,1516066054862,2
44,REQ_START,1516066054862,3
44,REQ_END,1516066054895,3
44,REQ_START,1516066054895,4
44,REQ_END,1516066054927,4
44,REQ_START,1516066054927,5
44,REQ_END,1516066054961,5
44,REQ_START,1516066054961,6
44,REQ_END,1516066054997,6
44,REQ_START,1516066054997,7
44,REQ_END,1516066055044,7
44,REQ_START,1516066055044,8
44,REQ_END,1516066055077,8
44,REQ_START,1516066055077,9
44,REQ_END,1516066055114,9
44,REQ_START,1516066055114,10
44,REQ_END,1516066055123,10
44,REQ_START,1516066055123,11
44,REQ_END,1516066055154,11
44,REQ_START,1516066055154,12
44,REQ_END,1516066055187,12
44,REQ_START,1516066055187,13
44,REQ_END,1516066055198,13
44,REQ_START,1516066055198,14
44,REQ_END,1516066055213,14
44,REQ_START,1516066055213,15
44,REQ_END,1516066055250,15
44,REQ_TOK_START,1516066055250,16
44,REQ_TOK_END,1516066055258,16
44,REQ_SINF_START,1516066055258,17
44,REQ_SINF_END,1516066055265,17
44,WS_OPEN_START,1516066055266,18
44,WS_OPEN_END,1516066055273,18
44,WS_RECV_START,1516066055273,19
44,WS_RECV_END,1516066055274,19
44,PLAYER_SLEEPBEFORE_START,1516066055274,20
44,PLAYER_SLEEPBEFORE_END,1516066055280,20
44,WS_SEND_START,1516066055280,20
44,WS_SEND_END,1516066055280,20
44,PLAYER_SLEEPBEFORE_START,1516066055280,21
44,PLAYER_SLEEPBEFORE_END,1516066055281,21
44,WS_SEND_START,1516066055281,21
44,WS_SEND_END,1516066055281,21
44,WS_RECV_INIT_START,1516066055281,22
44,WS_RECV_INIT_END,1516066055301,22
44,WS_RECV_START,1516066055301,23
44,WS_RECV_END,1516066055373,23
44,PLAYER_SLEEPBEFORE_START,1516066055373,24
44,PLAYER_SLEEPBEFORE_END,1516066055380,24
44,REQ_START,1516066055380,24
44,REQ_END,1516066055443,24
44,PLAYER_SLEEPBEFORE_START,1516066055443,25
44,PLAYER_SLEEPBEFORE_END,1516066055445,25
44,REQ_START,1516066055445,25
44,REQ_END,1516066055477,25
44,PLAYER_SLEEPBEFORE_START,1516066055477,26
44,PLAYER_SLEEPBEFORE_END,1516066055480,26
44,REQ_START,1516066055480,26
44,REQ_END,1516066055513,26
44,PLAYER_SLEEPBEFORE_START,1516066055513,27
44,PLAYER_SLEEPBEFORE_END,1516066055769,27
44,REQ_START,1516066055770,27
44,REQ_END,1516066055803,27
44,PLAYER_SLEEPBEFORE_START,1516066055803,28
44,PLAYER_SLEEPBEFORE_END,1516066056001,28
44,WS_SEND_START,1516066056002,28
44,WS_SEND_END,1516066056002,28
44,WS_RECV_START,1516066056002,29
44,WS_RECV_END,1516066056183,29
44,PLAYER_SLEEPBEFORE_START,1516066056183,30
44,PLAYER_SLEEPBEFORE_END,1516066056195,30
44,REQ_START,1516066056195,30
44,REQ_END,1516066056231,30
44,PLAYER_SLEEPBEFORE_START,1516066056231,31
44,PLAYER_SLEEPBEFORE_END,1516066086351,31
44,WS_SEND_START,1516066086351,31
44,WS_SEND_END,1516066086351,31
44,WS_RECV_START,1516066086351,32
44,WS_RECV_END,1516066086555,32
44,PLAYER_SLEEPBEFORE_START,1516066086555,33
44,PLAYER_SLEEPBEFORE_END,1516066111321,33
44,WS_SEND_START,1516066111321,33
44,WS_SEND_END,1516066111321,33
44,WS_RECV_START,1516066111321,34
44,WS_RECV_END,1516066111427,34
44,PLAYER_SLEEPBEFORE_START,1516066111427,35
44,PLAYER_SLEEPBEFORE_END,1516066136240,35
44,WS_SEND_START,1516066136240,35
44,WS_SEND_END,1516066136240,35
44,WS_RECV_START,1516066136240,36
44,WS_RECV_END,1516066136415,36
44,PLAYER_SLEEPBEFORE_START,1516066136415,37
44,PLAYER_SLEEPBEFORE_END,1516066136424,37
44,WS_SEND_START,1516066136424,37
44,WS_SEND_END,1516066136424,37
44,WS_RECV_START,1516066136424,38
44,WS_RECV_END,1516066136467,38
44,PLAYER_SLEEPBEFORE_START,1516066136467,39
44,PLAYER_SLEEPBEFORE_END,1516066139164,39
44,WS_SEND_START,1516066139164,39
44,WS_SEND_END,1516066139164,39
44,WS_RECV_START,1516066139164,40
44,WS_RECV_END,1516066139230,40
44,PLAYER_SLEEPBEFORE_START,1516066139230,41
44,PLAYER_SLEEPBEFORE_END,1516066140350,41
44,WS_SEND_START,1516066140350,41
44,WS_SEND_END,1516066140350,41
44,WS_RECV_START,1516066140350,42
44,WS_RECV_END,1516066141421,42
44,PLAYER_SLEEPBEFORE_START,1516066141421,43
44,PLAYER_SLEEPBEFORE_END,1516066141449,43
44,WS_SEND_START,1516066141449,43
44,WS_SEND_END,1516066141449,43
44,WS_RECV_START,1516066141449,44
44,WS_RECV_END,1516066141648,44
44,PLAYER_SLEEPBEFORE_START,1516066141648,45
44,PLAYER_SLEEPBEFORE_END,1516066163138,45
44,WS_SEND_START,1516066163138,45
44,WS_SEND_END,1516066163138,45
44,WS_RECV_START,1516066163138,46
44,WS_RECV_END,1516066163262,46
44,PLAYER_SLEEPBEFORE_START,1516066163262,47
44,PLAYER_SLEEPBEFORE_END,1516066191747,47
44,WS_SEND_START,1516066191747,47
44,WS_SEND_END,1516066191747,47
44,WS_RECV_START,1516066191747,48
44,WS_RECV_END,1516066191889,48
44,PLAYER_SLEEPBEFORE_START,1516066191889,49
44,PLAYER_SLEEPBEFORE_END,1516066218299,49
44,WS_SEND_START,1516066218299,49
44,WS_SEND_END,1516066218299,49
44,WS_RECV_START,1516066218299,50
44,WS_RECV_END,1516066218456,50
44,PLAYER_SLEEPBEFORE_START,1516066218456,51
44,PLAYER_SLEEPBEFORE_END,1516066241007,51
44,WS_SEND_START,1516066241007,51
44,WS_SEND_END,1516066241007,51
44,WS_RECV_START,1516066241007,52
44,WS_RECV_END,1516066241128,52
44,PLAYER_SLEEPBEFORE_START,1516066241128,53
44,PLAYER_SLEEPBEFORE_END,1516066266033,53
44,WS_SEND_START,1516066266033,53
44,WS_SEND_END,1516066266033,53
44,WS_RECV_START,1516066266033,54
44,WS_RECV_END,1516066266155,54
44,PLAYER_SLEEPBEFORE_START,1516066266155,55
44,PLAYER_SLEEPBEFORE_END,1516066291556,55
44,WS_SEND_START,1516066291556,55
44,WS_SEND_END,1516066291556,55
44,WS_RECV_START,1516066291556,56
44,WS_RECV_END,1516066291692,56
44,PLAYER_SLEEPBEFORE_START,1516066291692,57
44,PLAYER_SLEEPBEFORE_END,1516066317030,57
44,WS_SEND_START,1516066317030,57
44,WS_SEND_END,1516066317030,57
44,WS_RECV_START,1516066317030,58
44,WS_RECV_END,1516066317181,58
44,PLAYER_SLEEPBEFORE_START,1516066317181,59
44,PLAYER_SLEEPBEFORE_END,1516066344039,59
44,WS_SEND_START,1516066344039,59
44,WS_SEND_END,1516066344039,59
44,WS_RECV_START,1516066344039,60
44,WS_RECV_END,1516066345825,60
44,PLAYER_SLEEPBEFORE_START,1516066345825,61
44,PLAYER_SLEEPBEFORE_END,1516066345848,61
44,WS_SEND_START,1516066345848,61
44,WS_SEND_END,1516066345848,61
44,WS_RECV_START,1516066345848,62
44,WS_RECV_END,1516066346065,62
44,PLAYER_SLEEPBEFORE_START,1516066346065,63
44,PLAYER_SLEEPBEFORE_END,1516066355069,63
44,REQ_START,1516066355069,63
44,REQ_END,1516066355090,63
44,PLAYER_SLEEPBEFORE_START,1516066355090,64
44,PLAYER_SLEEPBEFORE_END,1516066369296,64
44,WS_SEND_START,1516066369296,64
44,WS_SEND_END,1516066369296,64
44,WS_RECV_START,1516066369296,65
44,WS_RECV_END,1516066370277,65
44,PLAYER_SLEEPBEFORE_START,1516066370277,66
44,PLAYER_SLEEPBEFORE_END,1516066394264,66
44,WS_SEND_START,1516066394264,66
44,WS_SEND_END,1516066394264,66
44,WS_RECV_START,1516066394264,67
44,WS_RECV_END,1516066395393,67
44,PLAYER_SLEEPBEFORE_START,1516066395393,68
44,PLAYER_SLEEPBEFORE_END,1516066420967,68
44,WS_SEND_START,1516066420967,68
44,WS_SEND_END,1516066420967,68
44,WS_RECV_START,1516066420967,69
44,WS_RECV_END,1516066421644,69
44,PLAYER_SLEEPBEFORE_START,1516066421644,70
44,PLAYER_SLEEPBEFORE_END,1516066421653,70
44,WS_SEND_START,1516066421653,70
44,WS_SEND_END,1516066421653,70
44,WS_RECV_START,1516066421653,71
44,WS_RECV_END,1516066421811,71
44,PLAYER_SLEEPBEFORE_START,1516066421811,72
44,PLAYER_SLEEPBEFORE_END,1516066422016,72
44,WS_SEND_START,1516066422016,72
44,WS_SEND_END,1516066422016,72
44,WS_RECV_START,1516066422016,73
44,WS_RECV_END,1516066422101,73
44,PLAYER_SLEEPBEFORE_START,1516066422101,74
44,PLAYER_SLEEPBEFORE_END,1516066423523,74
44,WS_SEND_START,1516066423523,74
44,WS_SEND_END,1516066423523,74
44,WS_RECV_START,1516066423523,75
44,WS_RECV_END,1516066423586,75
44,PLAYER_SLEEPBEFORE_START,1516066423586,76
44,PLAYER_SLEEPBEFORE_END,1516066424081,76
44,WS_SEND_START,1516066424081,76
44,WS_SEND_END,1516066424081,76
44,WS_RECV_START,1516066424081,77
44,WS_RECV_END,1516066425113,77
44,PLAYER_SLEEPBEFORE_START,1516066425113,78
44,PLAYER_SLEEPBEFORE_END,1516066425131,78
44,WS_SEND_START,1516066425131,78
44,WS_SEND_END,1516066425131,78
44,WS_RECV_START,1516066425131,79
44,WS_RECV_END,1516066426465,79
44,PLAYER_SLEEPBEFORE_START,1516066426465,80
44,PLAYER_SLEEPBEFORE_END,1516066447199,80
44,WS_SEND_START,1516066447199,80
44,WS_SEND_END,1516066447199,80
44,WS_RECV_START,1516066447199,81
44,WS_RECV_END,1516066447279,81
44,PLAYER_SLEEPBEFORE_START,1516066447279,82
44,PLAYER_SLEEPBEFORE_END,1516066447290,82
44,WS_SEND_START,1516066447290,82
44,WS_SEND_END,1516066447290,82
44,WS_RECV_START,1516066447290,83
44,WS_RECV_END,1516066447331,83
44,PLAYER_SLEEPBEFORE_START,1516066447331,84
44,PLAYER_SLEEPBEFORE_END,1516066448194,84
44,WS_SEND_START,1516066448194,84
44,WS_SEND_END,1516066448194,84
44,WS_RECV_START,1516066448194,85
44,WS_RECV_END,1516066448265,85
44,PLAYER_SLEEPBEFORE_START,1516066448265,86
44,PLAYER_SLEEPBEFORE_END,1516066448992,86
44,WS_SEND_START,1516066448992,86
44,WS_SEND_END,1516066448992,86
44,WS_RECV_START,1516066448992,87
44,WS_RECV_END,1516066450204,87
44,PLAYER_SLEEPBEFORE_START,1516066450204,88
44,PLAYER_SLEEPBEFORE_END,1516066450225,88
44,WS_SEND_START,1516066450225,88
44,WS_SEND_END,1516066450225,88
44,WS_RECV_START,1516066450225,89
44,WS_RECV_END,1516066450927,89
44,PLAYER_SLEEPBEFORE_START,1516066450927,90
44,PLAYER_SLEEPBEFORE_END,1516066472356,90
44,WS_SEND_START,1516066472357,90
44,WS_SEND_END,1516066472357,90
44,PLAYER_SLEEPBEFORE_START,1516066472357,91
44,PLAYER_SLEEPBEFORE_END,1516066499212,91
44,WS_SEND_START,1516066499212,91
44,WS_SEND_END,1516066499212,91
44,WS_RECV_START,1516066499212,92
44,WS_RECV_END,1516066501235,92
44,PLAYER_SLEEPBEFORE_START,1516066501235,93
44,PLAYER_SLEEPBEFORE_END,1516066503509,93
44,WS_SEND_START,1516066503509,93
44,WS_SEND_END,1516066503510,93
44,WS_RECV_START,1516066503510,94
44,WS_RECV_END,1516066504655,94
44,PLAYER_SLEEPBEFORE_START,1516066504655,95
44,PLAYER_SLEEPBEFORE_END,1516066530651,95
44,WS_SEND_START,1516066530651,95
44,WS_SEND_END,1516066530651,95
44,WS_RECV_START,1516066530651,96
44,WS_RECV_END,1516066531879,96
44,PLAYER_SLEEPBEFORE_START,1516066531879,97
44,PLAYER_SLEEPBEFORE_END,1516066536967,97
44,WS_SEND_START,1516066536967,97
44,WS_SEND_END,1516066536967,97
44,WS_RECV_START,1516066536967,98
44,WS_RECV_END,1516066539239,98
44,PLAYER_SLEEPBEFORE_START,1516066539239,99
44,PLAYER_SLEEPBEFORE_END,1516066540939,99
44,WS_SEND_START,1516066540939,99
44,WS_SEND_END,1516066540939,99
44,WS_RECV_START,1516066540939,100
44,WS_RECV_END,1516066541913,100
44,PLAYER_SLEEPBEFORE_START,1516066541913,101
44,PLAYER_SLEEPBEFORE_END,1516066543752,101
44,WS_SEND_START,1516066543752,101
44,WS_SEND_END,1516066543752,101
44,WS_RECV_START,1516066543752,102
44,WS_RECV_END,1516066544086,102
44,PLAYER_SLEEPBEFORE_START,1516066544086,103
44,PLAYER_SLEEPBEFORE_END,1516066557136,103
44,WS_SEND_START,1516066557136,103
44,WS_SEND_END,1516066557136,103
44,PLAYER_SLEEPBEFORE_START,1516066557136,104
44,PLAYER_SLEEPBEFORE_END,1516066561562,104
44,WS_SEND_START,1516066561562,104
44,WS_SEND_END,1516066561562,104
44,WS_RECV_START,1516066561562,105
44,WS_RECV_END,1516066561869,105
44,PLAYER_SLEEPBEFORE_START,1516066561869,106
44,PLAYER_SLEEPBEFORE_END,1516066561878,106
44,WS_SEND_START,1516066561878,106
44,WS_SEND_END,1516066561878,106
44,WS_RECV_START,1516066561878,107
44,WS_RECV_END,1516066561975,107
44,PLAYER_SLEEPBEFORE_START,1516066561975,108
44,PLAYER_SLEEPBEFORE_END,1516066562439,108
44,WS_SEND_START,1516066562439,108
44,WS_SEND_END,1516066562439,108
44,WS_RECV_START,1516066562439,109
44,WS_RECV_END,1516066563614,109
44,PLAYER_SLEEPBEFORE_START,1516066563614,110
44,PLAYER_SLEEPBEFORE_END,1516066563629,110
44,WS_SEND_START,1516066563629,110
44,WS_SEND_END,1516066563629,110
44,WS_RECV_START,1516066563629,111
44,WS_RECV_END,1516066568575,111
44,PLAYER_SLEEPBEFORE_START,1516066568576,112
44,PLAYER_SLEEPBEFORE_END,1516066589340,112
44,WS_SEND_START,1516066589340,112
44,WS_SEND_END,1516066589340,112
44,PLAYER_SLEEPBEFORE_START,1516066589340,113
44,PLAYER_SLEEPBEFORE_END,1516066591734,113
44,WS_SEND_START,1516066591734,113
44,WS_SEND_END,1516066591734,113
44,WS_RECV_START,1516066591734,114
44,WS_RECV_END,1516066593379,114
44,PLAYER_SLEEPBEFORE_START,1516066593379,115
44,PLAYER_SLEEPBEFORE_END,1516066594161,115
44,WS_SEND_START,1516066594161,115
44,WS_SEND_END,1516066594161,115
44,WS_RECV_START,1516066594161,116
44,WS_RECV_END,1516066594588,116
44,PLAYER_SLEEPBEFORE_START,1516066594588,117
44,PLAYER_SLEEPBEFORE_END,1516066616973,117
44,WS_SEND_START,1516066616973,117
44,WS_SEND_END,1516066616973,117
44,WS_RECV_START,1516066616973,118
44,WS_RECV_END,1516066617795,118
44,PLAYER_SLEEPBEFORE_START,1516066617796,119
44,PLAYER_SLEEPBEFORE_END,1516066619700,119
44,WS_SEND_START,1516066619700,119
44,WS_SEND_END,1516066619700,119
44,WS_RECV_START,1516066619700,120
44,WS_RECV_END,1516066620520,120
44,PLAYER_SLEEPBEFORE_START,1516066620520,121
44,PLAYER_SLEEPBEFORE_END,1516066621672,121
44,WS_SEND_START,1516066621672,121
44,WS_SEND_END,1516066621672,121
44,WS_RECV_START,1516066621672,122
44,WS_RECV_END,1516066622004,122
44,PLAYER_SLEEPBEFORE_START,1516066622004,123
44,PLAYER_SLEEPBEFORE_END,1516066623128,123
44,WS_SEND_START,1516066623128,123
44,WS_SEND_END,1516066623128,123
44,WS_RECV_START,1516066623128,124
44,WS_RECV_END,1516066624035,124
44,PLAYER_SLEEPBEFORE_START,1516066624035,125
44,PLAYER_SLEEPBEFORE_END,1516066625532,125
44,WS_SEND_START,1516066625532,125
44,WS_SEND_END,1516066625532,125
44,WS_RECV_START,1516066625532,126
44,WS_RECV_END,1516066626320,126
44,PLAYER_SLEEPBEFORE_START,1516066626320,127
44,PLAYER_SLEEPBEFORE_END,1516066646930,127
44,WS_SEND_START,1516066646930,127
44,WS_SEND_END,1516066646930,127
44,WS_RECV_START,1516066646930,128
44,WS_RECV_END,1516066648832,128
44,PLAYER_SLEEPBEFORE_START,1516066648832,129
44,PLAYER_SLEEPBEFORE_END,1516066673863,129
44,WS_SEND_START,1516066673863,129
44,WS_SEND_END,1516066673863,129
44,PLAYER_SLEEPBEFORE_START,1516066673863,130
44,PLAYER_SLEEPBEFORE_END,1516066675843,130
44,WS_SEND_START,1516066675843,130
44,WS_SEND_END,1516066675843,130
44,WS_RECV_START,1516066675843,131
44,WS_RECV_END,1516066676960,131
44,PLAYER_SLEEPBEFORE_START,1516066676960,132
44,PLAYER_SLEEPBEFORE_END,1516066676969,132
44,WS_SEND_START,1516066676969,132
44,WS_SEND_END,1516066676969,132
44,WS_RECV_START,1516066676969,133
44,WS_RECV_END,1516066677094,133
44,PLAYER_SLEEPBEFORE_START,1516066677094,134
44,PLAYER_SLEEPBEFORE_END,1516066678171,134
44,REQ_START,1516066678171,134
44,REQ_END,1516066678179,134
44,PLAYER_SLEEPBEFORE_START,1516066678179,135
44,PLAYER_SLEEPBEFORE_END,1516066678769,135
44,WS_SEND_START,1516066678769,135
44,WS_SEND_END,1516066678769,135
44,WS_RECV_START,1516066678769,136
44,WS_RECV_END,1516066680117,136
44,PLAYER_SLEEPBEFORE_START,1516066680117,137
44,PLAYER_SLEEPBEFORE_END,1516066680130,137
44,WS_SEND_START,1516066680130,137
44,WS_SEND_END,1516066680130,137
44,WS_RECV_START,1516066680130,138
44,WS_RECV_END,1516066683750,138
44,PLAYER_SLEEPBEFORE_START,1516066683750,139
44,PLAYER_SLEEPBEFORE_END,1516066701424,139
44,WS_SEND_START,1516066701424,139
44,WS_SEND_END,1516066701424,139
44,PLAYER_SLEEPBEFORE_START,1516066701424,140
44,PLAYER_SLEEPBEFORE_END,1516066705327,140
44,WS_SEND_START,1516066705327,140
44,WS_SEND_END,1516066705327,140
44,PLAYER_SLEEPBEFORE_START,1516066705327,141
44,PLAYER_SLEEPBEFORE_END,1516066707620,141
44,WS_SEND_START,1516066707620,141
44,WS_SEND_END,1516066707620,141
44,WS_RECV_START,1516066707620,142
44,WS_RECV_END,1516066709769,142
44,PLAYER_SLEEPBEFORE_START,1516066709769,143
44,PLAYER_SLEEPBEFORE_END,1516066709777,143
44,WS_SEND_START,1516066709777,143
44,WS_SEND_END,1516066709777,143
44,WS_RECV_START,1516066709777,144
44,WS_RECV_END,1516066710298,144
44,PLAYER_SLEEPBEFORE_START,1516066710298,145
44,PLAYER_SLEEPBEFORE_END,1516066712042,145
44,WS_SEND_START,1516066712042,145
44,WS_SEND_END,1516066712042,145
44,WS_RECV_START,1516066712042,146
44,WS_RECV_END,1516066717580,146
44,PLAYER_SLEEPBEFORE_START,1516066717580,147
44,PLAYER_SLEEPBEFORE_END,1516066717589,147
44,WS_SEND_START,1516066717589,147
44,WS_SEND_END,1516066717589,147
44,WS_RECV_START,1516066717589,148
44,WS_RECV_END,1516066718449,148
44,PLAYER_SLEEPBEFORE_START,1516066718449,149
44,PLAYER_SLEEPBEFORE_END,1516066733562,149
44,WS_SEND_START,1516066733562,149
44,WS_SEND_END,1516066733562,149
44,PLAYER_SLEEPBEFORE_START,1516066733562,150
44,PLAYER_SLEEPBEFORE_END,1516066744240,150
44,WS_SEND_START,1516066744240,150
44,WS_SEND_END,1516066744240,150
44,PLAYER_SLEEPBEFORE_START,1516066744240,151
44,PLAYER_SLEEPBEFORE_END,1516066747231,151
44,WS_SEND_START,1516066747231,151
44,WS_SEND_END,1516066747231,151
44,WS_RECV_START,1516066747231,152
44,WS_RECV_END,1516066747366,152
44,PLAYER_SLEEPBEFORE_START,1516066747366,153
44,PLAYER_SLEEPBEFORE_END,1516066747373,153
44,WS_SEND_START,1516066747373,153
44,WS_SEND_END,1516066747373,153
44,WS_RECV_START,1516066747373,154
44,WS_RECV_END,1516066747414,154
44,PLAYER_SLEEPBEFORE_START,1516066747414,155
44,PLAYER_SLEEPBEFORE_END,1516066748022,155
44,WS_SEND_START,1516066748022,155
44,WS_SEND_END,1516066748022,155
44,WS_RECV_START,1516066748023,156
44,WS_RECV_END,1516066748119,156
44,PLAYER_SLEEPBEFORE_START,1516066748120,157
44,PLAYER_SLEEPBEFORE_END,1516066749463,157
44,WS_SEND_START,1516066749463,157
44,WS_SEND_END,1516066749463,157
44,WS_RECV_START,1516066749463,158
44,WS_RECV_END,1516066751125,158
44,PLAYER_SLEEPBEFORE_START,1516066751125,159
44,PLAYER_SLEEPBEFORE_END,1516066755025,159
44,WS_SEND_START,1516066755025,159
44,WS_SEND_END,1516066755025,159
44,WS_RECV_START,1516066755025,160
44,WS_RECV_END,1516066755452,160
44,PLAYER_SLEEPBEFORE_START,1516066755452,161
44,PLAYER_SLEEPBEFORE_END,1516066756235,161
44,WS_SEND_START,1516066756235,161
44,WS_SEND_END,1516066756235,161
44,WS_RECV_START,1516066756235,162
44,WS_RECV_END,1516066757872,162
44,PLAYER_SLEEPBEFORE_START,1516066757872,163
44,PLAYER_SLEEPBEFORE_END,1516066757881,163
44,WS_SEND_START,1516066757881,163
44,WS_SEND_END,1516066757881,163
44,WS_RECV_START,1516066757881,164
44,WS_RECV_END,1516066758242,164
44,PLAYER_SLEEPBEFORE_START,1516066758242,165
44,PLAYER_SLEEPBEFORE_END,1516066765615,165
44,WS_SEND_START,1516066765615,165
44,WS_SEND_END,1516066765615,165
44,WS_RECV_START,1516066765615,166
44,WS_RECV_END,1516066767648,166
44,PLAYER_SLEEPBEFORE_START,1516066767648,167
44,PLAYER_SLEEPBEFORE_END,1516066788897,167
44,WS_SEND_START,1516066788897,167
44,WS_SEND_END,1516066788897,167
44,PLAYER_SLEEPBEFORE_START,1516066788897,168
44,PLAYER_SLEEPBEFORE_END,1516066793632,168
44,WS_SEND_START,1516066793632,168
44,WS_SEND_END,1516066793632,168
44,PLAYER_SLEEPBEFORE_START,1516066793632,169
44,PLAYER_SLEEPBEFORE_END,1516066795184,169
44,WS_SEND_START,1516066795184,169
44,WS_SEND_END,1516066795184,169
44,WS_RECV_START,1516066795184,170
44,WS_RECV_END,1516066795406,170
44,PLAYER_SLEEPBEFORE_START,1516066795406,171
44,PLAYER_SLEEPBEFORE_END,1516066795413,171
44,WS_SEND_START,1516066795413,171
44,WS_SEND_END,1516066795413,171
44,WS_RECV_START,1516066795413,172
44,WS_RECV_END,1516066795470,172
44,PLAYER_SLEEPBEFORE_START,1516066795470,173
44,PLAYER_SLEEPBEFORE_END,1516066796238,173
44,WS_SEND_START,1516066796238,173
44,WS_SEND_END,1516066796238,173
44,WS_RECV_START,1516066796238,174
44,WS_RECV_END,1516066796345,174
44,PLAYER_SLEEPBEFORE_START,1516066796345,175
44,PLAYER_SLEEPBEFORE_END,1516066797105,175
44,WS_SEND_START,1516066797105,175
44,WS_SEND_END,1516066797105,175
44,WS_RECV_START,1516066797105,176
44,WS_RECV_END,1516066798513,176
44,PLAYER_SLEEPBEFORE_START,1516066798513,177
44,PLAYER_SLEEPBEFORE_END,1516066799313,177
44,WS_SEND_START,1516066799313,177
44,WS_SEND_END,1516066799313,177
44,WS_RECV_START,1516066799313,178
44,WS_RECV_END,1516066799807,178
44,PLAYER_SLEEPBEFORE_START,1516066799807,179
44,PLAYER_SLEEPBEFORE_END,1516066805061,179
44,WS_SEND_START,1516066805061,179
44,WS_SEND_END,1516066805061,179
44,PLAYER_SLEEPBEFORE_START,1516066805061,180
44,PLAYER_SLEEPBEFORE_END,1516066811680,180
44,WS_SEND_START,1516066811680,180
44,WS_SEND_END,1516066811680,180
44,PLAYER_SLEEPBEFORE_START,1516066811680,181
44,PLAYER_SLEEPBEFORE_END,1516066813416,181
44,WS_SEND_START,1516066813416,181
44,WS_SEND_END,1516066813416,181
44,WS_RECV_START,1516066813416,182
44,WS_RECV_END,1516066813890,182
44,PLAYER_SLEEPBEFORE_START,1516066813890,183
44,PLAYER_SLEEPBEFORE_END,1516066814627,183
44,WS_SEND_START,1516066814627,183
44,WS_SEND_END,1516066814627,183
44,WS_RECV_START,1516066814627,184
44,WS_RECV_END,1516066817792,184
44,PLAYER_SLEEPBEFORE_START,1516066817792,185
44,PLAYER_SLEEPBEFORE_END,1516066817805,185
44,WS_SEND_START,1516066817805,185
44,WS_SEND_END,1516066817805,185
44,WS_RECV_START,1516066817805,186
44,WS_RECV_END,1516066818622,186
44,PLAYER_SLEEPBEFORE_START,1516066818622,187
44,PLAYER_SLEEPBEFORE_END,1516066843630,187
44,WS_SEND_START,1516066843630,187
44,WS_SEND_END,1516066843630,187
44,WS_RECV_START,1516066843630,188
44,WS_RECV_END,1516066845218,188
44,PLAYER_SLEEPBEFORE_START,1516066845218,189
44,PLAYER_SLEEPBEFORE_END,1516066870441,189
44,WS_SEND_START,1516066870441,189
44,WS_SEND_END,1516066870441,189
44,WS_RECV_START,1516066870441,190
44,WS_RECV_END,1516066872671,190
44,PLAYER_SLEEPBEFORE_START,1516066872671,191
44,PLAYER_SLEEPBEFORE_END,1516066872676,191
44,WS_SEND_START,1516066872676,191
44,WS_SEND_END,1516066872676,191
44,WS_RECV_START,1516066872676,192
44,WS_RECV_END,1516066877670,192
44,PLAYER_SLEEPBEFORE_START,1516066877670,193
44,PLAYER_SLEEPBEFORE_END,1516066878107,193
44,WS_SEND_START,1516066878107,193
44,WS_SEND_END,1516066878107,193
44,WS_RECV_START,1516066878107,194
44,WS_RECV_END,1516066879821,194
44,PLAYER_SLEEPBEFORE_START,1516066879821,195
44,PLAYER_SLEEPBEFORE_END,1516066879834,195
44,WS_SEND_START,1516066879834,195
44,WS_SEND_END,1516066879835,195
44,WS_RECV_START,1516066879835,196
44,WS_RECV_END,1516066880523,196
44,PLAYER_SLEEPBEFORE_START,1516066880523,197
44,PLAYER_SLEEPBEFORE_END,1516066905294,197
44,WS_SEND_START,1516066905294,197
44,WS_SEND_END,1516066905294,197
44,WS_RECV_START,1516066905294,198
44,WS_RECV_END,1516066907036,198
44,PLAYER_SLEEPBEFORE_START,1516066907036,199
44,PLAYER_SLEEPBEFORE_END,1516066907043,199
44,WS_SEND_START,1516066907043,199
44,WS_SEND_END,1516066907043,199
44,WS_RECV_START,1516066907043,200
44,WS_RECV_END,1516066907318,200
44,PLAYER_SLEEPBEFORE_START,1516066907318,201
44,PLAYER_SLEEPBEFORE_END,1516066908615,201
44,WS_SEND_START,1516066908615,201
44,WS_SEND_END,1516066908615,201
44,WS_RECV_START,1516066908615,202
44,WS_RECV_END,1516066910856,202
44,PLAYER_SLEEPBEFORE_START,1516066910856,203
44,PLAYER_SLEEPBEFORE_END,1516066910868,203
44,WS_SEND_START,1516066910868,203
44,WS_SEND_END,1516066910869,203
44,WS_RECV_START,1516066910869,204
44,WS_RECV_END,1516066912023,204
44,PLAYER_SLEEPBEFORE_START,1516066912023,205
44,PLAYER_SLEEPBEFORE_END,1516066933654,205
44,WS_SEND_START,1516066933654,205
44,WS_SEND_END,1516066933654,205
44,WS_RECV_START,1516066933654,206
44,WS_RECV_END,1516066933862,206
44,PLAYER_SLEEPBEFORE_START,1516066933862,207
44,PLAYER_SLEEPBEFORE_END,1516066957985,207
44,WS_SEND_START,1516066957985,207
44,WS_SEND_END,1516066957985,207
44,WS_RECV_START,1516066957985,208
44,WS_RECV_END,1516066959614,208
44,PLAYER_SLEEPBEFORE_START,1516066959614,209
44,PLAYER_SLEEPBEFORE_END,1516066966028,209
44,WS_SEND_START,1516066966028,209
44,WS_SEND_END,1516066966028,209
44,WS_RECV_START,1516066966028,210
44,WS_RECV_END,1516066967112,210
44,PLAYER_SLEEPBEFORE_START,1516066967112,211
44,PLAYER_SLEEPBEFORE_END,1516066985945,211
44,WS_SEND_START,1516066985945,211
44,WS_SEND_END,1516066985945,211
44,WS_RECV_START,1516066985945,212
44,WS_RECV_END,1516066986535,212
44,PLAYER_SLEEPBEFORE_START,1516066986535,213
44,PLAYER_SLEEPBEFORE_END,1516067011589,213
44,WS_SEND_START,1516067011589,213
44,WS_SEND_END,1516067011589,213
44,WS_RECV_START,1516067011589,214
44,WS_RECV_END,1516067017774,214
44,PLAYER_SLEEPBEFORE_START,1516067017774,215
44,PLAYER_SLEEPBEFORE_END,1516067025885,215
44,REQ_START,1516067025885,215
44,REQ_END,1516067025894,215
44,PLAYER_SLEEPBEFORE_START,1516067025894,216
44,PLAYER_SLEEPBEFORE_END,1516067042455,216
44,WS_SEND_START,1516067042455,216
44,WS_SEND_END,1516067042455,216
44,WS_RECV_START,1516067042455,217
44,WS_RECV_END,1516067044522,217
44,PLAYER_SLEEPBEFORE_START,1516067044522,218
44,PLAYER_SLEEPBEFORE_END,1516067044529,218
44,WS_SEND_START,1516067044529,218
44,WS_SEND_END,1516067044529,218
44,WS_RECV_START,1516067044529,219
44,WS_RECV_END,1516067044710,219
44,PLAYER_SLEEPBEFORE_START,1516067044710,220
44,PLAYER_SLEEPBEFORE_END,1516067045478,220
44,WS_SEND_START,1516067045478,220
44,WS_SEND_END,1516067045478,220
44,WS_RECV_START,1516067045478,221
44,WS_RECV_END,1516067050228,221
44,PLAYER_SLEEPBEFORE_START,1516067050228,222
44,PLAYER_SLEEPBEFORE_END,1516067050285,222
44,WS_SEND_START,1516067050285,222
44,WS_SEND_END,1516067050285,222
44,WS_RECV_START,1516067050285,223
44,WS_RECV_END,1516067052392,223
44,PLAYER_SLEEPBEFORE_START,1516067052392,224
44,PLAYER_SLEEPBEFORE_END,1516067075048,224
44,WS_SEND_START,1516067075048,224
44,WS_SEND_END,1516067075048,224
44,WS_RECV_START,1516067075048,225
44,WS_RECV_END,1516067075239,225
44,PLAYER_SLEEPBEFORE_START,1516067075239,226
44,PLAYER_SLEEPBEFORE_END,1516067100975,226
44,WS_SEND_START,1516067100975,226
44,WS_SEND_END,1516067100975,226
44,WS_RECV_START,1516067100975,227
44,WS_RECV_END,1516067101206,227
44,PLAYER_SLEEPBEFORE_START,1516067101206,228
44,PLAYER_SLEEPBEFORE_END,1516067124199,228
44,WS_SEND_START,1516067124200,228
44,WS_SEND_END,1516067124200,228
44,WS_RECV_START,1516067124200,229
44,WS_RECV_END,1516067126932,229
44,PLAYER_SLEEPBEFORE_START,1516067126932,230
44,PLAYER_SLEEPBEFORE_END,1516067151148,230
44,WS_SEND_START,1516067151148,230
44,WS_SEND_END,1516067151148,230
44,WS_RECV_START,1516067151148,231
44,WS_RECV_END,1516067151378,231
44,PLAYER_SLEEPBEFORE_START,1516067151378,232
44,PLAYER_SLEEPBEFORE_END,1516067176134,232
44,WS_SEND_START,1516067176134,232
44,WS_SEND_END,1516067176134,232
44,WS_RECV_START,1516067176134,233
44,WS_RECV_END,1516067178295,233
44,PLAYER_SLEEPBEFORE_START,1516067178295,234
44,PLAYER_SLEEPBEFORE_END,1516067205329,234
44,WS_SEND_START,1516067205329,234
44,WS_SEND_END,1516067205329,234
44,WS_RECV_START,1516067205329,235
44,WS_RECV_END,1516067205452,235
44,PLAYER_SLEEPBEFORE_START,1516067205452,236
44,PLAYER_SLEEPBEFORE_END,1516067229292,236
44,WS_SEND_START,1516067229292,236
44,WS_SEND_END,1516067229292,236
44,WS_RECV_START,1516067229292,237
44,WS_RECV_END,1516067233589,237
44,PLAYER_SLEEPBEFORE_START,1516067233589,238
44,PLAYER_SLEEPBEFORE_END,1516067246399,238
44,WS_SEND_START,1516067246399,238
44,WS_SEND_END,1516067246399,238
44,WS_RECV_START,1516067246399,239
44,WS_RECV_END,1516067246597,239
44,PLAYER_SLEEPBEFORE_START,1516067246597,240
44,PLAYER_SLEEPBEFORE_END,1516067259252,240
44,WS_SEND_START,1516067259252,240
44,WS_SEND_END,1516067259252,240
44,WS_RECV_START,1516067259252,241
44,WS_RECV_END,1516067263451,241
44,PLAYER_SLEEPBEFORE_START,1516067263451,242
44,PLAYER_SLEEPBEFORE_END,1516067263475,242
44,WS_SEND_START,1516067263475,242
44,WS_SEND_END,1516067263475,242
44,WS_RECV_START,1516067263475,243
44,WS_RECV_END,1516067263881,243
44,PLAYER_SLEEPBEFORE_START,1516067263881,244
44,PLAYER_SLEEPBEFORE_END,1516067286119,244
44,WS_SEND_START,1516067286119,244
44,WS_SEND_END,1516067286119,244
44,WS_RECV_START,1516067286119,245
44,WS_RECV_END,1516067286226,245
44,PLAYER_SLEEPBEFORE_START,1516067286226,246
44,PLAYER_SLEEPBEFORE_END,1516067286235,246
44,WS_SEND_START,1516067286235,246
44,WS_SEND_END,1516067286235,246
44,WS_RECV_START,1516067286235,247
44,WS_RECV_END,1516067286498,247
44,PLAYER_SLEEPBEFORE_START,1516067286498,248
44,PLAYER_SLEEPBEFORE_END,1516067288535,248
44,WS_SEND_START,1516067288535,248
44,WS_SEND_END,1516067288535,248
44,WS_RECV_START,1516067288535,249
44,WS_RECV_END,1516067291026,249
44,PLAYER_SLEEPBEFORE_START,1516067291026,250
44,PLAYER_SLEEPBEFORE_END,1516067291063,250
44,WS_SEND_START,1516067291063,250
44,WS_SEND_END,1516067291063,250
44,WS_RECV_START,1516067291063,251
44,WS_RECV_END,1516067294188,251
44,PLAYER_SLEEPBEFORE_START,1516067294188,252
44,PLAYER_SLEEPBEFORE_END,1516067316830,252
44,WS_SEND_START,1516067316830,252
44,WS_SEND_END,1516067316831,252
44,WS_RECV_START,1516067316831,253
44,WS_RECV_END,1516067320155,253
44,PLAYER_SLEEPBEFORE_START,1516067320155,254
44,PLAYER_SLEEPBEFORE_END,1516067320171,254
44,WS_SEND_START,1516067320171,254
44,WS_SEND_END,1516067320171,254
44,WS_RECV_START,1516067320171,255
44,WS_RECV_END,1516067323915,255
44,PLAYER_SLEEPBEFORE_START,1516067323915,256
44,PLAYER_SLEEPBEFORE_END,1516067348537,256
44,WS_SEND_START,1516067348537,256
44,WS_SEND_END,1516067348537,256
44,WS_RECV_START,1516067348537,257
44,WS_RECV_END,1516067349626,257
44,PLAYER_SLEEPBEFORE_START,1516067349626,258
44,PLAYER_SLEEPBEFORE_END,1516067349635,258
44,WS_SEND_START,1516067349635,258
44,WS_SEND_END,1516067349635,258
44,WS_RECV_START,1516067349635,259
44,WS_RECV_END,1516067349677,259
44,PLAYER_SLEEPBEFORE_START,1516067349677,260
44,PLAYER_SLEEPBEFORE_END,1516067350201,260
44,WS_SEND_START,1516067350201,260
44,WS_SEND_END,1516067350202,260
44,WS_RECV_START,1516067350202,261
44,WS_RECV_END,1516067350302,261
44,PLAYER_SLEEPBEFORE_START,1516067350302,262
44,PLAYER_SLEEPBEFORE_END,1516067350574,262
44,WS_SEND_START,1516067350574,262
44,WS_SEND_END,1516067350574,262
44,WS_RECV_START,1516067350574,263
44,WS_RECV_END,1516067351704,263
44,PLAYER_SLEEPBEFORE_START,1516067351704,264
44,PLAYER_SLEEPBEFORE_END,1516067354117,264
44,WS_SEND_START,1516067354117,264
44,WS_SEND_END,1516067354117,264
44,WS_RECV_START,1516067354117,265
44,WS_RECV_END,1516067356735,265
44,PLAYER_SLEEPBEFORE_START,1516067356735,266
44,PLAYER_SLEEPBEFORE_END,1516067356747,266
44,WS_SEND_START,1516067356747,266
44,WS_SEND_END,1516067356747,266
44,WS_RECV_START,1516067356748,267
44,WS_RECV_END,1516067356971,267
44,PLAYER_SLEEPBEFORE_START,1516067356971,268
44,PLAYER_SLEEPBEFORE_END,1516067358441,268
44,REQ_START,1516067358441,268
44,REQ_END,1516067358451,268
44,PLAYER_SLEEPBEFORE_START,1516067358451,269
44,PLAYER_SLEEPBEFORE_END,1516067375846,269
44,WS_SEND_START,1516067375846,269
44,WS_SEND_END,1516067375846,269
44,WS_RECV_START,1516067375846,270
44,WS_RECV_END,1516067377174,270
44,PLAYER_SLEEPBEFORE_START,1516067377174,271
44,PLAYER_SLEEPBEFORE_END,1516067377181,271
44,WS_SEND_START,1516067377181,271
44,WS_SEND_END,1516067377181,271
44,WS_RECV_START,1516067377181,272
44,WS_RECV_END,1516067379637,272
44,PLAYER_SLEEPBEFORE_START,1516067379638,273
44,PLAYER_SLEEPBEFORE_END,1516067380935,273
44,WS_SEND_START,1516067380935,273
44,WS_SEND_END,1516067380935,273
44,WS_RECV_START,1516067380935,274
44,WS_RECV_END,1516067383837,274
44,PLAYER_SLEEPBEFORE_START,1516067383837,275
44,PLAYER_SLEEPBEFORE_END,1516067385010,275
44,WS_SEND_START,1516067385010,275
44,WS_SEND_END,1516067385010,275
44,WS_RECV_START,1516067385010,276
44,WS_RECV_END,1516067387114,276
44,PLAYER_SLEEPBEFORE_START,1516067387114,277
44,PLAYER_SLEEPBEFORE_END,1516067387136,277
44,WS_SEND_START,1516067387136,277
44,WS_SEND_END,1516067387136,277
44,WS_RECV_START,1516067387136,278
44,WS_RECV_END,1516067388973,278
44,PLAYER_SLEEPBEFORE_START,1516067388973,279
44,PLAYER_SLEEPBEFORE_END,1516067413497,279
44,WS_SEND_START,1516067413497,279
44,WS_SEND_END,1516067413497,279
44,WS_RECV_START,1516067413497,280
44,WS_RECV_END,1516067416735,280
44,PLAYER_SLEEPBEFORE_START,1516067416735,281
44,PLAYER_SLEEPBEFORE_END,1516067439023,281
44,WS_SEND_START,1516067439023,281
44,WS_SEND_END,1516067439023,281
44,WS_RECV_START,1516067439023,282
44,WS_RECV_END,1516067444603,282
44,PLAYER_SLEEPBEFORE_START,1516067444603,283
44,PLAYER_SLEEPBEFORE_END,1516067444621,283
44,WS_SEND_START,1516067444621,283
44,WS_SEND_END,1516067444621,283
44,WS_RECV_START,1516067444621,284
44,WS_RECV_END,1516067448257,284
44,PLAYER_SLEEPBEFORE_START,1516067448257,285
44,PLAYER_SLEEPBEFORE_END,1516067472388,285
44,WS_SEND_START,1516067472388,285
44,WS_SEND_END,1516067472388,285
44,WS_RECV_START,1516067472388,286
44,WS_RECV_END,1516067477599,286
44,PLAYER_SLEEPBEFORE_START,1516067477599,287
44,PLAYER_SLEEPBEFORE_END,1516067500753,287
44,WS_SEND_START,1516067500753,287
44,WS_SEND_END,1516067500753,287
44,WS_RECV_START,1516067500753,288
44,WS_RECV_END,1516067507246,288
44,PLAYER_SLEEPBEFORE_START,1516067507246,289
44,PLAYER_SLEEPBEFORE_END,1516067507269,289
44,WS_SEND_START,1516067507269,289
44,WS_SEND_END,1516067507269,289
44,WS_RECV_START,1516067507269,290
44,WS_RECV_END,1516067511207,290
44,PLAYER_SLEEPBEFORE_START,1516067511207,291
44,PLAYER_SLEEPBEFORE_END,1516067521821,291
44,WS_SEND_START,1516067521821,291
44,WS_SEND_END,1516067521821,291
44,WS_RECV_START,1516067521821,292
44,WS_RECV_END,1516067529389,292
44,PLAYER_SLEEPBEFORE_START,1516067529389,293
44,PLAYER_SLEEPBEFORE_END,1516067545145,293
44,WS_SEND_START,1516067545145,293
44,WS_SEND_END,1516067545145,293
44,WS_RECV_START,1516067545145,294
44,WS_RECV_END,1516067555342,294
44,PLAYER_SLEEPBEFORE_START,1516067555342,295
44,PLAYER_SLEEPBEFORE_END,1516067555367,295
44,WS_SEND_START,1516067555367,295
44,WS_SEND_END,1516067555367,295
44,WS_RECV_START,1516067555367,296
44,WS_RECV_END,1516067561646,296
44,PLAYER_SLEEPBEFORE_START,1516067561646,297
44,PLAYER_SLEEPBEFORE_END,1516067583144,297
44,WS_SEND_START,1516067583144,297
44,WS_SEND_END,1516067583144,297
44,WS_RECV_START,1516067583144,298
44,WS_RECV_END,1516067589918,298
44,PLAYER_SLEEPBEFORE_START,1516067589918,299
44,PLAYER_SLEEPBEFORE_END,1516067589929,299
44,WS_SEND_START,1516067589929,299
44,WS_SEND_END,1516067589929,299
44,WS_RECV_START,1516067589929,300
44,WS_RECV_END,1516067592109,300
44,PLAYER_SLEEPBEFORE_START,1516067592109,301
44,PLAYER_SLEEPBEFORE_END,1516067594469,301
44,WS_SEND_START,1516067594469,301
44,WS_SEND_END,1516067594469,301
44,WS_RECV_START,1516067594469,302
44,WS_RECV_END,1516067598507,302
44,PLAYER_SLEEPBEFORE_START,1516067598507,303
44,PLAYER_SLEEPBEFORE_END,1516067598534,303
44,WS_SEND_START,1516067598534,303
44,WS_SEND_END,1516067598534,303
44,WS_RECV_START,1516067598534,304
44,WS_RECV_END,1516067605995,304
44,PLAYER_SLEEPBEFORE_START,1516067605995,305
44,PLAYER_SLEEPBEFORE_END,1516067630985,305
44,WS_SEND_START,1516067630985,305
44,WS_SEND_END,1516067630985,305
44,WS_RECV_START,1516067630985,306
44,WS_RECV_END,1516067635435,306
44,PLAYER_SLEEPBEFORE_START,1516067635435,307
44,PLAYER_SLEEPBEFORE_END,1516067659310,307
44,WS_SEND_START,1516067659310,307
44,WS_SEND_END,1516067659310,307
44,WS_RECV_START,1516067659310,308
44,WS_RECV_END,1516067666572,308
44,PLAYER_SLEEPBEFORE_START,1516067666572,309
44,PLAYER_SLEEPBEFORE_END,1516067688263,309
44,WS_SEND_START,1516067688263,309
44,WS_SEND_END,1516067688263,309
44,WS_RECV_START,1516067688263,310
44,WS_RECV_END,1516067692512,310
44,PLAYER_SLEEPBEFORE_START,1516067692512,311
44,PLAYER_SLEEPBEFORE_END,1516067721339,311
44,WS_SEND_START,1516067721339,311
44,WS_SEND_END,1516067721339,311
44,WS_RECV_START,1516067721339,312
44,WS_RECV_END,1516067724985,312
44,PLAYER_SLEEPBEFORE_START,1516067724985,313
44,PLAYER_SLEEPBEFORE_END,1516067725006,313
44,WS_SEND_START,1516067725006,313
44,WS_SEND_END,1516067725006,313
44,WS_RECV_START,1516067725006,314
44,WS_RECV_END,1516067727408,314
44,PLAYER_SLEEPBEFORE_START,1516067727408,315
44,PLAYER_SLEEPBEFORE_END,1516067748995,315
44,WS_SEND_START,1516067748995,315
44,WS_SEND_END,1516067748995,315
44,WS_RECV_START,1516067748995,316
44,WS_RECV_END,1516067759249,316
44,PLAYER_SLEEPBEFORE_START,1516067759249,317
44,PLAYER_SLEEPBEFORE_END,1516067759258,317
44,WS_SEND_START,1516067759258,317
44,WS_SEND_END,1516067759258,317
44,WS_RECV_START,1516067759258,318
44,WS_RECV_END,1516067763109,318
44,PLAYER_SLEEPBEFORE_START,1516067763109,319
44,PLAYER_SLEEPBEFORE_END,1516067763441,319
44,WS_SEND_START,1516067763441,319
44,WS_SEND_END,1516067763441,319
44,WS_RECV_START,1516067763441,320
44,WS_RECV_END,1516067769062,320
44,PLAYER_SLEEPBEFORE_START,1516067769062,321
44,PLAYER_SLEEPBEFORE_END,1516067769081,321
44,WS_SEND_START,1516067769081,321
44,WS_SEND_END,1516067769081,321
44,WS_RECV_START,1516067769081,322
44,WS_RECV_END,1516067769984,322
44,PLAYER_SLEEPBEFORE_START,1516067769984,323
44,PLAYER_SLEEPBEFORE_END,1516067774377,323
44,REQ_START,1516067774377,323
44,REQ_END,1516067774385,323
44,PLAYER_SLEEPBEFORE_START,1516067774385,324
44,PLAYER_SLEEPBEFORE_END,1516067794271,324
44,WS_SEND_START,1516067794271,324
44,WS_SEND_END,1516067794271,324
44,WS_RECV_START,1516067794271,325
44,WS_RECV_END,1516067797280,325
44,PLAYER_SLEEPBEFORE_START,1516067797280,326
44,PLAYER_SLEEPBEFORE_END,1516067797289,326
44,WS_SEND_START,1516067797289,326
44,WS_SEND_END,1516067797289,326
44,WS_RECV_START,1516067797289,327
44,WS_RECV_END,1516067799613,327
44,PLAYER_SLEEPBEFORE_START,1516067799613,328
44,PLAYER_SLEEPBEFORE_END,1516067799974,328
44,WS_SEND_START,1516067799974,328
44,WS_SEND_END,1516067799974,328
44,WS_RECV_START,1516067799974,329
44,WS_RECV_END,1516067804782,329
44,PLAYER_SLEEPBEFORE_START,1516067804782,330
44,PLAYER_SLEEPBEFORE_END,1516067805128,330
44,WS_SEND_START,1516067805128,330
44,WS_SEND_END,1516067805128,330
44,WS_RECV_START,1516067805128,331
44,WS_RECV_END,1516067811284,331
44,PLAYER_SLEEPBEFORE_START,1516067811284,332
44,PLAYER_SLEEPBEFORE_END,1516067812131,332
44,WS_SEND_START,1516067812131,332
44,WS_SEND_END,1516067812131,332
44,WS_RECV_START,1516067812131,333
44,WS_RECV_END,1516067816261,333
44,PLAYER_SLEEPBEFORE_START,1516067816261,334
44,PLAYER_SLEEPBEFORE_END,1516067816658,334
44,WS_SEND_START,1516067816658,334
44,WS_SEND_END,1516067816658,334
44,WS_RECV_START,1516067816658,335
44,WS_RECV_END,1516067822070,335
44,PLAYER_SLEEPBEFORE_START,1516067822070,336
44,PLAYER_SLEEPBEFORE_END,1516067822394,336
44,WS_SEND_START,1516067822394,336
44,WS_SEND_END,1516067822394,336
44,WS_RECV_START,1516067822394,337
44,WS_RECV_END,1516067832800,337
44,PLAYER_SLEEPBEFORE_START,1516067832800,338
44,PLAYER_SLEEPBEFORE_END,1516067832815,338
44,WS_SEND_START,1516067832815,338
44,WS_SEND_END,1516067832815,338
44,WS_RECV_START,1516067832815,339
44,WS_RECV_END,1516067837480,339
44,PLAYER_SLEEPBEFORE_START,1516067837480,340
44,PLAYER_SLEEPBEFORE_END,1516067855452,340
44,WS_SEND_START,1516067855452,340
44,WS_SEND_END,1516067855452,340
44,WS_RECV_START,1516067855452,341
44,WS_RECV_END,1516067861299,341
44,PLAYER_SLEEPBEFORE_START,1516067861299,342
44,PLAYER_SLEEPBEFORE_END,1516067861308,342
44,WS_SEND_START,1516067861308,342
44,WS_SEND_END,1516067861308,342
44,WS_RECV_START,1516067861308,343
44,WS_RECV_END,1516067863508,343
44,PLAYER_SLEEPBEFORE_START,1516067863509,344
44,PLAYER_SLEEPBEFORE_END,1516067865821,344
44,WS_SEND_START,1516067865821,344
44,WS_SEND_END,1516067865821,344
44,WS_RECV_START,1516067865821,345
44,WS_RECV_END,1516067878278,345
44,PLAYER_SLEEPBEFORE_START,1516067878278,346
44,PLAYER_SLEEPBEFORE_END,1516067878289,346
44,WS_SEND_START,1516067878289,346
44,WS_SEND_END,1516067878289,346
44,WS_RECV_START,1516067878289,347
44,WS_RECV_END,1516067883474,347
44,PLAYER_SLEEPBEFORE_START,1516067883474,348
44,PLAYER_SLEEPBEFORE_END,1516067904081,348
44,WS_SEND_START,1516067904081,348
44,WS_SEND_END,1516067904081,348
44,WS_RECV_START,1516067904081,349
44,WS_RECV_END,1516067911186,349
44,PLAYER_SLEEPBEFORE_START,1516067911186,350
44,PLAYER_SLEEPBEFORE_END,1516067911194,350
44,WS_SEND_START,1516067911194,350
44,WS_SEND_END,1516067911194,350
44,WS_RECV_START,1516067911194,351
44,WS_RECV_END,1516067913833,351
44,PLAYER_SLEEPBEFORE_START,1516067913833,352
44,PLAYER_SLEEPBEFORE_END,1516067915019,352
44,WS_SEND_START,1516067915019,352
44,WS_SEND_END,1516067915019,352
44,WS_RECV_START,1516067915019,353
44,WS_RECV_END,1516067920822,353
44,PLAYER_SLEEPBEFORE_START,1516067920822,354
44,PLAYER_SLEEPBEFORE_END,1516067920838,354
44,WS_SEND_START,1516067920838,354
44,WS_SEND_END,1516067920838,354
44,WS_RECV_START,1516067920838,355
44,WS_RECV_END,1516067928948,355
44,PLAYER_SLEEPBEFORE_START,1516067928948,356
44,PLAYER_SLEEPBEFORE_END,1516067928994,356
44,WS_SEND_START,1516067928994,356
44,WS_SEND_END,1516067928994,356
44,WS_RECV_START,1516067928994,357
44,WS_RECV_END,1516067933219,357
44,PLAYER_SLEEPBEFORE_START,1516067933219,358
44,PLAYER_SLEEPBEFORE_END,1516067933234,358
44,WS_SEND_START,1516067933234,358
44,WS_SEND_END,1516067933234,358
44,WS_RECV_START,1516067933234,359
44,WS_RECV_END,1516067938642,359
44,PLAYER_SLEEPBEFORE_START,1516067938643,360
44,PLAYER_SLEEPBEFORE_END,1516067959109,360
44,WS_SEND_START,1516067959109,360
44,WS_SEND_END,1516067959109,360
44,WS_RECV_START,1516067959109,361
44,WS_RECV_END,1516067966656,361
44,PLAYER_SLEEPBEFORE_START,1516067966656,362
44,PLAYER_SLEEPBEFORE_END,1516067966665,362
44,WS_SEND_START,1516067966665,362
44,WS_SEND_END,1516067966665,362
44,WS_RECV_START,1516067966665,363
44,WS_RECV_END,1516067970369,363
44,PLAYER_SLEEPBEFORE_START,1516067970369,364
44,PLAYER_SLEEPBEFORE_END,1516067972460,364
44,WS_SEND_START,1516067972460,364
44,WS_SEND_END,1516067972460,364
44,WS_RECV_START,1516067972460,365
44,WS_RECV_END,1516067978953,365
44,PLAYER_SLEEPBEFORE_START,1516067978953,366
44,PLAYER_SLEEPBEFORE_END,1516067978963,366
44,WS_SEND_START,1516067978963,366
44,WS_SEND_END,1516067978963,366
44,WS_RECV_START,1516067978963,367
44,WS_RECV_END,1516067985982,367
44,PLAYER_SLEEPBEFORE_START,1516067985982,368
44,PLAYER_SLEEPBEFORE_END,1516068009442,368
44,WS_SEND_START,1516068009442,368
44,WS_SEND_END,1516068009442,368
44,WS_RECV_START,1516068009442,369
44,WS_RECV_END,1516068016046,369
44,PLAYER_SLEEPBEFORE_START,1516068016046,370
44,PLAYER_SLEEPBEFORE_END,1516068016054,370
44,WS_SEND_START,1516068016054,370
44,WS_SEND_END,1516068016054,370
44,WS_RECV_START,1516068016054,371
44,WS_RECV_END,1516068023556,371
44,PLAYER_SLEEPBEFORE_START,1516068023556,372
44,PLAYER_SLEEPBEFORE_END,1516068023928,372
44,WS_SEND_START,1516068023928,372
44,WS_SEND_END,1516068023929,372
44,WS_RECV_START,1516068023929,373
44,WS_RECV_END,1516068027722,373
44,PLAYER_SLEEPBEFORE_START,1516068027722,374
44,PLAYER_SLEEPBEFORE_END,1516068028424,374
44,WS_SEND_START,1516068028424,374
44,WS_SEND_END,1516068028424,374
44,WS_RECV_START,1516068028424,375
44,WS_RECV_END,1516068033376,375
44,PLAYER_SLEEPBEFORE_START,1516068033376,376
44,PLAYER_SLEEPBEFORE_END,1516068033727,376
44,WS_SEND_START,1516068033727,376
44,WS_SEND_END,1516068033727,376
44,WS_RECV_START,1516068033727,377
44,WS_RECV_END,1516068042812,377
44,PLAYER_SLEEPBEFORE_START,1516068042812,378
44,PLAYER_SLEEPBEFORE_END,1516068042832,378
44,WS_SEND_START,1516068042832,378
44,WS_SEND_END,1516068042832,378
44,WS_RECV_START,1516068042832,379
44,WS_RECV_END,1516068049716,379
44,PLAYER_SLEEPBEFORE_START,1516068049716,380
44,PLAYER_SLEEPBEFORE_END,1516068070208,380
44,WS_SEND_START,1516068070208,380
44,WS_SEND_END,1516068070208,380
44,PLAYER_SLEEPBEFORE_START,1516068070208,381
44,PLAYER_SLEEPBEFORE_END,1516068074422,381
44,WS_SEND_START,1516068074422,381
44,WS_SEND_END,1516068074422,381
44,WS_RECV_START,1516068074422,382
44,WS_RECV_END,1516068077207,382
44,PLAYER_SLEEPBEFORE_START,1516068077207,383
44,PLAYER_SLEEPBEFORE_END,1516068097408,383
44,WS_SEND_START,1516068097408,383
44,WS_SEND_END,1516068097408,383
44,PLAYER_SLEEPBEFORE_START,1516068097408,384
44,PLAYER_SLEEPBEFORE_END,1516068100594,384
44,WS_SEND_START,1516068100594,384
44,WS_SEND_END,1516068100594,384
44,WS_RECV_START,1516068100594,385
44,WS_RECV_END,1516068103404,385
44,PLAYER_SLEEPBEFORE_START,1516068103404,386
44,PLAYER_SLEEPBEFORE_END,1516068103419,386
44,WS_SEND_START,1516068103419,386
44,WS_SEND_END,1516068103419,386
44,WS_RECV_START,1516068103419,387
44,WS_RECV_END,1516068109422,387
44,PLAYER_SLEEPBEFORE_START,1516068109422,388
44,PLAYER_SLEEPBEFORE_END,1516068129952,388
44,WS_SEND_START,1516068129952,388
44,WS_SEND_END,1516068129952,388
44,PLAYER_SLEEPBEFORE_START,1516068129952,389
44,PLAYER_SLEEPBEFORE_END,1516068132172,389
44,WS_SEND_START,1516068132172,389
44,WS_SEND_END,1516068132172,389
44,WS_RECV_START,1516068132172,390
44,WS_RECV_END,1516068138231,390
44,PLAYER_SLEEPBEFORE_START,1516068138231,391
44,PLAYER_SLEEPBEFORE_END,1516068161068,391
44,WS_SEND_START,1516068161068,391
44,WS_SEND_END,1516068161068,391
44,WS_RECV_START,1516068161068,392
44,WS_RECV_END,1516068166498,392
44,PLAYER_SLEEPBEFORE_START,1516068166498,393
44,PLAYER_SLEEPBEFORE_END,1516068191187,393
44,WS_SEND_START,1516068191187,393
44,WS_SEND_END,1516068191187,393
44,PLAYER_SLEEPBEFORE_START,1516068191187,394
44,PLAYER_SLEEPBEFORE_END,1516068193160,394
44,WS_SEND_START,1516068193160,394
44,WS_SEND_END,1516068193160,394
44,WS_RECV_START,1516068193160,395
44,WS_RECV_END,1516068195414,395
44,PLAYER_SLEEPBEFORE_START,1516068195414,396
44,PLAYER_SLEEPBEFORE_END,1516068195421,396
44,WS_SEND_START,1516068195421,396
44,WS_SEND_END,1516068195421,396
44,WS_RECV_START,1516068195421,397
44,WS_RECV_END,1516068205416,397
44,PLAYER_SLEEPBEFORE_START,1516068205416,398
44,PLAYER_SLEEPBEFORE_END,1516068205596,398
44,WS_SEND_START,1516068205596,398
44,WS_SEND_END,1516068205596,398
44,WS_RECV_START,1516068205596,399
44,WS_RECV_END,1516068208225,399
44,PLAYER_SLEEPBEFORE_START,1516068208225,400
44,PLAYER_SLEEPBEFORE_END,1516068209300,400
44,WS_SEND_START,1516068209300,400
44,WS_SEND_END,1516068209300,400
44,WS_RECV_START,1516068209300,401
44,WS_RECV_END,1516068212795,401
44,PLAYER_SLEEPBEFORE_START,1516068212795,402
44,PLAYER_SLEEPBEFORE_END,1516068214154,402
44,WS_SEND_START,1516068214154,402
44,WS_SEND_END,1516068214154,402
44,WS_RECV_START,1516068214154,403
44,WS_RECV_END,1516068217319,403
44,PLAYER_SLEEPBEFORE_START,1516068217319,404
44,PLAYER_SLEEPBEFORE_END,1516068217789,404
44,WS_SEND_START,1516068217789,404
44,WS_SEND_END,1516068217789,404
44,WS_RECV_START,1516068217789,405
44,WS_RECV_END,1516068218107,405
44,PLAYER_SLEEPBEFORE_START,1516068218107,406
44,PLAYER_SLEEPBEFORE_END,1516068220834,406
44,WS_SEND_START,1516068220834,406
44,WS_SEND_END,1516068220834,406
44,WS_RECV_START,1516068220835,407
44,WS_RECV_END,1516068226266,407
44,PLAYER_SLEEPBEFORE_START,1516068226266,408
44,PLAYER_SLEEPBEFORE_END,1516068226595,408
44,WS_SEND_START,1516068226595,408
44,WS_SEND_END,1516068226595,408
44,WS_RECV_START,1516068226595,409
44,WS_RECV_END,1516068230351,409
44,PLAYER_SLEEPBEFORE_START,1516068230351,410
44,PLAYER_SLEEPBEFORE_END,1516068231376,410
44,WS_SEND_START,1516068231376,410
44,WS_SEND_END,1516068231376,410
44,WS_RECV_START,1516068231376,411
44,WS_RECV_END,1516068232541,411
44,PLAYER_SLEEPBEFORE_START,1516068232541,412
44,PLAYER_SLEEPBEFORE_END,1516068233197,412
44,WS_SEND_START,1516068233197,412
44,WS_SEND_END,1516068233197,412
44,WS_RECV_START,1516068233197,413
44,WS_RECV_END,1516068236483,413
44,PLAYER_SLEEPBEFORE_START,1516068236483,414
44,PLAYER_SLEEPBEFORE_END,1516068236499,414
44,WS_SEND_START,1516068236499,414
44,WS_SEND_END,1516068236499,414
44,WS_RECV_START,1516068236499,415
44,WS_RECV_END,1516068240087,415
44,PLAYER_SLEEPBEFORE_START,1516068240087,416
44,PLAYER_SLEEPBEFORE_END,1516068254355,416
44,WS_SEND_START,1516068254355,416
44,WS_SEND_END,1516068254355,416
44,PLAYER_SLEEPBEFORE_START,1516068254355,417
44,PLAYER_SLEEPBEFORE_END,1516068283034,417
44,WS_SEND_START,1516068283034,417
44,WS_SEND_END,1516068283034,417
44,WS_RECV_START,1516068283034,418
44,WS_RECV_END,1516068284357,418
44,PLAYER_SLEEPBEFORE_START,1516068284357,419
44,PLAYER_SLEEPBEFORE_END,1516068289179,419
44,REQ_START,1516068289179,419
44,REQ_END,1516068289187,419
44,PLAYER_SLEEPBEFORE_START,1516068289187,420
44,PLAYER_SLEEPBEFORE_END,1516068307932,420
44,WS_CLOSE_START,1516068307932,420
44,WS_CLOSE_END,1516068307932,420
44,PLAYER_DONE,1516068307932
