# --sessions 90 --app-url=http://shinyloadtest.rstudioservices.com/ --output-dir test90 --overwrite-output --log-level warn --start-interval 1500 30min.log
thread_id,event,timestamp,input_line_number,comment
55,PLAYER_SESSION_CREATE,1516036942510
55,PLAYER_START_INTERVAL_START,1516036942510
55,PLAYER_START_INTERVAL_END,1516037025010
55,REQ_HOME_START,1516037025010,2
55,REQ_HOME_END,1516037025178,2
55,REQ_START,1516037025178,3
55,REQ_END,1516037025208,3
55,REQ_START,1516037025208,4
55,REQ_END,1516037025402,4
55,REQ_START,1516037025402,5
55,REQ_END,1516037025436,5
55,REQ_START,1516037025436,6
55,REQ_END,1516037025468,6
55,REQ_START,1516037025468,7
55,REQ_END,1516037025499,7
55,REQ_START,1516037025499,8
55,REQ_END,1516037025531,8
55,REQ_START,1516037025531,9
55,REQ_END,1516037025563,9
55,REQ_START,1516037025563,10
55,REQ_END,1516037025570,10
55,REQ_START,1516037025570,11
55,REQ_END,1516037025600,11
55,REQ_START,1516037025600,12
55,REQ_END,1516037025630,12
55,REQ_START,1516037025630,13
55,REQ_END,1516037025639,13
55,REQ_START,1516037025639,14
55,REQ_END,1516037025652,14
55,REQ_START,1516037025652,15
55,REQ_END,1516037025685,15
55,REQ_TOK_START,1516037025685,16
55,REQ_TOK_END,1516037025692,16
55,REQ_SINF_START,1516037025692,17
55,REQ_SINF_END,1516037025698,17
55,WS_OPEN_START,1516037025698,18
55,WS_OPEN_END,1516037025704,18
55,WS_RECV_START,1516037025705,19
55,WS_RECV_END,1516037025706,19
55,PLAYER_SLEEPBEFORE_START,1516037025706,20
55,PLAYER_SLEEPBEFORE_END,1516037025712,20
55,WS_SEND_START,1516037025712,20
55,WS_SEND_END,1516037025712,20
55,PLAYER_SLEEPBEFORE_START,1516037025712,21
55,PLAYER_SLEEPBEFORE_END,1516037025713,21
55,WS_SEND_START,1516037025713,21
55,WS_SEND_END,1516037025713,21
55,WS_RECV_INIT_START,1516037025713,22
55,WS_RECV_INIT_END,1516037025730,22
55,WS_RECV_START,1516037025730,23
55,WS_RECV_END,1516037025795,23
55,PLAYER_SLEEPBEFORE_START,1516037025795,24
55,PLAYER_SLEEPBEFORE_END,1516037025802,24
55,REQ_START,1516037025802,24
55,REQ_END,1516037025835,24
55,PLAYER_SLEEPBEFORE_START,1516037025835,25
55,PLAYER_SLEEPBEFORE_END,1516037025837,25
55,REQ_START,1516037025837,25
55,REQ_END,1516037025910,25
55,PLAYER_SLEEPBEFORE_START,1516037025910,26
55,PLAYER_SLEEPBEFORE_END,1516037025913,26
55,REQ_START,1516037025913,26
55,REQ_END,1516037025950,26
55,PLAYER_SLEEPBEFORE_START,1516037025950,27
55,PLAYER_SLEEPBEFORE_END,1516037026206,27
55,REQ_START,1516037026206,27
55,REQ_END,1516037026255,27
55,PLAYER_SLEEPBEFORE_START,1516037026255,28
55,PLAYER_SLEEPBEFORE_END,1516037026453,28
55,WS_SEND_START,1516037026453,28
55,WS_SEND_END,1516037026453,28
55,WS_RECV_START,1516037026453,29
55,WS_RECV_END,1516037026633,29
55,PLAYER_SLEEPBEFORE_START,1516037026633,30
55,PLAYER_SLEEPBEFORE_END,1516037026644,30
55,REQ_START,1516037026644,30
55,REQ_END,1516037026677,30
55,PLAYER_SLEEPBEFORE_START,1516037026677,31
55,PLAYER_SLEEPBEFORE_END,1516037056797,31
55,WS_SEND_START,1516037056797,31
55,WS_SEND_END,1516037056797,31
55,WS_RECV_START,1516037056797,32
55,WS_RECV_END,1516037057308,32
55,PLAYER_SLEEPBEFORE_START,1516037057308,33
55,PLAYER_SLEEPBEFORE_END,1516037082074,33
55,WS_SEND_START,1516037082074,33
55,WS_SEND_END,1516037082074,33
55,WS_RECV_START,1516037082074,34
55,WS_RECV_END,1516037082222,34
55,PLAYER_SLEEPBEFORE_START,1516037082222,35
55,PLAYER_SLEEPBEFORE_END,1516037107035,35
55,WS_SEND_START,1516037107035,35
55,WS_SEND_END,1516037107036,35
55,WS_RECV_START,1516037107036,36
55,WS_RECV_END,1516037107090,36
55,PLAYER_SLEEPBEFORE_START,1516037107090,37
55,PLAYER_SLEEPBEFORE_END,1516037107099,37
55,WS_SEND_START,1516037107099,37
55,WS_SEND_END,1516037107099,37
55,WS_RECV_START,1516037107099,38
55,WS_RECV_END,1516037107260,38
55,PLAYER_SLEEPBEFORE_START,1516037107260,39
55,PLAYER_SLEEPBEFORE_END,1516037109958,39
55,WS_SEND_START,1516037109958,39
55,WS_SEND_END,1516037109958,39
55,WS_RECV_START,1516037109958,40
55,WS_RECV_END,1516037110024,40
55,PLAYER_SLEEPBEFORE_START,1516037110024,41
55,PLAYER_SLEEPBEFORE_END,1516037111143,41
55,WS_SEND_START,1516037111143,41
55,WS_SEND_END,1516037111143,41
55,WS_RECV_START,1516037111143,42
55,WS_RECV_END,1516037112034,42
55,PLAYER_SLEEPBEFORE_START,1516037112034,43
55,PLAYER_SLEEPBEFORE_END,1516037112062,43
55,WS_SEND_START,1516037112062,43
55,WS_SEND_END,1516037112062,43
55,WS_RECV_START,1516037112062,44
55,WS_RECV_END,1516037112171,44
55,PLAYER_SLEEPBEFORE_START,1516037112171,45
55,PLAYER_SLEEPBEFORE_END,1516037133660,45
55,WS_SEND_START,1516037133660,45
55,WS_SEND_END,1516037133660,45
55,WS_RECV_START,1516037133660,46
55,WS_RECV_END,1516037133810,46
55,PLAYER_SLEEPBEFORE_START,1516037133810,47
55,PLAYER_SLEEPBEFORE_END,1516037162295,47
55,WS_SEND_START,1516037162295,47
55,WS_SEND_END,1516037162295,47
55,WS_RECV_START,1516037162295,48
55,WS_RECV_END,1516037162487,48
55,PLAYER_SLEEPBEFORE_START,1516037162487,49
55,PLAYER_SLEEPBEFORE_END,1516037188896,49
55,WS_SEND_START,1516037188896,49
55,WS_SEND_END,1516037188896,49
55,WS_RECV_START,1516037188896,50
55,WS_RECV_END,1516037189011,50
55,PLAYER_SLEEPBEFORE_START,1516037189011,51
55,PLAYER_SLEEPBEFORE_END,1516037211562,51
55,WS_SEND_START,1516037211562,51
55,WS_SEND_END,1516037211562,51
55,WS_RECV_START,1516037211562,52
55,WS_RECV_END,1516037211678,52
55,PLAYER_SLEEPBEFORE_START,1516037211678,53
55,PLAYER_SLEEPBEFORE_END,1516037236583,53
55,WS_SEND_START,1516037236583,53
55,WS_SEND_END,1516037236583,53
55,WS_RECV_START,1516037236583,54
55,WS_RECV_END,1516037236687,54
55,PLAYER_SLEEPBEFORE_START,1516037236687,55
55,PLAYER_SLEEPBEFORE_END,1516037262088,55
55,WS_SEND_START,1516037262088,55
55,WS_SEND_END,1516037262088,55
55,WS_RECV_START,1516037262088,56
55,WS_RECV_END,1516037262278,56
55,PLAYER_SLEEPBEFORE_START,1516037262278,57
55,PLAYER_SLEEPBEFORE_END,1516037287616,57
55,WS_SEND_START,1516037287616,57
55,WS_SEND_END,1516037287617,57
55,WS_RECV_START,1516037287617,58
55,WS_RECV_END,1516037287729,58
55,PLAYER_SLEEPBEFORE_START,1516037287729,59
55,PLAYER_SLEEPBEFORE_END,1516037314586,59
55,WS_SEND_START,1516037314586,59
55,WS_SEND_END,1516037314586,59
55,WS_RECV_START,1516037314586,60
55,WS_RECV_END,1516037315487,60
55,PLAYER_SLEEPBEFORE_START,1516037315487,61
55,PLAYER_SLEEPBEFORE_END,1516037315510,61
55,WS_SEND_START,1516037315510,61
55,WS_SEND_END,1516037315510,61
55,WS_RECV_START,1516037315510,62
55,WS_RECV_END,1516037316320,62
55,PLAYER_SLEEPBEFORE_START,1516037316320,63
55,PLAYER_SLEEPBEFORE_END,1516037325324,63
55,REQ_START,1516037325324,63
55,REQ_END,1516037325332,63
55,PLAYER_SLEEPBEFORE_START,1516037325332,64
55,PLAYER_SLEEPBEFORE_END,1516037339539,64
55,WS_SEND_START,1516037339539,64
55,WS_SEND_END,1516037339539,64
55,WS_RECV_START,1516037339539,65
55,WS_RECV_END,1516037341454,65
55,PLAYER_SLEEPBEFORE_START,1516037341454,66
55,PLAYER_SLEEPBEFORE_END,1516037365441,66
55,WS_SEND_START,1516037365441,66
55,WS_SEND_END,1516037365441,66
55,WS_RECV_START,1516037365441,67
55,WS_RECV_END,1516037366398,67
55,PLAYER_SLEEPBEFORE_START,1516037366398,68
55,PLAYER_SLEEPBEFORE_END,1516037391972,68
55,WS_SEND_START,1516037391972,68
55,WS_SEND_END,1516037391972,68
55,WS_RECV_START,1516037391972,69
55,WS_RECV_END,1516037392028,69
55,PLAYER_SLEEPBEFORE_START,1516037392028,70
55,PLAYER_SLEEPBEFORE_END,1516037392037,70
55,WS_SEND_START,1516037392037,70
55,WS_SEND_END,1516037392037,70
55,WS_RECV_START,1516037392037,71
55,WS_RECV_END,1516037392079,71
55,PLAYER_SLEEPBEFORE_START,1516037392079,72
55,PLAYER_SLEEPBEFORE_END,1516037392284,72
55,WS_SEND_START,1516037392284,72
55,WS_SEND_END,1516037392284,72
55,WS_RECV_START,1516037392284,73
55,WS_RECV_END,1516037392336,73
55,PLAYER_SLEEPBEFORE_START,1516037392336,74
55,PLAYER_SLEEPBEFORE_END,1516037393758,74
55,WS_SEND_START,1516037393758,74
55,WS_SEND_END,1516037393758,74
55,WS_RECV_START,1516037393758,75
55,WS_RECV_END,1516037393808,75
55,PLAYER_SLEEPBEFORE_START,1516037393808,76
55,PLAYER_SLEEPBEFORE_END,1516037394303,76
55,WS_SEND_START,1516037394303,76
55,WS_SEND_END,1516037394304,76
55,WS_RECV_START,1516037394304,77
55,WS_RECV_END,1516037395737,77
55,PLAYER_SLEEPBEFORE_START,1516037395737,78
55,PLAYER_SLEEPBEFORE_END,1516037395755,78
55,WS_SEND_START,1516037395755,78
55,WS_SEND_END,1516037395755,78
55,WS_RECV_START,1516037395755,79
55,WS_RECV_END,1516037395865,79
55,PLAYER_SLEEPBEFORE_START,1516037395865,80
55,PLAYER_SLEEPBEFORE_END,1516037416599,80
55,WS_SEND_START,1516037416599,80
55,WS_SEND_END,1516037416599,80
55,WS_RECV_START,1516037416599,81
55,WS_RECV_END,1516037416653,81
55,PLAYER_SLEEPBEFORE_START,1516037416653,82
55,PLAYER_SLEEPBEFORE_END,1516037416664,82
55,WS_SEND_START,1516037416664,82
55,WS_SEND_END,1516037416664,82
55,WS_RECV_START,1516037416664,83
55,WS_RECV_END,1516037416707,83
55,PLAYER_SLEEPBEFORE_START,1516037416707,84
55,PLAYER_SLEEPBEFORE_END,1516037417570,84
55,WS_SEND_START,1516037417570,84
55,WS_SEND_END,1516037417570,84
55,WS_RECV_START,1516037417570,85
55,WS_RECV_END,1516037418263,85
55,PLAYER_SLEEPBEFORE_START,1516037418263,86
55,PLAYER_SLEEPBEFORE_END,1516037418990,86
55,WS_SEND_START,1516037418991,86
55,WS_SEND_END,1516037418991,86
55,WS_RECV_START,1516037418991,87
55,WS_RECV_END,1516037420068,87
55,PLAYER_SLEEPBEFORE_START,1516037420068,88
55,PLAYER_SLEEPBEFORE_END,1516037420089,88
55,WS_SEND_START,1516037420089,88
55,WS_SEND_END,1516037420089,88
55,WS_RECV_START,1516037420089,89
55,WS_RECV_END,1516037420188,89
55,PLAYER_SLEEPBEFORE_START,1516037420188,90
55,PLAYER_SLEEPBEFORE_END,1516037441617,90
55,WS_SEND_START,1516037441617,90
55,WS_SEND_END,1516037441617,90
55,PLAYER_SLEEPBEFORE_START,1516037441617,91
55,PLAYER_SLEEPBEFORE_END,1516037468473,91
55,WS_SEND_START,1516037468473,91
55,WS_SEND_END,1516037468473,91
55,WS_RECV_START,1516037468473,92
55,WS_RECV_END,1516037470053,92
55,PLAYER_SLEEPBEFORE_START,1516037470053,93
55,PLAYER_SLEEPBEFORE_END,1516037472328,93
55,WS_SEND_START,1516037472328,93
55,WS_SEND_END,1516037472328,93
55,WS_RECV_START,1516037472328,94
55,WS_RECV_END,1516037472434,94
55,PLAYER_SLEEPBEFORE_START,1516037472434,95
55,PLAYER_SLEEPBEFORE_END,1516037498430,95
55,WS_SEND_START,1516037498430,95
55,WS_SEND_END,1516037498430,95
55,WS_RECV_START,1516037498430,96
55,WS_RECV_END,1516037498582,96
55,PLAYER_SLEEPBEFORE_START,1516037498582,97
55,PLAYER_SLEEPBEFORE_END,1516037503670,97
55,WS_SEND_START,1516037503670,97
55,WS_SEND_END,1516037503670,97
55,WS_RECV_START,1516037503670,98
55,WS_RECV_END,1516037503953,98
55,PLAYER_SLEEPBEFORE_START,1516037503953,99
55,PLAYER_SLEEPBEFORE_END,1516037505653,99
55,WS_SEND_START,1516037505653,99
55,WS_SEND_END,1516037505653,99
55,WS_RECV_START,1516037505653,100
55,WS_RECV_END,1516037506287,100
55,PLAYER_SLEEPBEFORE_START,1516037506288,101
55,PLAYER_SLEEPBEFORE_END,1516037508127,101
55,WS_SEND_START,1516037508127,101
55,WS_SEND_END,1516037508127,101
55,WS_RECV_START,1516037508127,102
55,WS_RECV_END,1516037508279,102
55,PLAYER_SLEEPBEFORE_START,1516037508279,103
55,PLAYER_SLEEPBEFORE_END,1516037521329,103
55,WS_SEND_START,1516037521329,103
55,WS_SEND_END,1516037521329,103
55,PLAYER_SLEEPBEFORE_START,1516037521329,104
55,PLAYER_SLEEPBEFORE_END,1516037525757,104
55,WS_SEND_START,1516037525757,104
55,WS_SEND_END,1516037525757,104
55,WS_RECV_START,1516037525757,105
55,WS_RECV_END,1516037525813,105
55,PLAYER_SLEEPBEFORE_START,1516037525813,106
55,PLAYER_SLEEPBEFORE_END,1516037525822,106
55,WS_SEND_START,1516037525822,106
55,WS_SEND_END,1516037525822,106
55,WS_RECV_START,1516037525822,107
55,WS_RECV_END,1516037525863,107
55,PLAYER_SLEEPBEFORE_START,1516037525863,108
55,PLAYER_SLEEPBEFORE_END,1516037526327,108
55,WS_SEND_START,1516037526327,108
55,WS_SEND_END,1516037526327,108
55,WS_RECV_START,1516037526327,109
55,WS_RECV_END,1516037527036,109
55,PLAYER_SLEEPBEFORE_START,1516037527036,110
55,PLAYER_SLEEPBEFORE_END,1516037527052,110
55,WS_SEND_START,1516037527052,110
55,WS_SEND_END,1516037527052,110
55,WS_RECV_START,1516037527052,111
55,WS_RECV_END,1516037527970,111
55,PLAYER_SLEEPBEFORE_START,1516037527970,112
55,PLAYER_SLEEPBEFORE_END,1516037548734,112
55,WS_SEND_START,1516037548734,112
55,WS_SEND_END,1516037548734,112
55,PLAYER_SLEEPBEFORE_START,1516037548734,113
55,PLAYER_SLEEPBEFORE_END,1516037551128,113
55,WS_SEND_START,1516037551128,113
55,WS_SEND_END,1516037551128,113
55,WS_RECV_START,1516037551128,114
55,WS_RECV_END,1516037551285,114
55,PLAYER_SLEEPBEFORE_START,1516037551285,115
55,PLAYER_SLEEPBEFORE_END,1516037552068,115
55,WS_SEND_START,1516037552068,115
55,WS_SEND_END,1516037552068,115
55,WS_RECV_START,1516037552068,116
55,WS_RECV_END,1516037552231,116
55,PLAYER_SLEEPBEFORE_START,1516037552231,117
55,PLAYER_SLEEPBEFORE_END,1516037574616,117
55,WS_SEND_START,1516037574616,117
55,WS_SEND_END,1516037574616,117
55,WS_RECV_START,1516037574616,118
55,WS_RECV_END,1516037574793,118
55,PLAYER_SLEEPBEFORE_START,1516037574793,119
55,PLAYER_SLEEPBEFORE_END,1516037576697,119
55,WS_SEND_START,1516037576697,119
55,WS_SEND_END,1516037576697,119
55,WS_RECV_START,1516037576697,120
55,WS_RECV_END,1516037577723,120
55,PLAYER_SLEEPBEFORE_START,1516037577723,121
55,PLAYER_SLEEPBEFORE_END,1516037578875,121
55,WS_SEND_START,1516037578875,121
55,WS_SEND_END,1516037578875,121
55,WS_RECV_START,1516037578875,122
55,WS_RECV_END,1516037579157,122
55,PLAYER_SLEEPBEFORE_START,1516037579157,123
55,PLAYER_SLEEPBEFORE_END,1516037580281,123
55,WS_SEND_START,1516037580281,123
55,WS_SEND_END,1516037580281,123
55,WS_RECV_START,1516037580281,124
55,WS_RECV_END,1516037580519,124
55,PLAYER_SLEEPBEFORE_START,1516037580519,125
55,PLAYER_SLEEPBEFORE_END,1516037582015,125
55,WS_SEND_START,1516037582015,125
55,WS_SEND_END,1516037582015,125
55,WS_RECV_START,1516037582015,126
55,WS_RECV_END,1516037582220,126
55,PLAYER_SLEEPBEFORE_START,1516037582220,127
55,PLAYER_SLEEPBEFORE_END,1516037602830,127
55,WS_SEND_START,1516037602830,127
55,WS_SEND_END,1516037602830,127
55,WS_RECV_START,1516037602830,128
55,WS_RECV_END,1516037602999,128
55,PLAYER_SLEEPBEFORE_START,1516037602999,129
55,PLAYER_SLEEPBEFORE_END,1516037628031,129
55,WS_SEND_START,1516037628031,129
55,WS_SEND_END,1516037628031,129
55,PLAYER_SLEEPBEFORE_START,1516037628031,130
55,PLAYER_SLEEPBEFORE_END,1516037630011,130
55,WS_SEND_START,1516037630011,130
55,WS_SEND_END,1516037630011,130
55,WS_RECV_START,1516037630011,131
55,WS_RECV_END,1516037630065,131
55,PLAYER_SLEEPBEFORE_START,1516037630065,132
55,PLAYER_SLEEPBEFORE_END,1516037630074,132
55,WS_SEND_START,1516037630074,132
55,WS_SEND_END,1516037630074,132
55,WS_RECV_START,1516037630074,133
55,WS_RECV_END,1516037630264,133
55,PLAYER_SLEEPBEFORE_START,1516037630264,134
55,PLAYER_SLEEPBEFORE_END,1516037631340,134
55,REQ_START,1516037631340,134
55,REQ_END,1516037631348,134
55,PLAYER_SLEEPBEFORE_START,1516037631348,135
55,PLAYER_SLEEPBEFORE_END,1516037631938,135
55,WS_SEND_START,1516037631938,135
55,WS_SEND_END,1516037631938,135
55,WS_RECV_START,1516037631938,136
55,WS_RECV_END,1516037632500,136
55,PLAYER_SLEEPBEFORE_START,1516037632500,137
55,PLAYER_SLEEPBEFORE_END,1516037632513,137
55,WS_SEND_START,1516037632513,137
55,WS_SEND_END,1516037632513,137
55,WS_RECV_START,1516037632513,138
55,WS_RECV_END,1516037633656,138
55,PLAYER_SLEEPBEFORE_START,1516037633656,139
55,PLAYER_SLEEPBEFORE_END,1516037651330,139
55,WS_SEND_START,1516037651330,139
55,WS_SEND_END,1516037651330,139
55,PLAYER_SLEEPBEFORE_START,1516037651331,140
55,PLAYER_SLEEPBEFORE_END,1516037655234,140
55,WS_SEND_START,1516037655234,140
55,WS_SEND_END,1516037655234,140
55,PLAYER_SLEEPBEFORE_START,1516037655234,141
55,PLAYER_SLEEPBEFORE_END,1516037657526,141
55,WS_SEND_START,1516037657526,141
55,WS_SEND_END,1516037657526,141
55,WS_RECV_START,1516037657526,142
55,WS_RECV_END,1516037657582,142
55,PLAYER_SLEEPBEFORE_START,1516037657582,143
55,PLAYER_SLEEPBEFORE_END,1516037657590,143
55,WS_SEND_START,1516037657590,143
55,WS_SEND_END,1516037657590,143
55,WS_RECV_START,1516037657590,144
55,WS_RECV_END,1516037657632,144
55,PLAYER_SLEEPBEFORE_START,1516037657632,145
55,PLAYER_SLEEPBEFORE_END,1516037659375,145
55,WS_SEND_START,1516037659375,145
55,WS_SEND_END,1516037659375,145
55,WS_RECV_START,1516037659375,146
55,WS_RECV_END,1516037660020,146
55,PLAYER_SLEEPBEFORE_START,1516037660020,147
55,PLAYER_SLEEPBEFORE_END,1516037660029,147
55,WS_SEND_START,1516037660029,147
55,WS_SEND_END,1516037660029,147
55,WS_RECV_START,1516037660029,148
55,WS_RECV_END,1516037660274,148
55,PLAYER_SLEEPBEFORE_START,1516037660274,149
55,PLAYER_SLEEPBEFORE_END,1516037675387,149
55,WS_SEND_START,1516037675387,149
55,WS_SEND_END,1516037675387,149
55,PLAYER_SLEEPBEFORE_START,1516037675387,150
55,PLAYER_SLEEPBEFORE_END,1516037686062,150
55,WS_SEND_START,1516037686062,150
55,WS_SEND_END,1516037686062,150
55,PLAYER_SLEEPBEFORE_START,1516037686062,151
55,PLAYER_SLEEPBEFORE_END,1516037689054,151
55,WS_SEND_START,1516037689054,151
55,WS_SEND_END,1516037689054,151
55,WS_RECV_START,1516037689054,152
55,WS_RECV_END,1516037689129,152
55,PLAYER_SLEEPBEFORE_START,1516037689129,153
55,PLAYER_SLEEPBEFORE_END,1516037689136,153
55,WS_SEND_START,1516037689136,153
55,WS_SEND_END,1516037689136,153
55,WS_RECV_START,1516037689136,154
55,WS_RECV_END,1516037689196,154
55,PLAYER_SLEEPBEFORE_START,1516037689196,155
55,PLAYER_SLEEPBEFORE_END,1516037689804,155
55,WS_SEND_START,1516037689804,155
55,WS_SEND_END,1516037689804,155
55,WS_RECV_START,1516037689804,156
55,WS_RECV_END,1516037689856,156
55,PLAYER_SLEEPBEFORE_START,1516037689856,157
55,PLAYER_SLEEPBEFORE_END,1516037691199,157
55,WS_SEND_START,1516037691199,157
55,WS_SEND_END,1516037691199,157
55,WS_RECV_START,1516037691199,158
55,WS_RECV_END,1516037693164,158
55,PLAYER_SLEEPBEFORE_START,1516037693164,159
55,PLAYER_SLEEPBEFORE_END,1516037697064,159
55,WS_SEND_START,1516037697064,159
55,WS_SEND_END,1516037697064,159
55,WS_RECV_START,1516037697064,160
55,WS_RECV_END,1516037697114,160
55,PLAYER_SLEEPBEFORE_START,1516037697114,161
55,PLAYER_SLEEPBEFORE_END,1516037697897,161
55,WS_SEND_START,1516037697897,161
55,WS_SEND_END,1516037697897,161
55,WS_RECV_START,1516037697897,162
55,WS_RECV_END,1516037698884,162
55,PLAYER_SLEEPBEFORE_START,1516037698884,163
55,PLAYER_SLEEPBEFORE_END,1516037698893,163
55,WS_SEND_START,1516037698893,163
55,WS_SEND_END,1516037698893,163
55,WS_RECV_START,1516037698893,164
55,WS_RECV_END,1516037699683,164
55,PLAYER_SLEEPBEFORE_START,1516037699683,165
55,PLAYER_SLEEPBEFORE_END,1516037707056,165
55,WS_SEND_START,1516037707056,165
55,WS_SEND_END,1516037707056,165
55,WS_RECV_START,1516037707056,166
55,WS_RECV_END,1516037707813,166
55,PLAYER_SLEEPBEFORE_START,1516037707813,167
55,PLAYER_SLEEPBEFORE_END,1516037729062,167
55,WS_SEND_START,1516037729062,167
55,WS_SEND_END,1516037729062,167
55,PLAYER_SLEEPBEFORE_START,1516037729062,168
55,PLAYER_SLEEPBEFORE_END,1516037733798,168
55,WS_SEND_START,1516037733798,168
55,WS_SEND_END,1516037733798,168
55,PLAYER_SLEEPBEFORE_START,1516037733798,169
55,PLAYER_SLEEPBEFORE_END,1516037735349,169
55,WS_SEND_START,1516037735349,169
55,WS_SEND_END,1516037735349,169
55,WS_RECV_START,1516037735349,170
55,WS_RECV_END,1516037735897,170
55,PLAYER_SLEEPBEFORE_START,1516037735897,171
55,PLAYER_SLEEPBEFORE_END,1516037735904,171
55,WS_SEND_START,1516037735904,171
55,WS_SEND_END,1516037735904,171
55,WS_RECV_START,1516037735904,172
55,WS_RECV_END,1516037736628,172
55,PLAYER_SLEEPBEFORE_START,1516037736628,173
55,PLAYER_SLEEPBEFORE_END,1516037737396,173
55,WS_SEND_START,1516037737396,173
55,WS_SEND_END,1516037737396,173
55,WS_RECV_START,1516037737396,174
55,WS_RECV_END,1516037738094,174
55,PLAYER_SLEEPBEFORE_START,1516037738094,175
55,PLAYER_SLEEPBEFORE_END,1516037738855,175
55,WS_SEND_START,1516037738855,175
55,WS_SEND_END,1516037738855,175
55,WS_RECV_START,1516037738855,176
55,WS_RECV_END,1516037738913,176
55,PLAYER_SLEEPBEFORE_START,1516037738913,177
55,PLAYER_SLEEPBEFORE_END,1516037739713,177
55,WS_SEND_START,1516037739713,177
55,WS_SEND_END,1516037739713,177
55,WS_RECV_START,1516037739713,178
55,WS_RECV_END,1516037739810,178
55,PLAYER_SLEEPBEFORE_START,1516037739810,179
55,PLAYER_SLEEPBEFORE_END,1516037745065,179
55,WS_SEND_START,1516037745065,179
55,WS_SEND_END,1516037745065,179
55,PLAYER_SLEEPBEFORE_START,1516037745065,180
55,PLAYER_SLEEPBEFORE_END,1516037751683,180
55,WS_SEND_START,1516037751683,180
55,WS_SEND_END,1516037751683,180
55,PLAYER_SLEEPBEFORE_START,1516037751683,181
55,PLAYER_SLEEPBEFORE_END,1516037753419,181
55,WS_SEND_START,1516037753419,181
55,WS_SEND_END,1516037753419,181
55,WS_RECV_START,1516037753419,182
55,WS_RECV_END,1516037753999,182
55,PLAYER_SLEEPBEFORE_START,1516037753999,183
55,PLAYER_SLEEPBEFORE_END,1516037754736,183
55,WS_SEND_START,1516037754736,183
55,WS_SEND_END,1516037754736,183
55,WS_RECV_START,1516037754736,184
55,WS_RECV_END,1516037756033,184
55,PLAYER_SLEEPBEFORE_START,1516037756033,185
55,PLAYER_SLEEPBEFORE_END,1516037756046,185
55,WS_SEND_START,1516037756046,185
55,WS_SEND_END,1516037756046,185
55,WS_RECV_START,1516037756046,186
55,WS_RECV_END,1516037757459,186
55,PLAYER_SLEEPBEFORE_START,1516037757459,187
55,PLAYER_SLEEPBEFORE_END,1516037782466,187
55,WS_SEND_START,1516037782466,187
55,WS_SEND_END,1516037782466,187
55,WS_RECV_START,1516037782466,188
55,WS_RECV_END,1516037782574,188
55,PLAYER_SLEEPBEFORE_START,1516037782574,189
55,PLAYER_SLEEPBEFORE_END,1516037807798,189
55,WS_SEND_START,1516037807798,189
55,WS_SEND_END,1516037807798,189
55,WS_RECV_START,1516037807798,190
55,WS_RECV_END,1516037807852,190
55,PLAYER_SLEEPBEFORE_START,1516037807852,191
55,PLAYER_SLEEPBEFORE_END,1516037807857,191
55,WS_SEND_START,1516037807857,191
55,WS_SEND_END,1516037807857,191
55,WS_RECV_START,1516037807857,192
55,WS_RECV_END,1516037807900,192
55,PLAYER_SLEEPBEFORE_START,1516037807900,193
55,PLAYER_SLEEPBEFORE_END,1516037808337,193
55,WS_SEND_START,1516037808337,193
55,WS_SEND_END,1516037808337,193
55,WS_RECV_START,1516037808337,194
55,WS_RECV_END,1516037809036,194
55,PLAYER_SLEEPBEFORE_START,1516037809036,195
55,PLAYER_SLEEPBEFORE_END,1516037809049,195
55,WS_SEND_START,1516037809049,195
55,WS_SEND_END,1516037809049,195
55,WS_RECV_START,1516037809049,196
55,WS_RECV_END,1516037811014,196
55,PLAYER_SLEEPBEFORE_START,1516037811014,197
55,PLAYER_SLEEPBEFORE_END,1516037835784,197
55,WS_SEND_START,1516037835784,197
55,WS_SEND_END,1516037835784,197
55,WS_RECV_START,1516037835784,198
55,WS_RECV_END,1516037835841,198
55,PLAYER_SLEEPBEFORE_START,1516037835841,199
55,PLAYER_SLEEPBEFORE_END,1516037835848,199
55,WS_SEND_START,1516037835848,199
55,WS_SEND_END,1516037835848,199
55,WS_RECV_START,1516037835848,200
55,WS_RECV_END,1516037835888,200
55,PLAYER_SLEEPBEFORE_START,1516037835888,201
55,PLAYER_SLEEPBEFORE_END,1516037837185,201
55,WS_SEND_START,1516037837185,201
55,WS_SEND_END,1516037837185,201
55,WS_RECV_START,1516037837185,202
55,WS_RECV_END,1516037839033,202
55,PLAYER_SLEEPBEFORE_START,1516037839033,203
55,PLAYER_SLEEPBEFORE_END,1516037839045,203
55,WS_SEND_START,1516037839045,203
55,WS_SEND_END,1516037839045,203
55,WS_RECV_START,1516037839045,204
55,WS_RECV_END,1516037839698,204
55,PLAYER_SLEEPBEFORE_START,1516037839698,205
55,PLAYER_SLEEPBEFORE_END,1516037861329,205
55,WS_SEND_START,1516037861329,205
55,WS_SEND_END,1516037861329,205
55,WS_RECV_START,1516037861329,206
55,WS_RECV_END,1516037861439,206
55,PLAYER_SLEEPBEFORE_START,1516037861439,207
55,PLAYER_SLEEPBEFORE_END,1516037885562,207
55,WS_SEND_START,1516037885562,207
55,WS_SEND_END,1516037885562,207
55,WS_RECV_START,1516037885562,208
55,WS_RECV_END,1516037887868,208
55,PLAYER_SLEEPBEFORE_START,1516037887868,209
55,PLAYER_SLEEPBEFORE_END,1516037894282,209
55,WS_SEND_START,1516037894282,209
55,WS_SEND_END,1516037894282,209
55,WS_RECV_START,1516037894282,210
55,WS_RECV_END,1516037894399,210
55,PLAYER_SLEEPBEFORE_START,1516037894399,211
55,PLAYER_SLEEPBEFORE_END,1516037913231,211
55,WS_SEND_START,1516037913231,211
55,WS_SEND_END,1516037913231,211
55,WS_RECV_START,1516037913231,212
55,WS_RECV_END,1516037913353,212
55,PLAYER_SLEEPBEFORE_START,1516037913353,213
55,PLAYER_SLEEPBEFORE_END,1516037938407,213
55,WS_SEND_START,1516037938407,213
55,WS_SEND_END,1516037938407,213
55,WS_RECV_START,1516037938407,214
55,WS_RECV_END,1516037938518,214
55,PLAYER_SLEEPBEFORE_START,1516037938518,215
55,PLAYER_SLEEPBEFORE_END,1516037946629,215
55,REQ_START,1516037946629,215
55,REQ_END,1516037946638,215
55,PLAYER_SLEEPBEFORE_START,1516037946638,216
55,PLAYER_SLEEPBEFORE_END,1516037963199,216
55,WS_SEND_START,1516037963199,216
55,WS_SEND_END,1516037963199,216
55,WS_RECV_START,1516037963199,217
55,WS_RECV_END,1516037963315,217
55,PLAYER_SLEEPBEFORE_START,1516037963315,218
55,PLAYER_SLEEPBEFORE_END,1516037963322,218
55,WS_SEND_START,1516037963322,218
55,WS_SEND_END,1516037963322,218
55,WS_RECV_START,1516037963322,219
55,WS_RECV_END,1516037963364,219
55,PLAYER_SLEEPBEFORE_START,1516037963364,220
55,PLAYER_SLEEPBEFORE_END,1516037964133,220
55,WS_SEND_START,1516037964133,220
55,WS_SEND_END,1516037964133,220
55,WS_RECV_START,1516037964133,221
55,WS_RECV_END,1516037968010,221
55,PLAYER_SLEEPBEFORE_START,1516037968010,222
55,PLAYER_SLEEPBEFORE_END,1516037968067,222
55,WS_SEND_START,1516037968067,222
55,WS_SEND_END,1516037968067,222
55,WS_RECV_START,1516037968067,223
55,WS_RECV_END,1516037968388,223
55,PLAYER_SLEEPBEFORE_START,1516037968388,224
55,PLAYER_SLEEPBEFORE_END,1516037991044,224
55,WS_SEND_START,1516037991044,224
55,WS_SEND_END,1516037991044,224
55,WS_RECV_START,1516037991044,225
55,WS_RECV_END,1516037991145,225
55,PLAYER_SLEEPBEFORE_START,1516037991145,226
55,PLAYER_SLEEPBEFORE_END,1516038016880,226
55,WS_SEND_START,1516038016880,226
55,WS_SEND_END,1516038016880,226
55,WS_RECV_START,1516038016880,227
55,WS_RECV_END,1516038017830,227
55,PLAYER_SLEEPBEFORE_START,1516038017830,228
55,PLAYER_SLEEPBEFORE_END,1516038040823,228
55,WS_SEND_START,1516038040823,228
55,WS_SEND_END,1516038040823,228
55,WS_RECV_START,1516038040823,229
55,WS_RECV_END,1516038040945,229
55,PLAYER_SLEEPBEFORE_START,1516038040945,230
55,PLAYER_SLEEPBEFORE_END,1516038065161,230
55,WS_SEND_START,1516038065161,230
55,WS_SEND_END,1516038065162,230
55,WS_RECV_START,1516038065162,231
55,WS_RECV_END,1516038065279,231
55,PLAYER_SLEEPBEFORE_START,1516038065279,232
55,PLAYER_SLEEPBEFORE_END,1516038090035,232
55,WS_SEND_START,1516038090035,232
55,WS_SEND_END,1516038090035,232
55,WS_RECV_START,1516038090035,233
55,WS_RECV_END,1516038090157,233
55,PLAYER_SLEEPBEFORE_START,1516038090157,234
55,PLAYER_SLEEPBEFORE_END,1516038117190,234
55,WS_SEND_START,1516038117190,234
55,WS_SEND_END,1516038117190,234
55,WS_RECV_START,1516038117190,235
55,WS_RECV_END,1516038117309,235
55,PLAYER_SLEEPBEFORE_START,1516038117309,236
55,PLAYER_SLEEPBEFORE_END,1516038141149,236
55,WS_SEND_START,1516038141149,236
55,WS_SEND_END,1516038141149,236
55,WS_RECV_START,1516038141149,237
55,WS_RECV_END,1516038141267,237
55,PLAYER_SLEEPBEFORE_START,1516038141267,238
55,PLAYER_SLEEPBEFORE_END,1516038154077,238
55,WS_SEND_START,1516038154077,238
55,WS_SEND_END,1516038154077,238
55,WS_RECV_START,1516038154077,239
55,WS_RECV_END,1516038155697,239
55,PLAYER_SLEEPBEFORE_START,1516038155697,240
55,PLAYER_SLEEPBEFORE_END,1516038168352,240
55,WS_SEND_START,1516038168352,240
55,WS_SEND_END,1516038168352,240
55,WS_RECV_START,1516038168352,241
55,WS_RECV_END,1516038169362,241
55,PLAYER_SLEEPBEFORE_START,1516038169362,242
55,PLAYER_SLEEPBEFORE_END,1516038169385,242
55,WS_SEND_START,1516038169385,242
55,WS_SEND_END,1516038169385,242
55,WS_RECV_START,1516038169385,243
55,WS_RECV_END,1516038170201,243
55,PLAYER_SLEEPBEFORE_START,1516038170201,244
55,PLAYER_SLEEPBEFORE_END,1516038192439,244
55,WS_SEND_START,1516038192439,244
55,WS_SEND_END,1516038192439,244
55,WS_RECV_START,1516038192439,245
55,WS_RECV_END,1516038193516,245
55,PLAYER_SLEEPBEFORE_START,1516038193516,246
55,PLAYER_SLEEPBEFORE_END,1516038193525,246
55,WS_SEND_START,1516038193525,246
55,WS_SEND_END,1516038193525,246
55,WS_RECV_START,1516038193525,247
55,WS_RECV_END,1516038193565,247
55,PLAYER_SLEEPBEFORE_START,1516038193565,248
55,PLAYER_SLEEPBEFORE_END,1516038195602,248
55,WS_SEND_START,1516038195602,248
55,WS_SEND_END,1516038195602,248
55,WS_RECV_START,1516038195602,249
55,WS_RECV_END,1516038199893,249
55,PLAYER_SLEEPBEFORE_START,1516038199893,250
55,PLAYER_SLEEPBEFORE_END,1516038199930,250
55,WS_SEND_START,1516038199930,250
55,WS_SEND_END,1516038199930,250
55,WS_RECV_START,1516038199930,251
55,WS_RECV_END,1516038203083,251
55,PLAYER_SLEEPBEFORE_START,1516038203083,252
55,PLAYER_SLEEPBEFORE_END,1516038225725,252
55,WS_SEND_START,1516038225725,252
55,WS_SEND_END,1516038225725,252
55,WS_RECV_START,1516038225725,253
55,WS_RECV_END,1516038230123,253
55,PLAYER_SLEEPBEFORE_START,1516038230123,254
55,PLAYER_SLEEPBEFORE_END,1516038230139,254
55,WS_SEND_START,1516038230139,254
55,WS_SEND_END,1516038230139,254
55,WS_RECV_START,1516038230139,255
55,WS_RECV_END,1516038230650,255
55,PLAYER_SLEEPBEFORE_START,1516038230650,256
55,PLAYER_SLEEPBEFORE_END,1516038255272,256
55,WS_SEND_START,1516038255272,256
55,WS_SEND_END,1516038255272,256
55,WS_RECV_START,1516038255272,257
55,WS_RECV_END,1516038259968,257
55,PLAYER_SLEEPBEFORE_START,1516038259968,258
55,PLAYER_SLEEPBEFORE_END,1516038259976,258
55,WS_SEND_START,1516038259976,258
55,WS_SEND_END,1516038259976,258
55,WS_RECV_START,1516038259976,259
55,WS_RECV_END,1516038260385,259
55,PLAYER_SLEEPBEFORE_START,1516038260385,260
55,PLAYER_SLEEPBEFORE_END,1516038260909,260
55,WS_SEND_START,1516038260909,260
55,WS_SEND_END,1516038260909,260
55,WS_RECV_START,1516038260909,261
55,WS_RECV_END,1516038262051,261
55,PLAYER_SLEEPBEFORE_START,1516038262051,262
55,PLAYER_SLEEPBEFORE_END,1516038262323,262
55,WS_SEND_START,1516038262323,262
55,WS_SEND_END,1516038262323,262
55,WS_RECV_START,1516038262323,263
55,WS_RECV_END,1516038262475,263
55,PLAYER_SLEEPBEFORE_START,1516038262475,264
55,PLAYER_SLEEPBEFORE_END,1516038264888,264
55,WS_SEND_START,1516038264888,264
55,WS_SEND_END,1516038264888,264
55,WS_RECV_START,1516038264888,265
55,WS_RECV_END,1516038266181,265
55,PLAYER_SLEEPBEFORE_START,1516038266181,266
55,PLAYER_SLEEPBEFORE_END,1516038266193,266
55,WS_SEND_START,1516038266193,266
55,WS_SEND_END,1516038266194,266
55,WS_RECV_START,1516038266194,267
55,WS_RECV_END,1516038268413,267
55,PLAYER_SLEEPBEFORE_START,1516038268413,268
55,PLAYER_SLEEPBEFORE_END,1516038269883,268
55,REQ_START,1516038269883,268
55,REQ_END,1516038269891,268
55,PLAYER_SLEEPBEFORE_START,1516038269891,269
55,PLAYER_SLEEPBEFORE_END,1516038287285,269
55,WS_SEND_START,1516038287285,269
55,WS_SEND_END,1516038287285,269
55,WS_RECV_START,1516038287285,270
55,WS_RECV_END,1516038288811,270
55,PLAYER_SLEEPBEFORE_START,1516038288811,271
55,PLAYER_SLEEPBEFORE_END,1516038288818,271
55,WS_SEND_START,1516038288818,271
55,WS_SEND_END,1516038288818,271
55,WS_RECV_START,1516038288818,272
55,WS_RECV_END,1516038289169,272
55,PLAYER_SLEEPBEFORE_START,1516038289169,273
55,PLAYER_SLEEPBEFORE_END,1516038290466,273
55,WS_SEND_START,1516038290466,273
55,WS_SEND_END,1516038290467,273
55,WS_RECV_START,1516038290467,274
55,WS_RECV_END,1516038291110,274
55,PLAYER_SLEEPBEFORE_START,1516038291110,275
55,PLAYER_SLEEPBEFORE_END,1516038292283,275
55,WS_SEND_START,1516038292283,275
55,WS_SEND_END,1516038292283,275
55,WS_RECV_START,1516038292283,276
55,WS_RECV_END,1516038294580,276
55,PLAYER_SLEEPBEFORE_START,1516038294580,277
55,PLAYER_SLEEPBEFORE_END,1516038294603,277
55,WS_SEND_START,1516038294603,277
55,WS_SEND_END,1516038294603,277
55,WS_RECV_START,1516038294603,278
55,WS_RECV_END,1516038295872,278
55,PLAYER_SLEEPBEFORE_START,1516038295872,279
55,PLAYER_SLEEPBEFORE_END,1516038320395,279
55,WS_SEND_START,1516038320395,279
55,WS_SEND_END,1516038320396,279
55,WS_RECV_START,1516038320396,280
55,WS_RECV_END,1516038321336,280
55,PLAYER_SLEEPBEFORE_START,1516038321336,281
55,PLAYER_SLEEPBEFORE_END,1516038343625,281
55,WS_SEND_START,1516038343625,281
55,WS_SEND_END,1516038343625,281
55,WS_RECV_START,1516038343625,282
55,WS_RECV_END,1516038345566,282
55,PLAYER_SLEEPBEFORE_START,1516038345566,283
55,PLAYER_SLEEPBEFORE_END,1516038345584,283
55,WS_SEND_START,1516038345584,283
55,WS_SEND_END,1516038345584,283
55,WS_RECV_START,1516038345584,284
55,WS_RECV_END,1516038346784,284
55,PLAYER_SLEEPBEFORE_START,1516038346784,285
55,PLAYER_SLEEPBEFORE_END,1516038370915,285
55,WS_SEND_START,1516038370915,285
55,WS_SEND_END,1516038370915,285
55,WS_RECV_START,1516038370915,286
55,WS_RECV_END,1516038374188,286
55,PLAYER_SLEEPBEFORE_START,1516038374188,287
55,PLAYER_SLEEPBEFORE_END,1516038397342,287
55,WS_SEND_START,1516038397342,287
55,WS_SEND_END,1516038397342,287
55,WS_RECV_START,1516038397342,288
55,WS_RECV_END,1516038400718,288
55,PLAYER_SLEEPBEFORE_START,1516038400718,289
55,PLAYER_SLEEPBEFORE_END,1516038400740,289
55,WS_SEND_START,1516038400740,289
55,WS_SEND_END,1516038400740,289
55,WS_RECV_START,1516038400740,290
55,WS_RECV_END,1516038400984,290
55,PLAYER_SLEEPBEFORE_START,1516038400984,291
55,PLAYER_SLEEPBEFORE_END,1516038411599,291
55,WS_SEND_START,1516038411599,291
55,WS_SEND_END,1516038411599,291
55,WS_RECV_START,1516038411599,292
55,WS_RECV_END,1516038414145,292
55,PLAYER_SLEEPBEFORE_START,1516038414145,293
55,PLAYER_SLEEPBEFORE_END,1516038429902,293
55,WS_SEND_START,1516038429902,293
55,WS_SEND_END,1516038429902,293
55,WS_RECV_START,1516038429902,294
55,WS_RECV_END,1516038431422,294
55,PLAYER_SLEEPBEFORE_START,1516038431422,295
55,PLAYER_SLEEPBEFORE_END,1516038431447,295
55,WS_SEND_START,1516038431447,295
55,WS_SEND_END,1516038431447,295
55,WS_RECV_START,1516038431447,296
55,WS_RECV_END,1516038432386,296
55,PLAYER_SLEEPBEFORE_START,1516038432386,297
55,PLAYER_SLEEPBEFORE_END,1516038453883,297
55,WS_SEND_START,1516038453883,297
55,WS_SEND_END,1516038453883,297
55,WS_RECV_START,1516038453883,298
55,WS_RECV_END,1516038453939,298
55,PLAYER_SLEEPBEFORE_START,1516038453939,299
55,PLAYER_SLEEPBEFORE_END,1516038453949,299
55,WS_SEND_START,1516038453949,299
55,WS_SEND_END,1516038453949,299
55,WS_RECV_START,1516038453949,300
55,WS_RECV_END,1516038453990,300
55,PLAYER_SLEEPBEFORE_START,1516038453990,301
55,PLAYER_SLEEPBEFORE_END,1516038456350,301
55,WS_SEND_START,1516038456350,301
55,WS_SEND_END,1516038456350,301
55,WS_RECV_START,1516038456350,302
55,WS_RECV_END,1516038457224,302
55,PLAYER_SLEEPBEFORE_START,1516038457224,303
55,PLAYER_SLEEPBEFORE_END,1516038457248,303
55,WS_SEND_START,1516038457248,303
55,WS_SEND_END,1516038457248,303
55,WS_RECV_START,1516038457248,304
55,WS_RECV_END,1516038458333,304
55,PLAYER_SLEEPBEFORE_START,1516038458333,305
55,PLAYER_SLEEPBEFORE_END,1516038483324,305
55,WS_SEND_START,1516038483324,305
55,WS_SEND_END,1516038483324,305
55,WS_RECV_START,1516038483324,306
55,WS_RECV_END,1516038484266,306
55,PLAYER_SLEEPBEFORE_START,1516038484266,307
55,PLAYER_SLEEPBEFORE_END,1516038508141,307
55,WS_SEND_START,1516038508141,307
55,WS_SEND_END,1516038508141,307
55,WS_RECV_START,1516038508141,308
55,WS_RECV_END,1516038508254,308
55,PLAYER_SLEEPBEFORE_START,1516038508254,309
55,PLAYER_SLEEPBEFORE_END,1516038529945,309
55,WS_SEND_START,1516038529945,309
55,WS_SEND_END,1516038529945,309
55,WS_RECV_START,1516038529945,310
55,WS_RECV_END,1516038530066,310
55,PLAYER_SLEEPBEFORE_START,1516038530066,311
55,PLAYER_SLEEPBEFORE_END,1516038558894,311
55,WS_SEND_START,1516038558894,311
55,WS_SEND_END,1516038558894,311
55,WS_RECV_START,1516038558894,312
55,WS_RECV_END,1516038560916,312
55,PLAYER_SLEEPBEFORE_START,1516038560916,313
55,PLAYER_SLEEPBEFORE_END,1516038560936,313
55,WS_SEND_START,1516038560936,313
55,WS_SEND_END,1516038560936,313
55,WS_RECV_START,1516038560936,314
55,WS_RECV_END,1516038561251,314
55,PLAYER_SLEEPBEFORE_START,1516038561251,315
55,PLAYER_SLEEPBEFORE_END,1516038582837,315
55,WS_SEND_START,1516038582837,315
55,WS_SEND_END,1516038582837,315
55,WS_RECV_START,1516038582837,316
55,WS_RECV_END,1516038586923,316
55,PLAYER_SLEEPBEFORE_START,1516038586923,317
55,PLAYER_SLEEPBEFORE_END,1516038586931,317
55,WS_SEND_START,1516038586931,317
55,WS_SEND_END,1516038586931,317
55,WS_RECV_START,1516038586931,318
55,WS_RECV_END,1516038592019,318
55,PLAYER_SLEEPBEFORE_START,1516038592019,319
55,PLAYER_SLEEPBEFORE_END,1516038592351,319
55,WS_SEND_START,1516038592351,319
55,WS_SEND_END,1516038592351,319
55,WS_RECV_START,1516038592351,320
55,WS_RECV_END,1516038595855,320
55,PLAYER_SLEEPBEFORE_START,1516038595855,321
55,PLAYER_SLEEPBEFORE_END,1516038595874,321
55,WS_SEND_START,1516038595874,321
55,WS_SEND_END,1516038595874,321
55,WS_RECV_START,1516038595874,322
55,WS_RECV_END,1516038596472,322
55,PLAYER_SLEEPBEFORE_START,1516038596472,323
55,PLAYER_SLEEPBEFORE_END,1516038600865,323
55,REQ_START,1516038600865,323
55,REQ_END,1516038600873,323
55,PLAYER_SLEEPBEFORE_START,1516038600873,324
55,PLAYER_SLEEPBEFORE_END,1516038620759,324
55,WS_SEND_START,1516038620759,324
55,WS_SEND_END,1516038620759,324
55,WS_RECV_START,1516038620759,325
55,WS_RECV_END,1516038624733,325
55,PLAYER_SLEEPBEFORE_START,1516038624733,326
55,PLAYER_SLEEPBEFORE_END,1516038624743,326
55,WS_SEND_START,1516038624743,326
55,WS_SEND_END,1516038624743,326
55,WS_RECV_START,1516038624743,327
55,WS_RECV_END,1516038628091,327
55,PLAYER_SLEEPBEFORE_START,1516038628091,328
55,PLAYER_SLEEPBEFORE_END,1516038628452,328
55,WS_SEND_START,1516038628452,328
55,WS_SEND_END,1516038628452,328
55,WS_RECV_START,1516038628452,329
55,WS_RECV_END,1516038630341,329
55,PLAYER_SLEEPBEFORE_START,1516038630341,330
55,PLAYER_SLEEPBEFORE_END,1516038630687,330
55,WS_SEND_START,1516038630687,330
55,WS_SEND_END,1516038630687,330
55,WS_RECV_START,1516038630687,331
55,WS_RECV_END,1516038633187,331
55,PLAYER_SLEEPBEFORE_START,1516038633187,332
55,PLAYER_SLEEPBEFORE_END,1516038634034,332
55,WS_SEND_START,1516038634034,332
55,WS_SEND_END,1516038634034,332
55,WS_RECV_START,1516038634034,333
55,WS_RECV_END,1516038635442,333
55,PLAYER_SLEEPBEFORE_START,1516038635442,334
55,PLAYER_SLEEPBEFORE_END,1516038635839,334
55,WS_SEND_START,1516038635839,334
55,WS_SEND_END,1516038635839,334
55,WS_RECV_START,1516038635839,335
55,WS_RECV_END,1516038637968,335
55,PLAYER_SLEEPBEFORE_START,1516038637968,336
55,PLAYER_SLEEPBEFORE_END,1516038638292,336
55,WS_SEND_START,1516038638292,336
55,WS_SEND_END,1516038638292,336
55,WS_RECV_START,1516038638292,337
55,WS_RECV_END,1516038642388,337
55,PLAYER_SLEEPBEFORE_START,1516038642388,338
55,PLAYER_SLEEPBEFORE_END,1516038642403,338
55,WS_SEND_START,1516038642403,338
55,WS_SEND_END,1516038642403,338
55,WS_RECV_START,1516038642403,339
55,WS_RECV_END,1516038644478,339
55,PLAYER_SLEEPBEFORE_START,1516038644478,340
55,PLAYER_SLEEPBEFORE_END,1516038662450,340
55,WS_SEND_START,1516038662450,340
55,WS_SEND_END,1516038662450,340
55,WS_RECV_START,1516038662450,341
55,WS_RECV_END,1516038663340,341
55,PLAYER_SLEEPBEFORE_START,1516038663340,342
55,PLAYER_SLEEPBEFORE_END,1516038663350,342
55,WS_SEND_START,1516038663350,342
55,WS_SEND_END,1516038663350,342
55,WS_RECV_START,1516038663350,343
55,WS_RECV_END,1516038664251,343
55,PLAYER_SLEEPBEFORE_START,1516038664251,344
55,PLAYER_SLEEPBEFORE_END,1516038666563,344
55,WS_SEND_START,1516038666563,344
55,WS_SEND_END,1516038666563,344
55,WS_RECV_START,1516038666563,345
55,WS_RECV_END,1516038673825,345
55,PLAYER_SLEEPBEFORE_START,1516038673825,346
55,PLAYER_SLEEPBEFORE_END,1516038673836,346
55,WS_SEND_START,1516038673836,346
55,WS_SEND_END,1516038673836,346
55,WS_RECV_START,1516038673836,347
55,WS_RECV_END,1516038675783,347
55,PLAYER_SLEEPBEFORE_START,1516038675783,348
55,PLAYER_SLEEPBEFORE_END,1516038696390,348
55,WS_SEND_START,1516038696390,348
55,WS_SEND_END,1516038696390,348
55,WS_RECV_START,1516038696390,349
55,WS_RECV_END,1516038699160,349
55,PLAYER_SLEEPBEFORE_START,1516038699160,350
55,PLAYER_SLEEPBEFORE_END,1516038699168,350
55,WS_SEND_START,1516038699168,350
55,WS_SEND_END,1516038699168,350
55,WS_RECV_START,1516038699168,351
55,WS_RECV_END,1516038699523,351
55,PLAYER_SLEEPBEFORE_START,1516038699523,352
55,PLAYER_SLEEPBEFORE_END,1516038700709,352
55,WS_SEND_START,1516038700709,352
55,WS_SEND_END,1516038700709,352
55,WS_RECV_START,1516038700709,353
55,WS_RECV_END,1516038703248,353
55,PLAYER_SLEEPBEFORE_START,1516038703248,354
55,PLAYER_SLEEPBEFORE_END,1516038703264,354
55,WS_SEND_START,1516038703264,354
55,WS_SEND_END,1516038703264,354
55,WS_RECV_START,1516038703264,355
55,WS_RECV_END,1516038703914,355
55,PLAYER_SLEEPBEFORE_START,1516038703914,356
55,PLAYER_SLEEPBEFORE_END,1516038703960,356
55,WS_SEND_START,1516038703960,356
55,WS_SEND_END,1516038703960,356
55,WS_RECV_START,1516038703960,357
55,WS_RECV_END,1516038706854,357
55,PLAYER_SLEEPBEFORE_START,1516038706854,358
55,PLAYER_SLEEPBEFORE_END,1516038706869,358
55,WS_SEND_START,1516038706869,358
55,WS_SEND_END,1516038706869,358
55,WS_RECV_START,1516038706869,359
55,WS_RECV_END,1516038707599,359
55,PLAYER_SLEEPBEFORE_START,1516038707599,360
55,PLAYER_SLEEPBEFORE_END,1516038728065,360
55,WS_SEND_START,1516038728065,360
55,WS_SEND_END,1516038728065,360
55,WS_RECV_START,1516038728065,361
55,WS_RECV_END,1516038731443,361
55,PLAYER_SLEEPBEFORE_START,1516038731443,362
55,PLAYER_SLEEPBEFORE_END,1516038731452,362
55,WS_SEND_START,1516038731452,362
55,WS_SEND_END,1516038731452,362
55,WS_RECV_START,1516038731452,363
55,WS_RECV_END,1516038732551,363
55,PLAYER_SLEEPBEFORE_START,1516038732551,364
55,PLAYER_SLEEPBEFORE_END,1516038734642,364
55,WS_SEND_START,1516038734642,364
55,WS_SEND_END,1516038734642,364
55,WS_RECV_START,1516038734642,365
55,WS_RECV_END,1516038736569,365
55,PLAYER_SLEEPBEFORE_START,1516038736569,366
55,PLAYER_SLEEPBEFORE_END,1516038736579,366
55,WS_SEND_START,1516038736579,366
55,WS_SEND_END,1516038736579,366
55,WS_RECV_START,1516038736579,367
55,WS_RECV_END,1516038739604,367
55,PLAYER_SLEEPBEFORE_START,1516038739604,368
55,PLAYER_SLEEPBEFORE_END,1516038763064,368
55,WS_SEND_START,1516038763064,368
55,WS_SEND_END,1516038763064,368
55,WS_RECV_START,1516038763064,369
55,WS_RECV_END,1516038764188,369
55,PLAYER_SLEEPBEFORE_START,1516038764188,370
55,PLAYER_SLEEPBEFORE_END,1516038764196,370
55,WS_SEND_START,1516038764197,370
55,WS_SEND_END,1516038764197,370
55,WS_RECV_START,1516038764197,371
55,WS_RECV_END,1516038764623,371
55,PLAYER_SLEEPBEFORE_START,1516038764623,372
55,PLAYER_SLEEPBEFORE_END,1516038764995,372
55,WS_SEND_START,1516038764995,372
55,WS_SEND_END,1516038764995,372
55,WS_RECV_START,1516038764995,373
55,WS_RECV_END,1516038765048,373
55,PLAYER_SLEEPBEFORE_START,1516038765048,374
55,PLAYER_SLEEPBEFORE_END,1516038765750,374
55,WS_SEND_START,1516038765750,374
55,WS_SEND_END,1516038765750,374
55,WS_RECV_START,1516038765750,375
55,WS_RECV_END,1516038766213,375
55,PLAYER_SLEEPBEFORE_START,1516038766213,376
55,PLAYER_SLEEPBEFORE_END,1516038766564,376
55,WS_SEND_START,1516038766564,376
55,WS_SEND_END,1516038766564,376
55,WS_RECV_START,1516038766564,377
55,WS_RECV_END,1516038767628,377
55,PLAYER_SLEEPBEFORE_START,1516038767628,378
55,PLAYER_SLEEPBEFORE_END,1516038767647,378
55,WS_SEND_START,1516038767647,378
55,WS_SEND_END,1516038767647,378
55,WS_RECV_START,1516038767647,379
55,WS_RECV_END,1516038767912,379
55,PLAYER_SLEEPBEFORE_START,1516038767913,380
55,PLAYER_SLEEPBEFORE_END,1516038788405,380
55,WS_SEND_START,1516038788405,380
55,WS_SEND_END,1516038788405,380
55,PLAYER_SLEEPBEFORE_START,1516038788405,381
55,PLAYER_SLEEPBEFORE_END,1516038792619,381
55,WS_SEND_START,1516038792619,381
55,WS_SEND_END,1516038792619,381
55,WS_RECV_START,1516038792619,382
55,WS_RECV_END,1516038793256,382
55,PLAYER_SLEEPBEFORE_START,1516038793256,383
55,PLAYER_SLEEPBEFORE_END,1516038813456,383
55,WS_SEND_START,1516038813456,383
55,WS_SEND_END,1516038813456,383
55,PLAYER_SLEEPBEFORE_START,1516038813456,384
55,PLAYER_SLEEPBEFORE_END,1516038816643,384
55,WS_SEND_START,1516038816643,384
55,WS_SEND_END,1516038816643,384
55,WS_RECV_START,1516038816643,385
55,WS_RECV_END,1516038817329,385
55,PLAYER_SLEEPBEFORE_START,1516038817329,386
55,PLAYER_SLEEPBEFORE_END,1516038817344,386
55,WS_SEND_START,1516038817344,386
55,WS_SEND_END,1516038817344,386
55,WS_RECV_START,1516038817344,387
55,WS_RECV_END,1516038818301,387
55,PLAYER_SLEEPBEFORE_START,1516038818301,388
55,PLAYER_SLEEPBEFORE_END,1516038838831,388
55,WS_SEND_START,1516038838831,388
55,WS_SEND_END,1516038838831,388
55,PLAYER_SLEEPBEFORE_START,1516038838831,389
55,PLAYER_SLEEPBEFORE_END,1516038841050,389
55,WS_SEND_START,1516038841050,389
55,WS_SEND_END,1516038841050,389
55,WS_RECV_START,1516038841050,390
55,WS_RECV_END,1516038841222,390
55,PLAYER_SLEEPBEFORE_START,1516038841223,391
55,PLAYER_SLEEPBEFORE_END,1516038864059,391
55,WS_SEND_START,1516038864059,391
55,WS_SEND_END,1516038864059,391
55,WS_RECV_START,1516038864059,392
55,WS_RECV_END,1516038864239,392
55,PLAYER_SLEEPBEFORE_START,1516038864239,393
55,PLAYER_SLEEPBEFORE_END,1516038888928,393
55,WS_SEND_START,1516038888928,393
55,WS_SEND_END,1516038888929,393
55,PLAYER_SLEEPBEFORE_START,1516038888929,394
55,PLAYER_SLEEPBEFORE_END,1516038890901,394
55,WS_SEND_START,1516038890901,394
55,WS_SEND_END,1516038890901,394
55,WS_RECV_START,1516038890901,395
55,WS_RECV_END,1516038891004,395
55,PLAYER_SLEEPBEFORE_START,1516038891004,396
55,PLAYER_SLEEPBEFORE_END,1516038891011,396
55,WS_SEND_START,1516038891011,396
55,WS_SEND_END,1516038891011,396
55,WS_RECV_START,1516038891011,397
55,WS_RECV_END,1516038891103,397
55,PLAYER_SLEEPBEFORE_START,1516038891103,398
55,PLAYER_SLEEPBEFORE_END,1516038891283,398
55,WS_SEND_START,1516038891283,398
55,WS_SEND_END,1516038891283,398
55,WS_RECV_START,1516038891283,399
55,WS_RECV_END,1516038891374,399
55,PLAYER_SLEEPBEFORE_START,1516038891374,400
55,PLAYER_SLEEPBEFORE_END,1516038892450,400
55,WS_SEND_START,1516038892450,400
55,WS_SEND_END,1516038892450,400
55,WS_RECV_START,1516038892450,401
55,WS_RECV_END,1516038893242,401
55,PLAYER_SLEEPBEFORE_START,1516038893242,402
55,PLAYER_SLEEPBEFORE_END,1516038894601,402
55,WS_SEND_START,1516038894601,402
55,WS_SEND_END,1516038894601,402
55,WS_RECV_START,1516038894601,403
55,WS_RECV_END,1516038894658,403
55,PLAYER_SLEEPBEFORE_START,1516038894658,404
55,PLAYER_SLEEPBEFORE_END,1516038895128,404
55,WS_SEND_START,1516038895128,404
55,WS_SEND_END,1516038895128,404
55,WS_RECV_START,1516038895128,405
55,WS_RECV_END,1516038895179,405
55,PLAYER_SLEEPBEFORE_START,1516038895179,406
55,PLAYER_SLEEPBEFORE_END,1516038897906,406
55,WS_SEND_START,1516038897906,406
55,WS_SEND_END,1516038897906,406
55,WS_RECV_START,1516038897906,407
55,WS_RECV_END,1516038898019,407
55,PLAYER_SLEEPBEFORE_START,1516038898019,408
55,PLAYER_SLEEPBEFORE_END,1516038898348,408
55,WS_SEND_START,1516038898348,408
55,WS_SEND_END,1516038898348,408
55,WS_RECV_START,1516038898348,409
55,WS_RECV_END,1516038898399,409
55,PLAYER_SLEEPBEFORE_START,1516038898399,410
55,PLAYER_SLEEPBEFORE_END,1516038899424,410
55,WS_SEND_START,1516038899424,410
55,WS_SEND_END,1516038899424,410
55,WS_RECV_START,1516038899424,411
55,WS_RECV_END,1516038899474,411
55,PLAYER_SLEEPBEFORE_START,1516038899474,412
55,PLAYER_SLEEPBEFORE_END,1516038900131,412
55,WS_SEND_START,1516038900131,412
55,WS_SEND_END,1516038900131,412
55,WS_RECV_START,1516038900131,413
55,WS_RECV_END,1516038900907,413
55,PLAYER_SLEEPBEFORE_START,1516038900907,414
55,PLAYER_SLEEPBEFORE_END,1516038900923,414
55,WS_SEND_START,1516038900923,414
55,WS_SEND_END,1516038900923,414
55,WS_RECV_START,1516038900923,415
55,WS_RECV_END,1516038901046,415
55,PLAYER_SLEEPBEFORE_START,1516038901046,416
55,PLAYER_SLEEPBEFORE_END,1516038915314,416
55,WS_SEND_START,1516038915314,416
55,WS_SEND_END,1516038915314,416
55,PLAYER_SLEEPBEFORE_START,1516038915314,417
55,PLAYER_SLEEPBEFORE_END,1516038943993,417
55,WS_SEND_START,1516038943993,417
55,WS_SEND_END,1516038943993,417
55,WS_RECV_START,1516038943993,418
55,WS_RECV_END,1516038944147,418
55,PLAYER_SLEEPBEFORE_START,1516038944147,419
55,PLAYER_SLEEPBEFORE_END,1516038948969,419
55,REQ_START,1516038948969,419
55,REQ_END,1516038948977,419
55,PLAYER_SLEEPBEFORE_START,1516038948977,420
55,PLAYER_SLEEPBEFORE_END,1516038967722,420
55,WS_CLOSE_START,1516038967722,420
55,WS_CLOSE_END,1516038967722,420
55,PLAYER_DONE,1516038967722
