# --sessions 90 --app-url=http://shinyloadtest.rstudioservices.com/ --output-dir test90 --overwrite-output --log-level warn --start-interval 1500 30min.log
thread_id,event,timestamp,input_line_number,comment
85,PLAYER_SESSION_CREATE,1516036942533
85,PLAYER_START_INTERVAL_START,1516036942533
85,PLAYER_START_INTERVAL_END,1516037070033
85,REQ_HOME_START,1516037070033,2
85,REQ_HOME_END,1516037070116,2
85,REQ_START,1516037070116,3
85,REQ_END,1516037070149,3
85,REQ_START,1516037070149,4
85,REQ_END,1516037070180,4
85,REQ_START,1516037070180,5
85,REQ_END,1516037070219,5
85,REQ_START,1516037070219,6
85,REQ_END,1516037070254,6
85,REQ_START,1516037070254,7
85,REQ_END,1516037070288,7
85,REQ_START,1516037070288,8
85,REQ_END,1516037070321,8
85,REQ_START,1516037070321,9
85,REQ_END,1516037070357,9
85,REQ_START,1516037070357,10
85,REQ_END,1516037070365,10
85,REQ_START,1516037070365,11
85,REQ_END,1516037070398,11
85,REQ_START,1516037070398,12
85,REQ_END,1516037070428,12
85,REQ_START,1516037070428,13
85,REQ_END,1516037070438,13
85,REQ_START,1516037070438,14
85,REQ_END,1516037070452,14
85,REQ_START,1516037070452,15
85,REQ_END,1516037070485,15
85,REQ_TOK_START,1516037070485,16
85,REQ_TOK_END,1516037070493,16
85,REQ_SINF_START,1516037070493,17
85,REQ_SINF_END,1516037070500,17
85,WS_OPEN_START,1516037070500,18
85,WS_OPEN_END,1516037070506,18
85,WS_RECV_START,1516037070506,19
85,WS_RECV_END,1516037070508,19
85,PLAYER_SLEEPBEFORE_START,1516037070508,20
85,PLAYER_SLEEPBEFORE_END,1516037070514,20
85,WS_SEND_START,1516037070514,20
85,WS_SEND_END,1516037070514,20
85,PLAYER_SLEEPBEFORE_START,1516037070514,21
85,PLAYER_SLEEPBEFORE_END,1516037070515,21
85,WS_SEND_START,1516037070515,21
85,WS_SEND_END,1516037070515,21
85,WS_RECV_INIT_START,1516037070515,22
85,WS_RECV_INIT_END,1516037070531,22
85,WS_RECV_START,1516037070531,23
85,WS_RECV_END,1516037070609,23
85,PLAYER_SLEEPBEFORE_START,1516037070609,24
85,PLAYER_SLEEPBEFORE_END,1516037070616,24
85,REQ_START,1516037070616,24
85,REQ_END,1516037070648,24
85,PLAYER_SLEEPBEFORE_START,1516037070648,25
85,PLAYER_SLEEPBEFORE_END,1516037070650,25
85,REQ_START,1516037070650,25
85,REQ_END,1516037070681,25
85,PLAYER_SLEEPBEFORE_START,1516037070681,26
85,PLAYER_SLEEPBEFORE_END,1516037070684,26
85,REQ_START,1516037070684,26
85,REQ_END,1516037070716,26
85,PLAYER_SLEEPBEFORE_START,1516037070716,27
85,PLAYER_SLEEPBEFORE_END,1516037070972,27
85,REQ_START,1516037070972,27
85,REQ_END,1516037071005,27
85,PLAYER_SLEEPBEFORE_START,1516037071005,28
85,PLAYER_SLEEPBEFORE_END,1516037071203,28
85,WS_SEND_START,1516037071203,28
85,WS_SEND_END,1516037071203,28
85,WS_RECV_START,1516037071203,29
85,WS_RECV_END,1516037071377,29
85,PLAYER_SLEEPBEFORE_START,1516037071377,30
85,PLAYER_SLEEPBEFORE_END,1516037071388,30
85,REQ_START,1516037071388,30
85,REQ_END,1516037071424,30
85,PLAYER_SLEEPBEFORE_START,1516037071424,31
85,PLAYER_SLEEPBEFORE_END,1516037101544,31
85,WS_SEND_START,1516037101544,31
85,WS_SEND_END,1516037101544,31
85,WS_RECV_START,1516037101544,32
85,WS_RECV_END,1516037101725,32
85,PLAYER_SLEEPBEFORE_START,1516037101725,33
85,PLAYER_SLEEPBEFORE_END,1516037126491,33
85,WS_SEND_START,1516037126491,33
85,WS_SEND_END,1516037126491,33
85,WS_RECV_START,1516037126491,34
85,WS_RECV_END,1516037126593,34
85,PLAYER_SLEEPBEFORE_START,1516037126593,35
85,PLAYER_SLEEPBEFORE_END,1516037151406,35
85,WS_SEND_START,1516037151406,35
85,WS_SEND_END,1516037151406,35
85,WS_RECV_START,1516037151406,36
85,WS_RECV_END,1516037151458,36
85,PLAYER_SLEEPBEFORE_START,1516037151458,37
85,PLAYER_SLEEPBEFORE_END,1516037151467,37
85,WS_SEND_START,1516037151467,37
85,WS_SEND_END,1516037151467,37
85,WS_RECV_START,1516037151467,38
85,WS_RECV_END,1516037151508,38
85,PLAYER_SLEEPBEFORE_START,1516037151508,39
85,PLAYER_SLEEPBEFORE_END,1516037154205,39
85,WS_SEND_START,1516037154205,39
85,WS_SEND_END,1516037154205,39
85,WS_RECV_START,1516037154205,40
85,WS_RECV_END,1516037154257,40
85,PLAYER_SLEEPBEFORE_START,1516037154257,41
85,PLAYER_SLEEPBEFORE_END,1516037155376,41
85,WS_SEND_START,1516037155376,41
85,WS_SEND_END,1516037155376,41
85,WS_RECV_START,1516037155376,42
85,WS_RECV_END,1516037156188,42
85,PLAYER_SLEEPBEFORE_START,1516037156188,43
85,PLAYER_SLEEPBEFORE_END,1516037156216,43
85,WS_SEND_START,1516037156216,43
85,WS_SEND_END,1516037156216,43
85,WS_RECV_START,1516037156216,44
85,WS_RECV_END,1516037156323,44
85,PLAYER_SLEEPBEFORE_START,1516037156323,45
85,PLAYER_SLEEPBEFORE_END,1516037177812,45
85,WS_SEND_START,1516037177812,45
85,WS_SEND_END,1516037177812,45
85,WS_RECV_START,1516037177812,46
85,WS_RECV_END,1516037177935,46
85,PLAYER_SLEEPBEFORE_START,1516037177935,47
85,PLAYER_SLEEPBEFORE_END,1516037206420,47
85,WS_SEND_START,1516037206420,47
85,WS_SEND_END,1516037206420,47
85,WS_RECV_START,1516037206420,48
85,WS_RECV_END,1516037206523,48
85,PLAYER_SLEEPBEFORE_START,1516037206523,49
85,PLAYER_SLEEPBEFORE_END,1516037232932,49
85,WS_SEND_START,1516037232932,49
85,WS_SEND_END,1516037232932,49
85,WS_RECV_START,1516037232932,50
85,WS_RECV_END,1516037233076,50
85,PLAYER_SLEEPBEFORE_START,1516037233077,51
85,PLAYER_SLEEPBEFORE_END,1516037255628,51
85,WS_SEND_START,1516037255628,51
85,WS_SEND_END,1516037255628,51
85,WS_RECV_START,1516037255628,52
85,WS_RECV_END,1516037255730,52
85,PLAYER_SLEEPBEFORE_START,1516037255730,53
85,PLAYER_SLEEPBEFORE_END,1516037280634,53
85,WS_SEND_START,1516037280634,53
85,WS_SEND_END,1516037280634,53
85,WS_RECV_START,1516037280634,54
85,WS_RECV_END,1516037280756,54
85,PLAYER_SLEEPBEFORE_START,1516037280756,55
85,PLAYER_SLEEPBEFORE_END,1516037306157,55
85,WS_SEND_START,1516037306157,55
85,WS_SEND_END,1516037306158,55
85,WS_RECV_START,1516037306158,56
85,WS_RECV_END,1516037306273,56
85,PLAYER_SLEEPBEFORE_START,1516037306273,57
85,PLAYER_SLEEPBEFORE_END,1516037331611,57
85,WS_SEND_START,1516037331611,57
85,WS_SEND_END,1516037331611,57
85,WS_RECV_START,1516037331611,58
85,WS_RECV_END,1516037331987,58
85,PLAYER_SLEEPBEFORE_START,1516037331987,59
85,PLAYER_SLEEPBEFORE_END,1516037358844,59
85,WS_SEND_START,1516037358844,59
85,WS_SEND_END,1516037358844,59
85,WS_RECV_START,1516037358844,60
85,WS_RECV_END,1516037360007,60
85,PLAYER_SLEEPBEFORE_START,1516037360007,61
85,PLAYER_SLEEPBEFORE_END,1516037360030,61
85,WS_SEND_START,1516037360031,61
85,WS_SEND_END,1516037360031,61
85,WS_RECV_START,1516037360031,62
85,WS_RECV_END,1516037361820,62
85,PLAYER_SLEEPBEFORE_START,1516037361820,63
85,PLAYER_SLEEPBEFORE_END,1516037370824,63
85,REQ_START,1516037370824,63
85,REQ_END,1516037370832,63
85,PLAYER_SLEEPBEFORE_START,1516037370832,64
85,PLAYER_SLEEPBEFORE_END,1516037385038,64
85,WS_SEND_START,1516037385038,64
85,WS_SEND_END,1516037385038,64
85,WS_RECV_START,1516037385038,65
85,WS_RECV_END,1516037386135,65
85,PLAYER_SLEEPBEFORE_START,1516037386135,66
85,PLAYER_SLEEPBEFORE_END,1516037410123,66
85,WS_SEND_START,1516037410123,66
85,WS_SEND_END,1516037410123,66
85,WS_RECV_START,1516037410123,67
85,WS_RECV_END,1516037410540,67
85,PLAYER_SLEEPBEFORE_START,1516037410540,68
85,PLAYER_SLEEPBEFORE_END,1516037436114,68
85,WS_SEND_START,1516037436114,68
85,WS_SEND_END,1516037436114,68
85,WS_RECV_START,1516037436114,69
85,WS_RECV_END,1516037436170,69
85,PLAYER_SLEEPBEFORE_START,1516037436170,70
85,PLAYER_SLEEPBEFORE_END,1516037436179,70
85,WS_SEND_START,1516037436179,70
85,WS_SEND_END,1516037436179,70
85,WS_RECV_START,1516037436179,71
85,WS_RECV_END,1516037436219,71
85,PLAYER_SLEEPBEFORE_START,1516037436219,72
85,PLAYER_SLEEPBEFORE_END,1516037436424,72
85,WS_SEND_START,1516037436424,72
85,WS_SEND_END,1516037436424,72
85,WS_RECV_START,1516037436424,73
85,WS_RECV_END,1516037436496,73
85,PLAYER_SLEEPBEFORE_START,1516037436496,74
85,PLAYER_SLEEPBEFORE_END,1516037437918,74
85,WS_SEND_START,1516037437918,74
85,WS_SEND_END,1516037437918,74
85,WS_RECV_START,1516037437918,75
85,WS_RECV_END,1516037437970,75
85,PLAYER_SLEEPBEFORE_START,1516037437970,76
85,PLAYER_SLEEPBEFORE_END,1516037438465,76
85,WS_SEND_START,1516037438465,76
85,WS_SEND_END,1516037438465,76
85,WS_RECV_START,1516037438465,77
85,WS_RECV_END,1516037439597,77
85,PLAYER_SLEEPBEFORE_START,1516037439597,78
85,PLAYER_SLEEPBEFORE_END,1516037439615,78
85,WS_SEND_START,1516037439615,78
85,WS_SEND_END,1516037439615,78
85,WS_RECV_START,1516037439615,79
85,WS_RECV_END,1516037440006,79
85,PLAYER_SLEEPBEFORE_START,1516037440006,80
85,PLAYER_SLEEPBEFORE_END,1516037460740,80
85,WS_SEND_START,1516037460740,80
85,WS_SEND_END,1516037460740,80
85,WS_RECV_START,1516037460740,81
85,WS_RECV_END,1516037461011,81
85,PLAYER_SLEEPBEFORE_START,1516037461011,82
85,PLAYER_SLEEPBEFORE_END,1516037461022,82
85,WS_SEND_START,1516037461022,82
85,WS_SEND_END,1516037461022,82
85,WS_RECV_START,1516037461022,83
85,WS_RECV_END,1516037461211,83
85,PLAYER_SLEEPBEFORE_START,1516037461211,84
85,PLAYER_SLEEPBEFORE_END,1516037462074,84
85,WS_SEND_START,1516037462074,84
85,WS_SEND_END,1516037462074,84
85,WS_RECV_START,1516037462074,85
85,WS_RECV_END,1516037462129,85
85,PLAYER_SLEEPBEFORE_START,1516037462129,86
85,PLAYER_SLEEPBEFORE_END,1516037462856,86
85,WS_SEND_START,1516037462856,86
85,WS_SEND_END,1516037462856,86
85,WS_RECV_START,1516037462856,87
85,WS_RECV_END,1516037463835,87
85,PLAYER_SLEEPBEFORE_START,1516037463835,88
85,PLAYER_SLEEPBEFORE_END,1516037463856,88
85,WS_SEND_START,1516037463856,88
85,WS_SEND_END,1516037463856,88
85,WS_RECV_START,1516037463856,89
85,WS_RECV_END,1516037464803,89
85,PLAYER_SLEEPBEFORE_START,1516037464803,90
85,PLAYER_SLEEPBEFORE_END,1516037486232,90
85,WS_SEND_START,1516037486232,90
85,WS_SEND_END,1516037486232,90
85,PLAYER_SLEEPBEFORE_START,1516037486232,91
85,PLAYER_SLEEPBEFORE_END,1516037513087,91
85,WS_SEND_START,1516037513087,91
85,WS_SEND_END,1516037513087,91
85,WS_RECV_START,1516037513087,92
85,WS_RECV_END,1516037513255,92
85,PLAYER_SLEEPBEFORE_START,1516037513255,93
85,PLAYER_SLEEPBEFORE_END,1516037515529,93
85,WS_SEND_START,1516037515529,93
85,WS_SEND_END,1516037515529,93
85,WS_RECV_START,1516037515529,94
85,WS_RECV_END,1516037516217,94
85,PLAYER_SLEEPBEFORE_START,1516037516217,95
85,PLAYER_SLEEPBEFORE_END,1516037542213,95
85,WS_SEND_START,1516037542213,95
85,WS_SEND_END,1516037542213,95
85,WS_RECV_START,1516037542213,96
85,WS_RECV_END,1516037542372,96
85,PLAYER_SLEEPBEFORE_START,1516037542372,97
85,PLAYER_SLEEPBEFORE_END,1516037547460,97
85,WS_SEND_START,1516037547460,97
85,WS_SEND_END,1516037547460,97
85,WS_RECV_START,1516037547460,98
85,WS_RECV_END,1516037547619,98
85,PLAYER_SLEEPBEFORE_START,1516037547619,99
85,PLAYER_SLEEPBEFORE_END,1516037549319,99
85,WS_SEND_START,1516037549319,99
85,WS_SEND_END,1516037549319,99
85,WS_RECV_START,1516037549319,100
85,WS_RECV_END,1516037550718,100
85,PLAYER_SLEEPBEFORE_START,1516037550718,101
85,PLAYER_SLEEPBEFORE_END,1516037552557,101
85,WS_SEND_START,1516037552557,101
85,WS_SEND_END,1516037552557,101
85,WS_RECV_START,1516037552557,102
85,WS_RECV_END,1516037552784,102
85,PLAYER_SLEEPBEFORE_START,1516037552784,103
85,PLAYER_SLEEPBEFORE_END,1516037565834,103
85,WS_SEND_START,1516037565834,103
85,WS_SEND_END,1516037565834,103
85,PLAYER_SLEEPBEFORE_START,1516037565834,104
85,PLAYER_SLEEPBEFORE_END,1516037570260,104
85,WS_SEND_START,1516037570260,104
85,WS_SEND_END,1516037570260,104
85,WS_RECV_START,1516037570260,105
85,WS_RECV_END,1516037570465,105
85,PLAYER_SLEEPBEFORE_START,1516037570465,106
85,PLAYER_SLEEPBEFORE_END,1516037570475,106
85,WS_SEND_START,1516037570475,106
85,WS_SEND_END,1516037570475,106
85,WS_RECV_START,1516037570475,107
85,WS_RECV_END,1516037570663,107
85,PLAYER_SLEEPBEFORE_START,1516037570663,108
85,PLAYER_SLEEPBEFORE_END,1516037571128,108
85,WS_SEND_START,1516037571128,108
85,WS_SEND_END,1516037571128,108
85,WS_RECV_START,1516037571128,109
85,WS_RECV_END,1516037571914,109
85,PLAYER_SLEEPBEFORE_START,1516037571914,110
85,PLAYER_SLEEPBEFORE_END,1516037571930,110
85,WS_SEND_START,1516037571930,110
85,WS_SEND_END,1516037571930,110
85,WS_RECV_START,1516037571930,111
85,WS_RECV_END,1516037572294,111
85,PLAYER_SLEEPBEFORE_START,1516037572294,112
85,PLAYER_SLEEPBEFORE_END,1516037593058,112
85,WS_SEND_START,1516037593058,112
85,WS_SEND_END,1516037593058,112
85,PLAYER_SLEEPBEFORE_START,1516037593058,113
85,PLAYER_SLEEPBEFORE_END,1516037595452,113
85,WS_SEND_START,1516037595452,113
85,WS_SEND_END,1516037595452,113
85,WS_RECV_START,1516037595452,114
85,WS_RECV_END,1516037595612,114
85,PLAYER_SLEEPBEFORE_START,1516037595612,115
85,PLAYER_SLEEPBEFORE_END,1516037596395,115
85,WS_SEND_START,1516037596395,115
85,WS_SEND_END,1516037596395,115
85,WS_RECV_START,1516037596395,116
85,WS_RECV_END,1516037597668,116
85,PLAYER_SLEEPBEFORE_START,1516037597668,117
85,PLAYER_SLEEPBEFORE_END,1516037620053,117
85,WS_SEND_START,1516037620053,117
85,WS_SEND_END,1516037620053,117
85,WS_RECV_START,1516037620053,118
85,WS_RECV_END,1516037620211,118
85,PLAYER_SLEEPBEFORE_START,1516037620211,119
85,PLAYER_SLEEPBEFORE_END,1516037622115,119
85,WS_SEND_START,1516037622115,119
85,WS_SEND_END,1516037622115,119
85,WS_RECV_START,1516037622115,120
85,WS_RECV_END,1516037622272,120
85,PLAYER_SLEEPBEFORE_START,1516037622272,121
85,PLAYER_SLEEPBEFORE_END,1516037623424,121
85,WS_SEND_START,1516037623424,121
85,WS_SEND_END,1516037623424,121
85,WS_RECV_START,1516037623424,122
85,WS_RECV_END,1516037623602,122
85,PLAYER_SLEEPBEFORE_START,1516037623602,123
85,PLAYER_SLEEPBEFORE_END,1516037624727,123
85,WS_SEND_START,1516037624727,123
85,WS_SEND_END,1516037624727,123
85,WS_RECV_START,1516037624727,124
85,WS_RECV_END,1516037625512,124
85,PLAYER_SLEEPBEFORE_START,1516037625512,125
85,PLAYER_SLEEPBEFORE_END,1516037627008,125
85,WS_SEND_START,1516037627008,125
85,WS_SEND_END,1516037627008,125
85,WS_RECV_START,1516037627008,126
85,WS_RECV_END,1516037627164,126
85,PLAYER_SLEEPBEFORE_START,1516037627164,127
85,PLAYER_SLEEPBEFORE_END,1516037647775,127
85,WS_SEND_START,1516037647775,127
85,WS_SEND_END,1516037647775,127
85,WS_RECV_START,1516037647775,128
85,WS_RECV_END,1516037648841,128
85,PLAYER_SLEEPBEFORE_START,1516037648841,129
85,PLAYER_SLEEPBEFORE_END,1516037673872,129
85,WS_SEND_START,1516037673872,129
85,WS_SEND_END,1516037673872,129
85,PLAYER_SLEEPBEFORE_START,1516037673872,130
85,PLAYER_SLEEPBEFORE_END,1516037675853,130
85,WS_SEND_START,1516037675853,130
85,WS_SEND_END,1516037675853,130
85,WS_RECV_START,1516037675853,131
85,WS_RECV_END,1516037676847,131
85,PLAYER_SLEEPBEFORE_START,1516037676847,132
85,PLAYER_SLEEPBEFORE_END,1516037676856,132
85,WS_SEND_START,1516037676856,132
85,WS_SEND_END,1516037676856,132
85,WS_RECV_START,1516037676856,133
85,WS_RECV_END,1516037677296,133
85,PLAYER_SLEEPBEFORE_START,1516037677296,134
85,PLAYER_SLEEPBEFORE_END,1516037678372,134
85,REQ_START,1516037678372,134
85,REQ_END,1516037678383,134
85,PLAYER_SLEEPBEFORE_START,1516037678383,135
85,PLAYER_SLEEPBEFORE_END,1516037678973,135
85,WS_SEND_START,1516037678973,135
85,WS_SEND_END,1516037678973,135
85,WS_RECV_START,1516037678973,136
85,WS_RECV_END,1516037679964,136
85,PLAYER_SLEEPBEFORE_START,1516037679964,137
85,PLAYER_SLEEPBEFORE_END,1516037679977,137
85,WS_SEND_START,1516037679977,137
85,WS_SEND_END,1516037679977,137
85,WS_RECV_START,1516037679977,138
85,WS_RECV_END,1516037680914,138
85,PLAYER_SLEEPBEFORE_START,1516037680914,139
85,PLAYER_SLEEPBEFORE_END,1516037698589,139
85,WS_SEND_START,1516037698589,139
85,WS_SEND_END,1516037698589,139
85,PLAYER_SLEEPBEFORE_START,1516037698589,140
85,PLAYER_SLEEPBEFORE_END,1516037702492,140
85,WS_SEND_START,1516037702492,140
85,WS_SEND_END,1516037702492,140
85,PLAYER_SLEEPBEFORE_START,1516037702492,141
85,PLAYER_SLEEPBEFORE_END,1516037704784,141
85,WS_SEND_START,1516037704784,141
85,WS_SEND_END,1516037704784,141
85,WS_RECV_START,1516037704784,142
85,WS_RECV_END,1516037705063,142
85,PLAYER_SLEEPBEFORE_START,1516037705063,143
85,PLAYER_SLEEPBEFORE_END,1516037705071,143
85,WS_SEND_START,1516037705071,143
85,WS_SEND_END,1516037705071,143
85,WS_RECV_START,1516037705071,144
85,WS_RECV_END,1516037705112,144
85,PLAYER_SLEEPBEFORE_START,1516037705112,145
85,PLAYER_SLEEPBEFORE_END,1516037706855,145
85,WS_SEND_START,1516037706855,145
85,WS_SEND_END,1516037706855,145
85,WS_RECV_START,1516037706855,146
85,WS_RECV_END,1516037707519,146
85,PLAYER_SLEEPBEFORE_START,1516037707519,147
85,PLAYER_SLEEPBEFORE_END,1516037707528,147
85,WS_SEND_START,1516037707528,147
85,WS_SEND_END,1516037707528,147
85,WS_RECV_START,1516037707528,148
85,WS_RECV_END,1516037707695,148
85,PLAYER_SLEEPBEFORE_START,1516037707695,149
85,PLAYER_SLEEPBEFORE_END,1516037722808,149
85,WS_SEND_START,1516037722808,149
85,WS_SEND_END,1516037722808,149
85,PLAYER_SLEEPBEFORE_START,1516037722808,150
85,PLAYER_SLEEPBEFORE_END,1516037733484,150
85,WS_SEND_START,1516037733484,150
85,WS_SEND_END,1516037733484,150
85,PLAYER_SLEEPBEFORE_START,1516037733484,151
85,PLAYER_SLEEPBEFORE_END,1516037736475,151
85,WS_SEND_START,1516037736475,151
85,WS_SEND_END,1516037736475,151
85,WS_RECV_START,1516037736475,152
85,WS_RECV_END,1516037736788,152
85,PLAYER_SLEEPBEFORE_START,1516037736788,153
85,PLAYER_SLEEPBEFORE_END,1516037736795,153
85,WS_SEND_START,1516037736795,153
85,WS_SEND_END,1516037736795,153
85,WS_RECV_START,1516037736795,154
85,WS_RECV_END,1516037736948,154
85,PLAYER_SLEEPBEFORE_START,1516037736948,155
85,PLAYER_SLEEPBEFORE_END,1516037737556,155
85,WS_SEND_START,1516037737556,155
85,WS_SEND_END,1516037737556,155
85,WS_RECV_START,1516037737556,156
85,WS_RECV_END,1516037738154,156
85,PLAYER_SLEEPBEFORE_START,1516037738154,157
85,PLAYER_SLEEPBEFORE_END,1516037739497,157
85,WS_SEND_START,1516037739497,157
85,WS_SEND_END,1516037739497,157
85,WS_RECV_START,1516037739497,158
85,WS_RECV_END,1516037739771,158
85,PLAYER_SLEEPBEFORE_START,1516037739771,159
85,PLAYER_SLEEPBEFORE_END,1516037743671,159
85,WS_SEND_START,1516037743671,159
85,WS_SEND_END,1516037743671,159
85,WS_RECV_START,1516037743671,160
85,WS_RECV_END,1516037744753,160
85,PLAYER_SLEEPBEFORE_START,1516037744753,161
85,PLAYER_SLEEPBEFORE_END,1516037745536,161
85,WS_SEND_START,1516037745536,161
85,WS_SEND_END,1516037745536,161
85,WS_RECV_START,1516037745536,162
85,WS_RECV_END,1516037746144,162
85,PLAYER_SLEEPBEFORE_START,1516037746144,163
85,PLAYER_SLEEPBEFORE_END,1516037746153,163
85,WS_SEND_START,1516037746153,163
85,WS_SEND_END,1516037746153,163
85,WS_RECV_START,1516037746153,164
85,WS_RECV_END,1516037746423,164
85,PLAYER_SLEEPBEFORE_START,1516037746423,165
85,PLAYER_SLEEPBEFORE_END,1516037753796,165
85,WS_SEND_START,1516037753796,165
85,WS_SEND_END,1516037753796,165
85,WS_RECV_START,1516037753796,166
85,WS_RECV_END,1516037753963,166
85,PLAYER_SLEEPBEFORE_START,1516037753963,167
85,PLAYER_SLEEPBEFORE_END,1516037775212,167
85,WS_SEND_START,1516037775212,167
85,WS_SEND_END,1516037775212,167
85,PLAYER_SLEEPBEFORE_START,1516037775212,168
85,PLAYER_SLEEPBEFORE_END,1516037779947,168
85,WS_SEND_START,1516037779947,168
85,WS_SEND_END,1516037779947,168
85,PLAYER_SLEEPBEFORE_START,1516037779947,169
85,PLAYER_SLEEPBEFORE_END,1516037781498,169
85,WS_SEND_START,1516037781498,169
85,WS_SEND_END,1516037781498,169
85,WS_RECV_START,1516037781498,170
85,WS_RECV_END,1516037781650,170
85,PLAYER_SLEEPBEFORE_START,1516037781650,171
85,PLAYER_SLEEPBEFORE_END,1516037781657,171
85,WS_SEND_START,1516037781657,171
85,WS_SEND_END,1516037781657,171
85,WS_RECV_START,1516037781657,172
85,WS_RECV_END,1516037781700,172
85,PLAYER_SLEEPBEFORE_START,1516037781700,173
85,PLAYER_SLEEPBEFORE_END,1516037782468,173
85,WS_SEND_START,1516037782468,173
85,WS_SEND_END,1516037782468,173
85,WS_RECV_START,1516037782468,174
85,WS_RECV_END,1516037782519,174
85,PLAYER_SLEEPBEFORE_START,1516037782519,175
85,PLAYER_SLEEPBEFORE_END,1516037783279,175
85,WS_SEND_START,1516037783279,175
85,WS_SEND_END,1516037783279,175
85,WS_RECV_START,1516037783279,176
85,WS_RECV_END,1516037783330,176
85,PLAYER_SLEEPBEFORE_START,1516037783330,177
85,PLAYER_SLEEPBEFORE_END,1516037784130,177
85,WS_SEND_START,1516037784130,177
85,WS_SEND_END,1516037784130,177
85,WS_RECV_START,1516037784130,178
85,WS_RECV_END,1516037785841,178
85,PLAYER_SLEEPBEFORE_START,1516037785841,179
85,PLAYER_SLEEPBEFORE_END,1516037791095,179
85,WS_SEND_START,1516037791095,179
85,WS_SEND_END,1516037791095,179
85,PLAYER_SLEEPBEFORE_START,1516037791095,180
85,PLAYER_SLEEPBEFORE_END,1516037797713,180
85,WS_SEND_START,1516037797713,180
85,WS_SEND_END,1516037797713,180
85,PLAYER_SLEEPBEFORE_START,1516037797713,181
85,PLAYER_SLEEPBEFORE_END,1516037799449,181
85,WS_SEND_START,1516037799449,181
85,WS_SEND_END,1516037799449,181
85,WS_RECV_START,1516037799449,182
85,WS_RECV_END,1516037799502,182
85,PLAYER_SLEEPBEFORE_START,1516037799502,183
85,PLAYER_SLEEPBEFORE_END,1516037800239,183
85,WS_SEND_START,1516037800239,183
85,WS_SEND_END,1516037800239,183
85,WS_RECV_START,1516037800239,184
85,WS_RECV_END,1516037801076,184
85,PLAYER_SLEEPBEFORE_START,1516037801076,185
85,PLAYER_SLEEPBEFORE_END,1516037801089,185
85,WS_SEND_START,1516037801089,185
85,WS_SEND_END,1516037801089,185
85,WS_RECV_START,1516037801089,186
85,WS_RECV_END,1516037801309,186
85,PLAYER_SLEEPBEFORE_START,1516037801309,187
85,PLAYER_SLEEPBEFORE_END,1516037826316,187
85,WS_SEND_START,1516037826316,187
85,WS_SEND_END,1516037826316,187
85,WS_RECV_START,1516037826316,188
85,WS_RECV_END,1516037826422,188
85,PLAYER_SLEEPBEFORE_START,1516037826422,189
85,PLAYER_SLEEPBEFORE_END,1516037851645,189
85,WS_SEND_START,1516037851645,189
85,WS_SEND_END,1516037851645,189
85,WS_RECV_START,1516037851645,190
85,WS_RECV_END,1516037851701,190
85,PLAYER_SLEEPBEFORE_START,1516037851701,191
85,PLAYER_SLEEPBEFORE_END,1516037851706,191
85,WS_SEND_START,1516037851706,191
85,WS_SEND_END,1516037851706,191
85,WS_RECV_START,1516037851706,192
85,WS_RECV_END,1516037851748,192
85,PLAYER_SLEEPBEFORE_START,1516037851748,193
85,PLAYER_SLEEPBEFORE_END,1516037852185,193
85,WS_SEND_START,1516037852185,193
85,WS_SEND_END,1516037852185,193
85,WS_RECV_START,1516037852185,194
85,WS_RECV_END,1516037853292,194
85,PLAYER_SLEEPBEFORE_START,1516037853292,195
85,PLAYER_SLEEPBEFORE_END,1516037853305,195
85,WS_SEND_START,1516037853305,195
85,WS_SEND_END,1516037853305,195
85,WS_RECV_START,1516037853305,196
85,WS_RECV_END,1516037853608,196
85,PLAYER_SLEEPBEFORE_START,1516037853608,197
85,PLAYER_SLEEPBEFORE_END,1516037878378,197
85,WS_SEND_START,1516037878378,197
85,WS_SEND_END,1516037878379,197
85,WS_RECV_START,1516037878379,198
85,WS_RECV_END,1516037878436,198
85,PLAYER_SLEEPBEFORE_START,1516037878436,199
85,PLAYER_SLEEPBEFORE_END,1516037878443,199
85,WS_SEND_START,1516037878443,199
85,WS_SEND_END,1516037878443,199
85,WS_RECV_START,1516037878443,200
85,WS_RECV_END,1516037878484,200
85,PLAYER_SLEEPBEFORE_START,1516037878484,201
85,PLAYER_SLEEPBEFORE_END,1516037879781,201
85,WS_SEND_START,1516037879781,201
85,WS_SEND_END,1516037879781,201
85,WS_RECV_START,1516037879781,202
85,WS_RECV_END,1516037880436,202
85,PLAYER_SLEEPBEFORE_START,1516037880436,203
85,PLAYER_SLEEPBEFORE_END,1516037880448,203
85,WS_SEND_START,1516037880448,203
85,WS_SEND_END,1516037880448,203
85,WS_RECV_START,1516037880448,204
85,WS_RECV_END,1516037880577,204
85,PLAYER_SLEEPBEFORE_START,1516037880577,205
85,PLAYER_SLEEPBEFORE_END,1516037902208,205
85,WS_SEND_START,1516037902208,205
85,WS_SEND_END,1516037902208,205
85,WS_RECV_START,1516037902208,206
85,WS_RECV_END,1516037903545,206
85,PLAYER_SLEEPBEFORE_START,1516037903545,207
85,PLAYER_SLEEPBEFORE_END,1516037927668,207
85,WS_SEND_START,1516037927668,207
85,WS_SEND_END,1516037927668,207
85,WS_RECV_START,1516037927668,208
85,WS_RECV_END,1516037928711,208
85,PLAYER_SLEEPBEFORE_START,1516037928711,209
85,PLAYER_SLEEPBEFORE_END,1516037935125,209
85,WS_SEND_START,1516037935125,209
85,WS_SEND_END,1516037935125,209
85,WS_RECV_START,1516037935125,210
85,WS_RECV_END,1516037935287,210
85,PLAYER_SLEEPBEFORE_START,1516037935287,211
85,PLAYER_SLEEPBEFORE_END,1516037954119,211
85,WS_SEND_START,1516037954119,211
85,WS_SEND_END,1516037954119,211
85,WS_RECV_START,1516037954119,212
85,WS_RECV_END,1516037954223,212
85,PLAYER_SLEEPBEFORE_START,1516037954223,213
85,PLAYER_SLEEPBEFORE_END,1516037979277,213
85,WS_SEND_START,1516037979277,213
85,WS_SEND_END,1516037979277,213
85,WS_RECV_START,1516037979277,214
85,WS_RECV_END,1516037980232,214
85,PLAYER_SLEEPBEFORE_START,1516037980232,215
85,PLAYER_SLEEPBEFORE_END,1516037988343,215
85,REQ_START,1516037988343,215
85,REQ_END,1516037988351,215
85,PLAYER_SLEEPBEFORE_START,1516037988351,216
85,PLAYER_SLEEPBEFORE_END,1516038004912,216
85,WS_SEND_START,1516038004912,216
85,WS_SEND_END,1516038004912,216
85,WS_RECV_START,1516038004912,217
85,WS_RECV_END,1516038004968,217
85,PLAYER_SLEEPBEFORE_START,1516038004968,218
85,PLAYER_SLEEPBEFORE_END,1516038004975,218
85,WS_SEND_START,1516038004975,218
85,WS_SEND_END,1516038004975,218
85,WS_RECV_START,1516038004975,219
85,WS_RECV_END,1516038005016,219
85,PLAYER_SLEEPBEFORE_START,1516038005016,220
85,PLAYER_SLEEPBEFORE_END,1516038005785,220
85,WS_SEND_START,1516038005785,220
85,WS_SEND_END,1516038005785,220
85,WS_RECV_START,1516038005785,221
85,WS_RECV_END,1516038007635,221
85,PLAYER_SLEEPBEFORE_START,1516038007635,222
85,PLAYER_SLEEPBEFORE_END,1516038007692,222
85,WS_SEND_START,1516038007692,222
85,WS_SEND_END,1516038007692,222
85,WS_RECV_START,1516038007692,223
85,WS_RECV_END,1516038008152,223
85,PLAYER_SLEEPBEFORE_START,1516038008152,224
85,PLAYER_SLEEPBEFORE_END,1516038030808,224
85,WS_SEND_START,1516038030808,224
85,WS_SEND_END,1516038030808,224
85,WS_RECV_START,1516038030808,225
85,WS_RECV_END,1516038030912,225
85,PLAYER_SLEEPBEFORE_START,1516038030912,226
85,PLAYER_SLEEPBEFORE_END,1516038056647,226
85,WS_SEND_START,1516038056648,226
85,WS_SEND_END,1516038056648,226
85,WS_RECV_START,1516038056648,227
85,WS_RECV_END,1516038056849,227
85,PLAYER_SLEEPBEFORE_START,1516038056849,228
85,PLAYER_SLEEPBEFORE_END,1516038079842,228
85,WS_SEND_START,1516038079842,228
85,WS_SEND_END,1516038079842,228
85,WS_RECV_START,1516038079842,229
85,WS_RECV_END,1516038079942,229
85,PLAYER_SLEEPBEFORE_START,1516038079942,230
85,PLAYER_SLEEPBEFORE_END,1516038104158,230
85,WS_SEND_START,1516038104158,230
85,WS_SEND_END,1516038104158,230
85,WS_RECV_START,1516038104158,231
85,WS_RECV_END,1516038104287,231
85,PLAYER_SLEEPBEFORE_START,1516038104287,232
85,PLAYER_SLEEPBEFORE_END,1516038129043,232
85,WS_SEND_START,1516038129043,232
85,WS_SEND_END,1516038129043,232
85,WS_RECV_START,1516038129043,233
85,WS_RECV_END,1516038129757,233
85,PLAYER_SLEEPBEFORE_START,1516038129757,234
85,PLAYER_SLEEPBEFORE_END,1516038156791,234
85,WS_SEND_START,1516038156791,234
85,WS_SEND_END,1516038156791,234
85,WS_RECV_START,1516038156791,235
85,WS_RECV_END,1516038158599,235
85,PLAYER_SLEEPBEFORE_START,1516038158599,236
85,PLAYER_SLEEPBEFORE_END,1516038182439,236
85,WS_SEND_START,1516038182439,236
85,WS_SEND_END,1516038182439,236
85,WS_RECV_START,1516038182439,237
85,WS_RECV_END,1516038185182,237
85,PLAYER_SLEEPBEFORE_START,1516038185182,238
85,PLAYER_SLEEPBEFORE_END,1516038197992,238
85,WS_SEND_START,1516038197992,238
85,WS_SEND_END,1516038197992,238
85,WS_RECV_START,1516038197992,239
85,WS_RECV_END,1516038201194,239
85,PLAYER_SLEEPBEFORE_START,1516038201194,240
85,PLAYER_SLEEPBEFORE_END,1516038213849,240
85,WS_SEND_START,1516038213849,240
85,WS_SEND_END,1516038213849,240
85,WS_RECV_START,1516038213849,241
85,WS_RECV_END,1516038214667,241
85,PLAYER_SLEEPBEFORE_START,1516038214667,242
85,PLAYER_SLEEPBEFORE_END,1516038214690,242
85,WS_SEND_START,1516038214690,242
85,WS_SEND_END,1516038214690,242
85,WS_RECV_START,1516038214690,243
85,WS_RECV_END,1516038216886,243
85,PLAYER_SLEEPBEFORE_START,1516038216886,244
85,PLAYER_SLEEPBEFORE_END,1516038239124,244
85,WS_SEND_START,1516038239124,244
85,WS_SEND_END,1516038239124,244
85,WS_RECV_START,1516038239124,245
85,WS_RECV_END,1516038239182,245
85,PLAYER_SLEEPBEFORE_START,1516038239182,246
85,PLAYER_SLEEPBEFORE_END,1516038239191,246
85,WS_SEND_START,1516038239191,246
85,WS_SEND_END,1516038239191,246
85,WS_RECV_START,1516038239191,247
85,WS_RECV_END,1516038239233,247
85,PLAYER_SLEEPBEFORE_START,1516038239233,248
85,PLAYER_SLEEPBEFORE_END,1516038241270,248
85,WS_SEND_START,1516038241270,248
85,WS_SEND_END,1516038241270,248
85,WS_RECV_START,1516038241270,249
85,WS_RECV_END,1516038244513,249
85,PLAYER_SLEEPBEFORE_START,1516038244513,250
85,PLAYER_SLEEPBEFORE_END,1516038244550,250
85,WS_SEND_START,1516038244550,250
85,WS_SEND_END,1516038244550,250
85,WS_RECV_START,1516038244550,251
85,WS_RECV_END,1516038244854,251
85,PLAYER_SLEEPBEFORE_START,1516038244855,252
85,PLAYER_SLEEPBEFORE_END,1516038267497,252
85,WS_SEND_START,1516038267497,252
85,WS_SEND_END,1516038267497,252
85,WS_RECV_START,1516038267497,253
85,WS_RECV_END,1516038269200,253
85,PLAYER_SLEEPBEFORE_START,1516038269200,254
85,PLAYER_SLEEPBEFORE_END,1516038269216,254
85,WS_SEND_START,1516038269216,254
85,WS_SEND_END,1516038269216,254
85,WS_RECV_START,1516038269216,255
85,WS_RECV_END,1516038271092,255
85,PLAYER_SLEEPBEFORE_START,1516038271092,256
85,PLAYER_SLEEPBEFORE_END,1516038295714,256
85,WS_SEND_START,1516038295714,256
85,WS_SEND_END,1516038295714,256
85,WS_RECV_START,1516038295714,257
85,WS_RECV_END,1516038296649,257
85,PLAYER_SLEEPBEFORE_START,1516038296649,258
85,PLAYER_SLEEPBEFORE_END,1516038296657,258
85,WS_SEND_START,1516038296657,258
85,WS_SEND_END,1516038296657,258
85,WS_RECV_START,1516038296657,259
85,WS_RECV_END,1516038296937,259
85,PLAYER_SLEEPBEFORE_START,1516038296937,260
85,PLAYER_SLEEPBEFORE_END,1516038297461,260
85,WS_SEND_START,1516038297461,260
85,WS_SEND_END,1516038297461,260
85,WS_RECV_START,1516038297461,261
85,WS_RECV_END,1516038297543,261
85,PLAYER_SLEEPBEFORE_START,1516038297543,262
85,PLAYER_SLEEPBEFORE_END,1516038297816,262
85,WS_SEND_START,1516038297816,262
85,WS_SEND_END,1516038297816,262
85,WS_RECV_START,1516038297816,263
85,WS_RECV_END,1516038297868,263
85,PLAYER_SLEEPBEFORE_START,1516038297868,264
85,PLAYER_SLEEPBEFORE_END,1516038300281,264
85,WS_SEND_START,1516038300281,264
85,WS_SEND_END,1516038300281,264
85,WS_RECV_START,1516038300281,265
85,WS_RECV_END,1516038302219,265
85,PLAYER_SLEEPBEFORE_START,1516038302219,266
85,PLAYER_SLEEPBEFORE_END,1516038302231,266
85,WS_SEND_START,1516038302231,266
85,WS_SEND_END,1516038302231,266
85,WS_RECV_START,1516038302231,267
85,WS_RECV_END,1516038303383,267
85,PLAYER_SLEEPBEFORE_START,1516038303383,268
85,PLAYER_SLEEPBEFORE_END,1516038304853,268
85,REQ_START,1516038304853,268
85,REQ_END,1516038304862,268
85,PLAYER_SLEEPBEFORE_START,1516038304862,269
85,PLAYER_SLEEPBEFORE_END,1516038322256,269
85,WS_SEND_START,1516038322256,269
85,WS_SEND_END,1516038322256,269
85,WS_RECV_START,1516038322256,270
85,WS_RECV_END,1516038322314,270
85,PLAYER_SLEEPBEFORE_START,1516038322314,271
85,PLAYER_SLEEPBEFORE_END,1516038322321,271
85,WS_SEND_START,1516038322321,271
85,WS_SEND_END,1516038322321,271
85,WS_RECV_START,1516038322321,272
85,WS_RECV_END,1516038322361,272
85,PLAYER_SLEEPBEFORE_START,1516038322361,273
85,PLAYER_SLEEPBEFORE_END,1516038323659,273
85,WS_SEND_START,1516038323659,273
85,WS_SEND_END,1516038323659,273
85,WS_RECV_START,1516038323659,274
85,WS_RECV_END,1516038323802,274
85,PLAYER_SLEEPBEFORE_START,1516038323802,275
85,PLAYER_SLEEPBEFORE_END,1516038324975,275
85,WS_SEND_START,1516038324975,275
85,WS_SEND_END,1516038324975,275
85,WS_RECV_START,1516038324975,276
85,WS_RECV_END,1516038327004,276
85,PLAYER_SLEEPBEFORE_START,1516038327004,277
85,PLAYER_SLEEPBEFORE_END,1516038327026,277
85,WS_SEND_START,1516038327026,277
85,WS_SEND_END,1516038327026,277
85,WS_RECV_START,1516038327026,278
85,WS_RECV_END,1516038328154,278
85,PLAYER_SLEEPBEFORE_START,1516038328154,279
85,PLAYER_SLEEPBEFORE_END,1516038352678,279
85,WS_SEND_START,1516038352678,279
85,WS_SEND_END,1516038352678,279
85,WS_RECV_START,1516038352678,280
85,WS_RECV_END,1516038352816,280
85,PLAYER_SLEEPBEFORE_START,1516038352816,281
85,PLAYER_SLEEPBEFORE_END,1516038375104,281
85,WS_SEND_START,1516038375104,281
85,WS_SEND_END,1516038375104,281
85,WS_RECV_START,1516038375104,282
85,WS_RECV_END,1516038376907,282
85,PLAYER_SLEEPBEFORE_START,1516038376907,283
85,PLAYER_SLEEPBEFORE_END,1516038376925,283
85,WS_SEND_START,1516038376925,283
85,WS_SEND_END,1516038376925,283
85,WS_RECV_START,1516038376925,284
85,WS_RECV_END,1516038379760,284
85,PLAYER_SLEEPBEFORE_START,1516038379760,285
85,PLAYER_SLEEPBEFORE_END,1516038403892,285
85,WS_SEND_START,1516038403892,285
85,WS_SEND_END,1516038403892,285
85,WS_RECV_START,1516038403892,286
85,WS_RECV_END,1516038404802,286
85,PLAYER_SLEEPBEFORE_START,1516038404802,287
85,PLAYER_SLEEPBEFORE_END,1516038427957,287
85,WS_SEND_START,1516038427957,287
85,WS_SEND_END,1516038427957,287
85,WS_RECV_START,1516038427957,288
85,WS_RECV_END,1516038429668,288
85,PLAYER_SLEEPBEFORE_START,1516038429668,289
85,PLAYER_SLEEPBEFORE_END,1516038429690,289
85,WS_SEND_START,1516038429690,289
85,WS_SEND_END,1516038429690,289
85,WS_RECV_START,1516038429690,290
85,WS_RECV_END,1516038431707,290
85,PLAYER_SLEEPBEFORE_START,1516038431707,291
85,PLAYER_SLEEPBEFORE_END,1516038442321,291
85,WS_SEND_START,1516038442321,291
85,WS_SEND_END,1516038442321,291
85,WS_RECV_START,1516038442321,292
85,WS_RECV_END,1516038442434,292
85,PLAYER_SLEEPBEFORE_START,1516038442434,293
85,PLAYER_SLEEPBEFORE_END,1516038458190,293
85,WS_SEND_START,1516038458191,293
85,WS_SEND_END,1516038458191,293
85,WS_RECV_START,1516038458191,294
85,WS_RECV_END,1516038459137,294
85,PLAYER_SLEEPBEFORE_START,1516038459137,295
85,PLAYER_SLEEPBEFORE_END,1516038459162,295
85,WS_SEND_START,1516038459162,295
85,WS_SEND_END,1516038459162,295
85,WS_RECV_START,1516038459162,296
85,WS_RECV_END,1516038463271,296
85,PLAYER_SLEEPBEFORE_START,1516038463271,297
85,PLAYER_SLEEPBEFORE_END,1516038484768,297
85,WS_SEND_START,1516038484768,297
85,WS_SEND_END,1516038484768,297
85,WS_RECV_START,1516038484768,298
85,WS_RECV_END,1516038485616,298
85,PLAYER_SLEEPBEFORE_START,1516038485616,299
85,PLAYER_SLEEPBEFORE_END,1516038485626,299
85,WS_SEND_START,1516038485627,299
85,WS_SEND_END,1516038485627,299
85,WS_RECV_START,1516038485627,300
85,WS_RECV_END,1516038485882,300
85,PLAYER_SLEEPBEFORE_START,1516038485882,301
85,PLAYER_SLEEPBEFORE_END,1516038488242,301
85,WS_SEND_START,1516038488242,301
85,WS_SEND_END,1516038488243,301
85,WS_RECV_START,1516038488243,302
85,WS_RECV_END,1516038489533,302
85,PLAYER_SLEEPBEFORE_START,1516038489533,303
85,PLAYER_SLEEPBEFORE_END,1516038489557,303
85,WS_SEND_START,1516038489557,303
85,WS_SEND_END,1516038489557,303
85,WS_RECV_START,1516038489557,304
85,WS_RECV_END,1516038489788,304
85,PLAYER_SLEEPBEFORE_START,1516038489788,305
85,PLAYER_SLEEPBEFORE_END,1516038514779,305
85,WS_SEND_START,1516038514779,305
85,WS_SEND_END,1516038514779,305
85,WS_RECV_START,1516038514779,306
85,WS_RECV_END,1516038516718,306
85,PLAYER_SLEEPBEFORE_START,1516038516718,307
85,PLAYER_SLEEPBEFORE_END,1516038540593,307
85,WS_SEND_START,1516038540593,307
85,WS_SEND_END,1516038540593,307
85,WS_RECV_START,1516038540593,308
85,WS_RECV_END,1516038543017,308
85,PLAYER_SLEEPBEFORE_START,1516038543017,309
85,PLAYER_SLEEPBEFORE_END,1516038564708,309
85,WS_SEND_START,1516038564708,309
85,WS_SEND_END,1516038564708,309
85,WS_RECV_START,1516038564708,310
85,WS_RECV_END,1516038564964,310
85,PLAYER_SLEEPBEFORE_START,1516038564964,311
85,PLAYER_SLEEPBEFORE_END,1516038593791,311
85,WS_SEND_START,1516038593791,311
85,WS_SEND_END,1516038593791,311
85,WS_RECV_START,1516038593791,312
85,WS_RECV_END,1516038599236,312
85,PLAYER_SLEEPBEFORE_START,1516038599236,313
85,PLAYER_SLEEPBEFORE_END,1516038599256,313
85,WS_SEND_START,1516038599256,313
85,WS_SEND_END,1516038599256,313
85,WS_RECV_START,1516038599256,314
85,WS_RECV_END,1516038602743,314
85,PLAYER_SLEEPBEFORE_START,1516038602743,315
85,PLAYER_SLEEPBEFORE_END,1516038624330,315
85,WS_SEND_START,1516038624330,315
85,WS_SEND_END,1516038624330,315
85,WS_RECV_START,1516038624330,316
85,WS_RECV_END,1516038625559,316
85,PLAYER_SLEEPBEFORE_START,1516038625559,317
85,PLAYER_SLEEPBEFORE_END,1516038625567,317
85,WS_SEND_START,1516038625567,317
85,WS_SEND_END,1516038625567,317
85,WS_RECV_START,1516038625567,318
85,WS_RECV_END,1516038628475,318
85,PLAYER_SLEEPBEFORE_START,1516038628475,319
85,PLAYER_SLEEPBEFORE_END,1516038628807,319
85,WS_SEND_START,1516038628807,319
85,WS_SEND_END,1516038628807,319
85,WS_RECV_START,1516038628807,320
85,WS_RECV_END,1516038632490,320
85,PLAYER_SLEEPBEFORE_START,1516038632490,321
85,PLAYER_SLEEPBEFORE_END,1516038632509,321
85,WS_SEND_START,1516038632509,321
85,WS_SEND_END,1516038632509,321
85,WS_RECV_START,1516038632509,322
85,WS_RECV_END,1516038634791,322
85,PLAYER_SLEEPBEFORE_START,1516038634791,323
85,PLAYER_SLEEPBEFORE_END,1516038639184,323
85,REQ_START,1516038639184,323
85,REQ_END,1516038639192,323
85,PLAYER_SLEEPBEFORE_START,1516038639192,324
85,PLAYER_SLEEPBEFORE_END,1516038659078,324
85,WS_SEND_START,1516038659078,324
85,WS_SEND_END,1516038659078,324
85,WS_RECV_START,1516038659078,325
85,WS_RECV_END,1516038661613,325
85,PLAYER_SLEEPBEFORE_START,1516038661613,326
85,PLAYER_SLEEPBEFORE_END,1516038661622,326
85,WS_SEND_START,1516038661622,326
85,WS_SEND_END,1516038661622,326
85,WS_RECV_START,1516038661622,327
85,WS_RECV_END,1516038663959,327
85,PLAYER_SLEEPBEFORE_START,1516038663959,328
85,PLAYER_SLEEPBEFORE_END,1516038664320,328
85,WS_SEND_START,1516038664320,328
85,WS_SEND_END,1516038664320,328
85,WS_RECV_START,1516038664320,329
85,WS_RECV_END,1516038665360,329
85,PLAYER_SLEEPBEFORE_START,1516038665360,330
85,PLAYER_SLEEPBEFORE_END,1516038665706,330
85,WS_SEND_START,1516038665706,330
85,WS_SEND_END,1516038665706,330
85,WS_RECV_START,1516038665706,331
85,WS_RECV_END,1516038666364,331
85,PLAYER_SLEEPBEFORE_START,1516038666364,332
85,PLAYER_SLEEPBEFORE_END,1516038667211,332
85,WS_SEND_START,1516038667211,332
85,WS_SEND_END,1516038667211,332
85,WS_RECV_START,1516038667211,333
85,WS_RECV_END,1516038667428,333
85,PLAYER_SLEEPBEFORE_START,1516038667428,334
85,PLAYER_SLEEPBEFORE_END,1516038667825,334
85,WS_SEND_START,1516038667825,334
85,WS_SEND_END,1516038667825,334
85,WS_RECV_START,1516038667825,335
85,WS_RECV_END,1516038671269,335
85,PLAYER_SLEEPBEFORE_START,1516038671269,336
85,PLAYER_SLEEPBEFORE_END,1516038671593,336
85,WS_SEND_START,1516038671593,336
85,WS_SEND_END,1516038671593,336
85,WS_RECV_START,1516038671593,337
85,WS_RECV_END,1516038676456,337
85,PLAYER_SLEEPBEFORE_START,1516038676456,338
85,PLAYER_SLEEPBEFORE_END,1516038676471,338
85,WS_SEND_START,1516038676471,338
85,WS_SEND_END,1516038676471,338
85,WS_RECV_START,1516038676471,339
85,WS_RECV_END,1516038677375,339
85,PLAYER_SLEEPBEFORE_START,1516038677375,340
85,PLAYER_SLEEPBEFORE_END,1516038695347,340
85,WS_SEND_START,1516038695347,340
85,WS_SEND_END,1516038695347,340
85,WS_RECV_START,1516038695347,341
85,WS_RECV_END,1516038696959,341
85,PLAYER_SLEEPBEFORE_START,1516038696959,342
85,PLAYER_SLEEPBEFORE_END,1516038696968,342
85,WS_SEND_START,1516038696968,342
85,WS_SEND_END,1516038696968,342
85,WS_RECV_START,1516038696968,343
85,WS_RECV_END,1516038697139,343
85,PLAYER_SLEEPBEFORE_START,1516038697139,344
85,PLAYER_SLEEPBEFORE_END,1516038699451,344
85,WS_SEND_START,1516038699451,344
85,WS_SEND_END,1516038699451,344
85,WS_RECV_START,1516038699451,345
85,WS_RECV_END,1516038705615,345
85,PLAYER_SLEEPBEFORE_START,1516038705615,346
85,PLAYER_SLEEPBEFORE_END,1516038705626,346
85,WS_SEND_START,1516038705626,346
85,WS_SEND_END,1516038705626,346
85,WS_RECV_START,1516038705626,347
85,WS_RECV_END,1516038709916,347
85,PLAYER_SLEEPBEFORE_START,1516038709916,348
85,PLAYER_SLEEPBEFORE_END,1516038730523,348
85,WS_SEND_START,1516038730523,348
85,WS_SEND_END,1516038730523,348
85,WS_RECV_START,1516038730523,349
85,WS_RECV_END,1516038732564,349
85,PLAYER_SLEEPBEFORE_START,1516038732564,350
85,PLAYER_SLEEPBEFORE_END,1516038732572,350
85,WS_SEND_START,1516038732572,350
85,WS_SEND_END,1516038732572,350
85,WS_RECV_START,1516038732572,351
85,WS_RECV_END,1516038737747,351
85,PLAYER_SLEEPBEFORE_START,1516038737747,352
85,PLAYER_SLEEPBEFORE_END,1516038738934,352
85,WS_SEND_START,1516038738934,352
85,WS_SEND_END,1516038738935,352
85,WS_RECV_START,1516038738935,353
85,WS_RECV_END,1516038740548,353
85,PLAYER_SLEEPBEFORE_START,1516038740548,354
85,PLAYER_SLEEPBEFORE_END,1516038740564,354
85,WS_SEND_START,1516038740564,354
85,WS_SEND_END,1516038740564,354
85,WS_RECV_START,1516038740564,355
85,WS_RECV_END,1516038742518,355
85,PLAYER_SLEEPBEFORE_START,1516038742518,356
85,PLAYER_SLEEPBEFORE_END,1516038742565,356
85,WS_SEND_START,1516038742565,356
85,WS_SEND_END,1516038742565,356
85,WS_RECV_START,1516038742565,357
85,WS_RECV_END,1516038743854,357
85,PLAYER_SLEEPBEFORE_START,1516038743854,358
85,PLAYER_SLEEPBEFORE_END,1516038743869,358
85,WS_SEND_START,1516038743869,358
85,WS_SEND_END,1516038743869,358
85,WS_RECV_START,1516038743869,359
85,WS_RECV_END,1516038744033,359
85,PLAYER_SLEEPBEFORE_START,1516038744034,360
85,PLAYER_SLEEPBEFORE_END,1516038764500,360
85,WS_SEND_START,1516038764500,360
85,WS_SEND_END,1516038764500,360
85,WS_RECV_START,1516038764500,361
85,WS_RECV_END,1516038764606,361
85,PLAYER_SLEEPBEFORE_START,1516038764606,362
85,PLAYER_SLEEPBEFORE_END,1516038764615,362
85,WS_SEND_START,1516038764615,362
85,WS_SEND_END,1516038764615,362
85,WS_RECV_START,1516038764615,363
85,WS_RECV_END,1516038764703,363
85,PLAYER_SLEEPBEFORE_START,1516038764703,364
85,PLAYER_SLEEPBEFORE_END,1516038766794,364
85,WS_SEND_START,1516038766794,364
85,WS_SEND_END,1516038766794,364
85,WS_RECV_START,1516038766794,365
85,WS_RECV_END,1516038769221,365
85,PLAYER_SLEEPBEFORE_START,1516038769221,366
85,PLAYER_SLEEPBEFORE_END,1516038769231,366
85,WS_SEND_START,1516038769231,366
85,WS_SEND_END,1516038769231,366
85,WS_RECV_START,1516038769231,367
85,WS_RECV_END,1516038769615,367
85,PLAYER_SLEEPBEFORE_START,1516038769615,368
85,PLAYER_SLEEPBEFORE_END,1516038793076,368
85,WS_SEND_START,1516038793076,368
85,WS_SEND_END,1516038793076,368
85,WS_RECV_START,1516038793076,369
85,WS_RECV_END,1516038793774,369
85,PLAYER_SLEEPBEFORE_START,1516038793774,370
85,PLAYER_SLEEPBEFORE_END,1516038793782,370
85,WS_SEND_START,1516038793782,370
85,WS_SEND_END,1516038793782,370
85,WS_RECV_START,1516038793782,371
85,WS_RECV_END,1516038795647,371
85,PLAYER_SLEEPBEFORE_START,1516038795647,372
85,PLAYER_SLEEPBEFORE_END,1516038796019,372
85,WS_SEND_START,1516038796019,372
85,WS_SEND_END,1516038796019,372
85,WS_RECV_START,1516038796019,373
85,WS_RECV_END,1516038796364,373
85,PLAYER_SLEEPBEFORE_START,1516038796364,374
85,PLAYER_SLEEPBEFORE_END,1516038797066,374
85,WS_SEND_START,1516038797066,374
85,WS_SEND_END,1516038797066,374
85,WS_RECV_START,1516038797066,375
85,WS_RECV_END,1516038797301,375
85,PLAYER_SLEEPBEFORE_START,1516038797301,376
85,PLAYER_SLEEPBEFORE_END,1516038797652,376
85,WS_SEND_START,1516038797652,376
85,WS_SEND_END,1516038797652,376
85,WS_RECV_START,1516038797652,377
85,WS_RECV_END,1516038798451,377
85,PLAYER_SLEEPBEFORE_START,1516038798451,378
85,PLAYER_SLEEPBEFORE_END,1516038798470,378
85,WS_SEND_START,1516038798470,378
85,WS_SEND_END,1516038798470,378
85,WS_RECV_START,1516038798470,379
85,WS_RECV_END,1516038798842,379
85,PLAYER_SLEEPBEFORE_START,1516038798842,380
85,PLAYER_SLEEPBEFORE_END,1516038819334,380
85,WS_SEND_START,1516038819334,380
85,WS_SEND_END,1516038819334,380
85,PLAYER_SLEEPBEFORE_START,1516038819334,381
85,PLAYER_SLEEPBEFORE_END,1516038823548,381
85,WS_SEND_START,1516038823548,381
85,WS_SEND_END,1516038823548,381
85,WS_RECV_START,1516038823548,382
85,WS_RECV_END,1516038824035,382
85,PLAYER_SLEEPBEFORE_START,1516038824035,383
85,PLAYER_SLEEPBEFORE_END,1516038844235,383
85,WS_SEND_START,1516038844235,383
85,WS_SEND_END,1516038844235,383
85,PLAYER_SLEEPBEFORE_START,1516038844235,384
85,PLAYER_SLEEPBEFORE_END,1516038847421,384
85,WS_SEND_START,1516038847421,384
85,WS_SEND_END,1516038847421,384
85,WS_RECV_START,1516038847421,385
85,WS_RECV_END,1516038848147,385
85,PLAYER_SLEEPBEFORE_START,1516038848147,386
85,PLAYER_SLEEPBEFORE_END,1516038848162,386
85,WS_SEND_START,1516038848162,386
85,WS_SEND_END,1516038848162,386
85,WS_RECV_START,1516038848162,387
85,WS_RECV_END,1516038848325,387
85,PLAYER_SLEEPBEFORE_START,1516038848325,388
85,PLAYER_SLEEPBEFORE_END,1516038868855,388
85,WS_SEND_START,1516038868855,388
85,WS_SEND_END,1516038868855,388
85,PLAYER_SLEEPBEFORE_START,1516038868855,389
85,PLAYER_SLEEPBEFORE_END,1516038871074,389
85,WS_SEND_START,1516038871074,389
85,WS_SEND_END,1516038871074,389
85,WS_RECV_START,1516038871074,390
85,WS_RECV_END,1516038871244,390
85,PLAYER_SLEEPBEFORE_START,1516038871244,391
85,PLAYER_SLEEPBEFORE_END,1516038894080,391
85,WS_SEND_START,1516038894080,391
85,WS_SEND_END,1516038894080,391
85,WS_RECV_START,1516038894080,392
85,WS_RECV_END,1516038894239,392
85,PLAYER_SLEEPBEFORE_START,1516038894239,393
85,PLAYER_SLEEPBEFORE_END,1516038918928,393
85,WS_SEND_START,1516038918928,393
85,WS_SEND_END,1516038918928,393
85,PLAYER_SLEEPBEFORE_START,1516038918928,394
85,PLAYER_SLEEPBEFORE_END,1516038920900,394
85,WS_SEND_START,1516038920900,394
85,WS_SEND_END,1516038920900,394
85,WS_RECV_START,1516038920900,395
85,WS_RECV_END,1516038920955,395
85,PLAYER_SLEEPBEFORE_START,1516038920955,396
85,PLAYER_SLEEPBEFORE_END,1516038920963,396
85,WS_SEND_START,1516038920963,396
85,WS_SEND_END,1516038920963,396
85,WS_RECV_START,1516038920963,397
85,WS_RECV_END,1516038921003,397
85,PLAYER_SLEEPBEFORE_START,1516038921003,398
85,PLAYER_SLEEPBEFORE_END,1516038921184,398
85,WS_SEND_START,1516038921184,398
85,WS_SEND_END,1516038921184,398
85,WS_RECV_START,1516038921184,399
85,WS_RECV_END,1516038921299,399
85,PLAYER_SLEEPBEFORE_START,1516038921299,400
85,PLAYER_SLEEPBEFORE_END,1516038922374,400
85,WS_SEND_START,1516038922374,400
85,WS_SEND_END,1516038922374,400
85,WS_RECV_START,1516038922375,401
85,WS_RECV_END,1516038922426,401
85,PLAYER_SLEEPBEFORE_START,1516038922426,402
85,PLAYER_SLEEPBEFORE_END,1516038923785,402
85,WS_SEND_START,1516038923785,402
85,WS_SEND_END,1516038923786,402
85,WS_RECV_START,1516038923786,403
85,WS_RECV_END,1516038925700,403
85,PLAYER_SLEEPBEFORE_START,1516038925700,404
85,PLAYER_SLEEPBEFORE_END,1516038926170,404
85,WS_SEND_START,1516038926170,404
85,WS_SEND_END,1516038926170,404
85,WS_RECV_START,1516038926170,405
85,WS_RECV_END,1516038926221,405
85,PLAYER_SLEEPBEFORE_START,1516038926221,406
85,PLAYER_SLEEPBEFORE_END,1516038928948,406
85,WS_SEND_START,1516038928948,406
85,WS_SEND_END,1516038928948,406
85,WS_RECV_START,1516038928948,407
85,WS_RECV_END,1516038929000,407
85,PLAYER_SLEEPBEFORE_START,1516038929000,408
85,PLAYER_SLEEPBEFORE_END,1516038929329,408
85,WS_SEND_START,1516038929329,408
85,WS_SEND_END,1516038929329,408
85,WS_RECV_START,1516038929329,409
85,WS_RECV_END,1516038929380,409
85,PLAYER_SLEEPBEFORE_START,1516038929380,410
85,PLAYER_SLEEPBEFORE_END,1516038930405,410
85,WS_SEND_START,1516038930405,410
85,WS_SEND_END,1516038930405,410
85,WS_RECV_START,1516038930405,411
85,WS_RECV_END,1516038930455,411
85,PLAYER_SLEEPBEFORE_START,1516038930455,412
85,PLAYER_SLEEPBEFORE_END,1516038931111,412
85,WS_SEND_START,1516038931111,412
85,WS_SEND_END,1516038931111,412
85,WS_RECV_START,1516038931111,413
85,WS_RECV_END,1516038931823,413
85,PLAYER_SLEEPBEFORE_START,1516038931823,414
85,PLAYER_SLEEPBEFORE_END,1516038931840,414
85,WS_SEND_START,1516038931840,414
85,WS_SEND_END,1516038931840,414
85,WS_RECV_START,1516038931840,415
85,WS_RECV_END,1516038932096,415
85,PLAYER_SLEEPBEFORE_START,1516038932096,416
85,PLAYER_SLEEPBEFORE_END,1516038946363,416
85,WS_SEND_START,1516038946363,416
85,WS_SEND_END,1516038946363,416
85,PLAYER_SLEEPBEFORE_START,1516038946363,417
85,PLAYER_SLEEPBEFORE_END,1516038975042,417
85,WS_SEND_START,1516038975042,417
85,WS_SEND_END,1516038975042,417
85,WS_RECV_START,1516038975042,418
85,WS_RECV_END,1516038975196,418
85,PLAYER_SLEEPBEFORE_START,1516038975196,419
85,PLAYER_SLEEPBEFORE_END,1516038980019,419
85,REQ_START,1516038980019,419
85,REQ_END,1516038980034,419
85,PLAYER_SLEEPBEFORE_START,1516038980034,420
85,PLAYER_SLEEPBEFORE_END,1516038998779,420
85,WS_CLOSE_START,1516038998779,420
85,WS_CLOSE_END,1516038998779,420
85,PLAYER_DONE,1516038998779
