# --sessions 120 --app-url=http://shinyloadtest.rstudioservices.com/ --output-dir test120 --overwrite-output --log-level warn --start-interval 1500 30min.log
thread_id,event,timestamp,input_line_number,comment
19,PLAYER_SESSION_CREATE,1516039402260
19,PLAYER_START_INTERVAL_START,1516039402260
19,PLAYER_START_INTERVAL_END,1516039430760
19,REQ_HOME_START,1516039430760,2
19,REQ_HOME_END,1516039430848,2
19,REQ_START,1516039430848,3
19,REQ_END,1516039430879,3
19,REQ_START,1516039430879,4
19,REQ_END,1516039430911,4
19,REQ_START,1516039430911,5
19,REQ_END,1516039430968,5
19,REQ_START,1516039430968,6
19,REQ_END,1516039431005,6
19,REQ_START,1516039431005,7
19,REQ_END,1516039431040,7
19,REQ_START,1516039431040,8
19,REQ_END,1516039431072,8
19,REQ_START,1516039431073,9
19,REQ_END,1516039431109,9
19,REQ_START,1516039431109,10
19,REQ_END,1516039431119,10
19,REQ_START,1516039431119,11
19,REQ_END,1516039431150,11
19,REQ_START,1516039431150,12
19,REQ_END,1516039431182,12
19,REQ_START,1516039431182,13
19,REQ_END,1516039431192,13
19,REQ_START,1516039431192,14
19,REQ_END,1516039431207,14
19,REQ_START,1516039431207,15
19,REQ_END,1516039431241,15
19,REQ_TOK_START,1516039431241,16
19,REQ_TOK_END,1516039431249,16
19,REQ_SINF_START,1516039431249,17
19,REQ_SINF_END,1516039431257,17
19,WS_OPEN_START,1516039431257,18
19,WS_OPEN_END,1516039431264,18
19,WS_RECV_START,1516039431264,19
19,WS_RECV_END,1516039431265,19
19,PLAYER_SLEEPBEFORE_START,1516039431265,20
19,PLAYER_SLEEPBEFORE_END,1516039431271,20
19,WS_SEND_START,1516039431271,20
19,WS_SEND_END,1516039431271,20
19,PLAYER_SLEEPBEFORE_START,1516039431271,21
19,PLAYER_SLEEPBEFORE_END,1516039431272,21
19,WS_SEND_START,1516039431272,21
19,WS_SEND_END,1516039431272,21
19,WS_RECV_INIT_START,1516039431272,22
19,WS_RECV_INIT_END,1516039431289,22
19,WS_RECV_START,1516039431289,23
19,WS_RECV_END,1516039431349,23
19,PLAYER_SLEEPBEFORE_START,1516039431349,24
19,PLAYER_SLEEPBEFORE_END,1516039431357,24
19,REQ_START,1516039431357,24
19,REQ_END,1516039431389,24
19,PLAYER_SLEEPBEFORE_START,1516039431389,25
19,PLAYER_SLEEPBEFORE_END,1516039431391,25
19,REQ_START,1516039431391,25
19,REQ_END,1516039431424,25
19,PLAYER_SLEEPBEFORE_START,1516039431424,26
19,PLAYER_SLEEPBEFORE_END,1516039431427,26
19,REQ_START,1516039431427,26
19,REQ_END,1516039431459,26
19,PLAYER_SLEEPBEFORE_START,1516039431459,27
19,PLAYER_SLEEPBEFORE_END,1516039431716,27
19,REQ_START,1516039431716,27
19,REQ_END,1516039431748,27
19,PLAYER_SLEEPBEFORE_START,1516039431748,28
19,PLAYER_SLEEPBEFORE_END,1516039431946,28
19,WS_SEND_START,1516039431946,28
19,WS_SEND_END,1516039431946,28
19,WS_RECV_START,1516039431946,29
19,WS_RECV_END,1516039432119,29
19,PLAYER_SLEEPBEFORE_START,1516039432119,30
19,PLAYER_SLEEPBEFORE_END,1516039432130,30
19,REQ_START,1516039432130,30
19,REQ_END,1516039432178,30
19,PLAYER_SLEEPBEFORE_START,1516039432178,31
19,PLAYER_SLEEPBEFORE_END,1516039462298,31
19,WS_SEND_START,1516039462298,31
19,WS_SEND_END,1516039462298,31
19,WS_RECV_START,1516039462298,32
19,WS_RECV_END,1516039462516,32
19,PLAYER_SLEEPBEFORE_START,1516039462516,33
19,PLAYER_SLEEPBEFORE_END,1516039487282,33
19,WS_SEND_START,1516039487282,33
19,WS_SEND_END,1516039487282,33
19,WS_RECV_START,1516039487282,34
19,WS_RECV_END,1516039487379,34
19,PLAYER_SLEEPBEFORE_START,1516039487379,35
19,PLAYER_SLEEPBEFORE_END,1516039512192,35
19,WS_SEND_START,1516039512192,35
19,WS_SEND_END,1516039512193,35
19,WS_RECV_START,1516039512193,36
19,WS_RECV_END,1516039512566,36
19,PLAYER_SLEEPBEFORE_START,1516039512566,37
19,PLAYER_SLEEPBEFORE_END,1516039512575,37
19,WS_SEND_START,1516039512575,37
19,WS_SEND_END,1516039512575,37
19,WS_RECV_START,1516039512575,38
19,WS_RECV_END,1516039512725,38
19,PLAYER_SLEEPBEFORE_START,1516039512725,39
19,PLAYER_SLEEPBEFORE_END,1516039515422,39
19,WS_SEND_START,1516039515422,39
19,WS_SEND_END,1516039515422,39
19,WS_RECV_START,1516039515422,40
19,WS_RECV_END,1516039515479,40
19,PLAYER_SLEEPBEFORE_START,1516039515479,41
19,PLAYER_SLEEPBEFORE_END,1516039516598,41
19,WS_SEND_START,1516039516598,41
19,WS_SEND_END,1516039516598,41
19,WS_RECV_START,1516039516598,42
19,WS_RECV_END,1516039517523,42
19,PLAYER_SLEEPBEFORE_START,1516039517524,43
19,PLAYER_SLEEPBEFORE_END,1516039517552,43
19,WS_SEND_START,1516039517552,43
19,WS_SEND_END,1516039517552,43
19,WS_RECV_START,1516039517552,44
19,WS_RECV_END,1516039517659,44
19,PLAYER_SLEEPBEFORE_START,1516039517659,45
19,PLAYER_SLEEPBEFORE_END,1516039539149,45
19,WS_SEND_START,1516039539149,45
19,WS_SEND_END,1516039539149,45
19,WS_RECV_START,1516039539149,46
19,WS_RECV_END,1516039539261,46
19,PLAYER_SLEEPBEFORE_START,1516039539262,47
19,PLAYER_SLEEPBEFORE_END,1516039567747,47
19,WS_SEND_START,1516039567747,47
19,WS_SEND_END,1516039567747,47
19,WS_RECV_START,1516039567747,48
19,WS_RECV_END,1516039568493,48
19,PLAYER_SLEEPBEFORE_START,1516039568493,49
19,PLAYER_SLEEPBEFORE_END,1516039594902,49
19,WS_SEND_START,1516039594902,49
19,WS_SEND_END,1516039594902,49
19,WS_RECV_START,1516039594902,50
19,WS_RECV_END,1516039595023,50
19,PLAYER_SLEEPBEFORE_START,1516039595023,51
19,PLAYER_SLEEPBEFORE_END,1516039617574,51
19,WS_SEND_START,1516039617574,51
19,WS_SEND_END,1516039617574,51
19,WS_RECV_START,1516039617574,52
19,WS_RECV_END,1516039617711,52
19,PLAYER_SLEEPBEFORE_START,1516039617711,53
19,PLAYER_SLEEPBEFORE_END,1516039642616,53
19,WS_SEND_START,1516039642616,53
19,WS_SEND_END,1516039642616,53
19,WS_RECV_START,1516039642616,54
19,WS_RECV_END,1516039642721,54
19,PLAYER_SLEEPBEFORE_START,1516039642721,55
19,PLAYER_SLEEPBEFORE_END,1516039668122,55
19,WS_SEND_START,1516039668122,55
19,WS_SEND_END,1516039668122,55
19,WS_RECV_START,1516039668122,56
19,WS_RECV_END,1516039668232,56
19,PLAYER_SLEEPBEFORE_START,1516039668232,57
19,PLAYER_SLEEPBEFORE_END,1516039693570,57
19,WS_SEND_START,1516039693570,57
19,WS_SEND_END,1516039693570,57
19,WS_RECV_START,1516039693570,58
19,WS_RECV_END,1516039693679,58
19,PLAYER_SLEEPBEFORE_START,1516039693679,59
19,PLAYER_SLEEPBEFORE_END,1516039720536,59
19,WS_SEND_START,1516039720536,59
19,WS_SEND_END,1516039720536,59
19,WS_RECV_START,1516039720536,60
19,WS_RECV_END,1516039721402,60
19,PLAYER_SLEEPBEFORE_START,1516039721402,61
19,PLAYER_SLEEPBEFORE_END,1516039721425,61
19,WS_SEND_START,1516039721425,61
19,WS_SEND_END,1516039721425,61
19,WS_RECV_START,1516039721425,62
19,WS_RECV_END,1516039721723,62
19,PLAYER_SLEEPBEFORE_START,1516039721723,63
19,PLAYER_SLEEPBEFORE_END,1516039730727,63
19,REQ_START,1516039730727,63
19,REQ_END,1516039730735,63
19,PLAYER_SLEEPBEFORE_START,1516039730735,64
19,PLAYER_SLEEPBEFORE_END,1516039744941,64
19,WS_SEND_START,1516039744941,64
19,WS_SEND_END,1516039744941,64
19,WS_RECV_START,1516039744941,65
19,WS_RECV_END,1516039745051,65
19,PLAYER_SLEEPBEFORE_START,1516039745051,66
19,PLAYER_SLEEPBEFORE_END,1516039769038,66
19,WS_SEND_START,1516039769038,66
19,WS_SEND_END,1516039769038,66
19,WS_RECV_START,1516039769038,67
19,WS_RECV_END,1516039769247,67
19,PLAYER_SLEEPBEFORE_START,1516039769247,68
19,PLAYER_SLEEPBEFORE_END,1516039794821,68
19,WS_SEND_START,1516039794821,68
19,WS_SEND_END,1516039794821,68
19,WS_RECV_START,1516039794821,69
19,WS_RECV_END,1516039794880,69
19,PLAYER_SLEEPBEFORE_START,1516039794880,70
19,PLAYER_SLEEPBEFORE_END,1516039794889,70
19,WS_SEND_START,1516039794889,70
19,WS_SEND_END,1516039794889,70
19,WS_RECV_START,1516039794889,71
19,WS_RECV_END,1516039795808,71
19,PLAYER_SLEEPBEFORE_START,1516039795808,72
19,PLAYER_SLEEPBEFORE_END,1516039796013,72
19,WS_SEND_START,1516039796013,72
19,WS_SEND_END,1516039796013,72
19,WS_RECV_START,1516039796013,73
19,WS_RECV_END,1516039796423,73
19,PLAYER_SLEEPBEFORE_START,1516039796423,74
19,PLAYER_SLEEPBEFORE_END,1516039797846,74
19,WS_SEND_START,1516039797846,74
19,WS_SEND_END,1516039797846,74
19,WS_RECV_START,1516039797846,75
19,WS_RECV_END,1516039797930,75
19,PLAYER_SLEEPBEFORE_START,1516039797930,76
19,PLAYER_SLEEPBEFORE_END,1516039798425,76
19,WS_SEND_START,1516039798425,76
19,WS_SEND_END,1516039798425,76
19,WS_RECV_START,1516039798425,77
19,WS_RECV_END,1516039799955,77
19,PLAYER_SLEEPBEFORE_START,1516039799955,78
19,PLAYER_SLEEPBEFORE_END,1516039799974,78
19,WS_SEND_START,1516039799974,78
19,WS_SEND_END,1516039799974,78
19,WS_RECV_START,1516039799974,79
19,WS_RECV_END,1516039801116,79
19,PLAYER_SLEEPBEFORE_START,1516039801116,80
19,PLAYER_SLEEPBEFORE_END,1516039821850,80
19,WS_SEND_START,1516039821850,80
19,WS_SEND_END,1516039821850,80
19,WS_RECV_START,1516039821850,81
19,WS_RECV_END,1516039821908,81
19,PLAYER_SLEEPBEFORE_START,1516039821908,82
19,PLAYER_SLEEPBEFORE_END,1516039821919,82
19,WS_SEND_START,1516039821919,82
19,WS_SEND_END,1516039821919,82
19,WS_RECV_START,1516039821919,83
19,WS_RECV_END,1516039821960,83
19,PLAYER_SLEEPBEFORE_START,1516039821960,84
19,PLAYER_SLEEPBEFORE_END,1516039822823,84
19,WS_SEND_START,1516039822823,84
19,WS_SEND_END,1516039822823,84
19,WS_RECV_START,1516039822823,85
19,WS_RECV_END,1516039823053,85
19,PLAYER_SLEEPBEFORE_START,1516039823053,86
19,PLAYER_SLEEPBEFORE_END,1516039823780,86
19,WS_SEND_START,1516039823780,86
19,WS_SEND_END,1516039823781,86
19,WS_RECV_START,1516039823781,87
19,WS_RECV_END,1516039824623,87
19,PLAYER_SLEEPBEFORE_START,1516039824623,88
19,PLAYER_SLEEPBEFORE_END,1516039824644,88
19,WS_SEND_START,1516039824644,88
19,WS_SEND_END,1516039824644,88
19,WS_RECV_START,1516039824644,89
19,WS_RECV_END,1516039825634,89
19,PLAYER_SLEEPBEFORE_START,1516039825634,90
19,PLAYER_SLEEPBEFORE_END,1516039847063,90
19,WS_SEND_START,1516039847063,90
19,WS_SEND_END,1516039847063,90
19,PLAYER_SLEEPBEFORE_START,1516039847063,91
19,PLAYER_SLEEPBEFORE_END,1516039873918,91
19,WS_SEND_START,1516039873918,91
19,WS_SEND_END,1516039873918,91
19,WS_RECV_START,1516039873918,92
19,WS_RECV_END,1516039874154,92
19,PLAYER_SLEEPBEFORE_START,1516039874154,93
19,PLAYER_SLEEPBEFORE_END,1516039876428,93
19,WS_SEND_START,1516039876428,93
19,WS_SEND_END,1516039876428,93
19,WS_RECV_START,1516039876428,94
19,WS_RECV_END,1516039876537,94
19,PLAYER_SLEEPBEFORE_START,1516039876537,95
19,PLAYER_SLEEPBEFORE_END,1516039902533,95
19,WS_SEND_START,1516039902533,95
19,WS_SEND_END,1516039902533,95
19,WS_RECV_START,1516039902533,96
19,WS_RECV_END,1516039903665,96
19,PLAYER_SLEEPBEFORE_START,1516039903665,97
19,PLAYER_SLEEPBEFORE_END,1516039908753,97
19,WS_SEND_START,1516039908753,97
19,WS_SEND_END,1516039908753,97
19,WS_RECV_START,1516039908753,98
19,WS_RECV_END,1516039909639,98
19,PLAYER_SLEEPBEFORE_START,1516039909639,99
19,PLAYER_SLEEPBEFORE_END,1516039911339,99
19,WS_SEND_START,1516039911339,99
19,WS_SEND_END,1516039911339,99
19,WS_RECV_START,1516039911339,100
19,WS_RECV_END,1516039911791,100
19,PLAYER_SLEEPBEFORE_START,1516039911791,101
19,PLAYER_SLEEPBEFORE_END,1516039913630,101
19,WS_SEND_START,1516039913630,101
19,WS_SEND_END,1516039913631,101
19,WS_RECV_START,1516039913631,102
19,WS_RECV_END,1516039913813,102
19,PLAYER_SLEEPBEFORE_START,1516039913813,103
19,PLAYER_SLEEPBEFORE_END,1516039926863,103
19,WS_SEND_START,1516039926863,103
19,WS_SEND_END,1516039926863,103
19,PLAYER_SLEEPBEFORE_START,1516039926863,104
19,PLAYER_SLEEPBEFORE_END,1516039931289,104
19,WS_SEND_START,1516039931289,104
19,WS_SEND_END,1516039931289,104
19,WS_RECV_START,1516039931289,105
19,WS_RECV_END,1516039931756,105
19,PLAYER_SLEEPBEFORE_START,1516039931756,106
19,PLAYER_SLEEPBEFORE_END,1516039931765,106
19,WS_SEND_START,1516039931765,106
19,WS_SEND_END,1516039931765,106
19,WS_RECV_START,1516039931765,107
19,WS_RECV_END,1516039931812,107
19,PLAYER_SLEEPBEFORE_START,1516039931812,108
19,PLAYER_SLEEPBEFORE_END,1516039932276,108
19,WS_SEND_START,1516039932276,108
19,WS_SEND_END,1516039932276,108
19,WS_RECV_START,1516039932276,109
19,WS_RECV_END,1516039933071,109
19,PLAYER_SLEEPBEFORE_START,1516039933071,110
19,PLAYER_SLEEPBEFORE_END,1516039933086,110
19,WS_SEND_START,1516039933086,110
19,WS_SEND_END,1516039933086,110
19,WS_RECV_START,1516039933086,111
19,WS_RECV_END,1516039934438,111
19,PLAYER_SLEEPBEFORE_START,1516039934438,112
19,PLAYER_SLEEPBEFORE_END,1516039955202,112
19,WS_SEND_START,1516039955202,112
19,WS_SEND_END,1516039955202,112
19,PLAYER_SLEEPBEFORE_START,1516039955202,113
19,PLAYER_SLEEPBEFORE_END,1516039957596,113
19,WS_SEND_START,1516039957596,113
19,WS_SEND_END,1516039957596,113
19,WS_RECV_START,1516039957596,114
19,WS_RECV_END,1516039958752,114
19,PLAYER_SLEEPBEFORE_START,1516039958752,115
19,PLAYER_SLEEPBEFORE_END,1516039959535,115
19,WS_SEND_START,1516039959535,115
19,WS_SEND_END,1516039959535,115
19,WS_RECV_START,1516039959535,116
19,WS_RECV_END,1516039960010,116
19,PLAYER_SLEEPBEFORE_START,1516039960010,117
19,PLAYER_SLEEPBEFORE_END,1516039982395,117
19,WS_SEND_START,1516039982395,117
19,WS_SEND_END,1516039982395,117
19,WS_RECV_START,1516039982395,118
19,WS_RECV_END,1516039982675,118
19,PLAYER_SLEEPBEFORE_START,1516039982675,119
19,PLAYER_SLEEPBEFORE_END,1516039984579,119
19,WS_SEND_START,1516039984579,119
19,WS_SEND_END,1516039984579,119
19,WS_RECV_START,1516039984579,120
19,WS_RECV_END,1516039984753,120
19,PLAYER_SLEEPBEFORE_START,1516039984754,121
19,PLAYER_SLEEPBEFORE_END,1516039985906,121
19,WS_SEND_START,1516039985906,121
19,WS_SEND_END,1516039985906,121
19,WS_RECV_START,1516039985906,122
19,WS_RECV_END,1516039986069,122
19,PLAYER_SLEEPBEFORE_START,1516039986069,123
19,PLAYER_SLEEPBEFORE_END,1516039987193,123
19,WS_SEND_START,1516039987193,123
19,WS_SEND_END,1516039987194,123
19,WS_RECV_START,1516039987194,124
19,WS_RECV_END,1516039987356,124
19,PLAYER_SLEEPBEFORE_START,1516039987356,125
19,PLAYER_SLEEPBEFORE_END,1516039988852,125
19,WS_SEND_START,1516039988852,125
19,WS_SEND_END,1516039988852,125
19,WS_RECV_START,1516039988852,126
19,WS_RECV_END,1516039989091,126
19,PLAYER_SLEEPBEFORE_START,1516039989091,127
19,PLAYER_SLEEPBEFORE_END,1516040009701,127
19,WS_SEND_START,1516040009701,127
19,WS_SEND_END,1516040009701,127
19,WS_RECV_START,1516040009701,128
19,WS_RECV_END,1516040010211,128
19,PLAYER_SLEEPBEFORE_START,1516040010211,129
19,PLAYER_SLEEPBEFORE_END,1516040035242,129
19,WS_SEND_START,1516040035242,129
19,WS_SEND_END,1516040035242,129
19,PLAYER_SLEEPBEFORE_START,1516040035242,130
19,PLAYER_SLEEPBEFORE_END,1516040037222,130
19,WS_SEND_START,1516040037222,130
19,WS_SEND_END,1516040037222,130
19,WS_RECV_START,1516040037222,131
19,WS_RECV_END,1516040037285,131
19,PLAYER_SLEEPBEFORE_START,1516040037285,132
19,PLAYER_SLEEPBEFORE_END,1516040037294,132
19,WS_SEND_START,1516040037294,132
19,WS_SEND_END,1516040037294,132
19,WS_RECV_START,1516040037294,133
19,WS_RECV_END,1516040037336,133
19,PLAYER_SLEEPBEFORE_START,1516040037336,134
19,PLAYER_SLEEPBEFORE_END,1516040038412,134
19,REQ_START,1516040038412,134
19,REQ_END,1516040038421,134
19,PLAYER_SLEEPBEFORE_START,1516040038421,135
19,PLAYER_SLEEPBEFORE_END,1516040039011,135
19,WS_SEND_START,1516040039011,135
19,WS_SEND_END,1516040039011,135
19,WS_RECV_START,1516040039011,136
19,WS_RECV_END,1516040040181,136
19,PLAYER_SLEEPBEFORE_START,1516040040181,137
19,PLAYER_SLEEPBEFORE_END,1516040040194,137
19,WS_SEND_START,1516040040194,137
19,WS_SEND_END,1516040040194,137
19,WS_RECV_START,1516040040194,138
19,WS_RECV_END,1516040040366,138
19,PLAYER_SLEEPBEFORE_START,1516040040366,139
19,PLAYER_SLEEPBEFORE_END,1516040058040,139
19,WS_SEND_START,1516040058040,139
19,WS_SEND_END,1516040058040,139
19,PLAYER_SLEEPBEFORE_START,1516040058040,140
19,PLAYER_SLEEPBEFORE_END,1516040061943,140
19,WS_SEND_START,1516040061943,140
19,WS_SEND_END,1516040061943,140
19,PLAYER_SLEEPBEFORE_START,1516040061943,141
19,PLAYER_SLEEPBEFORE_END,1516040064235,141
19,WS_SEND_START,1516040064235,141
19,WS_SEND_END,1516040064235,141
19,WS_RECV_START,1516040064235,142
19,WS_RECV_END,1516040064794,142
19,PLAYER_SLEEPBEFORE_START,1516040064794,143
19,PLAYER_SLEEPBEFORE_END,1516040064802,143
19,WS_SEND_START,1516040064802,143
19,WS_SEND_END,1516040064802,143
19,WS_RECV_START,1516040064802,144
19,WS_RECV_END,1516040064951,144
19,PLAYER_SLEEPBEFORE_START,1516040064952,145
19,PLAYER_SLEEPBEFORE_END,1516040066695,145
19,WS_SEND_START,1516040066695,145
19,WS_SEND_END,1516040066695,145
19,WS_RECV_START,1516040066695,146
19,WS_RECV_END,1516040067374,146
19,PLAYER_SLEEPBEFORE_START,1516040067374,147
19,PLAYER_SLEEPBEFORE_END,1516040067383,147
19,WS_SEND_START,1516040067383,147
19,WS_SEND_END,1516040067383,147
19,WS_RECV_START,1516040067383,148
19,WS_RECV_END,1516040067520,148
19,PLAYER_SLEEPBEFORE_START,1516040067520,149
19,PLAYER_SLEEPBEFORE_END,1516040082634,149
19,WS_SEND_START,1516040082634,149
19,WS_SEND_END,1516040082634,149
19,PLAYER_SLEEPBEFORE_START,1516040082634,150
19,PLAYER_SLEEPBEFORE_END,1516040093309,150
19,WS_SEND_START,1516040093309,150
19,WS_SEND_END,1516040093309,150
19,PLAYER_SLEEPBEFORE_START,1516040093309,151
19,PLAYER_SLEEPBEFORE_END,1516040096300,151
19,WS_SEND_START,1516040096300,151
19,WS_SEND_END,1516040096300,151
19,WS_RECV_START,1516040096300,152
19,WS_RECV_END,1516040096361,152
19,PLAYER_SLEEPBEFORE_START,1516040096361,153
19,PLAYER_SLEEPBEFORE_END,1516040096368,153
19,WS_SEND_START,1516040096368,153
19,WS_SEND_END,1516040096368,153
19,WS_RECV_START,1516040096368,154
19,WS_RECV_END,1516040096407,154
19,PLAYER_SLEEPBEFORE_START,1516040096407,155
19,PLAYER_SLEEPBEFORE_END,1516040097016,155
19,WS_SEND_START,1516040097016,155
19,WS_SEND_END,1516040097016,155
19,WS_RECV_START,1516040097016,156
19,WS_RECV_END,1516040097091,156
19,PLAYER_SLEEPBEFORE_START,1516040097091,157
19,PLAYER_SLEEPBEFORE_END,1516040098435,157
19,WS_SEND_START,1516040098435,157
19,WS_SEND_END,1516040098435,157
19,WS_RECV_START,1516040098435,158
19,WS_RECV_END,1516040098489,158
19,PLAYER_SLEEPBEFORE_START,1516040098489,159
19,PLAYER_SLEEPBEFORE_END,1516040102389,159
19,WS_SEND_START,1516040102389,159
19,WS_SEND_END,1516040102390,159
19,WS_RECV_START,1516040102390,160
19,WS_RECV_END,1516040102590,160
19,PLAYER_SLEEPBEFORE_START,1516040102590,161
19,PLAYER_SLEEPBEFORE_END,1516040103373,161
19,WS_SEND_START,1516040103373,161
19,WS_SEND_END,1516040103373,161
19,WS_RECV_START,1516040103373,162
19,WS_RECV_END,1516040104394,162
19,PLAYER_SLEEPBEFORE_START,1516040104394,163
19,PLAYER_SLEEPBEFORE_END,1516040104403,163
19,WS_SEND_START,1516040104403,163
19,WS_SEND_END,1516040104403,163
19,WS_RECV_START,1516040104403,164
19,WS_RECV_END,1516040105187,164
19,PLAYER_SLEEPBEFORE_START,1516040105187,165
19,PLAYER_SLEEPBEFORE_END,1516040112560,165
19,WS_SEND_START,1516040112561,165
19,WS_SEND_END,1516040112561,165
19,WS_RECV_START,1516040112561,166
19,WS_RECV_END,1516040112983,166
19,PLAYER_SLEEPBEFORE_START,1516040112983,167
19,PLAYER_SLEEPBEFORE_END,1516040134232,167
19,WS_SEND_START,1516040134232,167
19,WS_SEND_END,1516040134232,167
19,PLAYER_SLEEPBEFORE_START,1516040134232,168
19,PLAYER_SLEEPBEFORE_END,1516040138967,168
19,WS_SEND_START,1516040138967,168
19,WS_SEND_END,1516040138967,168
19,PLAYER_SLEEPBEFORE_START,1516040138967,169
19,PLAYER_SLEEPBEFORE_END,1516040140519,169
19,WS_SEND_START,1516040140519,169
19,WS_SEND_END,1516040140519,169
19,WS_RECV_START,1516040140519,170
19,WS_RECV_END,1516040142769,170
19,PLAYER_SLEEPBEFORE_START,1516040142769,171
19,PLAYER_SLEEPBEFORE_END,1516040142776,171
19,WS_SEND_START,1516040142776,171
19,WS_SEND_END,1516040142776,171
19,WS_RECV_START,1516040142776,172
19,WS_RECV_END,1516040143356,172
19,PLAYER_SLEEPBEFORE_START,1516040143356,173
19,PLAYER_SLEEPBEFORE_END,1516040144124,173
19,WS_SEND_START,1516040144124,173
19,WS_SEND_END,1516040144124,173
19,WS_RECV_START,1516040144124,174
19,WS_RECV_END,1516040144183,174
19,PLAYER_SLEEPBEFORE_START,1516040144183,175
19,PLAYER_SLEEPBEFORE_END,1516040144943,175
19,WS_SEND_START,1516040144943,175
19,WS_SEND_END,1516040144944,175
19,WS_RECV_START,1516040144944,176
19,WS_RECV_END,1516040146442,176
19,PLAYER_SLEEPBEFORE_START,1516040146442,177
19,PLAYER_SLEEPBEFORE_END,1516040147242,177
19,WS_SEND_START,1516040147242,177
19,WS_SEND_END,1516040147242,177
19,WS_RECV_START,1516040147242,178
19,WS_RECV_END,1516040148791,178
19,PLAYER_SLEEPBEFORE_START,1516040148791,179
19,PLAYER_SLEEPBEFORE_END,1516040154045,179
19,WS_SEND_START,1516040154045,179
19,WS_SEND_END,1516040154045,179
19,PLAYER_SLEEPBEFORE_START,1516040154045,180
19,PLAYER_SLEEPBEFORE_END,1516040160663,180
19,WS_SEND_START,1516040160663,180
19,WS_SEND_END,1516040160663,180
19,PLAYER_SLEEPBEFORE_START,1516040160663,181
19,PLAYER_SLEEPBEFORE_END,1516040162400,181
19,WS_SEND_START,1516040162400,181
19,WS_SEND_END,1516040162400,181
19,WS_RECV_START,1516040162400,182
19,WS_RECV_END,1516040162455,182
19,PLAYER_SLEEPBEFORE_START,1516040162456,183
19,PLAYER_SLEEPBEFORE_END,1516040163193,183
19,WS_SEND_START,1516040163193,183
19,WS_SEND_END,1516040163193,183
19,WS_RECV_START,1516040163193,184
19,WS_RECV_END,1516040163986,184
19,PLAYER_SLEEPBEFORE_START,1516040163986,185
19,PLAYER_SLEEPBEFORE_END,1516040163999,185
19,WS_SEND_START,1516040163999,185
19,WS_SEND_END,1516040163999,185
19,WS_RECV_START,1516040164000,186
19,WS_RECV_END,1516040164135,186
19,PLAYER_SLEEPBEFORE_START,1516040164135,187
19,PLAYER_SLEEPBEFORE_END,1516040189142,187
19,WS_SEND_START,1516040189143,187
19,WS_SEND_END,1516040189143,187
19,WS_RECV_START,1516040189143,188
19,WS_RECV_END,1516040189257,188
19,PLAYER_SLEEPBEFORE_START,1516040189257,189
19,PLAYER_SLEEPBEFORE_END,1516040214481,189
19,WS_SEND_START,1516040214481,189
19,WS_SEND_END,1516040214481,189
19,WS_RECV_START,1516040214481,190
19,WS_RECV_END,1516040216373,190
19,PLAYER_SLEEPBEFORE_START,1516040216373,191
19,PLAYER_SLEEPBEFORE_END,1516040216378,191
19,WS_SEND_START,1516040216378,191
19,WS_SEND_END,1516040216378,191
19,WS_RECV_START,1516040216378,192
19,WS_RECV_END,1516040216460,192
19,PLAYER_SLEEPBEFORE_START,1516040216460,193
19,PLAYER_SLEEPBEFORE_END,1516040216897,193
19,WS_SEND_START,1516040216897,193
19,WS_SEND_END,1516040216897,193
19,WS_RECV_START,1516040216897,194
19,WS_RECV_END,1516040217630,194
19,PLAYER_SLEEPBEFORE_START,1516040217630,195
19,PLAYER_SLEEPBEFORE_END,1516040217643,195
19,WS_SEND_START,1516040217643,195
19,WS_SEND_END,1516040217643,195
19,WS_RECV_START,1516040217643,196
19,WS_RECV_END,1516040217770,196
19,PLAYER_SLEEPBEFORE_START,1516040217770,197
19,PLAYER_SLEEPBEFORE_END,1516040242540,197
19,WS_SEND_START,1516040242540,197
19,WS_SEND_END,1516040242540,197
19,WS_RECV_START,1516040242540,198
19,WS_RECV_END,1516040242607,198
19,PLAYER_SLEEPBEFORE_START,1516040242607,199
19,PLAYER_SLEEPBEFORE_END,1516040242614,199
19,WS_SEND_START,1516040242614,199
19,WS_SEND_END,1516040242614,199
19,WS_RECV_START,1516040242614,200
19,WS_RECV_END,1516040242655,200
19,PLAYER_SLEEPBEFORE_START,1516040242655,201
19,PLAYER_SLEEPBEFORE_END,1516040243953,201
19,WS_SEND_START,1516040243953,201
19,WS_SEND_END,1516040243953,201
19,WS_RECV_START,1516040243953,202
19,WS_RECV_END,1516040246116,202
19,PLAYER_SLEEPBEFORE_START,1516040246116,203
19,PLAYER_SLEEPBEFORE_END,1516040246128,203
19,WS_SEND_START,1516040246128,203
19,WS_SEND_END,1516040246128,203
19,WS_RECV_START,1516040246128,204
19,WS_RECV_END,1516040248419,204
19,PLAYER_SLEEPBEFORE_START,1516040248419,205
19,PLAYER_SLEEPBEFORE_END,1516040270051,205
19,WS_SEND_START,1516040270051,205
19,WS_SEND_END,1516040270051,205
19,WS_RECV_START,1516040270051,206
19,WS_RECV_END,1516040270570,206
19,PLAYER_SLEEPBEFORE_START,1516040270570,207
19,PLAYER_SLEEPBEFORE_END,1516040294693,207
19,WS_SEND_START,1516040294693,207
19,WS_SEND_END,1516040294693,207
19,WS_RECV_START,1516040294693,208
19,WS_RECV_END,1516040294814,208
19,PLAYER_SLEEPBEFORE_START,1516040294814,209
19,PLAYER_SLEEPBEFORE_END,1516040301228,209
19,WS_SEND_START,1516040301228,209
19,WS_SEND_END,1516040301228,209
19,WS_RECV_START,1516040301228,210
19,WS_RECV_END,1516040301672,210
19,PLAYER_SLEEPBEFORE_START,1516040301672,211
19,PLAYER_SLEEPBEFORE_END,1516040320505,211
19,WS_SEND_START,1516040320505,211
19,WS_SEND_END,1516040320505,211
19,WS_RECV_START,1516040320505,212
19,WS_RECV_END,1516040320620,212
19,PLAYER_SLEEPBEFORE_START,1516040320620,213
19,PLAYER_SLEEPBEFORE_END,1516040345673,213
19,WS_SEND_START,1516040345673,213
19,WS_SEND_END,1516040345673,213
19,WS_RECV_START,1516040345673,214
19,WS_RECV_END,1516040345789,214
19,PLAYER_SLEEPBEFORE_START,1516040345789,215
19,PLAYER_SLEEPBEFORE_END,1516040353900,215
19,REQ_START,1516040353900,215
19,REQ_END,1516040353909,215
19,PLAYER_SLEEPBEFORE_START,1516040353909,216
19,PLAYER_SLEEPBEFORE_END,1516040370470,216
19,WS_SEND_START,1516040370470,216
19,WS_SEND_END,1516040370470,216
19,WS_RECV_START,1516040370470,217
19,WS_RECV_END,1516040370600,217
19,PLAYER_SLEEPBEFORE_START,1516040370600,218
19,PLAYER_SLEEPBEFORE_END,1516040370607,218
19,WS_SEND_START,1516040370607,218
19,WS_SEND_END,1516040370607,218
19,WS_RECV_START,1516040370607,219
19,WS_RECV_END,1516040370648,219
19,PLAYER_SLEEPBEFORE_START,1516040370648,220
19,PLAYER_SLEEPBEFORE_END,1516040371417,220
19,WS_SEND_START,1516040371417,220
19,WS_SEND_END,1516040371417,220
19,WS_RECV_START,1516040371417,221
19,WS_RECV_END,1516040373503,221
19,PLAYER_SLEEPBEFORE_START,1516040373503,222
19,PLAYER_SLEEPBEFORE_END,1516040373560,222
19,WS_SEND_START,1516040373560,222
19,WS_SEND_END,1516040373560,222
19,WS_RECV_START,1516040373560,223
19,WS_RECV_END,1516040373742,223
19,PLAYER_SLEEPBEFORE_START,1516040373742,224
19,PLAYER_SLEEPBEFORE_END,1516040396398,224
19,WS_SEND_START,1516040396398,224
19,WS_SEND_END,1516040396398,224
19,WS_RECV_START,1516040396398,225
19,WS_RECV_END,1516040397809,225
19,PLAYER_SLEEPBEFORE_START,1516040397809,226
19,PLAYER_SLEEPBEFORE_END,1516040423544,226
19,WS_SEND_START,1516040423544,226
19,WS_SEND_END,1516040423544,226
19,WS_RECV_START,1516040423544,227
19,WS_RECV_END,1516040427112,227
19,PLAYER_SLEEPBEFORE_START,1516040427112,228
19,PLAYER_SLEEPBEFORE_END,1516040450105,228
19,WS_SEND_START,1516040450105,228
19,WS_SEND_END,1516040450105,228
19,WS_RECV_START,1516040450105,229
19,WS_RECV_END,1516040450310,229
19,PLAYER_SLEEPBEFORE_START,1516040450310,230
19,PLAYER_SLEEPBEFORE_END,1516040474526,230
19,WS_SEND_START,1516040474526,230
19,WS_SEND_END,1516040474527,230
19,WS_RECV_START,1516040474527,231
19,WS_RECV_END,1516040474642,231
19,PLAYER_SLEEPBEFORE_START,1516040474642,232
19,PLAYER_SLEEPBEFORE_END,1516040499398,232
19,WS_SEND_START,1516040499398,232
19,WS_SEND_END,1516040499398,232
19,WS_RECV_START,1516040499398,233
19,WS_RECV_END,1516040499543,233
19,PLAYER_SLEEPBEFORE_START,1516040499543,234
19,PLAYER_SLEEPBEFORE_END,1516040526577,234
19,WS_SEND_START,1516040526577,234
19,WS_SEND_END,1516040526577,234
19,WS_RECV_START,1516040526577,235
19,WS_RECV_END,1516040528502,235
19,PLAYER_SLEEPBEFORE_START,1516040528502,236
19,PLAYER_SLEEPBEFORE_END,1516040552342,236
19,WS_SEND_START,1516040552342,236
19,WS_SEND_END,1516040552342,236
19,WS_RECV_START,1516040552342,237
19,WS_RECV_END,1516040552448,237
19,PLAYER_SLEEPBEFORE_START,1516040552448,238
19,PLAYER_SLEEPBEFORE_END,1516040565258,238
19,WS_SEND_START,1516040565258,238
19,WS_SEND_END,1516040565258,238
19,WS_RECV_START,1516040565258,239
19,WS_RECV_END,1516040565363,239
19,PLAYER_SLEEPBEFORE_START,1516040565363,240
19,PLAYER_SLEEPBEFORE_END,1516040578018,240
19,WS_SEND_START,1516040578018,240
19,WS_SEND_END,1516040578018,240
19,WS_RECV_START,1516040578018,241
19,WS_RECV_END,1516040578813,241
19,PLAYER_SLEEPBEFORE_START,1516040578813,242
19,PLAYER_SLEEPBEFORE_END,1516040578836,242
19,WS_SEND_START,1516040578836,242
19,WS_SEND_END,1516040578836,242
19,WS_RECV_START,1516040578836,243
19,WS_RECV_END,1516040579906,243
19,PLAYER_SLEEPBEFORE_START,1516040579906,244
19,PLAYER_SLEEPBEFORE_END,1516040602144,244
19,WS_SEND_START,1516040602144,244
19,WS_SEND_END,1516040602144,244
19,WS_RECV_START,1516040602144,245
19,WS_RECV_END,1516040602203,245
19,PLAYER_SLEEPBEFORE_START,1516040602203,246
19,PLAYER_SLEEPBEFORE_END,1516040602212,246
19,WS_SEND_START,1516040602212,246
19,WS_SEND_END,1516040602212,246
19,WS_RECV_START,1516040602213,247
19,WS_RECV_END,1516040602254,247
19,PLAYER_SLEEPBEFORE_START,1516040602254,248
19,PLAYER_SLEEPBEFORE_END,1516040604291,248
19,WS_SEND_START,1516040604291,248
19,WS_SEND_END,1516040604291,248
19,WS_RECV_START,1516040604291,249
19,WS_RECV_END,1516040606890,249
19,PLAYER_SLEEPBEFORE_START,1516040606890,250
19,PLAYER_SLEEPBEFORE_END,1516040606927,250
19,WS_SEND_START,1516040606927,250
19,WS_SEND_END,1516040606927,250
19,WS_RECV_START,1516040606927,251
19,WS_RECV_END,1516040607357,251
19,PLAYER_SLEEPBEFORE_START,1516040607357,252
19,PLAYER_SLEEPBEFORE_END,1516040629999,252
19,WS_SEND_START,1516040629999,252
19,WS_SEND_END,1516040629999,252
19,WS_RECV_START,1516040629999,253
19,WS_RECV_END,1516040630711,253
19,PLAYER_SLEEPBEFORE_START,1516040630711,254
19,PLAYER_SLEEPBEFORE_END,1516040630727,254
19,WS_SEND_START,1516040630727,254
19,WS_SEND_END,1516040630727,254
19,WS_RECV_START,1516040630727,255
19,WS_RECV_END,1516040632530,255
19,PLAYER_SLEEPBEFORE_START,1516040632530,256
19,PLAYER_SLEEPBEFORE_END,1516040657152,256
19,WS_SEND_START,1516040657153,256
19,WS_SEND_END,1516040657153,256
19,WS_RECV_START,1516040657153,257
19,WS_RECV_END,1516040657216,257
19,PLAYER_SLEEPBEFORE_START,1516040657216,258
19,PLAYER_SLEEPBEFORE_END,1516040657224,258
19,WS_SEND_START,1516040657224,258
19,WS_SEND_END,1516040657224,258
19,WS_RECV_START,1516040657224,259
19,WS_RECV_END,1516040657266,259
19,PLAYER_SLEEPBEFORE_START,1516040657266,260
19,PLAYER_SLEEPBEFORE_END,1516040657791,260
19,WS_SEND_START,1516040657791,260
19,WS_SEND_END,1516040657791,260
19,WS_RECV_START,1516040657791,261
19,WS_RECV_END,1516040659220,261
19,PLAYER_SLEEPBEFORE_START,1516040659220,262
19,PLAYER_SLEEPBEFORE_END,1516040659492,262
19,WS_SEND_START,1516040659492,262
19,WS_SEND_END,1516040659492,262
19,WS_RECV_START,1516040659492,263
19,WS_RECV_END,1516040661771,263
19,PLAYER_SLEEPBEFORE_START,1516040661771,264
19,PLAYER_SLEEPBEFORE_END,1516040664184,264
19,WS_SEND_START,1516040664184,264
19,WS_SEND_END,1516040664184,264
19,WS_RECV_START,1516040664184,265
19,WS_RECV_END,1516040665612,265
19,PLAYER_SLEEPBEFORE_START,1516040665612,266
19,PLAYER_SLEEPBEFORE_END,1516040665624,266
19,WS_SEND_START,1516040665624,266
19,WS_SEND_END,1516040665624,266
19,WS_RECV_START,1516040665624,267
19,WS_RECV_END,1516040665889,267
19,PLAYER_SLEEPBEFORE_START,1516040665889,268
19,PLAYER_SLEEPBEFORE_END,1516040667359,268
19,REQ_START,1516040667359,268
19,REQ_END,1516040667367,268
19,PLAYER_SLEEPBEFORE_START,1516040667367,269
19,PLAYER_SLEEPBEFORE_END,1516040684761,269
19,WS_SEND_START,1516040684761,269
19,WS_SEND_END,1516040684761,269
19,WS_RECV_START,1516040684761,270
19,WS_RECV_END,1516040684820,270
19,PLAYER_SLEEPBEFORE_START,1516040684820,271
19,PLAYER_SLEEPBEFORE_END,1516040684828,271
19,WS_SEND_START,1516040684828,271
19,WS_SEND_END,1516040684828,271
19,WS_RECV_START,1516040684828,272
19,WS_RECV_END,1516040685618,272
19,PLAYER_SLEEPBEFORE_START,1516040685618,273
19,PLAYER_SLEEPBEFORE_END,1516040686915,273
19,WS_SEND_START,1516040686916,273
19,WS_SEND_END,1516040686916,273
19,WS_RECV_START,1516040686916,274
19,WS_RECV_END,1516040690167,274
19,PLAYER_SLEEPBEFORE_START,1516040690167,275
19,PLAYER_SLEEPBEFORE_END,1516040691341,275
19,WS_SEND_START,1516040691341,275
19,WS_SEND_END,1516040691341,275
19,WS_RECV_START,1516040691341,276
19,WS_RECV_END,1516040693654,276
19,PLAYER_SLEEPBEFORE_START,1516040693654,277
19,PLAYER_SLEEPBEFORE_END,1516040693676,277
19,WS_SEND_START,1516040693676,277
19,WS_SEND_END,1516040693676,277
19,WS_RECV_START,1516040693676,278
19,WS_RECV_END,1516040694380,278
19,PLAYER_SLEEPBEFORE_START,1516040694380,279
19,PLAYER_SLEEPBEFORE_END,1516040718903,279
19,WS_SEND_START,1516040718903,279
19,WS_SEND_END,1516040718903,279
19,WS_RECV_START,1516040718903,280
19,WS_RECV_END,1516040719985,280
19,PLAYER_SLEEPBEFORE_START,1516040719985,281
19,PLAYER_SLEEPBEFORE_END,1516040742273,281
19,WS_SEND_START,1516040742273,281
19,WS_SEND_END,1516040742273,281
19,WS_RECV_START,1516040742273,282
19,WS_RECV_END,1516040744688,282
19,PLAYER_SLEEPBEFORE_START,1516040744688,283
19,PLAYER_SLEEPBEFORE_END,1516040744706,283
19,WS_SEND_START,1516040744707,283
19,WS_SEND_END,1516040744707,283
19,WS_RECV_START,1516040744707,284
19,WS_RECV_END,1516040745494,284
19,PLAYER_SLEEPBEFORE_START,1516040745494,285
19,PLAYER_SLEEPBEFORE_END,1516040769626,285
19,WS_SEND_START,1516040769626,285
19,WS_SEND_END,1516040769626,285
19,WS_RECV_START,1516040769626,286
19,WS_RECV_END,1516040769931,286
19,PLAYER_SLEEPBEFORE_START,1516040769931,287
19,PLAYER_SLEEPBEFORE_END,1516040793085,287
19,WS_SEND_START,1516040793085,287
19,WS_SEND_END,1516040793085,287
19,WS_RECV_START,1516040793085,288
19,WS_RECV_END,1516040796286,288
19,PLAYER_SLEEPBEFORE_START,1516040796286,289
19,PLAYER_SLEEPBEFORE_END,1516040796308,289
19,WS_SEND_START,1516040796308,289
19,WS_SEND_END,1516040796308,289
19,WS_RECV_START,1516040796308,290
19,WS_RECV_END,1516040796885,290
19,PLAYER_SLEEPBEFORE_START,1516040796885,291
19,PLAYER_SLEEPBEFORE_END,1516040807499,291
19,WS_SEND_START,1516040807499,291
19,WS_SEND_END,1516040807499,291
19,WS_RECV_START,1516040807499,292
19,WS_RECV_END,1516040809862,292
19,PLAYER_SLEEPBEFORE_START,1516040809862,293
19,PLAYER_SLEEPBEFORE_END,1516040825618,293
19,WS_SEND_START,1516040825618,293
19,WS_SEND_END,1516040825618,293
19,WS_RECV_START,1516040825618,294
19,WS_RECV_END,1516040828486,294
19,PLAYER_SLEEPBEFORE_START,1516040828486,295
19,PLAYER_SLEEPBEFORE_END,1516040828511,295
19,WS_SEND_START,1516040828511,295
19,WS_SEND_END,1516040828511,295
19,WS_RECV_START,1516040828511,296
19,WS_RECV_END,1516040829659,296
19,PLAYER_SLEEPBEFORE_START,1516040829659,297
19,PLAYER_SLEEPBEFORE_END,1516040851156,297
19,WS_SEND_START,1516040851156,297
19,WS_SEND_END,1516040851156,297
19,WS_RECV_START,1516040851156,298
19,WS_RECV_END,1516040851219,298
19,PLAYER_SLEEPBEFORE_START,1516040851219,299
19,PLAYER_SLEEPBEFORE_END,1516040851229,299
19,WS_SEND_START,1516040851229,299
19,WS_SEND_END,1516040851229,299
19,WS_RECV_START,1516040851229,300
19,WS_RECV_END,1516040851270,300
19,PLAYER_SLEEPBEFORE_START,1516040851270,301
19,PLAYER_SLEEPBEFORE_END,1516040853630,301
19,WS_SEND_START,1516040853630,301
19,WS_SEND_END,1516040853630,301
19,WS_RECV_START,1516040853630,302
19,WS_RECV_END,1516040858655,302
19,PLAYER_SLEEPBEFORE_START,1516040858655,303
19,PLAYER_SLEEPBEFORE_END,1516040858679,303
19,WS_SEND_START,1516040858679,303
19,WS_SEND_END,1516040858679,303
19,WS_RECV_START,1516040858679,304
19,WS_RECV_END,1516040860109,304
19,PLAYER_SLEEPBEFORE_START,1516040860109,305
19,PLAYER_SLEEPBEFORE_END,1516040885099,305
19,WS_SEND_START,1516040885099,305
19,WS_SEND_END,1516040885099,305
19,WS_RECV_START,1516040885099,306
19,WS_RECV_END,1516040885799,306
19,PLAYER_SLEEPBEFORE_START,1516040885799,307
19,PLAYER_SLEEPBEFORE_END,1516040909674,307
19,WS_SEND_START,1516040909674,307
19,WS_SEND_END,1516040909674,307
19,WS_RECV_START,1516040909674,308
19,WS_RECV_END,1516040912089,308
19,PLAYER_SLEEPBEFORE_START,1516040912089,309
19,PLAYER_SLEEPBEFORE_END,1516040933780,309
19,WS_SEND_START,1516040933780,309
19,WS_SEND_END,1516040933780,309
19,WS_RECV_START,1516040933780,310
19,WS_RECV_END,1516040933927,310
19,PLAYER_SLEEPBEFORE_START,1516040933927,311
19,PLAYER_SLEEPBEFORE_END,1516040962754,311
19,WS_SEND_START,1516040962754,311
19,WS_SEND_END,1516040962754,311
19,WS_RECV_START,1516040962754,312
19,WS_RECV_END,1516040964305,312
19,PLAYER_SLEEPBEFORE_START,1516040964305,313
19,PLAYER_SLEEPBEFORE_END,1516040964325,313
19,WS_SEND_START,1516040964325,313
19,WS_SEND_END,1516040964325,313
19,WS_RECV_START,1516040964325,314
19,WS_RECV_END,1516040966605,314
19,PLAYER_SLEEPBEFORE_START,1516040966605,315
19,PLAYER_SLEEPBEFORE_END,1516040988191,315
19,WS_SEND_START,1516040988191,315
19,WS_SEND_END,1516040988191,315
19,WS_RECV_START,1516040988191,316
19,WS_RECV_END,1516040988421,316
19,PLAYER_SLEEPBEFORE_START,1516040988421,317
19,PLAYER_SLEEPBEFORE_END,1516040988429,317
19,WS_SEND_START,1516040988429,317
19,WS_SEND_END,1516040988429,317
19,WS_RECV_START,1516040988429,318
19,WS_RECV_END,1516040988670,318
19,PLAYER_SLEEPBEFORE_START,1516040988670,319
19,PLAYER_SLEEPBEFORE_END,1516040989002,319
19,WS_SEND_START,1516040989002,319
19,WS_SEND_END,1516040989002,319
19,WS_RECV_START,1516040989002,320
19,WS_RECV_END,1516040990027,320
19,PLAYER_SLEEPBEFORE_START,1516040990027,321
19,PLAYER_SLEEPBEFORE_END,1516040990046,321
19,WS_SEND_START,1516040990046,321
19,WS_SEND_END,1516040990046,321
19,WS_RECV_START,1516040990046,322
19,WS_RECV_END,1516040993724,322
19,PLAYER_SLEEPBEFORE_START,1516040993724,323
19,PLAYER_SLEEPBEFORE_END,1516040998117,323
19,REQ_START,1516040998117,323
19,REQ_END,1516040998125,323
19,PLAYER_SLEEPBEFORE_START,1516040998125,324
19,PLAYER_SLEEPBEFORE_END,1516041018011,324
19,WS_SEND_START,1516041018011,324
19,WS_SEND_END,1516041018011,324
19,WS_RECV_START,1516041018011,325
19,WS_RECV_END,1516041020237,325
19,PLAYER_SLEEPBEFORE_START,1516041020237,326
19,PLAYER_SLEEPBEFORE_END,1516041020247,326
19,WS_SEND_START,1516041020247,326
19,WS_SEND_END,1516041020247,326
19,WS_RECV_START,1516041020247,327
19,WS_RECV_END,1516041020378,327
19,PLAYER_SLEEPBEFORE_START,1516041020378,328
19,PLAYER_SLEEPBEFORE_END,1516041020739,328
19,WS_SEND_START,1516041020739,328
19,WS_SEND_END,1516041020739,328
19,WS_RECV_START,1516041020739,329
19,WS_RECV_END,1516041021012,329
19,PLAYER_SLEEPBEFORE_START,1516041021012,330
19,PLAYER_SLEEPBEFORE_END,1516041021358,330
19,WS_SEND_START,1516041021358,330
19,WS_SEND_END,1516041021358,330
19,WS_RECV_START,1516041021358,331
19,WS_RECV_END,1516041021433,331
19,PLAYER_SLEEPBEFORE_START,1516041021433,332
19,PLAYER_SLEEPBEFORE_END,1516041022280,332
19,WS_SEND_START,1516041022280,332
19,WS_SEND_END,1516041022280,332
19,WS_RECV_START,1516041022280,333
19,WS_RECV_END,1516041022340,333
19,PLAYER_SLEEPBEFORE_START,1516041022340,334
19,PLAYER_SLEEPBEFORE_END,1516041022737,334
19,WS_SEND_START,1516041022737,334
19,WS_SEND_END,1516041022737,334
19,WS_RECV_START,1516041022737,335
19,WS_RECV_END,1516041023481,335
19,PLAYER_SLEEPBEFORE_START,1516041023481,336
19,PLAYER_SLEEPBEFORE_END,1516041023805,336
19,WS_SEND_START,1516041023805,336
19,WS_SEND_END,1516041023805,336
19,WS_RECV_START,1516041023805,337
19,WS_RECV_END,1516041026593,337
19,PLAYER_SLEEPBEFORE_START,1516041026593,338
19,PLAYER_SLEEPBEFORE_END,1516041026608,338
19,WS_SEND_START,1516041026608,338
19,WS_SEND_END,1516041026608,338
19,WS_RECV_START,1516041026608,339
19,WS_RECV_END,1516041027999,339
19,PLAYER_SLEEPBEFORE_START,1516041027999,340
19,PLAYER_SLEEPBEFORE_END,1516041045972,340
19,WS_SEND_START,1516041045972,340
19,WS_SEND_END,1516041045972,340
19,WS_RECV_START,1516041045972,341
19,WS_RECV_END,1516041046290,341
19,PLAYER_SLEEPBEFORE_START,1516041046290,342
19,PLAYER_SLEEPBEFORE_END,1516041046299,342
19,WS_SEND_START,1516041046299,342
19,WS_SEND_END,1516041046299,342
19,WS_RECV_START,1516041046299,343
19,WS_RECV_END,1516041046370,343
19,PLAYER_SLEEPBEFORE_START,1516041046370,344
19,PLAYER_SLEEPBEFORE_END,1516041048682,344
19,WS_SEND_START,1516041048682,344
19,WS_SEND_END,1516041048682,344
19,WS_RECV_START,1516041048682,345
19,WS_RECV_END,1516041051023,345
19,PLAYER_SLEEPBEFORE_START,1516041051023,346
19,PLAYER_SLEEPBEFORE_END,1516041051035,346
19,WS_SEND_START,1516041051035,346
19,WS_SEND_END,1516041051035,346
19,WS_RECV_START,1516041051035,347
19,WS_RECV_END,1516041054152,347
19,PLAYER_SLEEPBEFORE_START,1516041054152,348
19,PLAYER_SLEEPBEFORE_END,1516041074759,348
19,WS_SEND_START,1516041074759,348
19,WS_SEND_END,1516041074759,348
19,WS_RECV_START,1516041074759,349
19,WS_RECV_END,1516041074833,349
19,PLAYER_SLEEPBEFORE_START,1516041074833,350
19,PLAYER_SLEEPBEFORE_END,1516041074841,350
19,WS_SEND_START,1516041074841,350
19,WS_SEND_END,1516041074841,350
19,WS_RECV_START,1516041074841,351
19,WS_RECV_END,1516041074881,351
19,PLAYER_SLEEPBEFORE_START,1516041074881,352
19,PLAYER_SLEEPBEFORE_END,1516041076067,352
19,WS_SEND_START,1516041076067,352
19,WS_SEND_END,1516041076067,352
19,WS_RECV_START,1516041076068,353
19,WS_RECV_END,1516041077958,353
19,PLAYER_SLEEPBEFORE_START,1516041077958,354
19,PLAYER_SLEEPBEFORE_END,1516041077975,354
19,WS_SEND_START,1516041077975,354
19,WS_SEND_END,1516041077975,354
19,WS_RECV_START,1516041077975,355
19,WS_RECV_END,1516041079800,355
19,PLAYER_SLEEPBEFORE_START,1516041079800,356
19,PLAYER_SLEEPBEFORE_END,1516041079846,356
19,WS_SEND_START,1516041079846,356
19,WS_SEND_END,1516041079847,356
19,WS_RECV_START,1516041079847,357
19,WS_RECV_END,1516041081814,357
19,PLAYER_SLEEPBEFORE_START,1516041081814,358
19,PLAYER_SLEEPBEFORE_END,1516041081829,358
19,WS_SEND_START,1516041081829,358
19,WS_SEND_END,1516041081829,358
19,WS_RECV_START,1516041081829,359
19,WS_RECV_END,1516041084207,359
19,PLAYER_SLEEPBEFORE_START,1516041084207,360
19,PLAYER_SLEEPBEFORE_END,1516041104673,360
19,WS_SEND_START,1516041104673,360
19,WS_SEND_END,1516041104673,360
19,WS_RECV_START,1516041104673,361
19,WS_RECV_END,1516041107212,361
19,PLAYER_SLEEPBEFORE_START,1516041107212,362
19,PLAYER_SLEEPBEFORE_END,1516041107221,362
19,WS_SEND_START,1516041107221,362
19,WS_SEND_END,1516041107221,362
19,WS_RECV_START,1516041107221,363
19,WS_RECV_END,1516041107389,363
19,PLAYER_SLEEPBEFORE_START,1516041107389,364
19,PLAYER_SLEEPBEFORE_END,1516041109480,364
19,WS_SEND_START,1516041109480,364
19,WS_SEND_END,1516041109480,364
19,WS_RECV_START,1516041109480,365
19,WS_RECV_END,1516041110337,365
19,PLAYER_SLEEPBEFORE_START,1516041110337,366
19,PLAYER_SLEEPBEFORE_END,1516041110347,366
19,WS_SEND_START,1516041110347,366
19,WS_SEND_END,1516041110347,366
19,WS_RECV_START,1516041110347,367
19,WS_RECV_END,1516041111412,367
19,PLAYER_SLEEPBEFORE_START,1516041111412,368
19,PLAYER_SLEEPBEFORE_END,1516041134872,368
19,WS_SEND_START,1516041134872,368
19,WS_SEND_END,1516041134872,368
19,WS_RECV_START,1516041134872,369
19,WS_RECV_END,1516041136906,369
19,PLAYER_SLEEPBEFORE_START,1516041136906,370
19,PLAYER_SLEEPBEFORE_END,1516041136914,370
19,WS_SEND_START,1516041136914,370
19,WS_SEND_END,1516041136914,370
19,WS_RECV_START,1516041136914,371
19,WS_RECV_END,1516041140553,371
19,PLAYER_SLEEPBEFORE_START,1516041140553,372
19,PLAYER_SLEEPBEFORE_END,1516041140925,372
19,WS_SEND_START,1516041140925,372
19,WS_SEND_END,1516041140925,372
19,WS_RECV_START,1516041140925,373
19,WS_RECV_END,1516041142804,373
19,PLAYER_SLEEPBEFORE_START,1516041142804,374
19,PLAYER_SLEEPBEFORE_END,1516041143506,374
19,WS_SEND_START,1516041143506,374
19,WS_SEND_END,1516041143506,374
19,WS_RECV_START,1516041143506,375
19,WS_RECV_END,1516041145297,375
19,PLAYER_SLEEPBEFORE_START,1516041145297,376
19,PLAYER_SLEEPBEFORE_END,1516041145648,376
19,WS_SEND_START,1516041145648,376
19,WS_SEND_END,1516041145648,376
19,WS_RECV_START,1516041145648,377
19,WS_RECV_END,1516041150041,377
19,PLAYER_SLEEPBEFORE_START,1516041150041,378
19,PLAYER_SLEEPBEFORE_END,1516041150060,378
19,WS_SEND_START,1516041150060,378
19,WS_SEND_END,1516041150060,378
19,WS_RECV_START,1516041150060,379
19,WS_RECV_END,1516041151680,379
19,PLAYER_SLEEPBEFORE_START,1516041151680,380
19,PLAYER_SLEEPBEFORE_END,1516041172172,380
19,WS_SEND_START,1516041172172,380
19,WS_SEND_END,1516041172172,380
19,PLAYER_SLEEPBEFORE_START,1516041172172,381
19,PLAYER_SLEEPBEFORE_END,1516041176386,381
19,WS_SEND_START,1516041176386,381
19,WS_SEND_END,1516041176386,381
19,WS_RECV_START,1516041176386,382
19,WS_RECV_END,1516041178197,382
19,PLAYER_SLEEPBEFORE_START,1516041178197,383
19,PLAYER_SLEEPBEFORE_END,1516041198397,383
19,WS_SEND_START,1516041198397,383
19,WS_SEND_END,1516041198397,383
19,PLAYER_SLEEPBEFORE_START,1516041198397,384
19,PLAYER_SLEEPBEFORE_END,1516041201583,384
19,WS_SEND_START,1516041201583,384
19,WS_SEND_END,1516041201584,384
19,WS_RECV_START,1516041201584,385
19,WS_RECV_END,1516041207106,385
19,PLAYER_SLEEPBEFORE_START,1516041207106,386
19,PLAYER_SLEEPBEFORE_END,1516041207121,386
19,WS_SEND_START,1516041207121,386
19,WS_SEND_END,1516041207121,386
19,WS_RECV_START,1516041207121,387
19,WS_RECV_END,1516041208056,387
19,PLAYER_SLEEPBEFORE_START,1516041208056,388
19,PLAYER_SLEEPBEFORE_END,1516041228587,388
19,WS_SEND_START,1516041228587,388
19,WS_SEND_END,1516041228587,388
19,PLAYER_SLEEPBEFORE_START,1516041228587,389
19,PLAYER_SLEEPBEFORE_END,1516041230806,389
19,WS_SEND_START,1516041230806,389
19,WS_SEND_END,1516041230806,389
19,WS_RECV_START,1516041230806,390
19,WS_RECV_END,1516041231666,390
19,PLAYER_SLEEPBEFORE_START,1516041231666,391
19,PLAYER_SLEEPBEFORE_END,1516041254502,391
19,WS_SEND_START,1516041254502,391
19,WS_SEND_END,1516041254502,391
19,WS_RECV_START,1516041254502,392
19,WS_RECV_END,1516041256500,392
19,PLAYER_SLEEPBEFORE_START,1516041256500,393
19,PLAYER_SLEEPBEFORE_END,1516041281189,393
19,WS_SEND_START,1516041281189,393
19,WS_SEND_END,1516041281190,393
19,PLAYER_SLEEPBEFORE_START,1516041281190,394
19,PLAYER_SLEEPBEFORE_END,1516041283162,394
19,WS_SEND_START,1516041283162,394
19,WS_SEND_END,1516041283162,394
19,WS_RECV_START,1516041283162,395
19,WS_RECV_END,1516041284190,395
19,PLAYER_SLEEPBEFORE_START,1516041284190,396
19,PLAYER_SLEEPBEFORE_END,1516041284197,396
19,WS_SEND_START,1516041284197,396
19,WS_SEND_END,1516041284197,396
19,WS_RECV_START,1516041284197,397
19,WS_RECV_END,1516041284367,397
19,PLAYER_SLEEPBEFORE_START,1516041284367,398
19,PLAYER_SLEEPBEFORE_END,1516041284548,398
19,WS_SEND_START,1516041284548,398
19,WS_SEND_END,1516041284548,398
19,WS_RECV_START,1516041284548,399
19,WS_RECV_END,1516041284606,399
19,PLAYER_SLEEPBEFORE_START,1516041284606,400
19,PLAYER_SLEEPBEFORE_END,1516041285682,400
19,WS_SEND_START,1516041285682,400
19,WS_SEND_END,1516041285682,400
19,WS_RECV_START,1516041285682,401
19,WS_RECV_END,1516041285740,401
19,PLAYER_SLEEPBEFORE_START,1516041285740,402
19,PLAYER_SLEEPBEFORE_END,1516041287099,402
19,WS_SEND_START,1516041287099,402
19,WS_SEND_END,1516041287099,402
19,WS_RECV_START,1516041287099,403
19,WS_RECV_END,1516041289046,403
19,PLAYER_SLEEPBEFORE_START,1516041289046,404
19,PLAYER_SLEEPBEFORE_END,1516041289516,404
19,WS_SEND_START,1516041289516,404
19,WS_SEND_END,1516041289516,404
19,WS_RECV_START,1516041289516,405
19,WS_RECV_END,1516041290234,405
19,PLAYER_SLEEPBEFORE_START,1516041290234,406
19,PLAYER_SLEEPBEFORE_END,1516041292962,406
19,WS_SEND_START,1516041292962,406
19,WS_SEND_END,1516041292962,406
19,WS_RECV_START,1516041292962,407
19,WS_RECV_END,1516041293016,407
19,PLAYER_SLEEPBEFORE_START,1516041293016,408
19,PLAYER_SLEEPBEFORE_END,1516041293345,408
19,WS_SEND_START,1516041293346,408
19,WS_SEND_END,1516041293346,408
19,WS_RECV_START,1516041293346,409
19,WS_RECV_END,1516041293424,409
19,PLAYER_SLEEPBEFORE_START,1516041293424,410
19,PLAYER_SLEEPBEFORE_END,1516041294449,410
19,WS_SEND_START,1516041294449,410
19,WS_SEND_END,1516041294449,410
19,WS_RECV_START,1516041294449,411
19,WS_RECV_END,1516041295887,411
19,PLAYER_SLEEPBEFORE_START,1516041295887,412
19,PLAYER_SLEEPBEFORE_END,1516041296543,412
19,WS_SEND_START,1516041296543,412
19,WS_SEND_END,1516041296543,412
19,WS_RECV_START,1516041296543,413
19,WS_RECV_END,1516041298538,413
19,PLAYER_SLEEPBEFORE_START,1516041298538,414
19,PLAYER_SLEEPBEFORE_END,1516041298554,414
19,WS_SEND_START,1516041298554,414
19,WS_SEND_END,1516041298554,414
19,WS_RECV_START,1516041298554,415
19,WS_RECV_END,1516041299583,415
19,PLAYER_SLEEPBEFORE_START,1516041299583,416
19,PLAYER_SLEEPBEFORE_END,1516041313850,416
19,WS_SEND_START,1516041313850,416
19,WS_SEND_END,1516041313850,416
19,PLAYER_SLEEPBEFORE_START,1516041313850,417
19,PLAYER_SLEEPBEFORE_END,1516041342529,417
19,WS_SEND_START,1516041342529,417
19,WS_SEND_END,1516041342529,417
19,WS_RECV_START,1516041342529,418
19,WS_RECV_END,1516041342696,418
19,PLAYER_SLEEPBEFORE_START,1516041342696,419
19,PLAYER_SLEEPBEFORE_END,1516041347519,419
19,REQ_START,1516041347519,419
19,REQ_END,1516041347527,419
19,PLAYER_SLEEPBEFORE_START,1516041347527,420
19,PLAYER_SLEEPBEFORE_END,1516041366272,420
19,WS_CLOSE_START,1516041366272,420
19,WS_CLOSE_END,1516041366272,420
19,PLAYER_DONE,1516041366272
