# --sessions 540 --app-url=http://shinyloadtest.rstudioservices.com/cran_explorer --output-dir test540 --overwrite-output --log-level warn --start-interval 500 15min.log
thread_id,event,timestamp,input_line_number,comment
125,PLAYER_SESSION_CREATE,1516285277601
125,PLAYER_START_INTERVAL_START,1516285277602
125,PLAYER_START_INTERVAL_END,1516285340102
125,REQ_HOME_START,1516285340102,2
125,REQ_HOME_END,1516285340185,2
125,REQ_START,1516285340185,3
125,REQ_END,1516285340215,3
125,REQ_START,1516285340215,4
125,REQ_END,1516285340242,4
125,REQ_START,1516285340242,5
125,REQ_END,1516285340273,5
125,REQ_START,1516285340273,6
125,REQ_END,1516285340310,6
125,REQ_START,1516285340310,7
125,REQ_END,1516285340341,7
125,REQ_START,1516285340341,8
125,REQ_END,1516285340376,8
125,REQ_START,1516285340376,9
125,REQ_END,1516285340412,9
125,REQ_START,1516285340412,10
125,REQ_END,1516285340420,10
125,REQ_START,1516285340420,11
125,REQ_END,1516285340449,11
125,REQ_START,1516285340449,12
125,REQ_END,1516285340459,12
125,REQ_START,1516285340459,13
125,REQ_END,1516285340486,13
125,REQ_START,1516285340486,14
125,REQ_END,1516285340506,14
125,REQ_START,1516285340506,15
125,REQ_END,1516285340537,15
125,REQ_TOK_START,1516285340537,16
125,REQ_TOK_END,1516285340545,16
125,REQ_SINF_START,1516285340545,17
125,REQ_SINF_END,1516285340552,17
125,WS_OPEN_START,1516285340552,18
125,WS_OPEN_END,1516285340559,18
125,REQ_START,1516285340559,19
125,REQ_END,1516285340624,19
125,WS_RECV_START,1516285340624,20
125,WS_RECV_END,1516285340624,20
125,PLAYER_SLEEPBEFORE_START,1516285340624,21
125,PLAYER_SLEEPBEFORE_END,1516285340629,21
125,WS_SEND_START,1516285340629,21
125,WS_SEND_END,1516285340629,21
125,PLAYER_SLEEPBEFORE_START,1516285340629,22
125,PLAYER_SLEEPBEFORE_END,1516285340630,22
125,WS_SEND_START,1516285340630,22
125,WS_SEND_END,1516285340630,22
125,WS_RECV_INIT_START,1516285340630,23
125,WS_RECV_INIT_END,1516285340646,23
125,WS_RECV_START,1516285340646,24
125,WS_RECV_END,1516285340693,24
125,PLAYER_SLEEPBEFORE_START,1516285340693,25
125,PLAYER_SLEEPBEFORE_END,1516285340700,25
125,REQ_START,1516285340700,25
125,REQ_END,1516285340730,25
125,PLAYER_SLEEPBEFORE_START,1516285340730,26
125,PLAYER_SLEEPBEFORE_END,1516285340731,26
125,REQ_START,1516285340731,26
125,REQ_END,1516285340765,26
125,PLAYER_SLEEPBEFORE_START,1516285340765,27
125,PLAYER_SLEEPBEFORE_END,1516285340768,27
125,REQ_START,1516285340768,27
125,REQ_END,1516285340799,27
125,PLAYER_SLEEPBEFORE_START,1516285340799,28
125,PLAYER_SLEEPBEFORE_END,1516285341084,28
125,REQ_START,1516285341084,28
125,REQ_END,1516285341114,28
125,PLAYER_SLEEPBEFORE_START,1516285341114,29
125,PLAYER_SLEEPBEFORE_END,1516285341291,29
125,WS_SEND_START,1516285341291,29
125,WS_SEND_END,1516285341291,29
125,WS_RECV_START,1516285341291,30
125,WS_RECV_END,1516285341388,30
125,PLAYER_SLEEPBEFORE_START,1516285341388,31
125,PLAYER_SLEEPBEFORE_END,1516285341399,31
125,REQ_START,1516285341399,31
125,REQ_END,1516285341433,31
125,PLAYER_SLEEPBEFORE_START,1516285341433,32
125,PLAYER_SLEEPBEFORE_END,1516285369578,32
125,WS_SEND_START,1516285369578,32
125,WS_SEND_END,1516285369578,32
125,WS_RECV_START,1516285369578,33
125,WS_RECV_END,1516285369675,33
125,PLAYER_SLEEPBEFORE_START,1516285369675,34
125,PLAYER_SLEEPBEFORE_END,1516285395586,34
125,WS_SEND_START,1516285395586,34
125,WS_SEND_END,1516285395586,34
125,WS_RECV_START,1516285395586,35
125,WS_RECV_END,1516285395609,35
125,PLAYER_SLEEPBEFORE_START,1516285395610,36
125,PLAYER_SLEEPBEFORE_END,1516285395619,36
125,WS_SEND_START,1516285395619,36
125,WS_SEND_END,1516285395619,36
125,WS_RECV_START,1516285395619,37
125,WS_RECV_END,1516285395871,37
125,PLAYER_SLEEPBEFORE_START,1516285395871,38
125,PLAYER_SLEEPBEFORE_END,1516285399066,38
125,WS_SEND_START,1516285399066,38
125,WS_SEND_END,1516285399066,38
125,WS_RECV_START,1516285399066,39
125,WS_RECV_END,1516285399172,39
125,PLAYER_SLEEPBEFORE_START,1516285399172,40
125,PLAYER_SLEEPBEFORE_END,1516285399218,40
125,WS_SEND_START,1516285399218,40
125,WS_SEND_END,1516285399218,40
125,WS_RECV_START,1516285399218,41
125,WS_RECV_END,1516285399357,41
125,PLAYER_SLEEPBEFORE_START,1516285399357,42
125,PLAYER_SLEEPBEFORE_END,1516285417492,42
125,WS_SEND_START,1516285417492,42
125,WS_SEND_END,1516285417492,42
125,WS_RECV_START,1516285417492,43
125,WS_RECV_END,1516285417566,43
125,PLAYER_SLEEPBEFORE_START,1516285417566,44
125,PLAYER_SLEEPBEFORE_END,1516285417579,44
125,WS_SEND_START,1516285417579,44
125,WS_SEND_END,1516285417579,44
125,WS_RECV_START,1516285417579,45
125,WS_RECV_END,1516285417753,45
125,PLAYER_SLEEPBEFORE_START,1516285417753,46
125,PLAYER_SLEEPBEFORE_END,1516285419013,46
125,WS_SEND_START,1516285419013,46
125,WS_SEND_END,1516285419013,46
125,WS_RECV_START,1516285419013,47
125,WS_RECV_END,1516285419035,47
125,PLAYER_SLEEPBEFORE_START,1516285419035,48
125,PLAYER_SLEEPBEFORE_END,1516285420355,48
125,WS_SEND_START,1516285420355,48
125,WS_SEND_END,1516285420355,48
125,WS_RECV_START,1516285420355,49
125,WS_RECV_END,1516285420441,49
125,PLAYER_SLEEPBEFORE_START,1516285420441,50
125,PLAYER_SLEEPBEFORE_END,1516285420465,50
125,WS_SEND_START,1516285420465,50
125,WS_SEND_END,1516285420465,50
125,WS_RECV_START,1516285420465,51
125,WS_RECV_END,1516285420603,51
125,PLAYER_SLEEPBEFORE_START,1516285420603,52
125,PLAYER_SLEEPBEFORE_END,1516285443167,52
125,WS_SEND_START,1516285443167,52
125,WS_SEND_END,1516285443167,52
125,WS_RECV_START,1516285443167,53
125,WS_RECV_END,1516285443277,53
125,PLAYER_SLEEPBEFORE_START,1516285443277,54
125,PLAYER_SLEEPBEFORE_END,1516285464580,54
125,WS_SEND_START,1516285464580,54
125,WS_SEND_END,1516285464580,54
125,PLAYER_SLEEPBEFORE_START,1516285464580,55
125,PLAYER_SLEEPBEFORE_END,1516285466522,55
125,WS_SEND_START,1516285466522,55
125,WS_SEND_END,1516285466522,55
125,WS_RECV_START,1516285466522,56
125,WS_RECV_END,1516285466586,56
125,PLAYER_SLEEPBEFORE_START,1516285466586,57
125,PLAYER_SLEEPBEFORE_END,1516285489458,57
125,WS_SEND_START,1516285489458,57
125,WS_SEND_END,1516285489458,57
125,WS_RECV_START,1516285489458,58
125,WS_RECV_END,1516285489499,58
125,PLAYER_SLEEPBEFORE_START,1516285489499,59
125,PLAYER_SLEEPBEFORE_END,1516285491827,59
125,WS_SEND_START,1516285491827,59
125,WS_SEND_END,1516285491827,59
125,WS_RECV_START,1516285491827,60
125,WS_RECV_END,1516285492176,60
125,PLAYER_SLEEPBEFORE_START,1516285492176,61
125,PLAYER_SLEEPBEFORE_END,1516285495767,61
125,WS_SEND_START,1516285495767,61
125,WS_SEND_END,1516285495767,61
125,WS_RECV_START,1516285495767,62
125,WS_RECV_END,1516285495945,62
125,PLAYER_SLEEPBEFORE_START,1516285495945,63
125,PLAYER_SLEEPBEFORE_END,1516285515208,63
125,WS_SEND_START,1516285515208,63
125,WS_SEND_END,1516285515208,63
125,WS_RECV_START,1516285515208,64
125,WS_RECV_END,1516285515289,64
125,PLAYER_SLEEPBEFORE_START,1516285515289,65
125,PLAYER_SLEEPBEFORE_END,1516285542106,65
125,WS_SEND_START,1516285542106,65
125,WS_SEND_END,1516285542106,65
125,WS_RECV_START,1516285542106,66
125,WS_RECV_END,1516285542298,66
125,PLAYER_SLEEPBEFORE_START,1516285542298,67
125,PLAYER_SLEEPBEFORE_END,1516285543806,67
125,WS_SEND_START,1516285543806,67
125,WS_SEND_END,1516285543806,67
125,WS_RECV_START,1516285543806,68
125,WS_RECV_END,1516285543971,68
125,PLAYER_SLEEPBEFORE_START,1516285543971,69
125,PLAYER_SLEEPBEFORE_END,1516285565969,69
125,WS_SEND_START,1516285565969,69
125,WS_SEND_END,1516285565969,69
125,WS_RECV_START,1516285565969,70
125,WS_RECV_END,1516285566175,70
125,PLAYER_SLEEPBEFORE_START,1516285566175,71
125,PLAYER_SLEEPBEFORE_END,1516285590950,71
125,WS_SEND_START,1516285590950,71
125,WS_SEND_END,1516285590950,71
125,PLAYER_SLEEPBEFORE_START,1516285590950,72
125,PLAYER_SLEEPBEFORE_END,1516285593557,72
125,WS_SEND_START,1516285593557,72
125,WS_SEND_END,1516285593557,72
125,WS_RECV_START,1516285593557,73
125,WS_RECV_END,1516285593707,73
125,PLAYER_SLEEPBEFORE_START,1516285593707,74
125,PLAYER_SLEEPBEFORE_END,1516285593717,74
125,WS_SEND_START,1516285593717,74
125,WS_SEND_END,1516285593717,74
125,WS_RECV_START,1516285593717,75
125,WS_RECV_END,1516285593993,75
125,PLAYER_SLEEPBEFORE_START,1516285593993,76
125,PLAYER_SLEEPBEFORE_END,1516285595499,76
125,WS_SEND_START,1516285595499,76
125,WS_SEND_END,1516285595499,76
125,WS_RECV_START,1516285595499,77
125,WS_RECV_END,1516285595583,77
125,PLAYER_SLEEPBEFORE_START,1516285595583,78
125,PLAYER_SLEEPBEFORE_END,1516285596451,78
125,WS_SEND_START,1516285596451,78
125,WS_SEND_END,1516285596451,78
125,WS_RECV_START,1516285596451,79
125,WS_RECV_END,1516285596895,79
125,PLAYER_SLEEPBEFORE_START,1516285596895,80
125,PLAYER_SLEEPBEFORE_END,1516285604561,80
125,WS_SEND_START,1516285604561,80
125,WS_SEND_END,1516285604561,80
125,WS_RECV_START,1516285604561,81
125,WS_RECV_END,1516285604705,81
125,PLAYER_SLEEPBEFORE_START,1516285604705,82
125,PLAYER_SLEEPBEFORE_END,1516285605807,82
125,WS_SEND_START,1516285605807,82
125,WS_SEND_END,1516285605807,82
125,WS_RECV_START,1516285605807,83
125,WS_RECV_END,1516285606406,83
125,PLAYER_SLEEPBEFORE_START,1516285606406,84
125,PLAYER_SLEEPBEFORE_END,1516285607353,84
125,WS_SEND_START,1516285607353,84
125,WS_SEND_END,1516285607353,84
125,WS_RECV_START,1516285607353,85
125,WS_RECV_END,1516285607886,85
125,PLAYER_SLEEPBEFORE_START,1516285607886,86
125,PLAYER_SLEEPBEFORE_END,1516285612059,86
125,WS_SEND_START,1516285612059,86
125,WS_SEND_END,1516285612059,86
125,WS_RECV_START,1516285612059,87
125,WS_RECV_END,1516285612702,87
125,PLAYER_SLEEPBEFORE_START,1516285612702,88
125,PLAYER_SLEEPBEFORE_END,1516285612710,88
125,WS_SEND_START,1516285612710,88
125,WS_SEND_END,1516285612710,88
125,WS_RECV_START,1516285612710,89
125,WS_RECV_END,1516285613034,89
125,PLAYER_SLEEPBEFORE_START,1516285613034,90
125,PLAYER_SLEEPBEFORE_END,1516285640231,90
125,REQ_START,1516285640231,90
125,REQ_END,1516285640244,90
125,PLAYER_SLEEPBEFORE_START,1516285640244,91
125,PLAYER_SLEEPBEFORE_END,1516285648133,91
125,WS_SEND_START,1516285648133,91
125,WS_SEND_END,1516285648133,91
125,WS_RECV_START,1516285648133,92
125,WS_RECV_END,1516285648707,92
125,PLAYER_SLEEPBEFORE_START,1516285648707,93
125,PLAYER_SLEEPBEFORE_END,1516285648722,93
125,WS_SEND_START,1516285648722,93
125,WS_SEND_END,1516285648722,93
125,WS_RECV_START,1516285648722,94
125,WS_RECV_END,1516285648966,94
125,PLAYER_SLEEPBEFORE_START,1516285648966,95
125,PLAYER_SLEEPBEFORE_END,1516285672521,95
125,WS_SEND_START,1516285672521,95
125,WS_SEND_END,1516285672522,95
125,WS_RECV_START,1516285672522,96
125,WS_RECV_END,1516285673001,96
125,PLAYER_SLEEPBEFORE_START,1516285673001,97
125,PLAYER_SLEEPBEFORE_END,1516285695441,97
125,WS_SEND_START,1516285695441,97
125,WS_SEND_END,1516285695441,97
125,WS_RECV_START,1516285695441,98
125,WS_RECV_END,1516285695660,98
125,PLAYER_SLEEPBEFORE_START,1516285695660,99
125,PLAYER_SLEEPBEFORE_END,1516285695681,99
125,WS_SEND_START,1516285695681,99
125,WS_SEND_END,1516285695681,99
125,WS_RECV_START,1516285695681,100
125,WS_RECV_END,1516285695917,100
125,PLAYER_SLEEPBEFORE_START,1516285695917,101
125,PLAYER_SLEEPBEFORE_END,1516285719476,101
125,WS_SEND_START,1516285719476,101
125,WS_SEND_END,1516285719476,101
125,WS_RECV_START,1516285719476,102
125,WS_RECV_END,1516285720125,102
125,PLAYER_SLEEPBEFORE_START,1516285720125,103
125,PLAYER_SLEEPBEFORE_END,1516285743750,103
125,WS_SEND_START,1516285743750,103
125,WS_SEND_END,1516285743750,103
125,WS_RECV_START,1516285743750,104
125,WS_RECV_END,1516285744429,104
125,PLAYER_SLEEPBEFORE_START,1516285744429,105
125,PLAYER_SLEEPBEFORE_END,1516285769806,105
125,WS_SEND_START,1516285769806,105
125,WS_SEND_END,1516285769806,105
125,WS_RECV_START,1516285769806,106
125,WS_RECV_END,1516285771195,106
125,PLAYER_SLEEPBEFORE_START,1516285771195,107
125,PLAYER_SLEEPBEFORE_END,1516285794618,107
125,WS_SEND_START,1516285794618,107
125,WS_SEND_END,1516285794618,107
125,WS_RECV_START,1516285794618,108
125,WS_RECV_END,1516285795829,108
125,PLAYER_SLEEPBEFORE_START,1516285795829,109
125,PLAYER_SLEEPBEFORE_END,1516285795838,109
125,WS_SEND_START,1516285795838,109
125,WS_SEND_END,1516285795838,109
125,WS_RECV_START,1516285795838,110
125,WS_RECV_END,1516285796089,110
125,PLAYER_SLEEPBEFORE_START,1516285796090,111
125,PLAYER_SLEEPBEFORE_END,1516285797049,111
125,WS_SEND_START,1516285797049,111
125,WS_SEND_END,1516285797049,111
125,WS_RECV_START,1516285797049,112
125,WS_RECV_END,1516285797706,112
125,PLAYER_SLEEPBEFORE_START,1516285797706,113
125,PLAYER_SLEEPBEFORE_END,1516285798268,113
125,WS_SEND_START,1516285798268,113
125,WS_SEND_END,1516285798268,113
125,WS_RECV_START,1516285798268,114
125,WS_RECV_END,1516285799057,114
125,PLAYER_SLEEPBEFORE_START,1516285799057,115
125,PLAYER_SLEEPBEFORE_END,1516285799067,115
125,WS_SEND_START,1516285799067,115
125,WS_SEND_END,1516285799067,115
125,WS_RECV_START,1516285799067,116
125,WS_RECV_END,1516285799944,116
125,PLAYER_SLEEPBEFORE_START,1516285799944,117
125,PLAYER_SLEEPBEFORE_END,1516285820304,117
125,WS_SEND_START,1516285820304,117
125,WS_SEND_END,1516285820304,117
125,PLAYER_SLEEPBEFORE_START,1516285820304,118
125,PLAYER_SLEEPBEFORE_END,1516285824056,118
125,WS_SEND_START,1516285824056,118
125,WS_SEND_END,1516285824056,118
125,WS_RECV_START,1516285824056,119
125,WS_RECV_END,1516285824975,119
125,PLAYER_SLEEPBEFORE_START,1516285824975,120
125,PLAYER_SLEEPBEFORE_END,1516285825963,120
125,WS_SEND_START,1516285825963,120
125,WS_SEND_END,1516285825963,120
125,WS_RECV_START,1516285825963,121
125,WS_RECV_END,1516285827190,121
125,PLAYER_SLEEPBEFORE_START,1516285827190,122
125,PLAYER_SLEEPBEFORE_END,1516285828375,122
125,WS_SEND_START,1516285828375,122
125,WS_SEND_END,1516285828375,122
125,WS_RECV_START,1516285828375,123
125,WS_RECV_END,1516285829822,123
125,PLAYER_SLEEPBEFORE_START,1516285829822,124
125,PLAYER_SLEEPBEFORE_END,1516285854227,124
125,WS_SEND_START,1516285854227,124
125,WS_SEND_END,1516285854227,124
125,WS_RECV_START,1516285854227,125
125,WS_RECV_END,1516285855003,125
125,PLAYER_SLEEPBEFORE_START,1516285855003,126
125,PLAYER_SLEEPBEFORE_END,1516285875515,126
125,WS_SEND_START,1516285875515,126
125,WS_SEND_END,1516285875515,126
125,PLAYER_SLEEPBEFORE_START,1516285875515,127
125,PLAYER_SLEEPBEFORE_END,1516285878569,127
125,WS_SEND_START,1516285878569,127
125,WS_SEND_END,1516285878569,127
125,WS_RECV_START,1516285878569,128
125,WS_RECV_END,1516285880503,128
125,PLAYER_SLEEPBEFORE_START,1516285880503,129
125,PLAYER_SLEEPBEFORE_END,1516285880523,129
125,WS_SEND_START,1516285880523,129
125,WS_SEND_END,1516285880523,129
125,WS_RECV_START,1516285880523,130
125,WS_RECV_END,1516285881222,130
125,PLAYER_SLEEPBEFORE_START,1516285881222,131
125,PLAYER_SLEEPBEFORE_END,1516285902846,131
125,WS_SEND_START,1516285902846,131
125,WS_SEND_END,1516285902846,131
125,PLAYER_SLEEPBEFORE_START,1516285902846,132
125,PLAYER_SLEEPBEFORE_END,1516285905926,132
125,WS_SEND_START,1516285905926,132
125,WS_SEND_END,1516285905926,132
125,WS_RECV_START,1516285905926,133
125,WS_RECV_END,1516285908315,133
125,PLAYER_SLEEPBEFORE_START,1516285908315,134
125,PLAYER_SLEEPBEFORE_END,1516285929532,134
125,WS_SEND_START,1516285929532,134
125,WS_SEND_END,1516285929532,134
125,PLAYER_SLEEPBEFORE_START,1516285929532,135
125,PLAYER_SLEEPBEFORE_END,1516285932722,135
125,WS_SEND_START,1516285932722,135
125,WS_SEND_END,1516285932722,135
125,WS_RECV_START,1516285932722,136
125,WS_RECV_END,1516285934124,136
125,PLAYER_SLEEPBEFORE_START,1516285934124,137
125,PLAYER_SLEEPBEFORE_END,1516285934131,137
125,WS_SEND_START,1516285934131,137
125,WS_SEND_END,1516285934131,137
125,WS_RECV_START,1516285934131,138
125,WS_RECV_END,1516285934587,138
125,PLAYER_SLEEPBEFORE_START,1516285934587,139
125,PLAYER_SLEEPBEFORE_END,1516285935277,139
125,WS_SEND_START,1516285935277,139
125,WS_SEND_END,1516285935277,139
125,WS_RECV_START,1516285935277,140
125,WS_RECV_END,1516285935548,140
125,PLAYER_SLEEPBEFORE_START,1516285935548,141
125,PLAYER_SLEEPBEFORE_END,1516285936204,141
125,WS_SEND_START,1516285936204,141
125,WS_SEND_END,1516285936204,141
125,WS_RECV_START,1516285936204,142
125,WS_RECV_END,1516285936680,142
125,PLAYER_SLEEPBEFORE_START,1516285936680,143
125,PLAYER_SLEEPBEFORE_END,1516285936738,143
125,WS_SEND_START,1516285936738,143
125,WS_SEND_END,1516285936738,143
125,WS_RECV_START,1516285936738,144
125,WS_RECV_END,1516285937923,144
125,PLAYER_SLEEPBEFORE_START,1516285937923,145
125,PLAYER_SLEEPBEFORE_END,1516285953985,145
125,REQ_START,1516285953985,145
125,REQ_END,1516285953992,145
125,PLAYER_SLEEPBEFORE_START,1516285953992,146
125,PLAYER_SLEEPBEFORE_END,1516285962869,146
125,WS_SEND_START,1516285962869,146
125,WS_SEND_END,1516285962869,146
125,WS_RECV_START,1516285962869,147
125,WS_RECV_END,1516285964067,147
125,PLAYER_SLEEPBEFORE_START,1516285964067,148
125,PLAYER_SLEEPBEFORE_END,1516285985989,148
125,WS_SEND_START,1516285985989,148
125,WS_SEND_END,1516285985989,148
125,PLAYER_SLEEPBEFORE_START,1516285985989,149
125,PLAYER_SLEEPBEFORE_END,1516285988417,149
125,WS_SEND_START,1516285988417,149
125,WS_SEND_END,1516285988417,149
125,WS_RECV_START,1516285988417,150
125,WS_RECV_END,1516285989394,150
125,PLAYER_SLEEPBEFORE_START,1516285989394,151
125,PLAYER_SLEEPBEFORE_END,1516285989604,151
125,WS_SEND_START,1516285989604,151
125,WS_SEND_END,1516285989604,151
125,WS_RECV_START,1516285989604,152
125,WS_RECV_END,1516285990788,152
125,PLAYER_SLEEPBEFORE_START,1516285990788,153
125,PLAYER_SLEEPBEFORE_END,1516286014715,153
125,WS_SEND_START,1516286014715,153
125,WS_SEND_END,1516286014715,153
125,WS_RECV_START,1516286014715,154
125,WS_RECV_END,1516286018119,154
125,PLAYER_SLEEPBEFORE_START,1516286018119,155
125,PLAYER_SLEEPBEFORE_END,1516286040677,155
125,WS_SEND_START,1516286040677,155
125,WS_SEND_END,1516286040677,155
125,PLAYER_SLEEPBEFORE_START,1516286040677,156
125,PLAYER_SLEEPBEFORE_END,1516286043951,156
125,WS_SEND_START,1516286043951,156
125,WS_SEND_END,1516286043951,156
125,WS_RECV_START,1516286043951,157
125,WS_RECV_END,1516286046131,157
125,PLAYER_SLEEPBEFORE_START,1516286046131,158
125,PLAYER_SLEEPBEFORE_END,1516286046141,158
125,WS_SEND_START,1516286046141,158
125,WS_SEND_END,1516286046141,158
125,WS_RECV_START,1516286046141,159
125,WS_RECV_END,1516286048318,159
125,PLAYER_SLEEPBEFORE_START,1516286048318,160
125,PLAYER_SLEEPBEFORE_END,1516286048493,160
125,WS_SEND_START,1516286048493,160
125,WS_SEND_END,1516286048493,160
125,WS_RECV_START,1516286048493,161
125,WS_RECV_END,1516286049984,161
125,PLAYER_SLEEPBEFORE_START,1516286049984,162
125,PLAYER_SLEEPBEFORE_END,1516286050009,162
125,WS_SEND_START,1516286050009,162
125,WS_SEND_END,1516286050009,162
125,WS_RECV_START,1516286050009,163
125,WS_RECV_END,1516286051437,163
125,PLAYER_SLEEPBEFORE_START,1516286051437,164
125,PLAYER_SLEEPBEFORE_END,1516286072249,164
125,WS_SEND_START,1516286072249,164
125,WS_SEND_END,1516286072249,164
125,WS_RECV_START,1516286072249,165
125,WS_RECV_END,1516286072908,165
125,PLAYER_SLEEPBEFORE_START,1516286072908,166
125,PLAYER_SLEEPBEFORE_END,1516286095363,166
125,WS_SEND_START,1516286095363,166
125,WS_SEND_END,1516286095363,166
125,WS_RECV_START,1516286095363,167
125,WS_RECV_END,1516286096527,167
125,PLAYER_SLEEPBEFORE_START,1516286096527,168
125,PLAYER_SLEEPBEFORE_END,1516286123884,168
125,WS_SEND_START,1516286123884,168
125,WS_SEND_END,1516286123884,168
125,WS_RECV_START,1516286123884,169
125,WS_RECV_END,1516286125588,169
125,PLAYER_SLEEPBEFORE_START,1516286125588,170
125,PLAYER_SLEEPBEFORE_END,1516286125597,170
125,WS_SEND_START,1516286125597,170
125,WS_SEND_END,1516286125597,170
125,WS_RECV_START,1516286125597,171
125,WS_RECV_END,1516286127258,171
125,PLAYER_SLEEPBEFORE_START,1516286127258,172
125,PLAYER_SLEEPBEFORE_END,1516286127627,172
125,WS_SEND_START,1516286127627,172
125,WS_SEND_END,1516286127627,172
125,WS_RECV_START,1516286127627,173
125,WS_RECV_END,1516286128610,173
125,PLAYER_SLEEPBEFORE_START,1516286128610,174
125,PLAYER_SLEEPBEFORE_END,1516286128651,174
125,WS_SEND_START,1516286128651,174
125,WS_SEND_END,1516286128651,174
125,WS_RECV_START,1516286128651,175
125,WS_RECV_END,1516286130006,175
125,PLAYER_SLEEPBEFORE_START,1516286130006,176
125,PLAYER_SLEEPBEFORE_END,1516286151767,176
125,WS_SEND_START,1516286151767,176
125,WS_SEND_END,1516286151767,176
125,PLAYER_SLEEPBEFORE_START,1516286151767,177
125,PLAYER_SLEEPBEFORE_END,1516286154285,177
125,WS_SEND_START,1516286154285,177
125,WS_SEND_END,1516286154285,177
125,WS_RECV_START,1516286154285,178
125,WS_RECV_END,1516286156278,178
125,PLAYER_SLEEPBEFORE_START,1516286156278,179
125,PLAYER_SLEEPBEFORE_END,1516286178618,179
125,WS_SEND_START,1516286178618,179
125,WS_SEND_END,1516286178618,179
125,WS_RECV_START,1516286178618,180
125,WS_RECV_END,1516286184654,180
125,PLAYER_SLEEPBEFORE_START,1516286184654,181
125,PLAYER_SLEEPBEFORE_END,1516286185099,181
125,WS_SEND_START,1516286185099,181
125,WS_SEND_END,1516286185099,181
125,WS_RECV_START,1516286185099,182
125,WS_RECV_END,1516286187912,182
125,PLAYER_SLEEPBEFORE_START,1516286187912,183
125,PLAYER_SLEEPBEFORE_END,1516286188435,183
125,WS_SEND_START,1516286188436,183
125,WS_SEND_END,1516286188436,183
125,WS_RECV_START,1516286188436,184
125,WS_RECV_END,1516286191549,184
125,PLAYER_SLEEPBEFORE_START,1516286191549,185
125,PLAYER_SLEEPBEFORE_END,1516286191817,185
125,WS_SEND_START,1516286191817,185
125,WS_SEND_END,1516286191817,185
125,WS_RECV_START,1516286191817,186
125,WS_RECV_END,1516286194365,186
125,PLAYER_SLEEPBEFORE_START,1516286194365,187
125,PLAYER_SLEEPBEFORE_END,1516286216865,187
125,WS_SEND_START,1516286216865,187
125,WS_SEND_END,1516286216865,187
125,WS_RECV_START,1516286216865,188
125,WS_RECV_END,1516286222010,188
125,PLAYER_SLEEPBEFORE_START,1516286222010,189
125,PLAYER_SLEEPBEFORE_END,1516286228249,189
125,WS_SEND_START,1516286228249,189
125,WS_SEND_END,1516286228249,189
125,WS_RECV_START,1516286228249,190
125,WS_RECV_END,1516286234735,190
125,PLAYER_SLEEPBEFORE_START,1516286234735,191
125,PLAYER_SLEEPBEFORE_END,1516286236650,191
125,WS_SEND_START,1516286236650,191
125,WS_SEND_END,1516286236650,191
125,WS_RECV_START,1516286236650,192
125,WS_RECV_END,1516286242999,192
125,PLAYER_SLEEPBEFORE_START,1516286242999,193
125,PLAYER_SLEEPBEFORE_END,1516286243127,193
125,WS_SEND_START,1516286243127,193
125,WS_SEND_END,1516286243127,193
125,WS_RECV_START,1516286243127,194
125,WS_RECV_END,1516286247064,194
125,PLAYER_SLEEPBEFORE_START,1516286247064,195
125,PLAYER_SLEEPBEFORE_END,1516286248819,195
125,WS_SEND_START,1516286248819,195
125,WS_SEND_END,1516286248819,195
125,WS_RECV_START,1516286248819,196
125,WS_RECV_END,1516286251699,196
125,PLAYER_SLEEPBEFORE_START,1516286251699,197
125,PLAYER_SLEEPBEFORE_END,1516286253503,197
125,WS_SEND_START,1516286253503,197
125,WS_SEND_END,1516286253503,197
125,WS_RECV_START,1516286253503,198
125,WS_RECV_END,1516286255653,198
125,PLAYER_SLEEPBEFORE_START,1516286255653,199
125,PLAYER_SLEEPBEFORE_END,1516286267507,199
125,WS_SEND_START,1516286267507,199
125,WS_SEND_END,1516286267507,199
125,PLAYER_SLEEPBEFORE_START,1516286267507,200
125,PLAYER_SLEEPBEFORE_END,1516286271595,200
125,WS_SEND_START,1516286271595,200
125,WS_SEND_END,1516286271595,200
125,WS_RECV_START,1516286271595,201
125,WS_RECV_END,1516286273217,201
125,PLAYER_SLEEPBEFORE_START,1516286273217,202
125,PLAYER_SLEEPBEFORE_END,1516286273231,202
125,WS_SEND_START,1516286273231,202
125,WS_SEND_END,1516286273231,202
125,WS_RECV_START,1516286273231,203
125,WS_RECV_END,1516286275771,203
125,PLAYER_SLEEPBEFORE_START,1516286275771,204
125,PLAYER_SLEEPBEFORE_END,1516286295420,204
125,WS_SEND_START,1516286295420,204
125,WS_SEND_END,1516286295420,204
125,PLAYER_SLEEPBEFORE_START,1516286295420,205
125,PLAYER_SLEEPBEFORE_END,1516286299318,205
125,WS_SEND_START,1516286299318,205
125,WS_SEND_END,1516286299318,205
125,WS_RECV_START,1516286299318,206
125,WS_RECV_END,1516286302355,206
125,PLAYER_SLEEPBEFORE_START,1516286302355,207
125,PLAYER_SLEEPBEFORE_END,1516286319286,207
125,REQ_START,1516286319286,207
125,REQ_END,1516286319294,207
125,PLAYER_SLEEPBEFORE_START,1516286319294,208
125,PLAYER_SLEEPBEFORE_END,1516286326146,208
125,WS_CLOSE_START,1516286326146,208
125,WS_CLOSE_END,1516286326146,208
125,PLAYER_DONE,1516286326146
