# --sessions 540 --app-url=http://shinyloadtest.rstudioservices.com/cran_explorer --output-dir test540 --overwrite-output --log-level warn --start-interval 500 15min.log
thread_id,event,timestamp,input_line_number,comment
176,PLAYER_SESSION_CREATE,1516285277616
176,PLAYER_START_INTERVAL_START,1516285277616
176,PLAYER_START_INTERVAL_END,1516285365616
176,REQ_HOME_START,1516285365616,2
176,REQ_HOME_END,1516285365719,2
176,REQ_START,1516285365719,3
176,REQ_END,1516285365767,3
176,REQ_START,1516285365767,4
176,REQ_END,1516285365804,4
176,REQ_START,1516285365804,5
176,REQ_END,1516285365837,5
176,REQ_START,1516285365837,6
176,REQ_END,1516285365870,6
176,REQ_START,1516285365870,7
176,REQ_END,1516285365901,7
176,REQ_START,1516285365901,8
176,REQ_END,1516285365937,8
176,REQ_START,1516285365937,9
176,REQ_END,1516285365979,9
176,REQ_START,1516285365979,10
176,REQ_END,1516285365987,10
176,REQ_START,1516285365987,11
176,REQ_END,1516285366019,11
176,REQ_START,1516285366020,12
176,REQ_END,1516285366028,12
176,REQ_START,1516285366028,13
176,REQ_END,1516285366056,13
176,REQ_START,1516285366056,14
176,REQ_END,1516285366070,14
176,REQ_START,1516285366070,15
176,REQ_END,1516285366103,15
176,REQ_TOK_START,1516285366103,16
176,REQ_TOK_END,1516285366111,16
176,REQ_SINF_START,1516285366111,17
176,REQ_SINF_END,1516285366118,17
176,WS_OPEN_START,1516285366118,18
176,WS_OPEN_END,1516285366125,18
176,REQ_START,1516285366125,19
176,REQ_END,1516285366152,19
176,WS_RECV_START,1516285366152,20
176,WS_RECV_END,1516285366152,20
176,PLAYER_SLEEPBEFORE_START,1516285366152,21
176,PLAYER_SLEEPBEFORE_END,1516285366157,21
176,WS_SEND_START,1516285366157,21
176,WS_SEND_END,1516285366157,21
176,PLAYER_SLEEPBEFORE_START,1516285366157,22
176,PLAYER_SLEEPBEFORE_END,1516285366159,22
176,WS_SEND_START,1516285366159,22
176,WS_SEND_END,1516285366159,22
176,WS_RECV_INIT_START,1516285366159,23
176,WS_RECV_INIT_END,1516285366224,23
176,WS_RECV_START,1516285366224,24
176,WS_RECV_END,1516285366270,24
176,PLAYER_SLEEPBEFORE_START,1516285366270,25
176,PLAYER_SLEEPBEFORE_END,1516285366277,25
176,REQ_START,1516285366277,25
176,REQ_END,1516285366307,25
176,PLAYER_SLEEPBEFORE_START,1516285366307,26
176,PLAYER_SLEEPBEFORE_END,1516285366308,26
176,REQ_START,1516285366308,26
176,REQ_END,1516285366339,26
176,PLAYER_SLEEPBEFORE_START,1516285366339,27
176,PLAYER_SLEEPBEFORE_END,1516285366342,27
176,REQ_START,1516285366342,27
176,REQ_END,1516285366376,27
176,PLAYER_SLEEPBEFORE_START,1516285366376,28
176,PLAYER_SLEEPBEFORE_END,1516285366661,28
176,REQ_START,1516285366661,28
176,REQ_END,1516285366707,28
176,PLAYER_SLEEPBEFORE_START,1516285366707,29
176,PLAYER_SLEEPBEFORE_END,1516285366882,29
176,WS_SEND_START,1516285366882,29
176,WS_SEND_END,1516285366882,29
176,WS_RECV_START,1516285366882,30
176,WS_RECV_END,1516285366996,30
176,PLAYER_SLEEPBEFORE_START,1516285366996,31
176,PLAYER_SLEEPBEFORE_END,1516285367007,31
176,REQ_START,1516285367007,31
176,REQ_END,1516285367040,31
176,PLAYER_SLEEPBEFORE_START,1516285367040,32
176,PLAYER_SLEEPBEFORE_END,1516285395186,32
176,WS_SEND_START,1516285395186,32
176,WS_SEND_END,1516285395186,32
176,WS_RECV_START,1516285395186,33
176,WS_RECV_END,1516285395337,33
176,PLAYER_SLEEPBEFORE_START,1516285395337,34
176,PLAYER_SLEEPBEFORE_END,1516285421248,34
176,WS_SEND_START,1516285421248,34
176,WS_SEND_END,1516285421248,34
176,WS_RECV_START,1516285421248,35
176,WS_RECV_END,1516285421287,35
176,PLAYER_SLEEPBEFORE_START,1516285421287,36
176,PLAYER_SLEEPBEFORE_END,1516285421296,36
176,WS_SEND_START,1516285421297,36
176,WS_SEND_END,1516285421297,36
176,WS_RECV_START,1516285421297,37
176,WS_RECV_END,1516285421349,37
176,PLAYER_SLEEPBEFORE_START,1516285421349,38
176,PLAYER_SLEEPBEFORE_END,1516285424544,38
176,WS_SEND_START,1516285424544,38
176,WS_SEND_END,1516285424544,38
176,WS_RECV_START,1516285424544,39
176,WS_RECV_END,1516285424671,39
176,PLAYER_SLEEPBEFORE_START,1516285424672,40
176,PLAYER_SLEEPBEFORE_END,1516285424718,40
176,WS_SEND_START,1516285424718,40
176,WS_SEND_END,1516285424718,40
176,WS_RECV_START,1516285424718,41
176,WS_RECV_END,1516285424828,41
176,PLAYER_SLEEPBEFORE_START,1516285424828,42
176,PLAYER_SLEEPBEFORE_END,1516285442963,42
176,WS_SEND_START,1516285442963,42
176,WS_SEND_END,1516285442963,42
176,WS_RECV_START,1516285442963,43
176,WS_RECV_END,1516285443008,43
176,PLAYER_SLEEPBEFORE_START,1516285443008,44
176,PLAYER_SLEEPBEFORE_END,1516285443020,44
176,WS_SEND_START,1516285443020,44
176,WS_SEND_END,1516285443020,44
176,WS_RECV_START,1516285443020,45
176,WS_RECV_END,1516285443149,45
176,PLAYER_SLEEPBEFORE_START,1516285443149,46
176,PLAYER_SLEEPBEFORE_END,1516285444409,46
176,WS_SEND_START,1516285444409,46
176,WS_SEND_END,1516285444409,46
176,WS_RECV_START,1516285444409,47
176,WS_RECV_END,1516285444435,47
176,PLAYER_SLEEPBEFORE_START,1516285444435,48
176,PLAYER_SLEEPBEFORE_END,1516285445755,48
176,WS_SEND_START,1516285445755,48
176,WS_SEND_END,1516285445755,48
176,WS_RECV_START,1516285445755,49
176,WS_RECV_END,1516285445846,49
176,PLAYER_SLEEPBEFORE_START,1516285445846,50
176,PLAYER_SLEEPBEFORE_END,1516285445871,50
176,WS_SEND_START,1516285445871,50
176,WS_SEND_END,1516285445871,50
176,WS_RECV_START,1516285445871,51
176,WS_RECV_END,1516285445986,51
176,PLAYER_SLEEPBEFORE_START,1516285445986,52
176,PLAYER_SLEEPBEFORE_END,1516285468550,52
176,WS_SEND_START,1516285468550,52
176,WS_SEND_END,1516285468550,52
176,WS_RECV_START,1516285468550,53
176,WS_RECV_END,1516285468680,53
176,PLAYER_SLEEPBEFORE_START,1516285468680,54
176,PLAYER_SLEEPBEFORE_END,1516285489983,54
176,WS_SEND_START,1516285489983,54
176,WS_SEND_END,1516285489983,54
176,PLAYER_SLEEPBEFORE_START,1516285489983,55
176,PLAYER_SLEEPBEFORE_END,1516285491925,55
176,WS_SEND_START,1516285491925,55
176,WS_SEND_END,1516285491925,55
176,WS_RECV_START,1516285491925,56
176,WS_RECV_END,1516285491992,56
176,PLAYER_SLEEPBEFORE_START,1516285491992,57
176,PLAYER_SLEEPBEFORE_END,1516285514864,57
176,WS_SEND_START,1516285514864,57
176,WS_SEND_END,1516285514864,57
176,WS_RECV_START,1516285514864,58
176,WS_RECV_END,1516285514954,58
176,PLAYER_SLEEPBEFORE_START,1516285514954,59
176,PLAYER_SLEEPBEFORE_END,1516285517281,59
176,WS_SEND_START,1516285517281,59
176,WS_SEND_END,1516285517281,59
176,WS_RECV_START,1516285517281,60
176,WS_RECV_END,1516285517529,60
176,PLAYER_SLEEPBEFORE_START,1516285517530,61
176,PLAYER_SLEEPBEFORE_END,1516285521121,61
176,WS_SEND_START,1516285521121,61
176,WS_SEND_END,1516285521121,61
176,WS_RECV_START,1516285521121,62
176,WS_RECV_END,1516285521264,62
176,PLAYER_SLEEPBEFORE_START,1516285521264,63
176,PLAYER_SLEEPBEFORE_END,1516285540526,63
176,WS_SEND_START,1516285540526,63
176,WS_SEND_END,1516285540526,63
176,WS_RECV_START,1516285540526,64
176,WS_RECV_END,1516285540877,64
176,PLAYER_SLEEPBEFORE_START,1516285540877,65
176,PLAYER_SLEEPBEFORE_END,1516285567694,65
176,WS_SEND_START,1516285567694,65
176,WS_SEND_END,1516285567694,65
176,WS_RECV_START,1516285567694,66
176,WS_RECV_END,1516285568103,66
176,PLAYER_SLEEPBEFORE_START,1516285568103,67
176,PLAYER_SLEEPBEFORE_END,1516285569610,67
176,WS_SEND_START,1516285569610,67
176,WS_SEND_END,1516285569610,67
176,WS_RECV_START,1516285569610,68
176,WS_RECV_END,1516285569706,68
176,PLAYER_SLEEPBEFORE_START,1516285569706,69
176,PLAYER_SLEEPBEFORE_END,1516285591704,69
176,WS_SEND_START,1516285591704,69
176,WS_SEND_END,1516285591704,69
176,WS_RECV_START,1516285591704,70
176,WS_RECV_END,1516285591885,70
176,PLAYER_SLEEPBEFORE_START,1516285591885,71
176,PLAYER_SLEEPBEFORE_END,1516285616660,71
176,WS_SEND_START,1516285616660,71
176,WS_SEND_END,1516285616660,71
176,PLAYER_SLEEPBEFORE_START,1516285616660,72
176,PLAYER_SLEEPBEFORE_END,1516285619267,72
176,WS_SEND_START,1516285619268,72
176,WS_SEND_END,1516285619268,72
176,WS_RECV_START,1516285619268,73
176,WS_RECV_END,1516285619875,73
176,PLAYER_SLEEPBEFORE_START,1516285619875,74
176,PLAYER_SLEEPBEFORE_END,1516285619884,74
176,WS_SEND_START,1516285619884,74
176,WS_SEND_END,1516285619884,74
176,WS_RECV_START,1516285619884,75
176,WS_RECV_END,1516285619925,75
176,PLAYER_SLEEPBEFORE_START,1516285619925,76
176,PLAYER_SLEEPBEFORE_END,1516285621431,76
176,WS_SEND_START,1516285621431,76
176,WS_SEND_END,1516285621431,76
176,WS_RECV_START,1516285621431,77
176,WS_RECV_END,1516285621525,77
176,PLAYER_SLEEPBEFORE_START,1516285621525,78
176,PLAYER_SLEEPBEFORE_END,1516285622393,78
176,WS_SEND_START,1516285622393,78
176,WS_SEND_END,1516285622393,78
176,WS_RECV_START,1516285622393,79
176,WS_RECV_END,1516285622841,79
176,PLAYER_SLEEPBEFORE_START,1516285622841,80
176,PLAYER_SLEEPBEFORE_END,1516285630507,80
176,WS_SEND_START,1516285630507,80
176,WS_SEND_END,1516285630507,80
176,WS_RECV_START,1516285630507,81
176,WS_RECV_END,1516285630595,81
176,PLAYER_SLEEPBEFORE_START,1516285630595,82
176,PLAYER_SLEEPBEFORE_END,1516285631697,82
176,WS_SEND_START,1516285631697,82
176,WS_SEND_END,1516285631697,82
176,WS_RECV_START,1516285631697,83
176,WS_RECV_END,1516285631860,83
176,PLAYER_SLEEPBEFORE_START,1516285631860,84
176,PLAYER_SLEEPBEFORE_END,1516285632807,84
176,WS_SEND_START,1516285632807,84
176,WS_SEND_END,1516285632807,84
176,WS_RECV_START,1516285632807,85
176,WS_RECV_END,1516285632872,85
176,PLAYER_SLEEPBEFORE_START,1516285632872,86
176,PLAYER_SLEEPBEFORE_END,1516285637044,86
176,WS_SEND_START,1516285637044,86
176,WS_SEND_END,1516285637044,86
176,WS_RECV_START,1516285637044,87
176,WS_RECV_END,1516285638357,87
176,PLAYER_SLEEPBEFORE_START,1516285638357,88
176,PLAYER_SLEEPBEFORE_END,1516285638365,88
176,WS_SEND_START,1516285638365,88
176,WS_SEND_END,1516285638365,88
176,WS_RECV_START,1516285638365,89
176,WS_RECV_END,1516285639007,89
176,PLAYER_SLEEPBEFORE_START,1516285639007,90
176,PLAYER_SLEEPBEFORE_END,1516285666204,90
176,REQ_START,1516285666204,90
176,REQ_END,1516285666212,90
176,PLAYER_SLEEPBEFORE_START,1516285666212,91
176,PLAYER_SLEEPBEFORE_END,1516285674101,91
176,WS_SEND_START,1516285674101,91
176,WS_SEND_END,1516285674101,91
176,WS_RECV_START,1516285674101,92
176,WS_RECV_END,1516285674776,92
176,PLAYER_SLEEPBEFORE_START,1516285674776,93
176,PLAYER_SLEEPBEFORE_END,1516285674791,93
176,WS_SEND_START,1516285674791,93
176,WS_SEND_END,1516285674791,93
176,WS_RECV_START,1516285674791,94
176,WS_RECV_END,1516285675449,94
176,PLAYER_SLEEPBEFORE_START,1516285675449,95
176,PLAYER_SLEEPBEFORE_END,1516285699004,95
176,WS_SEND_START,1516285699004,95
176,WS_SEND_END,1516285699004,95
176,WS_RECV_START,1516285699004,96
176,WS_RECV_END,1516285699738,96
176,PLAYER_SLEEPBEFORE_START,1516285699738,97
176,PLAYER_SLEEPBEFORE_END,1516285722178,97
176,WS_SEND_START,1516285722178,97
176,WS_SEND_END,1516285722178,97
176,WS_RECV_START,1516285722178,98
176,WS_RECV_END,1516285722438,98
176,PLAYER_SLEEPBEFORE_START,1516285722438,99
176,PLAYER_SLEEPBEFORE_END,1516285722459,99
176,WS_SEND_START,1516285722459,99
176,WS_SEND_END,1516285722459,99
176,WS_RECV_START,1516285722459,100
176,WS_RECV_END,1516285723085,100
176,PLAYER_SLEEPBEFORE_START,1516285723085,101
176,PLAYER_SLEEPBEFORE_END,1516285746644,101
176,WS_SEND_START,1516285746644,101
176,WS_SEND_END,1516285746644,101
176,WS_RECV_START,1516285746644,102
176,WS_RECV_END,1516285747089,102
176,PLAYER_SLEEPBEFORE_START,1516285747089,103
176,PLAYER_SLEEPBEFORE_END,1516285770714,103
176,WS_SEND_START,1516285770714,103
176,WS_SEND_END,1516285770714,103
176,WS_RECV_START,1516285770714,104
176,WS_RECV_END,1516285772047,104
176,PLAYER_SLEEPBEFORE_START,1516285772047,105
176,PLAYER_SLEEPBEFORE_END,1516285797424,105
176,WS_SEND_START,1516285797424,105
176,WS_SEND_END,1516285797424,105
176,WS_RECV_START,1516285797424,106
176,WS_RECV_END,1516285798003,106
176,PLAYER_SLEEPBEFORE_START,1516285798003,107
176,PLAYER_SLEEPBEFORE_END,1516285821427,107
176,WS_SEND_START,1516285821427,107
176,WS_SEND_END,1516285821427,107
176,WS_RECV_START,1516285821427,108
176,WS_RECV_END,1516285822006,108
176,PLAYER_SLEEPBEFORE_START,1516285822007,109
176,PLAYER_SLEEPBEFORE_END,1516285822016,109
176,WS_SEND_START,1516285822016,109
176,WS_SEND_END,1516285822016,109
176,WS_RECV_START,1516285822016,110
176,WS_RECV_END,1516285822066,110
176,PLAYER_SLEEPBEFORE_START,1516285822066,111
176,PLAYER_SLEEPBEFORE_END,1516285823025,111
176,WS_SEND_START,1516285823025,111
176,WS_SEND_END,1516285823025,111
176,WS_RECV_START,1516285823025,112
176,WS_RECV_END,1516285824202,112
176,PLAYER_SLEEPBEFORE_START,1516285824202,113
176,PLAYER_SLEEPBEFORE_END,1516285824764,113
176,WS_SEND_START,1516285824764,113
176,WS_SEND_END,1516285824764,113
176,WS_RECV_START,1516285824764,114
176,WS_RECV_END,1516285825277,114
176,PLAYER_SLEEPBEFORE_START,1516285825277,115
176,PLAYER_SLEEPBEFORE_END,1516285825286,115
176,WS_SEND_START,1516285825286,115
176,WS_SEND_END,1516285825286,115
176,WS_RECV_START,1516285825286,116
176,WS_RECV_END,1516285825687,116
176,PLAYER_SLEEPBEFORE_START,1516285825687,117
176,PLAYER_SLEEPBEFORE_END,1516285846047,117
176,WS_SEND_START,1516285846047,117
176,WS_SEND_END,1516285846047,117
176,PLAYER_SLEEPBEFORE_START,1516285846047,118
176,PLAYER_SLEEPBEFORE_END,1516285849799,118
176,WS_SEND_START,1516285849799,118
176,WS_SEND_END,1516285849799,118
176,WS_RECV_START,1516285849799,119
176,WS_RECV_END,1516285852223,119
176,PLAYER_SLEEPBEFORE_START,1516285852223,120
176,PLAYER_SLEEPBEFORE_END,1516285853211,120
176,WS_SEND_START,1516285853211,120
176,WS_SEND_END,1516285853211,120
176,WS_RECV_START,1516285853211,121
176,WS_RECV_END,1516285854640,121
176,PLAYER_SLEEPBEFORE_START,1516285854640,122
176,PLAYER_SLEEPBEFORE_END,1516285855825,122
176,WS_SEND_START,1516285855825,122
176,WS_SEND_END,1516285855825,122
176,WS_RECV_START,1516285855825,123
176,WS_RECV_END,1516285856802,123
176,PLAYER_SLEEPBEFORE_START,1516285856802,124
176,PLAYER_SLEEPBEFORE_END,1516285881207,124
176,WS_SEND_START,1516285881207,124
176,WS_SEND_END,1516285881207,124
176,WS_RECV_START,1516285881207,125
176,WS_RECV_END,1516285883083,125
176,PLAYER_SLEEPBEFORE_START,1516285883083,126
176,PLAYER_SLEEPBEFORE_END,1516285903595,126
176,WS_SEND_START,1516285903595,126
176,WS_SEND_END,1516285903595,126
176,PLAYER_SLEEPBEFORE_START,1516285903595,127
176,PLAYER_SLEEPBEFORE_END,1516285906649,127
176,WS_SEND_START,1516285906649,127
176,WS_SEND_END,1516285906649,127
176,WS_RECV_START,1516285906649,128
176,WS_RECV_END,1516285908287,128
176,PLAYER_SLEEPBEFORE_START,1516285908287,129
176,PLAYER_SLEEPBEFORE_END,1516285908308,129
176,WS_SEND_START,1516285908308,129
176,WS_SEND_END,1516285908308,129
176,WS_RECV_START,1516285908308,130
176,WS_RECV_END,1516285909858,130
176,PLAYER_SLEEPBEFORE_START,1516285909858,131
176,PLAYER_SLEEPBEFORE_END,1516285931482,131
176,WS_SEND_START,1516285931482,131
176,WS_SEND_END,1516285931482,131
176,PLAYER_SLEEPBEFORE_START,1516285931482,132
176,PLAYER_SLEEPBEFORE_END,1516285934562,132
176,WS_SEND_START,1516285934562,132
176,WS_SEND_END,1516285934562,132
176,WS_RECV_START,1516285934562,133
176,WS_RECV_END,1516285935480,133
176,PLAYER_SLEEPBEFORE_START,1516285935480,134
176,PLAYER_SLEEPBEFORE_END,1516285956697,134
176,WS_SEND_START,1516285956698,134
176,WS_SEND_END,1516285956698,134
176,PLAYER_SLEEPBEFORE_START,1516285956698,135
176,PLAYER_SLEEPBEFORE_END,1516285959888,135
176,WS_SEND_START,1516285959888,135
176,WS_SEND_END,1516285959888,135
176,WS_RECV_START,1516285959888,136
176,WS_RECV_END,1516285961207,136
176,PLAYER_SLEEPBEFORE_START,1516285961207,137
176,PLAYER_SLEEPBEFORE_END,1516285961214,137
176,WS_SEND_START,1516285961214,137
176,WS_SEND_END,1516285961214,137
176,WS_RECV_START,1516285961214,138
176,WS_RECV_END,1516285961494,138
176,PLAYER_SLEEPBEFORE_START,1516285961494,139
176,PLAYER_SLEEPBEFORE_END,1516285962184,139
176,WS_SEND_START,1516285962184,139
176,WS_SEND_END,1516285962184,139
176,WS_RECV_START,1516285962184,140
176,WS_RECV_END,1516285962935,140
176,PLAYER_SLEEPBEFORE_START,1516285962935,141
176,PLAYER_SLEEPBEFORE_END,1516285963590,141
176,WS_SEND_START,1516285963590,141
176,WS_SEND_END,1516285963590,141
176,WS_RECV_START,1516285963590,142
176,WS_RECV_END,1516285964182,142
176,PLAYER_SLEEPBEFORE_START,1516285964182,143
176,PLAYER_SLEEPBEFORE_END,1516285964239,143
176,WS_SEND_START,1516285964239,143
176,WS_SEND_END,1516285964239,143
176,WS_RECV_START,1516285964239,144
176,WS_RECV_END,1516285964789,144
176,PLAYER_SLEEPBEFORE_START,1516285964789,145
176,PLAYER_SLEEPBEFORE_END,1516285980852,145
176,REQ_START,1516285980852,145
176,REQ_END,1516285980860,145
176,PLAYER_SLEEPBEFORE_START,1516285980860,146
176,PLAYER_SLEEPBEFORE_END,1516285989737,146
176,WS_SEND_START,1516285989737,146
176,WS_SEND_END,1516285989737,146
176,WS_RECV_START,1516285989737,147
176,WS_RECV_END,1516285990850,147
176,PLAYER_SLEEPBEFORE_START,1516285990850,148
176,PLAYER_SLEEPBEFORE_END,1516286012772,148
176,WS_SEND_START,1516286012772,148
176,WS_SEND_END,1516286012772,148
176,PLAYER_SLEEPBEFORE_START,1516286012772,149
176,PLAYER_SLEEPBEFORE_END,1516286015201,149
176,WS_SEND_START,1516286015201,149
176,WS_SEND_END,1516286015201,149
176,WS_RECV_START,1516286015201,150
176,WS_RECV_END,1516286016656,150
176,PLAYER_SLEEPBEFORE_START,1516286016656,151
176,PLAYER_SLEEPBEFORE_END,1516286016867,151
176,WS_SEND_START,1516286016867,151
176,WS_SEND_END,1516286016867,151
176,WS_RECV_START,1516286016867,152
176,WS_RECV_END,1516286017448,152
176,PLAYER_SLEEPBEFORE_START,1516286017448,153
176,PLAYER_SLEEPBEFORE_END,1516286041376,153
176,WS_SEND_START,1516286041376,153
176,WS_SEND_END,1516286041376,153
176,WS_RECV_START,1516286041376,154
176,WS_RECV_END,1516286042944,154
176,PLAYER_SLEEPBEFORE_START,1516286042944,155
176,PLAYER_SLEEPBEFORE_END,1516286065502,155
176,WS_SEND_START,1516286065502,155
176,WS_SEND_END,1516286065502,155
176,PLAYER_SLEEPBEFORE_START,1516286065502,156
176,PLAYER_SLEEPBEFORE_END,1516286068776,156
176,WS_SEND_START,1516286068776,156
176,WS_SEND_END,1516286068776,156
176,WS_RECV_START,1516286068776,157
176,WS_RECV_END,1516286069222,157
176,PLAYER_SLEEPBEFORE_START,1516286069222,158
176,PLAYER_SLEEPBEFORE_END,1516286069232,158
176,WS_SEND_START,1516286069232,158
176,WS_SEND_END,1516286069232,158
176,WS_RECV_START,1516286069232,159
176,WS_RECV_END,1516286069450,159
176,PLAYER_SLEEPBEFORE_START,1516286069450,160
176,PLAYER_SLEEPBEFORE_END,1516286069625,160
176,WS_SEND_START,1516286069625,160
176,WS_SEND_END,1516286069625,160
176,WS_RECV_START,1516286069625,161
176,WS_RECV_END,1516286069792,161
176,PLAYER_SLEEPBEFORE_START,1516286069792,162
176,PLAYER_SLEEPBEFORE_END,1516286069817,162
176,WS_SEND_START,1516286069817,162
176,WS_SEND_END,1516286069817,162
176,WS_RECV_START,1516286069817,163
176,WS_RECV_END,1516286070426,163
176,PLAYER_SLEEPBEFORE_START,1516286070426,164
176,PLAYER_SLEEPBEFORE_END,1516286091238,164
176,WS_SEND_START,1516286091238,164
176,WS_SEND_END,1516286091238,164
176,WS_RECV_START,1516286091238,165
176,WS_RECV_END,1516286092618,165
176,PLAYER_SLEEPBEFORE_START,1516286092618,166
176,PLAYER_SLEEPBEFORE_END,1516286115073,166
176,WS_SEND_START,1516286115073,166
176,WS_SEND_END,1516286115073,166
176,WS_RECV_START,1516286115073,167
176,WS_RECV_END,1516286116997,167
176,PLAYER_SLEEPBEFORE_START,1516286116997,168
176,PLAYER_SLEEPBEFORE_END,1516286144354,168
176,WS_SEND_START,1516286144354,168
176,WS_SEND_END,1516286144354,168
176,WS_RECV_START,1516286144354,169
176,WS_RECV_END,1516286146053,169
176,PLAYER_SLEEPBEFORE_START,1516286146053,170
176,PLAYER_SLEEPBEFORE_END,1516286146062,170
176,WS_SEND_START,1516286146062,170
176,WS_SEND_END,1516286146062,170
176,WS_RECV_START,1516286146062,171
176,WS_RECV_END,1516286148218,171
176,PLAYER_SLEEPBEFORE_START,1516286148218,172
176,PLAYER_SLEEPBEFORE_END,1516286148587,172
176,WS_SEND_START,1516286148587,172
176,WS_SEND_END,1516286148587,172
176,WS_RECV_START,1516286148588,173
176,WS_RECV_END,1516286149799,173
176,PLAYER_SLEEPBEFORE_START,1516286149799,174
176,PLAYER_SLEEPBEFORE_END,1516286149840,174
176,WS_SEND_START,1516286149840,174
176,WS_SEND_END,1516286149840,174
176,WS_RECV_START,1516286149840,175
176,WS_RECV_END,1516286151782,175
176,PLAYER_SLEEPBEFORE_START,1516286151782,176
176,PLAYER_SLEEPBEFORE_END,1516286173543,176
176,WS_SEND_START,1516286173543,176
176,WS_SEND_END,1516286173543,176
176,PLAYER_SLEEPBEFORE_START,1516286173543,177
176,PLAYER_SLEEPBEFORE_END,1516286176062,177
176,WS_SEND_START,1516286176062,177
176,WS_SEND_END,1516286176062,177
176,WS_RECV_START,1516286176062,178
176,WS_RECV_END,1516286176805,178
176,PLAYER_SLEEPBEFORE_START,1516286176805,179
176,PLAYER_SLEEPBEFORE_END,1516286199145,179
176,WS_SEND_START,1516286199145,179
176,WS_SEND_END,1516286199145,179
176,WS_RECV_START,1516286199145,180
176,WS_RECV_END,1516286204354,180
176,PLAYER_SLEEPBEFORE_START,1516286204354,181
176,PLAYER_SLEEPBEFORE_END,1516286204798,181
176,WS_SEND_START,1516286204798,181
176,WS_SEND_END,1516286204798,181
176,WS_RECV_START,1516286204798,182
176,WS_RECV_END,1516286210737,182
176,PLAYER_SLEEPBEFORE_START,1516286210737,183
176,PLAYER_SLEEPBEFORE_END,1516286211260,183
176,WS_SEND_START,1516286211260,183
176,WS_SEND_END,1516286211260,183
176,WS_RECV_START,1516286211260,184
176,WS_RECV_END,1516286214259,184
176,PLAYER_SLEEPBEFORE_START,1516286214259,185
176,PLAYER_SLEEPBEFORE_END,1516286214527,185
176,WS_SEND_START,1516286214527,185
176,WS_SEND_END,1516286214527,185
176,WS_RECV_START,1516286214527,186
176,WS_RECV_END,1516286218953,186
176,PLAYER_SLEEPBEFORE_START,1516286218953,187
176,PLAYER_SLEEPBEFORE_END,1516286241453,187
176,WS_SEND_START,1516286241453,187
176,WS_SEND_END,1516286241453,187
176,WS_RECV_START,1516286241453,188
176,WS_RECV_END,1516286243705,188
176,PLAYER_SLEEPBEFORE_START,1516286243705,189
176,PLAYER_SLEEPBEFORE_END,1516286249944,189
176,WS_SEND_START,1516286249944,189
176,WS_SEND_END,1516286249945,189
176,WS_RECV_START,1516286249945,190
176,WS_RECV_END,1516286254886,190
176,PLAYER_SLEEPBEFORE_START,1516286254886,191
176,PLAYER_SLEEPBEFORE_END,1516286256802,191
176,WS_SEND_START,1516286256802,191
176,WS_SEND_END,1516286256802,191
176,WS_RECV_START,1516286256802,192
176,WS_RECV_END,1516286260164,192
176,PLAYER_SLEEPBEFORE_START,1516286260164,193
176,PLAYER_SLEEPBEFORE_END,1516286260292,193
176,WS_SEND_START,1516286260292,193
176,WS_SEND_END,1516286260292,193
176,WS_RECV_START,1516286260292,194
176,WS_RECV_END,1516286261972,194
176,PLAYER_SLEEPBEFORE_START,1516286261972,195
176,PLAYER_SLEEPBEFORE_END,1516286263727,195
176,WS_SEND_START,1516286263727,195
176,WS_SEND_END,1516286263727,195
176,WS_RECV_START,1516286263727,196
176,WS_RECV_END,1516286267907,196
176,PLAYER_SLEEPBEFORE_START,1516286267907,197
176,PLAYER_SLEEPBEFORE_END,1516286269711,197
176,WS_SEND_START,1516286269711,197
176,WS_SEND_END,1516286269711,197
176,WS_RECV_START,1516286269711,198
176,WS_RECV_END,1516286274410,198
176,PLAYER_SLEEPBEFORE_START,1516286274410,199
176,PLAYER_SLEEPBEFORE_END,1516286286264,199
176,WS_SEND_START,1516286286264,199
176,WS_SEND_END,1516286286264,199
176,PLAYER_SLEEPBEFORE_START,1516286286264,200
176,PLAYER_SLEEPBEFORE_END,1516286290353,200
176,WS_SEND_START,1516286290353,200
176,WS_SEND_END,1516286290353,200
176,WS_RECV_START,1516286290353,201
176,WS_RECV_END,1516286293715,201
176,PLAYER_SLEEPBEFORE_START,1516286293715,202
176,PLAYER_SLEEPBEFORE_END,1516286293730,202
176,WS_SEND_START,1516286293730,202
176,WS_SEND_END,1516286293730,202
176,WS_RECV_START,1516286293730,203
176,WS_RECV_END,1516286295455,203
176,PLAYER_SLEEPBEFORE_START,1516286295455,204
176,PLAYER_SLEEPBEFORE_END,1516286315104,204
176,WS_SEND_START,1516286315104,204
176,WS_SEND_END,1516286315104,204
176,PLAYER_SLEEPBEFORE_START,1516286315104,205
176,PLAYER_SLEEPBEFORE_END,1516286319003,205
176,WS_SEND_START,1516286319003,205
176,WS_SEND_END,1516286319003,205
176,WS_RECV_START,1516286319003,206
176,WS_RECV_END,1516286320560,206
176,PLAYER_SLEEPBEFORE_START,1516286320560,207
176,PLAYER_SLEEPBEFORE_END,1516286337491,207
176,REQ_START,1516286337491,207
176,REQ_END,1516286337507,207
176,PLAYER_SLEEPBEFORE_START,1516286337507,208
176,PLAYER_SLEEPBEFORE_END,1516286344359,208
176,WS_CLOSE_START,1516286344359,208
176,WS_CLOSE_END,1516286344359,208
176,PLAYER_DONE,1516286344359
