# --sessions 540 --app-url=http://shinyloadtest.rstudioservices.com/cran_explorer --output-dir test540 --overwrite-output --log-level warn --start-interval 500 15min.log
thread_id,event,timestamp,input_line_number,comment
177,PLAYER_SESSION_CREATE,1516285277616
177,PLAYER_START_INTERVAL_START,1516285277616
177,PLAYER_START_INTERVAL_END,1516285366117
177,REQ_HOME_START,1516285366117,2
177,REQ_HOME_END,1516285366201,2
177,REQ_START,1516285366201,3
177,REQ_END,1516285366249,3
177,REQ_START,1516285366249,4
177,REQ_END,1516285366285,4
177,REQ_START,1516285366285,5
177,REQ_END,1516285366318,5
177,REQ_START,1516285366318,6
177,REQ_END,1516285366352,6
177,REQ_START,1516285366352,7
177,REQ_END,1516285366385,7
177,REQ_START,1516285366385,8
177,REQ_END,1516285366424,8
177,REQ_START,1516285366424,9
177,REQ_END,1516285366461,9
177,REQ_START,1516285366461,10
177,REQ_END,1516285366470,10
177,REQ_START,1516285366470,11
177,REQ_END,1516285366501,11
177,REQ_START,1516285366501,12
177,REQ_END,1516285366510,12
177,REQ_START,1516285366511,13
177,REQ_END,1516285366542,13
177,REQ_START,1516285366542,14
177,REQ_END,1516285366556,14
177,REQ_START,1516285366556,15
177,REQ_END,1516285366589,15
177,REQ_TOK_START,1516285366589,16
177,REQ_TOK_END,1516285366596,16
177,REQ_SINF_START,1516285366596,17
177,REQ_SINF_END,1516285366604,17
177,WS_OPEN_START,1516285366604,18
177,WS_OPEN_END,1516285366611,18
177,REQ_START,1516285366611,19
177,REQ_END,1516285366638,19
177,WS_RECV_START,1516285366638,20
177,WS_RECV_END,1516285366638,20
177,PLAYER_SLEEPBEFORE_START,1516285366638,21
177,PLAYER_SLEEPBEFORE_END,1516285366643,21
177,WS_SEND_START,1516285366643,21
177,WS_SEND_END,1516285366643,21
177,PLAYER_SLEEPBEFORE_START,1516285366643,22
177,PLAYER_SLEEPBEFORE_END,1516285366644,22
177,WS_SEND_START,1516285366644,22
177,WS_SEND_END,1516285366644,22
177,WS_RECV_INIT_START,1516285366644,23
177,WS_RECV_INIT_END,1516285366668,23
177,WS_RECV_START,1516285366668,24
177,WS_RECV_END,1516285366718,24
177,PLAYER_SLEEPBEFORE_START,1516285366718,25
177,PLAYER_SLEEPBEFORE_END,1516285366725,25
177,REQ_START,1516285366725,25
177,REQ_END,1516285366755,25
177,PLAYER_SLEEPBEFORE_START,1516285366755,26
177,PLAYER_SLEEPBEFORE_END,1516285366756,26
177,REQ_START,1516285366756,26
177,REQ_END,1516285366787,26
177,PLAYER_SLEEPBEFORE_START,1516285366787,27
177,PLAYER_SLEEPBEFORE_END,1516285366790,27
177,REQ_START,1516285366790,27
177,REQ_END,1516285366823,27
177,PLAYER_SLEEPBEFORE_START,1516285366823,28
177,PLAYER_SLEEPBEFORE_END,1516285367108,28
177,REQ_START,1516285367108,28
177,REQ_END,1516285367139,28
177,PLAYER_SLEEPBEFORE_START,1516285367139,29
177,PLAYER_SLEEPBEFORE_END,1516285367315,29
177,WS_SEND_START,1516285367315,29
177,WS_SEND_END,1516285367315,29
177,WS_RECV_START,1516285367315,30
177,WS_RECV_END,1516285367471,30
177,PLAYER_SLEEPBEFORE_START,1516285367471,31
177,PLAYER_SLEEPBEFORE_END,1516285367482,31
177,REQ_START,1516285367482,31
177,REQ_END,1516285367597,31
177,PLAYER_SLEEPBEFORE_START,1516285367597,32
177,PLAYER_SLEEPBEFORE_END,1516285395743,32
177,WS_SEND_START,1516285395743,32
177,WS_SEND_END,1516285395743,32
177,WS_RECV_START,1516285395743,33
177,WS_RECV_END,1516285395882,33
177,PLAYER_SLEEPBEFORE_START,1516285395882,34
177,PLAYER_SLEEPBEFORE_END,1516285421793,34
177,WS_SEND_START,1516285421793,34
177,WS_SEND_END,1516285421793,34
177,WS_RECV_START,1516285421793,35
177,WS_RECV_END,1516285421818,35
177,PLAYER_SLEEPBEFORE_START,1516285421818,36
177,PLAYER_SLEEPBEFORE_END,1516285421827,36
177,WS_SEND_START,1516285421827,36
177,WS_SEND_END,1516285421827,36
177,WS_RECV_START,1516285421827,37
177,WS_RECV_END,1516285421869,37
177,PLAYER_SLEEPBEFORE_START,1516285421869,38
177,PLAYER_SLEEPBEFORE_END,1516285425064,38
177,WS_SEND_START,1516285425064,38
177,WS_SEND_END,1516285425064,38
177,WS_RECV_START,1516285425064,39
177,WS_RECV_END,1516285425175,39
177,PLAYER_SLEEPBEFORE_START,1516285425175,40
177,PLAYER_SLEEPBEFORE_END,1516285425221,40
177,WS_SEND_START,1516285425221,40
177,WS_SEND_END,1516285425221,40
177,WS_RECV_START,1516285425221,41
177,WS_RECV_END,1516285425388,41
177,PLAYER_SLEEPBEFORE_START,1516285425388,42
177,PLAYER_SLEEPBEFORE_END,1516285443523,42
177,WS_SEND_START,1516285443523,42
177,WS_SEND_END,1516285443523,42
177,WS_RECV_START,1516285443523,43
177,WS_RECV_END,1516285443677,43
177,PLAYER_SLEEPBEFORE_START,1516285443677,44
177,PLAYER_SLEEPBEFORE_END,1516285443689,44
177,WS_SEND_START,1516285443689,44
177,WS_SEND_END,1516285443689,44
177,WS_RECV_START,1516285443689,45
177,WS_RECV_END,1516285443797,45
177,PLAYER_SLEEPBEFORE_START,1516285443797,46
177,PLAYER_SLEEPBEFORE_END,1516285445057,46
177,WS_SEND_START,1516285445057,46
177,WS_SEND_END,1516285445057,46
177,WS_RECV_START,1516285445057,47
177,WS_RECV_END,1516285445085,47
177,PLAYER_SLEEPBEFORE_START,1516285445085,48
177,PLAYER_SLEEPBEFORE_END,1516285446405,48
177,WS_SEND_START,1516285446405,48
177,WS_SEND_END,1516285446405,48
177,WS_RECV_START,1516285446405,49
177,WS_RECV_END,1516285446522,49
177,PLAYER_SLEEPBEFORE_START,1516285446522,50
177,PLAYER_SLEEPBEFORE_END,1516285446546,50
177,WS_SEND_START,1516285446546,50
177,WS_SEND_END,1516285446546,50
177,WS_RECV_START,1516285446546,51
177,WS_RECV_END,1516285446678,51
177,PLAYER_SLEEPBEFORE_START,1516285446678,52
177,PLAYER_SLEEPBEFORE_END,1516285469242,52
177,WS_SEND_START,1516285469242,52
177,WS_SEND_END,1516285469242,52
177,WS_RECV_START,1516285469242,53
177,WS_RECV_END,1516285469377,53
177,PLAYER_SLEEPBEFORE_START,1516285469377,54
177,PLAYER_SLEEPBEFORE_END,1516285490680,54
177,WS_SEND_START,1516285490680,54
177,WS_SEND_END,1516285490680,54
177,PLAYER_SLEEPBEFORE_START,1516285490680,55
177,PLAYER_SLEEPBEFORE_END,1516285492621,55
177,WS_SEND_START,1516285492621,55
177,WS_SEND_END,1516285492621,55
177,WS_RECV_START,1516285492621,56
177,WS_RECV_END,1516285492820,56
177,PLAYER_SLEEPBEFORE_START,1516285492820,57
177,PLAYER_SLEEPBEFORE_END,1516285515692,57
177,WS_SEND_START,1516285515692,57
177,WS_SEND_END,1516285515692,57
177,WS_RECV_START,1516285515692,58
177,WS_RECV_END,1516285515904,58
177,PLAYER_SLEEPBEFORE_START,1516285515904,59
177,PLAYER_SLEEPBEFORE_END,1516285518232,59
177,WS_SEND_START,1516285518232,59
177,WS_SEND_END,1516285518232,59
177,WS_RECV_START,1516285518232,60
177,WS_RECV_END,1516285518505,60
177,PLAYER_SLEEPBEFORE_START,1516285518505,61
177,PLAYER_SLEEPBEFORE_END,1516285522096,61
177,WS_SEND_START,1516285522096,61
177,WS_SEND_END,1516285522096,61
177,WS_RECV_START,1516285522096,62
177,WS_RECV_END,1516285522343,62
177,PLAYER_SLEEPBEFORE_START,1516285522343,63
177,PLAYER_SLEEPBEFORE_END,1516285541605,63
177,WS_SEND_START,1516285541605,63
177,WS_SEND_END,1516285541605,63
177,WS_RECV_START,1516285541605,64
177,WS_RECV_END,1516285542104,64
177,PLAYER_SLEEPBEFORE_START,1516285542104,65
177,PLAYER_SLEEPBEFORE_END,1516285568921,65
177,WS_SEND_START,1516285568921,65
177,WS_SEND_END,1516285568921,65
177,WS_RECV_START,1516285568921,66
177,WS_RECV_END,1516285569758,66
177,PLAYER_SLEEPBEFORE_START,1516285569758,67
177,PLAYER_SLEEPBEFORE_END,1516285571265,67
177,WS_SEND_START,1516285571265,67
177,WS_SEND_END,1516285571266,67
177,WS_RECV_START,1516285571266,68
177,WS_RECV_END,1516285572154,68
177,PLAYER_SLEEPBEFORE_START,1516285572154,69
177,PLAYER_SLEEPBEFORE_END,1516285594152,69
177,WS_SEND_START,1516285594152,69
177,WS_SEND_END,1516285594152,69
177,WS_RECV_START,1516285594152,70
177,WS_RECV_END,1516285594987,70
177,PLAYER_SLEEPBEFORE_START,1516285594987,71
177,PLAYER_SLEEPBEFORE_END,1516285619762,71
177,WS_SEND_START,1516285619762,71
177,WS_SEND_END,1516285619762,71
177,PLAYER_SLEEPBEFORE_START,1516285619762,72
177,PLAYER_SLEEPBEFORE_END,1516285622369,72
177,WS_SEND_START,1516285622369,72
177,WS_SEND_END,1516285622369,72
177,WS_RECV_START,1516285622369,73
177,WS_RECV_END,1516285622619,73
177,PLAYER_SLEEPBEFORE_START,1516285622619,74
177,PLAYER_SLEEPBEFORE_END,1516285622629,74
177,WS_SEND_START,1516285622629,74
177,WS_SEND_END,1516285622629,74
177,WS_RECV_START,1516285622629,75
177,WS_RECV_END,1516285622953,75
177,PLAYER_SLEEPBEFORE_START,1516285622953,76
177,PLAYER_SLEEPBEFORE_END,1516285624459,76
177,WS_SEND_START,1516285624459,76
177,WS_SEND_END,1516285624459,76
177,WS_RECV_START,1516285624460,77
177,WS_RECV_END,1516285624743,77
177,PLAYER_SLEEPBEFORE_START,1516285624743,78
177,PLAYER_SLEEPBEFORE_END,1516285625611,78
177,WS_SEND_START,1516285625611,78
177,WS_SEND_END,1516285625611,78
177,WS_RECV_START,1516285625611,79
177,WS_RECV_END,1516285626046,79
177,PLAYER_SLEEPBEFORE_START,1516285626046,80
177,PLAYER_SLEEPBEFORE_END,1516285633712,80
177,WS_SEND_START,1516285633712,80
177,WS_SEND_END,1516285633712,80
177,WS_RECV_START,1516285633712,81
177,WS_RECV_END,1516285634323,81
177,PLAYER_SLEEPBEFORE_START,1516285634323,82
177,PLAYER_SLEEPBEFORE_END,1516285635426,82
177,WS_SEND_START,1516285635426,82
177,WS_SEND_END,1516285635426,82
177,WS_RECV_START,1516285635426,83
177,WS_RECV_END,1516285635878,83
177,PLAYER_SLEEPBEFORE_START,1516285635878,84
177,PLAYER_SLEEPBEFORE_END,1516285636825,84
177,WS_SEND_START,1516285636825,84
177,WS_SEND_END,1516285636825,84
177,WS_RECV_START,1516285636825,85
177,WS_RECV_END,1516285637062,85
177,PLAYER_SLEEPBEFORE_START,1516285637062,86
177,PLAYER_SLEEPBEFORE_END,1516285641235,86
177,WS_SEND_START,1516285641235,86
177,WS_SEND_END,1516285641235,86
177,WS_RECV_START,1516285641235,87
177,WS_RECV_END,1516285641345,87
177,PLAYER_SLEEPBEFORE_START,1516285641345,88
177,PLAYER_SLEEPBEFORE_END,1516285641354,88
177,WS_SEND_START,1516285641354,88
177,WS_SEND_END,1516285641354,88
177,WS_RECV_START,1516285641354,89
177,WS_RECV_END,1516285641605,89
177,PLAYER_SLEEPBEFORE_START,1516285641605,90
177,PLAYER_SLEEPBEFORE_END,1516285668802,90
177,REQ_START,1516285668802,90
177,REQ_END,1516285668815,90
177,PLAYER_SLEEPBEFORE_START,1516285668815,91
177,PLAYER_SLEEPBEFORE_END,1516285676704,91
177,WS_SEND_START,1516285676704,91
177,WS_SEND_END,1516285676704,91
177,WS_RECV_START,1516285676704,92
177,WS_RECV_END,1516285677000,92
177,PLAYER_SLEEPBEFORE_START,1516285677000,93
177,PLAYER_SLEEPBEFORE_END,1516285677015,93
177,WS_SEND_START,1516285677015,93
177,WS_SEND_END,1516285677015,93
177,WS_RECV_START,1516285677015,94
177,WS_RECV_END,1516285677355,94
177,PLAYER_SLEEPBEFORE_START,1516285677355,95
177,PLAYER_SLEEPBEFORE_END,1516285700910,95
177,WS_SEND_START,1516285700910,95
177,WS_SEND_END,1516285700910,95
177,WS_RECV_START,1516285700910,96
177,WS_RECV_END,1516285701085,96
177,PLAYER_SLEEPBEFORE_START,1516285701085,97
177,PLAYER_SLEEPBEFORE_END,1516285723525,97
177,WS_SEND_START,1516285723525,97
177,WS_SEND_END,1516285723525,97
177,WS_RECV_START,1516285723525,98
177,WS_RECV_END,1516285723858,98
177,PLAYER_SLEEPBEFORE_START,1516285723858,99
177,PLAYER_SLEEPBEFORE_END,1516285723879,99
177,WS_SEND_START,1516285723879,99
177,WS_SEND_END,1516285723879,99
177,WS_RECV_START,1516285723879,100
177,WS_RECV_END,1516285724300,100
177,PLAYER_SLEEPBEFORE_START,1516285724300,101
177,PLAYER_SLEEPBEFORE_END,1516285747859,101
177,WS_SEND_START,1516285747859,101
177,WS_SEND_END,1516285747859,101
177,WS_RECV_START,1516285747859,102
177,WS_RECV_END,1516285748141,102
177,PLAYER_SLEEPBEFORE_START,1516285748141,103
177,PLAYER_SLEEPBEFORE_END,1516285771766,103
177,WS_SEND_START,1516285771766,103
177,WS_SEND_END,1516285771766,103
177,WS_RECV_START,1516285771766,104
177,WS_RECV_END,1516285772839,104
177,PLAYER_SLEEPBEFORE_START,1516285772839,105
177,PLAYER_SLEEPBEFORE_END,1516285798216,105
177,WS_SEND_START,1516285798217,105
177,WS_SEND_END,1516285798217,105
177,WS_RECV_START,1516285798217,106
177,WS_RECV_END,1516285799691,106
177,PLAYER_SLEEPBEFORE_START,1516285799691,107
177,PLAYER_SLEEPBEFORE_END,1516285823114,107
177,WS_SEND_START,1516285823114,107
177,WS_SEND_END,1516285823114,107
177,WS_RECV_START,1516285823114,108
177,WS_RECV_END,1516285825362,108
177,PLAYER_SLEEPBEFORE_START,1516285825362,109
177,PLAYER_SLEEPBEFORE_END,1516285825371,109
177,WS_SEND_START,1516285825371,109
177,WS_SEND_END,1516285825371,109
177,WS_RECV_START,1516285825371,110
177,WS_RECV_END,1516285826097,110
177,PLAYER_SLEEPBEFORE_START,1516285826097,111
177,PLAYER_SLEEPBEFORE_END,1516285827057,111
177,WS_SEND_START,1516285827057,111
177,WS_SEND_END,1516285827057,111
177,WS_RECV_START,1516285827057,112
177,WS_RECV_END,1516285828286,112
177,PLAYER_SLEEPBEFORE_START,1516285828286,113
177,PLAYER_SLEEPBEFORE_END,1516285828848,113
177,WS_SEND_START,1516285828848,113
177,WS_SEND_END,1516285828848,113
177,WS_RECV_START,1516285828848,114
177,WS_RECV_END,1516285830029,114
177,PLAYER_SLEEPBEFORE_START,1516285830029,115
177,PLAYER_SLEEPBEFORE_END,1516285830038,115
177,WS_SEND_START,1516285830039,115
177,WS_SEND_END,1516285830039,115
177,WS_RECV_START,1516285830039,116
177,WS_RECV_END,1516285831096,116
177,PLAYER_SLEEPBEFORE_START,1516285831096,117
177,PLAYER_SLEEPBEFORE_END,1516285851456,117
177,WS_SEND_START,1516285851456,117
177,WS_SEND_END,1516285851456,117
177,PLAYER_SLEEPBEFORE_START,1516285851456,118
177,PLAYER_SLEEPBEFORE_END,1516285855208,118
177,WS_SEND_START,1516285855208,118
177,WS_SEND_END,1516285855208,118
177,WS_RECV_START,1516285855208,119
177,WS_RECV_END,1516285855656,119
177,PLAYER_SLEEPBEFORE_START,1516285855656,120
177,PLAYER_SLEEPBEFORE_END,1516285856645,120
177,WS_SEND_START,1516285856645,120
177,WS_SEND_END,1516285856645,120
177,WS_RECV_START,1516285856645,121
177,WS_RECV_END,1516285857141,121
177,PLAYER_SLEEPBEFORE_START,1516285857141,122
177,PLAYER_SLEEPBEFORE_END,1516285858326,122
177,WS_SEND_START,1516285858326,122
177,WS_SEND_END,1516285858327,122
177,WS_RECV_START,1516285858327,123
177,WS_RECV_END,1516285859409,123
177,PLAYER_SLEEPBEFORE_START,1516285859409,124
177,PLAYER_SLEEPBEFORE_END,1516285883814,124
177,WS_SEND_START,1516285883814,124
177,WS_SEND_END,1516285883814,124
177,WS_RECV_START,1516285883814,125
177,WS_RECV_END,1516285886015,125
177,PLAYER_SLEEPBEFORE_START,1516285886015,126
177,PLAYER_SLEEPBEFORE_END,1516285906527,126
177,WS_SEND_START,1516285906527,126
177,WS_SEND_END,1516285906527,126
177,PLAYER_SLEEPBEFORE_START,1516285906527,127
177,PLAYER_SLEEPBEFORE_END,1516285909581,127
177,WS_SEND_START,1516285909581,127
177,WS_SEND_END,1516285909581,127
177,WS_RECV_START,1516285909581,128
177,WS_RECV_END,1516285910601,128
177,PLAYER_SLEEPBEFORE_START,1516285910601,129
177,PLAYER_SLEEPBEFORE_END,1516285910621,129
177,WS_SEND_START,1516285910621,129
177,WS_SEND_END,1516285910621,129
177,WS_RECV_START,1516285910621,130
177,WS_RECV_END,1516285912518,130
177,PLAYER_SLEEPBEFORE_START,1516285912518,131
177,PLAYER_SLEEPBEFORE_END,1516285934142,131
177,WS_SEND_START,1516285934142,131
177,WS_SEND_END,1516285934142,131
177,PLAYER_SLEEPBEFORE_START,1516285934142,132
177,PLAYER_SLEEPBEFORE_END,1516285937222,132
177,WS_SEND_START,1516285937222,132
177,WS_SEND_END,1516285937222,132
177,WS_RECV_START,1516285937222,133
177,WS_RECV_END,1516285938379,133
177,PLAYER_SLEEPBEFORE_START,1516285938379,134
177,PLAYER_SLEEPBEFORE_END,1516285959596,134
177,WS_SEND_START,1516285959596,134
177,WS_SEND_END,1516285959596,134
177,PLAYER_SLEEPBEFORE_START,1516285959596,135
177,PLAYER_SLEEPBEFORE_END,1516285962786,135
177,WS_SEND_START,1516285962787,135
177,WS_SEND_END,1516285962787,135
177,WS_RECV_START,1516285962787,136
177,WS_RECV_END,1516285963662,136
177,PLAYER_SLEEPBEFORE_START,1516285963662,137
177,PLAYER_SLEEPBEFORE_END,1516285963669,137
177,WS_SEND_START,1516285963669,137
177,WS_SEND_END,1516285963669,137
177,WS_RECV_START,1516285963669,138
177,WS_RECV_END,1516285964089,138
177,PLAYER_SLEEPBEFORE_START,1516285964089,139
177,PLAYER_SLEEPBEFORE_END,1516285964779,139
177,WS_SEND_START,1516285964779,139
177,WS_SEND_END,1516285964779,139
177,WS_RECV_START,1516285964779,140
177,WS_RECV_END,1516285964998,140
177,PLAYER_SLEEPBEFORE_START,1516285964998,141
177,PLAYER_SLEEPBEFORE_END,1516285965653,141
177,WS_SEND_START,1516285965653,141
177,WS_SEND_END,1516285965653,141
177,WS_RECV_START,1516285965653,142
177,WS_RECV_END,1516285966215,142
177,PLAYER_SLEEPBEFORE_START,1516285966215,143
177,PLAYER_SLEEPBEFORE_END,1516285966272,143
177,WS_SEND_START,1516285966272,143
177,WS_SEND_END,1516285966272,143
177,WS_RECV_START,1516285966272,144
177,WS_RECV_END,1516285966963,144
177,PLAYER_SLEEPBEFORE_START,1516285966963,145
177,PLAYER_SLEEPBEFORE_END,1516285983025,145
177,REQ_START,1516285983025,145
177,REQ_END,1516285983033,145
177,PLAYER_SLEEPBEFORE_START,1516285983033,146
177,PLAYER_SLEEPBEFORE_END,1516285991910,146
177,WS_SEND_START,1516285991910,146
177,WS_SEND_END,1516285991910,146
177,WS_RECV_START,1516285991910,147
177,WS_RECV_END,1516285993489,147
177,PLAYER_SLEEPBEFORE_START,1516285993490,148
177,PLAYER_SLEEPBEFORE_END,1516286015412,148
177,WS_SEND_START,1516286015412,148
177,WS_SEND_END,1516286015412,148
177,PLAYER_SLEEPBEFORE_START,1516286015412,149
177,PLAYER_SLEEPBEFORE_END,1516286017840,149
177,WS_SEND_START,1516286017840,149
177,WS_SEND_END,1516286017840,149
177,WS_RECV_START,1516286017840,150
177,WS_RECV_END,1516286019950,150
177,PLAYER_SLEEPBEFORE_START,1516286019950,151
177,PLAYER_SLEEPBEFORE_END,1516286020161,151
177,WS_SEND_START,1516286020161,151
177,WS_SEND_END,1516286020161,151
177,WS_RECV_START,1516286020161,152
177,WS_RECV_END,1516286022321,152
177,PLAYER_SLEEPBEFORE_START,1516286022321,153
177,PLAYER_SLEEPBEFORE_END,1516286046248,153
177,WS_SEND_START,1516286046248,153
177,WS_SEND_END,1516286046248,153
177,WS_RECV_START,1516286046249,154
177,WS_RECV_END,1516286048574,154
177,PLAYER_SLEEPBEFORE_START,1516286048574,155
177,PLAYER_SLEEPBEFORE_END,1516286071132,155
177,WS_SEND_START,1516286071132,155
177,WS_SEND_END,1516286071132,155
177,PLAYER_SLEEPBEFORE_START,1516286071132,156
177,PLAYER_SLEEPBEFORE_END,1516286074406,156
177,WS_SEND_START,1516286074406,156
177,WS_SEND_END,1516286074406,156
177,WS_RECV_START,1516286074406,157
177,WS_RECV_END,1516286075746,157
177,PLAYER_SLEEPBEFORE_START,1516286075746,158
177,PLAYER_SLEEPBEFORE_END,1516286075757,158
177,WS_SEND_START,1516286075757,158
177,WS_SEND_END,1516286075757,158
177,WS_RECV_START,1516286075757,159
177,WS_RECV_END,1516286076143,159
177,PLAYER_SLEEPBEFORE_START,1516286076143,160
177,PLAYER_SLEEPBEFORE_END,1516286076318,160
177,WS_SEND_START,1516286076318,160
177,WS_SEND_END,1516286076318,160
177,WS_RECV_START,1516286076318,161
177,WS_RECV_END,1516286076695,161
177,PLAYER_SLEEPBEFORE_START,1516286076695,162
177,PLAYER_SLEEPBEFORE_END,1516286076720,162
177,WS_SEND_START,1516286076720,162
177,WS_SEND_END,1516286076720,162
177,WS_RECV_START,1516286076720,163
177,WS_RECV_END,1516286077500,163
177,PLAYER_SLEEPBEFORE_START,1516286077500,164
177,PLAYER_SLEEPBEFORE_END,1516286098312,164
177,WS_SEND_START,1516286098312,164
177,WS_SEND_END,1516286098312,164
177,WS_RECV_START,1516286098312,165
177,WS_RECV_END,1516286099366,165
177,PLAYER_SLEEPBEFORE_START,1516286099366,166
177,PLAYER_SLEEPBEFORE_END,1516286121821,166
177,WS_SEND_START,1516286121821,166
177,WS_SEND_END,1516286121821,166
177,WS_RECV_START,1516286121821,167
177,WS_RECV_END,1516286123646,167
177,PLAYER_SLEEPBEFORE_START,1516286123646,168
177,PLAYER_SLEEPBEFORE_END,1516286151004,168
177,WS_SEND_START,1516286151004,168
177,WS_SEND_END,1516286151004,168
177,WS_RECV_START,1516286151004,169
177,WS_RECV_END,1516286154498,169
177,PLAYER_SLEEPBEFORE_START,1516286154498,170
177,PLAYER_SLEEPBEFORE_END,1516286154507,170
177,WS_SEND_START,1516286154507,170
177,WS_SEND_END,1516286154507,170
177,WS_RECV_START,1516286154507,171
177,WS_RECV_END,1516286156318,171
177,PLAYER_SLEEPBEFORE_START,1516286156318,172
177,PLAYER_SLEEPBEFORE_END,1516286156687,172
177,WS_SEND_START,1516286156688,172
177,WS_SEND_END,1516286156688,172
177,WS_RECV_START,1516286156688,173
177,WS_RECV_END,1516286160195,173
177,PLAYER_SLEEPBEFORE_START,1516286160195,174
177,PLAYER_SLEEPBEFORE_END,1516286160236,174
177,WS_SEND_START,1516286160236,174
177,WS_SEND_END,1516286160236,174
177,WS_RECV_START,1516286160236,175
177,WS_RECV_END,1516286163472,175
177,PLAYER_SLEEPBEFORE_START,1516286163472,176
177,PLAYER_SLEEPBEFORE_END,1516286185233,176
177,WS_SEND_START,1516286185233,176
177,WS_SEND_END,1516286185233,176
177,PLAYER_SLEEPBEFORE_START,1516286185233,177
177,PLAYER_SLEEPBEFORE_END,1516286187751,177
177,WS_SEND_START,1516286187751,177
177,WS_SEND_END,1516286187751,177
177,WS_RECV_START,1516286187751,178
177,WS_RECV_END,1516286188244,178
177,PLAYER_SLEEPBEFORE_START,1516286188244,179
177,PLAYER_SLEEPBEFORE_END,1516286210584,179
177,WS_SEND_START,1516286210584,179
177,WS_SEND_END,1516286210584,179
177,WS_RECV_START,1516286210584,180
177,WS_RECV_END,1516286215291,180
177,PLAYER_SLEEPBEFORE_START,1516286215291,181
177,PLAYER_SLEEPBEFORE_END,1516286215735,181
177,WS_SEND_START,1516286215735,181
177,WS_SEND_END,1516286215735,181
177,WS_RECV_START,1516286215735,182
177,WS_RECV_END,1516286218099,182
177,PLAYER_SLEEPBEFORE_START,1516286218099,183
177,PLAYER_SLEEPBEFORE_END,1516286218622,183
177,WS_SEND_START,1516286218622,183
177,WS_SEND_END,1516286218622,183
177,WS_RECV_START,1516286218622,184
177,WS_RECV_END,1516286220790,184
177,PLAYER_SLEEPBEFORE_START,1516286220790,185
177,PLAYER_SLEEPBEFORE_END,1516286221058,185
177,WS_SEND_START,1516286221058,185
177,WS_SEND_END,1516286221058,185
177,WS_RECV_START,1516286221058,186
177,WS_RECV_END,1516286224697,186
177,PLAYER_SLEEPBEFORE_START,1516286224697,187
177,PLAYER_SLEEPBEFORE_END,1516286247197,187
177,WS_SEND_START,1516286247197,187
177,WS_SEND_END,1516286247197,187
177,WS_RECV_START,1516286247197,188
177,WS_RECV_END,1516286253439,188
177,PLAYER_SLEEPBEFORE_START,1516286253439,189
177,PLAYER_SLEEPBEFORE_END,1516286259679,189
177,WS_SEND_START,1516286259679,189
177,WS_SEND_END,1516286259679,189
177,WS_RECV_START,1516286259679,190
177,WS_RECV_END,1516286266018,190
177,PLAYER_SLEEPBEFORE_START,1516286266018,191
177,PLAYER_SLEEPBEFORE_END,1516286267934,191
177,WS_SEND_START,1516286267934,191
177,WS_SEND_END,1516286267934,191
177,WS_RECV_START,1516286267934,192
177,WS_RECV_END,1516286272972,192
177,PLAYER_SLEEPBEFORE_START,1516286272972,193
177,PLAYER_SLEEPBEFORE_END,1516286273100,193
177,WS_SEND_START,1516286273100,193
177,WS_SEND_END,1516286273100,193
177,WS_RECV_START,1516286273100,194
177,WS_RECV_END,1516286275089,194
177,PLAYER_SLEEPBEFORE_START,1516286275089,195
177,PLAYER_SLEEPBEFORE_END,1516286276844,195
177,WS_SEND_START,1516286276844,195
177,WS_SEND_END,1516286276844,195
177,WS_RECV_START,1516286276844,196
177,WS_RECV_END,1516286281680,196
177,PLAYER_SLEEPBEFORE_START,1516286281680,197
177,PLAYER_SLEEPBEFORE_END,1516286283484,197
177,WS_SEND_START,1516286283484,197
177,WS_SEND_END,1516286283484,197
177,WS_RECV_START,1516286283484,198
177,WS_RECV_END,1516286286629,198
177,PLAYER_SLEEPBEFORE_START,1516286286629,199
177,PLAYER_SLEEPBEFORE_END,1516286298483,199
177,WS_SEND_START,1516286298483,199
177,WS_SEND_END,1516286298483,199
177,PLAYER_SLEEPBEFORE_START,1516286298483,200
177,PLAYER_SLEEPBEFORE_END,1516286302571,200
177,WS_SEND_START,1516286302571,200
177,WS_SEND_END,1516286302571,200
177,WS_RECV_START,1516286302571,201
177,WS_RECV_END,1516286303405,201
177,PLAYER_SLEEPBEFORE_START,1516286303405,202
177,PLAYER_SLEEPBEFORE_END,1516286303419,202
177,WS_SEND_START,1516286303419,202
177,WS_SEND_END,1516286303419,202
177,WS_RECV_START,1516286303419,203
177,WS_RECV_END,1516286305102,203
177,PLAYER_SLEEPBEFORE_START,1516286305102,204
177,PLAYER_SLEEPBEFORE_END,1516286324751,204
177,WS_SEND_START,1516286324751,204
177,WS_SEND_END,1516286324752,204
177,PLAYER_SLEEPBEFORE_START,1516286324752,205
177,PLAYER_SLEEPBEFORE_END,1516286328650,205
177,WS_SEND_START,1516286328650,205
177,WS_SEND_END,1516286328650,205
177,WS_RECV_START,1516286328650,206
177,WS_RECV_END,1516286329297,206
177,PLAYER_SLEEPBEFORE_START,1516286329297,207
177,PLAYER_SLEEPBEFORE_END,1516286346229,207
177,REQ_START,1516286346229,207
177,REQ_END,1516286346242,207
177,PLAYER_SLEEPBEFORE_START,1516286346242,208
177,PLAYER_SLEEPBEFORE_END,1516286353094,208
177,WS_CLOSE_START,1516286353094,208
177,WS_CLOSE_END,1516286353094,208
177,PLAYER_DONE,1516286353094
