# --sessions 540 --app-url=http://shinyloadtest.rstudioservices.com/cran_explorer --output-dir test540 --overwrite-output --log-level warn --start-interval 500 15min.log
thread_id,event,timestamp,input_line_number,comment
199,PLAYER_SESSION_CREATE,1516285277623
199,PLAYER_START_INTERVAL_START,1516285277623
199,PLAYER_START_INTERVAL_END,1516285377123
199,REQ_HOME_START,1516285377123,2
199,REQ_HOME_END,1516285377209,2
199,REQ_START,1516285377209,3
199,REQ_END,1516285377240,3
199,REQ_START,1516285377240,4
199,REQ_END,1516285377272,4
199,REQ_START,1516285377272,5
199,REQ_END,1516285377304,5
199,REQ_START,1516285377304,6
199,REQ_END,1516285377337,6
199,REQ_START,1516285377337,7
199,REQ_END,1516285377388,7
199,REQ_START,1516285377388,8
199,REQ_END,1516285377425,8
199,REQ_START,1516285377425,9
199,REQ_END,1516285377464,9
199,REQ_START,1516285377464,10
199,REQ_END,1516285377471,10
199,REQ_START,1516285377471,11
199,REQ_END,1516285377503,11
199,REQ_START,1516285377503,12
199,REQ_END,1516285377511,12
199,REQ_START,1516285377511,13
199,REQ_END,1516285377604,13
199,REQ_START,1516285377604,14
199,REQ_END,1516285377620,14
199,REQ_START,1516285377620,15
199,REQ_END,1516285377747,15
199,REQ_TOK_START,1516285377747,16
199,REQ_TOK_END,1516285377754,16
199,REQ_SINF_START,1516285377754,17
199,REQ_SINF_END,1516285377761,17
199,WS_OPEN_START,1516285377761,18
199,WS_OPEN_END,1516285377767,18
199,REQ_START,1516285377767,19
199,REQ_END,1516285377829,19
199,WS_RECV_START,1516285377829,20
199,WS_RECV_END,1516285377829,20
199,PLAYER_SLEEPBEFORE_START,1516285377829,21
199,PLAYER_SLEEPBEFORE_END,1516285377834,21
199,WS_SEND_START,1516285377834,21
199,WS_SEND_END,1516285377834,21
199,PLAYER_SLEEPBEFORE_START,1516285377834,22
199,PLAYER_SLEEPBEFORE_END,1516285377835,22
199,WS_SEND_START,1516285377835,22
199,WS_SEND_END,1516285377835,22
199,WS_RECV_INIT_START,1516285377835,23
199,WS_RECV_INIT_END,1516285377848,23
199,WS_RECV_START,1516285377848,24
199,WS_RECV_END,1516285377908,24
199,PLAYER_SLEEPBEFORE_START,1516285377908,25
199,PLAYER_SLEEPBEFORE_END,1516285377916,25
199,REQ_START,1516285377916,25
199,REQ_END,1516285377947,25
199,PLAYER_SLEEPBEFORE_START,1516285377947,26
199,PLAYER_SLEEPBEFORE_END,1516285377948,26
199,REQ_START,1516285377948,26
199,REQ_END,1516285377979,26
199,PLAYER_SLEEPBEFORE_START,1516285377979,27
199,PLAYER_SLEEPBEFORE_END,1516285377982,27
199,REQ_START,1516285377982,27
199,REQ_END,1516285378013,27
199,PLAYER_SLEEPBEFORE_START,1516285378013,28
199,PLAYER_SLEEPBEFORE_END,1516285378298,28
199,REQ_START,1516285378298,28
199,REQ_END,1516285378329,28
199,PLAYER_SLEEPBEFORE_START,1516285378329,29
199,PLAYER_SLEEPBEFORE_END,1516285378504,29
199,WS_SEND_START,1516285378504,29
199,WS_SEND_END,1516285378504,29
199,WS_RECV_START,1516285378504,30
199,WS_RECV_END,1516285378598,30
199,PLAYER_SLEEPBEFORE_START,1516285378598,31
199,PLAYER_SLEEPBEFORE_END,1516285378609,31
199,REQ_START,1516285378609,31
199,REQ_END,1516285378646,31
199,PLAYER_SLEEPBEFORE_START,1516285378646,32
199,PLAYER_SLEEPBEFORE_END,1516285406791,32
199,WS_SEND_START,1516285406791,32
199,WS_SEND_END,1516285406792,32
199,WS_RECV_START,1516285406792,33
199,WS_RECV_END,1516285406895,33
199,PLAYER_SLEEPBEFORE_START,1516285406895,34
199,PLAYER_SLEEPBEFORE_END,1516285432806,34
199,WS_SEND_START,1516285432806,34
199,WS_SEND_END,1516285432806,34
199,WS_RECV_START,1516285432806,35
199,WS_RECV_END,1516285432977,35
199,PLAYER_SLEEPBEFORE_START,1516285432977,36
199,PLAYER_SLEEPBEFORE_END,1516285432986,36
199,WS_SEND_START,1516285432986,36
199,WS_SEND_END,1516285432986,36
199,WS_RECV_START,1516285432986,37
199,WS_RECV_END,1516285433049,37
199,PLAYER_SLEEPBEFORE_START,1516285433049,38
199,PLAYER_SLEEPBEFORE_END,1516285436244,38
199,WS_SEND_START,1516285436244,38
199,WS_SEND_END,1516285436244,38
199,WS_RECV_START,1516285436244,39
199,WS_RECV_END,1516285436354,39
199,PLAYER_SLEEPBEFORE_START,1516285436354,40
199,PLAYER_SLEEPBEFORE_END,1516285436400,40
199,WS_SEND_START,1516285436400,40
199,WS_SEND_END,1516285436400,40
199,WS_RECV_START,1516285436400,41
199,WS_RECV_END,1516285436540,41
199,PLAYER_SLEEPBEFORE_START,1516285436540,42
199,PLAYER_SLEEPBEFORE_END,1516285454675,42
199,WS_SEND_START,1516285454675,42
199,WS_SEND_END,1516285454675,42
199,WS_RECV_START,1516285454675,43
199,WS_RECV_END,1516285454728,43
199,PLAYER_SLEEPBEFORE_START,1516285454728,44
199,PLAYER_SLEEPBEFORE_END,1516285454740,44
199,WS_SEND_START,1516285454740,44
199,WS_SEND_END,1516285454740,44
199,WS_RECV_START,1516285454740,45
199,WS_RECV_END,1516285454849,45
199,PLAYER_SLEEPBEFORE_START,1516285454849,46
199,PLAYER_SLEEPBEFORE_END,1516285456109,46
199,WS_SEND_START,1516285456109,46
199,WS_SEND_END,1516285456109,46
199,WS_RECV_START,1516285456109,47
199,WS_RECV_END,1516285456134,47
199,PLAYER_SLEEPBEFORE_START,1516285456134,48
199,PLAYER_SLEEPBEFORE_END,1516285457454,48
199,WS_SEND_START,1516285457454,48
199,WS_SEND_END,1516285457455,48
199,WS_RECV_START,1516285457455,49
199,WS_RECV_END,1516285457548,49
199,PLAYER_SLEEPBEFORE_START,1516285457548,50
199,PLAYER_SLEEPBEFORE_END,1516285457572,50
199,WS_SEND_START,1516285457572,50
199,WS_SEND_END,1516285457572,50
199,WS_RECV_START,1516285457572,51
199,WS_RECV_END,1516285457721,51
199,PLAYER_SLEEPBEFORE_START,1516285457721,52
199,PLAYER_SLEEPBEFORE_END,1516285480285,52
199,WS_SEND_START,1516285480285,52
199,WS_SEND_END,1516285480285,52
199,WS_RECV_START,1516285480285,53
199,WS_RECV_END,1516285480432,53
199,PLAYER_SLEEPBEFORE_START,1516285480432,54
199,PLAYER_SLEEPBEFORE_END,1516285501735,54
199,WS_SEND_START,1516285501735,54
199,WS_SEND_END,1516285501735,54
199,PLAYER_SLEEPBEFORE_START,1516285501735,55
199,PLAYER_SLEEPBEFORE_END,1516285503676,55
199,WS_SEND_START,1516285503676,55
199,WS_SEND_END,1516285503676,55
199,WS_RECV_START,1516285503676,56
199,WS_RECV_END,1516285503956,56
199,PLAYER_SLEEPBEFORE_START,1516285503956,57
199,PLAYER_SLEEPBEFORE_END,1516285526828,57
199,WS_SEND_START,1516285526828,57
199,WS_SEND_END,1516285526828,57
199,WS_RECV_START,1516285526828,58
199,WS_RECV_END,1516285526876,58
199,PLAYER_SLEEPBEFORE_START,1516285526876,59
199,PLAYER_SLEEPBEFORE_END,1516285529203,59
199,WS_SEND_START,1516285529203,59
199,WS_SEND_END,1516285529203,59
199,WS_RECV_START,1516285529203,60
199,WS_RECV_END,1516285529683,60
199,PLAYER_SLEEPBEFORE_START,1516285529683,61
199,PLAYER_SLEEPBEFORE_END,1516285533274,61
199,WS_SEND_START,1516285533274,61
199,WS_SEND_END,1516285533274,61
199,WS_RECV_START,1516285533274,62
199,WS_RECV_END,1516285533479,62
199,PLAYER_SLEEPBEFORE_START,1516285533479,63
199,PLAYER_SLEEPBEFORE_END,1516285552741,63
199,WS_SEND_START,1516285552741,63
199,WS_SEND_END,1516285552741,63
199,WS_RECV_START,1516285552741,64
199,WS_RECV_END,1516285553324,64
199,PLAYER_SLEEPBEFORE_START,1516285553324,65
199,PLAYER_SLEEPBEFORE_END,1516285580141,65
199,WS_SEND_START,1516285580141,65
199,WS_SEND_END,1516285580141,65
199,WS_RECV_START,1516285580141,66
199,WS_RECV_END,1516285580311,66
199,PLAYER_SLEEPBEFORE_START,1516285580311,67
199,PLAYER_SLEEPBEFORE_END,1516285581818,67
199,WS_SEND_START,1516285581818,67
199,WS_SEND_END,1516285581818,67
199,WS_RECV_START,1516285581818,68
199,WS_RECV_END,1516285582099,68
199,PLAYER_SLEEPBEFORE_START,1516285582099,69
199,PLAYER_SLEEPBEFORE_END,1516285604097,69
199,WS_SEND_START,1516285604097,69
199,WS_SEND_END,1516285604097,69
199,WS_RECV_START,1516285604097,70
199,WS_RECV_END,1516285604305,70
199,PLAYER_SLEEPBEFORE_START,1516285604305,71
199,PLAYER_SLEEPBEFORE_END,1516285629080,71
199,WS_SEND_START,1516285629080,71
199,WS_SEND_END,1516285629080,71
199,PLAYER_SLEEPBEFORE_START,1516285629080,72
199,PLAYER_SLEEPBEFORE_END,1516285631687,72
199,WS_SEND_START,1516285631687,72
199,WS_SEND_END,1516285631687,72
199,WS_RECV_START,1516285631687,73
199,WS_RECV_END,1516285631902,73
199,PLAYER_SLEEPBEFORE_START,1516285631902,74
199,PLAYER_SLEEPBEFORE_END,1516285631911,74
199,WS_SEND_START,1516285631911,74
199,WS_SEND_END,1516285631911,74
199,WS_RECV_START,1516285631911,75
199,WS_RECV_END,1516285631957,75
199,PLAYER_SLEEPBEFORE_START,1516285631957,76
199,PLAYER_SLEEPBEFORE_END,1516285633463,76
199,WS_SEND_START,1516285633463,76
199,WS_SEND_END,1516285633463,76
199,WS_RECV_START,1516285633463,77
199,WS_RECV_END,1516285634007,77
199,PLAYER_SLEEPBEFORE_START,1516285634007,78
199,PLAYER_SLEEPBEFORE_END,1516285634875,78
199,WS_SEND_START,1516285634875,78
199,WS_SEND_END,1516285634875,78
199,WS_RECV_START,1516285634875,79
199,WS_RECV_END,1516285634908,79
199,PLAYER_SLEEPBEFORE_START,1516285634908,80
199,PLAYER_SLEEPBEFORE_END,1516285642574,80
199,WS_SEND_START,1516285642574,80
199,WS_SEND_END,1516285642574,80
199,WS_RECV_START,1516285642574,81
199,WS_RECV_END,1516285643175,81
199,PLAYER_SLEEPBEFORE_START,1516285643175,82
199,PLAYER_SLEEPBEFORE_END,1516285644277,82
199,WS_SEND_START,1516285644277,82
199,WS_SEND_END,1516285644277,82
199,WS_RECV_START,1516285644277,83
199,WS_RECV_END,1516285644324,83
199,PLAYER_SLEEPBEFORE_START,1516285644324,84
199,PLAYER_SLEEPBEFORE_END,1516285645271,84
199,WS_SEND_START,1516285645271,84
199,WS_SEND_END,1516285645271,84
199,WS_RECV_START,1516285645271,85
199,WS_RECV_END,1516285645304,85
199,PLAYER_SLEEPBEFORE_START,1516285645304,86
199,PLAYER_SLEEPBEFORE_END,1516285649476,86
199,WS_SEND_START,1516285649476,86
199,WS_SEND_END,1516285649477,86
199,WS_RECV_START,1516285649477,87
199,WS_RECV_END,1516285649922,87
199,PLAYER_SLEEPBEFORE_START,1516285649922,88
199,PLAYER_SLEEPBEFORE_END,1516285649930,88
199,WS_SEND_START,1516285649930,88
199,WS_SEND_END,1516285649931,88
199,WS_RECV_START,1516285649931,89
199,WS_RECV_END,1516285650423,89
199,PLAYER_SLEEPBEFORE_START,1516285650423,90
199,PLAYER_SLEEPBEFORE_END,1516285677621,90
199,REQ_START,1516285677621,90
199,REQ_END,1516285677629,90
199,PLAYER_SLEEPBEFORE_START,1516285677629,91
199,PLAYER_SLEEPBEFORE_END,1516285685518,91
199,WS_SEND_START,1516285685518,91
199,WS_SEND_END,1516285685518,91
199,WS_RECV_START,1516285685518,92
199,WS_RECV_END,1516285686077,92
199,PLAYER_SLEEPBEFORE_START,1516285686077,93
199,PLAYER_SLEEPBEFORE_END,1516285686092,93
199,WS_SEND_START,1516285686092,93
199,WS_SEND_END,1516285686092,93
199,WS_RECV_START,1516285686092,94
199,WS_RECV_END,1516285686515,94
199,PLAYER_SLEEPBEFORE_START,1516285686515,95
199,PLAYER_SLEEPBEFORE_END,1516285710070,95
199,WS_SEND_START,1516285710070,95
199,WS_SEND_END,1516285710070,95
199,WS_RECV_START,1516285710070,96
199,WS_RECV_END,1516285710290,96
199,PLAYER_SLEEPBEFORE_START,1516285710290,97
199,PLAYER_SLEEPBEFORE_END,1516285732730,97
199,WS_SEND_START,1516285732730,97
199,WS_SEND_END,1516285732730,97
199,WS_RECV_START,1516285732730,98
199,WS_RECV_END,1516285733066,98
199,PLAYER_SLEEPBEFORE_START,1516285733066,99
199,PLAYER_SLEEPBEFORE_END,1516285733087,99
199,WS_SEND_START,1516285733087,99
199,WS_SEND_END,1516285733088,99
199,WS_RECV_START,1516285733088,100
199,WS_RECV_END,1516285733542,100
199,PLAYER_SLEEPBEFORE_START,1516285733542,101
199,PLAYER_SLEEPBEFORE_END,1516285757101,101
199,WS_SEND_START,1516285757101,101
199,WS_SEND_END,1516285757101,101
199,WS_RECV_START,1516285757101,102
199,WS_RECV_END,1516285757915,102
199,PLAYER_SLEEPBEFORE_START,1516285757915,103
199,PLAYER_SLEEPBEFORE_END,1516285781540,103
199,WS_SEND_START,1516285781540,103
199,WS_SEND_END,1516285781540,103
199,WS_RECV_START,1516285781540,104
199,WS_RECV_END,1516285783569,104
199,PLAYER_SLEEPBEFORE_START,1516285783569,105
199,PLAYER_SLEEPBEFORE_END,1516285808946,105
199,WS_SEND_START,1516285808946,105
199,WS_SEND_END,1516285808946,105
199,WS_RECV_START,1516285808946,106
199,WS_RECV_END,1516285811571,106
199,PLAYER_SLEEPBEFORE_START,1516285811571,107
199,PLAYER_SLEEPBEFORE_END,1516285834994,107
199,WS_SEND_START,1516285834994,107
199,WS_SEND_END,1516285834994,107
199,WS_RECV_START,1516285834994,108
199,WS_RECV_END,1516285837060,108
199,PLAYER_SLEEPBEFORE_START,1516285837060,109
199,PLAYER_SLEEPBEFORE_END,1516285837070,109
199,WS_SEND_START,1516285837070,109
199,WS_SEND_END,1516285837070,109
199,WS_RECV_START,1516285837070,110
199,WS_RECV_END,1516285838046,110
199,PLAYER_SLEEPBEFORE_START,1516285838046,111
199,PLAYER_SLEEPBEFORE_END,1516285839005,111
199,WS_SEND_START,1516285839005,111
199,WS_SEND_END,1516285839005,111
199,WS_RECV_START,1516285839005,112
199,WS_RECV_END,1516285840220,112
199,PLAYER_SLEEPBEFORE_START,1516285840220,113
199,PLAYER_SLEEPBEFORE_END,1516285840782,113
199,WS_SEND_START,1516285840782,113
199,WS_SEND_END,1516285840782,113
199,WS_RECV_START,1516285840782,114
199,WS_RECV_END,1516285841942,114
199,PLAYER_SLEEPBEFORE_START,1516285841942,115
199,PLAYER_SLEEPBEFORE_END,1516285841951,115
199,WS_SEND_START,1516285841951,115
199,WS_SEND_END,1516285841951,115
199,WS_RECV_START,1516285841951,116
199,WS_RECV_END,1516285842594,116
199,PLAYER_SLEEPBEFORE_START,1516285842594,117
199,PLAYER_SLEEPBEFORE_END,1516285862954,117
199,WS_SEND_START,1516285862954,117
199,WS_SEND_END,1516285862954,117
199,PLAYER_SLEEPBEFORE_START,1516285862954,118
199,PLAYER_SLEEPBEFORE_END,1516285866706,118
199,WS_SEND_START,1516285866706,118
199,WS_SEND_END,1516285866706,118
199,WS_RECV_START,1516285866706,119
199,WS_RECV_END,1516285867663,119
199,PLAYER_SLEEPBEFORE_START,1516285867663,120
199,PLAYER_SLEEPBEFORE_END,1516285868651,120
199,WS_SEND_START,1516285868651,120
199,WS_SEND_END,1516285868651,120
199,WS_RECV_START,1516285868651,121
199,WS_RECV_END,1516285869688,121
199,PLAYER_SLEEPBEFORE_START,1516285869688,122
199,PLAYER_SLEEPBEFORE_END,1516285870873,122
199,WS_SEND_START,1516285870873,122
199,WS_SEND_END,1516285870873,122
199,WS_RECV_START,1516285870873,123
199,WS_RECV_END,1516285872154,123
199,PLAYER_SLEEPBEFORE_START,1516285872154,124
199,PLAYER_SLEEPBEFORE_END,1516285896559,124
199,WS_SEND_START,1516285896559,124
199,WS_SEND_END,1516285896559,124
199,WS_RECV_START,1516285896559,125
199,WS_RECV_END,1516285899402,125
199,PLAYER_SLEEPBEFORE_START,1516285899402,126
199,PLAYER_SLEEPBEFORE_END,1516285919914,126
199,WS_SEND_START,1516285919914,126
199,WS_SEND_END,1516285919914,126
199,PLAYER_SLEEPBEFORE_START,1516285919914,127
199,PLAYER_SLEEPBEFORE_END,1516285922968,127
199,WS_SEND_START,1516285922968,127
199,WS_SEND_END,1516285922968,127
199,WS_RECV_START,1516285922968,128
199,WS_RECV_END,1516285925467,128
199,PLAYER_SLEEPBEFORE_START,1516285925468,129
199,PLAYER_SLEEPBEFORE_END,1516285925488,129
199,WS_SEND_START,1516285925488,129
199,WS_SEND_END,1516285925488,129
199,WS_RECV_START,1516285925488,130
199,WS_RECV_END,1516285926666,130
199,PLAYER_SLEEPBEFORE_START,1516285926666,131
199,PLAYER_SLEEPBEFORE_END,1516285948290,131
199,WS_SEND_START,1516285948290,131
199,WS_SEND_END,1516285948290,131
199,PLAYER_SLEEPBEFORE_START,1516285948290,132
199,PLAYER_SLEEPBEFORE_END,1516285951370,132
199,WS_SEND_START,1516285951370,132
199,WS_SEND_END,1516285951370,132
199,WS_RECV_START,1516285951370,133
199,WS_RECV_END,1516285952476,133
199,PLAYER_SLEEPBEFORE_START,1516285952476,134
199,PLAYER_SLEEPBEFORE_END,1516285973694,134
199,WS_SEND_START,1516285973694,134
199,WS_SEND_END,1516285973694,134
199,PLAYER_SLEEPBEFORE_START,1516285973694,135
199,PLAYER_SLEEPBEFORE_END,1516285976884,135
199,WS_SEND_START,1516285976884,135
199,WS_SEND_END,1516285976884,135
199,WS_RECV_START,1516285976884,136
199,WS_RECV_END,1516285977454,136
199,PLAYER_SLEEPBEFORE_START,1516285977454,137
199,PLAYER_SLEEPBEFORE_END,1516285977461,137
199,WS_SEND_START,1516285977462,137
199,WS_SEND_END,1516285977462,137
199,WS_RECV_START,1516285977462,138
199,WS_RECV_END,1516285977786,138
199,PLAYER_SLEEPBEFORE_START,1516285977786,139
199,PLAYER_SLEEPBEFORE_END,1516285978476,139
199,WS_SEND_START,1516285978476,139
199,WS_SEND_END,1516285978476,139
199,WS_RECV_START,1516285978476,140
199,WS_RECV_END,1516285979094,140
199,PLAYER_SLEEPBEFORE_START,1516285979094,141
199,PLAYER_SLEEPBEFORE_END,1516285979749,141
199,WS_SEND_START,1516285979749,141
199,WS_SEND_END,1516285979749,141
199,WS_RECV_START,1516285979749,142
199,WS_RECV_END,1516285980140,142
199,PLAYER_SLEEPBEFORE_START,1516285980140,143
199,PLAYER_SLEEPBEFORE_END,1516285980197,143
199,WS_SEND_START,1516285980197,143
199,WS_SEND_END,1516285980197,143
199,WS_RECV_START,1516285980197,144
199,WS_RECV_END,1516285980709,144
199,PLAYER_SLEEPBEFORE_START,1516285980709,145
199,PLAYER_SLEEPBEFORE_END,1516285996771,145
199,REQ_START,1516285996771,145
199,REQ_END,1516285996779,145
199,PLAYER_SLEEPBEFORE_START,1516285996779,146
199,PLAYER_SLEEPBEFORE_END,1516286005661,146
199,WS_SEND_START,1516286005661,146
199,WS_SEND_END,1516286005661,146
199,WS_RECV_START,1516286005661,147
199,WS_RECV_END,1516286008177,147
199,PLAYER_SLEEPBEFORE_START,1516286008177,148
199,PLAYER_SLEEPBEFORE_END,1516286030099,148
199,WS_SEND_START,1516286030099,148
199,WS_SEND_END,1516286030099,148
199,PLAYER_SLEEPBEFORE_START,1516286030099,149
199,PLAYER_SLEEPBEFORE_END,1516286032527,149
199,WS_SEND_START,1516286032527,149
199,WS_SEND_END,1516286032528,149
199,WS_RECV_START,1516286032528,150
199,WS_RECV_END,1516286033628,150
199,PLAYER_SLEEPBEFORE_START,1516286033628,151
199,PLAYER_SLEEPBEFORE_END,1516286033838,151
199,WS_SEND_START,1516286033838,151
199,WS_SEND_END,1516286033838,151
199,WS_RECV_START,1516286033838,152
199,WS_RECV_END,1516286035738,152
199,PLAYER_SLEEPBEFORE_START,1516286035738,153
199,PLAYER_SLEEPBEFORE_END,1516286059665,153
199,WS_SEND_START,1516286059665,153
199,WS_SEND_END,1516286059665,153
199,WS_RECV_START,1516286059665,154
199,WS_RECV_END,1516286061380,154
199,PLAYER_SLEEPBEFORE_START,1516286061380,155
199,PLAYER_SLEEPBEFORE_END,1516286083938,155
199,WS_SEND_START,1516286083938,155
199,WS_SEND_END,1516286083938,155
199,PLAYER_SLEEPBEFORE_START,1516286083938,156
199,PLAYER_SLEEPBEFORE_END,1516286087212,156
199,WS_SEND_START,1516286087212,156
199,WS_SEND_END,1516286087212,156
199,WS_RECV_START,1516286087212,157
199,WS_RECV_END,1516286087260,157
199,PLAYER_SLEEPBEFORE_START,1516286087260,158
199,PLAYER_SLEEPBEFORE_END,1516286087271,158
199,WS_SEND_START,1516286087271,158
199,WS_SEND_END,1516286087271,158
199,WS_RECV_START,1516286087271,159
199,WS_RECV_END,1516286087314,159
199,PLAYER_SLEEPBEFORE_START,1516286087314,160
199,PLAYER_SLEEPBEFORE_END,1516286087489,160
199,WS_SEND_START,1516286087489,160
199,WS_SEND_END,1516286087489,160
199,WS_RECV_START,1516286087489,161
199,WS_RECV_END,1516286087691,161
199,PLAYER_SLEEPBEFORE_START,1516286087691,162
199,PLAYER_SLEEPBEFORE_END,1516286087716,162
199,WS_SEND_START,1516286087716,162
199,WS_SEND_END,1516286087716,162
199,WS_RECV_START,1516286087716,163
199,WS_RECV_END,1516286087928,163
199,PLAYER_SLEEPBEFORE_START,1516286087928,164
199,PLAYER_SLEEPBEFORE_END,1516286108740,164
199,WS_SEND_START,1516286108740,164
199,WS_SEND_END,1516286108740,164
199,WS_RECV_START,1516286108740,165
199,WS_RECV_END,1516286109660,165
199,PLAYER_SLEEPBEFORE_START,1516286109660,166
199,PLAYER_SLEEPBEFORE_END,1516286132115,166
199,WS_SEND_START,1516286132115,166
199,WS_SEND_END,1516286132115,166
199,WS_RECV_START,1516286132115,167
199,WS_RECV_END,1516286133880,167
199,PLAYER_SLEEPBEFORE_START,1516286133880,168
199,PLAYER_SLEEPBEFORE_END,1516286161237,168
199,WS_SEND_START,1516286161237,168
199,WS_SEND_END,1516286161237,168
199,WS_RECV_START,1516286161237,169
199,WS_RECV_END,1516286165912,169
199,PLAYER_SLEEPBEFORE_START,1516286165912,170
199,PLAYER_SLEEPBEFORE_END,1516286165921,170
199,WS_SEND_START,1516286165921,170
199,WS_SEND_END,1516286165921,170
199,WS_RECV_START,1516286165921,171
199,WS_RECV_END,1516286168266,171
199,PLAYER_SLEEPBEFORE_START,1516286168266,172
199,PLAYER_SLEEPBEFORE_END,1516286168635,172
199,WS_SEND_START,1516286168635,172
199,WS_SEND_END,1516286168636,172
199,WS_RECV_START,1516286168636,173
199,WS_RECV_END,1516286172476,173
199,PLAYER_SLEEPBEFORE_START,1516286172476,174
199,PLAYER_SLEEPBEFORE_END,1516286172517,174
199,WS_SEND_START,1516286172517,174
199,WS_SEND_END,1516286172517,174
199,WS_RECV_START,1516286172518,175
199,WS_RECV_END,1516286175506,175
199,PLAYER_SLEEPBEFORE_START,1516286175506,176
199,PLAYER_SLEEPBEFORE_END,1516286197267,176
199,WS_SEND_START,1516286197267,176
199,WS_SEND_END,1516286197267,176
199,PLAYER_SLEEPBEFORE_START,1516286197267,177
199,PLAYER_SLEEPBEFORE_END,1516286199785,177
199,WS_SEND_START,1516286199785,177
199,WS_SEND_END,1516286199785,177
199,WS_RECV_START,1516286199785,178
199,WS_RECV_END,1516286203110,178
199,PLAYER_SLEEPBEFORE_START,1516286203110,179
199,PLAYER_SLEEPBEFORE_END,1516286225450,179
199,WS_SEND_START,1516286225450,179
199,WS_SEND_END,1516286225450,179
199,WS_RECV_START,1516286225450,180
199,WS_RECV_END,1516286231630,180
199,PLAYER_SLEEPBEFORE_START,1516286231630,181
199,PLAYER_SLEEPBEFORE_END,1516286232074,181
199,WS_SEND_START,1516286232074,181
199,WS_SEND_END,1516286232074,181
199,WS_RECV_START,1516286232074,182
199,WS_RECV_END,1516286235438,182
199,PLAYER_SLEEPBEFORE_START,1516286235438,183
199,PLAYER_SLEEPBEFORE_END,1516286235961,183
199,WS_SEND_START,1516286235961,183
199,WS_SEND_END,1516286235961,183
199,WS_RECV_START,1516286235961,184
199,WS_RECV_END,1516286240326,184
199,PLAYER_SLEEPBEFORE_START,1516286240326,185
199,PLAYER_SLEEPBEFORE_END,1516286240594,185
199,WS_SEND_START,1516286240594,185
199,WS_SEND_END,1516286240594,185
199,WS_RECV_START,1516286240594,186
199,WS_RECV_END,1516286244856,186
199,PLAYER_SLEEPBEFORE_START,1516286244856,187
199,PLAYER_SLEEPBEFORE_END,1516286267356,187
199,WS_SEND_START,1516286267356,187
199,WS_SEND_END,1516286267356,187
199,WS_RECV_START,1516286267356,188
199,WS_RECV_END,1516286270632,188
199,PLAYER_SLEEPBEFORE_START,1516286270632,189
199,PLAYER_SLEEPBEFORE_END,1516286276871,189
199,WS_SEND_START,1516286276871,189
199,WS_SEND_END,1516286276871,189
199,WS_RECV_START,1516286276871,190
199,WS_RECV_END,1516286281855,190
199,PLAYER_SLEEPBEFORE_START,1516286281855,191
199,PLAYER_SLEEPBEFORE_END,1516286283770,191
199,WS_SEND_START,1516286283770,191
199,WS_SEND_END,1516286283770,191
199,WS_RECV_START,1516286283770,192
199,WS_RECV_END,1516286286826,192
199,PLAYER_SLEEPBEFORE_START,1516286286826,193
199,PLAYER_SLEEPBEFORE_END,1516286286954,193
199,WS_SEND_START,1516286286954,193
199,WS_SEND_END,1516286286954,193
199,WS_RECV_START,1516286286954,194
199,WS_RECV_END,1516286289056,194
199,PLAYER_SLEEPBEFORE_START,1516286289056,195
199,PLAYER_SLEEPBEFORE_END,1516286290811,195
199,WS_SEND_START,1516286290811,195
199,WS_SEND_END,1516286290811,195
199,WS_RECV_START,1516286290811,196
199,WS_RECV_END,1516286292513,196
199,PLAYER_SLEEPBEFORE_START,1516286292513,197
199,PLAYER_SLEEPBEFORE_END,1516286294317,197
199,WS_SEND_START,1516286294317,197
199,WS_SEND_END,1516286294317,197
199,WS_RECV_START,1516286294317,198
199,WS_RECV_END,1516286294914,198
199,PLAYER_SLEEPBEFORE_START,1516286294914,199
199,PLAYER_SLEEPBEFORE_END,1516286306768,199
199,WS_SEND_START,1516286306768,199
199,WS_SEND_END,1516286306768,199
199,PLAYER_SLEEPBEFORE_START,1516286306768,200
199,PLAYER_SLEEPBEFORE_END,1516286310857,200
199,WS_SEND_START,1516286310857,200
199,WS_SEND_END,1516286310857,200
199,WS_RECV_START,1516286310857,201
199,WS_RECV_END,1516286313764,201
199,PLAYER_SLEEPBEFORE_START,1516286313764,202
199,PLAYER_SLEEPBEFORE_END,1516286313778,202
199,WS_SEND_START,1516286313778,202
199,WS_SEND_END,1516286313778,202
199,WS_RECV_START,1516286313778,203
199,WS_RECV_END,1516286315395,203
199,PLAYER_SLEEPBEFORE_START,1516286315396,204
199,PLAYER_SLEEPBEFORE_END,1516286335045,204
199,WS_SEND_START,1516286335045,204
199,WS_SEND_END,1516286335045,204
199,PLAYER_SLEEPBEFORE_START,1516286335045,205
199,PLAYER_SLEEPBEFORE_END,1516286338943,205
199,WS_SEND_START,1516286338943,205
199,WS_SEND_END,1516286338943,205
199,WS_RECV_START,1516286338943,206
199,WS_RECV_END,1516286339366,206
199,PLAYER_SLEEPBEFORE_START,1516286339366,207
199,PLAYER_SLEEPBEFORE_END,1516286356297,207
199,REQ_START,1516286356297,207
199,REQ_END,1516286356306,207
199,PLAYER_SLEEPBEFORE_START,1516286356306,208
199,PLAYER_SLEEPBEFORE_END,1516286363158,208
199,WS_CLOSE_START,1516286363158,208
199,WS_CLOSE_END,1516286363158,208
199,PLAYER_DONE,1516286363158
