# --sessions 540 --app-url=http://shinyloadtest.rstudioservices.com/cran_explorer --output-dir test540 --overwrite-output --log-level warn --start-interval 500 15min.log
thread_id,event,timestamp,input_line_number,comment
323,PLAYER_SESSION_CREATE,1516285277661
323,PLAYER_START_INTERVAL_START,1516285277661
323,PLAYER_START_INTERVAL_END,1516285439161
323,REQ_HOME_START,1516285439161,2
323,REQ_HOME_END,1516285439317,2
323,REQ_START,1516285439317,3
323,REQ_END,1516285439373,3
323,REQ_START,1516285439373,4
323,REQ_END,1516285439415,4
323,REQ_START,1516285439415,5
323,REQ_END,1516285439449,5
323,REQ_START,1516285439449,6
323,REQ_END,1516285439486,6
323,REQ_START,1516285439486,7
323,REQ_END,1516285439589,7
323,REQ_START,1516285439589,8
323,REQ_END,1516285439625,8
323,REQ_START,1516285439625,9
323,REQ_END,1516285439661,9
323,REQ_START,1516285439661,10
323,REQ_END,1516285439669,10
323,REQ_START,1516285439669,11
323,REQ_END,1516285439875,11
323,REQ_START,1516285439875,12
323,REQ_END,1516285439885,12
323,REQ_START,1516285439885,13
323,REQ_END,1516285440018,13
323,REQ_START,1516285440018,14
323,REQ_END,1516285440043,14
323,REQ_START,1516285440043,15
323,REQ_END,1516285440074,15
323,REQ_TOK_START,1516285440074,16
323,REQ_TOK_END,1516285440081,16
323,REQ_SINF_START,1516285440081,17
323,REQ_SINF_END,1516285440088,17
323,WS_OPEN_START,1516285440088,18
323,WS_OPEN_END,1516285440094,18
323,REQ_START,1516285440094,19
323,REQ_END,1516285440254,19
323,WS_RECV_START,1516285440254,20
323,WS_RECV_END,1516285440254,20
323,PLAYER_SLEEPBEFORE_START,1516285440254,21
323,PLAYER_SLEEPBEFORE_END,1516285440260,21
323,WS_SEND_START,1516285440260,21
323,WS_SEND_END,1516285440260,21
323,PLAYER_SLEEPBEFORE_START,1516285440260,22
323,PLAYER_SLEEPBEFORE_END,1516285440261,22
323,WS_SEND_START,1516285440261,22
323,WS_SEND_END,1516285440261,22
323,WS_RECV_INIT_START,1516285440261,23
323,WS_RECV_INIT_END,1516285440279,23
323,WS_RECV_START,1516285440279,24
323,WS_RECV_END,1516285440346,24
323,PLAYER_SLEEPBEFORE_START,1516285440346,25
323,PLAYER_SLEEPBEFORE_END,1516285440353,25
323,REQ_START,1516285440353,25
323,REQ_END,1516285440388,25
323,PLAYER_SLEEPBEFORE_START,1516285440388,26
323,PLAYER_SLEEPBEFORE_END,1516285440389,26
323,REQ_START,1516285440389,26
323,REQ_END,1516285440422,26
323,PLAYER_SLEEPBEFORE_START,1516285440422,27
323,PLAYER_SLEEPBEFORE_END,1516285440425,27
323,REQ_START,1516285440425,27
323,REQ_END,1516285440461,27
323,PLAYER_SLEEPBEFORE_START,1516285440461,28
323,PLAYER_SLEEPBEFORE_END,1516285440746,28
323,REQ_START,1516285440746,28
323,REQ_END,1516285441043,28
323,PLAYER_SLEEPBEFORE_START,1516285441043,29
323,PLAYER_SLEEPBEFORE_END,1516285441218,29
323,WS_SEND_START,1516285441218,29
323,WS_SEND_END,1516285441218,29
323,WS_RECV_START,1516285441218,30
323,WS_RECV_END,1516285441383,30
323,PLAYER_SLEEPBEFORE_START,1516285441383,31
323,PLAYER_SLEEPBEFORE_END,1516285441394,31
323,REQ_START,1516285441394,31
323,REQ_END,1516285441602,31
323,PLAYER_SLEEPBEFORE_START,1516285441602,32
323,PLAYER_SLEEPBEFORE_END,1516285469747,32
323,WS_SEND_START,1516285469747,32
323,WS_SEND_END,1516285469747,32
323,WS_RECV_START,1516285469747,33
323,WS_RECV_END,1516285469918,33
323,PLAYER_SLEEPBEFORE_START,1516285469918,34
323,PLAYER_SLEEPBEFORE_END,1516285495829,34
323,WS_SEND_START,1516285495829,34
323,WS_SEND_END,1516285495829,34
323,WS_RECV_START,1516285495829,35
323,WS_RECV_END,1516285495974,35
323,PLAYER_SLEEPBEFORE_START,1516285495974,36
323,PLAYER_SLEEPBEFORE_END,1516285495983,36
323,WS_SEND_START,1516285495983,36
323,WS_SEND_END,1516285495983,36
323,WS_RECV_START,1516285495983,37
323,WS_RECV_END,1516285496137,37
323,PLAYER_SLEEPBEFORE_START,1516285496137,38
323,PLAYER_SLEEPBEFORE_END,1516285499332,38
323,WS_SEND_START,1516285499332,38
323,WS_SEND_END,1516285499332,38
323,WS_RECV_START,1516285499332,39
323,WS_RECV_END,1516285499627,39
323,PLAYER_SLEEPBEFORE_START,1516285499627,40
323,PLAYER_SLEEPBEFORE_END,1516285499674,40
323,WS_SEND_START,1516285499674,40
323,WS_SEND_END,1516285499674,40
323,WS_RECV_START,1516285499674,41
323,WS_RECV_END,1516285499846,41
323,PLAYER_SLEEPBEFORE_START,1516285499846,42
323,PLAYER_SLEEPBEFORE_END,1516285517982,42
323,WS_SEND_START,1516285517982,42
323,WS_SEND_END,1516285517982,42
323,WS_RECV_START,1516285517982,43
323,WS_RECV_END,1516285518071,43
323,PLAYER_SLEEPBEFORE_START,1516285518071,44
323,PLAYER_SLEEPBEFORE_END,1516285518084,44
323,WS_SEND_START,1516285518084,44
323,WS_SEND_END,1516285518084,44
323,WS_RECV_START,1516285518084,45
323,WS_RECV_END,1516285518265,45
323,PLAYER_SLEEPBEFORE_START,1516285518265,46
323,PLAYER_SLEEPBEFORE_END,1516285519525,46
323,WS_SEND_START,1516285519525,46
323,WS_SEND_END,1516285519525,46
323,WS_RECV_START,1516285519525,47
323,WS_RECV_END,1516285519642,47
323,PLAYER_SLEEPBEFORE_START,1516285519642,48
323,PLAYER_SLEEPBEFORE_END,1516285520962,48
323,WS_SEND_START,1516285520962,48
323,WS_SEND_END,1516285520962,48
323,WS_RECV_START,1516285520962,49
323,WS_RECV_END,1516285521170,49
323,PLAYER_SLEEPBEFORE_START,1516285521170,50
323,PLAYER_SLEEPBEFORE_END,1516285521194,50
323,WS_SEND_START,1516285521194,50
323,WS_SEND_END,1516285521194,50
323,WS_RECV_START,1516285521194,51
323,WS_RECV_END,1516285521362,51
323,PLAYER_SLEEPBEFORE_START,1516285521362,52
323,PLAYER_SLEEPBEFORE_END,1516285543926,52
323,WS_SEND_START,1516285543926,52
323,WS_SEND_END,1516285543926,52
323,WS_RECV_START,1516285543926,53
323,WS_RECV_END,1516285544210,53
323,PLAYER_SLEEPBEFORE_START,1516285544210,54
323,PLAYER_SLEEPBEFORE_END,1516285565513,54
323,WS_SEND_START,1516285565513,54
323,WS_SEND_END,1516285565513,54
323,PLAYER_SLEEPBEFORE_START,1516285565513,55
323,PLAYER_SLEEPBEFORE_END,1516285567455,55
323,WS_SEND_START,1516285567455,55
323,WS_SEND_END,1516285567455,55
323,WS_RECV_START,1516285567455,56
323,WS_RECV_END,1516285568633,56
323,PLAYER_SLEEPBEFORE_START,1516285568633,57
323,PLAYER_SLEEPBEFORE_END,1516285591506,57
323,WS_SEND_START,1516285591506,57
323,WS_SEND_END,1516285591506,57
323,WS_RECV_START,1516285591506,58
323,WS_RECV_END,1516285591808,58
323,PLAYER_SLEEPBEFORE_START,1516285591808,59
323,PLAYER_SLEEPBEFORE_END,1516285594135,59
323,WS_SEND_START,1516285594135,59
323,WS_SEND_END,1516285594135,59
323,WS_RECV_START,1516285594135,60
323,WS_RECV_END,1516285594392,60
323,PLAYER_SLEEPBEFORE_START,1516285594392,61
323,PLAYER_SLEEPBEFORE_END,1516285597983,61
323,WS_SEND_START,1516285597983,61
323,WS_SEND_END,1516285597983,61
323,WS_RECV_START,1516285597983,62
323,WS_RECV_END,1516285598429,62
323,PLAYER_SLEEPBEFORE_START,1516285598429,63
323,PLAYER_SLEEPBEFORE_END,1516285617691,63
323,WS_SEND_START,1516285617691,63
323,WS_SEND_END,1516285617691,63
323,WS_RECV_START,1516285617691,64
323,WS_RECV_END,1516285618101,64
323,PLAYER_SLEEPBEFORE_START,1516285618101,65
323,PLAYER_SLEEPBEFORE_END,1516285644918,65
323,WS_SEND_START,1516285644918,65
323,WS_SEND_END,1516285644918,65
323,WS_RECV_START,1516285644918,66
323,WS_RECV_END,1516285645366,66
323,PLAYER_SLEEPBEFORE_START,1516285645366,67
323,PLAYER_SLEEPBEFORE_END,1516285646873,67
323,WS_SEND_START,1516285646873,67
323,WS_SEND_END,1516285646873,67
323,WS_RECV_START,1516285646873,68
323,WS_RECV_END,1516285647523,68
323,PLAYER_SLEEPBEFORE_START,1516285647523,69
323,PLAYER_SLEEPBEFORE_END,1516285669521,69
323,WS_SEND_START,1516285669521,69
323,WS_SEND_END,1516285669521,69
323,WS_RECV_START,1516285669521,70
323,WS_RECV_END,1516285669776,70
323,PLAYER_SLEEPBEFORE_START,1516285669776,71
323,PLAYER_SLEEPBEFORE_END,1516285694551,71
323,WS_SEND_START,1516285694551,71
323,WS_SEND_END,1516285694551,71
323,PLAYER_SLEEPBEFORE_START,1516285694551,72
323,PLAYER_SLEEPBEFORE_END,1516285697158,72
323,WS_SEND_START,1516285697158,72
323,WS_SEND_END,1516285697159,72
323,WS_RECV_START,1516285697159,73
323,WS_RECV_END,1516285697403,73
323,PLAYER_SLEEPBEFORE_START,1516285697403,74
323,PLAYER_SLEEPBEFORE_END,1516285697412,74
323,WS_SEND_START,1516285697412,74
323,WS_SEND_END,1516285697412,74
323,WS_RECV_START,1516285697412,75
323,WS_RECV_END,1516285697493,75
323,PLAYER_SLEEPBEFORE_START,1516285697493,76
323,PLAYER_SLEEPBEFORE_END,1516285698999,76
323,WS_SEND_START,1516285698999,76
323,WS_SEND_END,1516285698999,76
323,WS_RECV_START,1516285698999,77
323,WS_RECV_END,1516285699310,77
323,PLAYER_SLEEPBEFORE_START,1516285699310,78
323,PLAYER_SLEEPBEFORE_END,1516285700178,78
323,WS_SEND_START,1516285700178,78
323,WS_SEND_END,1516285700178,78
323,WS_RECV_START,1516285700178,79
323,WS_RECV_END,1516285700421,79
323,PLAYER_SLEEPBEFORE_START,1516285700421,80
323,PLAYER_SLEEPBEFORE_END,1516285708087,80
323,WS_SEND_START,1516285708087,80
323,WS_SEND_END,1516285708088,80
323,WS_RECV_START,1516285708088,81
323,WS_RECV_END,1516285708774,81
323,PLAYER_SLEEPBEFORE_START,1516285708774,82
323,PLAYER_SLEEPBEFORE_END,1516285709876,82
323,WS_SEND_START,1516285709876,82
323,WS_SEND_END,1516285709876,82
323,WS_RECV_START,1516285709876,83
323,WS_RECV_END,1516285709909,83
323,PLAYER_SLEEPBEFORE_START,1516285709909,84
323,PLAYER_SLEEPBEFORE_END,1516285710856,84
323,WS_SEND_START,1516285710856,84
323,WS_SEND_END,1516285710856,84
323,WS_RECV_START,1516285710856,85
323,WS_RECV_END,1516285710921,85
323,PLAYER_SLEEPBEFORE_START,1516285710921,86
323,PLAYER_SLEEPBEFORE_END,1516285715093,86
323,WS_SEND_START,1516285715093,86
323,WS_SEND_END,1516285715093,86
323,WS_RECV_START,1516285715093,87
323,WS_RECV_END,1516285715558,87
323,PLAYER_SLEEPBEFORE_START,1516285715558,88
323,PLAYER_SLEEPBEFORE_END,1516285715566,88
323,WS_SEND_START,1516285715566,88
323,WS_SEND_END,1516285715566,88
323,WS_RECV_START,1516285715566,89
323,WS_RECV_END,1516285715755,89
323,PLAYER_SLEEPBEFORE_START,1516285715755,90
323,PLAYER_SLEEPBEFORE_END,1516285742952,90
323,REQ_START,1516285742952,90
323,REQ_END,1516285742959,90
323,PLAYER_SLEEPBEFORE_START,1516285742959,91
323,PLAYER_SLEEPBEFORE_END,1516285750849,91
323,WS_SEND_START,1516285750849,91
323,WS_SEND_END,1516285750849,91
323,WS_RECV_START,1516285750849,92
323,WS_RECV_END,1516285750960,92
323,PLAYER_SLEEPBEFORE_START,1516285750960,93
323,PLAYER_SLEEPBEFORE_END,1516285750975,93
323,WS_SEND_START,1516285750975,93
323,WS_SEND_END,1516285750975,93
323,WS_RECV_START,1516285750975,94
323,WS_RECV_END,1516285751249,94
323,PLAYER_SLEEPBEFORE_START,1516285751249,95
323,PLAYER_SLEEPBEFORE_END,1516285774804,95
323,WS_SEND_START,1516285774804,95
323,WS_SEND_END,1516285774804,95
323,WS_RECV_START,1516285774804,96
323,WS_RECV_END,1516285776571,96
323,PLAYER_SLEEPBEFORE_START,1516285776571,97
323,PLAYER_SLEEPBEFORE_END,1516285799012,97
323,WS_SEND_START,1516285799012,97
323,WS_SEND_END,1516285799012,97
323,WS_RECV_START,1516285799012,98
323,WS_RECV_END,1516285799702,98
323,PLAYER_SLEEPBEFORE_START,1516285799702,99
323,PLAYER_SLEEPBEFORE_END,1516285799723,99
323,WS_SEND_START,1516285799723,99
323,WS_SEND_END,1516285799723,99
323,WS_RECV_START,1516285799723,100
323,WS_RECV_END,1516285801047,100
323,PLAYER_SLEEPBEFORE_START,1516285801047,101
323,PLAYER_SLEEPBEFORE_END,1516285824606,101
323,WS_SEND_START,1516285824606,101
323,WS_SEND_END,1516285824606,101
323,WS_RECV_START,1516285824606,102
323,WS_RECV_END,1516285826083,102
323,PLAYER_SLEEPBEFORE_START,1516285826083,103
323,PLAYER_SLEEPBEFORE_END,1516285849708,103
323,WS_SEND_START,1516285849708,103
323,WS_SEND_END,1516285849708,103
323,WS_RECV_START,1516285849708,104
323,WS_RECV_END,1516285850526,104
323,PLAYER_SLEEPBEFORE_START,1516285850526,105
323,PLAYER_SLEEPBEFORE_END,1516285875903,105
323,WS_SEND_START,1516285875903,105
323,WS_SEND_END,1516285875903,105
323,WS_RECV_START,1516285875903,106
323,WS_RECV_END,1516285876860,106
323,PLAYER_SLEEPBEFORE_START,1516285876860,107
323,PLAYER_SLEEPBEFORE_END,1516285900284,107
323,WS_SEND_START,1516285900284,107
323,WS_SEND_END,1516285900284,107
323,WS_RECV_START,1516285900284,108
323,WS_RECV_END,1516285902499,108
323,PLAYER_SLEEPBEFORE_START,1516285902499,109
323,PLAYER_SLEEPBEFORE_END,1516285902508,109
323,WS_SEND_START,1516285902508,109
323,WS_SEND_END,1516285902508,109
323,WS_RECV_START,1516285902508,110
323,WS_RECV_END,1516285902618,110
323,PLAYER_SLEEPBEFORE_START,1516285902618,111
323,PLAYER_SLEEPBEFORE_END,1516285903577,111
323,WS_SEND_START,1516285903577,111
323,WS_SEND_END,1516285903577,111
323,WS_RECV_START,1516285903577,112
323,WS_RECV_END,1516285903756,112
323,PLAYER_SLEEPBEFORE_START,1516285903756,113
323,PLAYER_SLEEPBEFORE_END,1516285904318,113
323,WS_SEND_START,1516285904318,113
323,WS_SEND_END,1516285904318,113
323,WS_RECV_START,1516285904318,114
323,WS_RECV_END,1516285905486,114
323,PLAYER_SLEEPBEFORE_START,1516285905486,115
323,PLAYER_SLEEPBEFORE_END,1516285905495,115
323,WS_SEND_START,1516285905495,115
323,WS_SEND_END,1516285905495,115
323,WS_RECV_START,1516285905495,116
323,WS_RECV_END,1516285907178,116
323,PLAYER_SLEEPBEFORE_START,1516285907178,117
323,PLAYER_SLEEPBEFORE_END,1516285927538,117
323,WS_SEND_START,1516285927538,117
323,WS_SEND_END,1516285927538,117
323,PLAYER_SLEEPBEFORE_START,1516285927538,118
323,PLAYER_SLEEPBEFORE_END,1516285931290,118
323,WS_SEND_START,1516285931290,118
323,WS_SEND_END,1516285931290,118
323,WS_RECV_START,1516285931290,119
323,WS_RECV_END,1516285932928,119
323,PLAYER_SLEEPBEFORE_START,1516285932928,120
323,PLAYER_SLEEPBEFORE_END,1516285933916,120
323,WS_SEND_START,1516285933916,120
323,WS_SEND_END,1516285933916,120
323,WS_RECV_START,1516285933916,121
323,WS_RECV_END,1516285935353,121
323,PLAYER_SLEEPBEFORE_START,1516285935353,122
323,PLAYER_SLEEPBEFORE_END,1516285936538,122
323,WS_SEND_START,1516285936538,122
323,WS_SEND_END,1516285936538,122
323,WS_RECV_START,1516285936538,123
323,WS_RECV_END,1516285938200,123
323,PLAYER_SLEEPBEFORE_START,1516285938200,124
323,PLAYER_SLEEPBEFORE_END,1516285962605,124
323,WS_SEND_START,1516285962605,124
323,WS_SEND_END,1516285962605,124
323,WS_RECV_START,1516285962605,125
323,WS_RECV_END,1516285962966,125
323,PLAYER_SLEEPBEFORE_START,1516285962966,126
323,PLAYER_SLEEPBEFORE_END,1516285983478,126
323,WS_SEND_START,1516285983478,126
323,WS_SEND_END,1516285983478,126
323,PLAYER_SLEEPBEFORE_START,1516285983478,127
323,PLAYER_SLEEPBEFORE_END,1516285986532,127
323,WS_SEND_START,1516285986532,127
323,WS_SEND_END,1516285986532,127
323,WS_RECV_START,1516285986532,128
323,WS_RECV_END,1516285988678,128
323,PLAYER_SLEEPBEFORE_START,1516285988678,129
323,PLAYER_SLEEPBEFORE_END,1516285988699,129
323,WS_SEND_START,1516285988699,129
323,WS_SEND_END,1516285988699,129
323,WS_RECV_START,1516285988699,130
323,WS_RECV_END,1516285989552,130
323,PLAYER_SLEEPBEFORE_START,1516285989552,131
323,PLAYER_SLEEPBEFORE_END,1516286011176,131
323,WS_SEND_START,1516286011176,131
323,WS_SEND_END,1516286011176,131
323,PLAYER_SLEEPBEFORE_START,1516286011176,132
323,PLAYER_SLEEPBEFORE_END,1516286014256,132
323,WS_SEND_START,1516286014257,132
323,WS_SEND_END,1516286014257,132
323,WS_RECV_START,1516286014257,133
323,WS_RECV_END,1516286017589,133
323,PLAYER_SLEEPBEFORE_START,1516286017589,134
323,PLAYER_SLEEPBEFORE_END,1516286038806,134
323,WS_SEND_START,1516286038806,134
323,WS_SEND_END,1516286038806,134
323,PLAYER_SLEEPBEFORE_START,1516286038806,135
323,PLAYER_SLEEPBEFORE_END,1516286041996,135
323,WS_SEND_START,1516286041996,135
323,WS_SEND_END,1516286041996,135
323,WS_RECV_START,1516286041996,136
323,WS_RECV_END,1516286042993,136
323,PLAYER_SLEEPBEFORE_START,1516286042993,137
323,PLAYER_SLEEPBEFORE_END,1516286043000,137
323,WS_SEND_START,1516286043000,137
323,WS_SEND_END,1516286043000,137
323,WS_RECV_START,1516286043000,138
323,WS_RECV_END,1516286043606,138
323,PLAYER_SLEEPBEFORE_START,1516286043606,139
323,PLAYER_SLEEPBEFORE_END,1516286044296,139
323,WS_SEND_START,1516286044296,139
323,WS_SEND_END,1516286044296,139
323,WS_RECV_START,1516286044296,140
323,WS_RECV_END,1516286045125,140
323,PLAYER_SLEEPBEFORE_START,1516286045125,141
323,PLAYER_SLEEPBEFORE_END,1516286045781,141
323,WS_SEND_START,1516286045781,141
323,WS_SEND_END,1516286045781,141
323,WS_RECV_START,1516286045781,142
323,WS_RECV_END,1516286047612,142
323,PLAYER_SLEEPBEFORE_START,1516286047612,143
323,PLAYER_SLEEPBEFORE_END,1516286047669,143
323,WS_SEND_START,1516286047669,143
323,WS_SEND_END,1516286047669,143
323,WS_RECV_START,1516286047669,144
323,WS_RECV_END,1516286049688,144
323,PLAYER_SLEEPBEFORE_START,1516286049688,145
323,PLAYER_SLEEPBEFORE_END,1516286065751,145
323,REQ_START,1516286065751,145
323,REQ_END,1516286065761,145
323,PLAYER_SLEEPBEFORE_START,1516286065761,146
323,PLAYER_SLEEPBEFORE_END,1516286074638,146
323,WS_SEND_START,1516286074638,146
323,WS_SEND_END,1516286074638,146
323,WS_RECV_START,1516286074638,147
323,WS_RECV_END,1516286075457,147
323,PLAYER_SLEEPBEFORE_START,1516286075457,148
323,PLAYER_SLEEPBEFORE_END,1516286097379,148
323,WS_SEND_START,1516286097379,148
323,WS_SEND_END,1516286097379,148
323,PLAYER_SLEEPBEFORE_START,1516286097379,149
323,PLAYER_SLEEPBEFORE_END,1516286099807,149
323,WS_SEND_START,1516286099807,149
323,WS_SEND_END,1516286099807,149
323,WS_RECV_START,1516286099807,150
323,WS_RECV_END,1516286100264,150
323,PLAYER_SLEEPBEFORE_START,1516286100264,151
323,PLAYER_SLEEPBEFORE_END,1516286100474,151
323,WS_SEND_START,1516286100474,151
323,WS_SEND_END,1516286100474,151
323,WS_RECV_START,1516286100474,152
323,WS_RECV_END,1516286100955,152
323,PLAYER_SLEEPBEFORE_START,1516286100955,153
323,PLAYER_SLEEPBEFORE_END,1516286124882,153
323,WS_SEND_START,1516286124882,153
323,WS_SEND_END,1516286124882,153
323,WS_RECV_START,1516286124882,154
323,WS_RECV_END,1516286126662,154
323,PLAYER_SLEEPBEFORE_START,1516286126662,155
323,PLAYER_SLEEPBEFORE_END,1516286149220,155
323,WS_SEND_START,1516286149220,155
323,WS_SEND_END,1516286149220,155
323,PLAYER_SLEEPBEFORE_START,1516286149220,156
323,PLAYER_SLEEPBEFORE_END,1516286152494,156
323,WS_SEND_START,1516286152494,156
323,WS_SEND_END,1516286152494,156
323,WS_RECV_START,1516286152494,157
323,WS_RECV_END,1516286154937,157
323,PLAYER_SLEEPBEFORE_START,1516286154937,158
323,PLAYER_SLEEPBEFORE_END,1516286154947,158
323,WS_SEND_START,1516286154948,158
323,WS_SEND_END,1516286154948,158
323,WS_RECV_START,1516286154948,159
323,WS_RECV_END,1516286157883,159
323,PLAYER_SLEEPBEFORE_START,1516286157883,160
323,PLAYER_SLEEPBEFORE_END,1516286158058,160
323,WS_SEND_START,1516286158058,160
323,WS_SEND_END,1516286158058,160
323,WS_RECV_START,1516286158058,161
323,WS_RECV_END,1516286161700,161
323,PLAYER_SLEEPBEFORE_START,1516286161700,162
323,PLAYER_SLEEPBEFORE_END,1516286161725,162
323,WS_SEND_START,1516286161725,162
323,WS_SEND_END,1516286161725,162
323,WS_RECV_START,1516286161725,163
323,WS_RECV_END,1516286164916,163
323,PLAYER_SLEEPBEFORE_START,1516286164916,164
323,PLAYER_SLEEPBEFORE_END,1516286185728,164
323,WS_SEND_START,1516286185728,164
323,WS_SEND_END,1516286185728,164
323,WS_RECV_START,1516286185728,165
323,WS_RECV_END,1516286192131,165
323,PLAYER_SLEEPBEFORE_START,1516286192131,166
323,PLAYER_SLEEPBEFORE_END,1516286214586,166
323,WS_SEND_START,1516286214586,166
323,WS_SEND_END,1516286214586,166
323,WS_RECV_START,1516286214586,167
323,WS_RECV_END,1516286220165,167
323,PLAYER_SLEEPBEFORE_START,1516286220165,168
323,PLAYER_SLEEPBEFORE_END,1516286247522,168
323,WS_SEND_START,1516286247522,168
323,WS_SEND_END,1516286247522,168
323,WS_RECV_START,1516286247522,169
323,WS_RECV_END,1516286254249,169
323,PLAYER_SLEEPBEFORE_START,1516286254249,170
323,PLAYER_SLEEPBEFORE_END,1516286254258,170
323,WS_SEND_START,1516286254258,170
323,WS_SEND_END,1516286254258,170
323,WS_RECV_START,1516286254258,171
323,WS_RECV_END,1516286257679,171
323,PLAYER_SLEEPBEFORE_START,1516286257679,172
323,PLAYER_SLEEPBEFORE_END,1516286258048,172
323,WS_SEND_START,1516286258048,172
323,WS_SEND_END,1516286258048,172
323,WS_RECV_START,1516286258048,173
323,WS_RECV_END,1516286263255,173
323,PLAYER_SLEEPBEFORE_START,1516286263255,174
323,PLAYER_SLEEPBEFORE_END,1516286263296,174
323,WS_SEND_START,1516286263296,174
323,WS_SEND_END,1516286263296,174
323,WS_RECV_START,1516286263296,175
323,WS_RECV_END,1516286266083,175
323,PLAYER_SLEEPBEFORE_START,1516286266083,176
323,PLAYER_SLEEPBEFORE_END,1516286287845,176
323,WS_SEND_START,1516286287845,176
323,WS_SEND_END,1516286287845,176
323,PLAYER_SLEEPBEFORE_START,1516286287845,177
323,PLAYER_SLEEPBEFORE_END,1516286290363,177
323,WS_SEND_START,1516286290363,177
323,WS_SEND_END,1516286290363,177
323,WS_RECV_START,1516286290363,178
323,WS_RECV_END,1516286291417,178
323,PLAYER_SLEEPBEFORE_START,1516286291417,179
323,PLAYER_SLEEPBEFORE_END,1516286313758,179
323,WS_SEND_START,1516286313758,179
323,WS_SEND_END,1516286313758,179
323,WS_RECV_START,1516286313758,180
323,WS_RECV_END,1516286316768,180
323,PLAYER_SLEEPBEFORE_START,1516286316768,181
323,PLAYER_SLEEPBEFORE_END,1516286317212,181
323,WS_SEND_START,1516286317212,181
323,WS_SEND_END,1516286317212,181
323,WS_RECV_START,1516286317212,182
323,WS_RECV_END,1516286319046,182
323,PLAYER_SLEEPBEFORE_START,1516286319046,183
323,PLAYER_SLEEPBEFORE_END,1516286319570,183
323,WS_SEND_START,1516286319570,183
323,WS_SEND_END,1516286319570,183
323,WS_RECV_START,1516286319570,184
323,WS_RECV_END,1516286321305,184
323,PLAYER_SLEEPBEFORE_START,1516286321305,185
323,PLAYER_SLEEPBEFORE_END,1516286321573,185
323,WS_SEND_START,1516286321573,185
323,WS_SEND_END,1516286321573,185
323,WS_RECV_START,1516286321573,186
323,WS_RECV_END,1516286322945,186
323,PLAYER_SLEEPBEFORE_START,1516286322945,187
323,PLAYER_SLEEPBEFORE_END,1516286345445,187
323,WS_SEND_START,1516286345445,187
323,WS_SEND_END,1516286345445,187
323,WS_RECV_START,1516286345445,188
323,WS_RECV_END,1516286345742,188
323,PLAYER_SLEEPBEFORE_START,1516286345742,189
323,PLAYER_SLEEPBEFORE_END,1516286351982,189
323,WS_SEND_START,1516286351982,189
323,WS_SEND_END,1516286351982,189
323,WS_RECV_START,1516286351982,190
323,WS_RECV_END,1516286353144,190
323,PLAYER_SLEEPBEFORE_START,1516286353144,191
323,PLAYER_SLEEPBEFORE_END,1516286355059,191
323,WS_SEND_START,1516286355059,191
323,WS_SEND_END,1516286355059,191
323,WS_RECV_START,1516286355059,192
323,WS_RECV_END,1516286355731,192
323,PLAYER_SLEEPBEFORE_START,1516286355731,193
323,PLAYER_SLEEPBEFORE_END,1516286355859,193
323,WS_SEND_START,1516286355860,193
323,WS_SEND_END,1516286355860,193
323,WS_RECV_START,1516286355860,194
323,WS_RECV_END,1516286356398,194
323,PLAYER_SLEEPBEFORE_START,1516286356398,195
323,PLAYER_SLEEPBEFORE_END,1516286358153,195
323,WS_SEND_START,1516286358153,195
323,WS_SEND_END,1516286358153,195
323,WS_RECV_START,1516286358153,196
323,WS_RECV_END,1516286358715,196
323,PLAYER_SLEEPBEFORE_START,1516286358715,197
323,PLAYER_SLEEPBEFORE_END,1516286360519,197
323,WS_SEND_START,1516286360519,197
323,WS_SEND_END,1516286360519,197
323,WS_RECV_START,1516286360519,198
323,WS_RECV_END,1516286361664,198
323,PLAYER_SLEEPBEFORE_START,1516286361664,199
323,PLAYER_SLEEPBEFORE_END,1516286373519,199
323,WS_SEND_START,1516286373519,199
323,WS_SEND_END,1516286373519,199
323,PLAYER_SLEEPBEFORE_START,1516286373519,200
323,PLAYER_SLEEPBEFORE_END,1516286377607,200
323,WS_SEND_START,1516286377607,200
323,WS_SEND_END,1516286377607,200
323,WS_RECV_START,1516286377607,201
323,WS_RECV_END,1516286377848,201
323,PLAYER_SLEEPBEFORE_START,1516286377848,202
323,PLAYER_SLEEPBEFORE_END,1516286377862,202
323,WS_SEND_START,1516286377862,202
323,WS_SEND_END,1516286377862,202
323,WS_RECV_START,1516286377862,203
323,WS_RECV_END,1516286378287,203
323,PLAYER_SLEEPBEFORE_START,1516286378287,204
323,PLAYER_SLEEPBEFORE_END,1516286397936,204
323,WS_SEND_START,1516286397936,204
323,WS_SEND_END,1516286397936,204
323,PLAYER_SLEEPBEFORE_START,1516286397936,205
323,PLAYER_SLEEPBEFORE_END,1516286401834,205
323,WS_SEND_START,1516286401834,205
323,WS_SEND_END,1516286401834,205
323,WS_RECV_START,1516286401834,206
323,WS_RECV_END,1516286402011,206
323,PLAYER_SLEEPBEFORE_START,1516286402011,207
323,PLAYER_SLEEPBEFORE_END,1516286418942,207
323,REQ_START,1516286418942,207
323,REQ_END,1516286418950,207
323,PLAYER_SLEEPBEFORE_START,1516286418950,208
323,PLAYER_SLEEPBEFORE_END,1516286425802,208
323,WS_CLOSE_START,1516286425802,208
323,WS_CLOSE_END,1516286425802,208
323,PLAYER_DONE,1516286425802
