# --sessions 540 --app-url=http://shinyloadtest.rstudioservices.com/cran_explorer --output-dir test540 --overwrite-output --log-level warn --start-interval 500 15min.log
thread_id,event,timestamp,input_line_number,comment
337,PLAYER_SESSION_CREATE,1516285277664
337,PLAYER_START_INTERVAL_START,1516285277664
337,PLAYER_START_INTERVAL_END,1516285446164
337,REQ_HOME_START,1516285446164,2
337,REQ_HOME_END,1516285446343,2
337,REQ_START,1516285446343,3
337,REQ_END,1516285446543,3
337,REQ_START,1516285446543,4
337,REQ_END,1516285446574,4
337,REQ_START,1516285446574,5
337,REQ_END,1516285446608,5
337,REQ_START,1516285446608,6
337,REQ_END,1516285446642,6
337,REQ_START,1516285446642,7
337,REQ_END,1516285446676,7
337,REQ_START,1516285446676,8
337,REQ_END,1516285446710,8
337,REQ_START,1516285446710,9
337,REQ_END,1516285447201,9
337,REQ_START,1516285447201,10
337,REQ_END,1516285447209,10
337,REQ_START,1516285447209,11
337,REQ_END,1516285447288,11
337,REQ_START,1516285447288,12
337,REQ_END,1516285447299,12
337,REQ_START,1516285447299,13
337,REQ_END,1516285447331,13
337,REQ_START,1516285447331,14
337,REQ_END,1516285447348,14
337,REQ_START,1516285447348,15
337,REQ_END,1516285447380,15
337,REQ_TOK_START,1516285447380,16
337,REQ_TOK_END,1516285447388,16
337,REQ_SINF_START,1516285447388,17
337,REQ_SINF_END,1516285447395,17
337,WS_OPEN_START,1516285447395,18
337,WS_OPEN_END,1516285447401,18
337,REQ_START,1516285447401,19
337,REQ_END,1516285447429,19
337,WS_RECV_START,1516285447429,20
337,WS_RECV_END,1516285447429,20
337,PLAYER_SLEEPBEFORE_START,1516285447429,21
337,PLAYER_SLEEPBEFORE_END,1516285447434,21
337,WS_SEND_START,1516285447435,21
337,WS_SEND_END,1516285447435,21
337,PLAYER_SLEEPBEFORE_START,1516285447435,22
337,PLAYER_SLEEPBEFORE_END,1516285447436,22
337,WS_SEND_START,1516285447436,22
337,WS_SEND_END,1516285447436,22
337,WS_RECV_INIT_START,1516285447436,23
337,WS_RECV_INIT_END,1516285447465,23
337,WS_RECV_START,1516285447465,24
337,WS_RECV_END,1516285447528,24
337,PLAYER_SLEEPBEFORE_START,1516285447528,25
337,PLAYER_SLEEPBEFORE_END,1516285447535,25
337,REQ_START,1516285447535,25
337,REQ_END,1516285447599,25
337,PLAYER_SLEEPBEFORE_START,1516285447599,26
337,PLAYER_SLEEPBEFORE_END,1516285447601,26
337,REQ_START,1516285447601,26
337,REQ_END,1516285447639,26
337,PLAYER_SLEEPBEFORE_START,1516285447639,27
337,PLAYER_SLEEPBEFORE_END,1516285447647,27
337,REQ_START,1516285447647,27
337,REQ_END,1516285447683,27
337,PLAYER_SLEEPBEFORE_START,1516285447683,28
337,PLAYER_SLEEPBEFORE_END,1516285447969,28
337,REQ_START,1516285447969,28
337,REQ_END,1516285448071,28
337,PLAYER_SLEEPBEFORE_START,1516285448071,29
337,PLAYER_SLEEPBEFORE_END,1516285448246,29
337,WS_SEND_START,1516285448246,29
337,WS_SEND_END,1516285448246,29
337,WS_RECV_START,1516285448246,30
337,WS_RECV_END,1516285448458,30
337,PLAYER_SLEEPBEFORE_START,1516285448458,31
337,PLAYER_SLEEPBEFORE_END,1516285448469,31
337,REQ_START,1516285448469,31
337,REQ_END,1516285448502,31
337,PLAYER_SLEEPBEFORE_START,1516285448502,32
337,PLAYER_SLEEPBEFORE_END,1516285476647,32
337,WS_SEND_START,1516285476648,32
337,WS_SEND_END,1516285476648,32
337,WS_RECV_START,1516285476648,33
337,WS_RECV_END,1516285476784,33
337,PLAYER_SLEEPBEFORE_START,1516285476784,34
337,PLAYER_SLEEPBEFORE_END,1516285502695,34
337,WS_SEND_START,1516285502695,34
337,WS_SEND_END,1516285502695,34
337,WS_RECV_START,1516285502695,35
337,WS_RECV_END,1516285502827,35
337,PLAYER_SLEEPBEFORE_START,1516285502827,36
337,PLAYER_SLEEPBEFORE_END,1516285502836,36
337,WS_SEND_START,1516285502836,36
337,WS_SEND_END,1516285502836,36
337,WS_RECV_START,1516285502836,37
337,WS_RECV_END,1516285502894,37
337,PLAYER_SLEEPBEFORE_START,1516285502894,38
337,PLAYER_SLEEPBEFORE_END,1516285506089,38
337,WS_SEND_START,1516285506089,38
337,WS_SEND_END,1516285506089,38
337,WS_RECV_START,1516285506089,39
337,WS_RECV_END,1516285506231,39
337,PLAYER_SLEEPBEFORE_START,1516285506231,40
337,PLAYER_SLEEPBEFORE_END,1516285506278,40
337,WS_SEND_START,1516285506278,40
337,WS_SEND_END,1516285506278,40
337,WS_RECV_START,1516285506278,41
337,WS_RECV_END,1516285506464,41
337,PLAYER_SLEEPBEFORE_START,1516285506464,42
337,PLAYER_SLEEPBEFORE_END,1516285524599,42
337,WS_SEND_START,1516285524599,42
337,WS_SEND_END,1516285524599,42
337,WS_RECV_START,1516285524599,43
337,WS_RECV_END,1516285525061,43
337,PLAYER_SLEEPBEFORE_START,1516285525061,44
337,PLAYER_SLEEPBEFORE_END,1516285525073,44
337,WS_SEND_START,1516285525073,44
337,WS_SEND_END,1516285525073,44
337,WS_RECV_START,1516285525073,45
337,WS_RECV_END,1516285525269,45
337,PLAYER_SLEEPBEFORE_START,1516285525269,46
337,PLAYER_SLEEPBEFORE_END,1516285526529,46
337,WS_SEND_START,1516285526529,46
337,WS_SEND_END,1516285526529,46
337,WS_RECV_START,1516285526529,47
337,WS_RECV_END,1516285526741,47
337,PLAYER_SLEEPBEFORE_START,1516285526741,48
337,PLAYER_SLEEPBEFORE_END,1516285528061,48
337,WS_SEND_START,1516285528061,48
337,WS_SEND_END,1516285528061,48
337,WS_RECV_START,1516285528061,49
337,WS_RECV_END,1516285528250,49
337,PLAYER_SLEEPBEFORE_START,1516285528250,50
337,PLAYER_SLEEPBEFORE_END,1516285528274,50
337,WS_SEND_START,1516285528274,50
337,WS_SEND_END,1516285528274,50
337,WS_RECV_START,1516285528274,51
337,WS_RECV_END,1516285528423,51
337,PLAYER_SLEEPBEFORE_START,1516285528423,52
337,PLAYER_SLEEPBEFORE_END,1516285550987,52
337,WS_SEND_START,1516285550987,52
337,WS_SEND_END,1516285550987,52
337,WS_RECV_START,1516285550987,53
337,WS_RECV_END,1516285551264,53
337,PLAYER_SLEEPBEFORE_START,1516285551264,54
337,PLAYER_SLEEPBEFORE_END,1516285572567,54
337,WS_SEND_START,1516285572567,54
337,WS_SEND_END,1516285572567,54
337,PLAYER_SLEEPBEFORE_START,1516285572567,55
337,PLAYER_SLEEPBEFORE_END,1516285574508,55
337,WS_SEND_START,1516285574508,55
337,WS_SEND_END,1516285574508,55
337,WS_RECV_START,1516285574508,56
337,WS_RECV_END,1516285574774,56
337,PLAYER_SLEEPBEFORE_START,1516285574774,57
337,PLAYER_SLEEPBEFORE_END,1516285597646,57
337,WS_SEND_START,1516285597646,57
337,WS_SEND_END,1516285597646,57
337,WS_RECV_START,1516285597646,58
337,WS_RECV_END,1516285597902,58
337,PLAYER_SLEEPBEFORE_START,1516285597902,59
337,PLAYER_SLEEPBEFORE_END,1516285600230,59
337,WS_SEND_START,1516285600230,59
337,WS_SEND_END,1516285600230,59
337,WS_RECV_START,1516285600230,60
337,WS_RECV_END,1516285600856,60
337,PLAYER_SLEEPBEFORE_START,1516285600856,61
337,PLAYER_SLEEPBEFORE_END,1516285604448,61
337,WS_SEND_START,1516285604448,61
337,WS_SEND_END,1516285604448,61
337,WS_RECV_START,1516285604448,62
337,WS_RECV_END,1516285604863,62
337,PLAYER_SLEEPBEFORE_START,1516285604863,63
337,PLAYER_SLEEPBEFORE_END,1516285624125,63
337,WS_SEND_START,1516285624125,63
337,WS_SEND_END,1516285624125,63
337,WS_RECV_START,1516285624125,64
337,WS_RECV_END,1516285624460,64
337,PLAYER_SLEEPBEFORE_START,1516285624460,65
337,PLAYER_SLEEPBEFORE_END,1516285651277,65
337,WS_SEND_START,1516285651277,65
337,WS_SEND_END,1516285651277,65
337,WS_RECV_START,1516285651277,66
337,WS_RECV_END,1516285651562,66
337,PLAYER_SLEEPBEFORE_START,1516285651562,67
337,PLAYER_SLEEPBEFORE_END,1516285653069,67
337,WS_SEND_START,1516285653069,67
337,WS_SEND_END,1516285653069,67
337,WS_RECV_START,1516285653069,68
337,WS_RECV_END,1516285653587,68
337,PLAYER_SLEEPBEFORE_START,1516285653587,69
337,PLAYER_SLEEPBEFORE_END,1516285675586,69
337,WS_SEND_START,1516285675586,69
337,WS_SEND_END,1516285675586,69
337,WS_RECV_START,1516285675586,70
337,WS_RECV_END,1516285676133,70
337,PLAYER_SLEEPBEFORE_START,1516285676133,71
337,PLAYER_SLEEPBEFORE_END,1516285700908,71
337,WS_SEND_START,1516285700908,71
337,WS_SEND_END,1516285700908,71
337,PLAYER_SLEEPBEFORE_START,1516285700908,72
337,PLAYER_SLEEPBEFORE_END,1516285703515,72
337,WS_SEND_START,1516285703515,72
337,WS_SEND_END,1516285703515,72
337,WS_RECV_START,1516285703515,73
337,WS_RECV_END,1516285703824,73
337,PLAYER_SLEEPBEFORE_START,1516285703824,74
337,PLAYER_SLEEPBEFORE_END,1516285703833,74
337,WS_SEND_START,1516285703833,74
337,WS_SEND_END,1516285703833,74
337,WS_RECV_START,1516285703833,75
337,WS_RECV_END,1516285703925,75
337,PLAYER_SLEEPBEFORE_START,1516285703925,76
337,PLAYER_SLEEPBEFORE_END,1516285705431,76
337,WS_SEND_START,1516285705431,76
337,WS_SEND_END,1516285705431,76
337,WS_RECV_START,1516285705431,77
337,WS_RECV_END,1516285705720,77
337,PLAYER_SLEEPBEFORE_START,1516285705720,78
337,PLAYER_SLEEPBEFORE_END,1516285706588,78
337,WS_SEND_START,1516285706588,78
337,WS_SEND_END,1516285706588,78
337,WS_RECV_START,1516285706588,79
337,WS_RECV_END,1516285706608,79
337,PLAYER_SLEEPBEFORE_START,1516285706608,80
337,PLAYER_SLEEPBEFORE_END,1516285714274,80
337,WS_SEND_START,1516285714274,80
337,WS_SEND_END,1516285714274,80
337,WS_RECV_START,1516285714274,81
337,WS_RECV_END,1516285714512,81
337,PLAYER_SLEEPBEFORE_START,1516285714512,82
337,PLAYER_SLEEPBEFORE_END,1516285715614,82
337,WS_SEND_START,1516285715614,82
337,WS_SEND_END,1516285715614,82
337,WS_RECV_START,1516285715614,83
337,WS_RECV_END,1516285715991,83
337,PLAYER_SLEEPBEFORE_START,1516285715991,84
337,PLAYER_SLEEPBEFORE_END,1516285716938,84
337,WS_SEND_START,1516285716938,84
337,WS_SEND_END,1516285716939,84
337,WS_RECV_START,1516285716939,85
337,WS_RECV_END,1516285716989,85
337,PLAYER_SLEEPBEFORE_START,1516285716989,86
337,PLAYER_SLEEPBEFORE_END,1516285721161,86
337,WS_SEND_START,1516285721161,86
337,WS_SEND_END,1516285721161,86
337,WS_RECV_START,1516285721161,87
337,WS_RECV_END,1516285721422,87
337,PLAYER_SLEEPBEFORE_START,1516285721422,88
337,PLAYER_SLEEPBEFORE_END,1516285721431,88
337,WS_SEND_START,1516285721431,88
337,WS_SEND_END,1516285721431,88
337,WS_RECV_START,1516285721431,89
337,WS_RECV_END,1516285721587,89
337,PLAYER_SLEEPBEFORE_START,1516285721587,90
337,PLAYER_SLEEPBEFORE_END,1516285748784,90
337,REQ_START,1516285748784,90
337,REQ_END,1516285748793,90
337,PLAYER_SLEEPBEFORE_START,1516285748793,91
337,PLAYER_SLEEPBEFORE_END,1516285756682,91
337,WS_SEND_START,1516285756682,91
337,WS_SEND_END,1516285756682,91
337,WS_RECV_START,1516285756682,92
337,WS_RECV_END,1516285757880,92
337,PLAYER_SLEEPBEFORE_START,1516285757880,93
337,PLAYER_SLEEPBEFORE_END,1516285757895,93
337,WS_SEND_START,1516285757895,93
337,WS_SEND_END,1516285757895,93
337,WS_RECV_START,1516285757895,94
337,WS_RECV_END,1516285758270,94
337,PLAYER_SLEEPBEFORE_START,1516285758270,95
337,PLAYER_SLEEPBEFORE_END,1516285781825,95
337,WS_SEND_START,1516285781825,95
337,WS_SEND_END,1516285781825,95
337,WS_RECV_START,1516285781825,96
337,WS_RECV_END,1516285783959,96
337,PLAYER_SLEEPBEFORE_START,1516285783959,97
337,PLAYER_SLEEPBEFORE_END,1516285806399,97
337,WS_SEND_START,1516285806399,97
337,WS_SEND_END,1516285806399,97
337,WS_RECV_START,1516285806399,98
337,WS_RECV_END,1516285807962,98
337,PLAYER_SLEEPBEFORE_START,1516285807962,99
337,PLAYER_SLEEPBEFORE_END,1516285807984,99
337,WS_SEND_START,1516285807984,99
337,WS_SEND_END,1516285807984,99
337,WS_RECV_START,1516285807984,100
337,WS_RECV_END,1516285809327,100
337,PLAYER_SLEEPBEFORE_START,1516285809327,101
337,PLAYER_SLEEPBEFORE_END,1516285832886,101
337,WS_SEND_START,1516285832886,101
337,WS_SEND_END,1516285832886,101
337,WS_RECV_START,1516285832886,102
337,WS_RECV_END,1516285834890,102
337,PLAYER_SLEEPBEFORE_START,1516285834890,103
337,PLAYER_SLEEPBEFORE_END,1516285858515,103
337,WS_SEND_START,1516285858515,103
337,WS_SEND_END,1516285858515,103
337,WS_RECV_START,1516285858515,104
337,WS_RECV_END,1516285858943,104
337,PLAYER_SLEEPBEFORE_START,1516285858943,105
337,PLAYER_SLEEPBEFORE_END,1516285884320,105
337,WS_SEND_START,1516285884320,105
337,WS_SEND_END,1516285884320,105
337,WS_RECV_START,1516285884320,106
337,WS_RECV_END,1516285885068,106
337,PLAYER_SLEEPBEFORE_START,1516285885068,107
337,PLAYER_SLEEPBEFORE_END,1516285908491,107
337,WS_SEND_START,1516285908491,107
337,WS_SEND_END,1516285908491,107
337,WS_RECV_START,1516285908491,108
337,WS_RECV_END,1516285910774,108
337,PLAYER_SLEEPBEFORE_START,1516285910774,109
337,PLAYER_SLEEPBEFORE_END,1516285910783,109
337,WS_SEND_START,1516285910783,109
337,WS_SEND_END,1516285910783,109
337,WS_RECV_START,1516285910783,110
337,WS_RECV_END,1516285911962,110
337,PLAYER_SLEEPBEFORE_START,1516285911962,111
337,PLAYER_SLEEPBEFORE_END,1516285912921,111
337,WS_SEND_START,1516285912921,111
337,WS_SEND_END,1516285912921,111
337,WS_RECV_START,1516285912921,112
337,WS_RECV_END,1516285914876,112
337,PLAYER_SLEEPBEFORE_START,1516285914876,113
337,PLAYER_SLEEPBEFORE_END,1516285915438,113
337,WS_SEND_START,1516285915438,113
337,WS_SEND_END,1516285915439,113
337,WS_RECV_START,1516285915439,114
337,WS_RECV_END,1516285916537,114
337,PLAYER_SLEEPBEFORE_START,1516285916537,115
337,PLAYER_SLEEPBEFORE_END,1516285916546,115
337,WS_SEND_START,1516285916546,115
337,WS_SEND_END,1516285916546,115
337,WS_RECV_START,1516285916547,116
337,WS_RECV_END,1516285918313,116
337,PLAYER_SLEEPBEFORE_START,1516285918313,117
337,PLAYER_SLEEPBEFORE_END,1516285938673,117
337,WS_SEND_START,1516285938673,117
337,WS_SEND_END,1516285938673,117
337,PLAYER_SLEEPBEFORE_START,1516285938673,118
337,PLAYER_SLEEPBEFORE_END,1516285942426,118
337,WS_SEND_START,1516285942426,118
337,WS_SEND_END,1516285942426,118
337,WS_RECV_START,1516285942426,119
337,WS_RECV_END,1516285943458,119
337,PLAYER_SLEEPBEFORE_START,1516285943458,120
337,PLAYER_SLEEPBEFORE_END,1516285944446,120
337,WS_SEND_START,1516285944446,120
337,WS_SEND_END,1516285944447,120
337,WS_RECV_START,1516285944447,121
337,WS_RECV_END,1516285946047,121
337,PLAYER_SLEEPBEFORE_START,1516285946047,122
337,PLAYER_SLEEPBEFORE_END,1516285947232,122
337,WS_SEND_START,1516285947232,122
337,WS_SEND_END,1516285947232,122
337,WS_RECV_START,1516285947232,123
337,WS_RECV_END,1516285948338,123
337,PLAYER_SLEEPBEFORE_START,1516285948338,124
337,PLAYER_SLEEPBEFORE_END,1516285972743,124
337,WS_SEND_START,1516285972743,124
337,WS_SEND_END,1516285972743,124
337,WS_RECV_START,1516285972743,125
337,WS_RECV_END,1516285973603,125
337,PLAYER_SLEEPBEFORE_START,1516285973603,126
337,PLAYER_SLEEPBEFORE_END,1516285994115,126
337,WS_SEND_START,1516285994115,126
337,WS_SEND_END,1516285994116,126
337,PLAYER_SLEEPBEFORE_START,1516285994116,127
337,PLAYER_SLEEPBEFORE_END,1516285997170,127
337,WS_SEND_START,1516285997170,127
337,WS_SEND_END,1516285997170,127
337,WS_RECV_START,1516285997170,128
337,WS_RECV_END,1516285998131,128
337,PLAYER_SLEEPBEFORE_START,1516285998131,129
337,PLAYER_SLEEPBEFORE_END,1516285998151,129
337,WS_SEND_START,1516285998151,129
337,WS_SEND_END,1516285998151,129
337,WS_RECV_START,1516285998151,130
337,WS_RECV_END,1516285998464,130
337,PLAYER_SLEEPBEFORE_START,1516285998464,131
337,PLAYER_SLEEPBEFORE_END,1516286020088,131
337,WS_SEND_START,1516286020088,131
337,WS_SEND_END,1516286020089,131
337,PLAYER_SLEEPBEFORE_START,1516286020089,132
337,PLAYER_SLEEPBEFORE_END,1516286023169,132
337,WS_SEND_START,1516286023169,132
337,WS_SEND_END,1516286023169,132
337,WS_RECV_START,1516286023169,133
337,WS_RECV_END,1516286024545,133
337,PLAYER_SLEEPBEFORE_START,1516286024545,134
337,PLAYER_SLEEPBEFORE_END,1516286045763,134
337,WS_SEND_START,1516286045763,134
337,WS_SEND_END,1516286045763,134
337,PLAYER_SLEEPBEFORE_START,1516286045763,135
337,PLAYER_SLEEPBEFORE_END,1516286048953,135
337,WS_SEND_START,1516286048953,135
337,WS_SEND_END,1516286048953,135
337,WS_RECV_START,1516286048953,136
337,WS_RECV_END,1516286050406,136
337,PLAYER_SLEEPBEFORE_START,1516286050406,137
337,PLAYER_SLEEPBEFORE_END,1516286050413,137
337,WS_SEND_START,1516286050413,137
337,WS_SEND_END,1516286050413,137
337,WS_RECV_START,1516286050413,138
337,WS_RECV_END,1516286051130,138
337,PLAYER_SLEEPBEFORE_START,1516286051130,139
337,PLAYER_SLEEPBEFORE_END,1516286051820,139
337,WS_SEND_START,1516286051820,139
337,WS_SEND_END,1516286051820,139
337,WS_RECV_START,1516286051820,140
337,WS_RECV_END,1516286052020,140
337,PLAYER_SLEEPBEFORE_START,1516286052020,141
337,PLAYER_SLEEPBEFORE_END,1516286052675,141
337,WS_SEND_START,1516286052675,141
337,WS_SEND_END,1516286052675,141
337,WS_RECV_START,1516286052675,142
337,WS_RECV_END,1516286053361,142
337,PLAYER_SLEEPBEFORE_START,1516286053361,143
337,PLAYER_SLEEPBEFORE_END,1516286053418,143
337,WS_SEND_START,1516286053418,143
337,WS_SEND_END,1516286053418,143
337,WS_RECV_START,1516286053418,144
337,WS_RECV_END,1516286054689,144
337,PLAYER_SLEEPBEFORE_START,1516286054689,145
337,PLAYER_SLEEPBEFORE_END,1516286070751,145
337,REQ_START,1516286070751,145
337,REQ_END,1516286070759,145
337,PLAYER_SLEEPBEFORE_START,1516286070759,146
337,PLAYER_SLEEPBEFORE_END,1516286079636,146
337,WS_SEND_START,1516286079636,146
337,WS_SEND_END,1516286079636,146
337,WS_RECV_START,1516286079636,147
337,WS_RECV_END,1516286081358,147
337,PLAYER_SLEEPBEFORE_START,1516286081358,148
337,PLAYER_SLEEPBEFORE_END,1516286103280,148
337,WS_SEND_START,1516286103280,148
337,WS_SEND_END,1516286103280,148
337,PLAYER_SLEEPBEFORE_START,1516286103280,149
337,PLAYER_SLEEPBEFORE_END,1516286105708,149
337,WS_SEND_START,1516286105708,149
337,WS_SEND_END,1516286105708,149
337,WS_RECV_START,1516286105708,150
337,WS_RECV_END,1516286105823,150
337,PLAYER_SLEEPBEFORE_START,1516286105823,151
337,PLAYER_SLEEPBEFORE_END,1516286106033,151
337,WS_SEND_START,1516286106033,151
337,WS_SEND_END,1516286106033,151
337,WS_RECV_START,1516286106033,152
337,WS_RECV_END,1516286106279,152
337,PLAYER_SLEEPBEFORE_START,1516286106279,153
337,PLAYER_SLEEPBEFORE_END,1516286130206,153
337,WS_SEND_START,1516286130206,153
337,WS_SEND_END,1516286130207,153
337,WS_RECV_START,1516286130207,154
337,WS_RECV_END,1516286132333,154
337,PLAYER_SLEEPBEFORE_START,1516286132333,155
337,PLAYER_SLEEPBEFORE_END,1516286154891,155
337,WS_SEND_START,1516286154891,155
337,WS_SEND_END,1516286154891,155
337,PLAYER_SLEEPBEFORE_START,1516286154891,156
337,PLAYER_SLEEPBEFORE_END,1516286158165,156
337,WS_SEND_START,1516286158165,156
337,WS_SEND_END,1516286158165,156
337,WS_RECV_START,1516286158165,157
337,WS_RECV_END,1516286158401,157
337,PLAYER_SLEEPBEFORE_START,1516286158401,158
337,PLAYER_SLEEPBEFORE_END,1516286158411,158
337,WS_SEND_START,1516286158411,158
337,WS_SEND_END,1516286158411,158
337,WS_RECV_START,1516286158411,159
337,WS_RECV_END,1516286160598,159
337,PLAYER_SLEEPBEFORE_START,1516286160598,160
337,PLAYER_SLEEPBEFORE_END,1516286160773,160
337,WS_SEND_START,1516286160773,160
337,WS_SEND_END,1516286160773,160
337,WS_RECV_START,1516286160773,161
337,WS_RECV_END,1516286164545,161
337,PLAYER_SLEEPBEFORE_START,1516286164545,162
337,PLAYER_SLEEPBEFORE_END,1516286164570,162
337,WS_SEND_START,1516286164570,162
337,WS_SEND_END,1516286164570,162
337,WS_RECV_START,1516286164570,163
337,WS_RECV_END,1516286167663,163
337,PLAYER_SLEEPBEFORE_START,1516286167663,164
337,PLAYER_SLEEPBEFORE_END,1516286188475,164
337,WS_SEND_START,1516286188475,164
337,WS_SEND_END,1516286188475,164
337,WS_RECV_START,1516286188475,165
337,WS_RECV_END,1516286193421,165
337,PLAYER_SLEEPBEFORE_START,1516286193421,166
337,PLAYER_SLEEPBEFORE_END,1516286215876,166
337,WS_SEND_START,1516286215876,166
337,WS_SEND_END,1516286215876,166
337,WS_RECV_START,1516286215876,167
337,WS_RECV_END,1516286219899,167
337,PLAYER_SLEEPBEFORE_START,1516286219899,168
337,PLAYER_SLEEPBEFORE_END,1516286247256,168
337,WS_SEND_START,1516286247256,168
337,WS_SEND_END,1516286247256,168
337,WS_RECV_START,1516286247256,169
337,WS_RECV_END,1516286251017,169
337,PLAYER_SLEEPBEFORE_START,1516286251017,170
337,PLAYER_SLEEPBEFORE_END,1516286251026,170
337,WS_SEND_START,1516286251026,170
337,WS_SEND_END,1516286251026,170
337,WS_RECV_START,1516286251026,171
337,WS_RECV_END,1516286252235,171
337,PLAYER_SLEEPBEFORE_START,1516286252235,172
337,PLAYER_SLEEPBEFORE_END,1516286252604,172
337,WS_SEND_START,1516286252604,172
337,WS_SEND_END,1516286252604,172
337,WS_RECV_START,1516286252604,173
337,WS_RECV_END,1516286254356,173
337,PLAYER_SLEEPBEFORE_START,1516286254356,174
337,PLAYER_SLEEPBEFORE_END,1516286254397,174
337,WS_SEND_START,1516286254397,174
337,WS_SEND_END,1516286254397,174
337,WS_RECV_START,1516286254397,175
337,WS_RECV_END,1516286256253,175
337,PLAYER_SLEEPBEFORE_START,1516286256253,176
337,PLAYER_SLEEPBEFORE_END,1516286278014,176
337,WS_SEND_START,1516286278014,176
337,WS_SEND_END,1516286278014,176
337,PLAYER_SLEEPBEFORE_START,1516286278014,177
337,PLAYER_SLEEPBEFORE_END,1516286280532,177
337,WS_SEND_START,1516286280532,177
337,WS_SEND_END,1516286280532,177
337,WS_RECV_START,1516286280532,178
337,WS_RECV_END,1516286281688,178
337,PLAYER_SLEEPBEFORE_START,1516286281688,179
337,PLAYER_SLEEPBEFORE_END,1516286304028,179
337,WS_SEND_START,1516286304028,179
337,WS_SEND_END,1516286304028,179
337,WS_RECV_START,1516286304028,180
337,WS_RECV_END,1516286305477,180
337,PLAYER_SLEEPBEFORE_START,1516286305477,181
337,PLAYER_SLEEPBEFORE_END,1516286305921,181
337,WS_SEND_START,1516286305921,181
337,WS_SEND_END,1516286305921,181
337,WS_RECV_START,1516286305921,182
337,WS_RECV_END,1516286308850,182
337,PLAYER_SLEEPBEFORE_START,1516286308850,183
337,PLAYER_SLEEPBEFORE_END,1516286309373,183
337,WS_SEND_START,1516286309373,183
337,WS_SEND_END,1516286309374,183
337,WS_RECV_START,1516286309374,184
337,WS_RECV_END,1516286310765,184
337,PLAYER_SLEEPBEFORE_START,1516286310765,185
337,PLAYER_SLEEPBEFORE_END,1516286311034,185
337,WS_SEND_START,1516286311034,185
337,WS_SEND_END,1516286311034,185
337,WS_RECV_START,1516286311034,186
337,WS_RECV_END,1516286312715,186
337,PLAYER_SLEEPBEFORE_START,1516286312715,187
337,PLAYER_SLEEPBEFORE_END,1516286335215,187
337,WS_SEND_START,1516286335215,187
337,WS_SEND_END,1516286335215,187
337,WS_RECV_START,1516286335215,188
337,WS_RECV_END,1516286335944,188
337,PLAYER_SLEEPBEFORE_START,1516286335944,189
337,PLAYER_SLEEPBEFORE_END,1516286342183,189
337,WS_SEND_START,1516286342183,189
337,WS_SEND_END,1516286342183,189
337,WS_RECV_START,1516286342183,190
337,WS_RECV_END,1516286342419,190
337,PLAYER_SLEEPBEFORE_START,1516286342419,191
337,PLAYER_SLEEPBEFORE_END,1516286344334,191
337,WS_SEND_START,1516286344334,191
337,WS_SEND_END,1516286344334,191
337,WS_RECV_START,1516286344334,192
337,WS_RECV_END,1516286345277,192
337,PLAYER_SLEEPBEFORE_START,1516286345277,193
337,PLAYER_SLEEPBEFORE_END,1516286345405,193
337,WS_SEND_START,1516286345405,193
337,WS_SEND_END,1516286345405,193
337,WS_RECV_START,1516286345405,194
337,WS_RECV_END,1516286345547,194
337,PLAYER_SLEEPBEFORE_START,1516286345547,195
337,PLAYER_SLEEPBEFORE_END,1516286347302,195
337,WS_SEND_START,1516286347302,195
337,WS_SEND_END,1516286347302,195
337,WS_RECV_START,1516286347302,196
337,WS_RECV_END,1516286347860,196
337,PLAYER_SLEEPBEFORE_START,1516286347860,197
337,PLAYER_SLEEPBEFORE_END,1516286349664,197
337,WS_SEND_START,1516286349664,197
337,WS_SEND_END,1516286349664,197
337,WS_RECV_START,1516286349664,198
337,WS_RECV_END,1516286350047,198
337,PLAYER_SLEEPBEFORE_START,1516286350047,199
337,PLAYER_SLEEPBEFORE_END,1516286361901,199
337,WS_SEND_START,1516286361901,199
337,WS_SEND_END,1516286361901,199
337,PLAYER_SLEEPBEFORE_START,1516286361901,200
337,PLAYER_SLEEPBEFORE_END,1516286365989,200
337,WS_SEND_START,1516286365989,200
337,WS_SEND_END,1516286365989,200
337,WS_RECV_START,1516286365989,201
337,WS_RECV_END,1516286366210,201
337,PLAYER_SLEEPBEFORE_START,1516286366210,202
337,PLAYER_SLEEPBEFORE_END,1516286366224,202
337,WS_SEND_START,1516286366224,202
337,WS_SEND_END,1516286366224,202
337,WS_RECV_START,1516286366224,203
337,WS_RECV_END,1516286366345,203
337,PLAYER_SLEEPBEFORE_START,1516286366345,204
337,PLAYER_SLEEPBEFORE_END,1516286385994,204
337,WS_SEND_START,1516286385994,204
337,WS_SEND_END,1516286385994,204
337,PLAYER_SLEEPBEFORE_START,1516286385994,205
337,PLAYER_SLEEPBEFORE_END,1516286389893,205
337,WS_SEND_START,1516286389893,205
337,WS_SEND_END,1516286389893,205
337,WS_RECV_START,1516286389893,206
337,WS_RECV_END,1516286390203,206
337,PLAYER_SLEEPBEFORE_START,1516286390203,207
337,PLAYER_SLEEPBEFORE_END,1516286407135,207
337,REQ_START,1516286407135,207
337,REQ_END,1516286407142,207
337,PLAYER_SLEEPBEFORE_START,1516286407142,208
337,PLAYER_SLEEPBEFORE_END,1516286413994,208
337,WS_CLOSE_START,1516286413994,208
337,WS_CLOSE_END,1516286413994,208
337,PLAYER_DONE,1516286413994
