# --sessions 540 --app-url=http://shinyloadtest.rstudioservices.com/cran_explorer --output-dir test540 --overwrite-output --log-level warn --start-interval 500 15min.log
thread_id,event,timestamp,input_line_number,comment
407,PLAYER_SESSION_CREATE,1516285277677
407,PLAYER_START_INTERVAL_START,1516285277677
407,PLAYER_START_INTERVAL_END,1516285481178
407,REQ_HOME_START,1516285481178,2
407,REQ_HOME_END,1516285481427,2
407,REQ_START,1516285481427,3
407,REQ_END,1516285481555,3
407,REQ_START,1516285481555,4
407,REQ_END,1516285481585,4
407,REQ_START,1516285481585,5
407,REQ_END,1516285481628,5
407,REQ_START,1516285481628,6
407,REQ_END,1516285481660,6
407,REQ_START,1516285481660,7
407,REQ_END,1516285481691,7
407,REQ_START,1516285481691,8
407,REQ_END,1516285481792,8
407,REQ_START,1516285481792,9
407,REQ_END,1516285481826,9
407,REQ_START,1516285481826,10
407,REQ_END,1516285481834,10
407,REQ_START,1516285481834,11
407,REQ_END,1516285481864,11
407,REQ_START,1516285481864,12
407,REQ_END,1516285481874,12
407,REQ_START,1516285481874,13
407,REQ_END,1516285481922,13
407,REQ_START,1516285481922,14
407,REQ_END,1516285481947,14
407,REQ_START,1516285481947,15
407,REQ_END,1516285481988,15
407,REQ_TOK_START,1516285481989,16
407,REQ_TOK_END,1516285481996,16
407,REQ_SINF_START,1516285481996,17
407,REQ_SINF_END,1516285482020,17
407,WS_OPEN_START,1516285482021,18
407,WS_OPEN_END,1516285482035,18
407,REQ_START,1516285482035,19
407,REQ_END,1516285482222,19
407,WS_RECV_START,1516285482222,20
407,WS_RECV_END,1516285482222,20
407,PLAYER_SLEEPBEFORE_START,1516285482222,21
407,PLAYER_SLEEPBEFORE_END,1516285482228,21
407,WS_SEND_START,1516285482228,21
407,WS_SEND_END,1516285482228,21
407,PLAYER_SLEEPBEFORE_START,1516285482228,22
407,PLAYER_SLEEPBEFORE_END,1516285482229,22
407,WS_SEND_START,1516285482229,22
407,WS_SEND_END,1516285482229,22
407,WS_RECV_INIT_START,1516285482229,23
407,WS_RECV_INIT_END,1516285482400,23
407,WS_RECV_START,1516285482400,24
407,WS_RECV_END,1516285482475,24
407,PLAYER_SLEEPBEFORE_START,1516285482475,25
407,PLAYER_SLEEPBEFORE_END,1516285482482,25
407,REQ_START,1516285482482,25
407,REQ_END,1516285482528,25
407,PLAYER_SLEEPBEFORE_START,1516285482528,26
407,PLAYER_SLEEPBEFORE_END,1516285482530,26
407,REQ_START,1516285482530,26
407,REQ_END,1516285482575,26
407,PLAYER_SLEEPBEFORE_START,1516285482575,27
407,PLAYER_SLEEPBEFORE_END,1516285482578,27
407,REQ_START,1516285482578,27
407,REQ_END,1516285482631,27
407,PLAYER_SLEEPBEFORE_START,1516285482631,28
407,PLAYER_SLEEPBEFORE_END,1516285482916,28
407,REQ_START,1516285482916,28
407,REQ_END,1516285482962,28
407,PLAYER_SLEEPBEFORE_START,1516285482962,29
407,PLAYER_SLEEPBEFORE_END,1516285483137,29
407,WS_SEND_START,1516285483137,29
407,WS_SEND_END,1516285483137,29
407,WS_RECV_START,1516285483137,30
407,WS_RECV_END,1516285483305,30
407,PLAYER_SLEEPBEFORE_START,1516285483305,31
407,PLAYER_SLEEPBEFORE_END,1516285483316,31
407,REQ_START,1516285483316,31
407,REQ_END,1516285483642,31
407,PLAYER_SLEEPBEFORE_START,1516285483642,32
407,PLAYER_SLEEPBEFORE_END,1516285511787,32
407,WS_SEND_START,1516285511787,32
407,WS_SEND_END,1516285511787,32
407,WS_RECV_START,1516285511787,33
407,WS_RECV_END,1516285511996,33
407,PLAYER_SLEEPBEFORE_START,1516285511996,34
407,PLAYER_SLEEPBEFORE_END,1516285537908,34
407,WS_SEND_START,1516285537908,34
407,WS_SEND_END,1516285537908,34
407,WS_RECV_START,1516285537908,35
407,WS_RECV_END,1516285537998,35
407,PLAYER_SLEEPBEFORE_START,1516285537998,36
407,PLAYER_SLEEPBEFORE_END,1516285538007,36
407,WS_SEND_START,1516285538007,36
407,WS_SEND_END,1516285538007,36
407,WS_RECV_START,1516285538007,37
407,WS_RECV_END,1516285538065,37
407,PLAYER_SLEEPBEFORE_START,1516285538065,38
407,PLAYER_SLEEPBEFORE_END,1516285541260,38
407,WS_SEND_START,1516285541260,38
407,WS_SEND_END,1516285541260,38
407,WS_RECV_START,1516285541260,39
407,WS_RECV_END,1516285541813,39
407,PLAYER_SLEEPBEFORE_START,1516285541813,40
407,PLAYER_SLEEPBEFORE_END,1516285541859,40
407,WS_SEND_START,1516285541859,40
407,WS_SEND_END,1516285541859,40
407,WS_RECV_START,1516285541859,41
407,WS_RECV_END,1516285542223,41
407,PLAYER_SLEEPBEFORE_START,1516285542223,42
407,PLAYER_SLEEPBEFORE_END,1516285560358,42
407,WS_SEND_START,1516285560358,42
407,WS_SEND_END,1516285560358,42
407,WS_RECV_START,1516285560358,43
407,WS_RECV_END,1516285560849,43
407,PLAYER_SLEEPBEFORE_START,1516285560849,44
407,PLAYER_SLEEPBEFORE_END,1516285560861,44
407,WS_SEND_START,1516285560861,44
407,WS_SEND_END,1516285560861,44
407,WS_RECV_START,1516285560861,45
407,WS_RECV_END,1516285561849,45
407,PLAYER_SLEEPBEFORE_START,1516285561849,46
407,PLAYER_SLEEPBEFORE_END,1516285563109,46
407,WS_SEND_START,1516285563109,46
407,WS_SEND_END,1516285563109,46
407,WS_RECV_START,1516285563109,47
407,WS_RECV_END,1516285563307,47
407,PLAYER_SLEEPBEFORE_START,1516285563307,48
407,PLAYER_SLEEPBEFORE_END,1516285564627,48
407,WS_SEND_START,1516285564627,48
407,WS_SEND_END,1516285564627,48
407,WS_RECV_START,1516285564627,49
407,WS_RECV_END,1516285565342,49
407,PLAYER_SLEEPBEFORE_START,1516285565342,50
407,PLAYER_SLEEPBEFORE_END,1516285565367,50
407,WS_SEND_START,1516285565367,50
407,WS_SEND_END,1516285565367,50
407,WS_RECV_START,1516285565367,51
407,WS_RECV_END,1516285565616,51
407,PLAYER_SLEEPBEFORE_START,1516285565616,52
407,PLAYER_SLEEPBEFORE_END,1516285588180,52
407,WS_SEND_START,1516285588180,52
407,WS_SEND_END,1516285588180,52
407,WS_RECV_START,1516285588180,53
407,WS_RECV_END,1516285588450,53
407,PLAYER_SLEEPBEFORE_START,1516285588450,54
407,PLAYER_SLEEPBEFORE_END,1516285609754,54
407,WS_SEND_START,1516285609754,54
407,WS_SEND_END,1516285609754,54
407,PLAYER_SLEEPBEFORE_START,1516285609754,55
407,PLAYER_SLEEPBEFORE_END,1516285611695,55
407,WS_SEND_START,1516285611695,55
407,WS_SEND_END,1516285611695,55
407,WS_RECV_START,1516285611695,56
407,WS_RECV_END,1516285611893,56
407,PLAYER_SLEEPBEFORE_START,1516285611893,57
407,PLAYER_SLEEPBEFORE_END,1516285634765,57
407,WS_SEND_START,1516285634765,57
407,WS_SEND_END,1516285634765,57
407,WS_RECV_START,1516285634765,58
407,WS_RECV_END,1516285634838,58
407,PLAYER_SLEEPBEFORE_START,1516285634838,59
407,PLAYER_SLEEPBEFORE_END,1516285637165,59
407,WS_SEND_START,1516285637165,59
407,WS_SEND_END,1516285637165,59
407,WS_RECV_START,1516285637165,60
407,WS_RECV_END,1516285638531,60
407,PLAYER_SLEEPBEFORE_START,1516285638531,61
407,PLAYER_SLEEPBEFORE_END,1516285642122,61
407,WS_SEND_START,1516285642122,61
407,WS_SEND_END,1516285642122,61
407,WS_RECV_START,1516285642122,62
407,WS_RECV_END,1516285642551,62
407,PLAYER_SLEEPBEFORE_START,1516285642551,63
407,PLAYER_SLEEPBEFORE_END,1516285661813,63
407,WS_SEND_START,1516285661813,63
407,WS_SEND_END,1516285661813,63
407,WS_RECV_START,1516285661813,64
407,WS_RECV_END,1516285662454,64
407,PLAYER_SLEEPBEFORE_START,1516285662454,65
407,PLAYER_SLEEPBEFORE_END,1516285689271,65
407,WS_SEND_START,1516285689271,65
407,WS_SEND_END,1516285689271,65
407,WS_RECV_START,1516285689271,66
407,WS_RECV_END,1516285689453,66
407,PLAYER_SLEEPBEFORE_START,1516285689453,67
407,PLAYER_SLEEPBEFORE_END,1516285690960,67
407,WS_SEND_START,1516285690960,67
407,WS_SEND_END,1516285690960,67
407,WS_RECV_START,1516285690960,68
407,WS_RECV_END,1516285691467,68
407,PLAYER_SLEEPBEFORE_START,1516285691467,69
407,PLAYER_SLEEPBEFORE_END,1516285713466,69
407,WS_SEND_START,1516285713466,69
407,WS_SEND_END,1516285713466,69
407,WS_RECV_START,1516285713466,70
407,WS_RECV_END,1516285713618,70
407,PLAYER_SLEEPBEFORE_START,1516285713618,71
407,PLAYER_SLEEPBEFORE_END,1516285738394,71
407,WS_SEND_START,1516285738394,71
407,WS_SEND_END,1516285738394,71
407,PLAYER_SLEEPBEFORE_START,1516285738394,72
407,PLAYER_SLEEPBEFORE_END,1516285741001,72
407,WS_SEND_START,1516285741001,72
407,WS_SEND_END,1516285741001,72
407,WS_RECV_START,1516285741001,73
407,WS_RECV_END,1516285741084,73
407,PLAYER_SLEEPBEFORE_START,1516285741084,74
407,PLAYER_SLEEPBEFORE_END,1516285741093,74
407,WS_SEND_START,1516285741093,74
407,WS_SEND_END,1516285741093,74
407,WS_RECV_START,1516285741093,75
407,WS_RECV_END,1516285741249,75
407,PLAYER_SLEEPBEFORE_START,1516285741249,76
407,PLAYER_SLEEPBEFORE_END,1516285742755,76
407,WS_SEND_START,1516285742755,76
407,WS_SEND_END,1516285742755,76
407,WS_RECV_START,1516285742755,77
407,WS_RECV_END,1516285742803,77
407,PLAYER_SLEEPBEFORE_START,1516285742803,78
407,PLAYER_SLEEPBEFORE_END,1516285743671,78
407,WS_SEND_START,1516285743671,78
407,WS_SEND_END,1516285743671,78
407,WS_RECV_START,1516285743671,79
407,WS_RECV_END,1516285743707,79
407,PLAYER_SLEEPBEFORE_START,1516285743707,80
407,PLAYER_SLEEPBEFORE_END,1516285751374,80
407,WS_SEND_START,1516285751374,80
407,WS_SEND_END,1516285751374,80
407,WS_RECV_START,1516285751374,81
407,WS_RECV_END,1516285751425,81
407,PLAYER_SLEEPBEFORE_START,1516285751425,82
407,PLAYER_SLEEPBEFORE_END,1516285752527,82
407,WS_SEND_START,1516285752527,82
407,WS_SEND_END,1516285752527,82
407,WS_RECV_START,1516285752527,83
407,WS_RECV_END,1516285752839,83
407,PLAYER_SLEEPBEFORE_START,1516285752839,84
407,PLAYER_SLEEPBEFORE_END,1516285753786,84
407,WS_SEND_START,1516285753786,84
407,WS_SEND_END,1516285753786,84
407,WS_RECV_START,1516285753786,85
407,WS_RECV_END,1516285754964,85
407,PLAYER_SLEEPBEFORE_START,1516285754964,86
407,PLAYER_SLEEPBEFORE_END,1516285759136,86
407,WS_SEND_START,1516285759136,86
407,WS_SEND_END,1516285759136,86
407,WS_RECV_START,1516285759136,87
407,WS_RECV_END,1516285759627,87
407,PLAYER_SLEEPBEFORE_START,1516285759627,88
407,PLAYER_SLEEPBEFORE_END,1516285759635,88
407,WS_SEND_START,1516285759635,88
407,WS_SEND_END,1516285759635,88
407,WS_RECV_START,1516285759635,89
407,WS_RECV_END,1516285760296,89
407,PLAYER_SLEEPBEFORE_START,1516285760296,90
407,PLAYER_SLEEPBEFORE_END,1516285787493,90
407,REQ_START,1516285787493,90
407,REQ_END,1516285787501,90
407,PLAYER_SLEEPBEFORE_START,1516285787501,91
407,PLAYER_SLEEPBEFORE_END,1516285795390,91
407,WS_SEND_START,1516285795390,91
407,WS_SEND_END,1516285795390,91
407,WS_RECV_START,1516285795390,92
407,WS_RECV_END,1516285796542,92
407,PLAYER_SLEEPBEFORE_START,1516285796542,93
407,PLAYER_SLEEPBEFORE_END,1516285796557,93
407,WS_SEND_START,1516285796557,93
407,WS_SEND_END,1516285796557,93
407,WS_RECV_START,1516285796557,94
407,WS_RECV_END,1516285796921,94
407,PLAYER_SLEEPBEFORE_START,1516285796921,95
407,PLAYER_SLEEPBEFORE_END,1516285820477,95
407,WS_SEND_START,1516285820477,95
407,WS_SEND_END,1516285820477,95
407,WS_RECV_START,1516285820477,96
407,WS_RECV_END,1516285821556,96
407,PLAYER_SLEEPBEFORE_START,1516285821556,97
407,PLAYER_SLEEPBEFORE_END,1516285843996,97
407,WS_SEND_START,1516285843996,97
407,WS_SEND_END,1516285843996,97
407,WS_RECV_START,1516285843996,98
407,WS_RECV_END,1516285845715,98
407,PLAYER_SLEEPBEFORE_START,1516285845715,99
407,PLAYER_SLEEPBEFORE_END,1516285845736,99
407,WS_SEND_START,1516285845736,99
407,WS_SEND_END,1516285845737,99
407,WS_RECV_START,1516285845737,100
407,WS_RECV_END,1516285846814,100
407,PLAYER_SLEEPBEFORE_START,1516285846814,101
407,PLAYER_SLEEPBEFORE_END,1516285870373,101
407,WS_SEND_START,1516285870373,101
407,WS_SEND_END,1516285870373,101
407,WS_RECV_START,1516285870373,102
407,WS_RECV_END,1516285870820,102
407,PLAYER_SLEEPBEFORE_START,1516285870820,103
407,PLAYER_SLEEPBEFORE_END,1516285894445,103
407,WS_SEND_START,1516285894445,103
407,WS_SEND_END,1516285894445,103
407,WS_RECV_START,1516285894445,104
407,WS_RECV_END,1516285895781,104
407,PLAYER_SLEEPBEFORE_START,1516285895781,105
407,PLAYER_SLEEPBEFORE_END,1516285921158,105
407,WS_SEND_START,1516285921158,105
407,WS_SEND_END,1516285921158,105
407,WS_RECV_START,1516285921158,106
407,WS_RECV_END,1516285922642,106
407,PLAYER_SLEEPBEFORE_START,1516285922642,107
407,PLAYER_SLEEPBEFORE_END,1516285946065,107
407,WS_SEND_START,1516285946065,107
407,WS_SEND_END,1516285946065,107
407,WS_RECV_START,1516285946065,108
407,WS_RECV_END,1516285946489,108
407,PLAYER_SLEEPBEFORE_START,1516285946489,109
407,PLAYER_SLEEPBEFORE_END,1516285946498,109
407,WS_SEND_START,1516285946498,109
407,WS_SEND_END,1516285946498,109
407,WS_RECV_START,1516285946498,110
407,WS_RECV_END,1516285946574,110
407,PLAYER_SLEEPBEFORE_START,1516285946574,111
407,PLAYER_SLEEPBEFORE_END,1516285947533,111
407,WS_SEND_START,1516285947533,111
407,WS_SEND_END,1516285947533,111
407,WS_RECV_START,1516285947533,112
407,WS_RECV_END,1516285948248,112
407,PLAYER_SLEEPBEFORE_START,1516285948248,113
407,PLAYER_SLEEPBEFORE_END,1516285948811,113
407,WS_SEND_START,1516285948811,113
407,WS_SEND_END,1516285948811,113
407,WS_RECV_START,1516285948811,114
407,WS_RECV_END,1516285949383,114
407,PLAYER_SLEEPBEFORE_START,1516285949383,115
407,PLAYER_SLEEPBEFORE_END,1516285949393,115
407,WS_SEND_START,1516285949393,115
407,WS_SEND_END,1516285949393,115
407,WS_RECV_START,1516285949393,116
407,WS_RECV_END,1516285949988,116
407,PLAYER_SLEEPBEFORE_START,1516285949988,117
407,PLAYER_SLEEPBEFORE_END,1516285970348,117
407,WS_SEND_START,1516285970348,117
407,WS_SEND_END,1516285970348,117
407,PLAYER_SLEEPBEFORE_START,1516285970348,118
407,PLAYER_SLEEPBEFORE_END,1516285974100,118
407,WS_SEND_START,1516285974100,118
407,WS_SEND_END,1516285974100,118
407,WS_RECV_START,1516285974100,119
407,WS_RECV_END,1516285975681,119
407,PLAYER_SLEEPBEFORE_START,1516285975681,120
407,PLAYER_SLEEPBEFORE_END,1516285976669,120
407,WS_SEND_START,1516285976669,120
407,WS_SEND_END,1516285976669,120
407,WS_RECV_START,1516285976669,121
407,WS_RECV_END,1516285977394,121
407,PLAYER_SLEEPBEFORE_START,1516285977394,122
407,PLAYER_SLEEPBEFORE_END,1516285978579,122
407,WS_SEND_START,1516285978579,122
407,WS_SEND_END,1516285978579,122
407,WS_RECV_START,1516285978579,123
407,WS_RECV_END,1516285978835,123
407,PLAYER_SLEEPBEFORE_START,1516285978835,124
407,PLAYER_SLEEPBEFORE_END,1516286003240,124
407,WS_SEND_START,1516286003240,124
407,WS_SEND_END,1516286003240,124
407,WS_RECV_START,1516286003240,125
407,WS_RECV_END,1516286004296,125
407,PLAYER_SLEEPBEFORE_START,1516286004296,126
407,PLAYER_SLEEPBEFORE_END,1516286024808,126
407,WS_SEND_START,1516286024808,126
407,WS_SEND_END,1516286024808,126
407,PLAYER_SLEEPBEFORE_START,1516286024808,127
407,PLAYER_SLEEPBEFORE_END,1516286027862,127
407,WS_SEND_START,1516286027862,127
407,WS_SEND_END,1516286027862,127
407,WS_RECV_START,1516286027862,128
407,WS_RECV_END,1516286028794,128
407,PLAYER_SLEEPBEFORE_START,1516286028794,129
407,PLAYER_SLEEPBEFORE_END,1516286028814,129
407,WS_SEND_START,1516286028814,129
407,WS_SEND_END,1516286028814,129
407,WS_RECV_START,1516286028814,130
407,WS_RECV_END,1516286029586,130
407,PLAYER_SLEEPBEFORE_START,1516286029586,131
407,PLAYER_SLEEPBEFORE_END,1516286051210,131
407,WS_SEND_START,1516286051210,131
407,WS_SEND_END,1516286051210,131
407,PLAYER_SLEEPBEFORE_START,1516286051210,132
407,PLAYER_SLEEPBEFORE_END,1516286054290,132
407,WS_SEND_START,1516286054290,132
407,WS_SEND_END,1516286054290,132
407,WS_RECV_START,1516286054290,133
407,WS_RECV_END,1516286055220,133
407,PLAYER_SLEEPBEFORE_START,1516286055220,134
407,PLAYER_SLEEPBEFORE_END,1516286076437,134
407,WS_SEND_START,1516286076437,134
407,WS_SEND_END,1516286076437,134
407,PLAYER_SLEEPBEFORE_START,1516286076437,135
407,PLAYER_SLEEPBEFORE_END,1516286079627,135
407,WS_SEND_START,1516286079627,135
407,WS_SEND_END,1516286079627,135
407,WS_RECV_START,1516286079627,136
407,WS_RECV_END,1516286080815,136
407,PLAYER_SLEEPBEFORE_START,1516286080815,137
407,PLAYER_SLEEPBEFORE_END,1516286080823,137
407,WS_SEND_START,1516286080823,137
407,WS_SEND_END,1516286080823,137
407,WS_RECV_START,1516286080823,138
407,WS_RECV_END,1516286081506,138
407,PLAYER_SLEEPBEFORE_START,1516286081506,139
407,PLAYER_SLEEPBEFORE_END,1516286082196,139
407,WS_SEND_START,1516286082196,139
407,WS_SEND_END,1516286082196,139
407,WS_RECV_START,1516286082196,140
407,WS_RECV_END,1516286082451,140
407,PLAYER_SLEEPBEFORE_START,1516286082451,141
407,PLAYER_SLEEPBEFORE_END,1516286083107,141
407,WS_SEND_START,1516286083107,141
407,WS_SEND_END,1516286083107,141
407,WS_RECV_START,1516286083107,142
407,WS_RECV_END,1516286083528,142
407,PLAYER_SLEEPBEFORE_START,1516286083528,143
407,PLAYER_SLEEPBEFORE_END,1516286083585,143
407,WS_SEND_START,1516286083585,143
407,WS_SEND_END,1516286083585,143
407,WS_RECV_START,1516286083585,144
407,WS_RECV_END,1516286083767,144
407,PLAYER_SLEEPBEFORE_START,1516286083767,145
407,PLAYER_SLEEPBEFORE_END,1516286099829,145
407,REQ_START,1516286099829,145
407,REQ_END,1516286099837,145
407,PLAYER_SLEEPBEFORE_START,1516286099837,146
407,PLAYER_SLEEPBEFORE_END,1516286108714,146
407,WS_SEND_START,1516286108715,146
407,WS_SEND_END,1516286108715,146
407,WS_RECV_START,1516286108715,147
407,WS_RECV_END,1516286109469,147
407,PLAYER_SLEEPBEFORE_START,1516286109469,148
407,PLAYER_SLEEPBEFORE_END,1516286131391,148
407,WS_SEND_START,1516286131391,148
407,WS_SEND_END,1516286131391,148
407,PLAYER_SLEEPBEFORE_START,1516286131391,149
407,PLAYER_SLEEPBEFORE_END,1516286133819,149
407,WS_SEND_START,1516286133819,149
407,WS_SEND_END,1516286133819,149
407,WS_RECV_START,1516286133819,150
407,WS_RECV_END,1516286134325,150
407,PLAYER_SLEEPBEFORE_START,1516286134325,151
407,PLAYER_SLEEPBEFORE_END,1516286134535,151
407,WS_SEND_START,1516286134535,151
407,WS_SEND_END,1516286134535,151
407,WS_RECV_START,1516286134535,152
407,WS_RECV_END,1516286137704,152
407,PLAYER_SLEEPBEFORE_START,1516286137704,153
407,PLAYER_SLEEPBEFORE_END,1516286161631,153
407,WS_SEND_START,1516286161631,153
407,WS_SEND_END,1516286161631,153
407,WS_RECV_START,1516286161631,154
407,WS_RECV_END,1516286163226,154
407,PLAYER_SLEEPBEFORE_START,1516286163226,155
407,PLAYER_SLEEPBEFORE_END,1516286185784,155
407,WS_SEND_START,1516286185784,155
407,WS_SEND_END,1516286185784,155
407,PLAYER_SLEEPBEFORE_START,1516286185784,156
407,PLAYER_SLEEPBEFORE_END,1516286189058,156
407,WS_SEND_START,1516286189058,156
407,WS_SEND_END,1516286189059,156
407,WS_RECV_START,1516286189059,157
407,WS_RECV_END,1516286193536,157
407,PLAYER_SLEEPBEFORE_START,1516286193536,158
407,PLAYER_SLEEPBEFORE_END,1516286193547,158
407,WS_SEND_START,1516286193547,158
407,WS_SEND_END,1516286193547,158
407,WS_RECV_START,1516286193547,159
407,WS_RECV_END,1516286197286,159
407,PLAYER_SLEEPBEFORE_START,1516286197286,160
407,PLAYER_SLEEPBEFORE_END,1516286197462,160
407,WS_SEND_START,1516286197462,160
407,WS_SEND_END,1516286197462,160
407,WS_RECV_START,1516286197462,161
407,WS_RECV_END,1516286200847,161
407,PLAYER_SLEEPBEFORE_START,1516286200847,162
407,PLAYER_SLEEPBEFORE_END,1516286200872,162
407,WS_SEND_START,1516286200872,162
407,WS_SEND_END,1516286200873,162
407,WS_RECV_START,1516286200873,163
407,WS_RECV_END,1516286205271,163
407,PLAYER_SLEEPBEFORE_START,1516286205271,164
407,PLAYER_SLEEPBEFORE_END,1516286226083,164
407,WS_SEND_START,1516286226083,164
407,WS_SEND_END,1516286226083,164
407,WS_RECV_START,1516286226083,165
407,WS_RECV_END,1516286231557,165
407,PLAYER_SLEEPBEFORE_START,1516286231557,166
407,PLAYER_SLEEPBEFORE_END,1516286254012,166
407,WS_SEND_START,1516286254012,166
407,WS_SEND_END,1516286254012,166
407,WS_RECV_START,1516286254012,167
407,WS_RECV_END,1516286257204,167
407,PLAYER_SLEEPBEFORE_START,1516286257204,168
407,PLAYER_SLEEPBEFORE_END,1516286284561,168
407,WS_SEND_START,1516286284561,168
407,WS_SEND_END,1516286284561,168
407,WS_RECV_START,1516286284561,169
407,WS_RECV_END,1516286286826,169
407,PLAYER_SLEEPBEFORE_START,1516286286826,170
407,PLAYER_SLEEPBEFORE_END,1516286286835,170
407,WS_SEND_START,1516286286835,170
407,WS_SEND_END,1516286286835,170
407,WS_RECV_START,1516286286835,171
407,WS_RECV_END,1516286287931,171
407,PLAYER_SLEEPBEFORE_START,1516286287931,172
407,PLAYER_SLEEPBEFORE_END,1516286288300,172
407,WS_SEND_START,1516286288300,172
407,WS_SEND_END,1516286288300,172
407,WS_RECV_START,1516286288300,173
407,WS_RECV_END,1516286290428,173
407,PLAYER_SLEEPBEFORE_START,1516286290428,174
407,PLAYER_SLEEPBEFORE_END,1516286290469,174
407,WS_SEND_START,1516286290469,174
407,WS_SEND_END,1516286290469,174
407,WS_RECV_START,1516286290469,175
407,WS_RECV_END,1516286292426,175
407,PLAYER_SLEEPBEFORE_START,1516286292426,176
407,PLAYER_SLEEPBEFORE_END,1516286314187,176
407,WS_SEND_START,1516286314187,176
407,WS_SEND_END,1516286314187,176
407,PLAYER_SLEEPBEFORE_START,1516286314187,177
407,PLAYER_SLEEPBEFORE_END,1516286316705,177
407,WS_SEND_START,1516286316705,177
407,WS_SEND_END,1516286316705,177
407,WS_RECV_START,1516286316705,178
407,WS_RECV_END,1516286317922,178
407,PLAYER_SLEEPBEFORE_START,1516286317922,179
407,PLAYER_SLEEPBEFORE_END,1516286340263,179
407,WS_SEND_START,1516286340263,179
407,WS_SEND_END,1516286340263,179
407,WS_RECV_START,1516286340263,180
407,WS_RECV_END,1516286341093,180
407,PLAYER_SLEEPBEFORE_START,1516286341093,181
407,PLAYER_SLEEPBEFORE_END,1516286341537,181
407,WS_SEND_START,1516286341537,181
407,WS_SEND_END,1516286341537,181
407,WS_RECV_START,1516286341537,182
407,WS_RECV_END,1516286342459,182
407,PLAYER_SLEEPBEFORE_START,1516286342459,183
407,PLAYER_SLEEPBEFORE_END,1516286342982,183
407,WS_SEND_START,1516286342982,183
407,WS_SEND_END,1516286342982,183
407,WS_RECV_START,1516286342982,184
407,WS_RECV_END,1516286343132,184
407,PLAYER_SLEEPBEFORE_START,1516286343132,185
407,PLAYER_SLEEPBEFORE_END,1516286343401,185
407,WS_SEND_START,1516286343401,185
407,WS_SEND_END,1516286343401,185
407,WS_RECV_START,1516286343401,186
407,WS_RECV_END,1516286343670,186
407,PLAYER_SLEEPBEFORE_START,1516286343670,187
407,PLAYER_SLEEPBEFORE_END,1516286366170,187
407,WS_SEND_START,1516286366170,187
407,WS_SEND_END,1516286366170,187
407,WS_RECV_START,1516286366170,188
407,WS_RECV_END,1516286366394,188
407,PLAYER_SLEEPBEFORE_START,1516286366394,189
407,PLAYER_SLEEPBEFORE_END,1516286372633,189
407,WS_SEND_START,1516286372633,189
407,WS_SEND_END,1516286372633,189
407,WS_RECV_START,1516286372633,190
407,WS_RECV_END,1516286372756,190
407,PLAYER_SLEEPBEFORE_START,1516286372756,191
407,PLAYER_SLEEPBEFORE_END,1516286374671,191
407,WS_SEND_START,1516286374671,191
407,WS_SEND_END,1516286374671,191
407,WS_RECV_START,1516286374671,192
407,WS_RECV_END,1516286374778,192
407,PLAYER_SLEEPBEFORE_START,1516286374778,193
407,PLAYER_SLEEPBEFORE_END,1516286374906,193
407,WS_SEND_START,1516286374906,193
407,WS_SEND_END,1516286374906,193
407,WS_RECV_START,1516286374906,194
407,WS_RECV_END,1516286375045,194
407,PLAYER_SLEEPBEFORE_START,1516286375045,195
407,PLAYER_SLEEPBEFORE_END,1516286376800,195
407,WS_SEND_START,1516286376800,195
407,WS_SEND_END,1516286376800,195
407,WS_RECV_START,1516286376800,196
407,WS_RECV_END,1516286377033,196
407,PLAYER_SLEEPBEFORE_START,1516286377033,197
407,PLAYER_SLEEPBEFORE_END,1516286378837,197
407,WS_SEND_START,1516286378837,197
407,WS_SEND_END,1516286378837,197
407,WS_RECV_START,1516286378837,198
407,WS_RECV_END,1516286379203,198
407,PLAYER_SLEEPBEFORE_START,1516286379203,199
407,PLAYER_SLEEPBEFORE_END,1516286391057,199
407,WS_SEND_START,1516286391057,199
407,WS_SEND_END,1516286391058,199
407,PLAYER_SLEEPBEFORE_START,1516286391058,200
407,PLAYER_SLEEPBEFORE_END,1516286395146,200
407,WS_SEND_START,1516286395146,200
407,WS_SEND_END,1516286395146,200
407,WS_RECV_START,1516286395146,201
407,WS_RECV_END,1516286395266,201
407,PLAYER_SLEEPBEFORE_START,1516286395266,202
407,PLAYER_SLEEPBEFORE_END,1516286395280,202
407,WS_SEND_START,1516286395280,202
407,WS_SEND_END,1516286395280,202
407,WS_RECV_START,1516286395280,203
407,WS_RECV_END,1516286395403,203
407,PLAYER_SLEEPBEFORE_START,1516286395403,204
407,PLAYER_SLEEPBEFORE_END,1516286415052,204
407,WS_SEND_START,1516286415052,204
407,WS_SEND_END,1516286415052,204
407,PLAYER_SLEEPBEFORE_START,1516286415052,205
407,PLAYER_SLEEPBEFORE_END,1516286418950,205
407,WS_SEND_START,1516286418950,205
407,WS_SEND_END,1516286418950,205
407,WS_RECV_START,1516286418950,206
407,WS_RECV_END,1516286419085,206
407,PLAYER_SLEEPBEFORE_START,1516286419085,207
407,PLAYER_SLEEPBEFORE_END,1516286436016,207
407,REQ_START,1516286436016,207
407,REQ_END,1516286436023,207
407,PLAYER_SLEEPBEFORE_START,1516286436023,208
407,PLAYER_SLEEPBEFORE_END,1516286442875,208
407,WS_CLOSE_START,1516286442875,208
407,WS_CLOSE_END,1516286442875,208
407,PLAYER_DONE,1516286442875
