# --sessions 540 --app-url=http://shinyloadtest.rstudioservices.com/cran_explorer --output-dir test540 --overwrite-output --log-level warn --start-interval 500 15min.log
thread_id,event,timestamp,input_line_number,comment
527,PLAYER_SESSION_CREATE,1516285277738
527,PLAYER_START_INTERVAL_START,1516285277738
527,PLAYER_START_INTERVAL_END,1516285541238
527,REQ_HOME_START,1516285541238,2
527,REQ_HOME_END,1516285541568,2
527,REQ_START,1516285541568,3
527,REQ_END,1516285542190,3
527,REQ_START,1516285542190,4
527,REQ_END,1516285542810,4
527,REQ_START,1516285542810,5
527,REQ_END,1516285543415,5
527,REQ_START,1516285543415,6
527,REQ_END,1516285543740,6
527,REQ_START,1516285543740,7
527,REQ_END,1516285544210,7
527,REQ_START,1516285544210,8
527,REQ_END,1516285544705,8
527,REQ_START,1516285544705,9
527,REQ_END,1516285545141,9
527,REQ_START,1516285545141,10
527,REQ_END,1516285545148,10
527,REQ_START,1516285545148,11
527,REQ_END,1516285545198,11
527,REQ_START,1516285545198,12
527,REQ_END,1516285545208,12
527,REQ_START,1516285545208,13
527,REQ_END,1516285545333,13
527,REQ_START,1516285545333,14
527,REQ_END,1516285545350,14
527,REQ_START,1516285545350,15
527,REQ_END,1516285545384,15
527,REQ_TOK_START,1516285545384,16
527,REQ_TOK_END,1516285545391,16
527,REQ_SINF_START,1516285545391,17
527,REQ_SINF_END,1516285545397,17
527,WS_OPEN_START,1516285545397,18
527,WS_OPEN_END,1516285545403,18
527,REQ_START,1516285545403,19
527,REQ_END,1516285545430,19
527,WS_RECV_START,1516285545430,20
527,WS_RECV_END,1516285545430,20
527,PLAYER_SLEEPBEFORE_START,1516285545430,21
527,PLAYER_SLEEPBEFORE_END,1516285545435,21
527,WS_SEND_START,1516285545435,21
527,WS_SEND_END,1516285545435,21
527,PLAYER_SLEEPBEFORE_START,1516285545435,22
527,PLAYER_SLEEPBEFORE_END,1516285545436,22
527,WS_SEND_START,1516285545436,22
527,WS_SEND_END,1516285545437,22
527,WS_RECV_INIT_START,1516285545437,23
527,WS_RECV_INIT_END,1516285545597,23
527,WS_RECV_START,1516285545597,24
527,WS_RECV_END,1516285545680,24
527,PLAYER_SLEEPBEFORE_START,1516285545680,25
527,PLAYER_SLEEPBEFORE_END,1516285545687,25
527,REQ_START,1516285545687,25
527,REQ_END,1516285545805,25
527,PLAYER_SLEEPBEFORE_START,1516285545805,26
527,PLAYER_SLEEPBEFORE_END,1516285545807,26
527,REQ_START,1516285545807,26
527,REQ_END,1516285545858,26
527,PLAYER_SLEEPBEFORE_START,1516285545858,27
527,PLAYER_SLEEPBEFORE_END,1516285545861,27
527,REQ_START,1516285545861,27
527,REQ_END,1516285545909,27
527,PLAYER_SLEEPBEFORE_START,1516285545909,28
527,PLAYER_SLEEPBEFORE_END,1516285546194,28
527,REQ_START,1516285546194,28
527,REQ_END,1516285546559,28
527,PLAYER_SLEEPBEFORE_START,1516285546559,29
527,PLAYER_SLEEPBEFORE_END,1516285546735,29
527,WS_SEND_START,1516285546735,29
527,WS_SEND_END,1516285546735,29
527,WS_RECV_START,1516285546735,30
527,WS_RECV_END,1516285546947,30
527,PLAYER_SLEEPBEFORE_START,1516285546947,31
527,PLAYER_SLEEPBEFORE_END,1516285546959,31
527,REQ_START,1516285546959,31
527,REQ_END,1516285548342,31
527,PLAYER_SLEEPBEFORE_START,1516285548342,32
527,PLAYER_SLEEPBEFORE_END,1516285576487,32
527,WS_SEND_START,1516285576487,32
527,WS_SEND_END,1516285576487,32
527,WS_RECV_START,1516285576487,33
527,WS_RECV_END,1516285576856,33
527,PLAYER_SLEEPBEFORE_START,1516285576856,34
527,PLAYER_SLEEPBEFORE_END,1516285602768,34
527,WS_SEND_START,1516285602768,34
527,WS_SEND_END,1516285602768,34
527,WS_RECV_START,1516285602768,35
527,WS_RECV_END,1516285602865,35
527,PLAYER_SLEEPBEFORE_START,1516285602865,36
527,PLAYER_SLEEPBEFORE_END,1516285602874,36
527,WS_SEND_START,1516285602874,36
527,WS_SEND_END,1516285602874,36
527,WS_RECV_START,1516285602874,37
527,WS_RECV_END,1516285603005,37
527,PLAYER_SLEEPBEFORE_START,1516285603005,38
527,PLAYER_SLEEPBEFORE_END,1516285606200,38
527,WS_SEND_START,1516285606200,38
527,WS_SEND_END,1516285606200,38
527,WS_RECV_START,1516285606200,39
527,WS_RECV_END,1516285606571,39
527,PLAYER_SLEEPBEFORE_START,1516285606571,40
527,PLAYER_SLEEPBEFORE_END,1516285606617,40
527,WS_SEND_START,1516285606617,40
527,WS_SEND_END,1516285606617,40
527,WS_RECV_START,1516285606617,41
527,WS_RECV_END,1516285607002,41
527,PLAYER_SLEEPBEFORE_START,1516285607002,42
527,PLAYER_SLEEPBEFORE_END,1516285625137,42
527,WS_SEND_START,1516285625137,42
527,WS_SEND_END,1516285625137,42
527,WS_RECV_START,1516285625137,43
527,WS_RECV_END,1516285625237,43
527,PLAYER_SLEEPBEFORE_START,1516285625237,44
527,PLAYER_SLEEPBEFORE_END,1516285625249,44
527,WS_SEND_START,1516285625249,44
527,WS_SEND_END,1516285625249,44
527,WS_RECV_START,1516285625249,45
527,WS_RECV_END,1516285625349,45
527,PLAYER_SLEEPBEFORE_START,1516285625349,46
527,PLAYER_SLEEPBEFORE_END,1516285626609,46
527,WS_SEND_START,1516285626609,46
527,WS_SEND_END,1516285626609,46
527,WS_RECV_START,1516285626609,47
527,WS_RECV_END,1516285626676,47
527,PLAYER_SLEEPBEFORE_START,1516285626676,48
527,PLAYER_SLEEPBEFORE_END,1516285627997,48
527,WS_SEND_START,1516285627997,48
527,WS_SEND_END,1516285627997,48
527,WS_RECV_START,1516285627997,49
527,WS_RECV_END,1516285628211,49
527,PLAYER_SLEEPBEFORE_START,1516285628211,50
527,PLAYER_SLEEPBEFORE_END,1516285628235,50
527,WS_SEND_START,1516285628235,50
527,WS_SEND_END,1516285628235,50
527,WS_RECV_START,1516285628235,51
527,WS_RECV_END,1516285628406,51
527,PLAYER_SLEEPBEFORE_START,1516285628406,52
527,PLAYER_SLEEPBEFORE_END,1516285650970,52
527,WS_SEND_START,1516285650970,52
527,WS_SEND_END,1516285650970,52
527,WS_RECV_START,1516285650970,53
527,WS_RECV_END,1516285651277,53
527,PLAYER_SLEEPBEFORE_START,1516285651277,54
527,PLAYER_SLEEPBEFORE_END,1516285672580,54
527,WS_SEND_START,1516285672580,54
527,WS_SEND_END,1516285672580,54
527,PLAYER_SLEEPBEFORE_START,1516285672580,55
527,PLAYER_SLEEPBEFORE_END,1516285674521,55
527,WS_SEND_START,1516285674521,55
527,WS_SEND_END,1516285674521,55
527,WS_RECV_START,1516285674521,56
527,WS_RECV_END,1516285674700,56
527,PLAYER_SLEEPBEFORE_START,1516285674700,57
527,PLAYER_SLEEPBEFORE_END,1516285697572,57
527,WS_SEND_START,1516285697572,57
527,WS_SEND_END,1516285697572,57
527,WS_RECV_START,1516285697572,58
527,WS_RECV_END,1516285697835,58
527,PLAYER_SLEEPBEFORE_START,1516285697835,59
527,PLAYER_SLEEPBEFORE_END,1516285700162,59
527,WS_SEND_START,1516285700162,59
527,WS_SEND_END,1516285700162,59
527,WS_RECV_START,1516285700162,60
527,WS_RECV_END,1516285700306,60
527,PLAYER_SLEEPBEFORE_START,1516285700306,61
527,PLAYER_SLEEPBEFORE_END,1516285703897,61
527,WS_SEND_START,1516285703897,61
527,WS_SEND_END,1516285703897,61
527,WS_RECV_START,1516285703897,62
527,WS_RECV_END,1516285704024,62
527,PLAYER_SLEEPBEFORE_START,1516285704024,63
527,PLAYER_SLEEPBEFORE_END,1516285723286,63
527,WS_SEND_START,1516285723286,63
527,WS_SEND_END,1516285723286,63
527,WS_RECV_START,1516285723286,64
527,WS_RECV_END,1516285723342,64
527,PLAYER_SLEEPBEFORE_START,1516285723342,65
527,PLAYER_SLEEPBEFORE_END,1516285750159,65
527,WS_SEND_START,1516285750159,65
527,WS_SEND_END,1516285750159,65
527,WS_RECV_START,1516285750159,66
527,WS_RECV_END,1516285750553,66
527,PLAYER_SLEEPBEFORE_START,1516285750553,67
527,PLAYER_SLEEPBEFORE_END,1516285752060,67
527,WS_SEND_START,1516285752060,67
527,WS_SEND_END,1516285752060,67
527,WS_RECV_START,1516285752060,68
527,WS_RECV_END,1516285752847,68
527,PLAYER_SLEEPBEFORE_START,1516285752847,69
527,PLAYER_SLEEPBEFORE_END,1516285774845,69
527,WS_SEND_START,1516285774845,69
527,WS_SEND_END,1516285774845,69
527,WS_RECV_START,1516285774845,70
527,WS_RECV_END,1516285776014,70
527,PLAYER_SLEEPBEFORE_START,1516285776014,71
527,PLAYER_SLEEPBEFORE_END,1516285800789,71
527,WS_SEND_START,1516285800789,71
527,WS_SEND_END,1516285800789,71
527,PLAYER_SLEEPBEFORE_START,1516285800789,72
527,PLAYER_SLEEPBEFORE_END,1516285803396,72
527,WS_SEND_START,1516285803396,72
527,WS_SEND_END,1516285803396,72
527,WS_RECV_START,1516285803396,73
527,WS_RECV_END,1516285804726,73
527,PLAYER_SLEEPBEFORE_START,1516285804727,74
527,PLAYER_SLEEPBEFORE_END,1516285804736,74
527,WS_SEND_START,1516285804736,74
527,WS_SEND_END,1516285804736,74
527,WS_RECV_START,1516285804736,75
527,WS_RECV_END,1516285805233,75
527,PLAYER_SLEEPBEFORE_START,1516285805234,76
527,PLAYER_SLEEPBEFORE_END,1516285806740,76
527,WS_SEND_START,1516285806740,76
527,WS_SEND_END,1516285806740,76
527,WS_RECV_START,1516285806740,77
527,WS_RECV_END,1516285808449,77
527,PLAYER_SLEEPBEFORE_START,1516285808449,78
527,PLAYER_SLEEPBEFORE_END,1516285809317,78
527,WS_SEND_START,1516285809317,78
527,WS_SEND_END,1516285809317,78
527,WS_RECV_START,1516285809317,79
527,WS_RECV_END,1516285811127,79
527,PLAYER_SLEEPBEFORE_START,1516285811127,80
527,PLAYER_SLEEPBEFORE_END,1516285818793,80
527,WS_SEND_START,1516285818793,80
527,WS_SEND_END,1516285818793,80
527,WS_RECV_START,1516285818793,81
527,WS_RECV_END,1516285820442,81
527,PLAYER_SLEEPBEFORE_START,1516285820442,82
527,PLAYER_SLEEPBEFORE_END,1516285821544,82
527,WS_SEND_START,1516285821544,82
527,WS_SEND_END,1516285821544,82
527,WS_RECV_START,1516285821544,83
527,WS_RECV_END,1516285823102,83
527,PLAYER_SLEEPBEFORE_START,1516285823102,84
527,PLAYER_SLEEPBEFORE_END,1516285824049,84
527,WS_SEND_START,1516285824049,84
527,WS_SEND_END,1516285824049,84
527,WS_RECV_START,1516285824049,85
527,WS_RECV_END,1516285826772,85
527,PLAYER_SLEEPBEFORE_START,1516285826772,86
527,PLAYER_SLEEPBEFORE_END,1516285830944,86
527,WS_SEND_START,1516285830944,86
527,WS_SEND_END,1516285830944,86
527,WS_RECV_START,1516285830944,87
527,WS_RECV_END,1516285833246,87
527,PLAYER_SLEEPBEFORE_START,1516285833246,88
527,PLAYER_SLEEPBEFORE_END,1516285833254,88
527,WS_SEND_START,1516285833254,88
527,WS_SEND_END,1516285833254,88
527,WS_RECV_START,1516285833254,89
527,WS_RECV_END,1516285834266,89
527,PLAYER_SLEEPBEFORE_START,1516285834266,90
527,PLAYER_SLEEPBEFORE_END,1516285861463,90
527,REQ_START,1516285861463,90
527,REQ_END,1516285861470,90
527,PLAYER_SLEEPBEFORE_START,1516285861471,91
527,PLAYER_SLEEPBEFORE_END,1516285869360,91
527,WS_SEND_START,1516285869360,91
527,WS_SEND_END,1516285869360,91
527,WS_RECV_START,1516285869360,92
527,WS_RECV_END,1516285869903,92
527,PLAYER_SLEEPBEFORE_START,1516285869903,93
527,PLAYER_SLEEPBEFORE_END,1516285869918,93
527,WS_SEND_START,1516285869918,93
527,WS_SEND_END,1516285869918,93
527,WS_RECV_START,1516285869918,94
527,WS_RECV_END,1516285870439,94
527,PLAYER_SLEEPBEFORE_START,1516285870439,95
527,PLAYER_SLEEPBEFORE_END,1516285893995,95
527,WS_SEND_START,1516285893995,95
527,WS_SEND_END,1516285893995,95
527,WS_RECV_START,1516285893995,96
527,WS_RECV_END,1516285895942,96
527,PLAYER_SLEEPBEFORE_START,1516285895942,97
527,PLAYER_SLEEPBEFORE_END,1516285918382,97
527,WS_SEND_START,1516285918382,97
527,WS_SEND_END,1516285918382,97
527,WS_RECV_START,1516285918382,98
527,WS_RECV_END,1516285920045,98
527,PLAYER_SLEEPBEFORE_START,1516285920045,99
527,PLAYER_SLEEPBEFORE_END,1516285920066,99
527,WS_SEND_START,1516285920066,99
527,WS_SEND_END,1516285920066,99
527,WS_RECV_START,1516285920066,100
527,WS_RECV_END,1516285920676,100
527,PLAYER_SLEEPBEFORE_START,1516285920676,101
527,PLAYER_SLEEPBEFORE_END,1516285944235,101
527,WS_SEND_START,1516285944235,101
527,WS_SEND_END,1516285944235,101
527,WS_RECV_START,1516285944235,102
527,WS_RECV_END,1516285945876,102
527,PLAYER_SLEEPBEFORE_START,1516285945876,103
527,PLAYER_SLEEPBEFORE_END,1516285969501,103
527,WS_SEND_START,1516285969501,103
527,WS_SEND_END,1516285969501,103
527,WS_RECV_START,1516285969501,104
527,WS_RECV_END,1516285971014,104
527,PLAYER_SLEEPBEFORE_START,1516285971014,105
527,PLAYER_SLEEPBEFORE_END,1516285996391,105
527,WS_SEND_START,1516285996391,105
527,WS_SEND_END,1516285996391,105
527,WS_RECV_START,1516285996391,106
527,WS_RECV_END,1516285997424,106
527,PLAYER_SLEEPBEFORE_START,1516285997424,107
527,PLAYER_SLEEPBEFORE_END,1516286020847,107
527,WS_SEND_START,1516286020847,107
527,WS_SEND_END,1516286020847,107
527,WS_RECV_START,1516286020847,108
527,WS_RECV_END,1516286021666,108
527,PLAYER_SLEEPBEFORE_START,1516286021666,109
527,PLAYER_SLEEPBEFORE_END,1516286021676,109
527,WS_SEND_START,1516286021676,109
527,WS_SEND_END,1516286021676,109
527,WS_RECV_START,1516286021676,110
527,WS_RECV_END,1516286022734,110
527,PLAYER_SLEEPBEFORE_START,1516286022734,111
527,PLAYER_SLEEPBEFORE_END,1516286023693,111
527,WS_SEND_START,1516286023693,111
527,WS_SEND_END,1516286023693,111
527,WS_RECV_START,1516286023693,112
527,WS_RECV_END,1516286025064,112
527,PLAYER_SLEEPBEFORE_START,1516286025064,113
527,PLAYER_SLEEPBEFORE_END,1516286025627,113
527,WS_SEND_START,1516286025627,113
527,WS_SEND_END,1516286025627,113
527,WS_RECV_START,1516286025627,114
527,WS_RECV_END,1516286026823,114
527,PLAYER_SLEEPBEFORE_START,1516286026823,115
527,PLAYER_SLEEPBEFORE_END,1516286026833,115
527,WS_SEND_START,1516286026833,115
527,WS_SEND_END,1516286026833,115
527,WS_RECV_START,1516286026833,116
527,WS_RECV_END,1516286027372,116
527,PLAYER_SLEEPBEFORE_START,1516286027372,117
527,PLAYER_SLEEPBEFORE_END,1516286047732,117
527,WS_SEND_START,1516286047732,117
527,WS_SEND_END,1516286047732,117
527,PLAYER_SLEEPBEFORE_START,1516286047732,118
527,PLAYER_SLEEPBEFORE_END,1516286051484,118
527,WS_SEND_START,1516286051484,118
527,WS_SEND_END,1516286051484,118
527,WS_RECV_START,1516286051484,119
527,WS_RECV_END,1516286053009,119
527,PLAYER_SLEEPBEFORE_START,1516286053009,120
527,PLAYER_SLEEPBEFORE_END,1516286053998,120
527,WS_SEND_START,1516286053998,120
527,WS_SEND_END,1516286053998,120
527,WS_RECV_START,1516286053998,121
527,WS_RECV_END,1516286055769,121
527,PLAYER_SLEEPBEFORE_START,1516286055769,122
527,PLAYER_SLEEPBEFORE_END,1516286056954,122
527,WS_SEND_START,1516286056954,122
527,WS_SEND_END,1516286056954,122
527,WS_RECV_START,1516286056954,123
527,WS_RECV_END,1516286058010,123
527,PLAYER_SLEEPBEFORE_START,1516286058010,124
527,PLAYER_SLEEPBEFORE_END,1516286082415,124
527,WS_SEND_START,1516286082415,124
527,WS_SEND_END,1516286082415,124
527,WS_RECV_START,1516286082415,125
527,WS_RECV_END,1516286083076,125
527,PLAYER_SLEEPBEFORE_START,1516286083076,126
527,PLAYER_SLEEPBEFORE_END,1516286103588,126
527,WS_SEND_START,1516286103588,126
527,WS_SEND_END,1516286103588,126
527,PLAYER_SLEEPBEFORE_START,1516286103588,127
527,PLAYER_SLEEPBEFORE_END,1516286106642,127
527,WS_SEND_START,1516286106642,127
527,WS_SEND_END,1516286106642,127
527,WS_RECV_START,1516286106642,128
527,WS_RECV_END,1516286106805,128
527,PLAYER_SLEEPBEFORE_START,1516286106805,129
527,PLAYER_SLEEPBEFORE_END,1516286106826,129
527,WS_SEND_START,1516286106826,129
527,WS_SEND_END,1516286106826,129
527,WS_RECV_START,1516286106826,130
527,WS_RECV_END,1516286107233,130
527,PLAYER_SLEEPBEFORE_START,1516286107233,131
527,PLAYER_SLEEPBEFORE_END,1516286128857,131
527,WS_SEND_START,1516286128857,131
527,WS_SEND_END,1516286128857,131
527,PLAYER_SLEEPBEFORE_START,1516286128857,132
527,PLAYER_SLEEPBEFORE_END,1516286131937,132
527,WS_SEND_START,1516286131937,132
527,WS_SEND_END,1516286131937,132
527,WS_RECV_START,1516286131937,133
527,WS_RECV_END,1516286134031,133
527,PLAYER_SLEEPBEFORE_START,1516286134031,134
527,PLAYER_SLEEPBEFORE_END,1516286155249,134
527,WS_SEND_START,1516286155249,134
527,WS_SEND_END,1516286155249,134
527,PLAYER_SLEEPBEFORE_START,1516286155249,135
527,PLAYER_SLEEPBEFORE_END,1516286158439,135
527,WS_SEND_START,1516286158439,135
527,WS_SEND_END,1516286158439,135
527,WS_RECV_START,1516286158439,136
527,WS_RECV_END,1516286160709,136
527,PLAYER_SLEEPBEFORE_START,1516286160709,137
527,PLAYER_SLEEPBEFORE_END,1516286160716,137
527,WS_SEND_START,1516286160716,137
527,WS_SEND_END,1516286160716,137
527,WS_RECV_START,1516286160716,138
527,WS_RECV_END,1516286164602,138
527,PLAYER_SLEEPBEFORE_START,1516286164602,139
527,PLAYER_SLEEPBEFORE_END,1516286165293,139
527,WS_SEND_START,1516286165293,139
527,WS_SEND_END,1516286165293,139
527,WS_RECV_START,1516286165293,140
527,WS_RECV_END,1516286167717,140
527,PLAYER_SLEEPBEFORE_START,1516286167717,141
527,PLAYER_SLEEPBEFORE_END,1516286168372,141
527,WS_SEND_START,1516286168372,141
527,WS_SEND_END,1516286168372,141
527,WS_RECV_START,1516286168372,142
527,WS_RECV_END,1516286170487,142
527,PLAYER_SLEEPBEFORE_START,1516286170487,143
527,PLAYER_SLEEPBEFORE_END,1516286170545,143
527,WS_SEND_START,1516286170545,143
527,WS_SEND_END,1516286170545,143
527,WS_RECV_START,1516286170545,144
527,WS_RECV_END,1516286174013,144
527,PLAYER_SLEEPBEFORE_START,1516286174013,145
527,PLAYER_SLEEPBEFORE_END,1516286190075,145
527,REQ_START,1516286190075,145
527,REQ_END,1516286190082,145
527,PLAYER_SLEEPBEFORE_START,1516286190082,146
527,PLAYER_SLEEPBEFORE_END,1516286198959,146
527,WS_SEND_START,1516286198959,146
527,WS_SEND_END,1516286198959,146
527,WS_RECV_START,1516286198959,147
527,WS_RECV_END,1516286204684,147
527,PLAYER_SLEEPBEFORE_START,1516286204684,148
527,PLAYER_SLEEPBEFORE_END,1516286226606,148
527,WS_SEND_START,1516286226606,148
527,WS_SEND_END,1516286226606,148
527,PLAYER_SLEEPBEFORE_START,1516286226606,149
527,PLAYER_SLEEPBEFORE_END,1516286229034,149
527,WS_SEND_START,1516286229034,149
527,WS_SEND_END,1516286229034,149
527,WS_RECV_START,1516286229034,150
527,WS_RECV_END,1516286230444,150
527,PLAYER_SLEEPBEFORE_START,1516286230444,151
527,PLAYER_SLEEPBEFORE_END,1516286230654,151
527,WS_SEND_START,1516286230654,151
527,WS_SEND_END,1516286230654,151
527,WS_RECV_START,1516286230654,152
527,WS_RECV_END,1516286232694,152
527,PLAYER_SLEEPBEFORE_START,1516286232694,153
527,PLAYER_SLEEPBEFORE_END,1516286256621,153
527,WS_SEND_START,1516286256621,153
527,WS_SEND_END,1516286256621,153
527,WS_RECV_START,1516286256621,154
527,WS_RECV_END,1516286260359,154
527,PLAYER_SLEEPBEFORE_START,1516286260359,155
527,PLAYER_SLEEPBEFORE_END,1516286282918,155
527,WS_SEND_START,1516286282918,155
527,WS_SEND_END,1516286282918,155
527,PLAYER_SLEEPBEFORE_START,1516286282918,156
527,PLAYER_SLEEPBEFORE_END,1516286286192,156
527,WS_SEND_START,1516286286192,156
527,WS_SEND_END,1516286286192,156
527,WS_RECV_START,1516286286192,157
527,WS_RECV_END,1516286288183,157
527,PLAYER_SLEEPBEFORE_START,1516286288183,158
527,PLAYER_SLEEPBEFORE_END,1516286288193,158
527,WS_SEND_START,1516286288193,158
527,WS_SEND_END,1516286288193,158
527,WS_RECV_START,1516286288193,159
527,WS_RECV_END,1516286290163,159
527,PLAYER_SLEEPBEFORE_START,1516286290163,160
527,PLAYER_SLEEPBEFORE_END,1516286290338,160
527,WS_SEND_START,1516286290338,160
527,WS_SEND_END,1516286290338,160
527,WS_RECV_START,1516286290338,161
527,WS_RECV_END,1516286292473,161
527,PLAYER_SLEEPBEFORE_START,1516286292473,162
527,PLAYER_SLEEPBEFORE_END,1516286292498,162
527,WS_SEND_START,1516286292498,162
527,WS_SEND_END,1516286292498,162
527,WS_RECV_START,1516286292498,163
527,WS_RECV_END,1516286293975,163
527,PLAYER_SLEEPBEFORE_START,1516286293976,164
527,PLAYER_SLEEPBEFORE_END,1516286314788,164
527,WS_SEND_START,1516286314788,164
527,WS_SEND_END,1516286314788,164
527,WS_RECV_START,1516286314788,165
527,WS_RECV_END,1516286317127,165
527,PLAYER_SLEEPBEFORE_START,1516286317128,166
527,PLAYER_SLEEPBEFORE_END,1516286339583,166
527,WS_SEND_START,1516286339583,166
527,WS_SEND_END,1516286339583,166
527,WS_RECV_START,1516286339583,167
527,WS_RECV_END,1516286339832,167
527,PLAYER_SLEEPBEFORE_START,1516286339832,168
527,PLAYER_SLEEPBEFORE_END,1516286367189,168
527,WS_SEND_START,1516286367189,168
527,WS_SEND_END,1516286367189,168
527,WS_RECV_START,1516286367189,169
527,WS_RECV_END,1516286367447,169
527,PLAYER_SLEEPBEFORE_START,1516286367447,170
527,PLAYER_SLEEPBEFORE_END,1516286367457,170
527,WS_SEND_START,1516286367457,170
527,WS_SEND_END,1516286367457,170
527,WS_RECV_START,1516286367457,171
527,WS_RECV_END,1516286367498,171
527,PLAYER_SLEEPBEFORE_START,1516286367498,172
527,PLAYER_SLEEPBEFORE_END,1516286367868,172
527,WS_SEND_START,1516286367868,172
527,WS_SEND_END,1516286367868,172
527,WS_RECV_START,1516286367868,173
527,WS_RECV_END,1516286368292,173
527,PLAYER_SLEEPBEFORE_START,1516286368292,174
527,PLAYER_SLEEPBEFORE_END,1516286368333,174
527,WS_SEND_START,1516286368333,174
527,WS_SEND_END,1516286368333,174
527,WS_RECV_START,1516286368333,175
527,WS_RECV_END,1516286368667,175
527,PLAYER_SLEEPBEFORE_START,1516286368667,176
527,PLAYER_SLEEPBEFORE_END,1516286390428,176
527,WS_SEND_START,1516286390428,176
527,WS_SEND_END,1516286390428,176
527,PLAYER_SLEEPBEFORE_START,1516286390428,177
527,PLAYER_SLEEPBEFORE_END,1516286392947,177
527,WS_SEND_START,1516286392947,177
527,WS_SEND_END,1516286392947,177
527,WS_RECV_START,1516286392947,178
527,WS_RECV_END,1516286393107,178
527,PLAYER_SLEEPBEFORE_START,1516286393107,179
527,PLAYER_SLEEPBEFORE_END,1516286415447,179
527,WS_SEND_START,1516286415447,179
527,WS_SEND_END,1516286415447,179
527,WS_RECV_START,1516286415447,180
527,WS_RECV_END,1516286415610,180
527,PLAYER_SLEEPBEFORE_START,1516286415610,181
527,PLAYER_SLEEPBEFORE_END,1516286416054,181
527,WS_SEND_START,1516286416054,181
527,WS_SEND_END,1516286416054,181
527,WS_RECV_START,1516286416054,182
527,WS_RECV_END,1516286416281,182
527,PLAYER_SLEEPBEFORE_START,1516286416281,183
527,PLAYER_SLEEPBEFORE_END,1516286416804,183
527,WS_SEND_START,1516286416804,183
527,WS_SEND_END,1516286416804,183
527,WS_RECV_START,1516286416804,184
527,WS_RECV_END,1516286417099,184
527,PLAYER_SLEEPBEFORE_START,1516286417099,185
527,PLAYER_SLEEPBEFORE_END,1516286417367,185
527,WS_SEND_START,1516286417367,185
527,WS_SEND_END,1516286417367,185
527,WS_RECV_START,1516286417367,186
527,WS_RECV_END,1516286417576,186
527,PLAYER_SLEEPBEFORE_START,1516286417576,187
527,PLAYER_SLEEPBEFORE_END,1516286440076,187
527,WS_SEND_START,1516286440076,187
527,WS_SEND_END,1516286440076,187
527,WS_RECV_START,1516286440076,188
527,WS_RECV_END,1516286440117,188
527,PLAYER_SLEEPBEFORE_START,1516286440117,189
527,PLAYER_SLEEPBEFORE_END,1516286446356,189
527,WS_SEND_START,1516286446356,189
527,WS_SEND_END,1516286446356,189
527,WS_RECV_START,1516286446356,190
527,WS_RECV_END,1516286446464,190
527,PLAYER_SLEEPBEFORE_START,1516286446464,191
527,PLAYER_SLEEPBEFORE_END,1516286448379,191
527,WS_SEND_START,1516286448379,191
527,WS_SEND_END,1516286448379,191
527,WS_RECV_START,1516286448379,192
527,WS_RECV_END,1516286448519,192
527,PLAYER_SLEEPBEFORE_START,1516286448519,193
527,PLAYER_SLEEPBEFORE_END,1516286448648,193
527,WS_SEND_START,1516286448648,193
527,WS_SEND_END,1516286448648,193
527,WS_RECV_START,1516286448648,194
527,WS_RECV_END,1516286448773,194
527,PLAYER_SLEEPBEFORE_START,1516286448773,195
527,PLAYER_SLEEPBEFORE_END,1516286450528,195
527,WS_SEND_START,1516286450528,195
527,WS_SEND_END,1516286450528,195
527,WS_RECV_START,1516286450528,196
527,WS_RECV_END,1516286450626,196
527,PLAYER_SLEEPBEFORE_START,1516286450626,197
527,PLAYER_SLEEPBEFORE_END,1516286452430,197
527,WS_SEND_START,1516286452430,197
527,WS_SEND_END,1516286452430,197
527,WS_RECV_START,1516286452430,198
527,WS_RECV_END,1516286452529,198
527,PLAYER_SLEEPBEFORE_START,1516286452529,199
527,PLAYER_SLEEPBEFORE_END,1516286464383,199
527,WS_SEND_START,1516286464383,199
527,WS_SEND_END,1516286464383,199
527,PLAYER_SLEEPBEFORE_START,1516286464383,200
527,PLAYER_SLEEPBEFORE_END,1516286468471,200
527,WS_SEND_START,1516286468471,200
527,WS_SEND_END,1516286468471,200
527,WS_RECV_START,1516286468471,201
527,WS_RECV_END,1516286468549,201
527,PLAYER_SLEEPBEFORE_START,1516286468549,202
527,PLAYER_SLEEPBEFORE_END,1516286468563,202
527,WS_SEND_START,1516286468563,202
527,WS_SEND_END,1516286468563,202
527,WS_RECV_START,1516286468563,203
527,WS_RECV_END,1516286468656,203
527,PLAYER_SLEEPBEFORE_START,1516286468656,204
527,PLAYER_SLEEPBEFORE_END,1516286488306,204
527,WS_SEND_START,1516286488306,204
527,WS_SEND_END,1516286488306,204
527,PLAYER_SLEEPBEFORE_START,1516286488306,205
527,PLAYER_SLEEPBEFORE_END,1516286492204,205
527,WS_SEND_START,1516286492204,205
527,WS_SEND_END,1516286492204,205
527,WS_RECV_START,1516286492204,206
527,WS_RECV_END,1516286492322,206
527,PLAYER_SLEEPBEFORE_START,1516286492322,207
527,PLAYER_SLEEPBEFORE_END,1516286509253,207
527,REQ_START,1516286509253,207
527,REQ_END,1516286509261,207
527,PLAYER_SLEEPBEFORE_START,1516286509261,208
527,PLAYER_SLEEPBEFORE_END,1516286516113,208
527,WS_CLOSE_START,1516286516113,208
527,WS_CLOSE_END,1516286516113,208
527,PLAYER_DONE,1516286516113
