# --sessions 540 --app-url=http://shinyloadtest.rstudioservices.com/cran_explorer --output-dir test540 --overwrite-output --log-level warn --start-interval 500 15min.log
thread_id,event,timestamp,input_line_number,comment
7,PLAYER_SESSION_CREATE,1516285277525
7,PLAYER_START_INTERVAL_START,1516285277525
7,PLAYER_START_INTERVAL_END,1516285281026
7,REQ_HOME_START,1516285281026,2
7,REQ_HOME_END,1516285281107,2
7,REQ_START,1516285281107,3
7,REQ_END,1516285281140,3
7,REQ_START,1516285281140,4
7,REQ_END,1516285281172,4
7,REQ_START,1516285281172,5
7,REQ_END,1516285281204,5
7,REQ_START,1516285281204,6
7,REQ_END,1516285281235,6
7,REQ_START,1516285281235,7
7,REQ_END,1516285281283,7
7,REQ_START,1516285281283,8
7,REQ_END,1516285281316,8
7,REQ_START,1516285281316,9
7,REQ_END,1516285281353,9
7,REQ_START,1516285281353,10
7,REQ_END,1516285281361,10
7,REQ_START,1516285281361,11
7,REQ_END,1516285281392,11
7,REQ_START,1516285281392,12
7,REQ_END,1516285281402,12
7,REQ_START,1516285281402,13
7,REQ_END,1516285281432,13
7,REQ_START,1516285281432,14
7,REQ_END,1516285281449,14
7,REQ_START,1516285281449,15
7,REQ_END,1516285281481,15
7,REQ_TOK_START,1516285281481,16
7,REQ_TOK_END,1516285281489,16
7,REQ_SINF_START,1516285281489,17
7,REQ_SINF_END,1516285281496,17
7,WS_OPEN_START,1516285281496,18
7,WS_OPEN_END,1516285281504,18
7,REQ_START,1516285281504,19
7,REQ_END,1516285281532,19
7,WS_RECV_START,1516285281532,20
7,WS_RECV_END,1516285281532,20
7,PLAYER_SLEEPBEFORE_START,1516285281532,21
7,PLAYER_SLEEPBEFORE_END,1516285281537,21
7,WS_SEND_START,1516285281537,21
7,WS_SEND_END,1516285281537,21
7,PLAYER_SLEEPBEFORE_START,1516285281537,22
7,PLAYER_SLEEPBEFORE_END,1516285281539,22
7,WS_SEND_START,1516285281539,22
7,WS_SEND_END,1516285281539,22
7,WS_RECV_INIT_START,1516285281539,23
7,WS_RECV_INIT_END,1516285281555,23
7,WS_RECV_START,1516285281555,24
7,WS_RECV_END,1516285281610,24
7,PLAYER_SLEEPBEFORE_START,1516285281610,25
7,PLAYER_SLEEPBEFORE_END,1516285281617,25
7,REQ_START,1516285281617,25
7,REQ_END,1516285281699,25
7,PLAYER_SLEEPBEFORE_START,1516285281699,26
7,PLAYER_SLEEPBEFORE_END,1516285281700,26
7,REQ_START,1516285281700,26
7,REQ_END,1516285281745,26
7,PLAYER_SLEEPBEFORE_START,1516285281745,27
7,PLAYER_SLEEPBEFORE_END,1516285281749,27
7,REQ_START,1516285281749,27
7,REQ_END,1516285281792,27
7,PLAYER_SLEEPBEFORE_START,1516285281792,28
7,PLAYER_SLEEPBEFORE_END,1516285282077,28
7,REQ_START,1516285282077,28
7,REQ_END,1516285282107,28
7,PLAYER_SLEEPBEFORE_START,1516285282107,29
7,PLAYER_SLEEPBEFORE_END,1516285282282,29
7,WS_SEND_START,1516285282282,29
7,WS_SEND_END,1516285282282,29
7,WS_RECV_START,1516285282282,30
7,WS_RECV_END,1516285282417,30
7,PLAYER_SLEEPBEFORE_START,1516285282417,31
7,PLAYER_SLEEPBEFORE_END,1516285282428,31
7,REQ_START,1516285282428,31
7,REQ_END,1516285282461,31
7,PLAYER_SLEEPBEFORE_START,1516285282461,32
7,PLAYER_SLEEPBEFORE_END,1516285310606,32
7,WS_SEND_START,1516285310606,32
7,WS_SEND_END,1516285310606,32
7,WS_RECV_START,1516285310606,33
7,WS_RECV_END,1516285310739,33
7,PLAYER_SLEEPBEFORE_START,1516285310739,34
7,PLAYER_SLEEPBEFORE_END,1516285336651,34
7,WS_SEND_START,1516285336651,34
7,WS_SEND_END,1516285336651,34
7,WS_RECV_START,1516285336651,35
7,WS_RECV_END,1516285336699,35
7,PLAYER_SLEEPBEFORE_START,1516285336700,36
7,PLAYER_SLEEPBEFORE_END,1516285336709,36
7,WS_SEND_START,1516285336709,36
7,WS_SEND_END,1516285336709,36
7,WS_RECV_START,1516285336709,37
7,WS_RECV_END,1516285336765,37
7,PLAYER_SLEEPBEFORE_START,1516285336765,38
7,PLAYER_SLEEPBEFORE_END,1516285339960,38
7,WS_SEND_START,1516285339960,38
7,WS_SEND_END,1516285339960,38
7,WS_RECV_START,1516285339960,39
7,WS_RECV_END,1516285340071,39
7,PLAYER_SLEEPBEFORE_START,1516285340071,40
7,PLAYER_SLEEPBEFORE_END,1516285340117,40
7,WS_SEND_START,1516285340117,40
7,WS_SEND_END,1516285340118,40
7,WS_RECV_START,1516285340118,41
7,WS_RECV_END,1516285340236,41
7,PLAYER_SLEEPBEFORE_START,1516285340236,42
7,PLAYER_SLEEPBEFORE_END,1516285358371,42
7,WS_SEND_START,1516285358371,42
7,WS_SEND_END,1516285358371,42
7,WS_RECV_START,1516285358371,43
7,WS_RECV_END,1516285358488,43
7,PLAYER_SLEEPBEFORE_START,1516285358488,44
7,PLAYER_SLEEPBEFORE_END,1516285358500,44
7,WS_SEND_START,1516285358500,44
7,WS_SEND_END,1516285358500,44
7,WS_RECV_START,1516285358500,45
7,WS_RECV_END,1516285358553,45
7,PLAYER_SLEEPBEFORE_START,1516285358553,46
7,PLAYER_SLEEPBEFORE_END,1516285359813,46
7,WS_SEND_START,1516285359813,46
7,WS_SEND_END,1516285359813,46
7,WS_RECV_START,1516285359813,47
7,WS_RECV_END,1516285359837,47
7,PLAYER_SLEEPBEFORE_START,1516285359837,48
7,PLAYER_SLEEPBEFORE_END,1516285361157,48
7,WS_SEND_START,1516285361157,48
7,WS_SEND_END,1516285361157,48
7,WS_RECV_START,1516285361157,49
7,WS_RECV_END,1516285361267,49
7,PLAYER_SLEEPBEFORE_START,1516285361267,50
7,PLAYER_SLEEPBEFORE_END,1516285361291,50
7,WS_SEND_START,1516285361291,50
7,WS_SEND_END,1516285361291,50
7,WS_RECV_START,1516285361291,51
7,WS_RECV_END,1516285361413,51
7,PLAYER_SLEEPBEFORE_START,1516285361413,52
7,PLAYER_SLEEPBEFORE_END,1516285383978,52
7,WS_SEND_START,1516285383978,52
7,WS_SEND_END,1516285383978,52
7,WS_RECV_START,1516285383978,53
7,WS_RECV_END,1516285384142,53
7,PLAYER_SLEEPBEFORE_START,1516285384142,54
7,PLAYER_SLEEPBEFORE_END,1516285405445,54
7,WS_SEND_START,1516285405445,54
7,WS_SEND_END,1516285405445,54
7,PLAYER_SLEEPBEFORE_START,1516285405445,55
7,PLAYER_SLEEPBEFORE_END,1516285407386,55
7,WS_SEND_START,1516285407386,55
7,WS_SEND_END,1516285407386,55
7,WS_RECV_START,1516285407386,56
7,WS_RECV_END,1516285407429,56
7,PLAYER_SLEEPBEFORE_START,1516285407429,57
7,PLAYER_SLEEPBEFORE_END,1516285430302,57
7,WS_SEND_START,1516285430302,57
7,WS_SEND_END,1516285430302,57
7,WS_RECV_START,1516285430302,58
7,WS_RECV_END,1516285430358,58
7,PLAYER_SLEEPBEFORE_START,1516285430358,59
7,PLAYER_SLEEPBEFORE_END,1516285432685,59
7,WS_SEND_START,1516285432685,59
7,WS_SEND_END,1516285432685,59
7,WS_RECV_START,1516285432685,60
7,WS_RECV_END,1516285432809,60
7,PLAYER_SLEEPBEFORE_START,1516285432809,61
7,PLAYER_SLEEPBEFORE_END,1516285436400,61
7,WS_SEND_START,1516285436400,61
7,WS_SEND_END,1516285436400,61
7,WS_RECV_START,1516285436400,62
7,WS_RECV_END,1516285436479,62
7,PLAYER_SLEEPBEFORE_START,1516285436479,63
7,PLAYER_SLEEPBEFORE_END,1516285455741,63
7,WS_SEND_START,1516285455742,63
7,WS_SEND_END,1516285455742,63
7,WS_RECV_START,1516285455742,64
7,WS_RECV_END,1516285455809,64
7,PLAYER_SLEEPBEFORE_START,1516285455809,65
7,PLAYER_SLEEPBEFORE_END,1516285482626,65
7,WS_SEND_START,1516285482626,65
7,WS_SEND_END,1516285482626,65
7,WS_RECV_START,1516285482626,66
7,WS_RECV_END,1516285482796,66
7,PLAYER_SLEEPBEFORE_START,1516285482796,67
7,PLAYER_SLEEPBEFORE_END,1516285484303,67
7,WS_SEND_START,1516285484303,67
7,WS_SEND_END,1516285484303,67
7,WS_RECV_START,1516285484303,68
7,WS_RECV_END,1516285484567,68
7,PLAYER_SLEEPBEFORE_START,1516285484567,69
7,PLAYER_SLEEPBEFORE_END,1516285506565,69
7,WS_SEND_START,1516285506565,69
7,WS_SEND_END,1516285506565,69
7,WS_RECV_START,1516285506565,70
7,WS_RECV_END,1516285506903,70
7,PLAYER_SLEEPBEFORE_START,1516285506903,71
7,PLAYER_SLEEPBEFORE_END,1516285531678,71
7,WS_SEND_START,1516285531678,71
7,WS_SEND_END,1516285531678,71
7,PLAYER_SLEEPBEFORE_START,1516285531678,72
7,PLAYER_SLEEPBEFORE_END,1516285534285,72
7,WS_SEND_START,1516285534285,72
7,WS_SEND_END,1516285534285,72
7,WS_RECV_START,1516285534285,73
7,WS_RECV_END,1516285534346,73
7,PLAYER_SLEEPBEFORE_START,1516285534346,74
7,PLAYER_SLEEPBEFORE_END,1516285534355,74
7,WS_SEND_START,1516285534355,74
7,WS_SEND_END,1516285534355,74
7,WS_RECV_START,1516285534355,75
7,WS_RECV_END,1516285534417,75
7,PLAYER_SLEEPBEFORE_START,1516285534417,76
7,PLAYER_SLEEPBEFORE_END,1516285535923,76
7,WS_SEND_START,1516285535923,76
7,WS_SEND_END,1516285535923,76
7,WS_RECV_START,1516285535923,77
7,WS_RECV_END,1516285536168,77
7,PLAYER_SLEEPBEFORE_START,1516285536168,78
7,PLAYER_SLEEPBEFORE_END,1516285537036,78
7,WS_SEND_START,1516285537036,78
7,WS_SEND_END,1516285537036,78
7,WS_RECV_START,1516285537036,79
7,WS_RECV_END,1516285537361,79
7,PLAYER_SLEEPBEFORE_START,1516285537361,80
7,PLAYER_SLEEPBEFORE_END,1516285545027,80
7,WS_SEND_START,1516285545027,80
7,WS_SEND_END,1516285545027,80
7,WS_RECV_START,1516285545027,81
7,WS_RECV_END,1516285545828,81
7,PLAYER_SLEEPBEFORE_START,1516285545828,82
7,PLAYER_SLEEPBEFORE_END,1516285546930,82
7,WS_SEND_START,1516285546930,82
7,WS_SEND_END,1516285546930,82
7,WS_RECV_START,1516285546930,83
7,WS_RECV_END,1516285547713,83
7,PLAYER_SLEEPBEFORE_START,1516285547713,84
7,PLAYER_SLEEPBEFORE_END,1516285548660,84
7,WS_SEND_START,1516285548660,84
7,WS_SEND_END,1516285548660,84
7,WS_RECV_START,1516285548660,85
7,WS_RECV_END,1516285549153,85
7,PLAYER_SLEEPBEFORE_START,1516285549153,86
7,PLAYER_SLEEPBEFORE_END,1516285553325,86
7,WS_SEND_START,1516285553325,86
7,WS_SEND_END,1516285553325,86
7,WS_RECV_START,1516285553325,87
7,WS_RECV_END,1516285553988,87
7,PLAYER_SLEEPBEFORE_START,1516285553988,88
7,PLAYER_SLEEPBEFORE_END,1516285553996,88
7,WS_SEND_START,1516285553996,88
7,WS_SEND_END,1516285553996,88
7,WS_RECV_START,1516285553996,89
7,WS_RECV_END,1516285554277,89
7,PLAYER_SLEEPBEFORE_START,1516285554277,90
7,PLAYER_SLEEPBEFORE_END,1516285581474,90
7,REQ_START,1516285581474,90
7,REQ_END,1516285581482,90
7,PLAYER_SLEEPBEFORE_START,1516285581482,91
7,PLAYER_SLEEPBEFORE_END,1516285589371,91
7,WS_SEND_START,1516285589371,91
7,WS_SEND_END,1516285589371,91
7,WS_RECV_START,1516285589371,92
7,WS_RECV_END,1516285589599,92
7,PLAYER_SLEEPBEFORE_START,1516285589599,93
7,PLAYER_SLEEPBEFORE_END,1516285589617,93
7,WS_SEND_START,1516285589618,93
7,WS_SEND_END,1516285589618,93
7,WS_RECV_START,1516285589618,94
7,WS_RECV_END,1516285589969,94
7,PLAYER_SLEEPBEFORE_START,1516285589969,95
7,PLAYER_SLEEPBEFORE_END,1516285613524,95
7,WS_SEND_START,1516285613524,95
7,WS_SEND_END,1516285613524,95
7,WS_RECV_START,1516285613524,96
7,WS_RECV_END,1516285613712,96
7,PLAYER_SLEEPBEFORE_START,1516285613712,97
7,PLAYER_SLEEPBEFORE_END,1516285636152,97
7,WS_SEND_START,1516285636152,97
7,WS_SEND_END,1516285636152,97
7,WS_RECV_START,1516285636152,98
7,WS_RECV_END,1516285636817,98
7,PLAYER_SLEEPBEFORE_START,1516285636817,99
7,PLAYER_SLEEPBEFORE_END,1516285636838,99
7,WS_SEND_START,1516285636838,99
7,WS_SEND_END,1516285636838,99
7,WS_RECV_START,1516285636838,100
7,WS_RECV_END,1516285637121,100
7,PLAYER_SLEEPBEFORE_START,1516285637121,101
7,PLAYER_SLEEPBEFORE_END,1516285660680,101
7,WS_SEND_START,1516285660680,101
7,WS_SEND_END,1516285660680,101
7,WS_RECV_START,1516285660680,102
7,WS_RECV_END,1516285660815,102
7,PLAYER_SLEEPBEFORE_START,1516285660815,103
7,PLAYER_SLEEPBEFORE_END,1516285684440,103
7,WS_SEND_START,1516285684440,103
7,WS_SEND_END,1516285684440,103
7,WS_RECV_START,1516285684440,104
7,WS_RECV_END,1516285684830,104
7,PLAYER_SLEEPBEFORE_START,1516285684830,105
7,PLAYER_SLEEPBEFORE_END,1516285710207,105
7,WS_SEND_START,1516285710207,105
7,WS_SEND_END,1516285710207,105
7,WS_RECV_START,1516285710207,106
7,WS_RECV_END,1516285710597,106
7,PLAYER_SLEEPBEFORE_START,1516285710597,107
7,PLAYER_SLEEPBEFORE_END,1516285734020,107
7,WS_SEND_START,1516285734020,107
7,WS_SEND_END,1516285734020,107
7,WS_RECV_START,1516285734020,108
7,WS_RECV_END,1516285734086,108
7,PLAYER_SLEEPBEFORE_START,1516285734086,109
7,PLAYER_SLEEPBEFORE_END,1516285734095,109
7,WS_SEND_START,1516285734095,109
7,WS_SEND_END,1516285734095,109
7,WS_RECV_START,1516285734095,110
7,WS_RECV_END,1516285734137,110
7,PLAYER_SLEEPBEFORE_START,1516285734137,111
7,PLAYER_SLEEPBEFORE_END,1516285735096,111
7,WS_SEND_START,1516285735096,111
7,WS_SEND_END,1516285735096,111
7,WS_RECV_START,1516285735096,112
7,WS_RECV_END,1516285735478,112
7,PLAYER_SLEEPBEFORE_START,1516285735478,113
7,PLAYER_SLEEPBEFORE_END,1516285736040,113
7,WS_SEND_START,1516285736040,113
7,WS_SEND_END,1516285736040,113
7,WS_RECV_START,1516285736040,114
7,WS_RECV_END,1516285736177,114
7,PLAYER_SLEEPBEFORE_START,1516285736177,115
7,PLAYER_SLEEPBEFORE_END,1516285736186,115
7,WS_SEND_START,1516285736186,115
7,WS_SEND_END,1516285736186,115
7,WS_RECV_START,1516285736186,116
7,WS_RECV_END,1516285736331,116
7,PLAYER_SLEEPBEFORE_START,1516285736331,117
7,PLAYER_SLEEPBEFORE_END,1516285756691,117
7,WS_SEND_START,1516285756691,117
7,WS_SEND_END,1516285756691,117
7,PLAYER_SLEEPBEFORE_START,1516285756691,118
7,PLAYER_SLEEPBEFORE_END,1516285760443,118
7,WS_SEND_START,1516285760443,118
7,WS_SEND_END,1516285760443,118
7,WS_RECV_START,1516285760443,119
7,WS_RECV_END,1516285761297,119
7,PLAYER_SLEEPBEFORE_START,1516285761297,120
7,PLAYER_SLEEPBEFORE_END,1516285762285,120
7,WS_SEND_START,1516285762285,120
7,WS_SEND_END,1516285762285,120
7,WS_RECV_START,1516285762285,121
7,WS_RECV_END,1516285763229,121
7,PLAYER_SLEEPBEFORE_START,1516285763229,122
7,PLAYER_SLEEPBEFORE_END,1516285764414,122
7,WS_SEND_START,1516285764414,122
7,WS_SEND_END,1516285764414,122
7,WS_RECV_START,1516285764414,123
7,WS_RECV_END,1516285765811,123
7,PLAYER_SLEEPBEFORE_START,1516285765811,124
7,PLAYER_SLEEPBEFORE_END,1516285790216,124
7,WS_SEND_START,1516285790216,124
7,WS_SEND_END,1516285790216,124
7,WS_RECV_START,1516285790216,125
7,WS_RECV_END,1516285790958,125
7,PLAYER_SLEEPBEFORE_START,1516285790958,126
7,PLAYER_SLEEPBEFORE_END,1516285811470,126
7,WS_SEND_START,1516285811470,126
7,WS_SEND_END,1516285811470,126
7,PLAYER_SLEEPBEFORE_START,1516285811470,127
7,PLAYER_SLEEPBEFORE_END,1516285814525,127
7,WS_SEND_START,1516285814525,127
7,WS_SEND_END,1516285814525,127
7,WS_RECV_START,1516285814525,128
7,WS_RECV_END,1516285815322,128
7,PLAYER_SLEEPBEFORE_START,1516285815322,129
7,PLAYER_SLEEPBEFORE_END,1516285815342,129
7,WS_SEND_START,1516285815342,129
7,WS_SEND_END,1516285815342,129
7,WS_RECV_START,1516285815342,130
7,WS_RECV_END,1516285815619,130
7,PLAYER_SLEEPBEFORE_START,1516285815619,131
7,PLAYER_SLEEPBEFORE_END,1516285837243,131
7,WS_SEND_START,1516285837243,131
7,WS_SEND_END,1516285837243,131
7,PLAYER_SLEEPBEFORE_START,1516285837243,132
7,PLAYER_SLEEPBEFORE_END,1516285840324,132
7,WS_SEND_START,1516285840324,132
7,WS_SEND_END,1516285840324,132
7,WS_RECV_START,1516285840324,133
7,WS_RECV_END,1516285841187,133
7,PLAYER_SLEEPBEFORE_START,1516285841187,134
7,PLAYER_SLEEPBEFORE_END,1516285862404,134
7,WS_SEND_START,1516285862404,134
7,WS_SEND_END,1516285862404,134
7,PLAYER_SLEEPBEFORE_START,1516285862404,135
7,PLAYER_SLEEPBEFORE_END,1516285865594,135
7,WS_SEND_START,1516285865594,135
7,WS_SEND_END,1516285865594,135
7,WS_RECV_START,1516285865594,136
7,WS_RECV_END,1516285866936,136
7,PLAYER_SLEEPBEFORE_START,1516285866936,137
7,PLAYER_SLEEPBEFORE_END,1516285866943,137
7,WS_SEND_START,1516285866943,137
7,WS_SEND_END,1516285866943,137
7,WS_RECV_START,1516285866943,138
7,WS_RECV_END,1516285867282,138
7,PLAYER_SLEEPBEFORE_START,1516285867282,139
7,PLAYER_SLEEPBEFORE_END,1516285867972,139
7,WS_SEND_START,1516285867972,139
7,WS_SEND_END,1516285867972,139
7,WS_RECV_START,1516285867972,140
7,WS_RECV_END,1516285868081,140
7,PLAYER_SLEEPBEFORE_START,1516285868081,141
7,PLAYER_SLEEPBEFORE_END,1516285868736,141
7,WS_SEND_START,1516285868736,141
7,WS_SEND_END,1516285868736,141
7,WS_RECV_START,1516285868736,142
7,WS_RECV_END,1516285869364,142
7,PLAYER_SLEEPBEFORE_START,1516285869364,143
7,PLAYER_SLEEPBEFORE_END,1516285869421,143
7,WS_SEND_START,1516285869421,143
7,WS_SEND_END,1516285869421,143
7,WS_RECV_START,1516285869421,144
7,WS_RECV_END,1516285869895,144
7,PLAYER_SLEEPBEFORE_START,1516285869895,145
7,PLAYER_SLEEPBEFORE_END,1516285885957,145
7,REQ_START,1516285885957,145
7,REQ_END,1516285885965,145
7,PLAYER_SLEEPBEFORE_START,1516285885965,146
7,PLAYER_SLEEPBEFORE_END,1516285894842,146
7,WS_SEND_START,1516285894842,146
7,WS_SEND_END,1516285894842,146
7,WS_RECV_START,1516285894842,147
7,WS_RECV_END,1516285896285,147
7,PLAYER_SLEEPBEFORE_START,1516285896285,148
7,PLAYER_SLEEPBEFORE_END,1516285918207,148
7,WS_SEND_START,1516285918207,148
7,WS_SEND_END,1516285918208,148
7,PLAYER_SLEEPBEFORE_START,1516285918208,149
7,PLAYER_SLEEPBEFORE_END,1516285920636,149
7,WS_SEND_START,1516285920636,149
7,WS_SEND_END,1516285920636,149
7,WS_RECV_START,1516285920636,150
7,WS_RECV_END,1516285921932,150
7,PLAYER_SLEEPBEFORE_START,1516285921932,151
7,PLAYER_SLEEPBEFORE_END,1516285922142,151
7,WS_SEND_START,1516285922142,151
7,WS_SEND_END,1516285922142,151
7,WS_RECV_START,1516285922142,152
7,WS_RECV_END,1516285923231,152
7,PLAYER_SLEEPBEFORE_START,1516285923231,153
7,PLAYER_SLEEPBEFORE_END,1516285947158,153
7,WS_SEND_START,1516285947158,153
7,WS_SEND_END,1516285947158,153
7,WS_RECV_START,1516285947158,154
7,WS_RECV_END,1516285948020,154
7,PLAYER_SLEEPBEFORE_START,1516285948020,155
7,PLAYER_SLEEPBEFORE_END,1516285970578,155
7,WS_SEND_START,1516285970578,155
7,WS_SEND_END,1516285970578,155
7,PLAYER_SLEEPBEFORE_START,1516285970578,156
7,PLAYER_SLEEPBEFORE_END,1516285973852,156
7,WS_SEND_START,1516285973852,156
7,WS_SEND_END,1516285973852,156
7,WS_RECV_START,1516285973852,157
7,WS_RECV_END,1516285975178,157
7,PLAYER_SLEEPBEFORE_START,1516285975178,158
7,PLAYER_SLEEPBEFORE_END,1516285975188,158
7,WS_SEND_START,1516285975188,158
7,WS_SEND_END,1516285975188,158
7,WS_RECV_START,1516285975188,159
7,WS_RECV_END,1516285976274,159
7,PLAYER_SLEEPBEFORE_START,1516285976274,160
7,PLAYER_SLEEPBEFORE_END,1516285976449,160
7,WS_SEND_START,1516285976449,160
7,WS_SEND_END,1516285976449,160
7,WS_RECV_START,1516285976449,161
7,WS_RECV_END,1516285977058,161
7,PLAYER_SLEEPBEFORE_START,1516285977058,162
7,PLAYER_SLEEPBEFORE_END,1516285977084,162
7,WS_SEND_START,1516285977084,162
7,WS_SEND_END,1516285977084,162
7,WS_RECV_START,1516285977084,163
7,WS_RECV_END,1516285977772,163
7,PLAYER_SLEEPBEFORE_START,1516285977772,164
7,PLAYER_SLEEPBEFORE_END,1516285998584,164
7,WS_SEND_START,1516285998584,164
7,WS_SEND_END,1516285998584,164
7,WS_RECV_START,1516285998584,165
7,WS_RECV_END,1516286000599,165
7,PLAYER_SLEEPBEFORE_START,1516286000599,166
7,PLAYER_SLEEPBEFORE_END,1516286023054,166
7,WS_SEND_START,1516286023054,166
7,WS_SEND_END,1516286023054,166
7,WS_RECV_START,1516286023054,167
7,WS_RECV_END,1516286024411,167
7,PLAYER_SLEEPBEFORE_START,1516286024411,168
7,PLAYER_SLEEPBEFORE_END,1516286051768,168
7,WS_SEND_START,1516286051768,168
7,WS_SEND_END,1516286051768,168
7,WS_RECV_START,1516286051768,169
7,WS_RECV_END,1516286052905,169
7,PLAYER_SLEEPBEFORE_START,1516286052905,170
7,PLAYER_SLEEPBEFORE_END,1516286052914,170
7,WS_SEND_START,1516286052914,170
7,WS_SEND_END,1516286052914,170
7,WS_RECV_START,1516286052914,171
7,WS_RECV_END,1516286053718,171
7,PLAYER_SLEEPBEFORE_START,1516286053718,172
7,PLAYER_SLEEPBEFORE_END,1516286054087,172
7,WS_SEND_START,1516286054087,172
7,WS_SEND_END,1516286054087,172
7,WS_RECV_START,1516286054087,173
7,WS_RECV_END,1516286054737,173
7,PLAYER_SLEEPBEFORE_START,1516286054737,174
7,PLAYER_SLEEPBEFORE_END,1516286054778,174
7,WS_SEND_START,1516286054778,174
7,WS_SEND_END,1516286054778,174
7,WS_RECV_START,1516286054778,175
7,WS_RECV_END,1516286055517,175
7,PLAYER_SLEEPBEFORE_START,1516286055517,176
7,PLAYER_SLEEPBEFORE_END,1516286077278,176
7,WS_SEND_START,1516286077278,176
7,WS_SEND_END,1516286077278,176
7,PLAYER_SLEEPBEFORE_START,1516286077278,177
7,PLAYER_SLEEPBEFORE_END,1516286079796,177
7,WS_SEND_START,1516286079796,177
7,WS_SEND_END,1516286079796,177
7,WS_RECV_START,1516286079796,178
7,WS_RECV_END,1516286080940,178
7,PLAYER_SLEEPBEFORE_START,1516286080940,179
7,PLAYER_SLEEPBEFORE_END,1516286103281,179
7,WS_SEND_START,1516286103281,179
7,WS_SEND_END,1516286103281,179
7,WS_RECV_START,1516286103281,180
7,WS_RECV_END,1516286104337,180
7,PLAYER_SLEEPBEFORE_START,1516286104337,181
7,PLAYER_SLEEPBEFORE_END,1516286104781,181
7,WS_SEND_START,1516286104781,181
7,WS_SEND_END,1516286104781,181
7,WS_RECV_START,1516286104781,182
7,WS_RECV_END,1516286105547,182
7,PLAYER_SLEEPBEFORE_START,1516286105547,183
7,PLAYER_SLEEPBEFORE_END,1516286106071,183
7,WS_SEND_START,1516286106071,183
7,WS_SEND_END,1516286106071,183
7,WS_RECV_START,1516286106071,184
7,WS_RECV_END,1516286107081,184
7,PLAYER_SLEEPBEFORE_START,1516286107081,185
7,PLAYER_SLEEPBEFORE_END,1516286107349,185
7,WS_SEND_START,1516286107349,185
7,WS_SEND_END,1516286107349,185
7,WS_RECV_START,1516286107349,186
7,WS_RECV_END,1516286107698,186
7,PLAYER_SLEEPBEFORE_START,1516286107698,187
7,PLAYER_SLEEPBEFORE_END,1516286130198,187
7,WS_SEND_START,1516286130198,187
7,WS_SEND_END,1516286130198,187
7,WS_RECV_START,1516286130198,188
7,WS_RECV_END,1516286133717,188
7,PLAYER_SLEEPBEFORE_START,1516286133717,189
7,PLAYER_SLEEPBEFORE_END,1516286139956,189
7,WS_SEND_START,1516286139956,189
7,WS_SEND_END,1516286139956,189
7,WS_RECV_START,1516286139956,190
7,WS_RECV_END,1516286142593,190
7,PLAYER_SLEEPBEFORE_START,1516286142593,191
7,PLAYER_SLEEPBEFORE_END,1516286144509,191
7,WS_SEND_START,1516286144509,191
7,WS_SEND_END,1516286144509,191
7,WS_RECV_START,1516286144509,192
7,WS_RECV_END,1516286146794,192
7,PLAYER_SLEEPBEFORE_START,1516286146794,193
7,PLAYER_SLEEPBEFORE_END,1516286146922,193
7,WS_SEND_START,1516286146922,193
7,WS_SEND_END,1516286146922,193
7,WS_RECV_START,1516286146922,194
7,WS_RECV_END,1516286148339,194
7,PLAYER_SLEEPBEFORE_START,1516286148339,195
7,PLAYER_SLEEPBEFORE_END,1516286150094,195
7,WS_SEND_START,1516286150094,195
7,WS_SEND_END,1516286150094,195
7,WS_RECV_START,1516286150094,196
7,WS_RECV_END,1516286152927,196
7,PLAYER_SLEEPBEFORE_START,1516286152927,197
7,PLAYER_SLEEPBEFORE_END,1516286154732,197
7,WS_SEND_START,1516286154732,197
7,WS_SEND_END,1516286154732,197
7,WS_RECV_START,1516286154732,198
7,WS_RECV_END,1516286157662,198
7,PLAYER_SLEEPBEFORE_START,1516286157662,199
7,PLAYER_SLEEPBEFORE_END,1516286169516,199
7,WS_SEND_START,1516286169516,199
7,WS_SEND_END,1516286169516,199
7,PLAYER_SLEEPBEFORE_START,1516286169516,200
7,PLAYER_SLEEPBEFORE_END,1516286173604,200
7,WS_SEND_START,1516286173604,200
7,WS_SEND_END,1516286173604,200
7,WS_RECV_START,1516286173604,201
7,WS_RECV_END,1516286174645,201
7,PLAYER_SLEEPBEFORE_START,1516286174645,202
7,PLAYER_SLEEPBEFORE_END,1516286174659,202
7,WS_SEND_START,1516286174659,202
7,WS_SEND_END,1516286174659,202
7,WS_RECV_START,1516286174659,203
7,WS_RECV_END,1516286177767,203
7,PLAYER_SLEEPBEFORE_START,1516286177767,204
7,PLAYER_SLEEPBEFORE_END,1516286197416,204
7,WS_SEND_START,1516286197416,204
7,WS_SEND_END,1516286197416,204
7,PLAYER_SLEEPBEFORE_START,1516286197416,205
7,PLAYER_SLEEPBEFORE_END,1516286201314,205
7,WS_SEND_START,1516286201314,205
7,WS_SEND_END,1516286201314,205
7,WS_RECV_START,1516286201314,206
7,WS_RECV_END,1516286202911,206
7,PLAYER_SLEEPBEFORE_START,1516286202911,207
7,PLAYER_SLEEPBEFORE_END,1516286219842,207
7,REQ_START,1516286219842,207
7,REQ_END,1516286219850,207
7,PLAYER_SLEEPBEFORE_START,1516286219850,208
7,PLAYER_SLEEPBEFORE_END,1516286226702,208
7,WS_CLOSE_START,1516286226702,208
7,WS_CLOSE_END,1516286226702,208
7,PLAYER_DONE,1516286226702
