# --sessions 300 --app-url=http://shinyloadtest.rstudioservices.com/ --output-dir test300 --overwrite-output --log-level warn --start-interval 1500 30min.log
thread_id,event,timestamp,input_line_number,comment
246,PLAYER_SESSION_CREATE,1516062290203
246,PLAYER_START_INTERVAL_START,1516062290203
246,PLAYER_START_INTERVAL_END,1516062659203
246,REQ_HOME_START,1516062659203,2
246,REQ_HOME_END,1516062659318,2
246,REQ_START,1516062659318,3
246,REQ_END,1516062659353,3
246,REQ_START,1516062659353,4
246,REQ_END,1516062659389,4
246,REQ_START,1516062659389,5
246,REQ_END,1516062659426,5
246,REQ_START,1516062659426,6
246,REQ_END,1516062659466,6
246,REQ_START,1516062659466,7
246,REQ_END,1516062659504,7
246,REQ_START,1516062659504,8
246,REQ_END,1516062659540,8
246,REQ_START,1516062659540,9
246,REQ_END,1516062659579,9
246,REQ_START,1516062659579,10
246,REQ_END,1516062659588,10
246,REQ_START,1516062659588,11
246,REQ_END,1516062659621,11
246,REQ_START,1516062659621,12
246,REQ_END,1516062659657,12
246,REQ_START,1516062659657,13
246,REQ_END,1516062659667,13
246,REQ_START,1516062659667,14
246,REQ_END,1516062659687,14
246,REQ_START,1516062659687,15
246,REQ_END,1516062659873,15
246,REQ_TOK_START,1516062659873,16
246,REQ_TOK_END,1516062659881,16
246,REQ_SINF_START,1516062659881,17
246,REQ_SINF_END,1516062659888,17
246,WS_OPEN_START,1516062659888,18
246,WS_OPEN_END,1516062659895,18
246,WS_RECV_START,1516062659897,19
246,WS_RECV_END,1516062659897,19
246,PLAYER_SLEEPBEFORE_START,1516062659897,20
246,PLAYER_SLEEPBEFORE_END,1516062659904,20
246,WS_SEND_START,1516062659904,20
246,WS_SEND_END,1516062659904,20
246,PLAYER_SLEEPBEFORE_START,1516062659904,21
246,PLAYER_SLEEPBEFORE_END,1516062659905,21
246,WS_SEND_START,1516062659905,21
246,WS_SEND_END,1516062659905,21
246,WS_RECV_INIT_START,1516062659905,22
246,WS_RECV_INIT_END,1516062659932,22
246,WS_RECV_START,1516062659932,23
246,WS_RECV_END,1516062660029,23
246,PLAYER_SLEEPBEFORE_START,1516062660029,24
246,PLAYER_SLEEPBEFORE_END,1516062660037,24
246,REQ_START,1516062660037,24
246,REQ_END,1516062660078,24
246,PLAYER_SLEEPBEFORE_START,1516062660078,25
246,PLAYER_SLEEPBEFORE_END,1516062660080,25
246,REQ_START,1516062660080,25
246,REQ_END,1516062660118,25
246,PLAYER_SLEEPBEFORE_START,1516062660118,26
246,PLAYER_SLEEPBEFORE_END,1516062660122,26
246,REQ_START,1516062660122,26
246,REQ_END,1516062660157,26
246,PLAYER_SLEEPBEFORE_START,1516062660157,27
246,PLAYER_SLEEPBEFORE_END,1516062660414,27
246,REQ_START,1516062660414,27
246,REQ_END,1516062660463,27
246,PLAYER_SLEEPBEFORE_START,1516062660463,28
246,PLAYER_SLEEPBEFORE_END,1516062660662,28
246,WS_SEND_START,1516062660662,28
246,WS_SEND_END,1516062660662,28
246,WS_RECV_START,1516062660662,29
246,WS_RECV_END,1516062661095,29
246,PLAYER_SLEEPBEFORE_START,1516062661095,30
246,PLAYER_SLEEPBEFORE_END,1516062661107,30
246,REQ_START,1516062661107,30
246,REQ_END,1516062661145,30
246,PLAYER_SLEEPBEFORE_START,1516062661145,31
246,PLAYER_SLEEPBEFORE_END,1516062691265,31
246,WS_SEND_START,1516062691265,31
246,WS_SEND_END,1516062691265,31
246,WS_RECV_START,1516062691265,32
246,WS_RECV_END,1516062692416,32
246,PLAYER_SLEEPBEFORE_START,1516062692416,33
246,PLAYER_SLEEPBEFORE_END,1516062717182,33
246,WS_SEND_START,1516062717182,33
246,WS_SEND_END,1516062717182,33
246,WS_RECV_START,1516062717182,34
246,WS_RECV_END,1516062717296,34
246,PLAYER_SLEEPBEFORE_START,1516062717296,35
246,PLAYER_SLEEPBEFORE_END,1516062742109,35
246,WS_SEND_START,1516062742109,35
246,WS_SEND_END,1516062742109,35
246,WS_RECV_START,1516062742109,36
246,WS_RECV_END,1516062742230,36
246,PLAYER_SLEEPBEFORE_START,1516062742230,37
246,PLAYER_SLEEPBEFORE_END,1516062742239,37
246,WS_SEND_START,1516062742239,37
246,WS_SEND_END,1516062742239,37
246,WS_RECV_START,1516062742239,38
246,WS_RECV_END,1516062742283,38
246,PLAYER_SLEEPBEFORE_START,1516062742283,39
246,PLAYER_SLEEPBEFORE_END,1516062744980,39
246,WS_SEND_START,1516062744980,39
246,WS_SEND_END,1516062744980,39
246,WS_RECV_START,1516062744980,40
246,WS_RECV_END,1516062745057,40
246,PLAYER_SLEEPBEFORE_START,1516062745057,41
246,PLAYER_SLEEPBEFORE_END,1516062746177,41
246,WS_SEND_START,1516062746177,41
246,WS_SEND_END,1516062746177,41
246,WS_RECV_START,1516062746177,42
246,WS_RECV_END,1516062748033,42
246,PLAYER_SLEEPBEFORE_START,1516062748033,43
246,PLAYER_SLEEPBEFORE_END,1516062748061,43
246,WS_SEND_START,1516062748061,43
246,WS_SEND_END,1516062748061,43
246,WS_RECV_START,1516062748061,44
246,WS_RECV_END,1516062748372,44
246,PLAYER_SLEEPBEFORE_START,1516062748372,45
246,PLAYER_SLEEPBEFORE_END,1516062769861,45
246,WS_SEND_START,1516062769862,45
246,WS_SEND_END,1516062769862,45
246,WS_RECV_START,1516062769862,46
246,WS_RECV_END,1516062770156,46
246,PLAYER_SLEEPBEFORE_START,1516062770156,47
246,PLAYER_SLEEPBEFORE_END,1516062798641,47
246,WS_SEND_START,1516062798641,47
246,WS_SEND_END,1516062798641,47
246,WS_RECV_START,1516062798641,48
246,WS_RECV_END,1516062799097,48
246,PLAYER_SLEEPBEFORE_START,1516062799097,49
246,PLAYER_SLEEPBEFORE_END,1516062825506,49
246,WS_SEND_START,1516062825506,49
246,WS_SEND_END,1516062825506,49
246,WS_RECV_START,1516062825506,50
246,WS_RECV_END,1516062826414,50
246,PLAYER_SLEEPBEFORE_START,1516062826414,51
246,PLAYER_SLEEPBEFORE_END,1516062848965,51
246,WS_SEND_START,1516062848965,51
246,WS_SEND_END,1516062848965,51
246,WS_RECV_START,1516062848965,52
246,WS_RECV_END,1516062850425,52
246,PLAYER_SLEEPBEFORE_START,1516062850425,53
246,PLAYER_SLEEPBEFORE_END,1516062875329,53
246,WS_SEND_START,1516062875329,53
246,WS_SEND_END,1516062875329,53
246,WS_RECV_START,1516062875329,54
246,WS_RECV_END,1516062875544,54
246,PLAYER_SLEEPBEFORE_START,1516062875544,55
246,PLAYER_SLEEPBEFORE_END,1516062900946,55
246,WS_SEND_START,1516062900946,55
246,WS_SEND_END,1516062900946,55
246,WS_RECV_START,1516062900946,56
246,WS_RECV_END,1516062901560,56
246,PLAYER_SLEEPBEFORE_START,1516062901560,57
246,PLAYER_SLEEPBEFORE_END,1516062926898,57
246,WS_SEND_START,1516062926898,57
246,WS_SEND_END,1516062926898,57
246,WS_RECV_START,1516062926898,58
246,WS_RECV_END,1516062927123,58
246,PLAYER_SLEEPBEFORE_START,1516062927123,59
246,PLAYER_SLEEPBEFORE_END,1516062953980,59
246,WS_SEND_START,1516062953980,59
246,WS_SEND_END,1516062953980,59
246,WS_RECV_START,1516062953980,60
246,WS_RECV_END,1516062959437,60
246,PLAYER_SLEEPBEFORE_START,1516062959437,61
246,PLAYER_SLEEPBEFORE_END,1516062959460,61
246,WS_SEND_START,1516062959460,61
246,WS_SEND_END,1516062959460,61
246,WS_RECV_START,1516062959460,62
246,WS_RECV_END,1516062962927,62
246,PLAYER_SLEEPBEFORE_START,1516062962927,63
246,PLAYER_SLEEPBEFORE_END,1516062971931,63
246,REQ_START,1516062971931,63
246,REQ_END,1516062971943,63
246,PLAYER_SLEEPBEFORE_START,1516062971943,64
246,PLAYER_SLEEPBEFORE_END,1516062986150,64
246,WS_SEND_START,1516062986150,64
246,WS_SEND_END,1516062986150,64
246,WS_RECV_START,1516062986150,65
246,WS_RECV_END,1516062988142,65
246,PLAYER_SLEEPBEFORE_START,1516062988142,66
246,PLAYER_SLEEPBEFORE_END,1516063012129,66
246,WS_SEND_START,1516063012129,66
246,WS_SEND_END,1516063012129,66
246,WS_RECV_START,1516063012129,67
246,WS_RECV_END,1516063014845,67
246,PLAYER_SLEEPBEFORE_START,1516063014845,68
246,PLAYER_SLEEPBEFORE_END,1516063040419,68
246,WS_SEND_START,1516063040419,68
246,WS_SEND_END,1516063040419,68
246,WS_RECV_START,1516063040419,69
246,WS_RECV_END,1516063048989,69
246,PLAYER_SLEEPBEFORE_START,1516063048989,70
246,PLAYER_SLEEPBEFORE_END,1516063048998,70
246,WS_SEND_START,1516063048999,70
246,WS_SEND_END,1516063048999,70
246,WS_RECV_START,1516063048999,71
246,WS_RECV_END,1516063050951,71
246,PLAYER_SLEEPBEFORE_START,1516063050951,72
246,PLAYER_SLEEPBEFORE_END,1516063051156,72
246,WS_SEND_START,1516063051156,72
246,WS_SEND_END,1516063051156,72
246,WS_RECV_START,1516063051156,73
246,WS_RECV_END,1516063052647,73
246,PLAYER_SLEEPBEFORE_START,1516063052647,74
246,PLAYER_SLEEPBEFORE_END,1516063054069,74
246,WS_SEND_START,1516063054069,74
246,WS_SEND_END,1516063054069,74
246,WS_RECV_START,1516063054069,75
246,WS_RECV_END,1516063055691,75
246,PLAYER_SLEEPBEFORE_START,1516063055691,76
246,PLAYER_SLEEPBEFORE_END,1516063056186,76
246,WS_SEND_START,1516063056186,76
246,WS_SEND_END,1516063056186,76
246,WS_RECV_START,1516063056186,77
246,WS_RECV_END,1516063059250,77
246,PLAYER_SLEEPBEFORE_START,1516063059250,78
246,PLAYER_SLEEPBEFORE_END,1516063059269,78
246,WS_SEND_START,1516063059269,78
246,WS_SEND_END,1516063059269,78
246,WS_RECV_START,1516063059269,79
246,WS_RECV_END,1516063060510,79
246,PLAYER_SLEEPBEFORE_START,1516063060510,80
246,PLAYER_SLEEPBEFORE_END,1516063081244,80
246,WS_SEND_START,1516063081244,80
246,WS_SEND_END,1516063081244,80
246,WS_RECV_START,1516063081244,81
246,WS_RECV_END,1516063089608,81
246,PLAYER_SLEEPBEFORE_START,1516063089608,82
246,PLAYER_SLEEPBEFORE_END,1516063089619,82
246,WS_SEND_START,1516063089619,82
246,WS_SEND_END,1516063089619,82
246,WS_RECV_START,1516063089619,83
246,WS_RECV_END,1516063095007,83
246,PLAYER_SLEEPBEFORE_START,1516063095007,84
246,PLAYER_SLEEPBEFORE_END,1516063095870,84
246,WS_SEND_START,1516063095870,84
246,WS_SEND_END,1516063095870,84
246,WS_RECV_START,1516063095870,85
246,WS_RECV_END,1516063097356,85
246,PLAYER_SLEEPBEFORE_START,1516063097356,86
246,PLAYER_SLEEPBEFORE_END,1516063098083,86
246,WS_SEND_START,1516063098083,86
246,WS_SEND_END,1516063098083,86
246,WS_RECV_START,1516063098083,87
246,WS_RECV_END,1516063099815,87
246,PLAYER_SLEEPBEFORE_START,1516063099815,88
246,PLAYER_SLEEPBEFORE_END,1516063099836,88
246,WS_SEND_START,1516063099836,88
246,WS_SEND_END,1516063099836,88
246,WS_RECV_START,1516063099836,89
246,WS_RECV_END,1516063100709,89
246,PLAYER_SLEEPBEFORE_START,1516063100709,90
246,PLAYER_SLEEPBEFORE_END,1516063122138,90
246,WS_SEND_START,1516063122138,90
246,WS_SEND_END,1516063122138,90
246,PLAYER_SLEEPBEFORE_START,1516063122138,91
246,PLAYER_SLEEPBEFORE_END,1516063148993,91
246,WS_SEND_START,1516063148993,91
246,WS_SEND_END,1516063148993,91
246,WS_RECV_START,1516063148993,92
246,WS_RECV_END,1516063152085,92
246,PLAYER_SLEEPBEFORE_START,1516063152085,93
246,PLAYER_SLEEPBEFORE_END,1516063154360,93
246,WS_SEND_START,1516063154360,93
246,WS_SEND_END,1516063154360,93
246,WS_RECV_START,1516063154360,94
246,WS_RECV_END,1516063160611,94
246,PLAYER_SLEEPBEFORE_START,1516063160611,95
246,PLAYER_SLEEPBEFORE_END,1516063186607,95
246,WS_SEND_START,1516063186607,95
246,WS_SEND_END,1516063186607,95
246,WS_RECV_START,1516063186607,96
246,WS_RECV_END,1516063197387,96
246,PLAYER_SLEEPBEFORE_START,1516063197387,97
246,PLAYER_SLEEPBEFORE_END,1516063202475,97
246,WS_SEND_START,1516063202475,97
246,WS_SEND_END,1516063202475,97
246,WS_RECV_START,1516063202475,98
246,WS_RECV_END,1516063204736,98
246,PLAYER_SLEEPBEFORE_START,1516063204736,99
246,PLAYER_SLEEPBEFORE_END,1516063206436,99
246,WS_SEND_START,1516063206436,99
246,WS_SEND_END,1516063206436,99
246,WS_RECV_START,1516063206436,100
246,WS_RECV_END,1516063216005,100
246,PLAYER_SLEEPBEFORE_START,1516063216005,101
246,PLAYER_SLEEPBEFORE_END,1516063217844,101
246,WS_SEND_START,1516063217844,101
246,WS_SEND_END,1516063217844,101
246,WS_RECV_START,1516063217844,102
246,WS_RECV_END,1516063222935,102
246,PLAYER_SLEEPBEFORE_START,1516063222935,103
246,PLAYER_SLEEPBEFORE_END,1516063235985,103
246,WS_SEND_START,1516063235985,103
246,WS_SEND_END,1516063235985,103
246,PLAYER_SLEEPBEFORE_START,1516063235985,104
246,PLAYER_SLEEPBEFORE_END,1516063240411,104
246,WS_SEND_START,1516063240411,104
246,WS_SEND_END,1516063240411,104
246,WS_RECV_START,1516063240411,105
246,WS_RECV_END,1516063244565,105
246,PLAYER_SLEEPBEFORE_START,1516063244565,106
246,PLAYER_SLEEPBEFORE_END,1516063244574,106
246,WS_SEND_START,1516063244574,106
246,WS_SEND_END,1516063244574,106
246,WS_RECV_START,1516063244574,107
246,WS_RECV_END,1516063245755,107
246,PLAYER_SLEEPBEFORE_START,1516063245755,108
246,PLAYER_SLEEPBEFORE_END,1516063246219,108
246,WS_SEND_START,1516063246219,108
246,WS_SEND_END,1516063246219,108
246,WS_RECV_START,1516063246219,109
246,WS_RECV_END,1516063248046,109
246,PLAYER_SLEEPBEFORE_START,1516063248046,110
246,PLAYER_SLEEPBEFORE_END,1516063248061,110
246,WS_SEND_START,1516063248061,110
246,WS_SEND_END,1516063248062,110
246,WS_RECV_START,1516063248062,111
246,WS_RECV_END,1516063250271,111
246,PLAYER_SLEEPBEFORE_START,1516063250271,112
246,PLAYER_SLEEPBEFORE_END,1516063271035,112
246,WS_SEND_START,1516063271035,112
246,WS_SEND_END,1516063271035,112
246,PLAYER_SLEEPBEFORE_START,1516063271035,113
246,PLAYER_SLEEPBEFORE_END,1516063273429,113
246,WS_SEND_START,1516063273429,113
246,WS_SEND_END,1516063273429,113
246,WS_RECV_START,1516063273429,114
246,WS_RECV_END,1516063274328,114
246,PLAYER_SLEEPBEFORE_START,1516063274328,115
246,PLAYER_SLEEPBEFORE_END,1516063275110,115
246,WS_SEND_START,1516063275110,115
246,WS_SEND_END,1516063275110,115
246,WS_RECV_START,1516063275110,116
246,WS_RECV_END,1516063276142,116
246,PLAYER_SLEEPBEFORE_START,1516063276142,117
246,PLAYER_SLEEPBEFORE_END,1516063298527,117
246,WS_SEND_START,1516063298527,117
246,WS_SEND_END,1516063298527,117
246,WS_RECV_START,1516063298527,118
246,WS_RECV_END,1516063304607,118
246,PLAYER_SLEEPBEFORE_START,1516063304607,119
246,PLAYER_SLEEPBEFORE_END,1516063306511,119
246,WS_SEND_START,1516063306511,119
246,WS_SEND_END,1516063306511,119
246,WS_RECV_START,1516063306511,120
246,WS_RECV_END,1516063306835,120
246,PLAYER_SLEEPBEFORE_START,1516063306835,121
246,PLAYER_SLEEPBEFORE_END,1516063307987,121
246,WS_SEND_START,1516063307987,121
246,WS_SEND_END,1516063307987,121
246,WS_RECV_START,1516063307987,122
246,WS_RECV_END,1516063311891,122
246,PLAYER_SLEEPBEFORE_START,1516063311891,123
246,PLAYER_SLEEPBEFORE_END,1516063313015,123
246,WS_SEND_START,1516063313015,123
246,WS_SEND_END,1516063313015,123
246,WS_RECV_START,1516063313015,124
246,WS_RECV_END,1516063316514,124
246,PLAYER_SLEEPBEFORE_START,1516063316514,125
246,PLAYER_SLEEPBEFORE_END,1516063318010,125
246,WS_SEND_START,1516063318010,125
246,WS_SEND_END,1516063318011,125
246,WS_RECV_START,1516063318011,126
246,WS_RECV_END,1516063320034,126
246,PLAYER_SLEEPBEFORE_START,1516063320034,127
246,PLAYER_SLEEPBEFORE_END,1516063340644,127
246,WS_SEND_START,1516063340644,127
246,WS_SEND_END,1516063340644,127
246,WS_RECV_START,1516063340644,128
246,WS_RECV_END,1516063344161,128
246,PLAYER_SLEEPBEFORE_START,1516063344161,129
246,PLAYER_SLEEPBEFORE_END,1516063369192,129
246,WS_SEND_START,1516063369192,129
246,WS_SEND_END,1516063369192,129
246,PLAYER_SLEEPBEFORE_START,1516063369192,130
246,PLAYER_SLEEPBEFORE_END,1516063371172,130
246,WS_SEND_START,1516063371172,130
246,WS_SEND_END,1516063371172,130
246,WS_RECV_START,1516063371172,131
246,WS_RECV_END,1516063372782,131
246,PLAYER_SLEEPBEFORE_START,1516063372782,132
246,PLAYER_SLEEPBEFORE_END,1516063372791,132
246,WS_SEND_START,1516063372791,132
246,WS_SEND_END,1516063372791,132
246,WS_RECV_START,1516063372791,133
246,WS_RECV_END,1516063376275,133
246,PLAYER_SLEEPBEFORE_START,1516063376275,134
246,PLAYER_SLEEPBEFORE_END,1516063377351,134
246,REQ_START,1516063377351,134
246,REQ_END,1516063377359,134
246,PLAYER_SLEEPBEFORE_START,1516063377359,135
246,PLAYER_SLEEPBEFORE_END,1516063377949,135
246,WS_SEND_START,1516063377949,135
246,WS_SEND_END,1516063377949,135
246,WS_RECV_START,1516063377949,136
246,WS_RECV_END,1516063384177,136
246,PLAYER_SLEEPBEFORE_START,1516063384177,137
246,PLAYER_SLEEPBEFORE_END,1516063384190,137
246,WS_SEND_START,1516063384190,137
246,WS_SEND_END,1516063384190,137
246,WS_RECV_START,1516063384190,138
246,WS_RECV_END,1516063389174,138
246,PLAYER_SLEEPBEFORE_START,1516063389174,139
246,PLAYER_SLEEPBEFORE_END,1516063406848,139
246,WS_SEND_START,1516063406848,139
246,WS_SEND_END,1516063406848,139
246,PLAYER_SLEEPBEFORE_START,1516063406848,140
246,PLAYER_SLEEPBEFORE_END,1516063410752,140
246,WS_SEND_START,1516063410752,140
246,WS_SEND_END,1516063410752,140
246,PLAYER_SLEEPBEFORE_START,1516063410752,141
246,PLAYER_SLEEPBEFORE_END,1516063413044,141
246,WS_SEND_START,1516063413044,141
246,WS_SEND_END,1516063413044,141
246,WS_RECV_START,1516063413044,142
246,WS_RECV_END,1516063420257,142
246,PLAYER_SLEEPBEFORE_START,1516063420257,143
246,PLAYER_SLEEPBEFORE_END,1516063420265,143
246,WS_SEND_START,1516063420265,143
246,WS_SEND_END,1516063420265,143
246,WS_RECV_START,1516063420265,144
246,WS_RECV_END,1516063422390,144
246,PLAYER_SLEEPBEFORE_START,1516063422390,145
246,PLAYER_SLEEPBEFORE_END,1516063424133,145
246,WS_SEND_START,1516063424133,145
246,WS_SEND_END,1516063424133,145
246,WS_RECV_START,1516063424134,146
246,WS_RECV_END,1516063431267,146
246,PLAYER_SLEEPBEFORE_START,1516063431267,147
246,PLAYER_SLEEPBEFORE_END,1516063431276,147
246,WS_SEND_START,1516063431276,147
246,WS_SEND_END,1516063431276,147
246,WS_RECV_START,1516063431276,148
246,WS_RECV_END,1516063439931,148
246,PLAYER_SLEEPBEFORE_START,1516063439931,149
246,PLAYER_SLEEPBEFORE_END,1516063455044,149
246,WS_SEND_START,1516063455044,149
246,WS_SEND_END,1516063455044,149
246,PLAYER_SLEEPBEFORE_START,1516063455044,150
246,PLAYER_SLEEPBEFORE_END,1516063465719,150
246,WS_SEND_START,1516063465719,150
246,WS_SEND_END,1516063465719,150
246,PLAYER_SLEEPBEFORE_START,1516063465719,151
246,PLAYER_SLEEPBEFORE_END,1516063468711,151
246,WS_SEND_START,1516063468711,151
246,WS_SEND_END,1516063468711,151
246,WS_RECV_START,1516063468711,152
246,WS_RECV_END,1516063476671,152
246,PLAYER_SLEEPBEFORE_START,1516063476671,153
246,PLAYER_SLEEPBEFORE_END,1516063476678,153
246,WS_SEND_START,1516063476678,153
246,WS_SEND_END,1516063476678,153
246,WS_RECV_START,1516063476678,154
246,WS_RECV_END,1516063479334,154
246,PLAYER_SLEEPBEFORE_START,1516063479334,155
246,PLAYER_SLEEPBEFORE_END,1516063479942,155
246,WS_SEND_START,1516063479942,155
246,WS_SEND_END,1516063479942,155
246,WS_RECV_START,1516063479942,156
246,WS_RECV_END,1516063481943,156
246,PLAYER_SLEEPBEFORE_START,1516063481943,157
246,PLAYER_SLEEPBEFORE_END,1516063483286,157
246,WS_SEND_START,1516063483286,157
246,WS_SEND_END,1516063483286,157
246,WS_RECV_START,1516063483286,158
246,WS_RECV_END,1516063489473,158
246,PLAYER_SLEEPBEFORE_START,1516063489473,159
246,PLAYER_SLEEPBEFORE_END,1516063493373,159
246,WS_SEND_START,1516063493373,159
246,WS_SEND_END,1516063493373,159
246,WS_RECV_START,1516063493373,160
246,WS_RECV_END,1516063502817,160
246,PLAYER_SLEEPBEFORE_START,1516063502817,161
246,PLAYER_SLEEPBEFORE_END,1516063503600,161
246,WS_SEND_START,1516063503600,161
246,WS_SEND_END,1516063503600,161
246,WS_RECV_START,1516063503600,162
246,WS_RECV_END,1516063506717,162
246,PLAYER_SLEEPBEFORE_START,1516063506717,163
246,PLAYER_SLEEPBEFORE_END,1516063506726,163
246,WS_SEND_START,1516063506726,163
246,WS_SEND_END,1516063506726,163
246,WS_RECV_START,1516063506726,164
246,WS_RECV_END,1516063507203,164
246,PLAYER_SLEEPBEFORE_START,1516063507203,165
246,PLAYER_SLEEPBEFORE_END,1516063514577,165
246,WS_SEND_START,1516063514577,165
246,WS_SEND_END,1516063514577,165
246,WS_RECV_START,1516063514577,166
246,WS_RECV_END,1516063515717,166
246,PLAYER_SLEEPBEFORE_START,1516063515717,167
246,PLAYER_SLEEPBEFORE_END,1516063536966,167
246,WS_SEND_START,1516063536966,167
246,WS_SEND_END,1516063536966,167
246,PLAYER_SLEEPBEFORE_START,1516063536966,168
246,PLAYER_SLEEPBEFORE_END,1516063541701,168
246,WS_SEND_START,1516063541701,168
246,WS_SEND_END,1516063541701,168
246,PLAYER_SLEEPBEFORE_START,1516063541701,169
246,PLAYER_SLEEPBEFORE_END,1516063543252,169
246,WS_SEND_START,1516063543252,169
246,WS_SEND_END,1516063543252,169
246,WS_RECV_START,1516063543252,170
246,WS_RECV_END,1516063548398,170
246,PLAYER_SLEEPBEFORE_START,1516063548398,171
246,PLAYER_SLEEPBEFORE_END,1516063548405,171
246,WS_SEND_START,1516063548405,171
246,WS_SEND_END,1516063548405,171
246,WS_RECV_START,1516063548405,172
246,WS_RECV_END,1516063550566,172
246,PLAYER_SLEEPBEFORE_START,1516063550566,173
246,PLAYER_SLEEPBEFORE_END,1516063551335,173
246,WS_SEND_START,1516063551335,173
246,WS_SEND_END,1516063551335,173
246,WS_RECV_START,1516063551335,174
246,WS_RECV_END,1516063554074,174
246,PLAYER_SLEEPBEFORE_START,1516063554074,175
246,PLAYER_SLEEPBEFORE_END,1516063554834,175
246,WS_SEND_START,1516063554834,175
246,WS_SEND_END,1516063554834,175
246,WS_RECV_START,1516063554834,176
246,WS_RECV_END,1516063556633,176
246,PLAYER_SLEEPBEFORE_START,1516063556633,177
246,PLAYER_SLEEPBEFORE_END,1516063557433,177
246,WS_SEND_START,1516063557433,177
246,WS_SEND_END,1516063557433,177
246,WS_RECV_START,1516063557433,178
246,WS_RECV_END,1516063558960,178
246,PLAYER_SLEEPBEFORE_START,1516063558960,179
246,PLAYER_SLEEPBEFORE_END,1516063564214,179
246,WS_SEND_START,1516063564214,179
246,WS_SEND_END,1516063564214,179
246,PLAYER_SLEEPBEFORE_START,1516063564214,180
246,PLAYER_SLEEPBEFORE_END,1516063570832,180
246,WS_SEND_START,1516063570833,180
246,WS_SEND_END,1516063570833,180
246,PLAYER_SLEEPBEFORE_START,1516063570833,181
246,PLAYER_SLEEPBEFORE_END,1516063572569,181
246,WS_SEND_START,1516063572569,181
246,WS_SEND_END,1516063572569,181
246,WS_RECV_START,1516063572569,182
246,WS_RECV_END,1516063575977,182
246,PLAYER_SLEEPBEFORE_START,1516063575977,183
246,PLAYER_SLEEPBEFORE_END,1516063576714,183
246,WS_SEND_START,1516063576714,183
246,WS_SEND_END,1516063576714,183
246,WS_RECV_START,1516063576714,184
246,WS_RECV_END,1516063579714,184
246,PLAYER_SLEEPBEFORE_START,1516063579714,185
246,PLAYER_SLEEPBEFORE_END,1516063579727,185
246,WS_SEND_START,1516063579727,185
246,WS_SEND_END,1516063579727,185
246,WS_RECV_START,1516063579727,186
246,WS_RECV_END,1516063581651,186
246,PLAYER_SLEEPBEFORE_START,1516063581651,187
246,PLAYER_SLEEPBEFORE_END,1516063606658,187
246,WS_SEND_START,1516063606658,187
246,WS_SEND_END,1516063606658,187
246,WS_RECV_START,1516063606658,188
246,WS_RECV_END,1516063608557,188
246,PLAYER_SLEEPBEFORE_START,1516063608557,189
246,PLAYER_SLEEPBEFORE_END,1516063633780,189
246,WS_SEND_START,1516063633780,189
246,WS_SEND_END,1516063633780,189
246,WS_RECV_START,1516063633780,190
246,WS_RECV_END,1516063637158,190
246,PLAYER_SLEEPBEFORE_START,1516063637158,191
246,PLAYER_SLEEPBEFORE_END,1516063637163,191
246,WS_SEND_START,1516063637163,191
246,WS_SEND_END,1516063637163,191
246,WS_RECV_START,1516063637163,192
246,WS_RECV_END,1516063637970,192
246,PLAYER_SLEEPBEFORE_START,1516063637970,193
246,PLAYER_SLEEPBEFORE_END,1516063638407,193
246,WS_SEND_START,1516063638407,193
246,WS_SEND_END,1516063638407,193
246,WS_RECV_START,1516063638407,194
246,WS_RECV_END,1516063642171,194
246,PLAYER_SLEEPBEFORE_START,1516063642171,195
246,PLAYER_SLEEPBEFORE_END,1516063642185,195
246,WS_SEND_START,1516063642185,195
246,WS_SEND_END,1516063642185,195
246,WS_RECV_START,1516063642185,196
246,WS_RECV_END,1516063645698,196
246,PLAYER_SLEEPBEFORE_START,1516063645698,197
246,PLAYER_SLEEPBEFORE_END,1516063670469,197
246,WS_SEND_START,1516063670469,197
246,WS_SEND_END,1516063670469,197
246,WS_RECV_START,1516063670469,198
246,WS_RECV_END,1516063671405,198
246,PLAYER_SLEEPBEFORE_START,1516063671405,199
246,PLAYER_SLEEPBEFORE_END,1516063671412,199
246,WS_SEND_START,1516063671412,199
246,WS_SEND_END,1516063671412,199
246,WS_RECV_START,1516063671412,200
246,WS_RECV_END,1516063671603,200
246,PLAYER_SLEEPBEFORE_START,1516063671603,201
246,PLAYER_SLEEPBEFORE_END,1516063672900,201
246,WS_SEND_START,1516063672900,201
246,WS_SEND_END,1516063672900,201
246,WS_RECV_START,1516063672900,202
246,WS_RECV_END,1516063676138,202
246,PLAYER_SLEEPBEFORE_START,1516063676138,203
246,PLAYER_SLEEPBEFORE_END,1516063676150,203
246,WS_SEND_START,1516063676150,203
246,WS_SEND_END,1516063676150,203
246,WS_RECV_START,1516063676150,204
246,WS_RECV_END,1516063678232,204
246,PLAYER_SLEEPBEFORE_START,1516063678232,205
246,PLAYER_SLEEPBEFORE_END,1516063699866,205
246,WS_SEND_START,1516063699866,205
246,WS_SEND_END,1516063699866,205
246,WS_RECV_START,1516063699866,206
246,WS_RECV_END,1516063706975,206
246,PLAYER_SLEEPBEFORE_START,1516063706975,207
246,PLAYER_SLEEPBEFORE_END,1516063731099,207
246,WS_SEND_START,1516063731099,207
246,WS_SEND_END,1516063731099,207
246,WS_RECV_START,1516063731099,208
246,WS_RECV_END,1516063733002,208
246,PLAYER_SLEEPBEFORE_START,1516063733002,209
246,PLAYER_SLEEPBEFORE_END,1516063739416,209
246,WS_SEND_START,1516063739416,209
246,WS_SEND_END,1516063739420,209
246,WS_RECV_START,1516063739420,210
246,WS_RECV_END,1516063742230,210
246,PLAYER_SLEEPBEFORE_START,1516063742230,211
246,PLAYER_SLEEPBEFORE_END,1516063761062,211
246,WS_SEND_START,1516063761062,211
246,WS_SEND_END,1516063761062,211
246,WS_RECV_START,1516063761062,212
246,WS_RECV_END,1516063767179,212
246,PLAYER_SLEEPBEFORE_START,1516063767179,213
246,PLAYER_SLEEPBEFORE_END,1516063792232,213
246,WS_SEND_START,1516063792232,213
246,WS_SEND_END,1516063792232,213
246,WS_RECV_START,1516063792232,214
246,WS_RECV_END,1516063799724,214
246,PLAYER_SLEEPBEFORE_START,1516063799724,215
246,PLAYER_SLEEPBEFORE_END,1516063807835,215
246,REQ_START,1516063807835,215
246,REQ_END,1516063807843,215
246,PLAYER_SLEEPBEFORE_START,1516063807843,216
246,PLAYER_SLEEPBEFORE_END,1516063824404,216
246,WS_SEND_START,1516063824404,216
246,WS_SEND_END,1516063824404,216
246,WS_RECV_START,1516063824404,217
246,WS_RECV_END,1516063827379,217
246,PLAYER_SLEEPBEFORE_START,1516063827379,218
246,PLAYER_SLEEPBEFORE_END,1516063827386,218
246,WS_SEND_START,1516063827386,218
246,WS_SEND_END,1516063827386,218
246,WS_RECV_START,1516063827386,219
246,WS_RECV_END,1516063827678,219
246,PLAYER_SLEEPBEFORE_START,1516063827678,220
246,PLAYER_SLEEPBEFORE_END,1516063828446,220
246,WS_SEND_START,1516063828446,220
246,WS_SEND_END,1516063828446,220
246,WS_RECV_START,1516063828446,221
246,WS_RECV_END,1516063836440,221
246,PLAYER_SLEEPBEFORE_START,1516063836440,222
246,PLAYER_SLEEPBEFORE_END,1516063836497,222
246,WS_SEND_START,1516063836497,222
246,WS_SEND_END,1516063836497,222
246,WS_RECV_START,1516063836497,223
246,WS_RECV_END,1516063843540,223
246,PLAYER_SLEEPBEFORE_START,1516063843540,224
246,PLAYER_SLEEPBEFORE_END,1516063866196,224
246,WS_SEND_START,1516063866196,224
246,WS_SEND_END,1516063866196,224
246,WS_RECV_START,1516063866196,225
246,WS_RECV_END,1516063876898,225
246,PLAYER_SLEEPBEFORE_START,1516063876898,226
246,PLAYER_SLEEPBEFORE_END,1516063902633,226
246,WS_SEND_START,1516063902633,226
246,WS_SEND_END,1516063902633,226
246,WS_RECV_START,1516063902633,227
246,WS_RECV_END,1516063911860,227
246,PLAYER_SLEEPBEFORE_START,1516063911860,228
246,PLAYER_SLEEPBEFORE_END,1516063934853,228
246,WS_SEND_START,1516063934853,228
246,WS_SEND_END,1516063934853,228
246,WS_RECV_START,1516063934853,229
246,WS_RECV_END,1516063945961,229
246,PLAYER_SLEEPBEFORE_START,1516063945961,230
246,PLAYER_SLEEPBEFORE_END,1516063970177,230
246,WS_SEND_START,1516063970177,230
246,WS_SEND_END,1516063970177,230
246,WS_RECV_START,1516063970177,231
246,WS_RECV_END,1516063977212,231
246,PLAYER_SLEEPBEFORE_START,1516063977212,232
246,PLAYER_SLEEPBEFORE_END,1516064001968,232
246,WS_SEND_START,1516064001968,232
246,WS_SEND_END,1516064001968,232
246,WS_RECV_START,1516064001968,233
246,WS_RECV_END,1516064008972,233
246,PLAYER_SLEEPBEFORE_START,1516064008972,234
246,PLAYER_SLEEPBEFORE_END,1516064036005,234
246,WS_SEND_START,1516064036005,234
246,WS_SEND_END,1516064036005,234
246,WS_RECV_START,1516064036005,235
246,WS_RECV_END,1516064039218,235
246,PLAYER_SLEEPBEFORE_START,1516064039218,236
246,PLAYER_SLEEPBEFORE_END,1516064063058,236
246,WS_SEND_START,1516064063058,236
246,WS_SEND_END,1516064063058,236
246,WS_RECV_START,1516064063058,237
246,WS_RECV_END,1516064068946,237
246,PLAYER_SLEEPBEFORE_START,1516064068946,238
246,PLAYER_SLEEPBEFORE_END,1516064081756,238
246,WS_SEND_START,1516064081756,238
246,WS_SEND_END,1516064081757,238
246,WS_RECV_START,1516064081757,239
246,WS_RECV_END,1516064092672,239
246,PLAYER_SLEEPBEFORE_START,1516064092672,240
246,PLAYER_SLEEPBEFORE_END,1516064105327,240
246,WS_SEND_START,1516064105327,240
246,WS_SEND_END,1516064105327,240
246,WS_RECV_START,1516064105327,241
246,WS_RECV_END,1516064113704,241
246,PLAYER_SLEEPBEFORE_START,1516064113704,242
246,PLAYER_SLEEPBEFORE_END,1516064113727,242
246,WS_SEND_START,1516064113727,242
246,WS_SEND_END,1516064113727,242
246,WS_RECV_START,1516064113727,243
246,WS_RECV_END,1516064116132,243
246,PLAYER_SLEEPBEFORE_START,1516064116132,244
246,PLAYER_SLEEPBEFORE_END,1516064138370,244
246,WS_SEND_START,1516064138370,244
246,WS_SEND_END,1516064138371,244
246,WS_RECV_START,1516064138371,245
246,WS_RECV_END,1516064149211,245
246,PLAYER_SLEEPBEFORE_START,1516064149211,246
246,PLAYER_SLEEPBEFORE_END,1516064149220,246
246,WS_SEND_START,1516064149220,246
246,WS_SEND_END,1516064149220,246
246,WS_RECV_START,1516064149220,247
246,WS_RECV_END,1516064156458,247
246,PLAYER_SLEEPBEFORE_START,1516064156458,248
246,PLAYER_SLEEPBEFORE_END,1516064158496,248
246,WS_SEND_START,1516064158496,248
246,WS_SEND_END,1516064158496,248
246,WS_RECV_START,1516064158496,249
246,WS_RECV_END,1516064169293,249
246,PLAYER_SLEEPBEFORE_START,1516064169293,250
246,PLAYER_SLEEPBEFORE_END,1516064169330,250
246,WS_SEND_START,1516064169330,250
246,WS_SEND_END,1516064169330,250
246,WS_RECV_START,1516064169330,251
246,WS_RECV_END,1516064173320,251
246,PLAYER_SLEEPBEFORE_START,1516064173320,252
246,PLAYER_SLEEPBEFORE_END,1516064195962,252
246,WS_SEND_START,1516064195962,252
246,WS_SEND_END,1516064195962,252
246,WS_RECV_START,1516064195962,253
246,WS_RECV_END,1516064206042,253
246,PLAYER_SLEEPBEFORE_START,1516064206042,254
246,PLAYER_SLEEPBEFORE_END,1516064206058,254
246,WS_SEND_START,1516064206058,254
246,WS_SEND_END,1516064206058,254
246,WS_RECV_START,1516064206058,255
246,WS_RECV_END,1516064209201,255
246,PLAYER_SLEEPBEFORE_START,1516064209201,256
246,PLAYER_SLEEPBEFORE_END,1516064233824,256
246,WS_SEND_START,1516064233824,256
246,WS_SEND_END,1516064233824,256
246,WS_RECV_START,1516064233824,257
246,WS_RECV_END,1516064248355,257
246,PLAYER_SLEEPBEFORE_START,1516064248355,258
246,PLAYER_SLEEPBEFORE_END,1516064248363,258
246,WS_SEND_START,1516064248363,258
246,WS_SEND_END,1516064248363,258
246,WS_RECV_START,1516064248363,259
246,WS_RECV_END,1516064254690,259
246,PLAYER_SLEEPBEFORE_START,1516064254690,260
246,PLAYER_SLEEPBEFORE_END,1516064255215,260
246,WS_SEND_START,1516064255215,260
246,WS_SEND_END,1516064255215,260
246,WS_RECV_START,1516064255215,261
246,WS_RECV_END,1516064258545,261
246,PLAYER_SLEEPBEFORE_START,1516064258545,262
246,PLAYER_SLEEPBEFORE_END,1516064258817,262
246,WS_SEND_START,1516064258817,262
246,WS_SEND_END,1516064258817,262
246,WS_RECV_START,1516064258817,263
246,WS_RECV_END,1516064261435,263
246,PLAYER_SLEEPBEFORE_START,1516064261435,264
246,PLAYER_SLEEPBEFORE_END,1516064263849,264
246,WS_SEND_START,1516064263849,264
246,WS_SEND_END,1516064263849,264
246,WS_RECV_START,1516064263849,265
246,WS_RECV_END,1516064268785,265
246,PLAYER_SLEEPBEFORE_START,1516064268785,266
246,PLAYER_SLEEPBEFORE_END,1516064268797,266
246,WS_SEND_START,1516064268797,266
246,WS_SEND_END,1516064268797,266
246,WS_RECV_START,1516064268797,267
246,WS_RECV_END,1516064277913,267
246,PLAYER_SLEEPBEFORE_START,1516064277913,268
246,PLAYER_SLEEPBEFORE_END,1516064279383,268
246,REQ_START,1516064279383,268
246,REQ_END,1516064279391,268
246,PLAYER_SLEEPBEFORE_START,1516064279391,269
246,PLAYER_SLEEPBEFORE_END,1516064296786,269
246,WS_SEND_START,1516064296786,269
246,WS_SEND_END,1516064296786,269
246,WS_RECV_START,1516064296786,270
246,WS_RECV_END,1516064309776,270
246,PLAYER_SLEEPBEFORE_START,1516064309776,271
246,PLAYER_SLEEPBEFORE_END,1516064309783,271
246,WS_SEND_START,1516064309783,271
246,WS_SEND_END,1516064309783,271
246,WS_RECV_START,1516064309783,272
246,WS_RECV_END,1516064317918,272
246,PLAYER_SLEEPBEFORE_START,1516064317918,273
246,PLAYER_SLEEPBEFORE_END,1516064319216,273
246,WS_SEND_START,1516064319216,273
246,WS_SEND_END,1516064319216,273
246,WS_RECV_START,1516064319216,274
246,WS_RECV_END,1516064321691,274
246,PLAYER_SLEEPBEFORE_START,1516064321691,275
246,PLAYER_SLEEPBEFORE_END,1516064322864,275
246,WS_SEND_START,1516064322864,275
246,WS_SEND_END,1516064322864,275
246,WS_RECV_START,1516064322864,276
246,WS_RECV_END,1516064325362,276
246,PLAYER_SLEEPBEFORE_START,1516064325362,277
246,PLAYER_SLEEPBEFORE_END,1516064325384,277
246,WS_SEND_START,1516064325384,277
246,WS_SEND_END,1516064325384,277
246,WS_RECV_START,1516064325384,278
246,WS_RECV_END,1516064329083,278
246,PLAYER_SLEEPBEFORE_START,1516064329083,279
246,PLAYER_SLEEPBEFORE_END,1516064353606,279
246,WS_SEND_START,1516064353606,279
246,WS_SEND_END,1516064353606,279
246,WS_RECV_START,1516064353606,280
246,WS_RECV_END,1516064364509,280
246,PLAYER_SLEEPBEFORE_START,1516064364509,281
246,PLAYER_SLEEPBEFORE_END,1516064386797,281
246,WS_SEND_START,1516064386797,281
246,WS_SEND_END,1516064386797,281
246,WS_RECV_START,1516064386797,282
246,WS_RECV_END,1516064403814,282
246,PLAYER_SLEEPBEFORE_START,1516064403814,283
246,PLAYER_SLEEPBEFORE_END,1516064403832,283
246,WS_SEND_START,1516064403832,283
246,WS_SEND_END,1516064403832,283
246,WS_RECV_START,1516064403832,284
246,WS_RECV_END,1516064413205,284
246,PLAYER_SLEEPBEFORE_START,1516064413205,285
246,PLAYER_SLEEPBEFORE_END,1516064437337,285
246,WS_SEND_START,1516064437337,285
246,WS_SEND_END,1516064437337,285
246,WS_RECV_START,1516064437337,286
246,WS_RECV_END,1516064449425,286
246,PLAYER_SLEEPBEFORE_START,1516064449425,287
246,PLAYER_SLEEPBEFORE_END,1516064472579,287
246,WS_SEND_START,1516064472579,287
246,WS_SEND_END,1516064472579,287
246,WS_RECV_START,1516064472579,288
246,WS_RECV_END,1516064484972,288
246,PLAYER_SLEEPBEFORE_START,1516064484972,289
246,PLAYER_SLEEPBEFORE_END,1516064484994,289
246,WS_SEND_START,1516064484994,289
246,WS_SEND_END,1516064484994,289
246,WS_RECV_START,1516064484994,290
246,WS_RECV_END,1516064494512,290
246,PLAYER_SLEEPBEFORE_START,1516064494512,291
246,PLAYER_SLEEPBEFORE_END,1516064505126,291
246,WS_SEND_START,1516064505126,291
246,WS_SEND_END,1516064505126,291
246,WS_RECV_START,1516064505126,292
246,WS_RECV_END,1516064517521,292
246,PLAYER_SLEEPBEFORE_START,1516064517522,293
246,PLAYER_SLEEPBEFORE_END,1516064533278,293
246,WS_SEND_START,1516064533278,293
246,WS_SEND_END,1516064533278,293
246,WS_RECV_START,1516064533278,294
246,WS_RECV_END,1516064544055,294
246,PLAYER_SLEEPBEFORE_START,1516064544055,295
246,PLAYER_SLEEPBEFORE_END,1516064544080,295
246,WS_SEND_START,1516064544080,295
246,WS_SEND_END,1516064544080,295
246,WS_RECV_START,1516064544080,296
246,WS_RECV_END,1516064553966,296
246,PLAYER_SLEEPBEFORE_START,1516064553966,297
246,PLAYER_SLEEPBEFORE_END,1516064575463,297
246,WS_SEND_START,1516064575463,297
246,WS_SEND_END,1516064575463,297
246,WS_RECV_START,1516064575463,298
246,WS_RECV_END,1516064597133,298
246,PLAYER_SLEEPBEFORE_START,1516064597133,299
246,PLAYER_SLEEPBEFORE_END,1516064597143,299
246,WS_SEND_START,1516064597143,299
246,WS_SEND_END,1516064597143,299
246,WS_RECV_START,1516064597143,300
246,WS_RECV_END,1516064603615,300
246,PLAYER_SLEEPBEFORE_START,1516064603615,301
246,PLAYER_SLEEPBEFORE_END,1516064605975,301
246,WS_SEND_START,1516064605975,301
246,WS_SEND_END,1516064605975,301
246,WS_RECV_START,1516064605975,302
246,WS_RECV_END,1516064614190,302
246,PLAYER_SLEEPBEFORE_START,1516064614190,303
246,PLAYER_SLEEPBEFORE_END,1516064614214,303
246,WS_SEND_START,1516064614214,303
246,WS_SEND_END,1516064614214,303
246,WS_RECV_START,1516064614214,304
246,WS_RECV_END,1516064627231,304
246,PLAYER_SLEEPBEFORE_START,1516064627231,305
246,PLAYER_SLEEPBEFORE_END,1516064652221,305
246,WS_SEND_START,1516064652221,305
246,WS_SEND_END,1516064652221,305
246,WS_RECV_START,1516064652221,306
246,WS_RECV_END,1516064667852,306
246,PLAYER_SLEEPBEFORE_START,1516064667852,307
246,PLAYER_SLEEPBEFORE_END,1516064691727,307
246,WS_SEND_START,1516064691727,307
246,WS_SEND_END,1516064691727,307
246,WS_RECV_START,1516064691727,308
246,WS_RECV_END,1516064696907,308
246,PLAYER_SLEEPBEFORE_START,1516064696907,309
246,PLAYER_SLEEPBEFORE_END,1516064718598,309
246,WS_SEND_START,1516064718598,309
246,WS_SEND_END,1516064718598,309
246,WS_RECV_START,1516064718598,310
246,WS_RECV_END,1516064723356,310
246,PLAYER_SLEEPBEFORE_START,1516064723356,311
246,PLAYER_SLEEPBEFORE_END,1516064752183,311
246,WS_SEND_START,1516064752183,311
246,WS_SEND_END,1516064752183,311
246,WS_RECV_START,1516064752183,312
246,WS_RECV_END,1516064766194,312
246,PLAYER_SLEEPBEFORE_START,1516064766194,313
246,PLAYER_SLEEPBEFORE_END,1516064766214,313
246,WS_SEND_START,1516064766214,313
246,WS_SEND_END,1516064766214,313
246,WS_RECV_START,1516064766214,314
246,WS_RECV_END,1516064773466,314
246,PLAYER_SLEEPBEFORE_START,1516064773466,315
246,PLAYER_SLEEPBEFORE_END,1516064795052,315
246,WS_SEND_START,1516064795052,315
246,WS_SEND_END,1516064795052,315
246,WS_RECV_START,1516064795052,316
246,WS_RECV_END,1516064803695,316
246,PLAYER_SLEEPBEFORE_START,1516064803695,317
246,PLAYER_SLEEPBEFORE_END,1516064803704,317
246,WS_SEND_START,1516064803704,317
246,WS_SEND_END,1516064803704,317
246,WS_RECV_START,1516064803704,318
246,WS_RECV_END,1516064810154,318
246,PLAYER_SLEEPBEFORE_START,1516064810154,319
246,PLAYER_SLEEPBEFORE_END,1516064810487,319
246,WS_SEND_START,1516064810487,319
246,WS_SEND_END,1516064810487,319
246,WS_RECV_START,1516064810487,320
246,WS_RECV_END,1516064817543,320
246,PLAYER_SLEEPBEFORE_START,1516064817543,321
246,PLAYER_SLEEPBEFORE_END,1516064817562,321
246,WS_SEND_START,1516064817562,321
246,WS_SEND_END,1516064817562,321
246,WS_RECV_START,1516064817562,322
246,WS_RECV_END,1516064827000,322
246,PLAYER_SLEEPBEFORE_START,1516064827000,323
246,PLAYER_SLEEPBEFORE_END,1516064831393,323
246,REQ_START,1516064831393,323
246,REQ_END,1516064831404,323
246,PLAYER_SLEEPBEFORE_START,1516064831404,324
246,PLAYER_SLEEPBEFORE_END,1516064851290,324
246,WS_SEND_START,1516064851290,324
246,WS_SEND_END,1516064851290,324
246,WS_RECV_START,1516064851290,325
246,WS_RECV_END,1516064858282,325
246,PLAYER_SLEEPBEFORE_START,1516064858282,326
246,PLAYER_SLEEPBEFORE_END,1516064858291,326
246,WS_SEND_START,1516064858291,326
246,WS_SEND_END,1516064858291,326
246,WS_RECV_START,1516064858292,327
246,WS_RECV_END,1516064862099,327
246,PLAYER_SLEEPBEFORE_START,1516064862099,328
246,PLAYER_SLEEPBEFORE_END,1516064862460,328
246,WS_SEND_START,1516064862460,328
246,WS_SEND_END,1516064862460,328
246,WS_RECV_START,1516064862460,329
246,WS_RECV_END,1516064867240,329
246,PLAYER_SLEEPBEFORE_START,1516064867240,330
246,PLAYER_SLEEPBEFORE_END,1516064867586,330
246,WS_SEND_START,1516064867586,330
246,WS_SEND_END,1516064867586,330
246,WS_RECV_START,1516064867586,331
246,WS_RECV_END,1516064870413,331
246,PLAYER_SLEEPBEFORE_START,1516064870413,332
246,PLAYER_SLEEPBEFORE_END,1516064871260,332
246,WS_SEND_START,1516064871260,332
246,WS_SEND_END,1516064871260,332
246,WS_RECV_START,1516064871260,333
246,WS_RECV_END,1516064878772,333
246,PLAYER_SLEEPBEFORE_START,1516064878772,334
246,PLAYER_SLEEPBEFORE_END,1516064879169,334
246,WS_SEND_START,1516064879169,334
246,WS_SEND_END,1516064879169,334
246,WS_RECV_START,1516064879169,335
246,WS_RECV_END,1516064884941,335
246,PLAYER_SLEEPBEFORE_START,1516064884941,336
246,PLAYER_SLEEPBEFORE_END,1516064885265,336
246,WS_SEND_START,1516064885265,336
246,WS_SEND_END,1516064885265,336
246,WS_RECV_START,1516064885265,337
246,WS_RECV_END,1516064890699,337
246,PLAYER_SLEEPBEFORE_START,1516064890699,338
246,PLAYER_SLEEPBEFORE_END,1516064890714,338
246,WS_SEND_START,1516064890714,338
246,WS_SEND_END,1516064890714,338
246,WS_RECV_START,1516064890714,339
246,WS_RECV_END,1516064895908,339
246,PLAYER_SLEEPBEFORE_START,1516064895908,340
246,PLAYER_SLEEPBEFORE_END,1516064913880,340
246,WS_SEND_START,1516064913880,340
246,WS_SEND_END,1516064913880,340
246,WS_RECV_START,1516064913880,341
246,WS_RECV_END,1516064917787,341
246,PLAYER_SLEEPBEFORE_START,1516064917787,342
246,PLAYER_SLEEPBEFORE_END,1516064917796,342
246,WS_SEND_START,1516064917796,342
246,WS_SEND_END,1516064917796,342
246,WS_RECV_START,1516064917796,343
246,WS_RECV_END,1516064920662,343
246,PLAYER_SLEEPBEFORE_START,1516064920662,344
246,PLAYER_SLEEPBEFORE_END,1516064922974,344
246,WS_SEND_START,1516064922974,344
246,WS_SEND_END,1516064922974,344
246,WS_RECV_START,1516064922974,345
246,WS_RECV_END,1516064927872,345
246,PLAYER_SLEEPBEFORE_START,1516064927872,346
246,PLAYER_SLEEPBEFORE_END,1516064927883,346
246,WS_SEND_START,1516064927883,346
246,WS_SEND_END,1516064927883,346
246,WS_RECV_START,1516064927883,347
246,WS_RECV_END,1516064930019,347
246,PLAYER_SLEEPBEFORE_START,1516064930019,348
246,PLAYER_SLEEPBEFORE_END,1516064950626,348
246,WS_SEND_START,1516064950626,348
246,WS_SEND_END,1516064950626,348
246,WS_RECV_START,1516064950626,349
246,WS_RECV_END,1516064958441,349
246,PLAYER_SLEEPBEFORE_START,1516064958441,350
246,PLAYER_SLEEPBEFORE_END,1516064958449,350
246,WS_SEND_START,1516064958449,350
246,WS_SEND_END,1516064958449,350
246,WS_RECV_START,1516064958449,351
246,WS_RECV_END,1516064959326,351
246,PLAYER_SLEEPBEFORE_START,1516064959326,352
246,PLAYER_SLEEPBEFORE_END,1516064960512,352
246,WS_SEND_START,1516064960512,352
246,WS_SEND_END,1516064960512,352
246,WS_RECV_START,1516064960512,353
246,WS_RECV_END,1516064964910,353
246,PLAYER_SLEEPBEFORE_START,1516064964910,354
246,PLAYER_SLEEPBEFORE_END,1516064964926,354
246,WS_SEND_START,1516064964926,354
246,WS_SEND_END,1516064964927,354
246,WS_RECV_START,1516064964927,355
246,WS_RECV_END,1516064972876,355
246,PLAYER_SLEEPBEFORE_START,1516064972876,356
246,PLAYER_SLEEPBEFORE_END,1516064972922,356
246,WS_SEND_START,1516064972922,356
246,WS_SEND_END,1516064972922,356
246,WS_RECV_START,1516064972922,357
246,WS_RECV_END,1516064979502,357
246,PLAYER_SLEEPBEFORE_START,1516064979502,358
246,PLAYER_SLEEPBEFORE_END,1516064979517,358
246,WS_SEND_START,1516064979517,358
246,WS_SEND_END,1516064979517,358
246,WS_RECV_START,1516064979517,359
246,WS_RECV_END,1516064986698,359
246,PLAYER_SLEEPBEFORE_START,1516064986698,360
246,PLAYER_SLEEPBEFORE_END,1516065007164,360
246,WS_SEND_START,1516065007164,360
246,WS_SEND_END,1516065007164,360
246,WS_RECV_START,1516065007164,361
246,WS_RECV_END,1516065008899,361
246,PLAYER_SLEEPBEFORE_START,1516065008899,362
246,PLAYER_SLEEPBEFORE_END,1516065008908,362
246,WS_SEND_START,1516065008908,362
246,WS_SEND_END,1516065008908,362
246,WS_RECV_START,1516065008908,363
246,WS_RECV_END,1516065010314,363
246,PLAYER_SLEEPBEFORE_START,1516065010314,364
246,PLAYER_SLEEPBEFORE_END,1516065012405,364
246,WS_SEND_START,1516065012405,364
246,WS_SEND_END,1516065012405,364
246,WS_RECV_START,1516065012405,365
246,WS_RECV_END,1516065015002,365
246,PLAYER_SLEEPBEFORE_START,1516065015002,366
246,PLAYER_SLEEPBEFORE_END,1516065015013,366
246,WS_SEND_START,1516065015013,366
246,WS_SEND_END,1516065015013,366
246,WS_RECV_START,1516065015013,367
246,WS_RECV_END,1516065017323,367
246,PLAYER_SLEEPBEFORE_START,1516065017323,368
246,PLAYER_SLEEPBEFORE_END,1516065040783,368
246,WS_SEND_START,1516065040783,368
246,WS_SEND_END,1516065040783,368
246,WS_RECV_START,1516065040783,369
246,WS_RECV_END,1516065041467,369
246,PLAYER_SLEEPBEFORE_START,1516065041467,370
246,PLAYER_SLEEPBEFORE_END,1516065041475,370
246,WS_SEND_START,1516065041475,370
246,WS_SEND_END,1516065041475,370
246,WS_RECV_START,1516065041475,371
246,WS_RECV_END,1516065041718,371
246,PLAYER_SLEEPBEFORE_START,1516065041718,372
246,PLAYER_SLEEPBEFORE_END,1516065042090,372
246,WS_SEND_START,1516065042090,372
246,WS_SEND_END,1516065042090,372
246,WS_RECV_START,1516065042090,373
246,WS_RECV_END,1516065042153,373
246,PLAYER_SLEEPBEFORE_START,1516065042153,374
246,PLAYER_SLEEPBEFORE_END,1516065042855,374
246,WS_SEND_START,1516065042855,374
246,WS_SEND_END,1516065042855,374
246,WS_RECV_START,1516065042855,375
246,WS_RECV_END,1516065042912,375
246,PLAYER_SLEEPBEFORE_START,1516065042912,376
246,PLAYER_SLEEPBEFORE_END,1516065043263,376
246,WS_SEND_START,1516065043263,376
246,WS_SEND_END,1516065043263,376
246,WS_RECV_START,1516065043263,377
246,WS_RECV_END,1516065044691,377
246,PLAYER_SLEEPBEFORE_START,1516065044691,378
246,PLAYER_SLEEPBEFORE_END,1516065044710,378
246,WS_SEND_START,1516065044710,378
246,WS_SEND_END,1516065044710,378
246,WS_RECV_START,1516065044710,379
246,WS_RECV_END,1516065047456,379
246,PLAYER_SLEEPBEFORE_START,1516065047456,380
246,PLAYER_SLEEPBEFORE_END,1516065067948,380
246,WS_SEND_START,1516065067948,380
246,WS_SEND_END,1516065067948,380
246,PLAYER_SLEEPBEFORE_START,1516065067948,381
246,PLAYER_SLEEPBEFORE_END,1516065072162,381
246,WS_SEND_START,1516065072162,381
246,WS_SEND_END,1516065072162,381
246,WS_RECV_START,1516065072162,382
246,WS_RECV_END,1516065072420,382
246,PLAYER_SLEEPBEFORE_START,1516065072420,383
246,PLAYER_SLEEPBEFORE_END,1516065092620,383
246,WS_SEND_START,1516065092620,383
246,WS_SEND_END,1516065092620,383
246,PLAYER_SLEEPBEFORE_START,1516065092620,384
246,PLAYER_SLEEPBEFORE_END,1516065095806,384
246,WS_SEND_START,1516065095806,384
246,WS_SEND_END,1516065095806,384
246,WS_RECV_START,1516065095806,385
246,WS_RECV_END,1516065096719,385
246,PLAYER_SLEEPBEFORE_START,1516065096719,386
246,PLAYER_SLEEPBEFORE_END,1516065096734,386
246,WS_SEND_START,1516065096734,386
246,WS_SEND_END,1516065096734,386
246,WS_RECV_START,1516065096734,387
246,WS_RECV_END,1516065096964,387
246,PLAYER_SLEEPBEFORE_START,1516065096964,388
246,PLAYER_SLEEPBEFORE_END,1516065117494,388
246,WS_SEND_START,1516065117494,388
246,WS_SEND_END,1516065117494,388
246,PLAYER_SLEEPBEFORE_START,1516065117494,389
246,PLAYER_SLEEPBEFORE_END,1516065119714,389
246,WS_SEND_START,1516065119714,389
246,WS_SEND_END,1516065119714,389
246,WS_RECV_START,1516065119714,390
246,WS_RECV_END,1516065119959,390
246,PLAYER_SLEEPBEFORE_START,1516065119959,391
246,PLAYER_SLEEPBEFORE_END,1516065142795,391
246,WS_SEND_START,1516065142795,391
246,WS_SEND_END,1516065142795,391
246,WS_RECV_START,1516065142795,392
246,WS_RECV_END,1516065143018,392
246,PLAYER_SLEEPBEFORE_START,1516065143018,393
246,PLAYER_SLEEPBEFORE_END,1516065167707,393
246,WS_SEND_START,1516065167707,393
246,WS_SEND_END,1516065167707,393
246,PLAYER_SLEEPBEFORE_START,1516065167707,394
246,PLAYER_SLEEPBEFORE_END,1516065169679,394
246,WS_SEND_START,1516065169679,394
246,WS_SEND_END,1516065169679,394
246,WS_RECV_START,1516065169679,395
246,WS_RECV_END,1516065169737,395
246,PLAYER_SLEEPBEFORE_START,1516065169737,396
246,PLAYER_SLEEPBEFORE_END,1516065169744,396
246,WS_SEND_START,1516065169744,396
246,WS_SEND_END,1516065169744,396
246,WS_RECV_START,1516065169744,397
246,WS_RECV_END,1516065169786,397
246,PLAYER_SLEEPBEFORE_START,1516065169786,398
246,PLAYER_SLEEPBEFORE_END,1516065169966,398
246,WS_SEND_START,1516065169966,398
246,WS_SEND_END,1516065169966,398
246,WS_RECV_START,1516065169966,399
246,WS_RECV_END,1516065170020,399
246,PLAYER_SLEEPBEFORE_START,1516065170020,400
246,PLAYER_SLEEPBEFORE_END,1516065171095,400
246,WS_SEND_START,1516065171095,400
246,WS_SEND_END,1516065171095,400
246,WS_RECV_START,1516065171095,401
246,WS_RECV_END,1516065171149,401
246,PLAYER_SLEEPBEFORE_START,1516065171149,402
246,PLAYER_SLEEPBEFORE_END,1516065172508,402
246,WS_SEND_START,1516065172508,402
246,WS_SEND_END,1516065172508,402
246,WS_RECV_START,1516065172508,403
246,WS_RECV_END,1516065172584,403
246,PLAYER_SLEEPBEFORE_START,1516065172584,404
246,PLAYER_SLEEPBEFORE_END,1516065173054,404
246,WS_SEND_START,1516065173054,404
246,WS_SEND_END,1516065173054,404
246,WS_RECV_START,1516065173054,405
246,WS_RECV_END,1516065173106,405
246,PLAYER_SLEEPBEFORE_START,1516065173106,406
246,PLAYER_SLEEPBEFORE_END,1516065175833,406
246,WS_SEND_START,1516065175833,406
246,WS_SEND_END,1516065175833,406
246,WS_RECV_START,1516065175833,407
246,WS_RECV_END,1516065175887,407
246,PLAYER_SLEEPBEFORE_START,1516065175887,408
246,PLAYER_SLEEPBEFORE_END,1516065176217,408
246,WS_SEND_START,1516065176217,408
246,WS_SEND_END,1516065176217,408
246,WS_RECV_START,1516065176217,409
246,WS_RECV_END,1516065176269,409
246,PLAYER_SLEEPBEFORE_START,1516065176269,410
246,PLAYER_SLEEPBEFORE_END,1516065177294,410
246,WS_SEND_START,1516065177295,410
246,WS_SEND_END,1516065177295,410
246,WS_RECV_START,1516065177295,411
246,WS_RECV_END,1516065177348,411
246,PLAYER_SLEEPBEFORE_START,1516065177348,412
246,PLAYER_SLEEPBEFORE_END,1516065178004,412
246,WS_SEND_START,1516065178004,412
246,WS_SEND_END,1516065178004,412
246,WS_RECV_START,1516065178004,413
246,WS_RECV_END,1516065178825,413
246,PLAYER_SLEEPBEFORE_START,1516065178825,414
246,PLAYER_SLEEPBEFORE_END,1516065178841,414
246,WS_SEND_START,1516065178841,414
246,WS_SEND_END,1516065178841,414
246,WS_RECV_START,1516065178841,415
246,WS_RECV_END,1516065178986,415
246,PLAYER_SLEEPBEFORE_START,1516065178986,416
246,PLAYER_SLEEPBEFORE_END,1516065193253,416
246,WS_SEND_START,1516065193253,416
246,WS_SEND_END,1516065193253,416
246,PLAYER_SLEEPBEFORE_START,1516065193253,417
246,PLAYER_SLEEPBEFORE_END,1516065221933,417
246,WS_SEND_START,1516065221933,417
246,WS_SEND_END,1516065221933,417
246,WS_RECV_START,1516065221933,418
246,WS_RECV_END,1516065222088,418
246,PLAYER_SLEEPBEFORE_START,1516065222088,419
246,PLAYER_SLEEPBEFORE_END,1516065226910,419
246,REQ_START,1516065226910,419
246,REQ_END,1516065226917,419
246,PLAYER_SLEEPBEFORE_START,1516065226917,420
246,PLAYER_SLEEPBEFORE_END,1516065245662,420
246,WS_CLOSE_START,1516065245662,420
246,WS_CLOSE_END,1516065245662,420
246,PLAYER_DONE,1516065245662
