# --sessions 40 --app-url=http://shinyloadtest.rstudioservices.com/ --output-dir test40 --overwrite-output --log-level warn --start-interval 1500 30min.log
thread_id,event,timestamp,input_line_number,comment
35,PLAYER_SESSION_CREATE,1516048441782
35,PLAYER_START_INTERVAL_START,1516048441782
35,PLAYER_START_INTERVAL_END,1516048494282
35,REQ_HOME_START,1516048494282,2
35,REQ_HOME_END,1516048494381,2
35,REQ_START,1516048494381,3
35,REQ_END,1516048494413,3
35,REQ_START,1516048494413,4
35,REQ_END,1516048494808,4
35,REQ_START,1516048494808,5
35,REQ_END,1516048494857,5
35,REQ_START,1516048494857,6
35,REQ_END,1516048494889,6
35,REQ_START,1516048494889,7
35,REQ_END,1516048494922,7
35,REQ_START,1516048494922,8
35,REQ_END,1516048494957,8
35,REQ_START,1516048494957,9
35,REQ_END,1516048494991,9
35,REQ_START,1516048494991,10
35,REQ_END,1516048494999,10
35,REQ_START,1516048494999,11
35,REQ_END,1516048495039,11
35,REQ_START,1516048495039,12
35,REQ_END,1516048495071,12
35,REQ_START,1516048495071,13
35,REQ_END,1516048495081,13
35,REQ_START,1516048495081,14
35,REQ_END,1516048495096,14
35,REQ_START,1516048495096,15
35,REQ_END,1516048495130,15
35,REQ_TOK_START,1516048495130,16
35,REQ_TOK_END,1516048495138,16
35,REQ_SINF_START,1516048495138,17
35,REQ_SINF_END,1516048495145,17
35,WS_OPEN_START,1516048495145,18
35,WS_OPEN_END,1516048495151,18
35,WS_RECV_START,1516048495151,19
35,WS_RECV_END,1516048495152,19
35,PLAYER_SLEEPBEFORE_START,1516048495152,20
35,PLAYER_SLEEPBEFORE_END,1516048495158,20
35,WS_SEND_START,1516048495158,20
35,WS_SEND_END,1516048495158,20
35,PLAYER_SLEEPBEFORE_START,1516048495158,21
35,PLAYER_SLEEPBEFORE_END,1516048495159,21
35,WS_SEND_START,1516048495159,21
35,WS_SEND_END,1516048495159,21
35,WS_RECV_INIT_START,1516048495159,22
35,WS_RECV_INIT_END,1516048495181,22
35,WS_RECV_START,1516048495181,23
35,WS_RECV_END,1516048495262,23
35,PLAYER_SLEEPBEFORE_START,1516048495262,24
35,PLAYER_SLEEPBEFORE_END,1516048495269,24
35,REQ_START,1516048495269,24
35,REQ_END,1516048495302,24
35,PLAYER_SLEEPBEFORE_START,1516048495302,25
35,PLAYER_SLEEPBEFORE_END,1516048495304,25
35,REQ_START,1516048495304,25
35,REQ_END,1516048495336,25
35,PLAYER_SLEEPBEFORE_START,1516048495336,26
35,PLAYER_SLEEPBEFORE_END,1516048495339,26
35,REQ_START,1516048495339,26
35,REQ_END,1516048495371,26
35,PLAYER_SLEEPBEFORE_START,1516048495371,27
35,PLAYER_SLEEPBEFORE_END,1516048495627,27
35,REQ_START,1516048495627,27
35,REQ_END,1516048495661,27
35,PLAYER_SLEEPBEFORE_START,1516048495661,28
35,PLAYER_SLEEPBEFORE_END,1516048495859,28
35,WS_SEND_START,1516048495859,28
35,WS_SEND_END,1516048495859,28
35,WS_RECV_START,1516048495859,29
35,WS_RECV_END,1516048496269,29
35,PLAYER_SLEEPBEFORE_START,1516048496269,30
35,PLAYER_SLEEPBEFORE_END,1516048496280,30
35,REQ_START,1516048496280,30
35,REQ_END,1516048496327,30
35,PLAYER_SLEEPBEFORE_START,1516048496327,31
35,PLAYER_SLEEPBEFORE_END,1516048526447,31
35,WS_SEND_START,1516048526447,31
35,WS_SEND_END,1516048526447,31
35,WS_RECV_START,1516048526447,32
35,WS_RECV_END,1516048526618,32
35,PLAYER_SLEEPBEFORE_START,1516048526618,33
35,PLAYER_SLEEPBEFORE_END,1516048551385,33
35,WS_SEND_START,1516048551385,33
35,WS_SEND_END,1516048551385,33
35,WS_RECV_START,1516048551385,34
35,WS_RECV_END,1516048554639,34
35,PLAYER_SLEEPBEFORE_START,1516048554639,35
35,PLAYER_SLEEPBEFORE_END,1516048579452,35
35,WS_SEND_START,1516048579452,35
35,WS_SEND_END,1516048579453,35
35,WS_RECV_START,1516048579453,36
35,WS_RECV_END,1516048580632,36
35,PLAYER_SLEEPBEFORE_START,1516048580632,37
35,PLAYER_SLEEPBEFORE_END,1516048580641,37
35,WS_SEND_START,1516048580641,37
35,WS_SEND_END,1516048580641,37
35,WS_RECV_START,1516048580641,38
35,WS_RECV_END,1516048581046,38
35,PLAYER_SLEEPBEFORE_START,1516048581046,39
35,PLAYER_SLEEPBEFORE_END,1516048583743,39
35,WS_SEND_START,1516048583743,39
35,WS_SEND_END,1516048583743,39
35,WS_RECV_START,1516048583743,40
35,WS_RECV_END,1516048585255,40
35,PLAYER_SLEEPBEFORE_START,1516048585255,41
35,PLAYER_SLEEPBEFORE_END,1516048586374,41
35,WS_SEND_START,1516048586374,41
35,WS_SEND_END,1516048586374,41
35,WS_RECV_START,1516048586374,42
35,WS_RECV_END,1516048588601,42
35,PLAYER_SLEEPBEFORE_START,1516048588601,43
35,PLAYER_SLEEPBEFORE_END,1516048588629,43
35,WS_SEND_START,1516048588629,43
35,WS_SEND_END,1516048588629,43
35,WS_RECV_START,1516048588629,44
35,WS_RECV_END,1516048591215,44
35,PLAYER_SLEEPBEFORE_START,1516048591215,45
35,PLAYER_SLEEPBEFORE_END,1516048612704,45
35,WS_SEND_START,1516048612704,45
35,WS_SEND_END,1516048612704,45
35,WS_RECV_START,1516048612704,46
35,WS_RECV_END,1516048612855,46
35,PLAYER_SLEEPBEFORE_START,1516048612855,47
35,PLAYER_SLEEPBEFORE_END,1516048641340,47
35,WS_SEND_START,1516048641340,47
35,WS_SEND_END,1516048641340,47
35,WS_RECV_START,1516048641340,48
35,WS_RECV_END,1516048641655,48
35,PLAYER_SLEEPBEFORE_START,1516048641655,49
35,PLAYER_SLEEPBEFORE_END,1516048668064,49
35,WS_SEND_START,1516048668064,49
35,WS_SEND_END,1516048668064,49
35,WS_RECV_START,1516048668064,50
35,WS_RECV_END,1516048668179,50
35,PLAYER_SLEEPBEFORE_START,1516048668179,51
35,PLAYER_SLEEPBEFORE_END,1516048690730,51
35,WS_SEND_START,1516048690730,51
35,WS_SEND_END,1516048690730,51
35,WS_RECV_START,1516048690730,52
35,WS_RECV_END,1516048690849,52
35,PLAYER_SLEEPBEFORE_START,1516048690849,53
35,PLAYER_SLEEPBEFORE_END,1516048715754,53
35,WS_SEND_START,1516048715754,53
35,WS_SEND_END,1516048715754,53
35,WS_RECV_START,1516048715754,54
35,WS_RECV_END,1516048715872,54
35,PLAYER_SLEEPBEFORE_START,1516048715872,55
35,PLAYER_SLEEPBEFORE_END,1516048741274,55
35,WS_SEND_START,1516048741274,55
35,WS_SEND_END,1516048741274,55
35,WS_RECV_START,1516048741274,56
35,WS_RECV_END,1516048742005,56
35,PLAYER_SLEEPBEFORE_START,1516048742005,57
35,PLAYER_SLEEPBEFORE_END,1516048767343,57
35,WS_SEND_START,1516048767343,57
35,WS_SEND_END,1516048767343,57
35,WS_RECV_START,1516048767343,58
35,WS_RECV_END,1516048769144,58
35,PLAYER_SLEEPBEFORE_START,1516048769144,59
35,PLAYER_SLEEPBEFORE_END,1516048796002,59
35,WS_SEND_START,1516048796002,59
35,WS_SEND_END,1516048796002,59
35,WS_RECV_START,1516048796002,60
35,WS_RECV_END,1516048797065,60
35,PLAYER_SLEEPBEFORE_START,1516048797065,61
35,PLAYER_SLEEPBEFORE_END,1516048797088,61
35,WS_SEND_START,1516048797088,61
35,WS_SEND_END,1516048797088,61
35,WS_RECV_START,1516048797088,62
35,WS_RECV_END,1516048800638,62
35,PLAYER_SLEEPBEFORE_START,1516048800638,63
35,PLAYER_SLEEPBEFORE_END,1516048809642,63
35,REQ_START,1516048809642,63
35,REQ_END,1516048809652,63
35,PLAYER_SLEEPBEFORE_START,1516048809652,64
35,PLAYER_SLEEPBEFORE_END,1516048823858,64
35,WS_SEND_START,1516048823858,64
35,WS_SEND_END,1516048823858,64
35,WS_RECV_START,1516048823858,65
35,WS_RECV_END,1516048824625,65
35,PLAYER_SLEEPBEFORE_START,1516048824625,66
35,PLAYER_SLEEPBEFORE_END,1516048848612,66
35,WS_SEND_START,1516048848612,66
35,WS_SEND_END,1516048848612,66
35,WS_RECV_START,1516048848612,67
35,WS_RECV_END,1516048850732,67
35,PLAYER_SLEEPBEFORE_START,1516048850732,68
35,PLAYER_SLEEPBEFORE_END,1516048876307,68
35,WS_SEND_START,1516048876307,68
35,WS_SEND_END,1516048876307,68
35,WS_RECV_START,1516048876307,69
35,WS_RECV_END,1516048879443,69
35,PLAYER_SLEEPBEFORE_START,1516048879443,70
35,PLAYER_SLEEPBEFORE_END,1516048879452,70
35,WS_SEND_START,1516048879452,70
35,WS_SEND_END,1516048879452,70
35,WS_RECV_START,1516048879452,71
35,WS_RECV_END,1516048880781,71
35,PLAYER_SLEEPBEFORE_START,1516048880781,72
35,PLAYER_SLEEPBEFORE_END,1516048880986,72
35,WS_SEND_START,1516048880986,72
35,WS_SEND_END,1516048880986,72
35,WS_RECV_START,1516048880986,73
35,WS_RECV_END,1516048881869,73
35,PLAYER_SLEEPBEFORE_START,1516048881869,74
35,PLAYER_SLEEPBEFORE_END,1516048883291,74
35,WS_SEND_START,1516048883291,74
35,WS_SEND_END,1516048883291,74
35,WS_RECV_START,1516048883291,75
35,WS_RECV_END,1516048891369,75
35,PLAYER_SLEEPBEFORE_START,1516048891369,76
35,PLAYER_SLEEPBEFORE_END,1516048891864,76
35,WS_SEND_START,1516048891864,76
35,WS_SEND_END,1516048891864,76
35,WS_RECV_START,1516048891864,77
35,WS_RECV_END,1516048895296,77
35,PLAYER_SLEEPBEFORE_START,1516048895296,78
35,PLAYER_SLEEPBEFORE_END,1516048895314,78
35,WS_SEND_START,1516048895314,78
35,WS_SEND_END,1516048895314,78
35,WS_RECV_START,1516048895314,79
35,WS_RECV_END,1516048902199,79
35,PLAYER_SLEEPBEFORE_START,1516048902199,80
35,PLAYER_SLEEPBEFORE_END,1516048922933,80
35,WS_SEND_START,1516048922933,80
35,WS_SEND_END,1516048922933,80
35,WS_RECV_START,1516048922933,81
35,WS_RECV_END,1516048924148,81
35,PLAYER_SLEEPBEFORE_START,1516048924148,82
35,PLAYER_SLEEPBEFORE_END,1516048924159,82
35,WS_SEND_START,1516048924159,82
35,WS_SEND_END,1516048924159,82
35,WS_RECV_START,1516048924159,83
35,WS_RECV_END,1516048926817,83
35,PLAYER_SLEEPBEFORE_START,1516048926817,84
35,PLAYER_SLEEPBEFORE_END,1516048927681,84
35,WS_SEND_START,1516048927681,84
35,WS_SEND_END,1516048927681,84
35,WS_RECV_START,1516048927681,85
35,WS_RECV_END,1516048928138,85
35,PLAYER_SLEEPBEFORE_START,1516048928138,86
35,PLAYER_SLEEPBEFORE_END,1516048928865,86
35,WS_SEND_START,1516048928865,86
35,WS_SEND_END,1516048928865,86
35,WS_RECV_START,1516048928865,87
35,WS_RECV_END,1516048930065,87
35,PLAYER_SLEEPBEFORE_START,1516048930065,88
35,PLAYER_SLEEPBEFORE_END,1516048930086,88
35,WS_SEND_START,1516048930086,88
35,WS_SEND_END,1516048930086,88
35,WS_RECV_START,1516048930086,89
35,WS_RECV_END,1516048930802,89
35,PLAYER_SLEEPBEFORE_START,1516048930802,90
35,PLAYER_SLEEPBEFORE_END,1516048952231,90
35,WS_SEND_START,1516048952231,90
35,WS_SEND_END,1516048952231,90
35,PLAYER_SLEEPBEFORE_START,1516048952231,91
35,PLAYER_SLEEPBEFORE_END,1516048979086,91
35,WS_SEND_START,1516048979086,91
35,WS_SEND_END,1516048979086,91
35,WS_RECV_START,1516048979086,92
35,WS_RECV_END,1516048979272,92
35,PLAYER_SLEEPBEFORE_START,1516048979272,93
35,PLAYER_SLEEPBEFORE_END,1516048981546,93
35,WS_SEND_START,1516048981546,93
35,WS_SEND_END,1516048981546,93
35,WS_RECV_START,1516048981546,94
35,WS_RECV_END,1516048983519,94
35,PLAYER_SLEEPBEFORE_START,1516048983519,95
35,PLAYER_SLEEPBEFORE_END,1516049009515,95
35,WS_SEND_START,1516049009515,95
35,WS_SEND_END,1516049009515,95
35,WS_RECV_START,1516049009515,96
35,WS_RECV_END,1516049010404,96
35,PLAYER_SLEEPBEFORE_START,1516049010404,97
35,PLAYER_SLEEPBEFORE_END,1516049015492,97
35,WS_SEND_START,1516049015492,97
35,WS_SEND_END,1516049015492,97
35,WS_RECV_START,1516049015492,98
35,WS_RECV_END,1516049017250,98
35,PLAYER_SLEEPBEFORE_START,1516049017250,99
35,PLAYER_SLEEPBEFORE_END,1516049018951,99
35,WS_SEND_START,1516049018951,99
35,WS_SEND_END,1516049018951,99
35,WS_RECV_START,1516049018951,100
35,WS_RECV_END,1516049019353,100
35,PLAYER_SLEEPBEFORE_START,1516049019353,101
35,PLAYER_SLEEPBEFORE_END,1516049021192,101
35,WS_SEND_START,1516049021192,101
35,WS_SEND_END,1516049021192,101
35,WS_RECV_START,1516049021192,102
35,WS_RECV_END,1516049022762,102
35,PLAYER_SLEEPBEFORE_START,1516049022762,103
35,PLAYER_SLEEPBEFORE_END,1516049035812,103
35,WS_SEND_START,1516049035812,103
35,WS_SEND_END,1516049035812,103
35,PLAYER_SLEEPBEFORE_START,1516049035812,104
35,PLAYER_SLEEPBEFORE_END,1516049040238,104
35,WS_SEND_START,1516049040238,104
35,WS_SEND_END,1516049040238,104
35,WS_RECV_START,1516049040238,105
35,WS_RECV_END,1516049042977,105
35,PLAYER_SLEEPBEFORE_START,1516049042977,106
35,PLAYER_SLEEPBEFORE_END,1516049042986,106
35,WS_SEND_START,1516049042986,106
35,WS_SEND_END,1516049042986,106
35,WS_RECV_START,1516049042986,107
35,WS_RECV_END,1516049045581,107
35,PLAYER_SLEEPBEFORE_START,1516049045581,108
35,PLAYER_SLEEPBEFORE_END,1516049046045,108
35,WS_SEND_START,1516049046045,108
35,WS_SEND_END,1516049046045,108
35,WS_RECV_START,1516049046045,109
35,WS_RECV_END,1516049047639,109
35,PLAYER_SLEEPBEFORE_START,1516049047639,110
35,PLAYER_SLEEPBEFORE_END,1516049047654,110
35,WS_SEND_START,1516049047654,110
35,WS_SEND_END,1516049047654,110
35,WS_RECV_START,1516049047654,111
35,WS_RECV_END,1516049050452,111
35,PLAYER_SLEEPBEFORE_START,1516049050452,112
35,PLAYER_SLEEPBEFORE_END,1516049071216,112
35,WS_SEND_START,1516049071216,112
35,WS_SEND_END,1516049071216,112
35,PLAYER_SLEEPBEFORE_START,1516049071216,113
35,PLAYER_SLEEPBEFORE_END,1516049073610,113
35,WS_SEND_START,1516049073611,113
35,WS_SEND_END,1516049073611,113
35,WS_RECV_START,1516049073611,114
35,WS_RECV_END,1516049073798,114
35,PLAYER_SLEEPBEFORE_START,1516049073798,115
35,PLAYER_SLEEPBEFORE_END,1516049074580,115
35,WS_SEND_START,1516049074580,115
35,WS_SEND_END,1516049074580,115
35,WS_RECV_START,1516049074580,116
35,WS_RECV_END,1516049074881,116
35,PLAYER_SLEEPBEFORE_START,1516049074881,117
35,PLAYER_SLEEPBEFORE_END,1516049097266,117
35,WS_SEND_START,1516049097266,117
35,WS_SEND_END,1516049097266,117
35,WS_RECV_START,1516049097266,118
35,WS_RECV_END,1516049098084,118
35,PLAYER_SLEEPBEFORE_START,1516049098084,119
35,PLAYER_SLEEPBEFORE_END,1516049099988,119
35,WS_SEND_START,1516049099988,119
35,WS_SEND_END,1516049099989,119
35,WS_RECV_START,1516049099989,120
35,WS_RECV_END,1516049100403,120
35,PLAYER_SLEEPBEFORE_START,1516049100403,121
35,PLAYER_SLEEPBEFORE_END,1516049101555,121
35,WS_SEND_START,1516049101555,121
35,WS_SEND_END,1516049101555,121
35,WS_RECV_START,1516049101555,122
35,WS_RECV_END,1516049102645,122
35,PLAYER_SLEEPBEFORE_START,1516049102645,123
35,PLAYER_SLEEPBEFORE_END,1516049103769,123
35,WS_SEND_START,1516049103769,123
35,WS_SEND_END,1516049103769,123
35,WS_RECV_START,1516049103769,124
35,WS_RECV_END,1516049103941,124
35,PLAYER_SLEEPBEFORE_START,1516049103941,125
35,PLAYER_SLEEPBEFORE_END,1516049105437,125
35,WS_SEND_START,1516049105437,125
35,WS_SEND_END,1516049105438,125
35,WS_RECV_START,1516049105438,126
35,WS_RECV_END,1516049106564,126
35,PLAYER_SLEEPBEFORE_START,1516049106564,127
35,PLAYER_SLEEPBEFORE_END,1516049127174,127
35,WS_SEND_START,1516049127174,127
35,WS_SEND_END,1516049127174,127
35,WS_RECV_START,1516049127174,128
35,WS_RECV_END,1516049128231,128
35,PLAYER_SLEEPBEFORE_START,1516049128231,129
35,PLAYER_SLEEPBEFORE_END,1516049153262,129
35,WS_SEND_START,1516049153262,129
35,WS_SEND_END,1516049153262,129
35,PLAYER_SLEEPBEFORE_START,1516049153262,130
35,PLAYER_SLEEPBEFORE_END,1516049155242,130
35,WS_SEND_START,1516049155242,130
35,WS_SEND_END,1516049155242,130
35,WS_RECV_START,1516049155242,131
35,WS_RECV_END,1516049156441,131
35,PLAYER_SLEEPBEFORE_START,1516049156441,132
35,PLAYER_SLEEPBEFORE_END,1516049156450,132
35,WS_SEND_START,1516049156450,132
35,WS_SEND_END,1516049156450,132
35,WS_RECV_START,1516049156450,133
35,WS_RECV_END,1516049156873,133
35,PLAYER_SLEEPBEFORE_START,1516049156873,134
35,PLAYER_SLEEPBEFORE_END,1516049157949,134
35,REQ_START,1516049157949,134
35,REQ_END,1516049157957,134
35,PLAYER_SLEEPBEFORE_START,1516049157957,135
35,PLAYER_SLEEPBEFORE_END,1516049158547,135
35,WS_SEND_START,1516049158547,135
35,WS_SEND_END,1516049158547,135
35,WS_RECV_START,1516049158547,136
35,WS_RECV_END,1516049162116,136
35,PLAYER_SLEEPBEFORE_START,1516049162116,137
35,PLAYER_SLEEPBEFORE_END,1516049162129,137
35,WS_SEND_START,1516049162129,137
35,WS_SEND_END,1516049162129,137
35,WS_RECV_START,1516049162129,138
35,WS_RECV_END,1516049166641,138
35,PLAYER_SLEEPBEFORE_START,1516049166641,139
35,PLAYER_SLEEPBEFORE_END,1516049184315,139
35,WS_SEND_START,1516049184315,139
35,WS_SEND_END,1516049184315,139
35,PLAYER_SLEEPBEFORE_START,1516049184315,140
35,PLAYER_SLEEPBEFORE_END,1516049188218,140
35,WS_SEND_START,1516049188218,140
35,WS_SEND_END,1516049188218,140
35,PLAYER_SLEEPBEFORE_START,1516049188218,141
35,PLAYER_SLEEPBEFORE_END,1516049190510,141
35,WS_SEND_START,1516049190510,141
35,WS_SEND_END,1516049190510,141
35,WS_RECV_START,1516049190510,142
35,WS_RECV_END,1516049191983,142
35,PLAYER_SLEEPBEFORE_START,1516049191983,143
35,PLAYER_SLEEPBEFORE_END,1516049191991,143
35,WS_SEND_START,1516049191991,143
35,WS_SEND_END,1516049191991,143
35,WS_RECV_START,1516049191991,144
35,WS_RECV_END,1516049194097,144
35,PLAYER_SLEEPBEFORE_START,1516049194097,145
35,PLAYER_SLEEPBEFORE_END,1516049195840,145
35,WS_SEND_START,1516049195840,145
35,WS_SEND_END,1516049195840,145
35,WS_RECV_START,1516049195840,146
35,WS_RECV_END,1516049201109,146
35,PLAYER_SLEEPBEFORE_START,1516049201109,147
35,PLAYER_SLEEPBEFORE_END,1516049201118,147
35,WS_SEND_START,1516049201118,147
35,WS_SEND_END,1516049201118,147
35,WS_RECV_START,1516049201118,148
35,WS_RECV_END,1516049203637,148
35,PLAYER_SLEEPBEFORE_START,1516049203637,149
35,PLAYER_SLEEPBEFORE_END,1516049218750,149
35,WS_SEND_START,1516049218750,149
35,WS_SEND_END,1516049218750,149
35,PLAYER_SLEEPBEFORE_START,1516049218750,150
35,PLAYER_SLEEPBEFORE_END,1516049229426,150
35,WS_SEND_START,1516049229426,150
35,WS_SEND_END,1516049229426,150
35,PLAYER_SLEEPBEFORE_START,1516049229426,151
35,PLAYER_SLEEPBEFORE_END,1516049232417,151
35,WS_SEND_START,1516049232417,151
35,WS_SEND_END,1516049232417,151
35,WS_RECV_START,1516049232417,152
35,WS_RECV_END,1516049234777,152
35,PLAYER_SLEEPBEFORE_START,1516049234777,153
35,PLAYER_SLEEPBEFORE_END,1516049234784,153
35,WS_SEND_START,1516049234784,153
35,WS_SEND_END,1516049234784,153
35,WS_RECV_START,1516049234784,154
35,WS_RECV_END,1516049235641,154
35,PLAYER_SLEEPBEFORE_START,1516049235641,155
35,PLAYER_SLEEPBEFORE_END,1516049236249,155
35,WS_SEND_START,1516049236249,155
35,WS_SEND_END,1516049236249,155
35,WS_RECV_START,1516049236249,156
35,WS_RECV_END,1516049237869,156
35,PLAYER_SLEEPBEFORE_START,1516049237869,157
35,PLAYER_SLEEPBEFORE_END,1516049239212,157
35,WS_SEND_START,1516049239212,157
35,WS_SEND_END,1516049239212,157
35,WS_RECV_START,1516049239212,158
35,WS_RECV_END,1516049241004,158
35,PLAYER_SLEEPBEFORE_START,1516049241004,159
35,PLAYER_SLEEPBEFORE_END,1516049244904,159
35,WS_SEND_START,1516049244904,159
35,WS_SEND_END,1516049244904,159
35,WS_RECV_START,1516049244904,160
35,WS_RECV_END,1516049245017,160
35,PLAYER_SLEEPBEFORE_START,1516049245017,161
35,PLAYER_SLEEPBEFORE_END,1516049245800,161
35,WS_SEND_START,1516049245800,161
35,WS_SEND_END,1516049245800,161
35,WS_RECV_START,1516049245800,162
35,WS_RECV_END,1516049248253,162
35,PLAYER_SLEEPBEFORE_START,1516049248253,163
35,PLAYER_SLEEPBEFORE_END,1516049248262,163
35,WS_SEND_START,1516049248262,163
35,WS_SEND_END,1516049248262,163
35,WS_RECV_START,1516049248262,164
35,WS_RECV_END,1516049250855,164
35,PLAYER_SLEEPBEFORE_START,1516049250855,165
35,PLAYER_SLEEPBEFORE_END,1516049258228,165
35,WS_SEND_START,1516049258228,165
35,WS_SEND_END,1516049258228,165
35,WS_RECV_START,1516049258228,166
35,WS_RECV_END,1516049259414,166
35,PLAYER_SLEEPBEFORE_START,1516049259414,167
35,PLAYER_SLEEPBEFORE_END,1516049280663,167
35,WS_SEND_START,1516049280663,167
35,WS_SEND_END,1516049280663,167
35,PLAYER_SLEEPBEFORE_START,1516049280663,168
35,PLAYER_SLEEPBEFORE_END,1516049285399,168
35,WS_SEND_START,1516049285399,168
35,WS_SEND_END,1516049285399,168
35,PLAYER_SLEEPBEFORE_START,1516049285399,169
35,PLAYER_SLEEPBEFORE_END,1516049286950,169
35,WS_SEND_START,1516049286950,169
35,WS_SEND_END,1516049286950,169
35,WS_RECV_START,1516049286950,170
35,WS_RECV_END,1516049290306,170
35,PLAYER_SLEEPBEFORE_START,1516049290306,171
35,PLAYER_SLEEPBEFORE_END,1516049290313,171
35,WS_SEND_START,1516049290313,171
35,WS_SEND_END,1516049290313,171
35,WS_RECV_START,1516049290313,172
35,WS_RECV_END,1516049291341,172
35,PLAYER_SLEEPBEFORE_START,1516049291341,173
35,PLAYER_SLEEPBEFORE_END,1516049292110,173
35,WS_SEND_START,1516049292110,173
35,WS_SEND_END,1516049292110,173
35,WS_RECV_START,1516049292110,174
35,WS_RECV_END,1516049292757,174
35,PLAYER_SLEEPBEFORE_START,1516049292757,175
35,PLAYER_SLEEPBEFORE_END,1516049293517,175
35,WS_SEND_START,1516049293517,175
35,WS_SEND_END,1516049293517,175
35,WS_RECV_START,1516049293517,176
35,WS_RECV_END,1516049296633,176
35,PLAYER_SLEEPBEFORE_START,1516049296633,177
35,PLAYER_SLEEPBEFORE_END,1516049297433,177
35,WS_SEND_START,1516049297433,177
35,WS_SEND_END,1516049297433,177
35,WS_RECV_START,1516049297433,178
35,WS_RECV_END,1516049301491,178
35,PLAYER_SLEEPBEFORE_START,1516049301491,179
35,PLAYER_SLEEPBEFORE_END,1516049306745,179
35,WS_SEND_START,1516049306745,179
35,WS_SEND_END,1516049306745,179
35,PLAYER_SLEEPBEFORE_START,1516049306745,180
35,PLAYER_SLEEPBEFORE_END,1516049313363,180
35,WS_SEND_START,1516049313363,180
35,WS_SEND_END,1516049313363,180
35,PLAYER_SLEEPBEFORE_START,1516049313363,181
35,PLAYER_SLEEPBEFORE_END,1516049315099,181
35,WS_SEND_START,1516049315099,181
35,WS_SEND_END,1516049315099,181
35,WS_RECV_START,1516049315099,182
35,WS_RECV_END,1516049315158,182
35,PLAYER_SLEEPBEFORE_START,1516049315158,183
35,PLAYER_SLEEPBEFORE_END,1516049315895,183
35,WS_SEND_START,1516049315895,183
35,WS_SEND_END,1516049315895,183
35,WS_RECV_START,1516049315895,184
35,WS_RECV_END,1516049316747,184
35,PLAYER_SLEEPBEFORE_START,1516049316747,185
35,PLAYER_SLEEPBEFORE_END,1516049316760,185
35,WS_SEND_START,1516049316760,185
35,WS_SEND_END,1516049316760,185
35,WS_RECV_START,1516049316760,186
35,WS_RECV_END,1516049320580,186
35,PLAYER_SLEEPBEFORE_START,1516049320580,187
35,PLAYER_SLEEPBEFORE_END,1516049345587,187
35,WS_SEND_START,1516049345587,187
35,WS_SEND_END,1516049345587,187
35,WS_RECV_START,1516049345587,188
35,WS_RECV_END,1516049347549,188
35,PLAYER_SLEEPBEFORE_START,1516049347549,189
35,PLAYER_SLEEPBEFORE_END,1516049372772,189
35,WS_SEND_START,1516049372772,189
35,WS_SEND_END,1516049372772,189
35,WS_RECV_START,1516049372772,190
35,WS_RECV_END,1516049375843,190
35,PLAYER_SLEEPBEFORE_START,1516049375843,191
35,PLAYER_SLEEPBEFORE_END,1516049375848,191
35,WS_SEND_START,1516049375848,191
35,WS_SEND_END,1516049375848,191
35,WS_RECV_START,1516049375848,192
35,WS_RECV_END,1516049376910,192
35,PLAYER_SLEEPBEFORE_START,1516049376910,193
35,PLAYER_SLEEPBEFORE_END,1516049377347,193
35,WS_SEND_START,1516049377347,193
35,WS_SEND_END,1516049377347,193
35,WS_RECV_START,1516049377347,194
35,WS_RECV_END,1516049381442,194
35,PLAYER_SLEEPBEFORE_START,1516049381442,195
35,PLAYER_SLEEPBEFORE_END,1516049381455,195
35,WS_SEND_START,1516049381455,195
35,WS_SEND_END,1516049381455,195
35,WS_RECV_START,1516049381455,196
35,WS_RECV_END,1516049383890,196
35,PLAYER_SLEEPBEFORE_START,1516049383890,197
35,PLAYER_SLEEPBEFORE_END,1516049408660,197
35,WS_SEND_START,1516049408660,197
35,WS_SEND_END,1516049408660,197
35,WS_RECV_START,1516049408660,198
35,WS_RECV_END,1516049411227,198
35,PLAYER_SLEEPBEFORE_START,1516049411227,199
35,PLAYER_SLEEPBEFORE_END,1516049411234,199
35,WS_SEND_START,1516049411234,199
35,WS_SEND_END,1516049411234,199
35,WS_RECV_START,1516049411234,200
35,WS_RECV_END,1516049411402,200
35,PLAYER_SLEEPBEFORE_START,1516049411402,201
35,PLAYER_SLEEPBEFORE_END,1516049412699,201
35,WS_SEND_START,1516049412699,201
35,WS_SEND_END,1516049412699,201
35,WS_RECV_START,1516049412699,202
35,WS_RECV_END,1516049413823,202
35,PLAYER_SLEEPBEFORE_START,1516049413823,203
35,PLAYER_SLEEPBEFORE_END,1516049413835,203
35,WS_SEND_START,1516049413835,203
35,WS_SEND_END,1516049413835,203
35,WS_RECV_START,1516049413835,204
35,WS_RECV_END,1516049414097,204
35,PLAYER_SLEEPBEFORE_START,1516049414097,205
35,PLAYER_SLEEPBEFORE_END,1516049435728,205
35,WS_SEND_START,1516049435728,205
35,WS_SEND_END,1516049435728,205
35,WS_RECV_START,1516049435728,206
35,WS_RECV_END,1516049435877,206
35,PLAYER_SLEEPBEFORE_START,1516049435877,207
35,PLAYER_SLEEPBEFORE_END,1516049460000,207
35,WS_SEND_START,1516049460000,207
35,WS_SEND_END,1516049460000,207
35,WS_RECV_START,1516049460000,208
35,WS_RECV_END,1516049460159,208
35,PLAYER_SLEEPBEFORE_START,1516049460159,209
35,PLAYER_SLEEPBEFORE_END,1516049466574,209
35,WS_SEND_START,1516049466574,209
35,WS_SEND_END,1516049466574,209
35,WS_RECV_START,1516049466574,210
35,WS_RECV_END,1516049466862,210
35,PLAYER_SLEEPBEFORE_START,1516049466862,211
35,PLAYER_SLEEPBEFORE_END,1516049485694,211
35,WS_SEND_START,1516049485694,211
35,WS_SEND_END,1516049485694,211
35,WS_RECV_START,1516049485694,212
35,WS_RECV_END,1516049486825,212
35,PLAYER_SLEEPBEFORE_START,1516049486825,213
35,PLAYER_SLEEPBEFORE_END,1516049511878,213
35,WS_SEND_START,1516049511878,213
35,WS_SEND_END,1516049511878,213
35,WS_RECV_START,1516049511878,214
35,WS_RECV_END,1516049520125,214
35,PLAYER_SLEEPBEFORE_START,1516049520125,215
35,PLAYER_SLEEPBEFORE_END,1516049528237,215
35,REQ_START,1516049528237,215
35,REQ_END,1516049528244,215
35,PLAYER_SLEEPBEFORE_START,1516049528244,216
35,PLAYER_SLEEPBEFORE_END,1516049544805,216
35,WS_SEND_START,1516049544805,216
35,WS_SEND_END,1516049544805,216
35,WS_RECV_START,1516049544805,217
35,WS_RECV_END,1516049556950,217
35,PLAYER_SLEEPBEFORE_START,1516049556950,218
35,PLAYER_SLEEPBEFORE_END,1516049556957,218
35,WS_SEND_START,1516049556957,218
35,WS_SEND_END,1516049556957,218
35,WS_RECV_START,1516049556957,219
35,WS_RECV_END,1516049558014,219
35,PLAYER_SLEEPBEFORE_START,1516049558014,220
35,PLAYER_SLEEPBEFORE_END,1516049558782,220
35,WS_SEND_START,1516049558782,220
35,WS_SEND_END,1516049558782,220
35,WS_RECV_START,1516049558782,221
35,WS_RECV_END,1516049580948,221
35,PLAYER_SLEEPBEFORE_START,1516049580948,222
35,PLAYER_SLEEPBEFORE_END,1516049581005,222
35,WS_SEND_START,1516049581005,222
35,WS_SEND_END,1516049581005,222
35,WS_RECV_START,1516049581005,223
35,WS_RECV_END,1516049586048,223
35,PLAYER_SLEEPBEFORE_START,1516049586048,224
35,PLAYER_SLEEPBEFORE_END,1516049608705,224
35,WS_SEND_START,1516049608705,224
35,WS_SEND_END,1516049608705,224
35,WS_RECV_START,1516049608705,225
35,WS_RECV_END,1516049608815,225
35,PLAYER_SLEEPBEFORE_START,1516049608815,226
35,PLAYER_SLEEPBEFORE_END,1516049634550,226
35,WS_SEND_START,1516049634550,226
35,WS_SEND_END,1516049634550,226
35,WS_RECV_START,1516049634550,227
35,WS_RECV_END,1516049635391,227
35,PLAYER_SLEEPBEFORE_START,1516049635391,228
35,PLAYER_SLEEPBEFORE_END,1516049658384,228
35,WS_SEND_START,1516049658384,228
35,WS_SEND_END,1516049658384,228
35,WS_RECV_START,1516049658384,229
35,WS_RECV_END,1516049658659,229
35,PLAYER_SLEEPBEFORE_START,1516049658659,230
35,PLAYER_SLEEPBEFORE_END,1516049682875,230
35,WS_SEND_START,1516049682875,230
35,WS_SEND_END,1516049682875,230
35,WS_RECV_START,1516049682875,231
35,WS_RECV_END,1516049682987,231
35,PLAYER_SLEEPBEFORE_START,1516049682987,232
35,PLAYER_SLEEPBEFORE_END,1516049707744,232
35,WS_SEND_START,1516049707744,232
35,WS_SEND_END,1516049707744,232
35,WS_RECV_START,1516049707744,233
35,WS_RECV_END,1516049707867,233
35,PLAYER_SLEEPBEFORE_START,1516049707867,234
35,PLAYER_SLEEPBEFORE_END,1516049734900,234
35,WS_SEND_START,1516049734900,234
35,WS_SEND_END,1516049734900,234
35,WS_RECV_START,1516049734900,235
35,WS_RECV_END,1516049735043,235
35,PLAYER_SLEEPBEFORE_START,1516049735043,236
35,PLAYER_SLEEPBEFORE_END,1516049758883,236
35,WS_SEND_START,1516049758883,236
35,WS_SEND_END,1516049758883,236
35,WS_RECV_START,1516049758883,237
35,WS_RECV_END,1516049761955,237
35,PLAYER_SLEEPBEFORE_START,1516049761955,238
35,PLAYER_SLEEPBEFORE_END,1516049774765,238
35,WS_SEND_START,1516049774765,238
35,WS_SEND_END,1516049774765,238
35,WS_RECV_START,1516049774765,239
35,WS_RECV_END,1516049790349,239
35,PLAYER_SLEEPBEFORE_START,1516049790349,240
35,PLAYER_SLEEPBEFORE_END,1516049803005,240
35,WS_SEND_START,1516049803005,240
35,WS_SEND_END,1516049803005,240
35,WS_RECV_START,1516049803005,241
35,WS_RECV_END,1516049809498,241
35,PLAYER_SLEEPBEFORE_START,1516049809498,242
35,PLAYER_SLEEPBEFORE_END,1516049809521,242
35,WS_SEND_START,1516049809521,242
35,WS_SEND_END,1516049809521,242
35,WS_RECV_START,1516049809521,243
35,WS_RECV_END,1516049826481,243
35,PLAYER_SLEEPBEFORE_START,1516049826481,244
35,PLAYER_SLEEPBEFORE_END,1516049848719,244
35,WS_SEND_START,1516049848719,244
35,WS_SEND_END,1516049848719,244
35,WS_RECV_START,1516049848719,245
35,WS_RECV_END,1516049859782,245
35,PLAYER_SLEEPBEFORE_START,1516049859782,246
35,PLAYER_SLEEPBEFORE_END,1516049859791,246
35,WS_SEND_START,1516049859791,246
35,WS_SEND_END,1516049859791,246
35,WS_RECV_START,1516049859791,247
35,WS_RECV_END,1516049865790,247
35,PLAYER_SLEEPBEFORE_START,1516049865790,248
35,PLAYER_SLEEPBEFORE_END,1516049867827,248
35,WS_SEND_START,1516049867827,248
35,WS_SEND_END,1516049867827,248
35,WS_RECV_START,1516049867827,249
35,WS_RECV_END,1516049884758,249
35,PLAYER_SLEEPBEFORE_START,1516049884758,250
35,PLAYER_SLEEPBEFORE_END,1516049884795,250
35,WS_SEND_START,1516049884795,250
35,WS_SEND_END,1516049884795,250
35,WS_RECV_START,1516049884795,251
35,WS_RECV_END,1516049896113,251
35,PLAYER_SLEEPBEFORE_START,1516049896113,252
35,PLAYER_SLEEPBEFORE_END,1516049918756,252
35,WS_SEND_START,1516049918756,252
35,WS_SEND_END,1516049918756,252
35,WS_RECV_START,1516049918756,253
35,WS_RECV_END,1516049930998,253
35,PLAYER_SLEEPBEFORE_START,1516049930998,254
35,PLAYER_SLEEPBEFORE_END,1516049931014,254
35,WS_SEND_START,1516049931014,254
35,WS_SEND_END,1516049931014,254
35,WS_RECV_START,1516049931014,255
35,WS_RECV_END,1516049936077,255
35,PLAYER_SLEEPBEFORE_START,1516049936077,256
35,PLAYER_SLEEPBEFORE_END,1516049960700,256
35,WS_SEND_START,1516049960700,256
35,WS_SEND_END,1516049960700,256
35,WS_RECV_START,1516049960700,257
35,WS_RECV_END,1516049965350,257
35,PLAYER_SLEEPBEFORE_START,1516049965350,258
35,PLAYER_SLEEPBEFORE_END,1516049965358,258
35,WS_SEND_START,1516049965358,258
35,WS_SEND_END,1516049965358,258
35,WS_RECV_START,1516049965358,259
35,WS_RECV_END,1516049966502,259
35,PLAYER_SLEEPBEFORE_START,1516049966502,260
35,PLAYER_SLEEPBEFORE_END,1516049967026,260
35,WS_SEND_START,1516049967026,260
35,WS_SEND_END,1516049967026,260
35,WS_RECV_START,1516049967026,261
35,WS_RECV_END,1516049967134,261
35,PLAYER_SLEEPBEFORE_START,1516049967134,262
35,PLAYER_SLEEPBEFORE_END,1516049967406,262
35,WS_SEND_START,1516049967406,262
35,WS_SEND_END,1516049967406,262
35,WS_RECV_START,1516049967406,263
35,WS_RECV_END,1516049972365,263
35,PLAYER_SLEEPBEFORE_START,1516049972365,264
35,PLAYER_SLEEPBEFORE_END,1516049974778,264
35,WS_SEND_START,1516049974778,264
35,WS_SEND_END,1516049974778,264
35,WS_RECV_START,1516049974778,265
35,WS_RECV_END,1516049979960,265
35,PLAYER_SLEEPBEFORE_START,1516049979960,266
35,PLAYER_SLEEPBEFORE_END,1516049979972,266
35,WS_SEND_START,1516049979972,266
35,WS_SEND_END,1516049979972,266
35,WS_RECV_START,1516049979972,267
35,WS_RECV_END,1516049981183,267
35,PLAYER_SLEEPBEFORE_START,1516049981183,268
35,PLAYER_SLEEPBEFORE_END,1516049982653,268
35,REQ_START,1516049982653,268
35,REQ_END,1516049982661,268
35,PLAYER_SLEEPBEFORE_START,1516049982661,269
35,PLAYER_SLEEPBEFORE_END,1516050000055,269
35,WS_SEND_START,1516050000055,269
35,WS_SEND_END,1516050000055,269
35,WS_RECV_START,1516050000055,270
35,WS_RECV_END,1516050008300,270
35,PLAYER_SLEEPBEFORE_START,1516050008300,271
35,PLAYER_SLEEPBEFORE_END,1516050008307,271
35,WS_SEND_START,1516050008307,271
35,WS_SEND_END,1516050008307,271
35,WS_RECV_START,1516050008307,272
35,WS_RECV_END,1516050014214,272
35,PLAYER_SLEEPBEFORE_START,1516050014214,273
35,PLAYER_SLEEPBEFORE_END,1516050015511,273
35,WS_SEND_START,1516050015511,273
35,WS_SEND_END,1516050015511,273
35,WS_RECV_START,1516050015511,274
35,WS_RECV_END,1516050017215,274
35,PLAYER_SLEEPBEFORE_START,1516050017215,275
35,PLAYER_SLEEPBEFORE_END,1516050018388,275
35,WS_SEND_START,1516050018388,275
35,WS_SEND_END,1516050018389,275
35,WS_RECV_START,1516050018389,276
35,WS_RECV_END,1516050023775,276
35,PLAYER_SLEEPBEFORE_START,1516050023775,277
35,PLAYER_SLEEPBEFORE_END,1516050023797,277
35,WS_SEND_START,1516050023797,277
35,WS_SEND_END,1516050023797,277
35,WS_RECV_START,1516050023797,278
35,WS_RECV_END,1516050025890,278
35,PLAYER_SLEEPBEFORE_START,1516050025890,279
35,PLAYER_SLEEPBEFORE_END,1516050050413,279
35,WS_SEND_START,1516050050413,279
35,WS_SEND_END,1516050050413,279
35,WS_RECV_START,1516050050413,280
35,WS_RECV_END,1516050055808,280
35,PLAYER_SLEEPBEFORE_START,1516050055808,281
35,PLAYER_SLEEPBEFORE_END,1516050078096,281
35,WS_SEND_START,1516050078096,281
35,WS_SEND_END,1516050078097,281
35,WS_RECV_START,1516050078097,282
35,WS_RECV_END,1516050086677,282
35,PLAYER_SLEEPBEFORE_START,1516050086677,283
35,PLAYER_SLEEPBEFORE_END,1516050086695,283
35,WS_SEND_START,1516050086695,283
35,WS_SEND_END,1516050086695,283
35,WS_RECV_START,1516050086695,284
35,WS_RECV_END,1516050090279,284
35,PLAYER_SLEEPBEFORE_START,1516050090279,285
35,PLAYER_SLEEPBEFORE_END,1516050114410,285
35,WS_SEND_START,1516050114410,285
35,WS_SEND_END,1516050114410,285
35,WS_RECV_START,1516050114410,286
35,WS_RECV_END,1516050125723,286
35,PLAYER_SLEEPBEFORE_START,1516050125723,287
35,PLAYER_SLEEPBEFORE_END,1516050148877,287
35,WS_SEND_START,1516050148877,287
35,WS_SEND_END,1516050148877,287
35,WS_RECV_START,1516050148877,288
35,WS_RECV_END,1516050163417,288
35,PLAYER_SLEEPBEFORE_START,1516050163417,289
35,PLAYER_SLEEPBEFORE_END,1516050163439,289
35,WS_SEND_START,1516050163439,289
35,WS_SEND_END,1516050163439,289
35,WS_RECV_START,1516050163439,290
35,WS_RECV_END,1516050173637,290
35,PLAYER_SLEEPBEFORE_START,1516050173637,291
35,PLAYER_SLEEPBEFORE_END,1516050184251,291
35,WS_SEND_START,1516050184251,291
35,WS_SEND_END,1516050184251,291
35,WS_RECV_START,1516050184251,292
35,WS_RECV_END,1516050196978,292
35,PLAYER_SLEEPBEFORE_START,1516050196978,293
35,PLAYER_SLEEPBEFORE_END,1516050212734,293
35,WS_SEND_START,1516050212734,293
35,WS_SEND_END,1516050212734,293
35,WS_RECV_START,1516050212734,294
35,WS_RECV_END,1516050217872,294
35,PLAYER_SLEEPBEFORE_START,1516050217872,295
35,PLAYER_SLEEPBEFORE_END,1516050217897,295
35,WS_SEND_START,1516050217897,295
35,WS_SEND_END,1516050217897,295
35,WS_RECV_START,1516050217897,296
35,WS_RECV_END,1516050221369,296
35,PLAYER_SLEEPBEFORE_START,1516050221369,297
35,PLAYER_SLEEPBEFORE_END,1516050242866,297
35,WS_SEND_START,1516050242866,297
35,WS_SEND_END,1516050242866,297
35,WS_RECV_START,1516050242866,298
35,WS_RECV_END,1516050243658,298
35,PLAYER_SLEEPBEFORE_START,1516050243658,299
35,PLAYER_SLEEPBEFORE_END,1516050243668,299
35,WS_SEND_START,1516050243668,299
35,WS_SEND_END,1516050243668,299
35,WS_RECV_START,1516050243668,300
35,WS_RECV_END,1516050243807,300
35,PLAYER_SLEEPBEFORE_START,1516050243807,301
35,PLAYER_SLEEPBEFORE_END,1516050246167,301
35,WS_SEND_START,1516050246167,301
35,WS_SEND_END,1516050246167,301
35,WS_RECV_START,1516050246167,302
35,WS_RECV_END,1516050248416,302
35,PLAYER_SLEEPBEFORE_START,1516050248416,303
35,PLAYER_SLEEPBEFORE_END,1516050248440,303
35,WS_SEND_START,1516050248440,303
35,WS_SEND_END,1516050248440,303
35,WS_RECV_START,1516050248440,304
35,WS_RECV_END,1516050249325,304
35,PLAYER_SLEEPBEFORE_START,1516050249325,305
35,PLAYER_SLEEPBEFORE_END,1516050274316,305
35,WS_SEND_START,1516050274316,305
35,WS_SEND_END,1516050274316,305
35,WS_RECV_START,1516050274316,306
35,WS_RECV_END,1516050274617,306
35,PLAYER_SLEEPBEFORE_START,1516050274617,307
35,PLAYER_SLEEPBEFORE_END,1516050298492,307
35,WS_SEND_START,1516050298492,307
35,WS_SEND_END,1516050298492,307
35,WS_RECV_START,1516050298492,308
35,WS_RECV_END,1516050303215,308
35,PLAYER_SLEEPBEFORE_START,1516050303215,309
35,PLAYER_SLEEPBEFORE_END,1516050324906,309
35,WS_SEND_START,1516050324906,309
35,WS_SEND_END,1516050324907,309
35,WS_RECV_START,1516050324907,310
35,WS_RECV_END,1516050327598,310
35,PLAYER_SLEEPBEFORE_START,1516050327598,311
35,PLAYER_SLEEPBEFORE_END,1516050356425,311
35,WS_SEND_START,1516050356425,311
35,WS_SEND_END,1516050356425,311
35,WS_RECV_START,1516050356425,312
35,WS_RECV_END,1516050363011,312
35,PLAYER_SLEEPBEFORE_START,1516050363011,313
35,PLAYER_SLEEPBEFORE_END,1516050363032,313
35,WS_SEND_START,1516050363032,313
35,WS_SEND_END,1516050363032,313
35,WS_RECV_START,1516050363032,314
35,WS_RECV_END,1516050376827,314
35,PLAYER_SLEEPBEFORE_START,1516050376827,315
35,PLAYER_SLEEPBEFORE_END,1516050398413,315
35,WS_SEND_START,1516050398413,315
35,WS_SEND_END,1516050398413,315
35,WS_RECV_START,1516050398413,316
35,WS_RECV_END,1516050401905,316
35,PLAYER_SLEEPBEFORE_START,1516050401905,317
35,PLAYER_SLEEPBEFORE_END,1516050401913,317
35,WS_SEND_START,1516050401913,317
35,WS_SEND_END,1516050401913,317
35,WS_RECV_START,1516050401913,318
35,WS_RECV_END,1516050405343,318
35,PLAYER_SLEEPBEFORE_START,1516050405343,319
35,PLAYER_SLEEPBEFORE_END,1516050405675,319
35,WS_SEND_START,1516050405675,319
35,WS_SEND_END,1516050405675,319
35,WS_RECV_START,1516050405675,320
35,WS_RECV_END,1516050418808,320
35,PLAYER_SLEEPBEFORE_START,1516050418808,321
35,PLAYER_SLEEPBEFORE_END,1516050418828,321
35,WS_SEND_START,1516050418828,321
35,WS_SEND_END,1516050418828,321
35,WS_RECV_START,1516050418828,322
35,WS_RECV_END,1516050426420,322
35,PLAYER_SLEEPBEFORE_START,1516050426420,323
35,PLAYER_SLEEPBEFORE_END,1516050430813,323
35,REQ_START,1516050430813,323
35,REQ_END,1516050430821,323
35,PLAYER_SLEEPBEFORE_START,1516050430821,324
35,PLAYER_SLEEPBEFORE_END,1516050450707,324
35,WS_SEND_START,1516050450707,324
35,WS_SEND_END,1516050450707,324
35,WS_RECV_START,1516050450707,325
35,WS_RECV_END,1516050463562,325
35,PLAYER_SLEEPBEFORE_START,1516050463562,326
35,PLAYER_SLEEPBEFORE_END,1516050463572,326
35,WS_SEND_START,1516050463572,326
35,WS_SEND_END,1516050463572,326
35,WS_RECV_START,1516050463572,327
35,WS_RECV_END,1516050467115,327
35,PLAYER_SLEEPBEFORE_START,1516050467115,328
35,PLAYER_SLEEPBEFORE_END,1516050467476,328
35,WS_SEND_START,1516050467476,328
35,WS_SEND_END,1516050467476,328
35,WS_RECV_START,1516050467476,329
35,WS_RECV_END,1516050470025,329
35,PLAYER_SLEEPBEFORE_START,1516050470025,330
35,PLAYER_SLEEPBEFORE_END,1516050470371,330
35,WS_SEND_START,1516050470371,330
35,WS_SEND_END,1516050470371,330
35,WS_RECV_START,1516050470372,331
35,WS_RECV_END,1516050483313,331
35,PLAYER_SLEEPBEFORE_START,1516050483313,332
35,PLAYER_SLEEPBEFORE_END,1516050484160,332
35,WS_SEND_START,1516050484160,332
35,WS_SEND_END,1516050484160,332
35,WS_RECV_START,1516050484160,333
35,WS_RECV_END,1516050489797,333
35,PLAYER_SLEEPBEFORE_START,1516050489797,334
35,PLAYER_SLEEPBEFORE_END,1516050490194,334
35,WS_SEND_START,1516050490194,334
35,WS_SEND_END,1516050490194,334
35,WS_RECV_START,1516050490194,335
35,WS_RECV_END,1516050492495,335
35,PLAYER_SLEEPBEFORE_START,1516050492495,336
35,PLAYER_SLEEPBEFORE_END,1516050492819,336
35,WS_SEND_START,1516050492819,336
35,WS_SEND_END,1516050492819,336
35,WS_RECV_START,1516050492819,337
35,WS_RECV_END,1516050495041,337
35,PLAYER_SLEEPBEFORE_START,1516050495041,338
35,PLAYER_SLEEPBEFORE_END,1516050495056,338
35,WS_SEND_START,1516050495056,338
35,WS_SEND_END,1516050495056,338
35,WS_RECV_START,1516050495056,339
35,WS_RECV_END,1516050503363,339
35,PLAYER_SLEEPBEFORE_START,1516050503363,340
35,PLAYER_SLEEPBEFORE_END,1516050521335,340
35,WS_SEND_START,1516050521335,340
35,WS_SEND_END,1516050521335,340
35,WS_RECV_START,1516050521335,341
35,WS_RECV_END,1516050530307,341
35,PLAYER_SLEEPBEFORE_START,1516050530307,342
35,PLAYER_SLEEPBEFORE_END,1516050530316,342
35,WS_SEND_START,1516050530316,342
35,WS_SEND_END,1516050530316,342
35,WS_RECV_START,1516050530316,343
35,WS_RECV_END,1516050532599,343
35,PLAYER_SLEEPBEFORE_START,1516050532599,344
35,PLAYER_SLEEPBEFORE_END,1516050534911,344
35,WS_SEND_START,1516050534911,344
35,WS_SEND_END,1516050534911,344
35,WS_RECV_START,1516050534911,345
35,WS_RECV_END,1516050539637,345
35,PLAYER_SLEEPBEFORE_START,1516050539637,346
35,PLAYER_SLEEPBEFORE_END,1516050539648,346
35,WS_SEND_START,1516050539648,346
35,WS_SEND_END,1516050539648,346
35,WS_RECV_START,1516050539648,347
35,WS_RECV_END,1516050552291,347
35,PLAYER_SLEEPBEFORE_START,1516050552291,348
35,PLAYER_SLEEPBEFORE_END,1516050572898,348
35,WS_SEND_START,1516050572898,348
35,WS_SEND_END,1516050572899,348
35,WS_RECV_START,1516050572899,349
35,WS_RECV_END,1516050577890,349
35,PLAYER_SLEEPBEFORE_START,1516050577890,350
35,PLAYER_SLEEPBEFORE_END,1516050577898,350
35,WS_SEND_START,1516050577898,350
35,WS_SEND_END,1516050577898,350
35,WS_RECV_START,1516050577898,351
35,WS_RECV_END,1516050580823,351
35,PLAYER_SLEEPBEFORE_START,1516050580823,352
35,PLAYER_SLEEPBEFORE_END,1516050582009,352
35,WS_SEND_START,1516050582009,352
35,WS_SEND_END,1516050582009,352
35,WS_RECV_START,1516050582009,353
35,WS_RECV_END,1516050590972,353
35,PLAYER_SLEEPBEFORE_START,1516050590972,354
35,PLAYER_SLEEPBEFORE_END,1516050590988,354
35,WS_SEND_START,1516050590988,354
35,WS_SEND_END,1516050590988,354
35,WS_RECV_START,1516050590988,355
35,WS_RECV_END,1516050594388,355
35,PLAYER_SLEEPBEFORE_START,1516050594388,356
35,PLAYER_SLEEPBEFORE_END,1516050594435,356
35,WS_SEND_START,1516050594435,356
35,WS_SEND_END,1516050594435,356
35,WS_RECV_START,1516050594435,357
35,WS_RECV_END,1516050600131,357
35,PLAYER_SLEEPBEFORE_START,1516050600131,358
35,PLAYER_SLEEPBEFORE_END,1516050600146,358
35,WS_SEND_START,1516050600146,358
35,WS_SEND_END,1516050600147,358
35,WS_RECV_START,1516050600147,359
35,WS_RECV_END,1516050602201,359
35,PLAYER_SLEEPBEFORE_START,1516050602201,360
35,PLAYER_SLEEPBEFORE_END,1516050622667,360
35,WS_SEND_START,1516050622667,360
35,WS_SEND_END,1516050622667,360
35,WS_RECV_START,1516050622667,361
35,WS_RECV_END,1516050628264,361
35,PLAYER_SLEEPBEFORE_START,1516050628264,362
35,PLAYER_SLEEPBEFORE_END,1516050628274,362
35,WS_SEND_START,1516050628274,362
35,WS_SEND_END,1516050628274,362
35,WS_RECV_START,1516050628274,363
35,WS_RECV_END,1516050630559,363
35,PLAYER_SLEEPBEFORE_START,1516050630559,364
35,PLAYER_SLEEPBEFORE_END,1516050632650,364
35,WS_SEND_START,1516050632650,364
35,WS_SEND_END,1516050632650,364
35,WS_RECV_START,1516050632650,365
35,WS_RECV_END,1516050644379,365
35,PLAYER_SLEEPBEFORE_START,1516050644379,366
35,PLAYER_SLEEPBEFORE_END,1516050644389,366
35,WS_SEND_START,1516050644389,366
35,WS_SEND_END,1516050644389,366
35,WS_RECV_START,1516050644389,367
35,WS_RECV_END,1516050649010,367
35,PLAYER_SLEEPBEFORE_START,1516050649011,368
35,PLAYER_SLEEPBEFORE_END,1516050672471,368
35,WS_SEND_START,1516050672471,368
35,WS_SEND_END,1516050672471,368
35,WS_RECV_START,1516050672471,369
35,WS_RECV_END,1516050682149,369
35,PLAYER_SLEEPBEFORE_START,1516050682149,370
35,PLAYER_SLEEPBEFORE_END,1516050682157,370
35,WS_SEND_START,1516050682157,370
35,WS_SEND_END,1516050682157,370
35,WS_RECV_START,1516050682157,371
35,WS_RECV_END,1516050683307,371
35,PLAYER_SLEEPBEFORE_START,1516050683307,372
35,PLAYER_SLEEPBEFORE_END,1516050683679,372
35,WS_SEND_START,1516050683679,372
35,WS_SEND_END,1516050683679,372
35,WS_RECV_START,1516050683679,373
35,WS_RECV_END,1516050686323,373
35,PLAYER_SLEEPBEFORE_START,1516050686323,374
35,PLAYER_SLEEPBEFORE_END,1516050687025,374
35,WS_SEND_START,1516050687025,374
35,WS_SEND_END,1516050687025,374
35,WS_RECV_START,1516050687025,375
35,WS_RECV_END,1516050687093,375
35,PLAYER_SLEEPBEFORE_START,1516050687093,376
35,PLAYER_SLEEPBEFORE_END,1516050687444,376
35,WS_SEND_START,1516050687444,376
35,WS_SEND_END,1516050687444,376
35,WS_RECV_START,1516050687444,377
35,WS_RECV_END,1516050692207,377
35,PLAYER_SLEEPBEFORE_START,1516050692207,378
35,PLAYER_SLEEPBEFORE_END,1516050692226,378
35,WS_SEND_START,1516050692226,378
35,WS_SEND_END,1516050692226,378
35,WS_RECV_START,1516050692226,379
35,WS_RECV_END,1516050694195,379
35,PLAYER_SLEEPBEFORE_START,1516050694195,380
35,PLAYER_SLEEPBEFORE_END,1516050714687,380
35,WS_SEND_START,1516050714687,380
35,WS_SEND_END,1516050714687,380
35,PLAYER_SLEEPBEFORE_START,1516050714687,381
35,PLAYER_SLEEPBEFORE_END,1516050718901,381
35,WS_SEND_START,1516050718901,381
35,WS_SEND_END,1516050718901,381
35,WS_RECV_START,1516050718901,382
35,WS_RECV_END,1516050720515,382
35,PLAYER_SLEEPBEFORE_START,1516050720515,383
35,PLAYER_SLEEPBEFORE_END,1516050740715,383
35,WS_SEND_START,1516050740715,383
35,WS_SEND_END,1516050740715,383
35,PLAYER_SLEEPBEFORE_START,1516050740715,384
35,PLAYER_SLEEPBEFORE_END,1516050743901,384
35,WS_SEND_START,1516050743901,384
35,WS_SEND_END,1516050743901,384
35,WS_RECV_START,1516050743901,385
35,WS_RECV_END,1516050745618,385
35,PLAYER_SLEEPBEFORE_START,1516050745618,386
35,PLAYER_SLEEPBEFORE_END,1516050745633,386
35,WS_SEND_START,1516050745633,386
35,WS_SEND_END,1516050745633,386
35,WS_RECV_START,1516050745633,387
35,WS_RECV_END,1516050748392,387
35,PLAYER_SLEEPBEFORE_START,1516050748393,388
35,PLAYER_SLEEPBEFORE_END,1516050768923,388
35,WS_SEND_START,1516050768923,388
35,WS_SEND_END,1516050768923,388
35,PLAYER_SLEEPBEFORE_START,1516050768923,389
35,PLAYER_SLEEPBEFORE_END,1516050771142,389
35,WS_SEND_START,1516050771142,389
35,WS_SEND_END,1516050771142,389
35,WS_RECV_START,1516050771142,390
35,WS_RECV_END,1516050771526,390
35,PLAYER_SLEEPBEFORE_START,1516050771526,391
35,PLAYER_SLEEPBEFORE_END,1516050794362,391
35,WS_SEND_START,1516050794362,391
35,WS_SEND_END,1516050794362,391
35,WS_RECV_START,1516050794362,392
35,WS_RECV_END,1516050800057,392
35,PLAYER_SLEEPBEFORE_START,1516050800057,393
35,PLAYER_SLEEPBEFORE_END,1516050824746,393
35,WS_SEND_START,1516050824746,393
35,WS_SEND_END,1516050824746,393
35,PLAYER_SLEEPBEFORE_START,1516050824746,394
35,PLAYER_SLEEPBEFORE_END,1516050826718,394
35,WS_SEND_START,1516050826718,394
35,WS_SEND_END,1516050826718,394
35,WS_RECV_START,1516050826718,395
35,WS_RECV_END,1516050829113,395
35,PLAYER_SLEEPBEFORE_START,1516050829113,396
35,PLAYER_SLEEPBEFORE_END,1516050829120,396
35,WS_SEND_START,1516050829120,396
35,WS_SEND_END,1516050829120,396
35,WS_RECV_START,1516050829120,397
35,WS_RECV_END,1516050830527,397
35,PLAYER_SLEEPBEFORE_START,1516050830527,398
35,PLAYER_SLEEPBEFORE_END,1516050830707,398
35,WS_SEND_START,1516050830707,398
35,WS_SEND_END,1516050830707,398
35,WS_RECV_START,1516050830707,399
35,WS_RECV_END,1516050831829,399
35,PLAYER_SLEEPBEFORE_START,1516050831829,400
35,PLAYER_SLEEPBEFORE_END,1516050832904,400
35,WS_SEND_START,1516050832904,400
35,WS_SEND_END,1516050832904,400
35,WS_RECV_START,1516050832904,401
35,WS_RECV_END,1516050833149,401
35,PLAYER_SLEEPBEFORE_START,1516050833149,402
35,PLAYER_SLEEPBEFORE_END,1516050834508,402
35,WS_SEND_START,1516050834509,402
35,WS_SEND_END,1516050834509,402
35,WS_RECV_START,1516050834509,403
35,WS_RECV_END,1516050834825,403
35,PLAYER_SLEEPBEFORE_START,1516050834825,404
35,PLAYER_SLEEPBEFORE_END,1516050835296,404
35,WS_SEND_START,1516050835296,404
35,WS_SEND_END,1516050835296,404
35,WS_RECV_START,1516050835296,405
35,WS_RECV_END,1516050835350,405
35,PLAYER_SLEEPBEFORE_START,1516050835350,406
35,PLAYER_SLEEPBEFORE_END,1516050838077,406
35,WS_SEND_START,1516050838077,406
35,WS_SEND_END,1516050838077,406
35,WS_RECV_START,1516050838077,407
35,WS_RECV_END,1516050838137,407
35,PLAYER_SLEEPBEFORE_START,1516050838137,408
35,PLAYER_SLEEPBEFORE_END,1516050838466,408
35,WS_SEND_START,1516050838466,408
35,WS_SEND_END,1516050838466,408
35,WS_RECV_START,1516050838466,409
35,WS_RECV_END,1516050838523,409
35,PLAYER_SLEEPBEFORE_START,1516050838523,410
35,PLAYER_SLEEPBEFORE_END,1516050839549,410
35,WS_SEND_START,1516050839549,410
35,WS_SEND_END,1516050839549,410
35,WS_RECV_START,1516050839549,411
35,WS_RECV_END,1516050839609,411
35,PLAYER_SLEEPBEFORE_START,1516050839609,412
35,PLAYER_SLEEPBEFORE_END,1516050840266,412
35,WS_SEND_START,1516050840266,412
35,WS_SEND_END,1516050840266,412
35,WS_RECV_START,1516050840266,413
35,WS_RECV_END,1516050841165,413
35,PLAYER_SLEEPBEFORE_START,1516050841165,414
35,PLAYER_SLEEPBEFORE_END,1516050841182,414
35,WS_SEND_START,1516050841182,414
35,WS_SEND_END,1516050841182,414
35,WS_RECV_START,1516050841182,415
35,WS_RECV_END,1516050844464,415
35,PLAYER_SLEEPBEFORE_START,1516050844464,416
35,PLAYER_SLEEPBEFORE_END,1516050858731,416
35,WS_SEND_START,1516050858731,416
35,WS_SEND_END,1516050858731,416
35,PLAYER_SLEEPBEFORE_START,1516050858731,417
35,PLAYER_SLEEPBEFORE_END,1516050887410,417
35,WS_SEND_START,1516050887410,417
35,WS_SEND_END,1516050887410,417
35,WS_RECV_START,1516050887410,418
35,WS_RECV_END,1516050887654,418
35,PLAYER_SLEEPBEFORE_START,1516050887654,419
35,PLAYER_SLEEPBEFORE_END,1516050892476,419
35,REQ_START,1516050892476,419
35,REQ_END,1516050892484,419
35,PLAYER_SLEEPBEFORE_START,1516050892484,420
35,PLAYER_SLEEPBEFORE_END,1516050911229,420
35,WS_CLOSE_START,1516050911229,420
35,WS_CLOSE_END,1516050911229,420
35,PLAYER_DONE,1516050911229
