# --sessions 630 --app-url=http://shinyloadtest.rstudioservices.com/cran_explorer --output-dir test630 --overwrite-output --log-level warn --start-interval 800 15min.log
thread_id,event,timestamp,input_line_number,comment
143,PLAYER_SESSION_CREATE,1516295501167
143,PLAYER_START_INTERVAL_START,1516295501167
143,PLAYER_START_INTERVAL_END,1516295615567
143,REQ_HOME_START,1516295615567,2
143,REQ_HOME_END,1516295615688,2
143,REQ_START,1516295615688,3
143,REQ_END,1516295615720,3
143,REQ_START,1516295615720,4
143,REQ_END,1516295615750,4
143,REQ_START,1516295615750,5
143,REQ_END,1516295615783,5
143,REQ_START,1516295615783,6
143,REQ_END,1516295615816,6
143,REQ_START,1516295615816,7
143,REQ_END,1516295615848,7
143,REQ_START,1516295615848,8
143,REQ_END,1516295615883,8
143,REQ_START,1516295615883,9
143,REQ_END,1516295615922,9
143,REQ_START,1516295615922,10
143,REQ_END,1516295615930,10
143,REQ_START,1516295615930,11
143,REQ_END,1516295615963,11
143,REQ_START,1516295615963,12
143,REQ_END,1516295615973,12
143,REQ_START,1516295615973,13
143,REQ_END,1516295616007,13
143,REQ_START,1516295616007,14
143,REQ_END,1516295616022,14
143,REQ_START,1516295616022,15
143,REQ_END,1516295616056,15
143,REQ_TOK_START,1516295616056,16
143,REQ_TOK_END,1516295616063,16
143,REQ_SINF_START,1516295616063,17
143,REQ_SINF_END,1516295616070,17
143,WS_OPEN_START,1516295616070,18
143,WS_OPEN_END,1516295616077,18
143,REQ_START,1516295616077,19
143,REQ_END,1516295616105,19
143,WS_RECV_START,1516295616105,20
143,WS_RECV_END,1516295616105,20
143,PLAYER_SLEEPBEFORE_START,1516295616105,21
143,PLAYER_SLEEPBEFORE_END,1516295616111,21
143,WS_SEND_START,1516295616111,21
143,WS_SEND_END,1516295616111,21
143,PLAYER_SLEEPBEFORE_START,1516295616111,22
143,PLAYER_SLEEPBEFORE_END,1516295616112,22
143,WS_SEND_START,1516295616112,22
143,WS_SEND_END,1516295616112,22
143,WS_RECV_INIT_START,1516295616112,23
143,WS_RECV_INIT_END,1516295616131,23
143,WS_RECV_START,1516295616131,24
143,WS_RECV_END,1516295616188,24
143,PLAYER_SLEEPBEFORE_START,1516295616188,25
143,PLAYER_SLEEPBEFORE_END,1516295616195,25
143,REQ_START,1516295616195,25
143,REQ_END,1516295616228,25
143,PLAYER_SLEEPBEFORE_START,1516295616228,26
143,PLAYER_SLEEPBEFORE_END,1516295616229,26
143,REQ_START,1516295616229,26
143,REQ_END,1516295616261,26
143,PLAYER_SLEEPBEFORE_START,1516295616261,27
143,PLAYER_SLEEPBEFORE_END,1516295616264,27
143,REQ_START,1516295616264,27
143,REQ_END,1516295616297,27
143,PLAYER_SLEEPBEFORE_START,1516295616297,28
143,PLAYER_SLEEPBEFORE_END,1516295616582,28
143,REQ_START,1516295616582,28
143,REQ_END,1516295616614,28
143,PLAYER_SLEEPBEFORE_START,1516295616614,29
143,PLAYER_SLEEPBEFORE_END,1516295616789,29
143,WS_SEND_START,1516295616789,29
143,WS_SEND_END,1516295616789,29
143,WS_RECV_START,1516295616789,30
143,WS_RECV_END,1516295616930,30
143,PLAYER_SLEEPBEFORE_START,1516295616930,31
143,PLAYER_SLEEPBEFORE_END,1516295616942,31
143,REQ_START,1516295616942,31
143,REQ_END,1516295616975,31
143,PLAYER_SLEEPBEFORE_START,1516295616975,32
143,PLAYER_SLEEPBEFORE_END,1516295645120,32
143,WS_SEND_START,1516295645120,32
143,WS_SEND_END,1516295645120,32
143,WS_RECV_START,1516295645120,33
143,WS_RECV_END,1516295645227,33
143,PLAYER_SLEEPBEFORE_START,1516295645227,34
143,PLAYER_SLEEPBEFORE_END,1516295671138,34
143,WS_SEND_START,1516295671138,34
143,WS_SEND_END,1516295671138,34
143,WS_RECV_START,1516295671138,35
143,WS_RECV_END,1516295671194,35
143,PLAYER_SLEEPBEFORE_START,1516295671194,36
143,PLAYER_SLEEPBEFORE_END,1516295671203,36
143,WS_SEND_START,1516295671203,36
143,WS_SEND_END,1516295671203,36
143,WS_RECV_START,1516295671203,37
143,WS_RECV_END,1516295671246,37
143,PLAYER_SLEEPBEFORE_START,1516295671246,38
143,PLAYER_SLEEPBEFORE_END,1516295674441,38
143,WS_SEND_START,1516295674441,38
143,WS_SEND_END,1516295674441,38
143,WS_RECV_START,1516295674441,39
143,WS_RECV_END,1516295674565,39
143,PLAYER_SLEEPBEFORE_START,1516295674565,40
143,PLAYER_SLEEPBEFORE_END,1516295674612,40
143,WS_SEND_START,1516295674612,40
143,WS_SEND_END,1516295674612,40
143,WS_RECV_START,1516295674612,41
143,WS_RECV_END,1516295674727,41
143,PLAYER_SLEEPBEFORE_START,1516295674727,42
143,PLAYER_SLEEPBEFORE_END,1516295692862,42
143,WS_SEND_START,1516295692862,42
143,WS_SEND_END,1516295692862,42
143,WS_RECV_START,1516295692862,43
143,WS_RECV_END,1516295692898,43
143,PLAYER_SLEEPBEFORE_START,1516295692898,44
143,PLAYER_SLEEPBEFORE_END,1516295692910,44
143,WS_SEND_START,1516295692910,44
143,WS_SEND_END,1516295692910,44
143,WS_RECV_START,1516295692910,45
143,WS_RECV_END,1516295692954,45
143,PLAYER_SLEEPBEFORE_START,1516295692954,46
143,PLAYER_SLEEPBEFORE_END,1516295694214,46
143,WS_SEND_START,1516295694214,46
143,WS_SEND_END,1516295694214,46
143,WS_RECV_START,1516295694214,47
143,WS_RECV_END,1516295694271,47
143,PLAYER_SLEEPBEFORE_START,1516295694271,48
143,PLAYER_SLEEPBEFORE_END,1516295695591,48
143,WS_SEND_START,1516295695591,48
143,WS_SEND_END,1516295695591,48
143,WS_RECV_START,1516295695591,49
143,WS_RECV_END,1516295695807,49
143,PLAYER_SLEEPBEFORE_START,1516295695807,50
143,PLAYER_SLEEPBEFORE_END,1516295695831,50
143,WS_SEND_START,1516295695831,50
143,WS_SEND_END,1516295695831,50
143,WS_RECV_START,1516295695831,51
143,WS_RECV_END,1516295696028,51
143,PLAYER_SLEEPBEFORE_START,1516295696028,52
143,PLAYER_SLEEPBEFORE_END,1516295718592,52
143,WS_SEND_START,1516295718592,52
143,WS_SEND_END,1516295718592,52
143,WS_RECV_START,1516295718592,53
143,WS_RECV_END,1516295718717,53
143,PLAYER_SLEEPBEFORE_START,1516295718717,54
143,PLAYER_SLEEPBEFORE_END,1516295740020,54
143,WS_SEND_START,1516295740020,54
143,WS_SEND_END,1516295740020,54
143,PLAYER_SLEEPBEFORE_START,1516295740020,55
143,PLAYER_SLEEPBEFORE_END,1516295741961,55
143,WS_SEND_START,1516295741961,55
143,WS_SEND_END,1516295741961,55
143,WS_RECV_START,1516295741961,56
143,WS_RECV_END,1516295742012,56
143,PLAYER_SLEEPBEFORE_START,1516295742012,57
143,PLAYER_SLEEPBEFORE_END,1516295764884,57
143,WS_SEND_START,1516295764884,57
143,WS_SEND_END,1516295764884,57
143,WS_RECV_START,1516295764884,58
143,WS_RECV_END,1516295764951,58
143,PLAYER_SLEEPBEFORE_START,1516295764951,59
143,PLAYER_SLEEPBEFORE_END,1516295767278,59
143,WS_SEND_START,1516295767278,59
143,WS_SEND_END,1516295767278,59
143,WS_RECV_START,1516295767278,60
143,WS_RECV_END,1516295767480,60
143,PLAYER_SLEEPBEFORE_START,1516295767480,61
143,PLAYER_SLEEPBEFORE_END,1516295771071,61
143,WS_SEND_START,1516295771071,61
143,WS_SEND_END,1516295771071,61
143,WS_RECV_START,1516295771071,62
143,WS_RECV_END,1516295771324,62
143,PLAYER_SLEEPBEFORE_START,1516295771324,63
143,PLAYER_SLEEPBEFORE_END,1516295790586,63
143,WS_SEND_START,1516295790586,63
143,WS_SEND_END,1516295790586,63
143,WS_RECV_START,1516295790586,64
143,WS_RECV_END,1516295790637,64
143,PLAYER_SLEEPBEFORE_START,1516295790637,65
143,PLAYER_SLEEPBEFORE_END,1516295817454,65
143,WS_SEND_START,1516295817454,65
143,WS_SEND_END,1516295817454,65
143,WS_RECV_START,1516295817454,66
143,WS_RECV_END,1516295817766,66
143,PLAYER_SLEEPBEFORE_START,1516295817766,67
143,PLAYER_SLEEPBEFORE_END,1516295819273,67
143,WS_SEND_START,1516295819273,67
143,WS_SEND_END,1516295819273,67
143,WS_RECV_START,1516295819273,68
143,WS_RECV_END,1516295819550,68
143,PLAYER_SLEEPBEFORE_START,1516295819550,69
143,PLAYER_SLEEPBEFORE_END,1516295841548,69
143,WS_SEND_START,1516295841548,69
143,WS_SEND_END,1516295841548,69
143,WS_RECV_START,1516295841548,70
143,WS_RECV_END,1516295841729,70
143,PLAYER_SLEEPBEFORE_START,1516295841729,71
143,PLAYER_SLEEPBEFORE_END,1516295866504,71
143,WS_SEND_START,1516295866504,71
143,WS_SEND_END,1516295866504,71
143,PLAYER_SLEEPBEFORE_START,1516295866504,72
143,PLAYER_SLEEPBEFORE_END,1516295869111,72
143,WS_SEND_START,1516295869111,72
143,WS_SEND_END,1516295869111,72
143,WS_RECV_START,1516295869111,73
143,WS_RECV_END,1516295869173,73
143,PLAYER_SLEEPBEFORE_START,1516295869173,74
143,PLAYER_SLEEPBEFORE_END,1516295869182,74
143,WS_SEND_START,1516295869182,74
143,WS_SEND_END,1516295869182,74
143,WS_RECV_START,1516295869182,75
143,WS_RECV_END,1516295869226,75
143,PLAYER_SLEEPBEFORE_START,1516295869226,76
143,PLAYER_SLEEPBEFORE_END,1516295870732,76
143,WS_SEND_START,1516295870732,76
143,WS_SEND_END,1516295870732,76
143,WS_RECV_START,1516295870732,77
143,WS_RECV_END,1516295871025,77
143,PLAYER_SLEEPBEFORE_START,1516295871025,78
143,PLAYER_SLEEPBEFORE_END,1516295871893,78
143,WS_SEND_START,1516295871893,78
143,WS_SEND_END,1516295871893,78
143,WS_RECV_START,1516295871893,79
143,WS_RECV_END,1516295872377,79
143,PLAYER_SLEEPBEFORE_START,1516295872377,80
143,PLAYER_SLEEPBEFORE_END,1516295880043,80
143,WS_SEND_START,1516295880043,80
143,WS_SEND_END,1516295880043,80
143,WS_RECV_START,1516295880043,81
143,WS_RECV_END,1516295880121,81
143,PLAYER_SLEEPBEFORE_START,1516295880121,82
143,PLAYER_SLEEPBEFORE_END,1516295881223,82
143,WS_SEND_START,1516295881223,82
143,WS_SEND_END,1516295881223,82
143,WS_RECV_START,1516295881223,83
143,WS_RECV_END,1516295881944,83
143,PLAYER_SLEEPBEFORE_START,1516295881944,84
143,PLAYER_SLEEPBEFORE_END,1516295882891,84
143,WS_SEND_START,1516295882891,84
143,WS_SEND_END,1516295882891,84
143,WS_RECV_START,1516295882891,85
143,WS_RECV_END,1516295883267,85
143,PLAYER_SLEEPBEFORE_START,1516295883267,86
143,PLAYER_SLEEPBEFORE_END,1516295887440,86
143,WS_SEND_START,1516295887440,86
143,WS_SEND_END,1516295887440,86
143,WS_RECV_START,1516295887440,87
143,WS_RECV_END,1516295887612,87
143,PLAYER_SLEEPBEFORE_START,1516295887612,88
143,PLAYER_SLEEPBEFORE_END,1516295887621,88
143,WS_SEND_START,1516295887621,88
143,WS_SEND_END,1516295887621,88
143,WS_RECV_START,1516295887621,89
143,WS_RECV_END,1516295887790,89
143,PLAYER_SLEEPBEFORE_START,1516295887790,90
143,PLAYER_SLEEPBEFORE_END,1516295914987,90
143,REQ_START,1516295914987,90
143,REQ_END,1516295914995,90
143,PLAYER_SLEEPBEFORE_START,1516295914995,91
143,PLAYER_SLEEPBEFORE_END,1516295922884,91
143,WS_SEND_START,1516295922884,91
143,WS_SEND_END,1516295922884,91
143,WS_RECV_START,1516295922884,92
143,WS_RECV_END,1516295923376,92
143,PLAYER_SLEEPBEFORE_START,1516295923376,93
143,PLAYER_SLEEPBEFORE_END,1516295923391,93
143,WS_SEND_START,1516295923391,93
143,WS_SEND_END,1516295923391,93
143,WS_RECV_START,1516295923391,94
143,WS_RECV_END,1516295923832,94
143,PLAYER_SLEEPBEFORE_START,1516295923832,95
143,PLAYER_SLEEPBEFORE_END,1516295947387,95
143,WS_SEND_START,1516295947387,95
143,WS_SEND_END,1516295947387,95
143,WS_RECV_START,1516295947387,96
143,WS_RECV_END,1516295948569,96
143,PLAYER_SLEEPBEFORE_START,1516295948569,97
143,PLAYER_SLEEPBEFORE_END,1516295971009,97
143,WS_SEND_START,1516295971009,97
143,WS_SEND_END,1516295971009,97
143,WS_RECV_START,1516295971009,98
143,WS_RECV_END,1516295972520,98
143,PLAYER_SLEEPBEFORE_START,1516295972520,99
143,PLAYER_SLEEPBEFORE_END,1516295972541,99
143,WS_SEND_START,1516295972541,99
143,WS_SEND_END,1516295972541,99
143,WS_RECV_START,1516295972541,100
143,WS_RECV_END,1516295973350,100
143,PLAYER_SLEEPBEFORE_START,1516295973350,101
143,PLAYER_SLEEPBEFORE_END,1516295996909,101
143,WS_SEND_START,1516295996909,101
143,WS_SEND_END,1516295996909,101
143,WS_RECV_START,1516295996909,102
143,WS_RECV_END,1516295998924,102
143,PLAYER_SLEEPBEFORE_START,1516295998924,103
143,PLAYER_SLEEPBEFORE_END,1516296022549,103
143,WS_SEND_START,1516296022549,103
143,WS_SEND_END,1516296022549,103
143,WS_RECV_START,1516296022549,104
143,WS_RECV_END,1516296025085,104
143,PLAYER_SLEEPBEFORE_START,1516296025085,105
143,PLAYER_SLEEPBEFORE_END,1516296050462,105
143,WS_SEND_START,1516296050462,105
143,WS_SEND_END,1516296050462,105
143,WS_RECV_START,1516296050462,106
143,WS_RECV_END,1516296055644,106
143,PLAYER_SLEEPBEFORE_START,1516296055644,107
143,PLAYER_SLEEPBEFORE_END,1516296079067,107
143,WS_SEND_START,1516296079067,107
143,WS_SEND_END,1516296079067,107
143,WS_RECV_START,1516296079067,108
143,WS_RECV_END,1516296082279,108
143,PLAYER_SLEEPBEFORE_START,1516296082279,109
143,PLAYER_SLEEPBEFORE_END,1516296082288,109
143,WS_SEND_START,1516296082288,109
143,WS_SEND_END,1516296082288,109
143,WS_RECV_START,1516296082288,110
143,WS_RECV_END,1516296083202,110
143,PLAYER_SLEEPBEFORE_START,1516296083202,111
143,PLAYER_SLEEPBEFORE_END,1516296084161,111
143,WS_SEND_START,1516296084161,111
143,WS_SEND_END,1516296084161,111
143,WS_RECV_START,1516296084161,112
143,WS_RECV_END,1516296085563,112
143,PLAYER_SLEEPBEFORE_START,1516296085563,113
143,PLAYER_SLEEPBEFORE_END,1516296086125,113
143,WS_SEND_START,1516296086125,113
143,WS_SEND_END,1516296086125,113
143,WS_RECV_START,1516296086125,114
143,WS_RECV_END,1516296088028,114
143,PLAYER_SLEEPBEFORE_START,1516296088028,115
143,PLAYER_SLEEPBEFORE_END,1516296088037,115
143,WS_SEND_START,1516296088037,115
143,WS_SEND_END,1516296088037,115
143,WS_RECV_START,1516296088037,116
143,WS_RECV_END,1516296090308,116
143,PLAYER_SLEEPBEFORE_START,1516296090308,117
143,PLAYER_SLEEPBEFORE_END,1516296110674,117
143,WS_SEND_START,1516296110674,117
143,WS_SEND_END,1516296110674,117
143,PLAYER_SLEEPBEFORE_START,1516296110674,118
143,PLAYER_SLEEPBEFORE_END,1516296114426,118
143,WS_SEND_START,1516296114426,118
143,WS_SEND_END,1516296114427,118
143,WS_RECV_START,1516296114427,119
143,WS_RECV_END,1516296117713,119
143,PLAYER_SLEEPBEFORE_START,1516296117713,120
143,PLAYER_SLEEPBEFORE_END,1516296118701,120
143,WS_SEND_START,1516296118701,120
143,WS_SEND_END,1516296118701,120
143,WS_RECV_START,1516296118701,121
143,WS_RECV_END,1516296119495,121
143,PLAYER_SLEEPBEFORE_START,1516296119495,122
143,PLAYER_SLEEPBEFORE_END,1516296120680,122
143,WS_SEND_START,1516296120681,122
143,WS_SEND_END,1516296120681,122
143,WS_RECV_START,1516296120681,123
143,WS_RECV_END,1516296121750,123
143,PLAYER_SLEEPBEFORE_START,1516296121750,124
143,PLAYER_SLEEPBEFORE_END,1516296146155,124
143,WS_SEND_START,1516296146155,124
143,WS_SEND_END,1516296146155,124
143,WS_RECV_START,1516296146155,125
143,WS_RECV_END,1516296151799,125
143,PLAYER_SLEEPBEFORE_START,1516296151800,126
143,PLAYER_SLEEPBEFORE_END,1516296172312,126
143,WS_SEND_START,1516296172312,126
143,WS_SEND_END,1516296172312,126
143,PLAYER_SLEEPBEFORE_START,1516296172312,127
143,PLAYER_SLEEPBEFORE_END,1516296175366,127
143,WS_SEND_START,1516296175366,127
143,WS_SEND_END,1516296175366,127
143,WS_RECV_START,1516296175366,128
143,WS_RECV_END,1516296176235,128
143,PLAYER_SLEEPBEFORE_START,1516296176235,129
143,PLAYER_SLEEPBEFORE_END,1516296176255,129
143,WS_SEND_START,1516296176255,129
143,WS_SEND_END,1516296176255,129
143,WS_RECV_START,1516296176255,130
143,WS_RECV_END,1516296178028,130
143,PLAYER_SLEEPBEFORE_START,1516296178028,131
143,PLAYER_SLEEPBEFORE_END,1516296199652,131
143,WS_SEND_START,1516296199652,131
143,WS_SEND_END,1516296199652,131
143,PLAYER_SLEEPBEFORE_START,1516296199652,132
143,PLAYER_SLEEPBEFORE_END,1516296202732,132
143,WS_SEND_START,1516296202732,132
143,WS_SEND_END,1516296202732,132
143,WS_RECV_START,1516296202732,133
143,WS_RECV_END,1516296206673,133
143,PLAYER_SLEEPBEFORE_START,1516296206673,134
143,PLAYER_SLEEPBEFORE_END,1516296227890,134
143,WS_SEND_START,1516296227890,134
143,WS_SEND_END,1516296227890,134
143,PLAYER_SLEEPBEFORE_START,1516296227890,135
143,PLAYER_SLEEPBEFORE_END,1516296231081,135
143,WS_SEND_START,1516296231081,135
143,WS_SEND_END,1516296231081,135
143,WS_RECV_START,1516296231081,136
143,WS_RECV_END,1516296231677,136
143,PLAYER_SLEEPBEFORE_START,1516296231677,137
143,PLAYER_SLEEPBEFORE_END,1516296231684,137
143,WS_SEND_START,1516296231684,137
143,WS_SEND_END,1516296231684,137
143,WS_RECV_START,1516296231684,138
143,WS_RECV_END,1516296233526,138
143,PLAYER_SLEEPBEFORE_START,1516296233526,139
143,PLAYER_SLEEPBEFORE_END,1516296234216,139
143,WS_SEND_START,1516296234216,139
143,WS_SEND_END,1516296234216,139
143,WS_RECV_START,1516296234216,140
143,WS_RECV_END,1516296237513,140
143,PLAYER_SLEEPBEFORE_START,1516296237513,141
143,PLAYER_SLEEPBEFORE_END,1516296238168,141
143,WS_SEND_START,1516296238168,141
143,WS_SEND_END,1516296238168,141
143,WS_RECV_START,1516296238168,142
143,WS_RECV_END,1516296241892,142
143,PLAYER_SLEEPBEFORE_START,1516296241892,143
143,PLAYER_SLEEPBEFORE_END,1516296241950,143
143,WS_SEND_START,1516296241950,143
143,WS_SEND_END,1516296241950,143
143,WS_RECV_START,1516296241950,144
143,WS_RECV_END,1516296246610,144
143,PLAYER_SLEEPBEFORE_START,1516296246610,145
143,PLAYER_SLEEPBEFORE_END,1516296262672,145
143,REQ_START,1516296262672,145
143,REQ_END,1516296262679,145
143,PLAYER_SLEEPBEFORE_START,1516296262679,146
143,PLAYER_SLEEPBEFORE_END,1516296271556,146
143,WS_SEND_START,1516296271556,146
143,WS_SEND_END,1516296271557,146
143,WS_RECV_START,1516296271557,147
143,WS_RECV_END,1516296277280,147
143,PLAYER_SLEEPBEFORE_START,1516296277280,148
143,PLAYER_SLEEPBEFORE_END,1516296299202,148
143,WS_SEND_START,1516296299202,148
143,WS_SEND_END,1516296299202,148
143,PLAYER_SLEEPBEFORE_START,1516296299202,149
143,PLAYER_SLEEPBEFORE_END,1516296301630,149
143,WS_SEND_START,1516296301630,149
143,WS_SEND_END,1516296301630,149
143,WS_RECV_START,1516296301630,150
143,WS_RECV_END,1516296305429,150
143,PLAYER_SLEEPBEFORE_START,1516296305429,151
143,PLAYER_SLEEPBEFORE_END,1516296305639,151
143,WS_SEND_START,1516296305639,151
143,WS_SEND_END,1516296305639,151
143,WS_RECV_START,1516296305639,152
143,WS_RECV_END,1516296312455,152
143,PLAYER_SLEEPBEFORE_START,1516296312455,153
143,PLAYER_SLEEPBEFORE_END,1516296336383,153
143,WS_SEND_START,1516296336383,153
143,WS_SEND_END,1516296336383,153
143,WS_RECV_START,1516296336383,154
143,WS_RECV_END,1516296341195,154
143,PLAYER_SLEEPBEFORE_START,1516296341195,155
143,PLAYER_SLEEPBEFORE_END,1516296363753,155
143,WS_SEND_START,1516296363753,155
143,WS_SEND_END,1516296363753,155
143,PLAYER_SLEEPBEFORE_START,1516296363753,156
143,PLAYER_SLEEPBEFORE_END,1516296367027,156
143,WS_SEND_START,1516296367027,156
143,WS_SEND_END,1516296367027,156
143,WS_RECV_START,1516296367027,157
143,WS_RECV_END,1516296368414,157
143,PLAYER_SLEEPBEFORE_START,1516296368414,158
143,PLAYER_SLEEPBEFORE_END,1516296368424,158
143,WS_SEND_START,1516296368424,158
143,WS_SEND_END,1516296368424,158
143,WS_RECV_START,1516296368424,159
143,WS_RECV_END,1516296371370,159
143,PLAYER_SLEEPBEFORE_START,1516296371370,160
143,PLAYER_SLEEPBEFORE_END,1516296371546,160
143,WS_SEND_START,1516296371546,160
143,WS_SEND_END,1516296371546,160
143,WS_RECV_START,1516296371546,161
143,WS_RECV_END,1516296374543,161
143,PLAYER_SLEEPBEFORE_START,1516296374543,162
143,PLAYER_SLEEPBEFORE_END,1516296374568,162
143,WS_SEND_START,1516296374568,162
143,WS_SEND_END,1516296374568,162
143,WS_RECV_START,1516296374568,163
143,WS_RECV_END,1516296378614,163
143,PLAYER_SLEEPBEFORE_START,1516296378614,164
143,PLAYER_SLEEPBEFORE_END,1516296399426,164
143,WS_SEND_START,1516296399426,164
143,WS_SEND_END,1516296399426,164
143,WS_RECV_START,1516296399426,165
143,WS_RECV_END,1516296406082,165
143,PLAYER_SLEEPBEFORE_START,1516296406082,166
143,PLAYER_SLEEPBEFORE_END,1516296428537,166
143,WS_SEND_START,1516296428537,166
143,WS_SEND_END,1516296428537,166
143,WS_RECV_START,1516296428537,167
143,WS_RECV_END,1516296435407,167
143,PLAYER_SLEEPBEFORE_START,1516296435407,168
143,PLAYER_SLEEPBEFORE_END,1516296462764,168
143,WS_SEND_START,1516296462764,168
143,WS_SEND_END,1516296462764,168
143,WS_RECV_START,1516296462764,169
143,WS_RECV_END,1516296470768,169
143,PLAYER_SLEEPBEFORE_START,1516296470768,170
143,PLAYER_SLEEPBEFORE_END,1516296470777,170
143,WS_SEND_START,1516296470777,170
143,WS_SEND_END,1516296470777,170
143,WS_RECV_START,1516296470777,171
143,WS_RECV_END,1516296474802,171
143,PLAYER_SLEEPBEFORE_START,1516296474802,172
143,PLAYER_SLEEPBEFORE_END,1516296475171,172
143,WS_SEND_START,1516296475171,172
143,WS_SEND_END,1516296475171,172
143,WS_RECV_START,1516296475171,173
143,WS_RECV_END,1516296480919,173
143,PLAYER_SLEEPBEFORE_START,1516296480920,174
143,PLAYER_SLEEPBEFORE_END,1516296480961,174
143,WS_SEND_START,1516296480961,174
143,WS_SEND_END,1516296480961,174
143,WS_RECV_START,1516296480961,175
143,WS_RECV_END,1516296486384,175
143,PLAYER_SLEEPBEFORE_START,1516296486384,176
143,PLAYER_SLEEPBEFORE_END,1516296508146,176
143,WS_SEND_START,1516296508146,176
143,WS_SEND_END,1516296508146,176
143,PLAYER_SLEEPBEFORE_START,1516296508146,177
143,PLAYER_SLEEPBEFORE_END,1516296510664,177
143,WS_SEND_START,1516296510664,177
143,WS_SEND_END,1516296510664,177
143,WS_RECV_START,1516296510664,178
143,WS_RECV_END,1516296519633,178
143,PLAYER_SLEEPBEFORE_START,1516296519633,179
143,PLAYER_SLEEPBEFORE_END,1516296541973,179
143,WS_SEND_START,1516296541973,179
143,WS_SEND_END,1516296541973,179
143,WS_RECV_START,1516296541973,180
143,WS_RECV_END,1516296548676,180
143,PLAYER_SLEEPBEFORE_START,1516296548676,181
143,PLAYER_SLEEPBEFORE_END,1516296549120,181
143,WS_SEND_START,1516296549120,181
143,WS_SEND_END,1516296549120,181
143,WS_RECV_START,1516296549120,182
143,WS_RECV_END,1516296557495,182
143,PLAYER_SLEEPBEFORE_START,1516296557495,183
143,PLAYER_SLEEPBEFORE_END,1516296558018,183
143,WS_SEND_START,1516296558018,183
143,WS_SEND_END,1516296558018,183
143,WS_RECV_START,1516296558018,184
143,WS_RECV_END,1516296562190,184
143,PLAYER_SLEEPBEFORE_START,1516296562190,185
143,PLAYER_SLEEPBEFORE_END,1516296562459,185
143,WS_SEND_START,1516296562459,185
143,WS_SEND_END,1516296562459,185
143,WS_RECV_START,1516296562459,186
143,WS_RECV_END,1516296567674,186
143,PLAYER_SLEEPBEFORE_START,1516296567674,187
143,PLAYER_SLEEPBEFORE_END,1516296590174,187
143,WS_SEND_START,1516296590174,187
143,WS_SEND_END,1516296590174,187
143,WS_RECV_START,1516296590174,188
143,WS_RECV_END,1516296596996,188
143,PLAYER_SLEEPBEFORE_START,1516296596996,189
143,PLAYER_SLEEPBEFORE_END,1516296603235,189
143,WS_SEND_START,1516296603235,189
143,WS_SEND_END,1516296603235,189
143,WS_RECV_START,1516296603235,190
143,WS_RECV_END,1516296611817,190
143,PLAYER_SLEEPBEFORE_START,1516296611817,191
143,PLAYER_SLEEPBEFORE_END,1516296613732,191
143,WS_SEND_START,1516296613732,191
143,WS_SEND_END,1516296613732,191
143,WS_RECV_START,1516296613732,192
143,WS_RECV_END,1516296622697,192
143,PLAYER_SLEEPBEFORE_START,1516296622697,193
143,PLAYER_SLEEPBEFORE_END,1516296622825,193
143,WS_SEND_START,1516296622825,193
143,WS_SEND_END,1516296622826,193
143,WS_RECV_START,1516296622826,194
143,WS_RECV_END,1516296626195,194
143,PLAYER_SLEEPBEFORE_START,1516296626195,195
143,PLAYER_SLEEPBEFORE_END,1516296627951,195
143,WS_SEND_START,1516296627951,195
143,WS_SEND_END,1516296627951,195
143,WS_RECV_START,1516296627951,196
143,WS_RECV_END,1516296631465,196
143,PLAYER_SLEEPBEFORE_START,1516296631465,197
143,PLAYER_SLEEPBEFORE_END,1516296633269,197
143,WS_SEND_START,1516296633269,197
143,WS_SEND_END,1516296633269,197
143,WS_RECV_START,1516296633269,198
143,WS_RECV_END,1516296634646,198
143,PLAYER_SLEEPBEFORE_START,1516296634646,199
143,PLAYER_SLEEPBEFORE_END,1516296646500,199
143,WS_SEND_START,1516296646500,199
143,WS_SEND_END,1516296646500,199
143,PLAYER_SLEEPBEFORE_START,1516296646500,200
143,PLAYER_SLEEPBEFORE_END,1516296650588,200
143,WS_SEND_START,1516296650588,200
143,WS_SEND_END,1516296650588,200
143,WS_RECV_START,1516296650588,201
143,WS_RECV_END,1516296651842,201
143,PLAYER_SLEEPBEFORE_START,1516296651842,202
143,PLAYER_SLEEPBEFORE_END,1516296651856,202
143,WS_SEND_START,1516296651856,202
143,WS_SEND_END,1516296651856,202
143,WS_RECV_START,1516296651856,203
143,WS_RECV_END,1516296654992,203
143,PLAYER_SLEEPBEFORE_START,1516296654992,204
143,PLAYER_SLEEPBEFORE_END,1516296674641,204
143,WS_SEND_START,1516296674641,204
143,WS_SEND_END,1516296674641,204
143,PLAYER_SLEEPBEFORE_START,1516296674641,205
143,PLAYER_SLEEPBEFORE_END,1516296678539,205
143,WS_SEND_START,1516296678539,205
143,WS_SEND_END,1516296678539,205
143,WS_RECV_START,1516296678539,206
143,WS_RECV_END,1516296680365,206
143,PLAYER_SLEEPBEFORE_START,1516296680365,207
143,PLAYER_SLEEPBEFORE_END,1516296697297,207
143,REQ_START,1516296697297,207
143,REQ_END,1516296697304,207
143,PLAYER_SLEEPBEFORE_START,1516296697304,208
143,PLAYER_SLEEPBEFORE_END,1516296704156,208
143,WS_CLOSE_START,1516296704156,208
143,WS_CLOSE_END,1516296704156,208
143,PLAYER_DONE,1516296704156
