# --sessions 630 --app-url=http://shinyloadtest.rstudioservices.com/cran_explorer --output-dir test630 --overwrite-output --log-level warn --start-interval 800 15min.log
thread_id,event,timestamp,input_line_number,comment
160,PLAYER_SESSION_CREATE,1516295501161
160,PLAYER_START_INTERVAL_START,1516295501161
160,PLAYER_START_INTERVAL_END,1516295629161
160,REQ_HOME_START,1516295629161,2
160,REQ_HOME_END,1516295629508,2
160,REQ_START,1516295629508,3
160,REQ_END,1516295629685,3
160,REQ_START,1516295629685,4
160,REQ_END,1516295629718,4
160,REQ_START,1516295629718,5
160,REQ_END,1516295629752,5
160,REQ_START,1516295629752,6
160,REQ_END,1516295629785,6
160,REQ_START,1516295629785,7
160,REQ_END,1516295629819,7
160,REQ_START,1516295629819,8
160,REQ_END,1516295629859,8
160,REQ_START,1516295629859,9
160,REQ_END,1516295629894,9
160,REQ_START,1516295629894,10
160,REQ_END,1516295629902,10
160,REQ_START,1516295629902,11
160,REQ_END,1516295630007,11
160,REQ_START,1516295630007,12
160,REQ_END,1516295630031,12
160,REQ_START,1516295630031,13
160,REQ_END,1516295630063,13
160,REQ_START,1516295630063,14
160,REQ_END,1516295630080,14
160,REQ_START,1516295630080,15
160,REQ_END,1516295630112,15
160,REQ_TOK_START,1516295630112,16
160,REQ_TOK_END,1516295630120,16
160,REQ_SINF_START,1516295630120,17
160,REQ_SINF_END,1516295630127,17
160,WS_OPEN_START,1516295630127,18
160,WS_OPEN_END,1516295630133,18
160,REQ_START,1516295630133,19
160,REQ_END,1516295630161,19
160,WS_RECV_START,1516295630161,20
160,WS_RECV_END,1516295630161,20
160,PLAYER_SLEEPBEFORE_START,1516295630161,21
160,PLAYER_SLEEPBEFORE_END,1516295630166,21
160,WS_SEND_START,1516295630166,21
160,WS_SEND_END,1516295630166,21
160,PLAYER_SLEEPBEFORE_START,1516295630166,22
160,PLAYER_SLEEPBEFORE_END,1516295630167,22
160,WS_SEND_START,1516295630167,22
160,WS_SEND_END,1516295630167,22
160,WS_RECV_INIT_START,1516295630167,23
160,WS_RECV_INIT_END,1516295630184,23
160,WS_RECV_START,1516295630184,24
160,WS_RECV_END,1516295630234,24
160,PLAYER_SLEEPBEFORE_START,1516295630234,25
160,PLAYER_SLEEPBEFORE_END,1516295630241,25
160,REQ_START,1516295630241,25
160,REQ_END,1516295630272,25
160,PLAYER_SLEEPBEFORE_START,1516295630272,26
160,PLAYER_SLEEPBEFORE_END,1516295630273,26
160,REQ_START,1516295630273,26
160,REQ_END,1516295630304,26
160,PLAYER_SLEEPBEFORE_START,1516295630304,27
160,PLAYER_SLEEPBEFORE_END,1516295630307,27
160,REQ_START,1516295630307,27
160,REQ_END,1516295630336,27
160,PLAYER_SLEEPBEFORE_START,1516295630336,28
160,PLAYER_SLEEPBEFORE_END,1516295630622,28
160,REQ_START,1516295630622,28
160,REQ_END,1516295630654,28
160,PLAYER_SLEEPBEFORE_START,1516295630654,29
160,PLAYER_SLEEPBEFORE_END,1516295630829,29
160,WS_SEND_START,1516295630829,29
160,WS_SEND_END,1516295630829,29
160,WS_RECV_START,1516295630829,30
160,WS_RECV_END,1516295630956,30
160,PLAYER_SLEEPBEFORE_START,1516295630956,31
160,PLAYER_SLEEPBEFORE_END,1516295630967,31
160,REQ_START,1516295630967,31
160,REQ_END,1516295630993,31
160,PLAYER_SLEEPBEFORE_START,1516295630993,32
160,PLAYER_SLEEPBEFORE_END,1516295659139,32
160,WS_SEND_START,1516295659139,32
160,WS_SEND_END,1516295659139,32
160,WS_RECV_START,1516295659139,33
160,WS_RECV_END,1516295659229,33
160,PLAYER_SLEEPBEFORE_START,1516295659229,34
160,PLAYER_SLEEPBEFORE_END,1516295685141,34
160,WS_SEND_START,1516295685141,34
160,WS_SEND_END,1516295685141,34
160,WS_RECV_START,1516295685141,35
160,WS_RECV_END,1516295685172,35
160,PLAYER_SLEEPBEFORE_START,1516295685172,36
160,PLAYER_SLEEPBEFORE_END,1516295685181,36
160,WS_SEND_START,1516295685181,36
160,WS_SEND_END,1516295685181,36
160,WS_RECV_START,1516295685181,37
160,WS_RECV_END,1516295685222,37
160,PLAYER_SLEEPBEFORE_START,1516295685222,38
160,PLAYER_SLEEPBEFORE_END,1516295688417,38
160,WS_SEND_START,1516295688417,38
160,WS_SEND_END,1516295688417,38
160,WS_RECV_START,1516295688417,39
160,WS_RECV_END,1516295688575,39
160,PLAYER_SLEEPBEFORE_START,1516295688575,40
160,PLAYER_SLEEPBEFORE_END,1516295688621,40
160,WS_SEND_START,1516295688621,40
160,WS_SEND_END,1516295688621,40
160,WS_RECV_START,1516295688621,41
160,WS_RECV_END,1516295688730,41
160,PLAYER_SLEEPBEFORE_START,1516295688730,42
160,PLAYER_SLEEPBEFORE_END,1516295706865,42
160,WS_SEND_START,1516295706865,42
160,WS_SEND_END,1516295706865,42
160,WS_RECV_START,1516295706865,43
160,WS_RECV_END,1516295706950,43
160,PLAYER_SLEEPBEFORE_START,1516295706950,44
160,PLAYER_SLEEPBEFORE_END,1516295706962,44
160,WS_SEND_START,1516295706962,44
160,WS_SEND_END,1516295706962,44
160,WS_RECV_START,1516295706962,45
160,WS_RECV_END,1516295707014,45
160,PLAYER_SLEEPBEFORE_START,1516295707014,46
160,PLAYER_SLEEPBEFORE_END,1516295708274,46
160,WS_SEND_START,1516295708274,46
160,WS_SEND_END,1516295708274,46
160,WS_RECV_START,1516295708274,47
160,WS_RECV_END,1516295708486,47
160,PLAYER_SLEEPBEFORE_START,1516295708486,48
160,PLAYER_SLEEPBEFORE_END,1516295709806,48
160,WS_SEND_START,1516295709806,48
160,WS_SEND_END,1516295709806,48
160,WS_RECV_START,1516295709806,49
160,WS_RECV_END,1516295709904,49
160,PLAYER_SLEEPBEFORE_START,1516295709904,50
160,PLAYER_SLEEPBEFORE_END,1516295709928,50
160,WS_SEND_START,1516295709928,50
160,WS_SEND_END,1516295709928,50
160,WS_RECV_START,1516295709928,51
160,WS_RECV_END,1516295710065,51
160,PLAYER_SLEEPBEFORE_START,1516295710065,52
160,PLAYER_SLEEPBEFORE_END,1516295732629,52
160,WS_SEND_START,1516295732629,52
160,WS_SEND_END,1516295732629,52
160,WS_RECV_START,1516295732629,53
160,WS_RECV_END,1516295732777,53
160,PLAYER_SLEEPBEFORE_START,1516295732777,54
160,PLAYER_SLEEPBEFORE_END,1516295754080,54
160,WS_SEND_START,1516295754080,54
160,WS_SEND_END,1516295754080,54
160,PLAYER_SLEEPBEFORE_START,1516295754080,55
160,PLAYER_SLEEPBEFORE_END,1516295756021,55
160,WS_SEND_START,1516295756021,55
160,WS_SEND_END,1516295756021,55
160,WS_RECV_START,1516295756021,56
160,WS_RECV_END,1516295756079,56
160,PLAYER_SLEEPBEFORE_START,1516295756079,57
160,PLAYER_SLEEPBEFORE_END,1516295778952,57
160,WS_SEND_START,1516295778952,57
160,WS_SEND_END,1516295778952,57
160,WS_RECV_START,1516295778952,58
160,WS_RECV_END,1516295778998,58
160,PLAYER_SLEEPBEFORE_START,1516295778998,59
160,PLAYER_SLEEPBEFORE_END,1516295781325,59
160,WS_SEND_START,1516295781325,59
160,WS_SEND_END,1516295781325,59
160,WS_RECV_START,1516295781325,60
160,WS_RECV_END,1516295781482,60
160,PLAYER_SLEEPBEFORE_START,1516295781482,61
160,PLAYER_SLEEPBEFORE_END,1516295785074,61
160,WS_SEND_START,1516295785074,61
160,WS_SEND_END,1516295785074,61
160,WS_RECV_START,1516295785074,62
160,WS_RECV_END,1516295785213,62
160,PLAYER_SLEEPBEFORE_START,1516295785213,63
160,PLAYER_SLEEPBEFORE_END,1516295804476,63
160,WS_SEND_START,1516295804476,63
160,WS_SEND_END,1516295804476,63
160,WS_RECV_START,1516295804476,64
160,WS_RECV_END,1516295804542,64
160,PLAYER_SLEEPBEFORE_START,1516295804542,65
160,PLAYER_SLEEPBEFORE_END,1516295831359,65
160,WS_SEND_START,1516295831359,65
160,WS_SEND_END,1516295831359,65
160,WS_RECV_START,1516295831359,66
160,WS_RECV_END,1516295831504,66
160,PLAYER_SLEEPBEFORE_START,1516295831504,67
160,PLAYER_SLEEPBEFORE_END,1516295833011,67
160,WS_SEND_START,1516295833011,67
160,WS_SEND_END,1516295833011,67
160,WS_RECV_START,1516295833011,68
160,WS_RECV_END,1516295833229,68
160,PLAYER_SLEEPBEFORE_START,1516295833229,69
160,PLAYER_SLEEPBEFORE_END,1516295855227,69
160,WS_SEND_START,1516295855227,69
160,WS_SEND_END,1516295855227,69
160,WS_RECV_START,1516295855227,70
160,WS_RECV_END,1516295855391,70
160,PLAYER_SLEEPBEFORE_START,1516295855391,71
160,PLAYER_SLEEPBEFORE_END,1516295880166,71
160,WS_SEND_START,1516295880166,71
160,WS_SEND_END,1516295880166,71
160,PLAYER_SLEEPBEFORE_START,1516295880166,72
160,PLAYER_SLEEPBEFORE_END,1516295882773,72
160,WS_SEND_START,1516295882773,72
160,WS_SEND_END,1516295882773,72
160,WS_RECV_START,1516295882773,73
160,WS_RECV_END,1516295882824,73
160,PLAYER_SLEEPBEFORE_START,1516295882824,74
160,PLAYER_SLEEPBEFORE_END,1516295882833,74
160,WS_SEND_START,1516295882833,74
160,WS_SEND_END,1516295882833,74
160,WS_RECV_START,1516295882833,75
160,WS_RECV_END,1516295882874,75
160,PLAYER_SLEEPBEFORE_START,1516295882874,76
160,PLAYER_SLEEPBEFORE_END,1516295884380,76
160,WS_SEND_START,1516295884380,76
160,WS_SEND_END,1516295884380,76
160,WS_RECV_START,1516295884380,77
160,WS_RECV_END,1516295884844,77
160,PLAYER_SLEEPBEFORE_START,1516295884844,78
160,PLAYER_SLEEPBEFORE_END,1516295885712,78
160,WS_SEND_START,1516295885712,78
160,WS_SEND_END,1516295885712,78
160,WS_RECV_START,1516295885712,79
160,WS_RECV_END,1516295886416,79
160,PLAYER_SLEEPBEFORE_START,1516295886416,80
160,PLAYER_SLEEPBEFORE_END,1516295894082,80
160,WS_SEND_START,1516295894082,80
160,WS_SEND_END,1516295894082,80
160,WS_RECV_START,1516295894082,81
160,WS_RECV_END,1516295894197,81
160,PLAYER_SLEEPBEFORE_START,1516295894197,82
160,PLAYER_SLEEPBEFORE_END,1516295895299,82
160,WS_SEND_START,1516295895300,82
160,WS_SEND_END,1516295895300,82
160,WS_RECV_START,1516295895300,83
160,WS_RECV_END,1516295895685,83
160,PLAYER_SLEEPBEFORE_START,1516295895685,84
160,PLAYER_SLEEPBEFORE_END,1516295896632,84
160,WS_SEND_START,1516295896632,84
160,WS_SEND_END,1516295896632,84
160,WS_RECV_START,1516295896632,85
160,WS_RECV_END,1516295896690,85
160,PLAYER_SLEEPBEFORE_START,1516295896690,86
160,PLAYER_SLEEPBEFORE_END,1516295900862,86
160,WS_SEND_START,1516295900862,86
160,WS_SEND_END,1516295900862,86
160,WS_RECV_START,1516295900862,87
160,WS_RECV_END,1516295901006,87
160,PLAYER_SLEEPBEFORE_START,1516295901006,88
160,PLAYER_SLEEPBEFORE_END,1516295901014,88
160,WS_SEND_START,1516295901014,88
160,WS_SEND_END,1516295901014,88
160,WS_RECV_START,1516295901014,89
160,WS_RECV_END,1516295901216,89
160,PLAYER_SLEEPBEFORE_START,1516295901216,90
160,PLAYER_SLEEPBEFORE_END,1516295928413,90
160,REQ_START,1516295928413,90
160,REQ_END,1516295928421,90
160,PLAYER_SLEEPBEFORE_START,1516295928421,91
160,PLAYER_SLEEPBEFORE_END,1516295936310,91
160,WS_SEND_START,1516295936310,91
160,WS_SEND_END,1516295936310,91
160,WS_RECV_START,1516295936310,92
160,WS_RECV_END,1516295937258,92
160,PLAYER_SLEEPBEFORE_START,1516295937258,93
160,PLAYER_SLEEPBEFORE_END,1516295937273,93
160,WS_SEND_START,1516295937273,93
160,WS_SEND_END,1516295937273,93
160,WS_RECV_START,1516295937273,94
160,WS_RECV_END,1516295937572,94
160,PLAYER_SLEEPBEFORE_START,1516295937573,95
160,PLAYER_SLEEPBEFORE_END,1516295961128,95
160,WS_SEND_START,1516295961128,95
160,WS_SEND_END,1516295961128,95
160,WS_RECV_START,1516295961128,96
160,WS_RECV_END,1516295961654,96
160,PLAYER_SLEEPBEFORE_START,1516295961654,97
160,PLAYER_SLEEPBEFORE_END,1516295984094,97
160,WS_SEND_START,1516295984094,97
160,WS_SEND_END,1516295984094,97
160,WS_RECV_START,1516295984094,98
160,WS_RECV_END,1516295984878,98
160,PLAYER_SLEEPBEFORE_START,1516295984878,99
160,PLAYER_SLEEPBEFORE_END,1516295984899,99
160,WS_SEND_START,1516295984899,99
160,WS_SEND_END,1516295984899,99
160,WS_RECV_START,1516295984899,100
160,WS_RECV_END,1516295985419,100
160,PLAYER_SLEEPBEFORE_START,1516295985419,101
160,PLAYER_SLEEPBEFORE_END,1516296008978,101
160,WS_SEND_START,1516296008978,101
160,WS_SEND_END,1516296008978,101
160,WS_RECV_START,1516296008978,102
160,WS_RECV_END,1516296010463,102
160,PLAYER_SLEEPBEFORE_START,1516296010463,103
160,PLAYER_SLEEPBEFORE_END,1516296034088,103
160,WS_SEND_START,1516296034088,103
160,WS_SEND_END,1516296034088,103
160,WS_RECV_START,1516296034088,104
160,WS_RECV_END,1516296036741,104
160,PLAYER_SLEEPBEFORE_START,1516296036741,105
160,PLAYER_SLEEPBEFORE_END,1516296062118,105
160,WS_SEND_START,1516296062118,105
160,WS_SEND_END,1516296062119,105
160,WS_RECV_START,1516296062119,106
160,WS_RECV_END,1516296063920,106
160,PLAYER_SLEEPBEFORE_START,1516296063920,107
160,PLAYER_SLEEPBEFORE_END,1516296087343,107
160,WS_SEND_START,1516296087343,107
160,WS_SEND_END,1516296087343,107
160,WS_RECV_START,1516296087343,108
160,WS_RECV_END,1516296089471,108
160,PLAYER_SLEEPBEFORE_START,1516296089471,109
160,PLAYER_SLEEPBEFORE_END,1516296089480,109
160,WS_SEND_START,1516296089480,109
160,WS_SEND_END,1516296089480,109
160,WS_RECV_START,1516296089480,110
160,WS_RECV_END,1516296090262,110
160,PLAYER_SLEEPBEFORE_START,1516296090262,111
160,PLAYER_SLEEPBEFORE_END,1516296091221,111
160,WS_SEND_START,1516296091221,111
160,WS_SEND_END,1516296091221,111
160,WS_RECV_START,1516296091221,112
160,WS_RECV_END,1516296092027,112
160,PLAYER_SLEEPBEFORE_START,1516296092027,113
160,PLAYER_SLEEPBEFORE_END,1516296092589,113
160,WS_SEND_START,1516296092589,113
160,WS_SEND_END,1516296092589,113
160,WS_RECV_START,1516296092589,114
160,WS_RECV_END,1516296094819,114
160,PLAYER_SLEEPBEFORE_START,1516296094819,115
160,PLAYER_SLEEPBEFORE_END,1516296094828,115
160,WS_SEND_START,1516296094828,115
160,WS_SEND_END,1516296094828,115
160,WS_RECV_START,1516296094828,116
160,WS_RECV_END,1516296096795,116
160,PLAYER_SLEEPBEFORE_START,1516296096795,117
160,PLAYER_SLEEPBEFORE_END,1516296117155,117
160,WS_SEND_START,1516296117155,117
160,WS_SEND_END,1516296117155,117
160,PLAYER_SLEEPBEFORE_START,1516296117155,118
160,PLAYER_SLEEPBEFORE_END,1516296120908,118
160,WS_SEND_START,1516296120908,118
160,WS_SEND_END,1516296120908,118
160,WS_RECV_START,1516296120908,119
160,WS_RECV_END,1516296124361,119
160,PLAYER_SLEEPBEFORE_START,1516296124361,120
160,PLAYER_SLEEPBEFORE_END,1516296125350,120
160,WS_SEND_START,1516296125350,120
160,WS_SEND_END,1516296125350,120
160,WS_RECV_START,1516296125350,121
160,WS_RECV_END,1516296126695,121
160,PLAYER_SLEEPBEFORE_START,1516296126695,122
160,PLAYER_SLEEPBEFORE_END,1516296127881,122
160,WS_SEND_START,1516296127881,122
160,WS_SEND_END,1516296127881,122
160,WS_RECV_START,1516296127881,123
160,WS_RECV_END,1516296128575,123
160,PLAYER_SLEEPBEFORE_START,1516296128575,124
160,PLAYER_SLEEPBEFORE_END,1516296152980,124
160,WS_SEND_START,1516296152980,124
160,WS_SEND_END,1516296152980,124
160,WS_RECV_START,1516296152980,125
160,WS_RECV_END,1516296154870,125
160,PLAYER_SLEEPBEFORE_START,1516296154870,126
160,PLAYER_SLEEPBEFORE_END,1516296175382,126
160,WS_SEND_START,1516296175382,126
160,WS_SEND_END,1516296175382,126
160,PLAYER_SLEEPBEFORE_START,1516296175382,127
160,PLAYER_SLEEPBEFORE_END,1516296178436,127
160,WS_SEND_START,1516296178436,127
160,WS_SEND_END,1516296178436,127
160,WS_RECV_START,1516296178436,128
160,WS_RECV_END,1516296180729,128
160,PLAYER_SLEEPBEFORE_START,1516296180729,129
160,PLAYER_SLEEPBEFORE_END,1516296180749,129
160,WS_SEND_START,1516296180749,129
160,WS_SEND_END,1516296180749,129
160,WS_RECV_START,1516296180749,130
160,WS_RECV_END,1516296182557,130
160,PLAYER_SLEEPBEFORE_START,1516296182557,131
160,PLAYER_SLEEPBEFORE_END,1516296204181,131
160,WS_SEND_START,1516296204181,131
160,WS_SEND_END,1516296204181,131
160,PLAYER_SLEEPBEFORE_START,1516296204181,132
160,PLAYER_SLEEPBEFORE_END,1516296207261,132
160,WS_SEND_START,1516296207261,132
160,WS_SEND_END,1516296207261,132
160,WS_RECV_START,1516296207261,133
160,WS_RECV_END,1516296207877,133
160,PLAYER_SLEEPBEFORE_START,1516296207877,134
160,PLAYER_SLEEPBEFORE_END,1516296229094,134
160,WS_SEND_START,1516296229094,134
160,WS_SEND_END,1516296229094,134
160,PLAYER_SLEEPBEFORE_START,1516296229094,135
160,PLAYER_SLEEPBEFORE_END,1516296232284,135
160,WS_SEND_START,1516296232284,135
160,WS_SEND_END,1516296232284,135
160,WS_RECV_START,1516296232284,136
160,WS_RECV_END,1516296233351,136
160,PLAYER_SLEEPBEFORE_START,1516296233351,137
160,PLAYER_SLEEPBEFORE_END,1516296233358,137
160,WS_SEND_START,1516296233358,137
160,WS_SEND_END,1516296233358,137
160,WS_RECV_START,1516296233358,138
160,WS_RECV_END,1516296235174,138
160,PLAYER_SLEEPBEFORE_START,1516296235174,139
160,PLAYER_SLEEPBEFORE_END,1516296235864,139
160,WS_SEND_START,1516296235864,139
160,WS_SEND_END,1516296235864,139
160,WS_RECV_START,1516296235864,140
160,WS_RECV_END,1516296238044,140
160,PLAYER_SLEEPBEFORE_START,1516296238044,141
160,PLAYER_SLEEPBEFORE_END,1516296238699,141
160,WS_SEND_START,1516296238699,141
160,WS_SEND_END,1516296238699,141
160,WS_RECV_START,1516296238699,142
160,WS_RECV_END,1516296240974,142
160,PLAYER_SLEEPBEFORE_START,1516296240974,143
160,PLAYER_SLEEPBEFORE_END,1516296241032,143
160,WS_SEND_START,1516296241032,143
160,WS_SEND_END,1516296241032,143
160,WS_RECV_START,1516296241032,144
160,WS_RECV_END,1516296243373,144
160,PLAYER_SLEEPBEFORE_START,1516296243373,145
160,PLAYER_SLEEPBEFORE_END,1516296259435,145
160,REQ_START,1516296259435,145
160,REQ_END,1516296259443,145
160,PLAYER_SLEEPBEFORE_START,1516296259443,146
160,PLAYER_SLEEPBEFORE_END,1516296268320,146
160,WS_SEND_START,1516296268320,146
160,WS_SEND_END,1516296268320,146
160,WS_RECV_START,1516296268320,147
160,WS_RECV_END,1516296273676,147
160,PLAYER_SLEEPBEFORE_START,1516296273676,148
160,PLAYER_SLEEPBEFORE_END,1516296295598,148
160,WS_SEND_START,1516296295598,148
160,WS_SEND_END,1516296295599,148
160,PLAYER_SLEEPBEFORE_START,1516296295599,149
160,PLAYER_SLEEPBEFORE_END,1516296298027,149
160,WS_SEND_START,1516296298027,149
160,WS_SEND_END,1516296298027,149
160,WS_RECV_START,1516296298027,150
160,WS_RECV_END,1516296299159,150
160,PLAYER_SLEEPBEFORE_START,1516296299159,151
160,PLAYER_SLEEPBEFORE_END,1516296299369,151
160,WS_SEND_START,1516296299369,151
160,WS_SEND_END,1516296299369,151
160,WS_RECV_START,1516296299369,152
160,WS_RECV_END,1516296302027,152
160,PLAYER_SLEEPBEFORE_START,1516296302027,153
160,PLAYER_SLEEPBEFORE_END,1516296325954,153
160,WS_SEND_START,1516296325954,153
160,WS_SEND_END,1516296325954,153
160,WS_RECV_START,1516296325954,154
160,WS_RECV_END,1516296331427,154
160,PLAYER_SLEEPBEFORE_START,1516296331427,155
160,PLAYER_SLEEPBEFORE_END,1516296353986,155
160,WS_SEND_START,1516296353986,155
160,WS_SEND_END,1516296353986,155
160,PLAYER_SLEEPBEFORE_START,1516296353986,156
160,PLAYER_SLEEPBEFORE_END,1516296357260,156
160,WS_SEND_START,1516296357260,156
160,WS_SEND_END,1516296357260,156
160,WS_RECV_START,1516296357260,157
160,WS_RECV_END,1516296359171,157
160,PLAYER_SLEEPBEFORE_START,1516296359171,158
160,PLAYER_SLEEPBEFORE_END,1516296359181,158
160,WS_SEND_START,1516296359181,158
160,WS_SEND_END,1516296359181,158
160,WS_RECV_START,1516296359181,159
160,WS_RECV_END,1516296361202,159
160,PLAYER_SLEEPBEFORE_START,1516296361202,160
160,PLAYER_SLEEPBEFORE_END,1516296361377,160
160,WS_SEND_START,1516296361377,160
160,WS_SEND_END,1516296361377,160
160,WS_RECV_START,1516296361377,161
160,WS_RECV_END,1516296365016,161
160,PLAYER_SLEEPBEFORE_START,1516296365016,162
160,PLAYER_SLEEPBEFORE_END,1516296365041,162
160,WS_SEND_START,1516296365041,162
160,WS_SEND_END,1516296365041,162
160,WS_RECV_START,1516296365041,163
160,WS_RECV_END,1516296368541,163
160,PLAYER_SLEEPBEFORE_START,1516296368541,164
160,PLAYER_SLEEPBEFORE_END,1516296389353,164
160,WS_SEND_START,1516296389353,164
160,WS_SEND_END,1516296389353,164
160,WS_RECV_START,1516296389353,165
160,WS_RECV_END,1516296394004,165
160,PLAYER_SLEEPBEFORE_START,1516296394004,166
160,PLAYER_SLEEPBEFORE_END,1516296416459,166
160,WS_SEND_START,1516296416459,166
160,WS_SEND_END,1516296416459,166
160,WS_RECV_START,1516296416459,167
160,WS_RECV_END,1516296423633,167
160,PLAYER_SLEEPBEFORE_START,1516296423633,168
160,PLAYER_SLEEPBEFORE_END,1516296450990,168
160,WS_SEND_START,1516296450990,168
160,WS_SEND_END,1516296450990,168
160,WS_RECV_START,1516296450990,169
160,WS_RECV_END,1516296458633,169
160,PLAYER_SLEEPBEFORE_START,1516296458633,170
160,PLAYER_SLEEPBEFORE_END,1516296458642,170
160,WS_SEND_START,1516296458642,170
160,WS_SEND_END,1516296458642,170
160,WS_RECV_START,1516296458642,171
160,WS_RECV_END,1516296463884,171
160,PLAYER_SLEEPBEFORE_START,1516296463884,172
160,PLAYER_SLEEPBEFORE_END,1516296464253,172
160,WS_SEND_START,1516296464253,172
160,WS_SEND_END,1516296464253,172
160,WS_RECV_START,1516296464253,173
160,WS_RECV_END,1516296469984,173
160,PLAYER_SLEEPBEFORE_START,1516296469984,174
160,PLAYER_SLEEPBEFORE_END,1516296470025,174
160,WS_SEND_START,1516296470025,174
160,WS_SEND_END,1516296470025,174
160,WS_RECV_START,1516296470025,175
160,WS_RECV_END,1516296476385,175
160,PLAYER_SLEEPBEFORE_START,1516296476385,176
160,PLAYER_SLEEPBEFORE_END,1516296498146,176
160,WS_SEND_START,1516296498146,176
160,WS_SEND_END,1516296498147,176
160,PLAYER_SLEEPBEFORE_START,1516296498147,177
160,PLAYER_SLEEPBEFORE_END,1516296500665,177
160,WS_SEND_START,1516296500665,177
160,WS_SEND_END,1516296500665,177
160,WS_RECV_START,1516296500665,178
160,WS_RECV_END,1516296506051,178
160,PLAYER_SLEEPBEFORE_START,1516296506051,179
160,PLAYER_SLEEPBEFORE_END,1516296528392,179
160,WS_SEND_START,1516296528392,179
160,WS_SEND_END,1516296528392,179
160,WS_RECV_START,1516296528392,180
160,WS_RECV_END,1516296537551,180
160,PLAYER_SLEEPBEFORE_START,1516296537551,181
160,PLAYER_SLEEPBEFORE_END,1516296537995,181
160,WS_SEND_START,1516296537995,181
160,WS_SEND_END,1516296537995,181
160,WS_RECV_START,1516296537995,182
160,WS_RECV_END,1516296541535,182
160,PLAYER_SLEEPBEFORE_START,1516296541535,183
160,PLAYER_SLEEPBEFORE_END,1516296542058,183
160,WS_SEND_START,1516296542058,183
160,WS_SEND_END,1516296542058,183
160,WS_RECV_START,1516296542058,184
160,WS_RECV_END,1516296547030,184
160,PLAYER_SLEEPBEFORE_START,1516296547030,185
160,PLAYER_SLEEPBEFORE_END,1516296547298,185
160,WS_SEND_START,1516296547298,185
160,WS_SEND_END,1516296547298,185
160,WS_RECV_START,1516296547298,186
160,WS_RECV_END,1516296551974,186
160,PLAYER_SLEEPBEFORE_START,1516296551974,187
160,PLAYER_SLEEPBEFORE_END,1516296574474,187
160,WS_SEND_START,1516296574474,187
160,WS_SEND_END,1516296574474,187
160,WS_RECV_START,1516296574474,188
160,WS_RECV_END,1516296582577,188
160,PLAYER_SLEEPBEFORE_START,1516296582577,189
160,PLAYER_SLEEPBEFORE_END,1516296588816,189
160,WS_SEND_START,1516296588816,189
160,WS_SEND_END,1516296588816,189
160,WS_RECV_START,1516296588816,190
160,WS_RECV_END,1516296594070,190
160,PLAYER_SLEEPBEFORE_START,1516296594070,191
160,PLAYER_SLEEPBEFORE_END,1516296595986,191
160,WS_SEND_START,1516296595986,191
160,WS_SEND_END,1516296595986,191
160,WS_RECV_START,1516296595986,192
160,WS_RECV_END,1516296601287,192
160,PLAYER_SLEEPBEFORE_START,1516296601287,193
160,PLAYER_SLEEPBEFORE_END,1516296601415,193
160,WS_SEND_START,1516296601415,193
160,WS_SEND_END,1516296601415,193
160,WS_RECV_START,1516296601415,194
160,WS_RECV_END,1516296603787,194
160,PLAYER_SLEEPBEFORE_START,1516296603787,195
160,PLAYER_SLEEPBEFORE_END,1516296605542,195
160,WS_SEND_START,1516296605542,195
160,WS_SEND_END,1516296605542,195
160,WS_RECV_START,1516296605542,196
160,WS_RECV_END,1516296608436,196
160,PLAYER_SLEEPBEFORE_START,1516296608436,197
160,PLAYER_SLEEPBEFORE_END,1516296610241,197
160,WS_SEND_START,1516296610241,197
160,WS_SEND_END,1516296610241,197
160,WS_RECV_START,1516296610241,198
160,WS_RECV_END,1516296614005,198
160,PLAYER_SLEEPBEFORE_START,1516296614005,199
160,PLAYER_SLEEPBEFORE_END,1516296625859,199
160,WS_SEND_START,1516296625859,199
160,WS_SEND_END,1516296625859,199
160,PLAYER_SLEEPBEFORE_START,1516296625859,200
160,PLAYER_SLEEPBEFORE_END,1516296629948,200
160,WS_SEND_START,1516296629948,200
160,WS_SEND_END,1516296629948,200
160,WS_RECV_START,1516296629948,201
160,WS_RECV_END,1516296631907,201
160,PLAYER_SLEEPBEFORE_START,1516296631907,202
160,PLAYER_SLEEPBEFORE_END,1516296631921,202
160,WS_SEND_START,1516296631921,202
160,WS_SEND_END,1516296631921,202
160,WS_RECV_START,1516296631921,203
160,WS_RECV_END,1516296633839,203
160,PLAYER_SLEEPBEFORE_START,1516296633839,204
160,PLAYER_SLEEPBEFORE_END,1516296653488,204
160,WS_SEND_START,1516296653488,204
160,WS_SEND_END,1516296653488,204
160,PLAYER_SLEEPBEFORE_START,1516296653488,205
160,PLAYER_SLEEPBEFORE_END,1516296657386,205
160,WS_SEND_START,1516296657386,205
160,WS_SEND_END,1516296657386,205
160,WS_RECV_START,1516296657386,206
160,WS_RECV_END,1516296658992,206
160,PLAYER_SLEEPBEFORE_START,1516296658992,207
160,PLAYER_SLEEPBEFORE_END,1516296675923,207
160,REQ_START,1516296675923,207
160,REQ_END,1516296675931,207
160,PLAYER_SLEEPBEFORE_START,1516296675931,208
160,PLAYER_SLEEPBEFORE_END,1516296682784,208
160,WS_CLOSE_START,1516296682784,208
160,WS_CLOSE_END,1516296682784,208
160,PLAYER_DONE,1516296682784
