# --sessions 630 --app-url=http://shinyloadtest.rstudioservices.com/cran_explorer --output-dir test630 --overwrite-output --log-level warn --start-interval 800 15min.log
thread_id,event,timestamp,input_line_number,comment
26,PLAYER_SESSION_CREATE,1516295501099
26,PLAYER_START_INTERVAL_START,1516295501099
26,PLAYER_START_INTERVAL_END,1516295521899
26,REQ_HOME_START,1516295521899,2
26,REQ_HOME_END,1516295521990,2
26,REQ_START,1516295521990,3
26,REQ_END,1516295522022,3
26,REQ_START,1516295522022,4
26,REQ_END,1516295522052,4
26,REQ_START,1516295522052,5
26,REQ_END,1516295522085,5
26,REQ_START,1516295522085,6
26,REQ_END,1516295522116,6
26,REQ_START,1516295522116,7
26,REQ_END,1516295522148,7
26,REQ_START,1516295522148,8
26,REQ_END,1516295522182,8
26,REQ_START,1516295522182,9
26,REQ_END,1516295522217,9
26,REQ_START,1516295522218,10
26,REQ_END,1516295522226,10
26,REQ_START,1516295522226,11
26,REQ_END,1516295522257,11
26,REQ_START,1516295522257,12
26,REQ_END,1516295522267,12
26,REQ_START,1516295522267,13
26,REQ_END,1516295522298,13
26,REQ_START,1516295522298,14
26,REQ_END,1516295522312,14
26,REQ_START,1516295522312,15
26,REQ_END,1516295522348,15
26,REQ_TOK_START,1516295522348,16
26,REQ_TOK_END,1516295522357,16
26,REQ_SINF_START,1516295522357,17
26,REQ_SINF_END,1516295522365,17
26,WS_OPEN_START,1516295522365,18
26,WS_OPEN_END,1516295522371,18
26,REQ_START,1516295522372,19
26,REQ_END,1516295522401,19
26,WS_RECV_START,1516295522401,20
26,WS_RECV_END,1516295522401,20
26,PLAYER_SLEEPBEFORE_START,1516295522401,21
26,PLAYER_SLEEPBEFORE_END,1516295522406,21
26,WS_SEND_START,1516295522406,21
26,WS_SEND_END,1516295522406,21
26,PLAYER_SLEEPBEFORE_START,1516295522406,22
26,PLAYER_SLEEPBEFORE_END,1516295522407,22
26,WS_SEND_START,1516295522407,22
26,WS_SEND_END,1516295522408,22
26,WS_RECV_INIT_START,1516295522408,23
26,WS_RECV_INIT_END,1516295522427,23
26,WS_RECV_START,1516295522427,24
26,WS_RECV_END,1516295522509,24
26,PLAYER_SLEEPBEFORE_START,1516295522509,25
26,PLAYER_SLEEPBEFORE_END,1516295522517,25
26,REQ_START,1516295522517,25
26,REQ_END,1516295522550,25
26,PLAYER_SLEEPBEFORE_START,1516295522550,26
26,PLAYER_SLEEPBEFORE_END,1516295522552,26
26,REQ_START,1516295522552,26
26,REQ_END,1516295522583,26
26,PLAYER_SLEEPBEFORE_START,1516295522583,27
26,PLAYER_SLEEPBEFORE_END,1516295522586,27
26,REQ_START,1516295522586,27
26,REQ_END,1516295522618,27
26,PLAYER_SLEEPBEFORE_START,1516295522618,28
26,PLAYER_SLEEPBEFORE_END,1516295522903,28
26,REQ_START,1516295522903,28
26,REQ_END,1516295522934,28
26,PLAYER_SLEEPBEFORE_START,1516295522934,29
26,PLAYER_SLEEPBEFORE_END,1516295523109,29
26,WS_SEND_START,1516295523109,29
26,WS_SEND_END,1516295523109,29
26,WS_RECV_START,1516295523110,30
26,WS_RECV_END,1516295523210,30
26,PLAYER_SLEEPBEFORE_START,1516295523210,31
26,PLAYER_SLEEPBEFORE_END,1516295523221,31
26,REQ_START,1516295523221,31
26,REQ_END,1516295523255,31
26,PLAYER_SLEEPBEFORE_START,1516295523255,32
26,PLAYER_SLEEPBEFORE_END,1516295551400,32
26,WS_SEND_START,1516295551400,32
26,WS_SEND_END,1516295551400,32
26,WS_RECV_START,1516295551400,33
26,WS_RECV_END,1516295551485,33
26,PLAYER_SLEEPBEFORE_START,1516295551485,34
26,PLAYER_SLEEPBEFORE_END,1516295577397,34
26,WS_SEND_START,1516295577397,34
26,WS_SEND_END,1516295577397,34
26,WS_RECV_START,1516295577397,35
26,WS_RECV_END,1516295577434,35
26,PLAYER_SLEEPBEFORE_START,1516295577434,36
26,PLAYER_SLEEPBEFORE_END,1516295577443,36
26,WS_SEND_START,1516295577443,36
26,WS_SEND_END,1516295577443,36
26,WS_RECV_START,1516295577443,37
26,WS_RECV_END,1516295577486,37
26,PLAYER_SLEEPBEFORE_START,1516295577486,38
26,PLAYER_SLEEPBEFORE_END,1516295580681,38
26,WS_SEND_START,1516295580681,38
26,WS_SEND_END,1516295580681,38
26,WS_RECV_START,1516295580681,39
26,WS_RECV_END,1516295580842,39
26,PLAYER_SLEEPBEFORE_START,1516295580842,40
26,PLAYER_SLEEPBEFORE_END,1516295580888,40
26,WS_SEND_START,1516295580888,40
26,WS_SEND_END,1516295580888,40
26,WS_RECV_START,1516295580888,41
26,WS_RECV_END,1516295581003,41
26,PLAYER_SLEEPBEFORE_START,1516295581003,42
26,PLAYER_SLEEPBEFORE_END,1516295599139,42
26,WS_SEND_START,1516295599139,42
26,WS_SEND_END,1516295599139,42
26,WS_RECV_START,1516295599139,43
26,WS_RECV_END,1516295599165,43
26,PLAYER_SLEEPBEFORE_START,1516295599165,44
26,PLAYER_SLEEPBEFORE_END,1516295599177,44
26,WS_SEND_START,1516295599177,44
26,WS_SEND_END,1516295599177,44
26,WS_RECV_START,1516295599177,45
26,WS_RECV_END,1516295599234,45
26,PLAYER_SLEEPBEFORE_START,1516295599234,46
26,PLAYER_SLEEPBEFORE_END,1516295600494,46
26,WS_SEND_START,1516295600494,46
26,WS_SEND_END,1516295600494,46
26,WS_RECV_START,1516295600494,47
26,WS_RECV_END,1516295600518,47
26,PLAYER_SLEEPBEFORE_START,1516295600518,48
26,PLAYER_SLEEPBEFORE_END,1516295601838,48
26,WS_SEND_START,1516295601838,48
26,WS_SEND_END,1516295601838,48
26,WS_RECV_START,1516295601839,49
26,WS_RECV_END,1516295601982,49
26,PLAYER_SLEEPBEFORE_START,1516295601982,50
26,PLAYER_SLEEPBEFORE_END,1516295602006,50
26,WS_SEND_START,1516295602006,50
26,WS_SEND_END,1516295602006,50
26,WS_RECV_START,1516295602006,51
26,WS_RECV_END,1516295602112,51
26,PLAYER_SLEEPBEFORE_START,1516295602112,52
26,PLAYER_SLEEPBEFORE_END,1516295624676,52
26,WS_SEND_START,1516295624676,52
26,WS_SEND_END,1516295624676,52
26,WS_RECV_START,1516295624676,53
26,WS_RECV_END,1516295624781,53
26,PLAYER_SLEEPBEFORE_START,1516295624781,54
26,PLAYER_SLEEPBEFORE_END,1516295646084,54
26,WS_SEND_START,1516295646084,54
26,WS_SEND_END,1516295646084,54
26,PLAYER_SLEEPBEFORE_START,1516295646084,55
26,PLAYER_SLEEPBEFORE_END,1516295648026,55
26,WS_SEND_START,1516295648026,55
26,WS_SEND_END,1516295648026,55
26,WS_RECV_START,1516295648026,56
26,WS_RECV_END,1516295648071,56
26,PLAYER_SLEEPBEFORE_START,1516295648071,57
26,PLAYER_SLEEPBEFORE_END,1516295670943,57
26,WS_SEND_START,1516295670943,57
26,WS_SEND_END,1516295670943,57
26,WS_RECV_START,1516295670943,58
26,WS_RECV_END,1516295670982,58
26,PLAYER_SLEEPBEFORE_START,1516295670982,59
26,PLAYER_SLEEPBEFORE_END,1516295673309,59
26,WS_SEND_START,1516295673309,59
26,WS_SEND_END,1516295673309,59
26,WS_RECV_START,1516295673309,60
26,WS_RECV_END,1516295673403,60
26,PLAYER_SLEEPBEFORE_START,1516295673403,61
26,PLAYER_SLEEPBEFORE_END,1516295676995,61
26,WS_SEND_START,1516295676995,61
26,WS_SEND_END,1516295676995,61
26,WS_RECV_START,1516295676995,62
26,WS_RECV_END,1516295677082,62
26,PLAYER_SLEEPBEFORE_START,1516295677082,63
26,PLAYER_SLEEPBEFORE_END,1516295696344,63
26,WS_SEND_START,1516295696344,63
26,WS_SEND_END,1516295696344,63
26,WS_RECV_START,1516295696344,64
26,WS_RECV_END,1516295696400,64
26,PLAYER_SLEEPBEFORE_START,1516295696400,65
26,PLAYER_SLEEPBEFORE_END,1516295723217,65
26,WS_SEND_START,1516295723217,65
26,WS_SEND_END,1516295723217,65
26,WS_RECV_START,1516295723217,66
26,WS_RECV_END,1516295723351,66
26,PLAYER_SLEEPBEFORE_START,1516295723351,67
26,PLAYER_SLEEPBEFORE_END,1516295724858,67
26,WS_SEND_START,1516295724858,67
26,WS_SEND_END,1516295724858,67
26,WS_RECV_START,1516295724858,68
26,WS_RECV_END,1516295724953,68
26,PLAYER_SLEEPBEFORE_START,1516295724953,69
26,PLAYER_SLEEPBEFORE_END,1516295746951,69
26,WS_SEND_START,1516295746951,69
26,WS_SEND_END,1516295746951,69
26,WS_RECV_START,1516295746951,70
26,WS_RECV_END,1516295747059,70
26,PLAYER_SLEEPBEFORE_START,1516295747059,71
26,PLAYER_SLEEPBEFORE_END,1516295771834,71
26,WS_SEND_START,1516295771834,71
26,WS_SEND_END,1516295771834,71
26,PLAYER_SLEEPBEFORE_START,1516295771834,72
26,PLAYER_SLEEPBEFORE_END,1516295774441,72
26,WS_SEND_START,1516295774441,72
26,WS_SEND_END,1516295774441,72
26,WS_RECV_START,1516295774441,73
26,WS_RECV_END,1516295774477,73
26,PLAYER_SLEEPBEFORE_START,1516295774477,74
26,PLAYER_SLEEPBEFORE_END,1516295774486,74
26,WS_SEND_START,1516295774486,74
26,WS_SEND_END,1516295774486,74
26,WS_RECV_START,1516295774486,75
26,WS_RECV_END,1516295774538,75
26,PLAYER_SLEEPBEFORE_START,1516295774538,76
26,PLAYER_SLEEPBEFORE_END,1516295776044,76
26,WS_SEND_START,1516295776044,76
26,WS_SEND_END,1516295776044,76
26,WS_RECV_START,1516295776044,77
26,WS_RECV_END,1516295776113,77
26,PLAYER_SLEEPBEFORE_START,1516295776113,78
26,PLAYER_SLEEPBEFORE_END,1516295776981,78
26,WS_SEND_START,1516295776981,78
26,WS_SEND_END,1516295776981,78
26,WS_RECV_START,1516295776981,79
26,WS_RECV_END,1516295777007,79
26,PLAYER_SLEEPBEFORE_START,1516295777007,80
26,PLAYER_SLEEPBEFORE_END,1516295784674,80
26,WS_SEND_START,1516295784674,80
26,WS_SEND_END,1516295784674,80
26,WS_RECV_START,1516295784674,81
26,WS_RECV_END,1516295784713,81
26,PLAYER_SLEEPBEFORE_START,1516295784713,82
26,PLAYER_SLEEPBEFORE_END,1516295785816,82
26,WS_SEND_START,1516295785816,82
26,WS_SEND_END,1516295785816,82
26,WS_RECV_START,1516295785816,83
26,WS_RECV_END,1516295785851,83
26,PLAYER_SLEEPBEFORE_START,1516295785851,84
26,PLAYER_SLEEPBEFORE_END,1516295786798,84
26,WS_SEND_START,1516295786798,84
26,WS_SEND_END,1516295786798,84
26,WS_RECV_START,1516295786798,85
26,WS_RECV_END,1516295787039,85
26,PLAYER_SLEEPBEFORE_START,1516295787039,86
26,PLAYER_SLEEPBEFORE_END,1516295791212,86
26,WS_SEND_START,1516295791212,86
26,WS_SEND_END,1516295791212,86
26,WS_RECV_START,1516295791212,87
26,WS_RECV_END,1516295791450,87
26,PLAYER_SLEEPBEFORE_START,1516295791450,88
26,PLAYER_SLEEPBEFORE_END,1516295791458,88
26,WS_SEND_START,1516295791458,88
26,WS_SEND_END,1516295791458,88
26,WS_RECV_START,1516295791458,89
26,WS_RECV_END,1516295791582,89
26,PLAYER_SLEEPBEFORE_START,1516295791582,90
26,PLAYER_SLEEPBEFORE_END,1516295818779,90
26,REQ_START,1516295818779,90
26,REQ_END,1516295818786,90
26,PLAYER_SLEEPBEFORE_START,1516295818786,91
26,PLAYER_SLEEPBEFORE_END,1516295826675,91
26,WS_SEND_START,1516295826675,91
26,WS_SEND_END,1516295826675,91
26,WS_RECV_START,1516295826675,92
26,WS_RECV_END,1516295826774,92
26,PLAYER_SLEEPBEFORE_START,1516295826774,93
26,PLAYER_SLEEPBEFORE_END,1516295826789,93
26,WS_SEND_START,1516295826789,93
26,WS_SEND_END,1516295826789,93
26,WS_RECV_START,1516295826789,94
26,WS_RECV_END,1516295827327,94
26,PLAYER_SLEEPBEFORE_START,1516295827327,95
26,PLAYER_SLEEPBEFORE_END,1516295850882,95
26,WS_SEND_START,1516295850882,95
26,WS_SEND_END,1516295850882,95
26,WS_RECV_START,1516295850882,96
26,WS_RECV_END,1516295851031,96
26,PLAYER_SLEEPBEFORE_START,1516295851031,97
26,PLAYER_SLEEPBEFORE_END,1516295873471,97
26,WS_SEND_START,1516295873472,97
26,WS_SEND_END,1516295873472,97
26,WS_RECV_START,1516295873472,98
26,WS_RECV_END,1516295874030,98
26,PLAYER_SLEEPBEFORE_START,1516295874030,99
26,PLAYER_SLEEPBEFORE_END,1516295874051,99
26,WS_SEND_START,1516295874051,99
26,WS_SEND_END,1516295874051,99
26,WS_RECV_START,1516295874051,100
26,WS_RECV_END,1516295874248,100
26,PLAYER_SLEEPBEFORE_START,1516295874248,101
26,PLAYER_SLEEPBEFORE_END,1516295897807,101
26,WS_SEND_START,1516295897807,101
26,WS_SEND_END,1516295897807,101
26,WS_RECV_START,1516295897807,102
26,WS_RECV_END,1516295898107,102
26,PLAYER_SLEEPBEFORE_START,1516295898107,103
26,PLAYER_SLEEPBEFORE_END,1516295921732,103
26,WS_SEND_START,1516295921732,103
26,WS_SEND_END,1516295921732,103
26,WS_RECV_START,1516295921732,104
26,WS_RECV_END,1516295922284,104
26,PLAYER_SLEEPBEFORE_START,1516295922284,105
26,PLAYER_SLEEPBEFORE_END,1516295947661,105
26,WS_SEND_START,1516295947661,105
26,WS_SEND_END,1516295947661,105
26,WS_RECV_START,1516295947661,106
26,WS_RECV_END,1516295947856,106
26,PLAYER_SLEEPBEFORE_START,1516295947856,107
26,PLAYER_SLEEPBEFORE_END,1516295971279,107
26,WS_SEND_START,1516295971280,107
26,WS_SEND_END,1516295971280,107
26,WS_RECV_START,1516295971280,108
26,WS_RECV_END,1516295972226,108
26,PLAYER_SLEEPBEFORE_START,1516295972226,109
26,PLAYER_SLEEPBEFORE_END,1516295972235,109
26,WS_SEND_START,1516295972235,109
26,WS_SEND_END,1516295972235,109
26,WS_RECV_START,1516295972235,110
26,WS_RECV_END,1516295973090,110
26,PLAYER_SLEEPBEFORE_START,1516295973090,111
26,PLAYER_SLEEPBEFORE_END,1516295974049,111
26,WS_SEND_START,1516295974049,111
26,WS_SEND_END,1516295974049,111
26,WS_RECV_START,1516295974049,112
26,WS_RECV_END,1516295974106,112
26,PLAYER_SLEEPBEFORE_START,1516295974106,113
26,PLAYER_SLEEPBEFORE_END,1516295974668,113
26,WS_SEND_START,1516295974668,113
26,WS_SEND_END,1516295974668,113
26,WS_RECV_START,1516295974668,114
26,WS_RECV_END,1516295975064,114
26,PLAYER_SLEEPBEFORE_START,1516295975064,115
26,PLAYER_SLEEPBEFORE_END,1516295975073,115
26,WS_SEND_START,1516295975073,115
26,WS_SEND_END,1516295975073,115
26,WS_RECV_START,1516295975073,116
26,WS_RECV_END,1516295976452,116
26,PLAYER_SLEEPBEFORE_START,1516295976452,117
26,PLAYER_SLEEPBEFORE_END,1516295996812,117
26,WS_SEND_START,1516295996812,117
26,WS_SEND_END,1516295996812,117
26,PLAYER_SLEEPBEFORE_START,1516295996812,118
26,PLAYER_SLEEPBEFORE_END,1516296000564,118
26,WS_SEND_START,1516296000564,118
26,WS_SEND_END,1516296000564,118
26,WS_RECV_START,1516296000564,119
26,WS_RECV_END,1516296002433,119
26,PLAYER_SLEEPBEFORE_START,1516296002433,120
26,PLAYER_SLEEPBEFORE_END,1516296003421,120
26,WS_SEND_START,1516296003421,120
26,WS_SEND_END,1516296003421,120
26,WS_RECV_START,1516296003421,121
26,WS_RECV_END,1516296004337,121
26,PLAYER_SLEEPBEFORE_START,1516296004337,122
26,PLAYER_SLEEPBEFORE_END,1516296005522,122
26,WS_SEND_START,1516296005522,122
26,WS_SEND_END,1516296005522,122
26,WS_RECV_START,1516296005522,123
26,WS_RECV_END,1516296007352,123
26,PLAYER_SLEEPBEFORE_START,1516296007352,124
26,PLAYER_SLEEPBEFORE_END,1516296031757,124
26,WS_SEND_START,1516296031757,124
26,WS_SEND_END,1516296031757,124
26,WS_RECV_START,1516296031757,125
26,WS_RECV_END,1516296034881,125
26,PLAYER_SLEEPBEFORE_START,1516296034881,126
26,PLAYER_SLEEPBEFORE_END,1516296055393,126
26,WS_SEND_START,1516296055393,126
26,WS_SEND_END,1516296055393,126
26,PLAYER_SLEEPBEFORE_START,1516296055393,127
26,PLAYER_SLEEPBEFORE_END,1516296058447,127
26,WS_SEND_START,1516296058447,127
26,WS_SEND_END,1516296058447,127
26,WS_RECV_START,1516296058447,128
26,WS_RECV_END,1516296059872,128
26,PLAYER_SLEEPBEFORE_START,1516296059872,129
26,PLAYER_SLEEPBEFORE_END,1516296059892,129
26,WS_SEND_START,1516296059892,129
26,WS_SEND_END,1516296059892,129
26,WS_RECV_START,1516296059892,130
26,WS_RECV_END,1516296062067,130
26,PLAYER_SLEEPBEFORE_START,1516296062067,131
26,PLAYER_SLEEPBEFORE_END,1516296083691,131
26,WS_SEND_START,1516296083691,131
26,WS_SEND_END,1516296083691,131
26,PLAYER_SLEEPBEFORE_START,1516296083691,132
26,PLAYER_SLEEPBEFORE_END,1516296086772,132
26,WS_SEND_START,1516296086772,132
26,WS_SEND_END,1516296086772,132
26,WS_RECV_START,1516296086772,133
26,WS_RECV_END,1516296088926,133
26,PLAYER_SLEEPBEFORE_START,1516296088926,134
26,PLAYER_SLEEPBEFORE_END,1516296110143,134
26,WS_SEND_START,1516296110143,134
26,WS_SEND_END,1516296110143,134
26,PLAYER_SLEEPBEFORE_START,1516296110143,135
26,PLAYER_SLEEPBEFORE_END,1516296113333,135
26,WS_SEND_START,1516296113333,135
26,WS_SEND_END,1516296113333,135
26,WS_RECV_START,1516296113333,136
26,WS_RECV_END,1516296113535,136
26,PLAYER_SLEEPBEFORE_START,1516296113535,137
26,PLAYER_SLEEPBEFORE_END,1516296113545,137
26,WS_SEND_START,1516296113545,137
26,WS_SEND_END,1516296113545,137
26,WS_RECV_START,1516296113545,138
26,WS_RECV_END,1516296115290,138
26,PLAYER_SLEEPBEFORE_START,1516296115290,139
26,PLAYER_SLEEPBEFORE_END,1516296115980,139
26,WS_SEND_START,1516296115980,139
26,WS_SEND_END,1516296115980,139
26,WS_RECV_START,1516296115980,140
26,WS_RECV_END,1516296118202,140
26,PLAYER_SLEEPBEFORE_START,1516296118202,141
26,PLAYER_SLEEPBEFORE_END,1516296118857,141
26,WS_SEND_START,1516296118858,141
26,WS_SEND_END,1516296118858,141
26,WS_RECV_START,1516296118858,142
26,WS_RECV_END,1516296121799,142
26,PLAYER_SLEEPBEFORE_START,1516296121799,143
26,PLAYER_SLEEPBEFORE_END,1516296121856,143
26,WS_SEND_START,1516296121856,143
26,WS_SEND_END,1516296121856,143
26,WS_RECV_START,1516296121856,144
26,WS_RECV_END,1516296126050,144
26,PLAYER_SLEEPBEFORE_START,1516296126050,145
26,PLAYER_SLEEPBEFORE_END,1516296142112,145
26,REQ_START,1516296142112,145
26,REQ_END,1516296142119,145
26,PLAYER_SLEEPBEFORE_START,1516296142119,146
26,PLAYER_SLEEPBEFORE_END,1516296150997,146
26,WS_SEND_START,1516296150997,146
26,WS_SEND_END,1516296150997,146
26,WS_RECV_START,1516296150997,147
26,WS_RECV_END,1516296156124,147
26,PLAYER_SLEEPBEFORE_START,1516296156124,148
26,PLAYER_SLEEPBEFORE_END,1516296178046,148
26,WS_SEND_START,1516296178046,148
26,WS_SEND_END,1516296178046,148
26,PLAYER_SLEEPBEFORE_START,1516296178046,149
26,PLAYER_SLEEPBEFORE_END,1516296180474,149
26,WS_SEND_START,1516296180474,149
26,WS_SEND_END,1516296180474,149
26,WS_RECV_START,1516296180474,150
26,WS_RECV_END,1516296184895,150
26,PLAYER_SLEEPBEFORE_START,1516296184895,151
26,PLAYER_SLEEPBEFORE_END,1516296185106,151
26,WS_SEND_START,1516296185106,151
26,WS_SEND_END,1516296185106,151
26,WS_RECV_START,1516296185106,152
26,WS_RECV_END,1516296187471,152
26,PLAYER_SLEEPBEFORE_START,1516296187471,153
26,PLAYER_SLEEPBEFORE_END,1516296211398,153
26,WS_SEND_START,1516296211398,153
26,WS_SEND_END,1516296211398,153
26,WS_RECV_START,1516296211398,154
26,WS_RECV_END,1516296215067,154
26,PLAYER_SLEEPBEFORE_START,1516296215067,155
26,PLAYER_SLEEPBEFORE_END,1516296237625,155
26,WS_SEND_START,1516296237625,155
26,WS_SEND_END,1516296237625,155
26,PLAYER_SLEEPBEFORE_START,1516296237625,156
26,PLAYER_SLEEPBEFORE_END,1516296240899,156
26,WS_SEND_START,1516296240899,156
26,WS_SEND_END,1516296240900,156
26,WS_RECV_START,1516296240900,157
26,WS_RECV_END,1516296242842,157
26,PLAYER_SLEEPBEFORE_START,1516296242843,158
26,PLAYER_SLEEPBEFORE_END,1516296242853,158
26,WS_SEND_START,1516296242853,158
26,WS_SEND_END,1516296242853,158
26,WS_RECV_START,1516296242853,159
26,WS_RECV_END,1516296245078,159
26,PLAYER_SLEEPBEFORE_START,1516296245078,160
26,PLAYER_SLEEPBEFORE_END,1516296245253,160
26,WS_SEND_START,1516296245253,160
26,WS_SEND_END,1516296245253,160
26,WS_RECV_START,1516296245253,161
26,WS_RECV_END,1516296249239,161
26,PLAYER_SLEEPBEFORE_START,1516296249239,162
26,PLAYER_SLEEPBEFORE_END,1516296249264,162
26,WS_SEND_START,1516296249264,162
26,WS_SEND_END,1516296249264,162
26,WS_RECV_START,1516296249264,163
26,WS_RECV_END,1516296253089,163
26,PLAYER_SLEEPBEFORE_START,1516296253089,164
26,PLAYER_SLEEPBEFORE_END,1516296273901,164
26,WS_SEND_START,1516296273901,164
26,WS_SEND_END,1516296273901,164
26,WS_RECV_START,1516296273901,165
26,WS_RECV_END,1516296278424,165
26,PLAYER_SLEEPBEFORE_START,1516296278424,166
26,PLAYER_SLEEPBEFORE_END,1516296300879,166
26,WS_SEND_START,1516296300879,166
26,WS_SEND_END,1516296300879,166
26,WS_RECV_START,1516296300879,167
26,WS_RECV_END,1516296306612,167
26,PLAYER_SLEEPBEFORE_START,1516296306612,168
26,PLAYER_SLEEPBEFORE_END,1516296333969,168
26,WS_SEND_START,1516296333969,168
26,WS_SEND_END,1516296333969,168
26,WS_RECV_START,1516296333969,169
26,WS_RECV_END,1516296338350,169
26,PLAYER_SLEEPBEFORE_START,1516296338350,170
26,PLAYER_SLEEPBEFORE_END,1516296338359,170
26,WS_SEND_START,1516296338359,170
26,WS_SEND_END,1516296338359,170
26,WS_RECV_START,1516296338359,171
26,WS_RECV_END,1516296341081,171
26,PLAYER_SLEEPBEFORE_START,1516296341081,172
26,PLAYER_SLEEPBEFORE_END,1516296341450,172
26,WS_SEND_START,1516296341450,172
26,WS_SEND_END,1516296341450,172
26,WS_RECV_START,1516296341450,173
26,WS_RECV_END,1516296344640,173
26,PLAYER_SLEEPBEFORE_START,1516296344640,174
26,PLAYER_SLEEPBEFORE_END,1516296344681,174
26,WS_SEND_START,1516296344681,174
26,WS_SEND_END,1516296344681,174
26,WS_RECV_START,1516296344681,175
26,WS_RECV_END,1516296347812,175
26,PLAYER_SLEEPBEFORE_START,1516296347812,176
26,PLAYER_SLEEPBEFORE_END,1516296369573,176
26,WS_SEND_START,1516296369573,176
26,WS_SEND_END,1516296369573,176
26,PLAYER_SLEEPBEFORE_START,1516296369573,177
26,PLAYER_SLEEPBEFORE_END,1516296372091,177
26,WS_SEND_START,1516296372091,177
26,WS_SEND_END,1516296372091,177
26,WS_RECV_START,1516296372091,178
26,WS_RECV_END,1516296373912,178
26,PLAYER_SLEEPBEFORE_START,1516296373912,179
26,PLAYER_SLEEPBEFORE_END,1516296396252,179
26,WS_SEND_START,1516296396252,179
26,WS_SEND_END,1516296396252,179
26,WS_RECV_START,1516296396252,180
26,WS_RECV_END,1516296404210,180
26,PLAYER_SLEEPBEFORE_START,1516296404210,181
26,PLAYER_SLEEPBEFORE_END,1516296404654,181
26,WS_SEND_START,1516296404654,181
26,WS_SEND_END,1516296404654,181
26,WS_RECV_START,1516296404654,182
26,WS_RECV_END,1516296407760,182
26,PLAYER_SLEEPBEFORE_START,1516296407760,183
26,PLAYER_SLEEPBEFORE_END,1516296408283,183
26,WS_SEND_START,1516296408283,183
26,WS_SEND_END,1516296408283,183
26,WS_RECV_START,1516296408283,184
26,WS_RECV_END,1516296414014,184
26,PLAYER_SLEEPBEFORE_START,1516296414014,185
26,PLAYER_SLEEPBEFORE_END,1516296414283,185
26,WS_SEND_START,1516296414283,185
26,WS_SEND_END,1516296414283,185
26,WS_RECV_START,1516296414283,186
26,WS_RECV_END,1516296419601,186
26,PLAYER_SLEEPBEFORE_START,1516296419601,187
26,PLAYER_SLEEPBEFORE_END,1516296442101,187
26,WS_SEND_START,1516296442101,187
26,WS_SEND_END,1516296442101,187
26,WS_RECV_START,1516296442101,188
26,WS_RECV_END,1516296448630,188
26,PLAYER_SLEEPBEFORE_START,1516296448630,189
26,PLAYER_SLEEPBEFORE_END,1516296454869,189
26,WS_SEND_START,1516296454869,189
26,WS_SEND_END,1516296454869,189
26,WS_RECV_START,1516296454869,190
26,WS_RECV_END,1516296459702,190
26,PLAYER_SLEEPBEFORE_START,1516296459702,191
26,PLAYER_SLEEPBEFORE_END,1516296461618,191
26,WS_SEND_START,1516296461618,191
26,WS_SEND_END,1516296461618,191
26,WS_RECV_START,1516296461618,192
26,WS_RECV_END,1516296467962,192
26,PLAYER_SLEEPBEFORE_START,1516296467962,193
26,PLAYER_SLEEPBEFORE_END,1516296468090,193
26,WS_SEND_START,1516296468090,193
26,WS_SEND_END,1516296468090,193
26,WS_RECV_START,1516296468090,194
26,WS_RECV_END,1516296471701,194
26,PLAYER_SLEEPBEFORE_START,1516296471701,195
26,PLAYER_SLEEPBEFORE_END,1516296473456,195
26,WS_SEND_START,1516296473456,195
26,WS_SEND_END,1516296473456,195
26,WS_RECV_START,1516296473456,196
26,WS_RECV_END,1516296476895,196
26,PLAYER_SLEEPBEFORE_START,1516296476895,197
26,PLAYER_SLEEPBEFORE_END,1516296478700,197
26,WS_SEND_START,1516296478700,197
26,WS_SEND_END,1516296478700,197
26,WS_RECV_START,1516296478700,198
26,WS_RECV_END,1516296481491,198
26,PLAYER_SLEEPBEFORE_START,1516296481491,199
26,PLAYER_SLEEPBEFORE_END,1516296493345,199
26,WS_SEND_START,1516296493345,199
26,WS_SEND_END,1516296493345,199
26,PLAYER_SLEEPBEFORE_START,1516296493345,200
26,PLAYER_SLEEPBEFORE_END,1516296497433,200
26,WS_SEND_START,1516296497433,200
26,WS_SEND_END,1516296497433,200
26,WS_RECV_START,1516296497433,201
26,WS_RECV_END,1516296502371,201
26,PLAYER_SLEEPBEFORE_START,1516296502371,202
26,PLAYER_SLEEPBEFORE_END,1516296502385,202
26,WS_SEND_START,1516296502385,202
26,WS_SEND_END,1516296502385,202
26,WS_RECV_START,1516296502385,203
26,WS_RECV_END,1516296509204,203
26,PLAYER_SLEEPBEFORE_START,1516296509204,204
26,PLAYER_SLEEPBEFORE_END,1516296528853,204
26,WS_SEND_START,1516296528853,204
26,WS_SEND_END,1516296528853,204
26,PLAYER_SLEEPBEFORE_START,1516296528853,205
26,PLAYER_SLEEPBEFORE_END,1516296532752,205
26,WS_SEND_START,1516296532752,205
26,WS_SEND_END,1516296532752,205
26,WS_RECV_START,1516296532752,206
26,WS_RECV_END,1516296537672,206
26,PLAYER_SLEEPBEFORE_START,1516296537672,207
26,PLAYER_SLEEPBEFORE_END,1516296554603,207
26,REQ_START,1516296554603,207
26,REQ_END,1516296554612,207
26,PLAYER_SLEEPBEFORE_START,1516296554612,208
26,PLAYER_SLEEPBEFORE_END,1516296561464,208
26,WS_CLOSE_START,1516296561464,208
26,WS_CLOSE_END,1516296561464,208
26,PLAYER_DONE,1516296561464
