# --sessions 630 --app-url=http://shinyloadtest.rstudioservices.com/cran_explorer --output-dir test630 --overwrite-output --log-level warn --start-interval 800 15min.log
thread_id,event,timestamp,input_line_number,comment
337,PLAYER_SESSION_CREATE,1516295501232
337,PLAYER_START_INTERVAL_START,1516295501232
337,PLAYER_START_INTERVAL_END,1516295770832
337,REQ_HOME_START,1516295770832,2
337,REQ_HOME_END,1516295771070,2
337,REQ_START,1516295771070,3
337,REQ_END,1516295771371,3
337,REQ_START,1516295771371,4
337,REQ_END,1516295771406,4
337,REQ_START,1516295771406,5
337,REQ_END,1516295771473,5
337,REQ_START,1516295771473,6
337,REQ_END,1516295771513,6
337,REQ_START,1516295771513,7
337,REQ_END,1516295771549,7
337,REQ_START,1516295771549,8
337,REQ_END,1516295771586,8
337,REQ_START,1516295771586,9
337,REQ_END,1516295771627,9
337,REQ_START,1516295771627,10
337,REQ_END,1516295771635,10
337,REQ_START,1516295771635,11
337,REQ_END,1516295771790,11
337,REQ_START,1516295771790,12
337,REQ_END,1516295771800,12
337,REQ_START,1516295771800,13
337,REQ_END,1516295771832,13
337,REQ_START,1516295771832,14
337,REQ_END,1516295771849,14
337,REQ_START,1516295771849,15
337,REQ_END,1516295772003,15
337,REQ_TOK_START,1516295772003,16
337,REQ_TOK_END,1516295772037,16
337,REQ_SINF_START,1516295772037,17
337,REQ_SINF_END,1516295772045,17
337,WS_OPEN_START,1516295772045,18
337,WS_OPEN_END,1516295772053,18
337,REQ_START,1516295772053,19
337,REQ_END,1516295772255,19
337,WS_RECV_START,1516295772255,20
337,WS_RECV_END,1516295772255,20
337,PLAYER_SLEEPBEFORE_START,1516295772255,21
337,PLAYER_SLEEPBEFORE_END,1516295772260,21
337,WS_SEND_START,1516295772260,21
337,WS_SEND_END,1516295772260,21
337,PLAYER_SLEEPBEFORE_START,1516295772260,22
337,PLAYER_SLEEPBEFORE_END,1516295772261,22
337,WS_SEND_START,1516295772261,22
337,WS_SEND_END,1516295772261,22
337,WS_RECV_INIT_START,1516295772261,23
337,WS_RECV_INIT_END,1516295772281,23
337,WS_RECV_START,1516295772281,24
337,WS_RECV_END,1516295772353,24
337,PLAYER_SLEEPBEFORE_START,1516295772353,25
337,PLAYER_SLEEPBEFORE_END,1516295772360,25
337,REQ_START,1516295772360,25
337,REQ_END,1516295772520,25
337,PLAYER_SLEEPBEFORE_START,1516295772520,26
337,PLAYER_SLEEPBEFORE_END,1516295772521,26
337,REQ_START,1516295772521,26
337,REQ_END,1516295772555,26
337,PLAYER_SLEEPBEFORE_START,1516295772555,27
337,PLAYER_SLEEPBEFORE_END,1516295772558,27
337,REQ_START,1516295772558,27
337,REQ_END,1516295772590,27
337,PLAYER_SLEEPBEFORE_START,1516295772590,28
337,PLAYER_SLEEPBEFORE_END,1516295772875,28
337,REQ_START,1516295772875,28
337,REQ_END,1516295773088,28
337,PLAYER_SLEEPBEFORE_START,1516295773088,29
337,PLAYER_SLEEPBEFORE_END,1516295773263,29
337,WS_SEND_START,1516295773263,29
337,WS_SEND_END,1516295773263,29
337,WS_RECV_START,1516295773263,30
337,WS_RECV_END,1516295773423,30
337,PLAYER_SLEEPBEFORE_START,1516295773423,31
337,PLAYER_SLEEPBEFORE_END,1516295773434,31
337,REQ_START,1516295773434,31
337,REQ_END,1516295773883,31
337,PLAYER_SLEEPBEFORE_START,1516295773883,32
337,PLAYER_SLEEPBEFORE_END,1516295802028,32
337,WS_SEND_START,1516295802028,32
337,WS_SEND_END,1516295802028,32
337,WS_RECV_START,1516295802028,33
337,WS_RECV_END,1516295802210,33
337,PLAYER_SLEEPBEFORE_START,1516295802210,34
337,PLAYER_SLEEPBEFORE_END,1516295828121,34
337,WS_SEND_START,1516295828121,34
337,WS_SEND_END,1516295828121,34
337,WS_RECV_START,1516295828121,35
337,WS_RECV_END,1516295828155,35
337,PLAYER_SLEEPBEFORE_START,1516295828155,36
337,PLAYER_SLEEPBEFORE_END,1516295828164,36
337,WS_SEND_START,1516295828164,36
337,WS_SEND_END,1516295828164,36
337,WS_RECV_START,1516295828164,37
337,WS_RECV_END,1516295828206,37
337,PLAYER_SLEEPBEFORE_START,1516295828206,38
337,PLAYER_SLEEPBEFORE_END,1516295831401,38
337,WS_SEND_START,1516295831401,38
337,WS_SEND_END,1516295831401,38
337,WS_RECV_START,1516295831401,39
337,WS_RECV_END,1516295831559,39
337,PLAYER_SLEEPBEFORE_START,1516295831559,40
337,PLAYER_SLEEPBEFORE_END,1516295831605,40
337,WS_SEND_START,1516295831605,40
337,WS_SEND_END,1516295831605,40
337,WS_RECV_START,1516295831605,41
337,WS_RECV_END,1516295831818,41
337,PLAYER_SLEEPBEFORE_START,1516295831818,42
337,PLAYER_SLEEPBEFORE_END,1516295849953,42
337,WS_SEND_START,1516295849953,42
337,WS_SEND_END,1516295849953,42
337,WS_RECV_START,1516295849953,43
337,WS_RECV_END,1516295850017,43
337,PLAYER_SLEEPBEFORE_START,1516295850017,44
337,PLAYER_SLEEPBEFORE_END,1516295850029,44
337,WS_SEND_START,1516295850029,44
337,WS_SEND_END,1516295850029,44
337,WS_RECV_START,1516295850029,45
337,WS_RECV_END,1516295850078,45
337,PLAYER_SLEEPBEFORE_START,1516295850078,46
337,PLAYER_SLEEPBEFORE_END,1516295851338,46
337,WS_SEND_START,1516295851338,46
337,WS_SEND_END,1516295851338,46
337,WS_RECV_START,1516295851338,47
337,WS_RECV_END,1516295851510,47
337,PLAYER_SLEEPBEFORE_START,1516295851510,48
337,PLAYER_SLEEPBEFORE_END,1516295852830,48
337,WS_SEND_START,1516295852830,48
337,WS_SEND_END,1516295852830,48
337,WS_RECV_START,1516295852830,49
337,WS_RECV_END,1516295853122,49
337,PLAYER_SLEEPBEFORE_START,1516295853122,50
337,PLAYER_SLEEPBEFORE_END,1516295853146,50
337,WS_SEND_START,1516295853146,50
337,WS_SEND_END,1516295853146,50
337,WS_RECV_START,1516295853146,51
337,WS_RECV_END,1516295853478,51
337,PLAYER_SLEEPBEFORE_START,1516295853478,52
337,PLAYER_SLEEPBEFORE_END,1516295876042,52
337,WS_SEND_START,1516295876042,52
337,WS_SEND_END,1516295876042,52
337,WS_RECV_START,1516295876042,53
337,WS_RECV_END,1516295876274,53
337,PLAYER_SLEEPBEFORE_START,1516295876274,54
337,PLAYER_SLEEPBEFORE_END,1516295897578,54
337,WS_SEND_START,1516295897578,54
337,WS_SEND_END,1516295897578,54
337,PLAYER_SLEEPBEFORE_START,1516295897578,55
337,PLAYER_SLEEPBEFORE_END,1516295899519,55
337,WS_SEND_START,1516295899519,55
337,WS_SEND_END,1516295899519,55
337,WS_RECV_START,1516295899519,56
337,WS_RECV_END,1516295899771,56
337,PLAYER_SLEEPBEFORE_START,1516295899771,57
337,PLAYER_SLEEPBEFORE_END,1516295922643,57
337,WS_SEND_START,1516295922643,57
337,WS_SEND_END,1516295922643,57
337,WS_RECV_START,1516295922643,58
337,WS_RECV_END,1516295922725,58
337,PLAYER_SLEEPBEFORE_START,1516295922725,59
337,PLAYER_SLEEPBEFORE_END,1516295925052,59
337,WS_SEND_START,1516295925052,59
337,WS_SEND_END,1516295925052,59
337,WS_RECV_START,1516295925052,60
337,WS_RECV_END,1516295925301,60
337,PLAYER_SLEEPBEFORE_START,1516295925301,61
337,PLAYER_SLEEPBEFORE_END,1516295928892,61
337,WS_SEND_START,1516295928892,61
337,WS_SEND_END,1516295928892,61
337,WS_RECV_START,1516295928892,62
337,WS_RECV_END,1516295929364,62
337,PLAYER_SLEEPBEFORE_START,1516295929364,63
337,PLAYER_SLEEPBEFORE_END,1516295948626,63
337,WS_SEND_START,1516295948627,63
337,WS_SEND_END,1516295948627,63
337,WS_RECV_START,1516295948627,64
337,WS_RECV_END,1516295949452,64
337,PLAYER_SLEEPBEFORE_START,1516295949452,65
337,PLAYER_SLEEPBEFORE_END,1516295976269,65
337,WS_SEND_START,1516295976269,65
337,WS_SEND_END,1516295976269,65
337,WS_RECV_START,1516295976269,66
337,WS_RECV_END,1516295977704,66
337,PLAYER_SLEEPBEFORE_START,1516295977704,67
337,PLAYER_SLEEPBEFORE_END,1516295979211,67
337,WS_SEND_START,1516295979211,67
337,WS_SEND_END,1516295979211,67
337,WS_RECV_START,1516295979211,68
337,WS_RECV_END,1516295980322,68
337,PLAYER_SLEEPBEFORE_START,1516295980322,69
337,PLAYER_SLEEPBEFORE_END,1516296002320,69
337,WS_SEND_START,1516296002320,69
337,WS_SEND_END,1516296002320,69
337,WS_RECV_START,1516296002320,70
337,WS_RECV_END,1516296006211,70
337,PLAYER_SLEEPBEFORE_START,1516296006211,71
337,PLAYER_SLEEPBEFORE_END,1516296030986,71
337,WS_SEND_START,1516296030986,71
337,WS_SEND_END,1516296030986,71
337,PLAYER_SLEEPBEFORE_START,1516296030986,72
337,PLAYER_SLEEPBEFORE_END,1516296033593,72
337,WS_SEND_START,1516296033593,72
337,WS_SEND_END,1516296033593,72
337,WS_RECV_START,1516296033593,73
337,WS_RECV_END,1516296034639,73
337,PLAYER_SLEEPBEFORE_START,1516296034639,74
337,PLAYER_SLEEPBEFORE_END,1516296034648,74
337,WS_SEND_START,1516296034648,74
337,WS_SEND_END,1516296034648,74
337,WS_RECV_START,1516296034648,75
337,WS_RECV_END,1516296036594,75
337,PLAYER_SLEEPBEFORE_START,1516296036594,76
337,PLAYER_SLEEPBEFORE_END,1516296038100,76
337,WS_SEND_START,1516296038100,76
337,WS_SEND_END,1516296038100,76
337,WS_RECV_START,1516296038100,77
337,WS_RECV_END,1516296038450,77
337,PLAYER_SLEEPBEFORE_START,1516296038450,78
337,PLAYER_SLEEPBEFORE_END,1516296039318,78
337,WS_SEND_START,1516296039318,78
337,WS_SEND_END,1516296039318,78
337,WS_RECV_START,1516296039318,79
337,WS_RECV_END,1516296040803,79
337,PLAYER_SLEEPBEFORE_START,1516296040803,80
337,PLAYER_SLEEPBEFORE_END,1516296048469,80
337,WS_SEND_START,1516296048469,80
337,WS_SEND_END,1516296048469,80
337,WS_RECV_START,1516296048469,81
337,WS_RECV_END,1516296052250,81
337,PLAYER_SLEEPBEFORE_START,1516296052250,82
337,PLAYER_SLEEPBEFORE_END,1516296053352,82
337,WS_SEND_START,1516296053352,82
337,WS_SEND_END,1516296053352,82
337,WS_RECV_START,1516296053352,83
337,WS_RECV_END,1516296057601,83
337,PLAYER_SLEEPBEFORE_START,1516296057601,84
337,PLAYER_SLEEPBEFORE_END,1516296058548,84
337,WS_SEND_START,1516296058548,84
337,WS_SEND_END,1516296058548,84
337,WS_RECV_START,1516296058548,85
337,WS_RECV_END,1516296059929,85
337,PLAYER_SLEEPBEFORE_START,1516296059929,86
337,PLAYER_SLEEPBEFORE_END,1516296064101,86
337,WS_SEND_START,1516296064101,86
337,WS_SEND_END,1516296064101,86
337,WS_RECV_START,1516296064101,87
337,WS_RECV_END,1516296066506,87
337,PLAYER_SLEEPBEFORE_START,1516296066506,88
337,PLAYER_SLEEPBEFORE_END,1516296066514,88
337,WS_SEND_START,1516296066514,88
337,WS_SEND_END,1516296066514,88
337,WS_RECV_START,1516296066514,89
337,WS_RECV_END,1516296067158,89
337,PLAYER_SLEEPBEFORE_START,1516296067158,90
337,PLAYER_SLEEPBEFORE_END,1516296094355,90
337,REQ_START,1516296094355,90
337,REQ_END,1516296094363,90
337,PLAYER_SLEEPBEFORE_START,1516296094363,91
337,PLAYER_SLEEPBEFORE_END,1516296102252,91
337,WS_SEND_START,1516296102252,91
337,WS_SEND_END,1516296102252,91
337,WS_RECV_START,1516296102252,92
337,WS_RECV_END,1516296106297,92
337,PLAYER_SLEEPBEFORE_START,1516296106297,93
337,PLAYER_SLEEPBEFORE_END,1516296106312,93
337,WS_SEND_START,1516296106312,93
337,WS_SEND_END,1516296106312,93
337,WS_RECV_START,1516296106312,94
337,WS_RECV_END,1516296108192,94
337,PLAYER_SLEEPBEFORE_START,1516296108192,95
337,PLAYER_SLEEPBEFORE_END,1516296131747,95
337,WS_SEND_START,1516296131747,95
337,WS_SEND_END,1516296131747,95
337,WS_RECV_START,1516296131747,96
337,WS_RECV_END,1516296136165,96
337,PLAYER_SLEEPBEFORE_START,1516296136165,97
337,PLAYER_SLEEPBEFORE_END,1516296158605,97
337,WS_SEND_START,1516296158605,97
337,WS_SEND_END,1516296158605,97
337,WS_RECV_START,1516296158605,98
337,WS_RECV_END,1516296162623,98
337,PLAYER_SLEEPBEFORE_START,1516296162623,99
337,PLAYER_SLEEPBEFORE_END,1516296162644,99
337,WS_SEND_START,1516296162644,99
337,WS_SEND_END,1516296162644,99
337,WS_RECV_START,1516296162644,100
337,WS_RECV_END,1516296163948,100
337,PLAYER_SLEEPBEFORE_START,1516296163948,101
337,PLAYER_SLEEPBEFORE_END,1516296187507,101
337,WS_SEND_START,1516296187507,101
337,WS_SEND_END,1516296187507,101
337,WS_RECV_START,1516296187507,102
337,WS_RECV_END,1516296193664,102
337,PLAYER_SLEEPBEFORE_START,1516296193664,103
337,PLAYER_SLEEPBEFORE_END,1516296217289,103
337,WS_SEND_START,1516296217289,103
337,WS_SEND_END,1516296217289,103
337,WS_RECV_START,1516296217289,104
337,WS_RECV_END,1516296221872,104
337,PLAYER_SLEEPBEFORE_START,1516296221872,105
337,PLAYER_SLEEPBEFORE_END,1516296247249,105
337,WS_SEND_START,1516296247249,105
337,WS_SEND_END,1516296247249,105
337,WS_RECV_START,1516296247249,106
337,WS_RECV_END,1516296254563,106
337,PLAYER_SLEEPBEFORE_START,1516296254563,107
337,PLAYER_SLEEPBEFORE_END,1516296277986,107
337,WS_SEND_START,1516296277986,107
337,WS_SEND_END,1516296277986,107
337,WS_RECV_START,1516296277986,108
337,WS_RECV_END,1516296283418,108
337,PLAYER_SLEEPBEFORE_START,1516296283418,109
337,PLAYER_SLEEPBEFORE_END,1516296283427,109
337,WS_SEND_START,1516296283427,109
337,WS_SEND_END,1516296283427,109
337,WS_RECV_START,1516296283427,110
337,WS_RECV_END,1516296285770,110
337,PLAYER_SLEEPBEFORE_START,1516296285770,111
337,PLAYER_SLEEPBEFORE_END,1516296286729,111
337,WS_SEND_START,1516296286729,111
337,WS_SEND_END,1516296286729,111
337,WS_RECV_START,1516296286729,112
337,WS_RECV_END,1516296290038,112
337,PLAYER_SLEEPBEFORE_START,1516296290038,113
337,PLAYER_SLEEPBEFORE_END,1516296290600,113
337,WS_SEND_START,1516296290600,113
337,WS_SEND_END,1516296290600,113
337,WS_RECV_START,1516296290600,114
337,WS_RECV_END,1516296295190,114
337,PLAYER_SLEEPBEFORE_START,1516296295190,115
337,PLAYER_SLEEPBEFORE_END,1516296295200,115
337,WS_SEND_START,1516296295200,115
337,WS_SEND_END,1516296295200,115
337,WS_RECV_START,1516296295200,116
337,WS_RECV_END,1516296299853,116
337,PLAYER_SLEEPBEFORE_START,1516296299853,117
337,PLAYER_SLEEPBEFORE_END,1516296320213,117
337,WS_SEND_START,1516296320213,117
337,WS_SEND_END,1516296320213,117
337,PLAYER_SLEEPBEFORE_START,1516296320213,118
337,PLAYER_SLEEPBEFORE_END,1516296323965,118
337,WS_SEND_START,1516296323965,118
337,WS_SEND_END,1516296323965,118
337,WS_RECV_START,1516296323965,119
337,WS_RECV_END,1516296325749,119
337,PLAYER_SLEEPBEFORE_START,1516296325749,120
337,PLAYER_SLEEPBEFORE_END,1516296326737,120
337,WS_SEND_START,1516296326738,120
337,WS_SEND_END,1516296326738,120
337,WS_RECV_START,1516296326738,121
337,WS_RECV_END,1516296328659,121
337,PLAYER_SLEEPBEFORE_START,1516296328659,122
337,PLAYER_SLEEPBEFORE_END,1516296329844,122
337,WS_SEND_START,1516296329844,122
337,WS_SEND_END,1516296329844,122
337,WS_RECV_START,1516296329844,123
337,WS_RECV_END,1516296332738,123
337,PLAYER_SLEEPBEFORE_START,1516296332738,124
337,PLAYER_SLEEPBEFORE_END,1516296357143,124
337,WS_SEND_START,1516296357143,124
337,WS_SEND_END,1516296357143,124
337,WS_RECV_START,1516296357143,125
337,WS_RECV_END,1516296362066,125
337,PLAYER_SLEEPBEFORE_START,1516296362066,126
337,PLAYER_SLEEPBEFORE_END,1516296382578,126
337,WS_SEND_START,1516296382578,126
337,WS_SEND_END,1516296382578,126
337,PLAYER_SLEEPBEFORE_START,1516296382578,127
337,PLAYER_SLEEPBEFORE_END,1516296385632,127
337,WS_SEND_START,1516296385632,127
337,WS_SEND_END,1516296385632,127
337,WS_RECV_START,1516296385632,128
337,WS_RECV_END,1516296390108,128
337,PLAYER_SLEEPBEFORE_START,1516296390108,129
337,PLAYER_SLEEPBEFORE_END,1516296390128,129
337,WS_SEND_START,1516296390128,129
337,WS_SEND_END,1516296390128,129
337,WS_RECV_START,1516296390128,130
337,WS_RECV_END,1516296394497,130
337,PLAYER_SLEEPBEFORE_START,1516296394497,131
337,PLAYER_SLEEPBEFORE_END,1516296416121,131
337,WS_SEND_START,1516296416121,131
337,WS_SEND_END,1516296416121,131
337,PLAYER_SLEEPBEFORE_START,1516296416121,132
337,PLAYER_SLEEPBEFORE_END,1516296419201,132
337,WS_SEND_START,1516296419201,132
337,WS_SEND_END,1516296419201,132
337,WS_RECV_START,1516296419201,133
337,WS_RECV_END,1516296420289,133
337,PLAYER_SLEEPBEFORE_START,1516296420289,134
337,PLAYER_SLEEPBEFORE_END,1516296441506,134
337,WS_SEND_START,1516296441506,134
337,WS_SEND_END,1516296441506,134
337,PLAYER_SLEEPBEFORE_START,1516296441506,135
337,PLAYER_SLEEPBEFORE_END,1516296444696,135
337,WS_SEND_START,1516296444696,135
337,WS_SEND_END,1516296444696,135
337,WS_RECV_START,1516296444696,136
337,WS_RECV_END,1516296448093,136
337,PLAYER_SLEEPBEFORE_START,1516296448093,137
337,PLAYER_SLEEPBEFORE_END,1516296448101,137
337,WS_SEND_START,1516296448101,137
337,WS_SEND_END,1516296448101,137
337,WS_RECV_START,1516296448101,138
337,WS_RECV_END,1516296451182,138
337,PLAYER_SLEEPBEFORE_START,1516296451182,139
337,PLAYER_SLEEPBEFORE_END,1516296451872,139
337,WS_SEND_START,1516296451872,139
337,WS_SEND_END,1516296451872,139
337,WS_RECV_START,1516296451872,140
337,WS_RECV_END,1516296455758,140
337,PLAYER_SLEEPBEFORE_START,1516296455758,141
337,PLAYER_SLEEPBEFORE_END,1516296456413,141
337,WS_SEND_START,1516296456413,141
337,WS_SEND_END,1516296456413,141
337,WS_RECV_START,1516296456413,142
337,WS_RECV_END,1516296461605,142
337,PLAYER_SLEEPBEFORE_START,1516296461605,143
337,PLAYER_SLEEPBEFORE_END,1516296461662,143
337,WS_SEND_START,1516296461662,143
337,WS_SEND_END,1516296461662,143
337,WS_RECV_START,1516296461662,144
337,WS_RECV_END,1516296466487,144
337,PLAYER_SLEEPBEFORE_START,1516296466487,145
337,PLAYER_SLEEPBEFORE_END,1516296482549,145
337,REQ_START,1516296482549,145
337,REQ_END,1516296482557,145
337,PLAYER_SLEEPBEFORE_START,1516296482557,146
337,PLAYER_SLEEPBEFORE_END,1516296491434,146
337,WS_SEND_START,1516296491434,146
337,WS_SEND_END,1516296491434,146
337,WS_RECV_START,1516296491434,147
337,WS_RECV_END,1516296499339,147
337,PLAYER_SLEEPBEFORE_START,1516296499339,148
337,PLAYER_SLEEPBEFORE_END,1516296521261,148
337,WS_SEND_START,1516296521261,148
337,WS_SEND_END,1516296521261,148
337,PLAYER_SLEEPBEFORE_START,1516296521261,149
337,PLAYER_SLEEPBEFORE_END,1516296523689,149
337,WS_SEND_START,1516296523689,149
337,WS_SEND_END,1516296523689,149
337,WS_RECV_START,1516296523689,150
337,WS_RECV_END,1516296531882,150
337,PLAYER_SLEEPBEFORE_START,1516296531882,151
337,PLAYER_SLEEPBEFORE_END,1516296532092,151
337,WS_SEND_START,1516296532092,151
337,WS_SEND_END,1516296532092,151
337,WS_RECV_START,1516296532092,152
337,WS_RECV_END,1516296538267,152
337,PLAYER_SLEEPBEFORE_START,1516296538267,153
337,PLAYER_SLEEPBEFORE_END,1516296562194,153
337,WS_SEND_START,1516296562194,153
337,WS_SEND_END,1516296562194,153
337,WS_RECV_START,1516296562194,154
337,WS_RECV_END,1516296570659,154
337,PLAYER_SLEEPBEFORE_START,1516296570659,155
337,PLAYER_SLEEPBEFORE_END,1516296593217,155
337,WS_SEND_START,1516296593217,155
337,WS_SEND_END,1516296593217,155
337,PLAYER_SLEEPBEFORE_START,1516296593217,156
337,PLAYER_SLEEPBEFORE_END,1516296596491,156
337,WS_SEND_START,1516296596491,156
337,WS_SEND_END,1516296596491,156
337,WS_RECV_START,1516296596491,157
337,WS_RECV_END,1516296603343,157
337,PLAYER_SLEEPBEFORE_START,1516296603343,158
337,PLAYER_SLEEPBEFORE_END,1516296603353,158
337,WS_SEND_START,1516296603353,158
337,WS_SEND_END,1516296603353,158
337,WS_RECV_START,1516296603353,159
337,WS_RECV_END,1516296607704,159
337,PLAYER_SLEEPBEFORE_START,1516296607704,160
337,PLAYER_SLEEPBEFORE_END,1516296607879,160
337,WS_SEND_START,1516296607879,160
337,WS_SEND_END,1516296607879,160
337,WS_RECV_START,1516296607879,161
337,WS_RECV_END,1516296614317,161
337,PLAYER_SLEEPBEFORE_START,1516296614317,162
337,PLAYER_SLEEPBEFORE_END,1516296614342,162
337,WS_SEND_START,1516296614342,162
337,WS_SEND_END,1516296614342,162
337,WS_RECV_START,1516296614342,163
337,WS_RECV_END,1516296620165,163
337,PLAYER_SLEEPBEFORE_START,1516296620165,164
337,PLAYER_SLEEPBEFORE_END,1516296640977,164
337,WS_SEND_START,1516296640977,164
337,WS_SEND_END,1516296640977,164
337,WS_RECV_START,1516296640977,165
337,WS_RECV_END,1516296645728,165
337,PLAYER_SLEEPBEFORE_START,1516296645728,166
337,PLAYER_SLEEPBEFORE_END,1516296668183,166
337,WS_SEND_START,1516296668183,166
337,WS_SEND_END,1516296668183,166
337,WS_RECV_START,1516296668183,167
337,WS_RECV_END,1516296672997,167
337,PLAYER_SLEEPBEFORE_START,1516296672997,168
337,PLAYER_SLEEPBEFORE_END,1516296700354,168
337,WS_SEND_START,1516296700354,168
337,WS_SEND_END,1516296700354,168
337,WS_RECV_START,1516296700354,169
337,WS_RECV_END,1516296701810,169
337,PLAYER_SLEEPBEFORE_START,1516296701810,170
337,PLAYER_SLEEPBEFORE_END,1516296701820,170
337,WS_SEND_START,1516296701820,170
337,WS_SEND_END,1516296701820,170
337,WS_RECV_START,1516296701820,171
337,WS_RECV_END,1516296702565,171
337,PLAYER_SLEEPBEFORE_START,1516296702565,172
337,PLAYER_SLEEPBEFORE_END,1516296702935,172
337,WS_SEND_START,1516296702935,172
337,WS_SEND_END,1516296702935,172
337,WS_RECV_START,1516296702935,173
337,WS_RECV_END,1516296703241,173
337,PLAYER_SLEEPBEFORE_START,1516296703241,174
337,PLAYER_SLEEPBEFORE_END,1516296703282,174
337,WS_SEND_START,1516296703282,174
337,WS_SEND_END,1516296703282,174
337,WS_RECV_START,1516296703282,175
337,WS_RECV_END,1516296705078,175
337,PLAYER_SLEEPBEFORE_START,1516296705078,176
337,PLAYER_SLEEPBEFORE_END,1516296726839,176
337,WS_SEND_START,1516296726839,176
337,WS_SEND_END,1516296726839,176
337,PLAYER_SLEEPBEFORE_START,1516296726839,177
337,PLAYER_SLEEPBEFORE_END,1516296729358,177
337,WS_SEND_START,1516296729358,177
337,WS_SEND_END,1516296729358,177
337,WS_RECV_START,1516296729358,178
337,WS_RECV_END,1516296732525,178
337,PLAYER_SLEEPBEFORE_START,1516296732525,179
337,PLAYER_SLEEPBEFORE_END,1516296754865,179
337,WS_SEND_START,1516296754865,179
337,WS_SEND_END,1516296754865,179
337,WS_RECV_START,1516296754865,180
337,WS_RECV_END,1516296756164,180
337,PLAYER_SLEEPBEFORE_START,1516296756164,181
337,PLAYER_SLEEPBEFORE_END,1516296756609,181
337,WS_SEND_START,1516296756609,181
337,WS_SEND_END,1516296756609,181
337,WS_RECV_START,1516296756609,182
337,WS_RECV_END,1516296756920,182
337,PLAYER_SLEEPBEFORE_START,1516296756920,183
337,PLAYER_SLEEPBEFORE_END,1516296757443,183
337,WS_SEND_START,1516296757443,183
337,WS_SEND_END,1516296757443,183
337,WS_RECV_START,1516296757443,184
337,WS_RECV_END,1516296757651,184
337,PLAYER_SLEEPBEFORE_START,1516296757651,185
337,PLAYER_SLEEPBEFORE_END,1516296757919,185
337,WS_SEND_START,1516296757919,185
337,WS_SEND_END,1516296757919,185
337,WS_RECV_START,1516296757919,186
337,WS_RECV_END,1516296758109,186
337,PLAYER_SLEEPBEFORE_START,1516296758109,187
337,PLAYER_SLEEPBEFORE_END,1516296780609,187
337,WS_SEND_START,1516296780609,187
337,WS_SEND_END,1516296780609,187
337,WS_RECV_START,1516296780609,188
337,WS_RECV_END,1516296780828,188
337,PLAYER_SLEEPBEFORE_START,1516296780828,189
337,PLAYER_SLEEPBEFORE_END,1516296787067,189
337,WS_SEND_START,1516296787067,189
337,WS_SEND_END,1516296787067,189
337,WS_RECV_START,1516296787067,190
337,WS_RECV_END,1516296787275,190
337,PLAYER_SLEEPBEFORE_START,1516296787275,191
337,PLAYER_SLEEPBEFORE_END,1516296789190,191
337,WS_SEND_START,1516296789190,191
337,WS_SEND_END,1516296789190,191
337,WS_RECV_START,1516296789190,192
337,WS_RECV_END,1516296789712,192
337,PLAYER_SLEEPBEFORE_START,1516296789712,193
337,PLAYER_SLEEPBEFORE_END,1516296789840,193
337,WS_SEND_START,1516296789840,193
337,WS_SEND_END,1516296789840,193
337,WS_RECV_START,1516296789840,194
337,WS_RECV_END,1516296790048,194
337,PLAYER_SLEEPBEFORE_START,1516296790048,195
337,PLAYER_SLEEPBEFORE_END,1516296791803,195
337,WS_SEND_START,1516296791803,195
337,WS_SEND_END,1516296791803,195
337,WS_RECV_START,1516296791803,196
337,WS_RECV_END,1516296793310,196
337,PLAYER_SLEEPBEFORE_START,1516296793310,197
337,PLAYER_SLEEPBEFORE_END,1516296795114,197
337,WS_SEND_START,1516296795114,197
337,WS_SEND_END,1516296795115,197
337,WS_RECV_START,1516296795115,198
337,WS_RECV_END,1516296795896,198
337,PLAYER_SLEEPBEFORE_START,1516296795896,199
337,PLAYER_SLEEPBEFORE_END,1516296807750,199
337,WS_SEND_START,1516296807750,199
337,WS_SEND_END,1516296807750,199
337,PLAYER_SLEEPBEFORE_START,1516296807750,200
337,PLAYER_SLEEPBEFORE_END,1516296811838,200
337,WS_SEND_START,1516296811838,200
337,WS_SEND_END,1516296811838,200
337,WS_RECV_START,1516296811838,201
337,WS_RECV_END,1516296812018,201
337,PLAYER_SLEEPBEFORE_START,1516296812018,202
337,PLAYER_SLEEPBEFORE_END,1516296812032,202
337,WS_SEND_START,1516296812033,202
337,WS_SEND_END,1516296812033,202
337,WS_RECV_START,1516296812033,203
337,WS_RECV_END,1516296812684,203
337,PLAYER_SLEEPBEFORE_START,1516296812684,204
337,PLAYER_SLEEPBEFORE_END,1516296832333,204
337,WS_SEND_START,1516296832333,204
337,WS_SEND_END,1516296832333,204
337,PLAYER_SLEEPBEFORE_START,1516296832333,205
337,PLAYER_SLEEPBEFORE_END,1516296836231,205
337,WS_SEND_START,1516296836231,205
337,WS_SEND_END,1516296836231,205
337,WS_RECV_START,1516296836231,206
337,WS_RECV_END,1516296836667,206
337,PLAYER_SLEEPBEFORE_START,1516296836667,207
337,PLAYER_SLEEPBEFORE_END,1516296853599,207
337,REQ_START,1516296853599,207
337,REQ_END,1516296853606,207
337,PLAYER_SLEEPBEFORE_START,1516296853606,208
337,PLAYER_SLEEPBEFORE_END,1516296860458,208
337,WS_CLOSE_START,1516296860458,208
337,WS_CLOSE_END,1516296860458,208
337,PLAYER_DONE,1516296860458
