# --sessions 630 --app-url=http://shinyloadtest.rstudioservices.com/cran_explorer --output-dir test630 --overwrite-output --log-level warn --start-interval 800 15min.log
thread_id,event,timestamp,input_line_number,comment
517,PLAYER_SESSION_CREATE,1516295501287
517,PLAYER_START_INTERVAL_START,1516295501287
517,PLAYER_START_INTERVAL_END,1516295914887
517,REQ_HOME_START,1516295914887,2
517,REQ_HOME_END,1516295915001,2
517,REQ_START,1516295915001,3
517,REQ_END,1516295915049,3
517,REQ_START,1516295915049,4
517,REQ_END,1516295915102,4
517,REQ_START,1516295915102,5
517,REQ_END,1516295915140,5
517,REQ_START,1516295915140,6
517,REQ_END,1516295915178,6
517,REQ_START,1516295915178,7
517,REQ_END,1516295915214,7
517,REQ_START,1516295915214,8
517,REQ_END,1516295915252,8
517,REQ_START,1516295915252,9
517,REQ_END,1516295915292,9
517,REQ_START,1516295915292,10
517,REQ_END,1516295915301,10
517,REQ_START,1516295915301,11
517,REQ_END,1516295915988,11
517,REQ_START,1516295915988,12
517,REQ_END,1516295915999,12
517,REQ_START,1516295915999,13
517,REQ_END,1516295917342,13
517,REQ_START,1516295917342,14
517,REQ_END,1516295917359,14
517,REQ_START,1516295917359,15
517,REQ_END,1516295919025,15
517,REQ_TOK_START,1516295919025,16
517,REQ_TOK_END,1516295919033,16
517,REQ_SINF_START,1516295919033,17
517,REQ_SINF_END,1516295919042,17
517,WS_OPEN_START,1516295919042,18
517,WS_OPEN_END,1516295919056,18
517,REQ_START,1516295919056,19
517,REQ_END,1516295919695,19
517,WS_RECV_START,1516295919695,20
517,WS_RECV_END,1516295919695,20
517,PLAYER_SLEEPBEFORE_START,1516295919695,21
517,PLAYER_SLEEPBEFORE_END,1516295919700,21
517,WS_SEND_START,1516295919700,21
517,WS_SEND_END,1516295919700,21
517,PLAYER_SLEEPBEFORE_START,1516295919700,22
517,PLAYER_SLEEPBEFORE_END,1516295919701,22
517,WS_SEND_START,1516295919701,22
517,WS_SEND_END,1516295919701,22
517,WS_RECV_INIT_START,1516295919701,23
517,WS_RECV_INIT_END,1516295920759,23
517,WS_RECV_START,1516295920759,24
517,WS_RECV_END,1516295920883,24
517,PLAYER_SLEEPBEFORE_START,1516295920883,25
517,PLAYER_SLEEPBEFORE_END,1516295920890,25
517,REQ_START,1516295920890,25
517,REQ_END,1516295921373,25
517,PLAYER_SLEEPBEFORE_START,1516295921373,26
517,PLAYER_SLEEPBEFORE_END,1516295921374,26
517,REQ_START,1516295921374,26
517,REQ_END,1516295921409,26
517,PLAYER_SLEEPBEFORE_START,1516295921409,27
517,PLAYER_SLEEPBEFORE_END,1516295921412,27
517,REQ_START,1516295921412,27
517,REQ_END,1516295921448,27
517,PLAYER_SLEEPBEFORE_START,1516295921448,28
517,PLAYER_SLEEPBEFORE_END,1516295921733,28
517,REQ_START,1516295921733,28
517,REQ_END,1516295923280,28
517,PLAYER_SLEEPBEFORE_START,1516295923280,29
517,PLAYER_SLEEPBEFORE_END,1516295923455,29
517,WS_SEND_START,1516295923455,29
517,WS_SEND_END,1516295923455,29
517,WS_RECV_START,1516295923455,30
517,WS_RECV_END,1516295923817,30
517,PLAYER_SLEEPBEFORE_START,1516295923817,31
517,PLAYER_SLEEPBEFORE_END,1516295923828,31
517,REQ_START,1516295923828,31
517,REQ_END,1516295924042,31
517,PLAYER_SLEEPBEFORE_START,1516295924042,32
517,PLAYER_SLEEPBEFORE_END,1516295952187,32
517,WS_SEND_START,1516295952187,32
517,WS_SEND_END,1516295952187,32
517,WS_RECV_START,1516295952187,33
517,WS_RECV_END,1516295952386,33
517,PLAYER_SLEEPBEFORE_START,1516295952386,34
517,PLAYER_SLEEPBEFORE_END,1516295978297,34
517,WS_SEND_START,1516295978297,34
517,WS_SEND_END,1516295978297,34
517,WS_RECV_START,1516295978297,35
517,WS_RECV_END,1516295979233,35
517,PLAYER_SLEEPBEFORE_START,1516295979233,36
517,PLAYER_SLEEPBEFORE_END,1516295979242,36
517,WS_SEND_START,1516295979242,36
517,WS_SEND_END,1516295979242,36
517,WS_RECV_START,1516295979242,37
517,WS_RECV_END,1516295979978,37
517,PLAYER_SLEEPBEFORE_START,1516295979978,38
517,PLAYER_SLEEPBEFORE_END,1516295983173,38
517,WS_SEND_START,1516295983173,38
517,WS_SEND_END,1516295983173,38
517,WS_RECV_START,1516295983173,39
517,WS_RECV_END,1516295983920,39
517,PLAYER_SLEEPBEFORE_START,1516295983920,40
517,PLAYER_SLEEPBEFORE_END,1516295983966,40
517,WS_SEND_START,1516295983966,40
517,WS_SEND_END,1516295983966,40
517,WS_RECV_START,1516295983966,41
517,WS_RECV_END,1516295984409,41
517,PLAYER_SLEEPBEFORE_START,1516295984409,42
517,PLAYER_SLEEPBEFORE_END,1516296002544,42
517,WS_SEND_START,1516296002544,42
517,WS_SEND_END,1516296002545,42
517,WS_RECV_START,1516296002545,43
517,WS_RECV_END,1516296005366,43
517,PLAYER_SLEEPBEFORE_START,1516296005366,44
517,PLAYER_SLEEPBEFORE_END,1516296005379,44
517,WS_SEND_START,1516296005379,44
517,WS_SEND_END,1516296005379,44
517,WS_RECV_START,1516296005379,45
517,WS_RECV_END,1516296006882,45
517,PLAYER_SLEEPBEFORE_START,1516296006882,46
517,PLAYER_SLEEPBEFORE_END,1516296008142,46
517,WS_SEND_START,1516296008142,46
517,WS_SEND_END,1516296008142,46
517,WS_RECV_START,1516296008142,47
517,WS_RECV_END,1516296008631,47
517,PLAYER_SLEEPBEFORE_START,1516296008631,48
517,PLAYER_SLEEPBEFORE_END,1516296009951,48
517,WS_SEND_START,1516296009951,48
517,WS_SEND_END,1516296009951,48
517,WS_RECV_START,1516296009951,49
517,WS_RECV_END,1516296011067,49
517,PLAYER_SLEEPBEFORE_START,1516296011067,50
517,PLAYER_SLEEPBEFORE_END,1516296011091,50
517,WS_SEND_START,1516296011091,50
517,WS_SEND_END,1516296011091,50
517,WS_RECV_START,1516296011091,51
517,WS_RECV_END,1516296012404,51
517,PLAYER_SLEEPBEFORE_START,1516296012404,52
517,PLAYER_SLEEPBEFORE_END,1516296034968,52
517,WS_SEND_START,1516296034968,52
517,WS_SEND_END,1516296034968,52
517,WS_RECV_START,1516296034968,53
517,WS_RECV_END,1516296037713,53
517,PLAYER_SLEEPBEFORE_START,1516296037713,54
517,PLAYER_SLEEPBEFORE_END,1516296059016,54
517,WS_SEND_START,1516296059016,54
517,WS_SEND_END,1516296059016,54
517,PLAYER_SLEEPBEFORE_START,1516296059016,55
517,PLAYER_SLEEPBEFORE_END,1516296060957,55
517,WS_SEND_START,1516296060957,55
517,WS_SEND_END,1516296060957,55
517,WS_RECV_START,1516296060957,56
517,WS_RECV_END,1516296061261,56
517,PLAYER_SLEEPBEFORE_START,1516296061261,57
517,PLAYER_SLEEPBEFORE_END,1516296084133,57
517,WS_SEND_START,1516296084133,57
517,WS_SEND_END,1516296084133,57
517,WS_RECV_START,1516296084133,58
517,WS_RECV_END,1516296086896,58
517,PLAYER_SLEEPBEFORE_START,1516296086896,59
517,PLAYER_SLEEPBEFORE_END,1516296089227,59
517,WS_SEND_START,1516296089227,59
517,WS_SEND_END,1516296089227,59
517,WS_RECV_START,1516296089227,60
517,WS_RECV_END,1516296091875,60
517,PLAYER_SLEEPBEFORE_START,1516296091875,61
517,PLAYER_SLEEPBEFORE_END,1516296095466,61
517,WS_SEND_START,1516296095466,61
517,WS_SEND_END,1516296095466,61
517,WS_RECV_START,1516296095466,62
517,WS_RECV_END,1516296097721,62
517,PLAYER_SLEEPBEFORE_START,1516296097721,63
517,PLAYER_SLEEPBEFORE_END,1516296116983,63
517,WS_SEND_START,1516296116983,63
517,WS_SEND_END,1516296116983,63
517,WS_RECV_START,1516296116983,64
517,WS_RECV_END,1516296120071,64
517,PLAYER_SLEEPBEFORE_START,1516296120071,65
517,PLAYER_SLEEPBEFORE_END,1516296146888,65
517,WS_SEND_START,1516296146888,65
517,WS_SEND_END,1516296146888,65
517,WS_RECV_START,1516296146888,66
517,WS_RECV_END,1516296149245,66
517,PLAYER_SLEEPBEFORE_START,1516296149245,67
517,PLAYER_SLEEPBEFORE_END,1516296150752,67
517,WS_SEND_START,1516296150752,67
517,WS_SEND_END,1516296150752,67
517,WS_RECV_START,1516296150752,68
517,WS_RECV_END,1516296153373,68
517,PLAYER_SLEEPBEFORE_START,1516296153373,69
517,PLAYER_SLEEPBEFORE_END,1516296175371,69
517,WS_SEND_START,1516296175371,69
517,WS_SEND_END,1516296175371,69
517,WS_RECV_START,1516296175371,70
517,WS_RECV_END,1516296180495,70
517,PLAYER_SLEEPBEFORE_START,1516296180495,71
517,PLAYER_SLEEPBEFORE_END,1516296205271,71
517,WS_SEND_START,1516296205271,71
517,WS_SEND_END,1516296205271,71
517,PLAYER_SLEEPBEFORE_START,1516296205271,72
517,PLAYER_SLEEPBEFORE_END,1516296207878,72
517,WS_SEND_START,1516296207878,72
517,WS_SEND_END,1516296207878,72
517,WS_RECV_START,1516296207878,73
517,WS_RECV_END,1516296210075,73
517,PLAYER_SLEEPBEFORE_START,1516296210075,74
517,PLAYER_SLEEPBEFORE_END,1516296210084,74
517,WS_SEND_START,1516296210084,74
517,WS_SEND_END,1516296210084,74
517,WS_RECV_START,1516296210084,75
517,WS_RECV_END,1516296212374,75
517,PLAYER_SLEEPBEFORE_START,1516296212374,76
517,PLAYER_SLEEPBEFORE_END,1516296213880,76
517,WS_SEND_START,1516296213880,76
517,WS_SEND_END,1516296213880,76
517,WS_RECV_START,1516296213880,77
517,WS_RECV_END,1516296216379,77
517,PLAYER_SLEEPBEFORE_START,1516296216379,78
517,PLAYER_SLEEPBEFORE_END,1516296217247,78
517,WS_SEND_START,1516296217247,78
517,WS_SEND_END,1516296217247,78
517,WS_RECV_START,1516296217247,79
517,WS_RECV_END,1516296219508,79
517,PLAYER_SLEEPBEFORE_START,1516296219508,80
517,PLAYER_SLEEPBEFORE_END,1516296227174,80
517,WS_SEND_START,1516296227174,80
517,WS_SEND_END,1516296227174,80
517,WS_RECV_START,1516296227174,81
517,WS_RECV_END,1516296230243,81
517,PLAYER_SLEEPBEFORE_START,1516296230243,82
517,PLAYER_SLEEPBEFORE_END,1516296231345,82
517,WS_SEND_START,1516296231345,82
517,WS_SEND_END,1516296231345,82
517,WS_RECV_START,1516296231345,83
517,WS_RECV_END,1516296235941,83
517,PLAYER_SLEEPBEFORE_START,1516296235941,84
517,PLAYER_SLEEPBEFORE_END,1516296236888,84
517,WS_SEND_START,1516296236888,84
517,WS_SEND_END,1516296236888,84
517,WS_RECV_START,1516296236888,85
517,WS_RECV_END,1516296238367,85
517,PLAYER_SLEEPBEFORE_START,1516296238367,86
517,PLAYER_SLEEPBEFORE_END,1516296242539,86
517,WS_SEND_START,1516296242539,86
517,WS_SEND_END,1516296242539,86
517,WS_RECV_START,1516296242539,87
517,WS_RECV_END,1516296246249,87
517,PLAYER_SLEEPBEFORE_START,1516296246249,88
517,PLAYER_SLEEPBEFORE_END,1516296246257,88
517,WS_SEND_START,1516296246257,88
517,WS_SEND_END,1516296246257,88
517,WS_RECV_START,1516296246257,89
517,WS_RECV_END,1516296247908,89
517,PLAYER_SLEEPBEFORE_START,1516296247908,90
517,PLAYER_SLEEPBEFORE_END,1516296275105,90
517,REQ_START,1516296275105,90
517,REQ_END,1516296275114,90
517,PLAYER_SLEEPBEFORE_START,1516296275114,91
517,PLAYER_SLEEPBEFORE_END,1516296283003,91
517,WS_SEND_START,1516296283003,91
517,WS_SEND_END,1516296283003,91
517,WS_RECV_START,1516296283003,92
517,WS_RECV_END,1516296288732,92
517,PLAYER_SLEEPBEFORE_START,1516296288732,93
517,PLAYER_SLEEPBEFORE_END,1516296288747,93
517,WS_SEND_START,1516296288747,93
517,WS_SEND_END,1516296288747,93
517,WS_RECV_START,1516296288747,94
517,WS_RECV_END,1516296291380,94
517,PLAYER_SLEEPBEFORE_START,1516296291380,95
517,PLAYER_SLEEPBEFORE_END,1516296314935,95
517,WS_SEND_START,1516296314935,95
517,WS_SEND_END,1516296314935,95
517,WS_RECV_START,1516296314935,96
517,WS_RECV_END,1516296320274,96
517,PLAYER_SLEEPBEFORE_START,1516296320274,97
517,PLAYER_SLEEPBEFORE_END,1516296342714,97
517,WS_SEND_START,1516296342714,97
517,WS_SEND_END,1516296342714,97
517,WS_RECV_START,1516296342714,98
517,WS_RECV_END,1516296348927,98
517,PLAYER_SLEEPBEFORE_START,1516296348927,99
517,PLAYER_SLEEPBEFORE_END,1516296348948,99
517,WS_SEND_START,1516296348948,99
517,WS_SEND_END,1516296348948,99
517,WS_RECV_START,1516296348948,100
517,WS_RECV_END,1516296351995,100
517,PLAYER_SLEEPBEFORE_START,1516296351995,101
517,PLAYER_SLEEPBEFORE_END,1516296375554,101
517,WS_SEND_START,1516296375554,101
517,WS_SEND_END,1516296375554,101
517,WS_RECV_START,1516296375554,102
517,WS_RECV_END,1516296379786,102
517,PLAYER_SLEEPBEFORE_START,1516296379786,103
517,PLAYER_SLEEPBEFORE_END,1516296403411,103
517,WS_SEND_START,1516296403411,103
517,WS_SEND_END,1516296403411,103
517,WS_RECV_START,1516296403411,104
517,WS_RECV_END,1516296409611,104
517,PLAYER_SLEEPBEFORE_START,1516296409611,105
517,PLAYER_SLEEPBEFORE_END,1516296434988,105
517,WS_SEND_START,1516296434988,105
517,WS_SEND_END,1516296434988,105
517,WS_RECV_START,1516296434988,106
517,WS_RECV_END,1516296440357,106
517,PLAYER_SLEEPBEFORE_START,1516296440357,107
517,PLAYER_SLEEPBEFORE_END,1516296463781,107
517,WS_SEND_START,1516296463781,107
517,WS_SEND_END,1516296463781,107
517,WS_RECV_START,1516296463781,108
517,WS_RECV_END,1516296473195,108
517,PLAYER_SLEEPBEFORE_START,1516296473195,109
517,PLAYER_SLEEPBEFORE_END,1516296473205,109
517,WS_SEND_START,1516296473205,109
517,WS_SEND_END,1516296473205,109
517,WS_RECV_START,1516296473205,110
517,WS_RECV_END,1516296478898,110
517,PLAYER_SLEEPBEFORE_START,1516296478898,111
517,PLAYER_SLEEPBEFORE_END,1516296479858,111
517,WS_SEND_START,1516296479858,111
517,WS_SEND_END,1516296479858,111
517,WS_RECV_START,1516296479858,112
517,WS_RECV_END,1516296483739,112
517,PLAYER_SLEEPBEFORE_START,1516296483739,113
517,PLAYER_SLEEPBEFORE_END,1516296484301,113
517,WS_SEND_START,1516296484301,113
517,WS_SEND_END,1516296484301,113
517,WS_RECV_START,1516296484301,114
517,WS_RECV_END,1516296489689,114
517,PLAYER_SLEEPBEFORE_START,1516296489689,115
517,PLAYER_SLEEPBEFORE_END,1516296489699,115
517,WS_SEND_START,1516296489699,115
517,WS_SEND_END,1516296489699,115
517,WS_RECV_START,1516296489699,116
517,WS_RECV_END,1516296495517,116
517,PLAYER_SLEEPBEFORE_START,1516296495517,117
517,PLAYER_SLEEPBEFORE_END,1516296515877,117
517,WS_SEND_START,1516296515877,117
517,WS_SEND_END,1516296515877,117
517,PLAYER_SLEEPBEFORE_START,1516296515877,118
517,PLAYER_SLEEPBEFORE_END,1516296519629,118
517,WS_SEND_START,1516296519629,118
517,WS_SEND_END,1516296519629,118
517,WS_RECV_START,1516296519629,119
517,WS_RECV_END,1516296525599,119
517,PLAYER_SLEEPBEFORE_START,1516296525599,120
517,PLAYER_SLEEPBEFORE_END,1516296526587,120
517,WS_SEND_START,1516296526587,120
517,WS_SEND_END,1516296526587,120
517,WS_RECV_START,1516296526587,121
517,WS_RECV_END,1516296529895,121
517,PLAYER_SLEEPBEFORE_START,1516296529895,122
517,PLAYER_SLEEPBEFORE_END,1516296531080,122
517,WS_SEND_START,1516296531080,122
517,WS_SEND_END,1516296531080,122
517,WS_RECV_START,1516296531080,123
517,WS_RECV_END,1516296534563,123
517,PLAYER_SLEEPBEFORE_START,1516296534563,124
517,PLAYER_SLEEPBEFORE_END,1516296558969,124
517,WS_SEND_START,1516296558969,124
517,WS_SEND_END,1516296558969,124
517,WS_RECV_START,1516296558969,125
517,WS_RECV_END,1516296567407,125
517,PLAYER_SLEEPBEFORE_START,1516296567407,126
517,PLAYER_SLEEPBEFORE_END,1516296587919,126
517,WS_SEND_START,1516296587920,126
517,WS_SEND_END,1516296587920,126
517,PLAYER_SLEEPBEFORE_START,1516296587920,127
517,PLAYER_SLEEPBEFORE_END,1516296590974,127
517,WS_SEND_START,1516296590974,127
517,WS_SEND_END,1516296590974,127
517,WS_RECV_START,1516296590974,128
517,WS_RECV_END,1516296591719,128
517,PLAYER_SLEEPBEFORE_START,1516296591719,129
517,PLAYER_SLEEPBEFORE_END,1516296591739,129
517,WS_SEND_START,1516296591739,129
517,WS_SEND_END,1516296591739,129
517,WS_RECV_START,1516296591739,130
517,WS_RECV_END,1516296597952,130
517,PLAYER_SLEEPBEFORE_START,1516296597952,131
517,PLAYER_SLEEPBEFORE_END,1516296619576,131
517,WS_SEND_START,1516296619576,131
517,WS_SEND_END,1516296619576,131
517,PLAYER_SLEEPBEFORE_START,1516296619576,132
517,PLAYER_SLEEPBEFORE_END,1516296622656,132
517,WS_SEND_START,1516296622656,132
517,WS_SEND_END,1516296622656,132
517,WS_RECV_START,1516296622656,133
517,WS_RECV_END,1516296624982,133
517,PLAYER_SLEEPBEFORE_START,1516296624982,134
517,PLAYER_SLEEPBEFORE_END,1516296646199,134
517,WS_SEND_START,1516296646199,134
517,WS_SEND_END,1516296646200,134
517,PLAYER_SLEEPBEFORE_START,1516296646200,135
517,PLAYER_SLEEPBEFORE_END,1516296649390,135
517,WS_SEND_START,1516296649390,135
517,WS_SEND_END,1516296649390,135
517,WS_RECV_START,1516296649390,136
517,WS_RECV_END,1516296650812,136
517,PLAYER_SLEEPBEFORE_START,1516296650812,137
517,PLAYER_SLEEPBEFORE_END,1516296650819,137
517,WS_SEND_START,1516296650819,137
517,WS_SEND_END,1516296650819,137
517,WS_RECV_START,1516296650819,138
517,WS_RECV_END,1516296652026,138
517,PLAYER_SLEEPBEFORE_START,1516296652026,139
517,PLAYER_SLEEPBEFORE_END,1516296652716,139
517,WS_SEND_START,1516296652716,139
517,WS_SEND_END,1516296652716,139
517,WS_RECV_START,1516296652716,140
517,WS_RECV_END,1516296653893,140
517,PLAYER_SLEEPBEFORE_START,1516296653893,141
517,PLAYER_SLEEPBEFORE_END,1516296654548,141
517,WS_SEND_START,1516296654549,141
517,WS_SEND_END,1516296654549,141
517,WS_RECV_START,1516296654549,142
517,WS_RECV_END,1516296656354,142
517,PLAYER_SLEEPBEFORE_START,1516296656354,143
517,PLAYER_SLEEPBEFORE_END,1516296656411,143
517,WS_SEND_START,1516296656411,143
517,WS_SEND_END,1516296656411,143
517,WS_RECV_START,1516296656411,144
517,WS_RECV_END,1516296657534,144
517,PLAYER_SLEEPBEFORE_START,1516296657534,145
517,PLAYER_SLEEPBEFORE_END,1516296673596,145
517,REQ_START,1516296673596,145
517,REQ_END,1516296673604,145
517,PLAYER_SLEEPBEFORE_START,1516296673604,146
517,PLAYER_SLEEPBEFORE_END,1516296682481,146
517,WS_SEND_START,1516296682481,146
517,WS_SEND_END,1516296682481,146
517,WS_RECV_START,1516296682481,147
517,WS_RECV_END,1516296684147,147
517,PLAYER_SLEEPBEFORE_START,1516296684147,148
517,PLAYER_SLEEPBEFORE_END,1516296706070,148
517,WS_SEND_START,1516296706070,148
517,WS_SEND_END,1516296706070,148
517,PLAYER_SLEEPBEFORE_START,1516296706070,149
517,PLAYER_SLEEPBEFORE_END,1516296708498,149
517,WS_SEND_START,1516296708498,149
517,WS_SEND_END,1516296708498,149
517,WS_RECV_START,1516296708498,150
517,WS_RECV_END,1516296709424,150
517,PLAYER_SLEEPBEFORE_START,1516296709424,151
517,PLAYER_SLEEPBEFORE_END,1516296709635,151
517,WS_SEND_START,1516296709635,151
517,WS_SEND_END,1516296709635,151
517,WS_RECV_START,1516296709635,152
517,WS_RECV_END,1516296710028,152
517,PLAYER_SLEEPBEFORE_START,1516296710028,153
517,PLAYER_SLEEPBEFORE_END,1516296733955,153
517,WS_SEND_START,1516296733955,153
517,WS_SEND_END,1516296733955,153
517,WS_RECV_START,1516296733955,154
517,WS_RECV_END,1516296734370,154
517,PLAYER_SLEEPBEFORE_START,1516296734370,155
517,PLAYER_SLEEPBEFORE_END,1516296756928,155
517,WS_SEND_START,1516296756928,155
517,WS_SEND_END,1516296756928,155
517,PLAYER_SLEEPBEFORE_START,1516296756928,156
517,PLAYER_SLEEPBEFORE_END,1516296760202,156
517,WS_SEND_START,1516296760202,156
517,WS_SEND_END,1516296760202,156
517,WS_RECV_START,1516296760202,157
517,WS_RECV_END,1516296760351,157
517,PLAYER_SLEEPBEFORE_START,1516296760351,158
517,PLAYER_SLEEPBEFORE_END,1516296760361,158
517,WS_SEND_START,1516296760361,158
517,WS_SEND_END,1516296760361,158
517,WS_RECV_START,1516296760361,159
517,WS_RECV_END,1516296760589,159
517,PLAYER_SLEEPBEFORE_START,1516296760589,160
517,PLAYER_SLEEPBEFORE_END,1516296760764,160
517,WS_SEND_START,1516296760764,160
517,WS_SEND_END,1516296760764,160
517,WS_RECV_START,1516296760764,161
517,WS_RECV_END,1516296760935,161
517,PLAYER_SLEEPBEFORE_START,1516296760935,162
517,PLAYER_SLEEPBEFORE_END,1516296760960,162
517,WS_SEND_START,1516296760960,162
517,WS_SEND_END,1516296760960,162
517,WS_RECV_START,1516296760960,163
517,WS_RECV_END,1516296761218,163
517,PLAYER_SLEEPBEFORE_START,1516296761218,164
517,PLAYER_SLEEPBEFORE_END,1516296782031,164
517,WS_SEND_START,1516296782031,164
517,WS_SEND_END,1516296782031,164
517,WS_RECV_START,1516296782031,165
517,WS_RECV_END,1516296782282,165
517,PLAYER_SLEEPBEFORE_START,1516296782282,166
517,PLAYER_SLEEPBEFORE_END,1516296804737,166
517,WS_SEND_START,1516296804737,166
517,WS_SEND_END,1516296804737,166
517,WS_RECV_START,1516296804737,167
517,WS_RECV_END,1516296804972,167
517,PLAYER_SLEEPBEFORE_START,1516296804973,168
517,PLAYER_SLEEPBEFORE_END,1516296832330,168
517,WS_SEND_START,1516296832330,168
517,WS_SEND_END,1516296832330,168
517,WS_RECV_START,1516296832330,169
517,WS_RECV_END,1516296832377,169
517,PLAYER_SLEEPBEFORE_START,1516296832377,170
517,PLAYER_SLEEPBEFORE_END,1516296832386,170
517,WS_SEND_START,1516296832386,170
517,WS_SEND_END,1516296832386,170
517,WS_RECV_START,1516296832386,171
517,WS_RECV_END,1516296832469,171
517,PLAYER_SLEEPBEFORE_START,1516296832469,172
517,PLAYER_SLEEPBEFORE_END,1516296832838,172
517,WS_SEND_START,1516296832838,172
517,WS_SEND_END,1516296832838,172
517,WS_RECV_START,1516296832838,173
517,WS_RECV_END,1516296833025,173
517,PLAYER_SLEEPBEFORE_START,1516296833025,174
517,PLAYER_SLEEPBEFORE_END,1516296833066,174
517,WS_SEND_START,1516296833066,174
517,WS_SEND_END,1516296833066,174
517,WS_RECV_START,1516296833066,175
517,WS_RECV_END,1516296833223,175
517,PLAYER_SLEEPBEFORE_START,1516296833223,176
517,PLAYER_SLEEPBEFORE_END,1516296854984,176
517,WS_SEND_START,1516296854984,176
517,WS_SEND_END,1516296854984,176
517,PLAYER_SLEEPBEFORE_START,1516296854984,177
517,PLAYER_SLEEPBEFORE_END,1516296857502,177
517,WS_SEND_START,1516296857502,177
517,WS_SEND_END,1516296857502,177
517,WS_RECV_START,1516296857502,178
517,WS_RECV_END,1516296857793,178
517,PLAYER_SLEEPBEFORE_START,1516296857793,179
517,PLAYER_SLEEPBEFORE_END,1516296880133,179
517,WS_SEND_START,1516296880133,179
517,WS_SEND_END,1516296880133,179
517,WS_RECV_START,1516296880133,180
517,WS_RECV_END,1516296880246,180
517,PLAYER_SLEEPBEFORE_START,1516296880246,181
517,PLAYER_SLEEPBEFORE_END,1516296880690,181
517,WS_SEND_START,1516296880690,181
517,WS_SEND_END,1516296880690,181
517,WS_RECV_START,1516296880690,182
517,WS_RECV_END,1516296880850,182
517,PLAYER_SLEEPBEFORE_START,1516296880850,183
517,PLAYER_SLEEPBEFORE_END,1516296881373,183
517,WS_SEND_START,1516296881373,183
517,WS_SEND_END,1516296881373,183
517,WS_RECV_START,1516296881373,184
517,WS_RECV_END,1516296881536,184
517,PLAYER_SLEEPBEFORE_START,1516296881536,185
517,PLAYER_SLEEPBEFORE_END,1516296881804,185
517,WS_SEND_START,1516296881804,185
517,WS_SEND_END,1516296881804,185
517,WS_RECV_START,1516296881804,186
517,WS_RECV_END,1516296881963,186
517,PLAYER_SLEEPBEFORE_START,1516296881963,187
517,PLAYER_SLEEPBEFORE_END,1516296904463,187
517,WS_SEND_START,1516296904463,187
517,WS_SEND_END,1516296904463,187
517,WS_RECV_START,1516296904463,188
517,WS_RECV_END,1516296904518,188
517,PLAYER_SLEEPBEFORE_START,1516296904518,189
517,PLAYER_SLEEPBEFORE_END,1516296910757,189
517,WS_SEND_START,1516296910757,189
517,WS_SEND_END,1516296910757,189
517,WS_RECV_START,1516296910757,190
517,WS_RECV_END,1516296910971,190
517,PLAYER_SLEEPBEFORE_START,1516296910971,191
517,PLAYER_SLEEPBEFORE_END,1516296912886,191
517,WS_SEND_START,1516296912886,191
517,WS_SEND_END,1516296912886,191
517,WS_RECV_START,1516296912886,192
517,WS_RECV_END,1516296912986,192
517,PLAYER_SLEEPBEFORE_START,1516296912986,193
517,PLAYER_SLEEPBEFORE_END,1516296913114,193
517,WS_SEND_START,1516296913114,193
517,WS_SEND_END,1516296913114,193
517,WS_RECV_START,1516296913114,194
517,WS_RECV_END,1516296913231,194
517,PLAYER_SLEEPBEFORE_START,1516296913231,195
517,PLAYER_SLEEPBEFORE_END,1516296914986,195
517,WS_SEND_START,1516296914986,195
517,WS_SEND_END,1516296914986,195
517,WS_RECV_START,1516296914987,196
517,WS_RECV_END,1516296915088,196
517,PLAYER_SLEEPBEFORE_START,1516296915088,197
517,PLAYER_SLEEPBEFORE_END,1516296916892,197
517,WS_SEND_START,1516296916892,197
517,WS_SEND_END,1516296916892,197
517,WS_RECV_START,1516296916892,198
517,WS_RECV_END,1516296917095,198
517,PLAYER_SLEEPBEFORE_START,1516296917095,199
517,PLAYER_SLEEPBEFORE_END,1516296928949,199
517,WS_SEND_START,1516296928949,199
517,WS_SEND_END,1516296928949,199
517,PLAYER_SLEEPBEFORE_START,1516296928949,200
517,PLAYER_SLEEPBEFORE_END,1516296933037,200
517,WS_SEND_START,1516296933037,200
517,WS_SEND_END,1516296933037,200
517,WS_RECV_START,1516296933037,201
517,WS_RECV_END,1516296933150,201
517,PLAYER_SLEEPBEFORE_START,1516296933150,202
517,PLAYER_SLEEPBEFORE_END,1516296933165,202
517,WS_SEND_START,1516296933165,202
517,WS_SEND_END,1516296933165,202
517,WS_RECV_START,1516296933165,203
517,WS_RECV_END,1516296933261,203
517,PLAYER_SLEEPBEFORE_START,1516296933261,204
517,PLAYER_SLEEPBEFORE_END,1516296952910,204
517,WS_SEND_START,1516296952910,204
517,WS_SEND_END,1516296952910,204
517,PLAYER_SLEEPBEFORE_START,1516296952910,205
517,PLAYER_SLEEPBEFORE_END,1516296956808,205
517,WS_SEND_START,1516296956808,205
517,WS_SEND_END,1516296956808,205
517,WS_RECV_START,1516296956808,206
517,WS_RECV_END,1516296956908,206
517,PLAYER_SLEEPBEFORE_START,1516296956908,207
517,PLAYER_SLEEPBEFORE_END,1516296973839,207
517,REQ_START,1516296973839,207
517,REQ_END,1516296973846,207
517,PLAYER_SLEEPBEFORE_START,1516296973846,208
517,PLAYER_SLEEPBEFORE_END,1516296980698,208
517,WS_CLOSE_START,1516296980698,208
517,WS_CLOSE_END,1516296980698,208
517,PLAYER_DONE,1516296980698
