# --sessions 630 --app-url=http://shinyloadtest.rstudioservices.com/cran_explorer --output-dir test630 --overwrite-output --log-level warn --start-interval 800 15min.log
thread_id,event,timestamp,input_line_number,comment
550,PLAYER_SESSION_CREATE,1516295501288
550,PLAYER_START_INTERVAL_START,1516295501288
550,PLAYER_START_INTERVAL_END,1516295941288
550,REQ_HOME_START,1516295941288,2
550,REQ_HOME_END,1516295941452,2
550,REQ_START,1516295941452,3
550,REQ_END,1516295941487,3
550,REQ_START,1516295941487,4
550,REQ_END,1516295941707,4
550,REQ_START,1516295941707,5
550,REQ_END,1516295941991,5
550,REQ_START,1516295941991,6
550,REQ_END,1516295942363,6
550,REQ_START,1516295942363,7
550,REQ_END,1516295942415,7
550,REQ_START,1516295942415,8
550,REQ_END,1516295942455,8
550,REQ_START,1516295942455,9
550,REQ_END,1516295942680,9
550,REQ_START,1516295942680,10
550,REQ_END,1516295942688,10
550,REQ_START,1516295942688,11
550,REQ_END,1516295943460,11
550,REQ_START,1516295943460,12
550,REQ_END,1516295943471,12
550,REQ_START,1516295943471,13
550,REQ_END,1516295944328,13
550,REQ_START,1516295944328,14
550,REQ_END,1516295944346,14
550,REQ_START,1516295944346,15
550,REQ_END,1516295944486,15
550,REQ_TOK_START,1516295944486,16
550,REQ_TOK_END,1516295944494,16
550,REQ_SINF_START,1516295944494,17
550,REQ_SINF_END,1516295944502,17
550,WS_OPEN_START,1516295944502,18
550,WS_OPEN_END,1516295944509,18
550,REQ_START,1516295944509,19
550,REQ_END,1516295944976,19
550,WS_RECV_START,1516295944976,20
550,WS_RECV_END,1516295944976,20
550,PLAYER_SLEEPBEFORE_START,1516295944976,21
550,PLAYER_SLEEPBEFORE_END,1516295944981,21
550,WS_SEND_START,1516295944981,21
550,WS_SEND_END,1516295944981,21
550,PLAYER_SLEEPBEFORE_START,1516295944981,22
550,PLAYER_SLEEPBEFORE_END,1516295944982,22
550,WS_SEND_START,1516295944982,22
550,WS_SEND_END,1516295944982,22
550,WS_RECV_INIT_START,1516295944982,23
550,WS_RECV_INIT_END,1516295945567,23
550,WS_RECV_START,1516295945567,24
550,WS_RECV_END,1516295945651,24
550,PLAYER_SLEEPBEFORE_START,1516295945651,25
550,PLAYER_SLEEPBEFORE_END,1516295945658,25
550,REQ_START,1516295945658,25
550,REQ_END,1516295945734,25
550,PLAYER_SLEEPBEFORE_START,1516295945734,26
550,PLAYER_SLEEPBEFORE_END,1516295945735,26
550,REQ_START,1516295945735,26
550,REQ_END,1516295945789,26
550,PLAYER_SLEEPBEFORE_START,1516295945789,27
550,PLAYER_SLEEPBEFORE_END,1516295945792,27
550,REQ_START,1516295945792,27
550,REQ_END,1516295946245,27
550,PLAYER_SLEEPBEFORE_START,1516295946245,28
550,PLAYER_SLEEPBEFORE_END,1516295946530,28
550,REQ_START,1516295946530,28
550,REQ_END,1516295947522,28
550,PLAYER_SLEEPBEFORE_START,1516295947522,29
550,PLAYER_SLEEPBEFORE_END,1516295947697,29
550,WS_SEND_START,1516295947697,29
550,WS_SEND_END,1516295947697,29
550,WS_RECV_START,1516295947697,30
550,WS_RECV_END,1516295949381,30
550,PLAYER_SLEEPBEFORE_START,1516295949381,31
550,PLAYER_SLEEPBEFORE_END,1516295949392,31
550,REQ_START,1516295949392,31
550,REQ_END,1516295949948,31
550,PLAYER_SLEEPBEFORE_START,1516295949948,32
550,PLAYER_SLEEPBEFORE_END,1516295978093,32
550,WS_SEND_START,1516295978093,32
550,WS_SEND_END,1516295978093,32
550,WS_RECV_START,1516295978093,33
550,WS_RECV_END,1516295979418,33
550,PLAYER_SLEEPBEFORE_START,1516295979418,34
550,PLAYER_SLEEPBEFORE_END,1516296005330,34
550,WS_SEND_START,1516296005330,34
550,WS_SEND_END,1516296005330,34
550,WS_RECV_START,1516296005330,35
550,WS_RECV_END,1516296009780,35
550,PLAYER_SLEEPBEFORE_START,1516296009780,36
550,PLAYER_SLEEPBEFORE_END,1516296009789,36
550,WS_SEND_START,1516296009789,36
550,WS_SEND_END,1516296009789,36
550,WS_RECV_START,1516296009789,37
550,WS_RECV_END,1516296011374,37
550,PLAYER_SLEEPBEFORE_START,1516296011374,38
550,PLAYER_SLEEPBEFORE_END,1516296014569,38
550,WS_SEND_START,1516296014569,38
550,WS_SEND_END,1516296014569,38
550,WS_RECV_START,1516296014569,39
550,WS_RECV_END,1516296017768,39
550,PLAYER_SLEEPBEFORE_START,1516296017768,40
550,PLAYER_SLEEPBEFORE_END,1516296017814,40
550,WS_SEND_START,1516296017814,40
550,WS_SEND_END,1516296017814,40
550,WS_RECV_START,1516296017814,41
550,WS_RECV_END,1516296019062,41
550,PLAYER_SLEEPBEFORE_START,1516296019062,42
550,PLAYER_SLEEPBEFORE_END,1516296037197,42
550,WS_SEND_START,1516296037197,42
550,WS_SEND_END,1516296037197,42
550,WS_RECV_START,1516296037197,43
550,WS_RECV_END,1516296039534,43
550,PLAYER_SLEEPBEFORE_START,1516296039534,44
550,PLAYER_SLEEPBEFORE_END,1516296039546,44
550,WS_SEND_START,1516296039546,44
550,WS_SEND_END,1516296039546,44
550,WS_RECV_START,1516296039546,45
550,WS_RECV_END,1516296041250,45
550,PLAYER_SLEEPBEFORE_START,1516296041250,46
550,PLAYER_SLEEPBEFORE_END,1516296042510,46
550,WS_SEND_START,1516296042510,46
550,WS_SEND_END,1516296042510,46
550,WS_RECV_START,1516296042510,47
550,WS_RECV_END,1516296043325,47
550,PLAYER_SLEEPBEFORE_START,1516296043325,48
550,PLAYER_SLEEPBEFORE_END,1516296044645,48
550,WS_SEND_START,1516296044645,48
550,WS_SEND_END,1516296044645,48
550,WS_RECV_START,1516296044645,49
550,WS_RECV_END,1516296045009,49
550,PLAYER_SLEEPBEFORE_START,1516296045009,50
550,PLAYER_SLEEPBEFORE_END,1516296045034,50
550,WS_SEND_START,1516296045034,50
550,WS_SEND_END,1516296045034,50
550,WS_RECV_START,1516296045034,51
550,WS_RECV_END,1516296047390,51
550,PLAYER_SLEEPBEFORE_START,1516296047390,52
550,PLAYER_SLEEPBEFORE_END,1516296069955,52
550,WS_SEND_START,1516296069955,52
550,WS_SEND_END,1516296069955,52
550,WS_RECV_START,1516296069955,53
550,WS_RECV_END,1516296072716,53
550,PLAYER_SLEEPBEFORE_START,1516296072716,54
550,PLAYER_SLEEPBEFORE_END,1516296094019,54
550,WS_SEND_START,1516296094019,54
550,WS_SEND_END,1516296094019,54
550,PLAYER_SLEEPBEFORE_START,1516296094019,55
550,PLAYER_SLEEPBEFORE_END,1516296095960,55
550,WS_SEND_START,1516296095960,55
550,WS_SEND_END,1516296095960,55
550,WS_RECV_START,1516296095960,56
550,WS_RECV_END,1516296097413,56
550,PLAYER_SLEEPBEFORE_START,1516296097413,57
550,PLAYER_SLEEPBEFORE_END,1516296120285,57
550,WS_SEND_START,1516296120285,57
550,WS_SEND_END,1516296120285,57
550,WS_RECV_START,1516296120285,58
550,WS_RECV_END,1516296122911,58
550,PLAYER_SLEEPBEFORE_START,1516296122911,59
550,PLAYER_SLEEPBEFORE_END,1516296125238,59
550,WS_SEND_START,1516296125238,59
550,WS_SEND_END,1516296125239,59
550,WS_RECV_START,1516296125239,60
550,WS_RECV_END,1516296127435,60
550,PLAYER_SLEEPBEFORE_START,1516296127435,61
550,PLAYER_SLEEPBEFORE_END,1516296131026,61
550,WS_SEND_START,1516296131026,61
550,WS_SEND_END,1516296131026,61
550,WS_RECV_START,1516296131026,62
550,WS_RECV_END,1516296135238,62
550,PLAYER_SLEEPBEFORE_START,1516296135238,63
550,PLAYER_SLEEPBEFORE_END,1516296154500,63
550,WS_SEND_START,1516296154500,63
550,WS_SEND_END,1516296154501,63
550,WS_RECV_START,1516296154501,64
550,WS_RECV_END,1516296158705,64
550,PLAYER_SLEEPBEFORE_START,1516296158705,65
550,PLAYER_SLEEPBEFORE_END,1516296185523,65
550,WS_SEND_START,1516296185523,65
550,WS_SEND_END,1516296185523,65
550,WS_RECV_START,1516296185523,66
550,WS_RECV_END,1516296190231,66
550,PLAYER_SLEEPBEFORE_START,1516296190231,67
550,PLAYER_SLEEPBEFORE_END,1516296191738,67
550,WS_SEND_START,1516296191738,67
550,WS_SEND_END,1516296191738,67
550,WS_RECV_START,1516296191738,68
550,WS_RECV_END,1516296198058,68
550,PLAYER_SLEEPBEFORE_START,1516296198058,69
550,PLAYER_SLEEPBEFORE_END,1516296220056,69
550,WS_SEND_START,1516296220056,69
550,WS_SEND_END,1516296220056,69
550,WS_RECV_START,1516296220056,70
550,WS_RECV_END,1516296226951,70
550,PLAYER_SLEEPBEFORE_START,1516296226951,71
550,PLAYER_SLEEPBEFORE_END,1516296251727,71
550,WS_SEND_START,1516296251727,71
550,WS_SEND_END,1516296251727,71
550,PLAYER_SLEEPBEFORE_START,1516296251727,72
550,PLAYER_SLEEPBEFORE_END,1516296254334,72
550,WS_SEND_START,1516296254334,72
550,WS_SEND_END,1516296254334,72
550,WS_RECV_START,1516296254334,73
550,WS_RECV_END,1516296258865,73
550,PLAYER_SLEEPBEFORE_START,1516296258865,74
550,PLAYER_SLEEPBEFORE_END,1516296258874,74
550,WS_SEND_START,1516296258874,74
550,WS_SEND_END,1516296258874,74
550,WS_RECV_START,1516296258874,75
550,WS_RECV_END,1516296263538,75
550,PLAYER_SLEEPBEFORE_START,1516296263538,76
550,PLAYER_SLEEPBEFORE_END,1516296265044,76
550,WS_SEND_START,1516296265044,76
550,WS_SEND_END,1516296265044,76
550,WS_RECV_START,1516296265044,77
550,WS_RECV_END,1516296268610,77
550,PLAYER_SLEEPBEFORE_START,1516296268610,78
550,PLAYER_SLEEPBEFORE_END,1516296269478,78
550,WS_SEND_START,1516296269478,78
550,WS_SEND_END,1516296269478,78
550,WS_RECV_START,1516296269478,79
550,WS_RECV_END,1516296272707,79
550,PLAYER_SLEEPBEFORE_START,1516296272707,80
550,PLAYER_SLEEPBEFORE_END,1516296280373,80
550,WS_SEND_START,1516296280373,80
550,WS_SEND_END,1516296280374,80
550,WS_RECV_START,1516296280374,81
550,WS_RECV_END,1516296287496,81
550,PLAYER_SLEEPBEFORE_START,1516296287496,82
550,PLAYER_SLEEPBEFORE_END,1516296288598,82
550,WS_SEND_START,1516296288598,82
550,WS_SEND_END,1516296288598,82
550,WS_RECV_START,1516296288598,83
550,WS_RECV_END,1516296296890,83
550,PLAYER_SLEEPBEFORE_START,1516296296890,84
550,PLAYER_SLEEPBEFORE_END,1516296297837,84
550,WS_SEND_START,1516296297837,84
550,WS_SEND_END,1516296297837,84
550,WS_RECV_START,1516296297837,85
550,WS_RECV_END,1516296301015,85
550,PLAYER_SLEEPBEFORE_START,1516296301015,86
550,PLAYER_SLEEPBEFORE_END,1516296305187,86
550,WS_SEND_START,1516296305187,86
550,WS_SEND_END,1516296305187,86
550,WS_RECV_START,1516296305187,87
550,WS_RECV_END,1516296306426,87
550,PLAYER_SLEEPBEFORE_START,1516296306426,88
550,PLAYER_SLEEPBEFORE_END,1516296306435,88
550,WS_SEND_START,1516296306435,88
550,WS_SEND_END,1516296306435,88
550,WS_RECV_START,1516296306435,89
550,WS_RECV_END,1516296311176,89
550,PLAYER_SLEEPBEFORE_START,1516296311176,90
550,PLAYER_SLEEPBEFORE_END,1516296338374,90
550,REQ_START,1516296338374,90
550,REQ_END,1516296338382,90
550,PLAYER_SLEEPBEFORE_START,1516296338382,91
550,PLAYER_SLEEPBEFORE_END,1516296346271,91
550,WS_SEND_START,1516296346271,91
550,WS_SEND_END,1516296346271,91
550,WS_RECV_START,1516296346271,92
550,WS_RECV_END,1516296352033,92
550,PLAYER_SLEEPBEFORE_START,1516296352033,93
550,PLAYER_SLEEPBEFORE_END,1516296352048,93
550,WS_SEND_START,1516296352049,93
550,WS_SEND_END,1516296352049,93
550,WS_RECV_START,1516296352049,94
550,WS_RECV_END,1516296356340,94
550,PLAYER_SLEEPBEFORE_START,1516296356340,95
550,PLAYER_SLEEPBEFORE_END,1516296379895,95
550,WS_SEND_START,1516296379895,95
550,WS_SEND_END,1516296379895,95
550,WS_RECV_START,1516296379895,96
550,WS_RECV_END,1516296384463,96
550,PLAYER_SLEEPBEFORE_START,1516296384463,97
550,PLAYER_SLEEPBEFORE_END,1516296406903,97
550,WS_SEND_START,1516296406903,97
550,WS_SEND_END,1516296406903,97
550,WS_RECV_START,1516296406903,98
550,WS_RECV_END,1516296414156,98
550,PLAYER_SLEEPBEFORE_START,1516296414156,99
550,PLAYER_SLEEPBEFORE_END,1516296414178,99
550,WS_SEND_START,1516296414178,99
550,WS_SEND_END,1516296414178,99
550,WS_RECV_START,1516296414178,100
550,WS_RECV_END,1516296417750,100
550,PLAYER_SLEEPBEFORE_START,1516296417750,101
550,PLAYER_SLEEPBEFORE_END,1516296441309,101
550,WS_SEND_START,1516296441309,101
550,WS_SEND_END,1516296441309,101
550,WS_RECV_START,1516296441309,102
550,WS_RECV_END,1516296447991,102
550,PLAYER_SLEEPBEFORE_START,1516296447991,103
550,PLAYER_SLEEPBEFORE_END,1516296471616,103
550,WS_SEND_START,1516296471616,103
550,WS_SEND_END,1516296471616,103
550,WS_RECV_START,1516296471616,104
550,WS_RECV_END,1516296478725,104
550,PLAYER_SLEEPBEFORE_START,1516296478725,105
550,PLAYER_SLEEPBEFORE_END,1516296504103,105
550,WS_SEND_START,1516296504103,105
550,WS_SEND_END,1516296504103,105
550,WS_RECV_START,1516296504103,106
550,WS_RECV_END,1516296511979,106
550,PLAYER_SLEEPBEFORE_START,1516296511979,107
550,PLAYER_SLEEPBEFORE_END,1516296535402,107
550,WS_SEND_START,1516296535402,107
550,WS_SEND_END,1516296535402,107
550,WS_RECV_START,1516296535402,108
550,WS_RECV_END,1516296542377,108
550,PLAYER_SLEEPBEFORE_START,1516296542377,109
550,PLAYER_SLEEPBEFORE_END,1516296542386,109
550,WS_SEND_START,1516296542387,109
550,WS_SEND_END,1516296542387,109
550,WS_RECV_START,1516296542387,110
550,WS_RECV_END,1516296545666,110
550,PLAYER_SLEEPBEFORE_START,1516296545666,111
550,PLAYER_SLEEPBEFORE_END,1516296546626,111
550,WS_SEND_START,1516296546626,111
550,WS_SEND_END,1516296546626,111
550,WS_RECV_START,1516296546626,112
550,WS_RECV_END,1516296550407,112
550,PLAYER_SLEEPBEFORE_START,1516296550407,113
550,PLAYER_SLEEPBEFORE_END,1516296550969,113
550,WS_SEND_START,1516296550969,113
550,WS_SEND_END,1516296550970,113
550,WS_RECV_START,1516296550970,114
550,WS_RECV_END,1516296555770,114
550,PLAYER_SLEEPBEFORE_START,1516296555770,115
550,PLAYER_SLEEPBEFORE_END,1516296555780,115
550,WS_SEND_START,1516296555780,115
550,WS_SEND_END,1516296555780,115
550,WS_RECV_START,1516296555780,116
550,WS_RECV_END,1516296560711,116
550,PLAYER_SLEEPBEFORE_START,1516296560711,117
550,PLAYER_SLEEPBEFORE_END,1516296581071,117
550,WS_SEND_START,1516296581071,117
550,WS_SEND_END,1516296581071,117
550,PLAYER_SLEEPBEFORE_START,1516296581071,118
550,PLAYER_SLEEPBEFORE_END,1516296584823,118
550,WS_SEND_START,1516296584823,118
550,WS_SEND_END,1516296584823,118
550,WS_RECV_START,1516296584823,119
550,WS_RECV_END,1516296590518,119
550,PLAYER_SLEEPBEFORE_START,1516296590518,120
550,PLAYER_SLEEPBEFORE_END,1516296591506,120
550,WS_SEND_START,1516296591506,120
550,WS_SEND_END,1516296591506,120
550,WS_RECV_START,1516296591506,121
550,WS_RECV_END,1516296601765,121
550,PLAYER_SLEEPBEFORE_START,1516296601765,122
550,PLAYER_SLEEPBEFORE_END,1516296602950,122
550,WS_SEND_START,1516296602950,122
550,WS_SEND_END,1516296602950,122
550,WS_RECV_START,1516296602950,123
550,WS_RECV_END,1516296607354,123
550,PLAYER_SLEEPBEFORE_START,1516296607354,124
550,PLAYER_SLEEPBEFORE_END,1516296631759,124
550,WS_SEND_START,1516296631759,124
550,WS_SEND_END,1516296631759,124
550,WS_RECV_START,1516296631759,125
550,WS_RECV_END,1516296636802,125
550,PLAYER_SLEEPBEFORE_START,1516296636802,126
550,PLAYER_SLEEPBEFORE_END,1516296657314,126
550,WS_SEND_START,1516296657314,126
550,WS_SEND_END,1516296657314,126
550,PLAYER_SLEEPBEFORE_START,1516296657314,127
550,PLAYER_SLEEPBEFORE_END,1516296660369,127
550,WS_SEND_START,1516296660369,127
550,WS_SEND_END,1516296660369,127
550,WS_RECV_START,1516296660369,128
550,WS_RECV_END,1516296662454,128
550,PLAYER_SLEEPBEFORE_START,1516296662454,129
550,PLAYER_SLEEPBEFORE_END,1516296662474,129
550,WS_SEND_START,1516296662474,129
550,WS_SEND_END,1516296662474,129
550,WS_RECV_START,1516296662474,130
550,WS_RECV_END,1516296664362,130
550,PLAYER_SLEEPBEFORE_START,1516296664362,131
550,PLAYER_SLEEPBEFORE_END,1516296685986,131
550,WS_SEND_START,1516296685986,131
550,WS_SEND_END,1516296685986,131
550,PLAYER_SLEEPBEFORE_START,1516296685986,132
550,PLAYER_SLEEPBEFORE_END,1516296689066,132
550,WS_SEND_START,1516296689066,132
550,WS_SEND_END,1516296689066,132
550,WS_RECV_START,1516296689066,133
550,WS_RECV_END,1516296690968,133
550,PLAYER_SLEEPBEFORE_START,1516296690968,134
550,PLAYER_SLEEPBEFORE_END,1516296712185,134
550,WS_SEND_START,1516296712185,134
550,WS_SEND_END,1516296712185,134
550,PLAYER_SLEEPBEFORE_START,1516296712185,135
550,PLAYER_SLEEPBEFORE_END,1516296715375,135
550,WS_SEND_START,1516296715375,135
550,WS_SEND_END,1516296715375,135
550,WS_RECV_START,1516296715375,136
550,WS_RECV_END,1516296716615,136
550,PLAYER_SLEEPBEFORE_START,1516296716615,137
550,PLAYER_SLEEPBEFORE_END,1516296716622,137
550,WS_SEND_START,1516296716622,137
550,WS_SEND_END,1516296716623,137
550,WS_RECV_START,1516296716623,138
550,WS_RECV_END,1516296717830,138
550,PLAYER_SLEEPBEFORE_START,1516296717830,139
550,PLAYER_SLEEPBEFORE_END,1516296718520,139
550,WS_SEND_START,1516296718520,139
550,WS_SEND_END,1516296718520,139
550,WS_RECV_START,1516296718520,140
550,WS_RECV_END,1516296720118,140
550,PLAYER_SLEEPBEFORE_START,1516296720118,141
550,PLAYER_SLEEPBEFORE_END,1516296720773,141
550,WS_SEND_START,1516296720773,141
550,WS_SEND_END,1516296720773,141
550,WS_RECV_START,1516296720773,142
550,WS_RECV_END,1516296721221,142
550,PLAYER_SLEEPBEFORE_START,1516296721221,143
550,PLAYER_SLEEPBEFORE_END,1516296721279,143
550,WS_SEND_START,1516296721279,143
550,WS_SEND_END,1516296721279,143
550,WS_RECV_START,1516296721279,144
550,WS_RECV_END,1516296721762,144
550,PLAYER_SLEEPBEFORE_START,1516296721762,145
550,PLAYER_SLEEPBEFORE_END,1516296737824,145
550,REQ_START,1516296737824,145
550,REQ_END,1516296737832,145
550,PLAYER_SLEEPBEFORE_START,1516296737832,146
550,PLAYER_SLEEPBEFORE_END,1516296746709,146
550,WS_SEND_START,1516296746710,146
550,WS_SEND_END,1516296746710,146
550,WS_RECV_START,1516296746710,147
550,WS_RECV_END,1516296747360,147
550,PLAYER_SLEEPBEFORE_START,1516296747360,148
550,PLAYER_SLEEPBEFORE_END,1516296769282,148
550,WS_SEND_START,1516296769282,148
550,WS_SEND_END,1516296769282,148
550,PLAYER_SLEEPBEFORE_START,1516296769283,149
550,PLAYER_SLEEPBEFORE_END,1516296771711,149
550,WS_SEND_START,1516296771711,149
550,WS_SEND_END,1516296771711,149
550,WS_RECV_START,1516296771711,150
550,WS_RECV_END,1516296772466,150
550,PLAYER_SLEEPBEFORE_START,1516296772466,151
550,PLAYER_SLEEPBEFORE_END,1516296772677,151
550,WS_SEND_START,1516296772677,151
550,WS_SEND_END,1516296772677,151
550,WS_RECV_START,1516296772677,152
550,WS_RECV_END,1516296772816,152
550,PLAYER_SLEEPBEFORE_START,1516296772816,153
550,PLAYER_SLEEPBEFORE_END,1516296796743,153
550,WS_SEND_START,1516296796743,153
550,WS_SEND_END,1516296796743,153
550,WS_RECV_START,1516296796743,154
550,WS_RECV_END,1516296797911,154
550,PLAYER_SLEEPBEFORE_START,1516296797911,155
550,PLAYER_SLEEPBEFORE_END,1516296820469,155
550,WS_SEND_START,1516296820469,155
550,WS_SEND_END,1516296820469,155
550,PLAYER_SLEEPBEFORE_START,1516296820469,156
550,PLAYER_SLEEPBEFORE_END,1516296823743,156
550,WS_SEND_START,1516296823743,156
550,WS_SEND_END,1516296823744,156
550,WS_RECV_START,1516296823744,157
550,WS_RECV_END,1516296824524,157
550,PLAYER_SLEEPBEFORE_START,1516296824524,158
550,PLAYER_SLEEPBEFORE_END,1516296824534,158
550,WS_SEND_START,1516296824534,158
550,WS_SEND_END,1516296824534,158
550,WS_RECV_START,1516296824534,159
550,WS_RECV_END,1516296824897,159
550,PLAYER_SLEEPBEFORE_START,1516296824897,160
550,PLAYER_SLEEPBEFORE_END,1516296825072,160
550,WS_SEND_START,1516296825072,160
550,WS_SEND_END,1516296825072,160
550,WS_RECV_START,1516296825072,161
550,WS_RECV_END,1516296825451,161
550,PLAYER_SLEEPBEFORE_START,1516296825451,162
550,PLAYER_SLEEPBEFORE_END,1516296825477,162
550,WS_SEND_START,1516296825477,162
550,WS_SEND_END,1516296825477,162
550,WS_RECV_START,1516296825477,163
550,WS_RECV_END,1516296825792,163
550,PLAYER_SLEEPBEFORE_START,1516296825792,164
550,PLAYER_SLEEPBEFORE_END,1516296846604,164
550,WS_SEND_START,1516296846604,164
550,WS_SEND_END,1516296846605,164
550,WS_RECV_START,1516296846605,165
550,WS_RECV_END,1516296847110,165
550,PLAYER_SLEEPBEFORE_START,1516296847110,166
550,PLAYER_SLEEPBEFORE_END,1516296869566,166
550,WS_SEND_START,1516296869566,166
550,WS_SEND_END,1516296869566,166
550,WS_RECV_START,1516296869566,167
550,WS_RECV_END,1516296869780,167
550,PLAYER_SLEEPBEFORE_START,1516296869780,168
550,PLAYER_SLEEPBEFORE_END,1516296897137,168
550,WS_SEND_START,1516296897137,168
550,WS_SEND_END,1516296897137,168
550,WS_RECV_START,1516296897137,169
550,WS_RECV_END,1516296897183,169
550,PLAYER_SLEEPBEFORE_START,1516296897183,170
550,PLAYER_SLEEPBEFORE_END,1516296897192,170
550,WS_SEND_START,1516296897192,170
550,WS_SEND_END,1516296897192,170
550,WS_RECV_START,1516296897192,171
550,WS_RECV_END,1516296897241,171
550,PLAYER_SLEEPBEFORE_START,1516296897241,172
550,PLAYER_SLEEPBEFORE_END,1516296897610,172
550,WS_SEND_START,1516296897610,172
550,WS_SEND_END,1516296897610,172
550,WS_RECV_START,1516296897610,173
550,WS_RECV_END,1516296897904,173
550,PLAYER_SLEEPBEFORE_START,1516296897904,174
550,PLAYER_SLEEPBEFORE_END,1516296897945,174
550,WS_SEND_START,1516296897945,174
550,WS_SEND_END,1516296897945,174
550,WS_RECV_START,1516296897945,175
550,WS_RECV_END,1516296898156,175
550,PLAYER_SLEEPBEFORE_START,1516296898156,176
550,PLAYER_SLEEPBEFORE_END,1516296919917,176
550,WS_SEND_START,1516296919917,176
550,WS_SEND_END,1516296919917,176
550,PLAYER_SLEEPBEFORE_START,1516296919917,177
550,PLAYER_SLEEPBEFORE_END,1516296922435,177
550,WS_SEND_START,1516296922435,177
550,WS_SEND_END,1516296922435,177
550,WS_RECV_START,1516296922435,178
550,WS_RECV_END,1516296922554,178
550,PLAYER_SLEEPBEFORE_START,1516296922554,179
550,PLAYER_SLEEPBEFORE_END,1516296944894,179
550,WS_SEND_START,1516296944894,179
550,WS_SEND_END,1516296944894,179
550,WS_RECV_START,1516296944894,180
550,WS_RECV_END,1516296945140,180
550,PLAYER_SLEEPBEFORE_START,1516296945140,181
550,PLAYER_SLEEPBEFORE_END,1516296945584,181
550,WS_SEND_START,1516296945584,181
550,WS_SEND_END,1516296945584,181
550,WS_RECV_START,1516296945584,182
550,WS_RECV_END,1516296945693,182
550,PLAYER_SLEEPBEFORE_START,1516296945693,183
550,PLAYER_SLEEPBEFORE_END,1516296946217,183
550,WS_SEND_START,1516296946217,183
550,WS_SEND_END,1516296946217,183
550,WS_RECV_START,1516296946217,184
550,WS_RECV_END,1516296946344,184
550,PLAYER_SLEEPBEFORE_START,1516296946344,185
550,PLAYER_SLEEPBEFORE_END,1516296946613,185
550,WS_SEND_START,1516296946613,185
550,WS_SEND_END,1516296946613,185
550,WS_RECV_START,1516296946613,186
550,WS_RECV_END,1516296946757,186
550,PLAYER_SLEEPBEFORE_START,1516296946757,187
550,PLAYER_SLEEPBEFORE_END,1516296969257,187
550,WS_SEND_START,1516296969257,187
550,WS_SEND_END,1516296969257,187
550,WS_RECV_START,1516296969257,188
550,WS_RECV_END,1516296969296,188
550,PLAYER_SLEEPBEFORE_START,1516296969296,189
550,PLAYER_SLEEPBEFORE_END,1516296975535,189
550,WS_SEND_START,1516296975535,189
550,WS_SEND_END,1516296975535,189
550,WS_RECV_START,1516296975535,190
550,WS_RECV_END,1516296975643,190
550,PLAYER_SLEEPBEFORE_START,1516296975643,191
550,PLAYER_SLEEPBEFORE_END,1516296977558,191
550,WS_SEND_START,1516296977558,191
550,WS_SEND_END,1516296977558,191
550,WS_RECV_START,1516296977558,192
550,WS_RECV_END,1516296977693,192
550,PLAYER_SLEEPBEFORE_START,1516296977693,193
550,PLAYER_SLEEPBEFORE_END,1516296977821,193
550,WS_SEND_START,1516296977821,193
550,WS_SEND_END,1516296977821,193
550,WS_RECV_START,1516296977821,194
550,WS_RECV_END,1516296977922,194
550,PLAYER_SLEEPBEFORE_START,1516296977922,195
550,PLAYER_SLEEPBEFORE_END,1516296979678,195
550,WS_SEND_START,1516296979678,195
550,WS_SEND_END,1516296979678,195
550,WS_RECV_START,1516296979678,196
550,WS_RECV_END,1516296979783,196
550,PLAYER_SLEEPBEFORE_START,1516296979783,197
550,PLAYER_SLEEPBEFORE_END,1516296981587,197
550,WS_SEND_START,1516296981588,197
550,WS_SEND_END,1516296981588,197
550,WS_RECV_START,1516296981588,198
550,WS_RECV_END,1516296981694,198
550,PLAYER_SLEEPBEFORE_START,1516296981694,199
550,PLAYER_SLEEPBEFORE_END,1516296993548,199
550,WS_SEND_START,1516296993548,199
550,WS_SEND_END,1516296993548,199
550,PLAYER_SLEEPBEFORE_START,1516296993548,200
550,PLAYER_SLEEPBEFORE_END,1516296997636,200
550,WS_SEND_START,1516296997636,200
550,WS_SEND_END,1516296997636,200
550,WS_RECV_START,1516296997636,201
550,WS_RECV_END,1516296997725,201
550,PLAYER_SLEEPBEFORE_START,1516296997725,202
550,PLAYER_SLEEPBEFORE_END,1516296997739,202
550,WS_SEND_START,1516296997739,202
550,WS_SEND_END,1516296997739,202
550,WS_RECV_START,1516296997739,203
550,WS_RECV_END,1516296997841,203
550,PLAYER_SLEEPBEFORE_START,1516296997841,204
550,PLAYER_SLEEPBEFORE_END,1516297017490,204
550,WS_SEND_START,1516297017490,204
550,WS_SEND_END,1516297017490,204
550,PLAYER_SLEEPBEFORE_START,1516297017490,205
550,PLAYER_SLEEPBEFORE_END,1516297021388,205
550,WS_SEND_START,1516297021388,205
550,WS_SEND_END,1516297021388,205
550,WS_RECV_START,1516297021388,206
550,WS_RECV_END,1516297021502,206
550,PLAYER_SLEEPBEFORE_START,1516297021502,207
550,PLAYER_SLEEPBEFORE_END,1516297038434,207
550,REQ_START,1516297038434,207
550,REQ_END,1516297038441,207
550,PLAYER_SLEEPBEFORE_START,1516297038441,208
550,PLAYER_SLEEPBEFORE_END,1516297045293,208
550,WS_CLOSE_START,1516297045293,208
550,WS_CLOSE_END,1516297045293,208
550,PLAYER_DONE,1516297045293
