# --sessions 630 --app-url=http://shinyloadtest.rstudioservices.com/cran_explorer --output-dir test630 --overwrite-output --log-level warn --start-interval 800 15min.log
thread_id,event,timestamp,input_line_number,comment
595,PLAYER_SESSION_CREATE,1516295501300
595,PLAYER_START_INTERVAL_START,1516295501300
595,PLAYER_START_INTERVAL_END,1516295977300
595,REQ_HOME_START,1516295977300,2
595,REQ_HOME_END,1516295979938,2
595,REQ_START,1516295979938,3
595,REQ_END,1516295980969,3
595,REQ_START,1516295980969,4
595,REQ_END,1516295982029,4
595,REQ_START,1516295982029,5
595,REQ_END,1516295983760,5
595,REQ_START,1516295983760,6
595,REQ_END,1516295985081,6
595,REQ_START,1516295985081,7
595,REQ_END,1516295986741,7
595,REQ_START,1516295986741,8
595,REQ_END,1516295989403,8
595,REQ_START,1516295989403,9
595,REQ_END,1516295993200,9
595,REQ_START,1516295993200,10
595,REQ_END,1516295993211,10
595,REQ_START,1516295993211,11
595,REQ_END,1516295994640,11
595,REQ_START,1516295994640,12
595,REQ_END,1516295994652,12
595,REQ_START,1516295994652,13
595,REQ_END,1516295998680,13
595,REQ_START,1516295998680,14
595,REQ_END,1516295998704,14
595,REQ_START,1516295998704,15
595,REQ_END,1516296002220,15
595,REQ_TOK_START,1516296002220,16
595,REQ_TOK_END,1516296002230,16
595,REQ_SINF_START,1516296002230,17
595,REQ_SINF_END,1516296002236,17
595,WS_OPEN_START,1516296002236,18
595,WS_OPEN_END,1516296002244,18
595,REQ_START,1516296002244,19
595,REQ_END,1516296008250,19
595,WS_RECV_START,1516296008250,20
595,WS_RECV_END,1516296008250,20
595,PLAYER_SLEEPBEFORE_START,1516296008250,21
595,PLAYER_SLEEPBEFORE_END,1516296008256,21
595,WS_SEND_START,1516296008256,21
595,WS_SEND_END,1516296008256,21
595,PLAYER_SLEEPBEFORE_START,1516296008256,22
595,PLAYER_SLEEPBEFORE_END,1516296008257,22
595,WS_SEND_START,1516296008257,22
595,WS_SEND_END,1516296008257,22
595,WS_RECV_INIT_START,1516296008257,23
595,WS_RECV_INIT_END,1516296011990,23
595,WS_RECV_START,1516296011990,24
595,WS_RECV_END,1516296013117,24
595,PLAYER_SLEEPBEFORE_START,1516296013117,25
595,PLAYER_SLEEPBEFORE_END,1516296013124,25
595,REQ_START,1516296013124,25
595,REQ_END,1516296016917,25
595,PLAYER_SLEEPBEFORE_START,1516296016917,26
595,PLAYER_SLEEPBEFORE_END,1516296016918,26
595,REQ_START,1516296016918,26
595,REQ_END,1516296019214,26
595,PLAYER_SLEEPBEFORE_START,1516296019214,27
595,PLAYER_SLEEPBEFORE_END,1516296019217,27
595,REQ_START,1516296019217,27
595,REQ_END,1516296024052,27
595,PLAYER_SLEEPBEFORE_START,1516296024052,28
595,PLAYER_SLEEPBEFORE_END,1516296024337,28
595,REQ_START,1516296024337,28
595,REQ_END,1516296027482,28
595,PLAYER_SLEEPBEFORE_START,1516296027482,29
595,PLAYER_SLEEPBEFORE_END,1516296027657,29
595,WS_SEND_START,1516296027657,29
595,WS_SEND_END,1516296027657,29
595,WS_RECV_START,1516296027657,30
595,WS_RECV_END,1516296028635,30
595,PLAYER_SLEEPBEFORE_START,1516296028635,31
595,PLAYER_SLEEPBEFORE_END,1516296028646,31
595,REQ_START,1516296028646,31
595,REQ_END,1516296034728,31
595,PLAYER_SLEEPBEFORE_START,1516296034728,32
595,PLAYER_SLEEPBEFORE_END,1516296062873,32
595,WS_SEND_START,1516296062873,32
595,WS_SEND_END,1516296062873,32
595,WS_RECV_START,1516296062873,33
595,WS_RECV_END,1516296064627,33
595,PLAYER_SLEEPBEFORE_START,1516296064627,34
595,PLAYER_SLEEPBEFORE_END,1516296090538,34
595,WS_SEND_START,1516296090538,34
595,WS_SEND_END,1516296090538,34
595,WS_RECV_START,1516296090538,35
595,WS_RECV_END,1516296093084,35
595,PLAYER_SLEEPBEFORE_START,1516296093084,36
595,PLAYER_SLEEPBEFORE_END,1516296093093,36
595,WS_SEND_START,1516296093093,36
595,WS_SEND_END,1516296093093,36
595,WS_RECV_START,1516296093093,37
595,WS_RECV_END,1516296095126,37
595,PLAYER_SLEEPBEFORE_START,1516296095126,38
595,PLAYER_SLEEPBEFORE_END,1516296098321,38
595,WS_SEND_START,1516296098321,38
595,WS_SEND_END,1516296098321,38
595,WS_RECV_START,1516296098321,39
595,WS_RECV_END,1516296100500,39
595,PLAYER_SLEEPBEFORE_START,1516296100500,40
595,PLAYER_SLEEPBEFORE_END,1516296100546,40
595,WS_SEND_START,1516296100546,40
595,WS_SEND_END,1516296100546,40
595,WS_RECV_START,1516296100546,41
595,WS_RECV_END,1516296104302,41
595,PLAYER_SLEEPBEFORE_START,1516296104302,42
595,PLAYER_SLEEPBEFORE_END,1516296122437,42
595,WS_SEND_START,1516296122437,42
595,WS_SEND_END,1516296122437,42
595,WS_RECV_START,1516296122437,43
595,WS_RECV_END,1516296125455,43
595,PLAYER_SLEEPBEFORE_START,1516296125455,44
595,PLAYER_SLEEPBEFORE_END,1516296125467,44
595,WS_SEND_START,1516296125467,44
595,WS_SEND_END,1516296125467,44
595,WS_RECV_START,1516296125467,45
595,WS_RECV_END,1516296127170,45
595,PLAYER_SLEEPBEFORE_START,1516296127170,46
595,PLAYER_SLEEPBEFORE_END,1516296128430,46
595,WS_SEND_START,1516296128430,46
595,WS_SEND_END,1516296128430,46
595,WS_RECV_START,1516296128430,47
595,WS_RECV_END,1516296132418,47
595,PLAYER_SLEEPBEFORE_START,1516296132418,48
595,PLAYER_SLEEPBEFORE_END,1516296133738,48
595,WS_SEND_START,1516296133738,48
595,WS_SEND_END,1516296133738,48
595,WS_RECV_START,1516296133738,49
595,WS_RECV_END,1516296134778,49
595,PLAYER_SLEEPBEFORE_START,1516296134778,50
595,PLAYER_SLEEPBEFORE_END,1516296134803,50
595,WS_SEND_START,1516296134803,50
595,WS_SEND_END,1516296134803,50
595,WS_RECV_START,1516296134803,51
595,WS_RECV_END,1516296137419,51
595,PLAYER_SLEEPBEFORE_START,1516296137419,52
595,PLAYER_SLEEPBEFORE_END,1516296159983,52
595,WS_SEND_START,1516296159983,52
595,WS_SEND_END,1516296159983,52
595,WS_RECV_START,1516296159983,53
595,WS_RECV_END,1516296163327,53
595,PLAYER_SLEEPBEFORE_START,1516296163327,54
595,PLAYER_SLEEPBEFORE_END,1516296184631,54
595,WS_SEND_START,1516296184631,54
595,WS_SEND_END,1516296184631,54
595,PLAYER_SLEEPBEFORE_START,1516296184631,55
595,PLAYER_SLEEPBEFORE_END,1516296186572,55
595,WS_SEND_START,1516296186572,55
595,WS_SEND_END,1516296186572,55
595,WS_RECV_START,1516296186572,56
595,WS_RECV_END,1516296188944,56
595,PLAYER_SLEEPBEFORE_START,1516296188944,57
595,PLAYER_SLEEPBEFORE_END,1516296211816,57
595,WS_SEND_START,1516296211816,57
595,WS_SEND_END,1516296211816,57
595,WS_RECV_START,1516296211816,58
595,WS_RECV_END,1516296217777,58
595,PLAYER_SLEEPBEFORE_START,1516296217777,59
595,PLAYER_SLEEPBEFORE_END,1516296220104,59
595,WS_SEND_START,1516296220104,59
595,WS_SEND_END,1516296220104,59
595,WS_RECV_START,1516296220104,60
595,WS_RECV_END,1516296224374,60
595,PLAYER_SLEEPBEFORE_START,1516296224374,61
595,PLAYER_SLEEPBEFORE_END,1516296227965,61
595,WS_SEND_START,1516296227965,61
595,WS_SEND_END,1516296227965,61
595,WS_RECV_START,1516296227965,62
595,WS_RECV_END,1516296230961,62
595,PLAYER_SLEEPBEFORE_START,1516296230961,63
595,PLAYER_SLEEPBEFORE_END,1516296250223,63
595,WS_SEND_START,1516296250223,63
595,WS_SEND_END,1516296250223,63
595,WS_RECV_START,1516296250223,64
595,WS_RECV_END,1516296255651,64
595,PLAYER_SLEEPBEFORE_START,1516296255651,65
595,PLAYER_SLEEPBEFORE_END,1516296282469,65
595,WS_SEND_START,1516296282469,65
595,WS_SEND_END,1516296282469,65
595,WS_RECV_START,1516296282469,66
595,WS_RECV_END,1516296285976,66
595,PLAYER_SLEEPBEFORE_START,1516296285976,67
595,PLAYER_SLEEPBEFORE_END,1516296287483,67
595,WS_SEND_START,1516296287483,67
595,WS_SEND_END,1516296287483,67
595,WS_RECV_START,1516296287483,68
595,WS_RECV_END,1516296293062,68
595,PLAYER_SLEEPBEFORE_START,1516296293062,69
595,PLAYER_SLEEPBEFORE_END,1516296315061,69
595,WS_SEND_START,1516296315061,69
595,WS_SEND_END,1516296315061,69
595,WS_RECV_START,1516296315061,70
595,WS_RECV_END,1516296320473,70
595,PLAYER_SLEEPBEFORE_START,1516296320473,71
595,PLAYER_SLEEPBEFORE_END,1516296345248,71
595,WS_SEND_START,1516296345248,71
595,WS_SEND_END,1516296345248,71
595,PLAYER_SLEEPBEFORE_START,1516296345248,72
595,PLAYER_SLEEPBEFORE_END,1516296347855,72
595,WS_SEND_START,1516296347855,72
595,WS_SEND_END,1516296347855,72
595,WS_RECV_START,1516296347855,73
595,WS_RECV_END,1516296349925,73
595,PLAYER_SLEEPBEFORE_START,1516296349925,74
595,PLAYER_SLEEPBEFORE_END,1516296349934,74
595,WS_SEND_START,1516296349934,74
595,WS_SEND_END,1516296349934,74
595,WS_RECV_START,1516296349934,75
595,WS_RECV_END,1516296352450,75
595,PLAYER_SLEEPBEFORE_START,1516296352450,76
595,PLAYER_SLEEPBEFORE_END,1516296353956,76
595,WS_SEND_START,1516296353956,76
595,WS_SEND_END,1516296353956,76
595,WS_RECV_START,1516296353956,77
595,WS_RECV_END,1516296355888,77
595,PLAYER_SLEEPBEFORE_START,1516296355888,78
595,PLAYER_SLEEPBEFORE_END,1516296356756,78
595,WS_SEND_START,1516296356756,78
595,WS_SEND_END,1516296356756,78
595,WS_RECV_START,1516296356756,79
595,WS_RECV_END,1516296360520,79
595,PLAYER_SLEEPBEFORE_START,1516296360520,80
595,PLAYER_SLEEPBEFORE_END,1516296368187,80
595,WS_SEND_START,1516296368187,80
595,WS_SEND_END,1516296368187,80
595,WS_RECV_START,1516296368187,81
595,WS_RECV_END,1516296372352,81
595,PLAYER_SLEEPBEFORE_START,1516296372352,82
595,PLAYER_SLEEPBEFORE_END,1516296373454,82
595,WS_SEND_START,1516296373454,82
595,WS_SEND_END,1516296373454,82
595,WS_RECV_START,1516296373454,83
595,WS_RECV_END,1516296377965,83
595,PLAYER_SLEEPBEFORE_START,1516296377965,84
595,PLAYER_SLEEPBEFORE_END,1516296378912,84
595,WS_SEND_START,1516296378912,84
595,WS_SEND_END,1516296378912,84
595,WS_RECV_START,1516296378912,85
595,WS_RECV_END,1516296382563,85
595,PLAYER_SLEEPBEFORE_START,1516296382563,86
595,PLAYER_SLEEPBEFORE_END,1516296386735,86
595,WS_SEND_START,1516296386735,86
595,WS_SEND_END,1516296386735,86
595,WS_RECV_START,1516296386735,87
595,WS_RECV_END,1516296390485,87
595,PLAYER_SLEEPBEFORE_START,1516296390485,88
595,PLAYER_SLEEPBEFORE_END,1516296390493,88
595,WS_SEND_START,1516296390493,88
595,WS_SEND_END,1516296390493,88
595,WS_RECV_START,1516296390493,89
595,WS_RECV_END,1516296392304,89
595,PLAYER_SLEEPBEFORE_START,1516296392304,90
595,PLAYER_SLEEPBEFORE_END,1516296419501,90
595,REQ_START,1516296419501,90
595,REQ_END,1516296419510,90
595,PLAYER_SLEEPBEFORE_START,1516296419510,91
595,PLAYER_SLEEPBEFORE_END,1516296427399,91
595,WS_SEND_START,1516296427399,91
595,WS_SEND_END,1516296427399,91
595,WS_RECV_START,1516296427399,92
595,WS_RECV_END,1516296434606,92
595,PLAYER_SLEEPBEFORE_START,1516296434606,93
595,PLAYER_SLEEPBEFORE_END,1516296434621,93
595,WS_SEND_START,1516296434621,93
595,WS_SEND_END,1516296434622,93
595,WS_RECV_START,1516296434622,94
595,WS_RECV_END,1516296437987,94
595,PLAYER_SLEEPBEFORE_START,1516296437987,95
595,PLAYER_SLEEPBEFORE_END,1516296461542,95
595,WS_SEND_START,1516296461542,95
595,WS_SEND_END,1516296461542,95
595,WS_RECV_START,1516296461542,96
595,WS_RECV_END,1516296468445,96
595,PLAYER_SLEEPBEFORE_START,1516296468445,97
595,PLAYER_SLEEPBEFORE_END,1516296490885,97
595,WS_SEND_START,1516296490885,97
595,WS_SEND_END,1516296490885,97
595,WS_RECV_START,1516296490885,98
595,WS_RECV_END,1516296500539,98
595,PLAYER_SLEEPBEFORE_START,1516296500539,99
595,PLAYER_SLEEPBEFORE_END,1516296500562,99
595,WS_SEND_START,1516296500562,99
595,WS_SEND_END,1516296500562,99
595,WS_RECV_START,1516296500562,100
595,WS_RECV_END,1516296504667,100
595,PLAYER_SLEEPBEFORE_START,1516296504667,101
595,PLAYER_SLEEPBEFORE_END,1516296528226,101
595,WS_SEND_START,1516296528226,101
595,WS_SEND_END,1516296528226,101
595,WS_RECV_START,1516296528226,102
595,WS_RECV_END,1516296536747,102
595,PLAYER_SLEEPBEFORE_START,1516296536747,103
595,PLAYER_SLEEPBEFORE_END,1516296560372,103
595,WS_SEND_START,1516296560372,103
595,WS_SEND_END,1516296560372,103
595,WS_RECV_START,1516296560372,104
595,WS_RECV_END,1516296567705,104
595,PLAYER_SLEEPBEFORE_START,1516296567705,105
595,PLAYER_SLEEPBEFORE_END,1516296593082,105
595,WS_SEND_START,1516296593082,105
595,WS_SEND_END,1516296593082,105
595,WS_RECV_START,1516296593082,106
595,WS_RECV_END,1516296598410,106
595,PLAYER_SLEEPBEFORE_START,1516296598410,107
595,PLAYER_SLEEPBEFORE_END,1516296621833,107
595,WS_SEND_START,1516296621833,107
595,WS_SEND_END,1516296621833,107
595,WS_RECV_START,1516296621833,108
595,WS_RECV_END,1516296623543,108
595,PLAYER_SLEEPBEFORE_START,1516296623543,109
595,PLAYER_SLEEPBEFORE_END,1516296623552,109
595,WS_SEND_START,1516296623553,109
595,WS_SEND_END,1516296623553,109
595,WS_RECV_START,1516296623553,110
595,WS_RECV_END,1516296624314,110
595,PLAYER_SLEEPBEFORE_START,1516296624314,111
595,PLAYER_SLEEPBEFORE_END,1516296625273,111
595,WS_SEND_START,1516296625273,111
595,WS_SEND_END,1516296625273,111
595,WS_RECV_START,1516296625273,112
595,WS_RECV_END,1516296625822,112
595,PLAYER_SLEEPBEFORE_START,1516296625822,113
595,PLAYER_SLEEPBEFORE_END,1516296626384,113
595,WS_SEND_START,1516296626384,113
595,WS_SEND_END,1516296626384,113
595,WS_RECV_START,1516296626384,114
595,WS_RECV_END,1516296628226,114
595,PLAYER_SLEEPBEFORE_START,1516296628226,115
595,PLAYER_SLEEPBEFORE_END,1516296628235,115
595,WS_SEND_START,1516296628235,115
595,WS_SEND_END,1516296628235,115
595,WS_RECV_START,1516296628235,116
595,WS_RECV_END,1516296630077,116
595,PLAYER_SLEEPBEFORE_START,1516296630077,117
595,PLAYER_SLEEPBEFORE_END,1516296650437,117
595,WS_SEND_START,1516296650437,117
595,WS_SEND_END,1516296650437,117
595,PLAYER_SLEEPBEFORE_START,1516296650437,118
595,PLAYER_SLEEPBEFORE_END,1516296654189,118
595,WS_SEND_START,1516296654189,118
595,WS_SEND_END,1516296654189,118
595,WS_RECV_START,1516296654189,119
595,WS_RECV_END,1516296655904,119
595,PLAYER_SLEEPBEFORE_START,1516296655904,120
595,PLAYER_SLEEPBEFORE_END,1516296656892,120
595,WS_SEND_START,1516296656892,120
595,WS_SEND_END,1516296656892,120
595,WS_RECV_START,1516296656892,121
595,WS_RECV_END,1516296658488,121
595,PLAYER_SLEEPBEFORE_START,1516296658488,122
595,PLAYER_SLEEPBEFORE_END,1516296659673,122
595,WS_SEND_START,1516296659673,122
595,WS_SEND_END,1516296659673,122
595,WS_RECV_START,1516296659673,123
595,WS_RECV_END,1516296660640,123
595,PLAYER_SLEEPBEFORE_START,1516296660640,124
595,PLAYER_SLEEPBEFORE_END,1516296685045,124
595,WS_SEND_START,1516296685045,124
595,WS_SEND_END,1516296685045,124
595,WS_RECV_START,1516296685045,125
595,WS_RECV_END,1516296687336,125
595,PLAYER_SLEEPBEFORE_START,1516296687336,126
595,PLAYER_SLEEPBEFORE_END,1516296707848,126
595,WS_SEND_START,1516296707848,126
595,WS_SEND_END,1516296707848,126
595,PLAYER_SLEEPBEFORE_START,1516296707848,127
595,PLAYER_SLEEPBEFORE_END,1516296710902,127
595,WS_SEND_START,1516296710902,127
595,WS_SEND_END,1516296710902,127
595,WS_RECV_START,1516296710902,128
595,WS_RECV_END,1516296712146,128
595,PLAYER_SLEEPBEFORE_START,1516296712146,129
595,PLAYER_SLEEPBEFORE_END,1516296712166,129
595,WS_SEND_START,1516296712166,129
595,WS_SEND_END,1516296712166,129
595,WS_RECV_START,1516296712166,130
595,WS_RECV_END,1516296712773,130
595,PLAYER_SLEEPBEFORE_START,1516296712773,131
595,PLAYER_SLEEPBEFORE_END,1516296734397,131
595,WS_SEND_START,1516296734397,131
595,WS_SEND_END,1516296734397,131
595,PLAYER_SLEEPBEFORE_START,1516296734397,132
595,PLAYER_SLEEPBEFORE_END,1516296737480,132
595,WS_SEND_START,1516296737480,132
595,WS_SEND_END,1516296737480,132
595,WS_RECV_START,1516296737480,133
595,WS_RECV_END,1516296737921,133
595,PLAYER_SLEEPBEFORE_START,1516296737921,134
595,PLAYER_SLEEPBEFORE_END,1516296759138,134
595,WS_SEND_START,1516296759138,134
595,WS_SEND_END,1516296759138,134
595,PLAYER_SLEEPBEFORE_START,1516296759138,135
595,PLAYER_SLEEPBEFORE_END,1516296762328,135
595,WS_SEND_START,1516296762328,135
595,WS_SEND_END,1516296762328,135
595,WS_RECV_START,1516296762328,136
595,WS_RECV_END,1516296763273,136
595,PLAYER_SLEEPBEFORE_START,1516296763273,137
595,PLAYER_SLEEPBEFORE_END,1516296763281,137
595,WS_SEND_START,1516296763281,137
595,WS_SEND_END,1516296763281,137
595,WS_RECV_START,1516296763281,138
595,WS_RECV_END,1516296763573,138
595,PLAYER_SLEEPBEFORE_START,1516296763573,139
595,PLAYER_SLEEPBEFORE_END,1516296764264,139
595,WS_SEND_START,1516296764264,139
595,WS_SEND_END,1516296764264,139
595,WS_RECV_START,1516296764264,140
595,WS_RECV_END,1516296764456,140
595,PLAYER_SLEEPBEFORE_START,1516296764456,141
595,PLAYER_SLEEPBEFORE_END,1516296765111,141
595,WS_SEND_START,1516296765111,141
595,WS_SEND_END,1516296765111,141
595,WS_RECV_START,1516296765111,142
595,WS_RECV_END,1516296765298,142
595,PLAYER_SLEEPBEFORE_START,1516296765298,143
595,PLAYER_SLEEPBEFORE_END,1516296765355,143
595,WS_SEND_START,1516296765355,143
595,WS_SEND_END,1516296765355,143
595,WS_RECV_START,1516296765355,144
595,WS_RECV_END,1516296765553,144
595,PLAYER_SLEEPBEFORE_START,1516296765553,145
595,PLAYER_SLEEPBEFORE_END,1516296781615,145
595,REQ_START,1516296781615,145
595,REQ_END,1516296781623,145
595,PLAYER_SLEEPBEFORE_START,1516296781623,146
595,PLAYER_SLEEPBEFORE_END,1516296790500,146
595,WS_SEND_START,1516296790500,146
595,WS_SEND_END,1516296790500,146
595,WS_RECV_START,1516296790500,147
595,WS_RECV_END,1516296790655,147
595,PLAYER_SLEEPBEFORE_START,1516296790655,148
595,PLAYER_SLEEPBEFORE_END,1516296812577,148
595,WS_SEND_START,1516296812577,148
595,WS_SEND_END,1516296812577,148
595,PLAYER_SLEEPBEFORE_START,1516296812577,149
595,PLAYER_SLEEPBEFORE_END,1516296815005,149
595,WS_SEND_START,1516296815005,149
595,WS_SEND_END,1516296815005,149
595,WS_RECV_START,1516296815005,150
595,WS_RECV_END,1516296815133,150
595,PLAYER_SLEEPBEFORE_START,1516296815133,151
595,PLAYER_SLEEPBEFORE_END,1516296815343,151
595,WS_SEND_START,1516296815343,151
595,WS_SEND_END,1516296815344,151
595,WS_RECV_START,1516296815344,152
595,WS_RECV_END,1516296815466,152
595,PLAYER_SLEEPBEFORE_START,1516296815466,153
595,PLAYER_SLEEPBEFORE_END,1516296839393,153
595,WS_SEND_START,1516296839393,153
595,WS_SEND_END,1516296839393,153
595,WS_RECV_START,1516296839393,154
595,WS_RECV_END,1516296839500,154
595,PLAYER_SLEEPBEFORE_START,1516296839500,155
595,PLAYER_SLEEPBEFORE_END,1516296862058,155
595,WS_SEND_START,1516296862058,155
595,WS_SEND_END,1516296862058,155
595,PLAYER_SLEEPBEFORE_START,1516296862058,156
595,PLAYER_SLEEPBEFORE_END,1516296865332,156
595,WS_SEND_START,1516296865332,156
595,WS_SEND_END,1516296865332,156
595,WS_RECV_START,1516296865332,157
595,WS_RECV_END,1516296865366,157
595,PLAYER_SLEEPBEFORE_START,1516296865366,158
595,PLAYER_SLEEPBEFORE_END,1516296865377,158
595,WS_SEND_START,1516296865377,158
595,WS_SEND_END,1516296865377,158
595,WS_RECV_START,1516296865377,159
595,WS_RECV_END,1516296865417,159
595,PLAYER_SLEEPBEFORE_START,1516296865417,160
595,PLAYER_SLEEPBEFORE_END,1516296865592,160
595,WS_SEND_START,1516296865592,160
595,WS_SEND_END,1516296865592,160
595,WS_RECV_START,1516296865592,161
595,WS_RECV_END,1516296865887,161
595,PLAYER_SLEEPBEFORE_START,1516296865887,162
595,PLAYER_SLEEPBEFORE_END,1516296865912,162
595,WS_SEND_START,1516296865912,162
595,WS_SEND_END,1516296865912,162
595,WS_RECV_START,1516296865912,163
595,WS_RECV_END,1516296866058,163
595,PLAYER_SLEEPBEFORE_START,1516296866058,164
595,PLAYER_SLEEPBEFORE_END,1516296886870,164
595,WS_SEND_START,1516296886870,164
595,WS_SEND_END,1516296886870,164
595,WS_RECV_START,1516296886870,165
595,WS_RECV_END,1516296887035,165
595,PLAYER_SLEEPBEFORE_START,1516296887035,166
595,PLAYER_SLEEPBEFORE_END,1516296909491,166
595,WS_SEND_START,1516296909491,166
595,WS_SEND_END,1516296909491,166
595,WS_RECV_START,1516296909491,167
595,WS_RECV_END,1516296909618,167
595,PLAYER_SLEEPBEFORE_START,1516296909618,168
595,PLAYER_SLEEPBEFORE_END,1516296936975,168
595,WS_SEND_START,1516296936975,168
595,WS_SEND_END,1516296936975,168
595,WS_RECV_START,1516296936975,169
595,WS_RECV_END,1516296937129,169
595,PLAYER_SLEEPBEFORE_START,1516296937129,170
595,PLAYER_SLEEPBEFORE_END,1516296937139,170
595,WS_SEND_START,1516296937139,170
595,WS_SEND_END,1516296937139,170
595,WS_RECV_START,1516296937139,171
595,WS_RECV_END,1516296937281,171
595,PLAYER_SLEEPBEFORE_START,1516296937281,172
595,PLAYER_SLEEPBEFORE_END,1516296937650,172
595,WS_SEND_START,1516296937650,172
595,WS_SEND_END,1516296937650,172
595,WS_RECV_START,1516296937650,173
595,WS_RECV_END,1516296937797,173
595,PLAYER_SLEEPBEFORE_START,1516296937797,174
595,PLAYER_SLEEPBEFORE_END,1516296937838,174
595,WS_SEND_START,1516296937838,174
595,WS_SEND_END,1516296937838,174
595,WS_RECV_START,1516296937838,175
595,WS_RECV_END,1516296937956,175
595,PLAYER_SLEEPBEFORE_START,1516296937956,176
595,PLAYER_SLEEPBEFORE_END,1516296959718,176
595,WS_SEND_START,1516296959718,176
595,WS_SEND_END,1516296959718,176
595,PLAYER_SLEEPBEFORE_START,1516296959718,177
595,PLAYER_SLEEPBEFORE_END,1516296962236,177
595,WS_SEND_START,1516296962236,177
595,WS_SEND_END,1516296962236,177
595,WS_RECV_START,1516296962236,178
595,WS_RECV_END,1516296962342,178
595,PLAYER_SLEEPBEFORE_START,1516296962342,179
595,PLAYER_SLEEPBEFORE_END,1516296984682,179
595,WS_SEND_START,1516296984682,179
595,WS_SEND_END,1516296984682,179
595,WS_RECV_START,1516296984682,180
595,WS_RECV_END,1516296984790,180
595,PLAYER_SLEEPBEFORE_START,1516296984790,181
595,PLAYER_SLEEPBEFORE_END,1516296985234,181
595,WS_SEND_START,1516296985234,181
595,WS_SEND_END,1516296985234,181
595,WS_RECV_START,1516296985234,182
595,WS_RECV_END,1516296985372,182
595,PLAYER_SLEEPBEFORE_START,1516296985372,183
595,PLAYER_SLEEPBEFORE_END,1516296985895,183
595,WS_SEND_START,1516296985895,183
595,WS_SEND_END,1516296985895,183
595,WS_RECV_START,1516296985895,184
595,WS_RECV_END,1516296986005,184
595,PLAYER_SLEEPBEFORE_START,1516296986005,185
595,PLAYER_SLEEPBEFORE_END,1516296986273,185
595,WS_SEND_START,1516296986273,185
595,WS_SEND_END,1516296986273,185
595,WS_RECV_START,1516296986273,186
595,WS_RECV_END,1516296986377,186
595,PLAYER_SLEEPBEFORE_START,1516296986377,187
595,PLAYER_SLEEPBEFORE_END,1516297008877,187
595,WS_SEND_START,1516297008877,187
595,WS_SEND_END,1516297008877,187
595,WS_RECV_START,1516297008877,188
595,WS_RECV_END,1516297008915,188
595,PLAYER_SLEEPBEFORE_START,1516297008915,189
595,PLAYER_SLEEPBEFORE_END,1516297015154,189
595,WS_SEND_START,1516297015154,189
595,WS_SEND_END,1516297015154,189
595,WS_RECV_START,1516297015154,190
595,WS_RECV_END,1516297015260,190
595,PLAYER_SLEEPBEFORE_START,1516297015260,191
595,PLAYER_SLEEPBEFORE_END,1516297017176,191
595,WS_SEND_START,1516297017176,191
595,WS_SEND_END,1516297017176,191
595,WS_RECV_START,1516297017176,192
595,WS_RECV_END,1516297017303,192
595,PLAYER_SLEEPBEFORE_START,1516297017303,193
595,PLAYER_SLEEPBEFORE_END,1516297017431,193
595,WS_SEND_START,1516297017431,193
595,WS_SEND_END,1516297017431,193
595,WS_RECV_START,1516297017431,194
595,WS_RECV_END,1516297017527,194
595,PLAYER_SLEEPBEFORE_START,1516297017527,195
595,PLAYER_SLEEPBEFORE_END,1516297019283,195
595,WS_SEND_START,1516297019283,195
595,WS_SEND_END,1516297019283,195
595,WS_RECV_START,1516297019283,196
595,WS_RECV_END,1516297019383,196
595,PLAYER_SLEEPBEFORE_START,1516297019383,197
595,PLAYER_SLEEPBEFORE_END,1516297021187,197
595,WS_SEND_START,1516297021187,197
595,WS_SEND_END,1516297021187,197
595,WS_RECV_START,1516297021187,198
595,WS_RECV_END,1516297021321,198
595,PLAYER_SLEEPBEFORE_START,1516297021321,199
595,PLAYER_SLEEPBEFORE_END,1516297033175,199
595,WS_SEND_START,1516297033175,199
595,WS_SEND_END,1516297033175,199
595,PLAYER_SLEEPBEFORE_START,1516297033175,200
595,PLAYER_SLEEPBEFORE_END,1516297037263,200
595,WS_SEND_START,1516297037263,200
595,WS_SEND_END,1516297037263,200
595,WS_RECV_START,1516297037264,201
595,WS_RECV_END,1516297037347,201
595,PLAYER_SLEEPBEFORE_START,1516297037347,202
595,PLAYER_SLEEPBEFORE_END,1516297037361,202
595,WS_SEND_START,1516297037361,202
595,WS_SEND_END,1516297037361,202
595,WS_RECV_START,1516297037361,203
595,WS_RECV_END,1516297037469,203
595,PLAYER_SLEEPBEFORE_START,1516297037469,204
595,PLAYER_SLEEPBEFORE_END,1516297057118,204
595,WS_SEND_START,1516297057118,204
595,WS_SEND_END,1516297057118,204
595,PLAYER_SLEEPBEFORE_START,1516297057118,205
595,PLAYER_SLEEPBEFORE_END,1516297061016,205
595,WS_SEND_START,1516297061016,205
595,WS_SEND_END,1516297061016,205
595,WS_RECV_START,1516297061016,206
595,WS_RECV_END,1516297061117,206
595,PLAYER_SLEEPBEFORE_START,1516297061117,207
595,PLAYER_SLEEPBEFORE_END,1516297078048,207
595,REQ_START,1516297078048,207
595,REQ_END,1516297078056,207
595,PLAYER_SLEEPBEFORE_START,1516297078056,208
595,PLAYER_SLEEPBEFORE_END,1516297084908,208
595,WS_CLOSE_START,1516297084908,208
595,WS_CLOSE_END,1516297084908,208
595,PLAYER_DONE,1516297084909
