# --sessions 630 --app-url=http://shinyloadtest.rstudioservices.com/cran_explorer --output-dir test630 --overwrite-output --log-level warn --start-interval 800 15min.log
thread_id,event,timestamp,input_line_number,comment
597,PLAYER_SESSION_CREATE,1516295501300
597,PLAYER_START_INTERVAL_START,1516295501300
597,PLAYER_START_INTERVAL_END,1516295978900
597,REQ_HOME_START,1516295978900,2
597,REQ_HOME_END,1516295982113,2
597,REQ_START,1516295982113,3
597,REQ_END,1516295986976,3
597,REQ_START,1516295986976,4
597,REQ_END,1516295991102,4
597,REQ_START,1516295991102,5
597,REQ_END,1516295994691,5
597,REQ_START,1516295994691,6
597,REQ_END,1516295998904,6
597,REQ_START,1516295998904,7
597,REQ_END,1516296003057,7
597,REQ_START,1516296003058,8
597,REQ_END,1516296009499,8
597,REQ_START,1516296009499,9
597,REQ_END,1516296014234,9
597,REQ_START,1516296014234,10
597,REQ_END,1516296014244,10
597,REQ_START,1516296014244,11
597,REQ_END,1516296018977,11
597,REQ_START,1516296018977,12
597,REQ_END,1516296018994,12
597,REQ_START,1516296018994,13
597,REQ_END,1516296024300,13
597,REQ_START,1516296024300,14
597,REQ_END,1516296024337,14
597,REQ_START,1516296024337,15
597,REQ_END,1516296029830,15
597,REQ_TOK_START,1516296029830,16
597,REQ_TOK_END,1516296029839,16
597,REQ_SINF_START,1516296029839,17
597,REQ_SINF_END,1516296029847,17
597,WS_OPEN_START,1516296029847,18
597,WS_OPEN_END,1516296029858,18
597,REQ_START,1516296029858,19
597,REQ_END,1516296035209,19
597,WS_RECV_START,1516296035210,20
597,WS_RECV_END,1516296035210,20
597,PLAYER_SLEEPBEFORE_START,1516296035210,21
597,PLAYER_SLEEPBEFORE_END,1516296035215,21
597,WS_SEND_START,1516296035215,21
597,WS_SEND_END,1516296035215,21
597,PLAYER_SLEEPBEFORE_START,1516296035215,22
597,PLAYER_SLEEPBEFORE_END,1516296035216,22
597,WS_SEND_START,1516296035216,22
597,WS_SEND_END,1516296035216,22
597,WS_RECV_INIT_START,1516296035216,23
597,WS_RECV_INIT_END,1516296043619,23
597,WS_RECV_START,1516296043619,24
597,WS_RECV_END,1516296044672,24
597,PLAYER_SLEEPBEFORE_START,1516296044672,25
597,PLAYER_SLEEPBEFORE_END,1516296044679,25
597,REQ_START,1516296044679,25
597,REQ_END,1516296051458,25
597,PLAYER_SLEEPBEFORE_START,1516296051458,26
597,PLAYER_SLEEPBEFORE_END,1516296051460,26
597,REQ_START,1516296051460,26
597,REQ_END,1516296055387,26
597,PLAYER_SLEEPBEFORE_START,1516296055387,27
597,PLAYER_SLEEPBEFORE_END,1516296055390,27
597,REQ_START,1516296055390,27
597,REQ_END,1516296061330,27
597,PLAYER_SLEEPBEFORE_START,1516296061330,28
597,PLAYER_SLEEPBEFORE_END,1516296061615,28
597,REQ_START,1516296061615,28
597,REQ_END,1516296065663,28
597,PLAYER_SLEEPBEFORE_START,1516296065663,29
597,PLAYER_SLEEPBEFORE_END,1516296065838,29
597,WS_SEND_START,1516296065838,29
597,WS_SEND_END,1516296065838,29
597,WS_RECV_START,1516296065838,30
597,WS_RECV_END,1516296069118,30
597,PLAYER_SLEEPBEFORE_START,1516296069118,31
597,PLAYER_SLEEPBEFORE_END,1516296069129,31
597,REQ_START,1516296069129,31
597,REQ_END,1516296074276,31
597,PLAYER_SLEEPBEFORE_START,1516296074276,32
597,PLAYER_SLEEPBEFORE_END,1516296102421,32
597,WS_SEND_START,1516296102421,32
597,WS_SEND_END,1516296102421,32
597,WS_RECV_START,1516296102421,33
597,WS_RECV_END,1516296105548,33
597,PLAYER_SLEEPBEFORE_START,1516296105548,34
597,PLAYER_SLEEPBEFORE_END,1516296131459,34
597,WS_SEND_START,1516296131460,34
597,WS_SEND_END,1516296131460,34
597,WS_RECV_START,1516296131460,35
597,WS_RECV_END,1516296135489,35
597,PLAYER_SLEEPBEFORE_START,1516296135489,36
597,PLAYER_SLEEPBEFORE_END,1516296135498,36
597,WS_SEND_START,1516296135498,36
597,WS_SEND_END,1516296135498,36
597,WS_RECV_START,1516296135498,37
597,WS_RECV_END,1516296136678,37
597,PLAYER_SLEEPBEFORE_START,1516296136678,38
597,PLAYER_SLEEPBEFORE_END,1516296139873,38
597,WS_SEND_START,1516296139873,38
597,WS_SEND_END,1516296139873,38
597,WS_RECV_START,1516296139873,39
597,WS_RECV_END,1516296145905,39
597,PLAYER_SLEEPBEFORE_START,1516296145905,40
597,PLAYER_SLEEPBEFORE_END,1516296145951,40
597,WS_SEND_START,1516296145951,40
597,WS_SEND_END,1516296145951,40
597,WS_RECV_START,1516296145951,41
597,WS_RECV_END,1516296148852,41
597,PLAYER_SLEEPBEFORE_START,1516296148852,42
597,PLAYER_SLEEPBEFORE_END,1516296166987,42
597,WS_SEND_START,1516296166987,42
597,WS_SEND_END,1516296166987,42
597,WS_RECV_START,1516296166987,43
597,WS_RECV_END,1516296173446,43
597,PLAYER_SLEEPBEFORE_START,1516296173446,44
597,PLAYER_SLEEPBEFORE_END,1516296173458,44
597,WS_SEND_START,1516296173458,44
597,WS_SEND_END,1516296173458,44
597,WS_RECV_START,1516296173458,45
597,WS_RECV_END,1516296176150,45
597,PLAYER_SLEEPBEFORE_START,1516296176150,46
597,PLAYER_SLEEPBEFORE_END,1516296177410,46
597,WS_SEND_START,1516296177410,46
597,WS_SEND_END,1516296177410,46
597,WS_RECV_START,1516296177410,47
597,WS_RECV_END,1516296180020,47
597,PLAYER_SLEEPBEFORE_START,1516296180020,48
597,PLAYER_SLEEPBEFORE_END,1516296181340,48
597,WS_SEND_START,1516296181341,48
597,WS_SEND_END,1516296181341,48
597,WS_RECV_START,1516296181341,49
597,WS_RECV_END,1516296184221,49
597,PLAYER_SLEEPBEFORE_START,1516296184221,50
597,PLAYER_SLEEPBEFORE_END,1516296184246,50
597,WS_SEND_START,1516296184246,50
597,WS_SEND_END,1516296184246,50
597,WS_RECV_START,1516296184246,51
597,WS_RECV_END,1516296188729,51
597,PLAYER_SLEEPBEFORE_START,1516296188729,52
597,PLAYER_SLEEPBEFORE_END,1516296211294,52
597,WS_SEND_START,1516296211294,52
597,WS_SEND_END,1516296211294,52
597,WS_RECV_START,1516296211294,53
597,WS_RECV_END,1516296215619,53
597,PLAYER_SLEEPBEFORE_START,1516296215619,54
597,PLAYER_SLEEPBEFORE_END,1516296236922,54
597,WS_SEND_START,1516296236922,54
597,WS_SEND_END,1516296236922,54
597,PLAYER_SLEEPBEFORE_START,1516296236922,55
597,PLAYER_SLEEPBEFORE_END,1516296238863,55
597,WS_SEND_START,1516296238863,55
597,WS_SEND_END,1516296238863,55
597,WS_RECV_START,1516296238863,56
597,WS_RECV_END,1516296240987,56
597,PLAYER_SLEEPBEFORE_START,1516296240987,57
597,PLAYER_SLEEPBEFORE_END,1516296263859,57
597,WS_SEND_START,1516296263859,57
597,WS_SEND_END,1516296263859,57
597,WS_RECV_START,1516296263859,58
597,WS_RECV_END,1516296267602,58
597,PLAYER_SLEEPBEFORE_START,1516296267602,59
597,PLAYER_SLEEPBEFORE_END,1516296269929,59
597,WS_SEND_START,1516296269929,59
597,WS_SEND_END,1516296269929,59
597,WS_RECV_START,1516296269929,60
597,WS_RECV_END,1516296275015,60
597,PLAYER_SLEEPBEFORE_START,1516296275015,61
597,PLAYER_SLEEPBEFORE_END,1516296278607,61
597,WS_SEND_START,1516296278607,61
597,WS_SEND_END,1516296278607,61
597,WS_RECV_START,1516296278607,62
597,WS_RECV_END,1516296283181,62
597,PLAYER_SLEEPBEFORE_START,1516296283181,63
597,PLAYER_SLEEPBEFORE_END,1516296302443,63
597,WS_SEND_START,1516296302443,63
597,WS_SEND_END,1516296302443,63
597,WS_RECV_START,1516296302443,64
597,WS_RECV_END,1516296305135,64
597,PLAYER_SLEEPBEFORE_START,1516296305135,65
597,PLAYER_SLEEPBEFORE_END,1516296331952,65
597,WS_SEND_START,1516296331952,65
597,WS_SEND_END,1516296331952,65
597,WS_RECV_START,1516296331952,66
597,WS_RECV_END,1516296336821,66
597,PLAYER_SLEEPBEFORE_START,1516296336821,67
597,PLAYER_SLEEPBEFORE_END,1516296338328,67
597,WS_SEND_START,1516296338328,67
597,WS_SEND_END,1516296338328,67
597,WS_RECV_START,1516296338328,68
597,WS_RECV_END,1516296344527,68
597,PLAYER_SLEEPBEFORE_START,1516296344528,69
597,PLAYER_SLEEPBEFORE_END,1516296366526,69
597,WS_SEND_START,1516296366526,69
597,WS_SEND_END,1516296366526,69
597,WS_RECV_START,1516296366526,70
597,WS_RECV_END,1516296371133,70
597,PLAYER_SLEEPBEFORE_START,1516296371133,71
597,PLAYER_SLEEPBEFORE_END,1516296395908,71
597,WS_SEND_START,1516296395908,71
597,WS_SEND_END,1516296395908,71
597,PLAYER_SLEEPBEFORE_START,1516296395908,72
597,PLAYER_SLEEPBEFORE_END,1516296398515,72
597,WS_SEND_START,1516296398515,72
597,WS_SEND_END,1516296398515,72
597,WS_RECV_START,1516296398515,73
597,WS_RECV_END,1516296402476,73
597,PLAYER_SLEEPBEFORE_START,1516296402476,74
597,PLAYER_SLEEPBEFORE_END,1516296402486,74
597,WS_SEND_START,1516296402486,74
597,WS_SEND_END,1516296402486,74
597,WS_RECV_START,1516296402486,75
597,WS_RECV_END,1516296406906,75
597,PLAYER_SLEEPBEFORE_START,1516296406906,76
597,PLAYER_SLEEPBEFORE_END,1516296408412,76
597,WS_SEND_START,1516296408412,76
597,WS_SEND_END,1516296408412,76
597,WS_RECV_START,1516296408412,77
597,WS_RECV_END,1516296410042,77
597,PLAYER_SLEEPBEFORE_START,1516296410042,78
597,PLAYER_SLEEPBEFORE_END,1516296410910,78
597,WS_SEND_START,1516296410910,78
597,WS_SEND_END,1516296410910,78
597,WS_RECV_START,1516296410910,79
597,WS_RECV_END,1516296414913,79
597,PLAYER_SLEEPBEFORE_START,1516296414913,80
597,PLAYER_SLEEPBEFORE_END,1516296422579,80
597,WS_SEND_START,1516296422579,80
597,WS_SEND_END,1516296422579,80
597,WS_RECV_START,1516296422579,81
597,WS_RECV_END,1516296428366,81
597,PLAYER_SLEEPBEFORE_START,1516296428366,82
597,PLAYER_SLEEPBEFORE_END,1516296429468,82
597,WS_SEND_START,1516296429468,82
597,WS_SEND_END,1516296429469,82
597,WS_RECV_START,1516296429469,83
597,WS_RECV_END,1516296436274,83
597,PLAYER_SLEEPBEFORE_START,1516296436274,84
597,PLAYER_SLEEPBEFORE_END,1516296437222,84
597,WS_SEND_START,1516296437222,84
597,WS_SEND_END,1516296437222,84
597,WS_RECV_START,1516296437222,85
597,WS_RECV_END,1516296440706,85
597,PLAYER_SLEEPBEFORE_START,1516296440706,86
597,PLAYER_SLEEPBEFORE_END,1516296444879,86
597,WS_SEND_START,1516296444879,86
597,WS_SEND_END,1516296444879,86
597,WS_RECV_START,1516296444879,87
597,WS_RECV_END,1516296453234,87
597,PLAYER_SLEEPBEFORE_START,1516296453234,88
597,PLAYER_SLEEPBEFORE_END,1516296453242,88
597,WS_SEND_START,1516296453242,88
597,WS_SEND_END,1516296453242,88
597,WS_RECV_START,1516296453242,89
597,WS_RECV_END,1516296457511,89
597,PLAYER_SLEEPBEFORE_START,1516296457511,90
597,PLAYER_SLEEPBEFORE_END,1516296484708,90
597,REQ_START,1516296484708,90
597,REQ_END,1516296484716,90
597,PLAYER_SLEEPBEFORE_START,1516296484716,91
597,PLAYER_SLEEPBEFORE_END,1516296492605,91
597,WS_SEND_START,1516296492605,91
597,WS_SEND_END,1516296492605,91
597,WS_RECV_START,1516296492605,92
597,WS_RECV_END,1516296498739,92
597,PLAYER_SLEEPBEFORE_START,1516296498739,93
597,PLAYER_SLEEPBEFORE_END,1516296498754,93
597,WS_SEND_START,1516296498754,93
597,WS_SEND_END,1516296498754,93
597,WS_RECV_START,1516296498754,94
597,WS_RECV_END,1516296503108,94
597,PLAYER_SLEEPBEFORE_START,1516296503108,95
597,PLAYER_SLEEPBEFORE_END,1516296526663,95
597,WS_SEND_START,1516296526663,95
597,WS_SEND_END,1516296526663,95
597,WS_RECV_START,1516296526664,96
597,WS_RECV_END,1516296538416,96
597,PLAYER_SLEEPBEFORE_START,1516296538416,97
597,PLAYER_SLEEPBEFORE_END,1516296560856,97
597,WS_SEND_START,1516296560857,97
597,WS_SEND_END,1516296560857,97
597,WS_RECV_START,1516296560857,98
597,WS_RECV_END,1516296572060,98
597,PLAYER_SLEEPBEFORE_START,1516296572060,99
597,PLAYER_SLEEPBEFORE_END,1516296572081,99
597,WS_SEND_START,1516296572081,99
597,WS_SEND_END,1516296572081,99
597,WS_RECV_START,1516296572081,100
597,WS_RECV_END,1516296576949,100
597,PLAYER_SLEEPBEFORE_START,1516296576949,101
597,PLAYER_SLEEPBEFORE_END,1516296600508,101
597,WS_SEND_START,1516296600508,101
597,WS_SEND_END,1516296600508,101
597,WS_RECV_START,1516296600508,102
597,WS_RECV_END,1516296606435,102
597,PLAYER_SLEEPBEFORE_START,1516296606435,103
597,PLAYER_SLEEPBEFORE_END,1516296630060,103
597,WS_SEND_START,1516296630060,103
597,WS_SEND_END,1516296630060,103
597,WS_RECV_START,1516296630060,104
597,WS_RECV_END,1516296636047,104
597,PLAYER_SLEEPBEFORE_START,1516296636047,105
597,PLAYER_SLEEPBEFORE_END,1516296661424,105
597,WS_SEND_START,1516296661424,105
597,WS_SEND_END,1516296661424,105
597,WS_RECV_START,1516296661424,106
597,WS_RECV_END,1516296666890,106
597,PLAYER_SLEEPBEFORE_START,1516296666890,107
597,PLAYER_SLEEPBEFORE_END,1516296690313,107
597,WS_SEND_START,1516296690314,107
597,WS_SEND_END,1516296690314,107
597,WS_RECV_START,1516296690314,108
597,WS_RECV_END,1516296692695,108
597,PLAYER_SLEEPBEFORE_START,1516296692695,109
597,PLAYER_SLEEPBEFORE_END,1516296692704,109
597,WS_SEND_START,1516296692704,109
597,WS_SEND_END,1516296692704,109
597,WS_RECV_START,1516296692704,110
597,WS_RECV_END,1516296693558,110
597,PLAYER_SLEEPBEFORE_START,1516296693558,111
597,PLAYER_SLEEPBEFORE_END,1516296694517,111
597,WS_SEND_START,1516296694517,111
597,WS_SEND_END,1516296694517,111
597,WS_RECV_START,1516296694517,112
597,WS_RECV_END,1516296694680,112
597,PLAYER_SLEEPBEFORE_START,1516296694680,113
597,PLAYER_SLEEPBEFORE_END,1516296695242,113
597,WS_SEND_START,1516296695242,113
597,WS_SEND_END,1516296695242,113
597,WS_RECV_START,1516296695242,114
597,WS_RECV_END,1516296696435,114
597,PLAYER_SLEEPBEFORE_START,1516296696435,115
597,PLAYER_SLEEPBEFORE_END,1516296696444,115
597,WS_SEND_START,1516296696444,115
597,WS_SEND_END,1516296696444,115
597,WS_RECV_START,1516296696444,116
597,WS_RECV_END,1516296698235,116
597,PLAYER_SLEEPBEFORE_START,1516296698235,117
597,PLAYER_SLEEPBEFORE_END,1516296718595,117
597,WS_SEND_START,1516296718595,117
597,WS_SEND_END,1516296718595,117
597,PLAYER_SLEEPBEFORE_START,1516296718595,118
597,PLAYER_SLEEPBEFORE_END,1516296722348,118
597,WS_SEND_START,1516296722348,118
597,WS_SEND_END,1516296722348,118
597,WS_RECV_START,1516296722348,119
597,WS_RECV_END,1516296723718,119
597,PLAYER_SLEEPBEFORE_START,1516296723718,120
597,PLAYER_SLEEPBEFORE_END,1516296724706,120
597,WS_SEND_START,1516296724706,120
597,WS_SEND_END,1516296724706,120
597,WS_RECV_START,1516296724706,121
597,WS_RECV_END,1516296727228,121
597,PLAYER_SLEEPBEFORE_START,1516296727228,122
597,PLAYER_SLEEPBEFORE_END,1516296728414,122
597,WS_SEND_START,1516296728414,122
597,WS_SEND_END,1516296728414,122
597,WS_RECV_START,1516296728414,123
597,WS_RECV_END,1516296731758,123
597,PLAYER_SLEEPBEFORE_START,1516296731758,124
597,PLAYER_SLEEPBEFORE_END,1516296756163,124
597,WS_SEND_START,1516296756163,124
597,WS_SEND_END,1516296756163,124
597,WS_RECV_START,1516296756163,125
597,WS_RECV_END,1516296757120,125
597,PLAYER_SLEEPBEFORE_START,1516296757120,126
597,PLAYER_SLEEPBEFORE_END,1516296777632,126
597,WS_SEND_START,1516296777632,126
597,WS_SEND_END,1516296777632,126
597,PLAYER_SLEEPBEFORE_START,1516296777632,127
597,PLAYER_SLEEPBEFORE_END,1516296780686,127
597,WS_SEND_START,1516296780686,127
597,WS_SEND_END,1516296780686,127
597,WS_RECV_START,1516296780686,128
597,WS_RECV_END,1516296781398,128
597,PLAYER_SLEEPBEFORE_START,1516296781398,129
597,PLAYER_SLEEPBEFORE_END,1516296781418,129
597,WS_SEND_START,1516296781418,129
597,WS_SEND_END,1516296781418,129
597,WS_RECV_START,1516296781418,130
597,WS_RECV_END,1516296782000,130
597,PLAYER_SLEEPBEFORE_START,1516296782000,131
597,PLAYER_SLEEPBEFORE_END,1516296803624,131
597,WS_SEND_START,1516296803624,131
597,WS_SEND_END,1516296803624,131
597,PLAYER_SLEEPBEFORE_START,1516296803624,132
597,PLAYER_SLEEPBEFORE_END,1516296806704,132
597,WS_SEND_START,1516296806704,132
597,WS_SEND_END,1516296806704,132
597,WS_RECV_START,1516296806704,133
597,WS_RECV_END,1516296807312,133
597,PLAYER_SLEEPBEFORE_START,1516296807312,134
597,PLAYER_SLEEPBEFORE_END,1516296828529,134
597,WS_SEND_START,1516296828529,134
597,WS_SEND_END,1516296828529,134
597,PLAYER_SLEEPBEFORE_START,1516296828529,135
597,PLAYER_SLEEPBEFORE_END,1516296831719,135
597,WS_SEND_START,1516296831719,135
597,WS_SEND_END,1516296831720,135
597,WS_RECV_START,1516296831720,136
597,WS_RECV_END,1516296831890,136
597,PLAYER_SLEEPBEFORE_START,1516296831890,137
597,PLAYER_SLEEPBEFORE_END,1516296831897,137
597,WS_SEND_START,1516296831897,137
597,WS_SEND_END,1516296831897,137
597,WS_RECV_START,1516296831897,138
597,WS_RECV_END,1516296831977,138
597,PLAYER_SLEEPBEFORE_START,1516296831977,139
597,PLAYER_SLEEPBEFORE_END,1516296832667,139
597,WS_SEND_START,1516296832667,139
597,WS_SEND_END,1516296832667,139
597,WS_RECV_START,1516296832667,140
597,WS_RECV_END,1516296832708,140
597,PLAYER_SLEEPBEFORE_START,1516296832708,141
597,PLAYER_SLEEPBEFORE_END,1516296833363,141
597,WS_SEND_START,1516296833363,141
597,WS_SEND_END,1516296833363,141
597,WS_RECV_START,1516296833363,142
597,WS_RECV_END,1516296833634,142
597,PLAYER_SLEEPBEFORE_START,1516296833634,143
597,PLAYER_SLEEPBEFORE_END,1516296833691,143
597,WS_SEND_START,1516296833691,143
597,WS_SEND_END,1516296833691,143
597,WS_RECV_START,1516296833691,144
597,WS_RECV_END,1516296833859,144
597,PLAYER_SLEEPBEFORE_START,1516296833859,145
597,PLAYER_SLEEPBEFORE_END,1516296849921,145
597,REQ_START,1516296849921,145
597,REQ_END,1516296849928,145
597,PLAYER_SLEEPBEFORE_START,1516296849928,146
597,PLAYER_SLEEPBEFORE_END,1516296858806,146
597,WS_SEND_START,1516296858806,146
597,WS_SEND_END,1516296858806,146
597,WS_RECV_START,1516296858806,147
597,WS_RECV_END,1516296858971,147
597,PLAYER_SLEEPBEFORE_START,1516296858971,148
597,PLAYER_SLEEPBEFORE_END,1516296880893,148
597,WS_SEND_START,1516296880893,148
597,WS_SEND_END,1516296880893,148
597,PLAYER_SLEEPBEFORE_START,1516296880893,149
597,PLAYER_SLEEPBEFORE_END,1516296883322,149
597,WS_SEND_START,1516296883322,149
597,WS_SEND_END,1516296883322,149
597,WS_RECV_START,1516296883322,150
597,WS_RECV_END,1516296883603,150
597,PLAYER_SLEEPBEFORE_START,1516296883603,151
597,PLAYER_SLEEPBEFORE_END,1516296883813,151
597,WS_SEND_START,1516296883813,151
597,WS_SEND_END,1516296883813,151
597,WS_RECV_START,1516296883813,152
597,WS_RECV_END,1516296884486,152
597,PLAYER_SLEEPBEFORE_START,1516296884486,153
597,PLAYER_SLEEPBEFORE_END,1516296908413,153
597,WS_SEND_START,1516296908413,153
597,WS_SEND_END,1516296908413,153
597,WS_RECV_START,1516296908413,154
597,WS_RECV_END,1516296908546,154
597,PLAYER_SLEEPBEFORE_START,1516296908546,155
597,PLAYER_SLEEPBEFORE_END,1516296931104,155
597,WS_SEND_START,1516296931104,155
597,WS_SEND_END,1516296931104,155
597,PLAYER_SLEEPBEFORE_START,1516296931104,156
597,PLAYER_SLEEPBEFORE_END,1516296934378,156
597,WS_SEND_START,1516296934378,156
597,WS_SEND_END,1516296934378,156
597,WS_RECV_START,1516296934378,157
597,WS_RECV_END,1516296934406,157
597,PLAYER_SLEEPBEFORE_START,1516296934406,158
597,PLAYER_SLEEPBEFORE_END,1516296934416,158
597,WS_SEND_START,1516296934416,158
597,WS_SEND_END,1516296934416,158
597,WS_RECV_START,1516296934416,159
597,WS_RECV_END,1516296934561,159
597,PLAYER_SLEEPBEFORE_START,1516296934561,160
597,PLAYER_SLEEPBEFORE_END,1516296934736,160
597,WS_SEND_START,1516296934736,160
597,WS_SEND_END,1516296934736,160
597,WS_RECV_START,1516296934736,161
597,WS_RECV_END,1516296934901,161
597,PLAYER_SLEEPBEFORE_START,1516296934901,162
597,PLAYER_SLEEPBEFORE_END,1516296934926,162
597,WS_SEND_START,1516296934926,162
597,WS_SEND_END,1516296934926,162
597,WS_RECV_START,1516296934926,163
597,WS_RECV_END,1516296935037,163
597,PLAYER_SLEEPBEFORE_START,1516296935037,164
597,PLAYER_SLEEPBEFORE_END,1516296955849,164
597,WS_SEND_START,1516296955849,164
597,WS_SEND_END,1516296955849,164
597,WS_RECV_START,1516296955849,165
597,WS_RECV_END,1516296955992,165
597,PLAYER_SLEEPBEFORE_START,1516296955992,166
597,PLAYER_SLEEPBEFORE_END,1516296978447,166
597,WS_SEND_START,1516296978447,166
597,WS_SEND_END,1516296978447,166
597,WS_RECV_START,1516296978447,167
597,WS_RECV_END,1516296978550,167
597,PLAYER_SLEEPBEFORE_START,1516296978550,168
597,PLAYER_SLEEPBEFORE_END,1516297005908,168
597,WS_SEND_START,1516297005908,168
597,WS_SEND_END,1516297005908,168
597,WS_RECV_START,1516297005908,169
597,WS_RECV_END,1516297005952,169
597,PLAYER_SLEEPBEFORE_START,1516297005952,170
597,PLAYER_SLEEPBEFORE_END,1516297005961,170
597,WS_SEND_START,1516297005961,170
597,WS_SEND_END,1516297005961,170
597,WS_RECV_START,1516297005961,171
597,WS_RECV_END,1516297006005,171
597,PLAYER_SLEEPBEFORE_START,1516297006005,172
597,PLAYER_SLEEPBEFORE_END,1516297006374,172
597,WS_SEND_START,1516297006374,172
597,WS_SEND_END,1516297006374,172
597,WS_RECV_START,1516297006374,173
597,WS_RECV_END,1516297006482,173
597,PLAYER_SLEEPBEFORE_START,1516297006482,174
597,PLAYER_SLEEPBEFORE_END,1516297006523,174
597,WS_SEND_START,1516297006523,174
597,WS_SEND_END,1516297006523,174
597,WS_RECV_START,1516297006523,175
597,WS_RECV_END,1516297006732,175
597,PLAYER_SLEEPBEFORE_START,1516297006732,176
597,PLAYER_SLEEPBEFORE_END,1516297028493,176
597,WS_SEND_START,1516297028493,176
597,WS_SEND_END,1516297028493,176
597,PLAYER_SLEEPBEFORE_START,1516297028493,177
597,PLAYER_SLEEPBEFORE_END,1516297031011,177
597,WS_SEND_START,1516297031011,177
597,WS_SEND_END,1516297031011,177
597,WS_RECV_START,1516297031011,178
597,WS_RECV_END,1516297031125,178
597,PLAYER_SLEEPBEFORE_START,1516297031125,179
597,PLAYER_SLEEPBEFORE_END,1516297053465,179
597,WS_SEND_START,1516297053465,179
597,WS_SEND_END,1516297053465,179
597,WS_RECV_START,1516297053465,180
597,WS_RECV_END,1516297053569,180
597,PLAYER_SLEEPBEFORE_START,1516297053569,181
597,PLAYER_SLEEPBEFORE_END,1516297054013,181
597,WS_SEND_START,1516297054013,181
597,WS_SEND_END,1516297054013,181
597,WS_RECV_START,1516297054013,182
597,WS_RECV_END,1516297054122,182
597,PLAYER_SLEEPBEFORE_START,1516297054122,183
597,PLAYER_SLEEPBEFORE_END,1516297054645,183
597,WS_SEND_START,1516297054645,183
597,WS_SEND_END,1516297054646,183
597,WS_RECV_START,1516297054646,184
597,WS_RECV_END,1516297054755,184
597,PLAYER_SLEEPBEFORE_START,1516297054755,185
597,PLAYER_SLEEPBEFORE_END,1516297055023,185
597,WS_SEND_START,1516297055023,185
597,WS_SEND_END,1516297055023,185
597,WS_RECV_START,1516297055023,186
597,WS_RECV_END,1516297055128,186
597,PLAYER_SLEEPBEFORE_START,1516297055128,187
597,PLAYER_SLEEPBEFORE_END,1516297077628,187
597,WS_SEND_START,1516297077628,187
597,WS_SEND_END,1516297077628,187
597,WS_RECV_START,1516297077628,188
597,WS_RECV_END,1516297077787,188
597,PLAYER_SLEEPBEFORE_START,1516297077787,189
597,PLAYER_SLEEPBEFORE_END,1516297084026,189
597,WS_SEND_START,1516297084026,189
597,WS_SEND_END,1516297084026,189
597,WS_RECV_START,1516297084026,190
597,WS_RECV_END,1516297084127,190
597,PLAYER_SLEEPBEFORE_START,1516297084127,191
597,PLAYER_SLEEPBEFORE_END,1516297086042,191
597,WS_SEND_START,1516297086042,191
597,WS_SEND_END,1516297086042,191
597,WS_RECV_START,1516297086042,192
597,WS_RECV_END,1516297086197,192
597,PLAYER_SLEEPBEFORE_START,1516297086197,193
597,PLAYER_SLEEPBEFORE_END,1516297086325,193
597,WS_SEND_START,1516297086326,193
597,WS_SEND_END,1516297086326,193
597,WS_RECV_START,1516297086326,194
597,WS_RECV_END,1516297086429,194
597,PLAYER_SLEEPBEFORE_START,1516297086429,195
597,PLAYER_SLEEPBEFORE_END,1516297088184,195
597,WS_SEND_START,1516297088184,195
597,WS_SEND_END,1516297088184,195
597,WS_RECV_START,1516297088184,196
597,WS_RECV_END,1516297088420,196
597,PLAYER_SLEEPBEFORE_START,1516297088420,197
597,PLAYER_SLEEPBEFORE_END,1516297090224,197
597,WS_SEND_START,1516297090224,197
597,WS_SEND_END,1516297090224,197
597,WS_RECV_START,1516297090224,198
597,WS_RECV_END,1516297090327,198
597,PLAYER_SLEEPBEFORE_START,1516297090327,199
597,PLAYER_SLEEPBEFORE_END,1516297102181,199
597,WS_SEND_START,1516297102181,199
597,WS_SEND_END,1516297102181,199
597,PLAYER_SLEEPBEFORE_START,1516297102181,200
597,PLAYER_SLEEPBEFORE_END,1516297106270,200
597,WS_SEND_START,1516297106270,200
597,WS_SEND_END,1516297106270,200
597,WS_RECV_START,1516297106270,201
597,WS_RECV_END,1516297106389,201
597,PLAYER_SLEEPBEFORE_START,1516297106389,202
597,PLAYER_SLEEPBEFORE_END,1516297106403,202
597,WS_SEND_START,1516297106403,202
597,WS_SEND_END,1516297106403,202
597,WS_RECV_START,1516297106403,203
597,WS_RECV_END,1516297106588,203
597,PLAYER_SLEEPBEFORE_START,1516297106588,204
597,PLAYER_SLEEPBEFORE_END,1516297126238,204
597,WS_SEND_START,1516297126238,204
597,WS_SEND_END,1516297126238,204
597,PLAYER_SLEEPBEFORE_START,1516297126238,205
597,PLAYER_SLEEPBEFORE_END,1516297130136,205
597,WS_SEND_START,1516297130136,205
597,WS_SEND_END,1516297130136,205
597,WS_RECV_START,1516297130136,206
597,WS_RECV_END,1516297130242,206
597,PLAYER_SLEEPBEFORE_START,1516297130242,207
597,PLAYER_SLEEPBEFORE_END,1516297147173,207
597,REQ_START,1516297147173,207
597,REQ_END,1516297147193,207
597,PLAYER_SLEEPBEFORE_START,1516297147193,208
597,PLAYER_SLEEPBEFORE_END,1516297154045,208
597,WS_CLOSE_START,1516297154045,208
597,WS_CLOSE_END,1516297154045,208
597,PLAYER_DONE,1516297154045
