# --sessions 630 --app-url=http://shinyloadtest.rstudioservices.com/cran_explorer --output-dir test630 --overwrite-output --log-level warn --start-interval 800 15min.log
thread_id,event,timestamp,input_line_number,comment
90,PLAYER_SESSION_CREATE,1516295501135
90,PLAYER_START_INTERVAL_START,1516295501135
90,PLAYER_START_INTERVAL_END,1516295573135
90,REQ_HOME_START,1516295573135,2
90,REQ_HOME_END,1516295573220,2
90,REQ_START,1516295573220,3
90,REQ_END,1516295573250,3
90,REQ_START,1516295573250,4
90,REQ_END,1516295573283,4
90,REQ_START,1516295573283,5
90,REQ_END,1516295573314,5
90,REQ_START,1516295573314,6
90,REQ_END,1516295573362,6
90,REQ_START,1516295573362,7
90,REQ_END,1516295573397,7
90,REQ_START,1516295573397,8
90,REQ_END,1516295573429,8
90,REQ_START,1516295573429,9
90,REQ_END,1516295573460,9
90,REQ_START,1516295573460,10
90,REQ_END,1516295573468,10
90,REQ_START,1516295573468,11
90,REQ_END,1516295573498,11
90,REQ_START,1516295573498,12
90,REQ_END,1516295573507,12
90,REQ_START,1516295573507,13
90,REQ_END,1516295573537,13
90,REQ_START,1516295573537,14
90,REQ_END,1516295573551,14
90,REQ_START,1516295573551,15
90,REQ_END,1516295573583,15
90,REQ_TOK_START,1516295573583,16
90,REQ_TOK_END,1516295573591,16
90,REQ_SINF_START,1516295573591,17
90,REQ_SINF_END,1516295573597,17
90,WS_OPEN_START,1516295573597,18
90,WS_OPEN_END,1516295573604,18
90,REQ_START,1516295573604,19
90,REQ_END,1516295573630,19
90,WS_RECV_START,1516295573630,20
90,WS_RECV_END,1516295573630,20
90,PLAYER_SLEEPBEFORE_START,1516295573630,21
90,PLAYER_SLEEPBEFORE_END,1516295573635,21
90,WS_SEND_START,1516295573635,21
90,WS_SEND_END,1516295573635,21
90,PLAYER_SLEEPBEFORE_START,1516295573635,22
90,PLAYER_SLEEPBEFORE_END,1516295573636,22
90,WS_SEND_START,1516295573636,22
90,WS_SEND_END,1516295573636,22
90,WS_RECV_INIT_START,1516295573636,23
90,WS_RECV_INIT_END,1516295573652,23
90,WS_RECV_START,1516295573652,24
90,WS_RECV_END,1516295573698,24
90,PLAYER_SLEEPBEFORE_START,1516295573698,25
90,PLAYER_SLEEPBEFORE_END,1516295573705,25
90,REQ_START,1516295573705,25
90,REQ_END,1516295573737,25
90,PLAYER_SLEEPBEFORE_START,1516295573737,26
90,PLAYER_SLEEPBEFORE_END,1516295573738,26
90,REQ_START,1516295573738,26
90,REQ_END,1516295573769,26
90,PLAYER_SLEEPBEFORE_START,1516295573769,27
90,PLAYER_SLEEPBEFORE_END,1516295573773,27
90,REQ_START,1516295573773,27
90,REQ_END,1516295573804,27
90,PLAYER_SLEEPBEFORE_START,1516295573804,28
90,PLAYER_SLEEPBEFORE_END,1516295574089,28
90,REQ_START,1516295574089,28
90,REQ_END,1516295574118,28
90,PLAYER_SLEEPBEFORE_START,1516295574118,29
90,PLAYER_SLEEPBEFORE_END,1516295574294,29
90,WS_SEND_START,1516295574294,29
90,WS_SEND_END,1516295574294,29
90,WS_RECV_START,1516295574294,30
90,WS_RECV_END,1516295574393,30
90,PLAYER_SLEEPBEFORE_START,1516295574393,31
90,PLAYER_SLEEPBEFORE_END,1516295574405,31
90,REQ_START,1516295574405,31
90,REQ_END,1516295574436,31
90,PLAYER_SLEEPBEFORE_START,1516295574436,32
90,PLAYER_SLEEPBEFORE_END,1516295602582,32
90,WS_SEND_START,1516295602582,32
90,WS_SEND_END,1516295602582,32
90,WS_RECV_START,1516295602582,33
90,WS_RECV_END,1516295602660,33
90,PLAYER_SLEEPBEFORE_START,1516295602660,34
90,PLAYER_SLEEPBEFORE_END,1516295628571,34
90,WS_SEND_START,1516295628571,34
90,WS_SEND_END,1516295628571,34
90,WS_RECV_START,1516295628571,35
90,WS_RECV_END,1516295628614,35
90,PLAYER_SLEEPBEFORE_START,1516295628614,36
90,PLAYER_SLEEPBEFORE_END,1516295628623,36
90,WS_SEND_START,1516295628623,36
90,WS_SEND_END,1516295628623,36
90,WS_RECV_START,1516295628623,37
90,WS_RECV_END,1516295628666,37
90,PLAYER_SLEEPBEFORE_START,1516295628666,38
90,PLAYER_SLEEPBEFORE_END,1516295631861,38
90,WS_SEND_START,1516295631861,38
90,WS_SEND_END,1516295631861,38
90,WS_RECV_START,1516295631861,39
90,WS_RECV_END,1516295631973,39
90,PLAYER_SLEEPBEFORE_START,1516295631973,40
90,PLAYER_SLEEPBEFORE_END,1516295632019,40
90,WS_SEND_START,1516295632019,40
90,WS_SEND_END,1516295632019,40
90,WS_RECV_START,1516295632019,41
90,WS_RECV_END,1516295632127,41
90,PLAYER_SLEEPBEFORE_START,1516295632127,42
90,PLAYER_SLEEPBEFORE_END,1516295650262,42
90,WS_SEND_START,1516295650262,42
90,WS_SEND_END,1516295650262,42
90,WS_RECV_START,1516295650262,43
90,WS_RECV_END,1516295650288,43
90,PLAYER_SLEEPBEFORE_START,1516295650288,44
90,PLAYER_SLEEPBEFORE_END,1516295650300,44
90,WS_SEND_START,1516295650300,44
90,WS_SEND_END,1516295650300,44
90,WS_RECV_START,1516295650300,45
90,WS_RECV_END,1516295650342,45
90,PLAYER_SLEEPBEFORE_START,1516295650342,46
90,PLAYER_SLEEPBEFORE_END,1516295651602,46
90,WS_SEND_START,1516295651602,46
90,WS_SEND_END,1516295651602,46
90,WS_RECV_START,1516295651602,47
90,WS_RECV_END,1516295651631,47
90,PLAYER_SLEEPBEFORE_START,1516295651631,48
90,PLAYER_SLEEPBEFORE_END,1516295652951,48
90,WS_SEND_START,1516295652951,48
90,WS_SEND_END,1516295652951,48
90,WS_RECV_START,1516295652951,49
90,WS_RECV_END,1516295653126,49
90,PLAYER_SLEEPBEFORE_START,1516295653126,50
90,PLAYER_SLEEPBEFORE_END,1516295653150,50
90,WS_SEND_START,1516295653150,50
90,WS_SEND_END,1516295653150,50
90,WS_RECV_START,1516295653150,51
90,WS_RECV_END,1516295653337,51
90,PLAYER_SLEEPBEFORE_START,1516295653337,52
90,PLAYER_SLEEPBEFORE_END,1516295675901,52
90,WS_SEND_START,1516295675901,52
90,WS_SEND_END,1516295675901,52
90,WS_RECV_START,1516295675901,53
90,WS_RECV_END,1516295676061,53
90,PLAYER_SLEEPBEFORE_START,1516295676061,54
90,PLAYER_SLEEPBEFORE_END,1516295697365,54
90,WS_SEND_START,1516295697365,54
90,WS_SEND_END,1516295697365,54
90,PLAYER_SLEEPBEFORE_START,1516295697365,55
90,PLAYER_SLEEPBEFORE_END,1516295699306,55
90,WS_SEND_START,1516295699306,55
90,WS_SEND_END,1516295699306,55
90,WS_RECV_START,1516295699306,56
90,WS_RECV_END,1516295699465,56
90,PLAYER_SLEEPBEFORE_START,1516295699465,57
90,PLAYER_SLEEPBEFORE_END,1516295722337,57
90,WS_SEND_START,1516295722337,57
90,WS_SEND_END,1516295722337,57
90,WS_RECV_START,1516295722337,58
90,WS_RECV_END,1516295722375,58
90,PLAYER_SLEEPBEFORE_START,1516295722375,59
90,PLAYER_SLEEPBEFORE_END,1516295724702,59
90,WS_SEND_START,1516295724702,59
90,WS_SEND_END,1516295724702,59
90,WS_RECV_START,1516295724702,60
90,WS_RECV_END,1516295724800,60
90,PLAYER_SLEEPBEFORE_START,1516295724800,61
90,PLAYER_SLEEPBEFORE_END,1516295728391,61
90,WS_SEND_START,1516295728391,61
90,WS_SEND_END,1516295728391,61
90,WS_RECV_START,1516295728391,62
90,WS_RECV_END,1516295728471,62
90,PLAYER_SLEEPBEFORE_START,1516295728471,63
90,PLAYER_SLEEPBEFORE_END,1516295747733,63
90,WS_SEND_START,1516295747733,63
90,WS_SEND_END,1516295747733,63
90,WS_RECV_START,1516295747733,64
90,WS_RECV_END,1516295747772,64
90,PLAYER_SLEEPBEFORE_START,1516295747772,65
90,PLAYER_SLEEPBEFORE_END,1516295774589,65
90,WS_SEND_START,1516295774589,65
90,WS_SEND_END,1516295774589,65
90,WS_RECV_START,1516295774589,66
90,WS_RECV_END,1516295774719,66
90,PLAYER_SLEEPBEFORE_START,1516295774719,67
90,PLAYER_SLEEPBEFORE_END,1516295776226,67
90,WS_SEND_START,1516295776226,67
90,WS_SEND_END,1516295776226,67
90,WS_RECV_START,1516295776226,68
90,WS_RECV_END,1516295776369,68
90,PLAYER_SLEEPBEFORE_START,1516295776369,69
90,PLAYER_SLEEPBEFORE_END,1516295798367,69
90,WS_SEND_START,1516295798367,69
90,WS_SEND_END,1516295798367,69
90,WS_RECV_START,1516295798367,70
90,WS_RECV_END,1516295798463,70
90,PLAYER_SLEEPBEFORE_START,1516295798463,71
90,PLAYER_SLEEPBEFORE_END,1516295823238,71
90,WS_SEND_START,1516295823238,71
90,WS_SEND_END,1516295823238,71
90,PLAYER_SLEEPBEFORE_START,1516295823238,72
90,PLAYER_SLEEPBEFORE_END,1516295825846,72
90,WS_SEND_START,1516295825846,72
90,WS_SEND_END,1516295825846,72
90,WS_RECV_START,1516295825846,73
90,WS_RECV_END,1516295826057,73
90,PLAYER_SLEEPBEFORE_START,1516295826057,74
90,PLAYER_SLEEPBEFORE_END,1516295826066,74
90,WS_SEND_START,1516295826066,74
90,WS_SEND_END,1516295826066,74
90,WS_RECV_START,1516295826066,75
90,WS_RECV_END,1516295826110,75
90,PLAYER_SLEEPBEFORE_START,1516295826110,76
90,PLAYER_SLEEPBEFORE_END,1516295827616,76
90,WS_SEND_START,1516295827616,76
90,WS_SEND_END,1516295827616,76
90,WS_RECV_START,1516295827616,77
90,WS_RECV_END,1516295827761,77
90,PLAYER_SLEEPBEFORE_START,1516295827761,78
90,PLAYER_SLEEPBEFORE_END,1516295828629,78
90,WS_SEND_START,1516295828629,78
90,WS_SEND_END,1516295828629,78
90,WS_RECV_START,1516295828629,79
90,WS_RECV_END,1516295828746,79
90,PLAYER_SLEEPBEFORE_START,1516295828746,80
90,PLAYER_SLEEPBEFORE_END,1516295836412,80
90,WS_SEND_START,1516295836412,80
90,WS_SEND_END,1516295836412,80
90,WS_RECV_START,1516295836412,81
90,WS_RECV_END,1516295836437,81
90,PLAYER_SLEEPBEFORE_START,1516295836437,82
90,PLAYER_SLEEPBEFORE_END,1516295837539,82
90,WS_SEND_START,1516295837539,82
90,WS_SEND_END,1516295837539,82
90,WS_RECV_START,1516295837539,83
90,WS_RECV_END,1516295837592,83
90,PLAYER_SLEEPBEFORE_START,1516295837592,84
90,PLAYER_SLEEPBEFORE_END,1516295838539,84
90,WS_SEND_START,1516295838539,84
90,WS_SEND_END,1516295838539,84
90,WS_RECV_START,1516295838539,85
90,WS_RECV_END,1516295838577,85
90,PLAYER_SLEEPBEFORE_START,1516295838577,86
90,PLAYER_SLEEPBEFORE_END,1516295842749,86
90,WS_SEND_START,1516295842749,86
90,WS_SEND_END,1516295842749,86
90,WS_RECV_START,1516295842749,87
90,WS_RECV_END,1516295842834,87
90,PLAYER_SLEEPBEFORE_START,1516295842834,88
90,PLAYER_SLEEPBEFORE_END,1516295842843,88
90,WS_SEND_START,1516295842843,88
90,WS_SEND_END,1516295842843,88
90,WS_RECV_START,1516295842843,89
90,WS_RECV_END,1516295843003,89
90,PLAYER_SLEEPBEFORE_START,1516295843003,90
90,PLAYER_SLEEPBEFORE_END,1516295870200,90
90,REQ_START,1516295870200,90
90,REQ_END,1516295870210,90
90,PLAYER_SLEEPBEFORE_START,1516295870210,91
90,PLAYER_SLEEPBEFORE_END,1516295878099,91
90,WS_SEND_START,1516295878099,91
90,WS_SEND_END,1516295878099,91
90,WS_RECV_START,1516295878099,92
90,WS_RECV_END,1516295878201,92
90,PLAYER_SLEEPBEFORE_START,1516295878201,93
90,PLAYER_SLEEPBEFORE_END,1516295878216,93
90,WS_SEND_START,1516295878216,93
90,WS_SEND_END,1516295878216,93
90,WS_RECV_START,1516295878216,94
90,WS_RECV_END,1516295878359,94
90,PLAYER_SLEEPBEFORE_START,1516295878359,95
90,PLAYER_SLEEPBEFORE_END,1516295901914,95
90,WS_SEND_START,1516295901914,95
90,WS_SEND_END,1516295901914,95
90,WS_RECV_START,1516295901914,96
90,WS_RECV_END,1516295902921,96
90,PLAYER_SLEEPBEFORE_START,1516295902921,97
90,PLAYER_SLEEPBEFORE_END,1516295925361,97
90,WS_SEND_START,1516295925361,97
90,WS_SEND_END,1516295925361,97
90,WS_RECV_START,1516295925361,98
90,WS_RECV_END,1516295925743,98
90,PLAYER_SLEEPBEFORE_START,1516295925743,99
90,PLAYER_SLEEPBEFORE_END,1516295925765,99
90,WS_SEND_START,1516295925765,99
90,WS_SEND_END,1516295925765,99
90,WS_RECV_START,1516295925765,100
90,WS_RECV_END,1516295926058,100
90,PLAYER_SLEEPBEFORE_START,1516295926058,101
90,PLAYER_SLEEPBEFORE_END,1516295949617,101
90,WS_SEND_START,1516295949617,101
90,WS_SEND_END,1516295949617,101
90,WS_RECV_START,1516295949617,102
90,WS_RECV_END,1516295950049,102
90,PLAYER_SLEEPBEFORE_START,1516295950049,103
90,PLAYER_SLEEPBEFORE_END,1516295973674,103
90,WS_SEND_START,1516295973674,103
90,WS_SEND_END,1516295973674,103
90,WS_RECV_START,1516295973674,104
90,WS_RECV_END,1516295974044,104
90,PLAYER_SLEEPBEFORE_START,1516295974044,105
90,PLAYER_SLEEPBEFORE_END,1516295999421,105
90,WS_SEND_START,1516295999421,105
90,WS_SEND_END,1516295999421,105
90,WS_RECV_START,1516295999421,106
90,WS_RECV_END,1516296000869,106
90,PLAYER_SLEEPBEFORE_START,1516296000869,107
90,PLAYER_SLEEPBEFORE_END,1516296024292,107
90,WS_SEND_START,1516296024292,107
90,WS_SEND_END,1516296024292,107
90,WS_RECV_START,1516296024292,108
90,WS_RECV_END,1516296026270,108
90,PLAYER_SLEEPBEFORE_START,1516296026270,109
90,PLAYER_SLEEPBEFORE_END,1516296026279,109
90,WS_SEND_START,1516296026279,109
90,WS_SEND_END,1516296026279,109
90,WS_RECV_START,1516296026279,110
90,WS_RECV_END,1516296026934,110
90,PLAYER_SLEEPBEFORE_START,1516296026934,111
90,PLAYER_SLEEPBEFORE_END,1516296027893,111
90,WS_SEND_START,1516296027893,111
90,WS_SEND_END,1516296027893,111
90,WS_RECV_START,1516296027893,112
90,WS_RECV_END,1516296029268,112
90,PLAYER_SLEEPBEFORE_START,1516296029268,113
90,PLAYER_SLEEPBEFORE_END,1516296029830,113
90,WS_SEND_START,1516296029830,113
90,WS_SEND_END,1516296029830,113
90,WS_RECV_START,1516296029830,114
90,WS_RECV_END,1516296030312,114
90,PLAYER_SLEEPBEFORE_START,1516296030312,115
90,PLAYER_SLEEPBEFORE_END,1516296030321,115
90,WS_SEND_START,1516296030321,115
90,WS_SEND_END,1516296030321,115
90,WS_RECV_START,1516296030321,116
90,WS_RECV_END,1516296033018,116
90,PLAYER_SLEEPBEFORE_START,1516296033018,117
90,PLAYER_SLEEPBEFORE_END,1516296053378,117
90,WS_SEND_START,1516296053378,117
90,WS_SEND_END,1516296053378,117
90,PLAYER_SLEEPBEFORE_START,1516296053378,118
90,PLAYER_SLEEPBEFORE_END,1516296057130,118
90,WS_SEND_START,1516296057130,118
90,WS_SEND_END,1516296057130,118
90,WS_RECV_START,1516296057130,119
90,WS_RECV_END,1516296058532,119
90,PLAYER_SLEEPBEFORE_START,1516296058532,120
90,PLAYER_SLEEPBEFORE_END,1516296059520,120
90,WS_SEND_START,1516296059520,120
90,WS_SEND_END,1516296059520,120
90,WS_RECV_START,1516296059520,121
90,WS_RECV_END,1516296060889,121
90,PLAYER_SLEEPBEFORE_START,1516296060889,122
90,PLAYER_SLEEPBEFORE_END,1516296062075,122
90,WS_SEND_START,1516296062075,122
90,WS_SEND_END,1516296062075,122
90,WS_RECV_START,1516296062075,123
90,WS_RECV_END,1516296063708,123
90,PLAYER_SLEEPBEFORE_START,1516296063708,124
90,PLAYER_SLEEPBEFORE_END,1516296088113,124
90,WS_SEND_START,1516296088113,124
90,WS_SEND_END,1516296088113,124
90,WS_RECV_START,1516296088113,125
90,WS_RECV_END,1516296090937,125
90,PLAYER_SLEEPBEFORE_START,1516296090937,126
90,PLAYER_SLEEPBEFORE_END,1516296111449,126
90,WS_SEND_START,1516296111449,126
90,WS_SEND_END,1516296111449,126
90,PLAYER_SLEEPBEFORE_START,1516296111449,127
90,PLAYER_SLEEPBEFORE_END,1516296114504,127
90,WS_SEND_START,1516296114504,127
90,WS_SEND_END,1516296114504,127
90,WS_RECV_START,1516296114504,128
90,WS_RECV_END,1516296116263,128
90,PLAYER_SLEEPBEFORE_START,1516296116263,129
90,PLAYER_SLEEPBEFORE_END,1516296116283,129
90,WS_SEND_START,1516296116283,129
90,WS_SEND_END,1516296116284,129
90,WS_RECV_START,1516296116284,130
90,WS_RECV_END,1516296118928,130
90,PLAYER_SLEEPBEFORE_START,1516296118929,131
90,PLAYER_SLEEPBEFORE_END,1516296140553,131
90,WS_SEND_START,1516296140553,131
90,WS_SEND_END,1516296140553,131
90,PLAYER_SLEEPBEFORE_START,1516296140553,132
90,PLAYER_SLEEPBEFORE_END,1516296143633,132
90,WS_SEND_START,1516296143633,132
90,WS_SEND_END,1516296143633,132
90,WS_RECV_START,1516296143633,133
90,WS_RECV_END,1516296144878,133
90,PLAYER_SLEEPBEFORE_START,1516296144878,134
90,PLAYER_SLEEPBEFORE_END,1516296166095,134
90,WS_SEND_START,1516296166095,134
90,WS_SEND_END,1516296166095,134
90,PLAYER_SLEEPBEFORE_START,1516296166095,135
90,PLAYER_SLEEPBEFORE_END,1516296169285,135
90,WS_SEND_START,1516296169285,135
90,WS_SEND_END,1516296169285,135
90,WS_RECV_START,1516296169285,136
90,WS_RECV_END,1516296169567,136
90,PLAYER_SLEEPBEFORE_START,1516296169567,137
90,PLAYER_SLEEPBEFORE_END,1516296169574,137
90,WS_SEND_START,1516296169574,137
90,WS_SEND_END,1516296169574,137
90,WS_RECV_START,1516296169574,138
90,WS_RECV_END,1516296172834,138
90,PLAYER_SLEEPBEFORE_START,1516296172834,139
90,PLAYER_SLEEPBEFORE_END,1516296173524,139
90,WS_SEND_START,1516296173524,139
90,WS_SEND_END,1516296173524,139
90,WS_RECV_START,1516296173524,140
90,WS_RECV_END,1516296176471,140
90,PLAYER_SLEEPBEFORE_START,1516296176471,141
90,PLAYER_SLEEPBEFORE_END,1516296177126,141
90,WS_SEND_START,1516296177126,141
90,WS_SEND_END,1516296177127,141
90,WS_RECV_START,1516296177127,142
90,WS_RECV_END,1516296180967,142
90,PLAYER_SLEEPBEFORE_START,1516296180967,143
90,PLAYER_SLEEPBEFORE_END,1516296181024,143
90,WS_SEND_START,1516296181024,143
90,WS_SEND_END,1516296181024,143
90,WS_RECV_START,1516296181024,144
90,WS_RECV_END,1516296184631,144
90,PLAYER_SLEEPBEFORE_START,1516296184631,145
90,PLAYER_SLEEPBEFORE_END,1516296200693,145
90,REQ_START,1516296200693,145
90,REQ_END,1516296200701,145
90,PLAYER_SLEEPBEFORE_START,1516296200701,146
90,PLAYER_SLEEPBEFORE_END,1516296209579,146
90,WS_SEND_START,1516296209579,146
90,WS_SEND_END,1516296209579,146
90,WS_RECV_START,1516296209579,147
90,WS_RECV_END,1516296214581,147
90,PLAYER_SLEEPBEFORE_START,1516296214581,148
90,PLAYER_SLEEPBEFORE_END,1516296236503,148
90,WS_SEND_START,1516296236503,148
90,WS_SEND_END,1516296236503,148
90,PLAYER_SLEEPBEFORE_START,1516296236503,149
90,PLAYER_SLEEPBEFORE_END,1516296238931,149
90,WS_SEND_START,1516296238931,149
90,WS_SEND_END,1516296238931,149
90,WS_RECV_START,1516296238931,150
90,WS_RECV_END,1516296240140,150
90,PLAYER_SLEEPBEFORE_START,1516296240140,151
90,PLAYER_SLEEPBEFORE_END,1516296240350,151
90,WS_SEND_START,1516296240350,151
90,WS_SEND_END,1516296240350,151
90,WS_RECV_START,1516296240350,152
90,WS_RECV_END,1516296242197,152
90,PLAYER_SLEEPBEFORE_START,1516296242197,153
90,PLAYER_SLEEPBEFORE_END,1516296266124,153
90,WS_SEND_START,1516296266124,153
90,WS_SEND_END,1516296266124,153
90,WS_RECV_START,1516296266124,154
90,WS_RECV_END,1516296270384,154
90,PLAYER_SLEEPBEFORE_START,1516296270384,155
90,PLAYER_SLEEPBEFORE_END,1516296292942,155
90,WS_SEND_START,1516296292942,155
90,WS_SEND_END,1516296292942,155
90,PLAYER_SLEEPBEFORE_START,1516296292942,156
90,PLAYER_SLEEPBEFORE_END,1516296296216,156
90,WS_SEND_START,1516296296216,156
90,WS_SEND_END,1516296296216,156
90,WS_RECV_START,1516296296216,157
90,WS_RECV_END,1516296297058,157
90,PLAYER_SLEEPBEFORE_START,1516296297058,158
90,PLAYER_SLEEPBEFORE_END,1516296297068,158
90,WS_SEND_START,1516296297068,158
90,WS_SEND_END,1516296297068,158
90,WS_RECV_START,1516296297068,159
90,WS_RECV_END,1516296298498,159
90,PLAYER_SLEEPBEFORE_START,1516296298498,160
90,PLAYER_SLEEPBEFORE_END,1516296298673,160
90,WS_SEND_START,1516296298673,160
90,WS_SEND_END,1516296298673,160
90,WS_RECV_START,1516296298673,161
90,WS_RECV_END,1516296301852,161
90,PLAYER_SLEEPBEFORE_START,1516296301852,162
90,PLAYER_SLEEPBEFORE_END,1516296301877,162
90,WS_SEND_START,1516296301877,162
90,WS_SEND_END,1516296301877,162
90,WS_RECV_START,1516296301877,163
90,WS_RECV_END,1516296305624,163
90,PLAYER_SLEEPBEFORE_START,1516296305624,164
90,PLAYER_SLEEPBEFORE_END,1516296326436,164
90,WS_SEND_START,1516296326436,164
90,WS_SEND_END,1516296326436,164
90,WS_RECV_START,1516296326436,165
90,WS_RECV_END,1516296332182,165
90,PLAYER_SLEEPBEFORE_START,1516296332182,166
90,PLAYER_SLEEPBEFORE_END,1516296354637,166
90,WS_SEND_START,1516296354637,166
90,WS_SEND_END,1516296354637,166
90,WS_RECV_START,1516296354637,167
90,WS_RECV_END,1516296361378,167
90,PLAYER_SLEEPBEFORE_START,1516296361378,168
90,PLAYER_SLEEPBEFORE_END,1516296388735,168
90,WS_SEND_START,1516296388735,168
90,WS_SEND_END,1516296388736,168
90,WS_RECV_START,1516296388736,169
90,WS_RECV_END,1516296391069,169
90,PLAYER_SLEEPBEFORE_START,1516296391069,170
90,PLAYER_SLEEPBEFORE_END,1516296391078,170
90,WS_SEND_START,1516296391078,170
90,WS_SEND_END,1516296391078,170
90,WS_RECV_START,1516296391078,171
90,WS_RECV_END,1516296396250,171
90,PLAYER_SLEEPBEFORE_START,1516296396250,172
90,PLAYER_SLEEPBEFORE_END,1516296396619,172
90,WS_SEND_START,1516296396619,172
90,WS_SEND_END,1516296396620,172
90,WS_RECV_START,1516296396620,173
90,WS_RECV_END,1516296398788,173
90,PLAYER_SLEEPBEFORE_START,1516296398788,174
90,PLAYER_SLEEPBEFORE_END,1516296398829,174
90,WS_SEND_START,1516296398829,174
90,WS_SEND_END,1516296398829,174
90,WS_RECV_START,1516296398830,175
90,WS_RECV_END,1516296401591,175
90,PLAYER_SLEEPBEFORE_START,1516296401591,176
90,PLAYER_SLEEPBEFORE_END,1516296423352,176
90,WS_SEND_START,1516296423352,176
90,WS_SEND_END,1516296423352,176
90,PLAYER_SLEEPBEFORE_START,1516296423352,177
90,PLAYER_SLEEPBEFORE_END,1516296425870,177
90,WS_SEND_START,1516296425870,177
90,WS_SEND_END,1516296425870,177
90,WS_RECV_START,1516296425870,178
90,WS_RECV_END,1516296429827,178
90,PLAYER_SLEEPBEFORE_START,1516296429827,179
90,PLAYER_SLEEPBEFORE_END,1516296452167,179
90,WS_SEND_START,1516296452167,179
90,WS_SEND_END,1516296452167,179
90,WS_RECV_START,1516296452167,180
90,WS_RECV_END,1516296460303,180
90,PLAYER_SLEEPBEFORE_START,1516296460303,181
90,PLAYER_SLEEPBEFORE_END,1516296460747,181
90,WS_SEND_START,1516296460747,181
90,WS_SEND_END,1516296460747,181
90,WS_RECV_START,1516296460747,182
90,WS_RECV_END,1516296464447,182
90,PLAYER_SLEEPBEFORE_START,1516296464447,183
90,PLAYER_SLEEPBEFORE_END,1516296464970,183
90,WS_SEND_START,1516296464970,183
90,WS_SEND_END,1516296464970,183
90,WS_RECV_START,1516296464970,184
90,WS_RECV_END,1516296470161,184
90,PLAYER_SLEEPBEFORE_START,1516296470161,185
90,PLAYER_SLEEPBEFORE_END,1516296470429,185
90,WS_SEND_START,1516296470429,185
90,WS_SEND_END,1516296470429,185
90,WS_RECV_START,1516296470429,186
90,WS_RECV_END,1516296476582,186
90,PLAYER_SLEEPBEFORE_START,1516296476582,187
90,PLAYER_SLEEPBEFORE_END,1516296499083,187
90,WS_SEND_START,1516296499083,187
90,WS_SEND_END,1516296499083,187
90,WS_RECV_START,1516296499083,188
90,WS_RECV_END,1516296506625,188
90,PLAYER_SLEEPBEFORE_START,1516296506625,189
90,PLAYER_SLEEPBEFORE_END,1516296512864,189
90,WS_SEND_START,1516296512864,189
90,WS_SEND_END,1516296512864,189
90,WS_RECV_START,1516296512864,190
90,WS_RECV_END,1516296519429,190
90,PLAYER_SLEEPBEFORE_START,1516296519429,191
90,PLAYER_SLEEPBEFORE_END,1516296521344,191
90,WS_SEND_START,1516296521344,191
90,WS_SEND_END,1516296521344,191
90,WS_RECV_START,1516296521344,192
90,WS_RECV_END,1516296531030,192
90,PLAYER_SLEEPBEFORE_START,1516296531030,193
90,PLAYER_SLEEPBEFORE_END,1516296531158,193
90,WS_SEND_START,1516296531158,193
90,WS_SEND_END,1516296531158,193
90,WS_RECV_START,1516296531158,194
90,WS_RECV_END,1516296535776,194
90,PLAYER_SLEEPBEFORE_START,1516296535776,195
90,PLAYER_SLEEPBEFORE_END,1516296537531,195
90,WS_SEND_START,1516296537531,195
90,WS_SEND_END,1516296537531,195
90,WS_RECV_START,1516296537531,196
90,WS_RECV_END,1516296540446,196
90,PLAYER_SLEEPBEFORE_START,1516296540446,197
90,PLAYER_SLEEPBEFORE_END,1516296542250,197
90,WS_SEND_START,1516296542250,197
90,WS_SEND_END,1516296542250,197
90,WS_RECV_START,1516296542250,198
90,WS_RECV_END,1516296545920,198
90,PLAYER_SLEEPBEFORE_START,1516296545920,199
90,PLAYER_SLEEPBEFORE_END,1516296557774,199
90,WS_SEND_START,1516296557774,199
90,WS_SEND_END,1516296557774,199
90,PLAYER_SLEEPBEFORE_START,1516296557774,200
90,PLAYER_SLEEPBEFORE_END,1516296561862,200
90,WS_SEND_START,1516296561862,200
90,WS_SEND_END,1516296561862,200
90,WS_RECV_START,1516296561862,201
90,WS_RECV_END,1516296566739,201
90,PLAYER_SLEEPBEFORE_START,1516296566739,202
90,PLAYER_SLEEPBEFORE_END,1516296566753,202
90,WS_SEND_START,1516296566754,202
90,WS_SEND_END,1516296566754,202
90,WS_RECV_START,1516296566754,203
90,WS_RECV_END,1516296571407,203
90,PLAYER_SLEEPBEFORE_START,1516296571407,204
90,PLAYER_SLEEPBEFORE_END,1516296591056,204
90,WS_SEND_START,1516296591056,204
90,WS_SEND_END,1516296591056,204
90,PLAYER_SLEEPBEFORE_START,1516296591056,205
90,PLAYER_SLEEPBEFORE_END,1516296594954,205
90,WS_SEND_START,1516296594954,205
90,WS_SEND_END,1516296594954,205
90,WS_RECV_START,1516296594954,206
90,WS_RECV_END,1516296595848,206
90,PLAYER_SLEEPBEFORE_START,1516296595848,207
90,PLAYER_SLEEPBEFORE_END,1516296612779,207
90,REQ_START,1516296612779,207
90,REQ_END,1516296612789,207
90,PLAYER_SLEEPBEFORE_START,1516296612789,208
90,PLAYER_SLEEPBEFORE_END,1516296619641,208
90,WS_CLOSE_START,1516296619641,208
90,WS_CLOSE_END,1516296619641,208
90,PLAYER_DONE,1516296619641
