# --sessions 30 --app-url=http://shinyloadtest.rstudioservices.com/ --output-dir test30 --overwrite-output --log-level warn --start-interval 1500 30min.log
thread_id,event,timestamp,input_line_number,comment
13,PLAYER_SESSION_CREATE,1516046251155
13,PLAYER_START_INTERVAL_START,1516046251155
13,PLAYER_START_INTERVAL_END,1516046270655
13,REQ_HOME_START,1516046270655,2
13,REQ_HOME_END,1516046270746,2
13,REQ_START,1516046270746,3
13,REQ_END,1516046270777,3
13,REQ_START,1516046270777,4
13,REQ_END,1516046270809,4
13,REQ_START,1516046270809,5
13,REQ_END,1516046270843,5
13,REQ_START,1516046270843,6
13,REQ_END,1516046270878,6
13,REQ_START,1516046270878,7
13,REQ_END,1516046270914,7
13,REQ_START,1516046270915,8
13,REQ_END,1516046270947,8
13,REQ_START,1516046270947,9
13,REQ_END,1516046270984,9
13,REQ_START,1516046270984,10
13,REQ_END,1516046270992,10
13,REQ_START,1516046270992,11
13,REQ_END,1516046271023,11
13,REQ_START,1516046271023,12
13,REQ_END,1516046271055,12
13,REQ_START,1516046271055,13
13,REQ_END,1516046271065,13
13,REQ_START,1516046271065,14
13,REQ_END,1516046271080,14
13,REQ_START,1516046271080,15
13,REQ_END,1516046271112,15
13,REQ_TOK_START,1516046271112,16
13,REQ_TOK_END,1516046271120,16
13,REQ_SINF_START,1516046271120,17
13,REQ_SINF_END,1516046271127,17
13,WS_OPEN_START,1516046271127,18
13,WS_OPEN_END,1516046271134,18
13,WS_RECV_START,1516046271135,19
13,WS_RECV_END,1516046271135,19
13,PLAYER_SLEEPBEFORE_START,1516046271135,20
13,PLAYER_SLEEPBEFORE_END,1516046271141,20
13,WS_SEND_START,1516046271141,20
13,WS_SEND_END,1516046271141,20
13,PLAYER_SLEEPBEFORE_START,1516046271141,21
13,PLAYER_SLEEPBEFORE_END,1516046271142,21
13,WS_SEND_START,1516046271142,21
13,WS_SEND_END,1516046271142,21
13,WS_RECV_INIT_START,1516046271142,22
13,WS_RECV_INIT_END,1516046271165,22
13,WS_RECV_START,1516046271165,23
13,WS_RECV_END,1516046271238,23
13,PLAYER_SLEEPBEFORE_START,1516046271238,24
13,PLAYER_SLEEPBEFORE_END,1516046271246,24
13,REQ_START,1516046271246,24
13,REQ_END,1516046271278,24
13,PLAYER_SLEEPBEFORE_START,1516046271278,25
13,PLAYER_SLEEPBEFORE_END,1516046271281,25
13,REQ_START,1516046271281,25
13,REQ_END,1516046271313,25
13,PLAYER_SLEEPBEFORE_START,1516046271313,26
13,PLAYER_SLEEPBEFORE_END,1516046271316,26
13,REQ_START,1516046271316,26
13,REQ_END,1516046271350,26
13,PLAYER_SLEEPBEFORE_START,1516046271350,27
13,PLAYER_SLEEPBEFORE_END,1516046271606,27
13,REQ_START,1516046271606,27
13,REQ_END,1516046271640,27
13,PLAYER_SLEEPBEFORE_START,1516046271640,28
13,PLAYER_SLEEPBEFORE_END,1516046271838,28
13,WS_SEND_START,1516046271838,28
13,WS_SEND_END,1516046271839,28
13,WS_RECV_START,1516046271839,29
13,WS_RECV_END,1516046272032,29
13,PLAYER_SLEEPBEFORE_START,1516046272032,30
13,PLAYER_SLEEPBEFORE_END,1516046272043,30
13,REQ_START,1516046272043,30
13,REQ_END,1516046272078,30
13,PLAYER_SLEEPBEFORE_START,1516046272078,31
13,PLAYER_SLEEPBEFORE_END,1516046302198,31
13,WS_SEND_START,1516046302198,31
13,WS_SEND_END,1516046302198,31
13,WS_RECV_START,1516046302198,32
13,WS_RECV_END,1516046302368,32
13,PLAYER_SLEEPBEFORE_START,1516046302368,33
13,PLAYER_SLEEPBEFORE_END,1516046327134,33
13,WS_SEND_START,1516046327134,33
13,WS_SEND_END,1516046327134,33
13,WS_RECV_START,1516046327134,34
13,WS_RECV_END,1516046327240,34
13,PLAYER_SLEEPBEFORE_START,1516046327240,35
13,PLAYER_SLEEPBEFORE_END,1516046352053,35
13,WS_SEND_START,1516046352053,35
13,WS_SEND_END,1516046352053,35
13,WS_RECV_START,1516046352053,36
13,WS_RECV_END,1516046353743,36
13,PLAYER_SLEEPBEFORE_START,1516046353743,37
13,PLAYER_SLEEPBEFORE_END,1516046353752,37
13,WS_SEND_START,1516046353752,37
13,WS_SEND_END,1516046353752,37
13,WS_RECV_START,1516046353752,38
13,WS_RECV_END,1516046354870,38
13,PLAYER_SLEEPBEFORE_START,1516046354870,39
13,PLAYER_SLEEPBEFORE_END,1516046357567,39
13,WS_SEND_START,1516046357567,39
13,WS_SEND_END,1516046357568,39
13,WS_RECV_START,1516046357568,40
13,WS_RECV_END,1516046358682,40
13,PLAYER_SLEEPBEFORE_START,1516046358683,41
13,PLAYER_SLEEPBEFORE_END,1516046359802,41
13,WS_SEND_START,1516046359802,41
13,WS_SEND_END,1516046359802,41
13,WS_RECV_START,1516046359802,42
13,WS_RECV_END,1516046360798,42
13,PLAYER_SLEEPBEFORE_START,1516046360798,43
13,PLAYER_SLEEPBEFORE_END,1516046360826,43
13,WS_SEND_START,1516046360826,43
13,WS_SEND_END,1516046360826,43
13,WS_RECV_START,1516046360826,44
13,WS_RECV_END,1516046363102,44
13,PLAYER_SLEEPBEFORE_START,1516046363102,45
13,PLAYER_SLEEPBEFORE_END,1516046384592,45
13,WS_SEND_START,1516046384592,45
13,WS_SEND_END,1516046384592,45
13,WS_RECV_START,1516046384592,46
13,WS_RECV_END,1516046386124,46
13,PLAYER_SLEEPBEFORE_START,1516046386124,47
13,PLAYER_SLEEPBEFORE_END,1516046414609,47
13,WS_SEND_START,1516046414609,47
13,WS_SEND_END,1516046414609,47
13,WS_RECV_START,1516046414609,48
13,WS_RECV_END,1516046414720,48
13,PLAYER_SLEEPBEFORE_START,1516046414720,49
13,PLAYER_SLEEPBEFORE_END,1516046441129,49
13,WS_SEND_START,1516046441129,49
13,WS_SEND_END,1516046441129,49
13,WS_RECV_START,1516046441129,50
13,WS_RECV_END,1516046441314,50
13,PLAYER_SLEEPBEFORE_START,1516046441314,51
13,PLAYER_SLEEPBEFORE_END,1516046463866,51
13,WS_SEND_START,1516046463866,51
13,WS_SEND_END,1516046463866,51
13,WS_RECV_START,1516046463866,52
13,WS_RECV_END,1516046463988,52
13,PLAYER_SLEEPBEFORE_START,1516046463989,53
13,PLAYER_SLEEPBEFORE_END,1516046488893,53
13,WS_SEND_START,1516046488893,53
13,WS_SEND_END,1516046488893,53
13,WS_RECV_START,1516046488893,54
13,WS_RECV_END,1516046489006,54
13,PLAYER_SLEEPBEFORE_START,1516046489006,55
13,PLAYER_SLEEPBEFORE_END,1516046514408,55
13,WS_SEND_START,1516046514408,55
13,WS_SEND_END,1516046514408,55
13,WS_RECV_START,1516046514408,56
13,WS_RECV_END,1516046514553,56
13,PLAYER_SLEEPBEFORE_START,1516046514553,57
13,PLAYER_SLEEPBEFORE_END,1516046539892,57
13,WS_SEND_START,1516046539892,57
13,WS_SEND_END,1516046539892,57
13,WS_RECV_START,1516046539892,58
13,WS_RECV_END,1516046540000,58
13,PLAYER_SLEEPBEFORE_START,1516046540000,59
13,PLAYER_SLEEPBEFORE_END,1516046566858,59
13,WS_SEND_START,1516046566858,59
13,WS_SEND_END,1516046566858,59
13,WS_RECV_START,1516046566858,60
13,WS_RECV_END,1516046568592,60
13,PLAYER_SLEEPBEFORE_START,1516046568592,61
13,PLAYER_SLEEPBEFORE_END,1516046568616,61
13,WS_SEND_START,1516046568616,61
13,WS_SEND_END,1516046568616,61
13,WS_RECV_START,1516046568616,62
13,WS_RECV_END,1516046569686,62
13,PLAYER_SLEEPBEFORE_START,1516046569686,63
13,PLAYER_SLEEPBEFORE_END,1516046578690,63
13,REQ_START,1516046578690,63
13,REQ_END,1516046578699,63
13,PLAYER_SLEEPBEFORE_START,1516046578699,64
13,PLAYER_SLEEPBEFORE_END,1516046592905,64
13,WS_SEND_START,1516046592905,64
13,WS_SEND_END,1516046592905,64
13,WS_RECV_START,1516046592905,65
13,WS_RECV_END,1516046593235,65
13,PLAYER_SLEEPBEFORE_START,1516046593235,66
13,PLAYER_SLEEPBEFORE_END,1516046617222,66
13,WS_SEND_START,1516046617222,66
13,WS_SEND_END,1516046617222,66
13,WS_RECV_START,1516046617222,67
13,WS_RECV_END,1516046617342,67
13,PLAYER_SLEEPBEFORE_START,1516046617342,68
13,PLAYER_SLEEPBEFORE_END,1516046642916,68
13,WS_SEND_START,1516046642916,68
13,WS_SEND_END,1516046642916,68
13,WS_RECV_START,1516046642916,69
13,WS_RECV_END,1516046646038,69
13,PLAYER_SLEEPBEFORE_START,1516046646038,70
13,PLAYER_SLEEPBEFORE_END,1516046646047,70
13,WS_SEND_START,1516046646047,70
13,WS_SEND_END,1516046646047,70
13,WS_RECV_START,1516046646047,71
13,WS_RECV_END,1516046646308,71
13,PLAYER_SLEEPBEFORE_START,1516046646308,72
13,PLAYER_SLEEPBEFORE_END,1516046646513,72
13,WS_SEND_START,1516046646513,72
13,WS_SEND_END,1516046646513,72
13,WS_RECV_START,1516046646513,73
13,WS_RECV_END,1516046646584,73
13,PLAYER_SLEEPBEFORE_START,1516046646584,74
13,PLAYER_SLEEPBEFORE_END,1516046648006,74
13,WS_SEND_START,1516046648006,74
13,WS_SEND_END,1516046648006,74
13,WS_RECV_START,1516046648006,75
13,WS_RECV_END,1516046648104,75
13,PLAYER_SLEEPBEFORE_START,1516046648104,76
13,PLAYER_SLEEPBEFORE_END,1516046648599,76
13,WS_SEND_START,1516046648599,76
13,WS_SEND_END,1516046648599,76
13,WS_RECV_START,1516046648599,77
13,WS_RECV_END,1516046650397,77
13,PLAYER_SLEEPBEFORE_START,1516046650397,78
13,PLAYER_SLEEPBEFORE_END,1516046650415,78
13,WS_SEND_START,1516046650415,78
13,WS_SEND_END,1516046650416,78
13,WS_RECV_START,1516046650416,79
13,WS_RECV_END,1516046653195,79
13,PLAYER_SLEEPBEFORE_START,1516046653195,80
13,PLAYER_SLEEPBEFORE_END,1516046673929,80
13,WS_SEND_START,1516046673929,80
13,WS_SEND_END,1516046673929,80
13,WS_RECV_START,1516046673929,81
13,WS_RECV_END,1516046680743,81
13,PLAYER_SLEEPBEFORE_START,1516046680743,82
13,PLAYER_SLEEPBEFORE_END,1516046680754,82
13,WS_SEND_START,1516046680754,82
13,WS_SEND_END,1516046680754,82
13,WS_RECV_START,1516046680754,83
13,WS_RECV_END,1516046681172,83
13,PLAYER_SLEEPBEFORE_START,1516046681172,84
13,PLAYER_SLEEPBEFORE_END,1516046682035,84
13,WS_SEND_START,1516046682035,84
13,WS_SEND_END,1516046682035,84
13,WS_RECV_START,1516046682035,85
13,WS_RECV_END,1516046683940,85
13,PLAYER_SLEEPBEFORE_START,1516046683940,86
13,PLAYER_SLEEPBEFORE_END,1516046684667,86
13,WS_SEND_START,1516046684667,86
13,WS_SEND_END,1516046684667,86
13,WS_RECV_START,1516046684667,87
13,WS_RECV_END,1516046686240,87
13,PLAYER_SLEEPBEFORE_START,1516046686241,88
13,PLAYER_SLEEPBEFORE_END,1516046686262,88
13,WS_SEND_START,1516046686262,88
13,WS_SEND_END,1516046686262,88
13,WS_RECV_START,1516046686262,89
13,WS_RECV_END,1516046690378,89
13,PLAYER_SLEEPBEFORE_START,1516046690378,90
13,PLAYER_SLEEPBEFORE_END,1516046711807,90
13,WS_SEND_START,1516046711807,90
13,WS_SEND_END,1516046711807,90
13,PLAYER_SLEEPBEFORE_START,1516046711807,91
13,PLAYER_SLEEPBEFORE_END,1516046738662,91
13,WS_SEND_START,1516046738662,91
13,WS_SEND_END,1516046738662,91
13,WS_RECV_START,1516046738662,92
13,WS_RECV_END,1516046738855,92
13,PLAYER_SLEEPBEFORE_START,1516046738855,93
13,PLAYER_SLEEPBEFORE_END,1516046741129,93
13,WS_SEND_START,1516046741129,93
13,WS_SEND_END,1516046741129,93
13,WS_RECV_START,1516046741129,94
13,WS_RECV_END,1516046741478,94
13,PLAYER_SLEEPBEFORE_START,1516046741478,95
13,PLAYER_SLEEPBEFORE_END,1516046767474,95
13,WS_SEND_START,1516046767474,95
13,WS_SEND_END,1516046767474,95
13,WS_RECV_START,1516046767474,96
13,WS_RECV_END,1516046767647,96
13,PLAYER_SLEEPBEFORE_START,1516046767647,97
13,PLAYER_SLEEPBEFORE_END,1516046772735,97
13,WS_SEND_START,1516046772735,97
13,WS_SEND_END,1516046772735,97
13,WS_RECV_START,1516046772735,98
13,WS_RECV_END,1516046773328,98
13,PLAYER_SLEEPBEFORE_START,1516046773328,99
13,PLAYER_SLEEPBEFORE_END,1516046775028,99
13,WS_SEND_START,1516046775028,99
13,WS_SEND_END,1516046775028,99
13,WS_RECV_START,1516046775028,100
13,WS_RECV_END,1516046776356,100
13,PLAYER_SLEEPBEFORE_START,1516046776356,101
13,PLAYER_SLEEPBEFORE_END,1516046778195,101
13,WS_SEND_START,1516046778195,101
13,WS_SEND_END,1516046778195,101
13,WS_RECV_START,1516046778195,102
13,WS_RECV_END,1516046778883,102
13,PLAYER_SLEEPBEFORE_START,1516046778883,103
13,PLAYER_SLEEPBEFORE_END,1516046791933,103
13,WS_SEND_START,1516046791933,103
13,WS_SEND_END,1516046791933,103
13,PLAYER_SLEEPBEFORE_START,1516046791933,104
13,PLAYER_SLEEPBEFORE_END,1516046796359,104
13,WS_SEND_START,1516046796359,104
13,WS_SEND_END,1516046796359,104
13,WS_RECV_START,1516046796359,105
13,WS_RECV_END,1516046796549,105
13,PLAYER_SLEEPBEFORE_START,1516046796549,106
13,PLAYER_SLEEPBEFORE_END,1516046796559,106
13,WS_SEND_START,1516046796559,106
13,WS_SEND_END,1516046796559,106
13,WS_RECV_START,1516046796559,107
13,WS_RECV_END,1516046796659,107
13,PLAYER_SLEEPBEFORE_START,1516046796659,108
13,PLAYER_SLEEPBEFORE_END,1516046797123,108
13,WS_SEND_START,1516046797123,108
13,WS_SEND_END,1516046797123,108
13,WS_RECV_START,1516046797123,109
13,WS_RECV_END,1516046798455,109
13,PLAYER_SLEEPBEFORE_START,1516046798455,110
13,PLAYER_SLEEPBEFORE_END,1516046798470,110
13,WS_SEND_START,1516046798470,110
13,WS_SEND_END,1516046798470,110
13,WS_RECV_START,1516046798470,111
13,WS_RECV_END,1516046799868,111
13,PLAYER_SLEEPBEFORE_START,1516046799868,112
13,PLAYER_SLEEPBEFORE_END,1516046820632,112
13,WS_SEND_START,1516046820632,112
13,WS_SEND_END,1516046820632,112
13,PLAYER_SLEEPBEFORE_START,1516046820632,113
13,PLAYER_SLEEPBEFORE_END,1516046823026,113
13,WS_SEND_START,1516046823026,113
13,WS_SEND_END,1516046823026,113
13,WS_RECV_START,1516046823026,114
13,WS_RECV_END,1516046823618,114
13,PLAYER_SLEEPBEFORE_START,1516046823618,115
13,PLAYER_SLEEPBEFORE_END,1516046824400,115
13,WS_SEND_START,1516046824400,115
13,WS_SEND_END,1516046824400,115
13,WS_RECV_START,1516046824400,116
13,WS_RECV_END,1516046824792,116
13,PLAYER_SLEEPBEFORE_START,1516046824792,117
13,PLAYER_SLEEPBEFORE_END,1516046847177,117
13,WS_SEND_START,1516046847177,117
13,WS_SEND_END,1516046847177,117
13,WS_RECV_START,1516046847177,118
13,WS_RECV_END,1516046847422,118
13,PLAYER_SLEEPBEFORE_START,1516046847422,119
13,PLAYER_SLEEPBEFORE_END,1516046849326,119
13,WS_SEND_START,1516046849326,119
13,WS_SEND_END,1516046849326,119
13,WS_RECV_START,1516046849326,120
13,WS_RECV_END,1516046849751,120
13,PLAYER_SLEEPBEFORE_START,1516046849751,121
13,PLAYER_SLEEPBEFORE_END,1516046850903,121
13,WS_SEND_START,1516046850903,121
13,WS_SEND_END,1516046850903,121
13,WS_RECV_START,1516046850903,122
13,WS_RECV_END,1516046851076,122
13,PLAYER_SLEEPBEFORE_START,1516046851076,123
13,PLAYER_SLEEPBEFORE_END,1516046852201,123
13,WS_SEND_START,1516046852201,123
13,WS_SEND_END,1516046852201,123
13,WS_RECV_START,1516046852201,124
13,WS_RECV_END,1516046852365,124
13,PLAYER_SLEEPBEFORE_START,1516046852365,125
13,PLAYER_SLEEPBEFORE_END,1516046853861,125
13,WS_SEND_START,1516046853861,125
13,WS_SEND_END,1516046853861,125
13,WS_RECV_START,1516046853861,126
13,WS_RECV_END,1516046854032,126
13,PLAYER_SLEEPBEFORE_START,1516046854032,127
13,PLAYER_SLEEPBEFORE_END,1516046874642,127
13,WS_SEND_START,1516046874642,127
13,WS_SEND_END,1516046874642,127
13,WS_RECV_START,1516046874642,128
13,WS_RECV_END,1516046874903,128
13,PLAYER_SLEEPBEFORE_START,1516046874903,129
13,PLAYER_SLEEPBEFORE_END,1516046899934,129
13,WS_SEND_START,1516046899934,129
13,WS_SEND_END,1516046899934,129
13,PLAYER_SLEEPBEFORE_START,1516046899934,130
13,PLAYER_SLEEPBEFORE_END,1516046901914,130
13,WS_SEND_START,1516046901914,130
13,WS_SEND_END,1516046901914,130
13,WS_RECV_START,1516046901914,131
13,WS_RECV_END,1516046901980,131
13,PLAYER_SLEEPBEFORE_START,1516046901980,132
13,PLAYER_SLEEPBEFORE_END,1516046901990,132
13,WS_SEND_START,1516046901990,132
13,WS_SEND_END,1516046901990,132
13,WS_RECV_START,1516046901990,133
13,WS_RECV_END,1516046902091,133
13,PLAYER_SLEEPBEFORE_START,1516046902091,134
13,PLAYER_SLEEPBEFORE_END,1516046903167,134
13,REQ_START,1516046903167,134
13,REQ_END,1516046903175,134
13,PLAYER_SLEEPBEFORE_START,1516046903175,135
13,PLAYER_SLEEPBEFORE_END,1516046903765,135
13,WS_SEND_START,1516046903765,135
13,WS_SEND_END,1516046903765,135
13,WS_RECV_START,1516046903765,136
13,WS_RECV_END,1516046904889,136
13,PLAYER_SLEEPBEFORE_START,1516046904889,137
13,PLAYER_SLEEPBEFORE_END,1516046904902,137
13,WS_SEND_START,1516046904902,137
13,WS_SEND_END,1516046904902,137
13,WS_RECV_START,1516046904902,138
13,WS_RECV_END,1516046905751,138
13,PLAYER_SLEEPBEFORE_START,1516046905751,139
13,PLAYER_SLEEPBEFORE_END,1516046923425,139
13,WS_SEND_START,1516046923425,139
13,WS_SEND_END,1516046923425,139
13,PLAYER_SLEEPBEFORE_START,1516046923425,140
13,PLAYER_SLEEPBEFORE_END,1516046927329,140
13,WS_SEND_START,1516046927329,140
13,WS_SEND_END,1516046927329,140
13,PLAYER_SLEEPBEFORE_START,1516046927329,141
13,PLAYER_SLEEPBEFORE_END,1516046929621,141
13,WS_SEND_START,1516046929621,141
13,WS_SEND_END,1516046929621,141
13,WS_RECV_START,1516046929621,142
13,WS_RECV_END,1516046933812,142
13,PLAYER_SLEEPBEFORE_START,1516046933812,143
13,PLAYER_SLEEPBEFORE_END,1516046933820,143
13,WS_SEND_START,1516046933820,143
13,WS_SEND_END,1516046933820,143
13,WS_RECV_START,1516046933820,144
13,WS_RECV_END,1516046934063,144
13,PLAYER_SLEEPBEFORE_START,1516046934063,145
13,PLAYER_SLEEPBEFORE_END,1516046935806,145
13,WS_SEND_START,1516046935806,145
13,WS_SEND_END,1516046935806,145
13,WS_RECV_START,1516046935807,146
13,WS_RECV_END,1516046937794,146
13,PLAYER_SLEEPBEFORE_START,1516046937794,147
13,PLAYER_SLEEPBEFORE_END,1516046937803,147
13,WS_SEND_START,1516046937803,147
13,WS_SEND_END,1516046937803,147
13,WS_RECV_START,1516046937803,148
13,WS_RECV_END,1516046938105,148
13,PLAYER_SLEEPBEFORE_START,1516046938105,149
13,PLAYER_SLEEPBEFORE_END,1516046953218,149
13,WS_SEND_START,1516046953218,149
13,WS_SEND_END,1516046953218,149
13,PLAYER_SLEEPBEFORE_START,1516046953218,150
13,PLAYER_SLEEPBEFORE_END,1516046963894,150
13,WS_SEND_START,1516046963894,150
13,WS_SEND_END,1516046963894,150
13,PLAYER_SLEEPBEFORE_START,1516046963894,151
13,PLAYER_SLEEPBEFORE_END,1516046966885,151
13,WS_SEND_START,1516046966885,151
13,WS_SEND_END,1516046966885,151
13,WS_RECV_START,1516046966885,152
13,WS_RECV_END,1516046966950,152
13,PLAYER_SLEEPBEFORE_START,1516046966950,153
13,PLAYER_SLEEPBEFORE_END,1516046966957,153
13,WS_SEND_START,1516046966957,153
13,WS_SEND_END,1516046966957,153
13,WS_RECV_START,1516046966957,154
13,WS_RECV_END,1516046966999,154
13,PLAYER_SLEEPBEFORE_START,1516046966999,155
13,PLAYER_SLEEPBEFORE_END,1516046967607,155
13,WS_SEND_START,1516046967607,155
13,WS_SEND_END,1516046967607,155
13,WS_RECV_START,1516046967607,156
13,WS_RECV_END,1516046967667,156
13,PLAYER_SLEEPBEFORE_START,1516046967667,157
13,PLAYER_SLEEPBEFORE_END,1516046969010,157
13,WS_SEND_START,1516046969010,157
13,WS_SEND_END,1516046969010,157
13,WS_RECV_START,1516046969010,158
13,WS_RECV_END,1516046969069,158
13,PLAYER_SLEEPBEFORE_START,1516046969069,159
13,PLAYER_SLEEPBEFORE_END,1516046972970,159
13,WS_SEND_START,1516046972970,159
13,WS_SEND_END,1516046972970,159
13,WS_RECV_START,1516046972970,160
13,WS_RECV_END,1516046973826,160
13,PLAYER_SLEEPBEFORE_START,1516046973826,161
13,PLAYER_SLEEPBEFORE_END,1516046974609,161
13,WS_SEND_START,1516046974609,161
13,WS_SEND_END,1516046974609,161
13,WS_RECV_START,1516046974609,162
13,WS_RECV_END,1516046976135,162
13,PLAYER_SLEEPBEFORE_START,1516046976135,163
13,PLAYER_SLEEPBEFORE_END,1516046976144,163
13,WS_SEND_START,1516046976144,163
13,WS_SEND_END,1516046976144,163
13,WS_RECV_START,1516046976144,164
13,WS_RECV_END,1516046976337,164
13,PLAYER_SLEEPBEFORE_START,1516046976337,165
13,PLAYER_SLEEPBEFORE_END,1516046983710,165
13,WS_SEND_START,1516046983710,165
13,WS_SEND_END,1516046983710,165
13,WS_RECV_START,1516046983710,166
13,WS_RECV_END,1516046984445,166
13,PLAYER_SLEEPBEFORE_START,1516046984445,167
13,PLAYER_SLEEPBEFORE_END,1516047005694,167
13,WS_SEND_START,1516047005694,167
13,WS_SEND_END,1516047005694,167
13,PLAYER_SLEEPBEFORE_START,1516047005694,168
13,PLAYER_SLEEPBEFORE_END,1516047010429,168
13,WS_SEND_START,1516047010429,168
13,WS_SEND_END,1516047010429,168
13,PLAYER_SLEEPBEFORE_START,1516047010429,169
13,PLAYER_SLEEPBEFORE_END,1516047011980,169
13,WS_SEND_START,1516047011980,169
13,WS_SEND_END,1516047011980,169
13,WS_RECV_START,1516047011981,170
13,WS_RECV_END,1516047012045,170
13,PLAYER_SLEEPBEFORE_START,1516047012045,171
13,PLAYER_SLEEPBEFORE_END,1516047012052,171
13,WS_SEND_START,1516047012052,171
13,WS_SEND_END,1516047012052,171
13,WS_RECV_START,1516047012052,172
13,WS_RECV_END,1516047012095,172
13,PLAYER_SLEEPBEFORE_START,1516047012095,173
13,PLAYER_SLEEPBEFORE_END,1516047012863,173
13,WS_SEND_START,1516047012863,173
13,WS_SEND_END,1516047012863,173
13,WS_RECV_START,1516047012863,174
13,WS_RECV_END,1516047012924,174
13,PLAYER_SLEEPBEFORE_START,1516047012924,175
13,PLAYER_SLEEPBEFORE_END,1516047013684,175
13,WS_SEND_START,1516047013684,175
13,WS_SEND_END,1516047013684,175
13,WS_RECV_START,1516047013684,176
13,WS_RECV_END,1516047013775,176
13,PLAYER_SLEEPBEFORE_START,1516047013775,177
13,PLAYER_SLEEPBEFORE_END,1516047014575,177
13,WS_SEND_START,1516047014575,177
13,WS_SEND_END,1516047014575,177
13,WS_RECV_START,1516047014575,178
13,WS_RECV_END,1516047014634,178
13,PLAYER_SLEEPBEFORE_START,1516047014634,179
13,PLAYER_SLEEPBEFORE_END,1516047019888,179
13,WS_SEND_START,1516047019888,179
13,WS_SEND_END,1516047019888,179
13,PLAYER_SLEEPBEFORE_START,1516047019888,180
13,PLAYER_SLEEPBEFORE_END,1516047026506,180
13,WS_SEND_START,1516047026506,180
13,WS_SEND_END,1516047026506,180
13,PLAYER_SLEEPBEFORE_START,1516047026506,181
13,PLAYER_SLEEPBEFORE_END,1516047028242,181
13,WS_SEND_START,1516047028242,181
13,WS_SEND_END,1516047028243,181
13,WS_RECV_START,1516047028243,182
13,WS_RECV_END,1516047028456,182
13,PLAYER_SLEEPBEFORE_START,1516047028456,183
13,PLAYER_SLEEPBEFORE_END,1516047029193,183
13,WS_SEND_START,1516047029193,183
13,WS_SEND_END,1516047029193,183
13,WS_RECV_START,1516047029193,184
13,WS_RECV_END,1516047032446,184
13,PLAYER_SLEEPBEFORE_START,1516047032446,185
13,PLAYER_SLEEPBEFORE_END,1516047032459,185
13,WS_SEND_START,1516047032459,185
13,WS_SEND_END,1516047032459,185
13,WS_RECV_START,1516047032459,186
13,WS_RECV_END,1516047033726,186
13,PLAYER_SLEEPBEFORE_START,1516047033726,187
13,PLAYER_SLEEPBEFORE_END,1516047058733,187
13,WS_SEND_START,1516047058733,187
13,WS_SEND_END,1516047058733,187
13,WS_RECV_START,1516047058733,188
13,WS_RECV_END,1516047061461,188
13,PLAYER_SLEEPBEFORE_START,1516047061461,189
13,PLAYER_SLEEPBEFORE_END,1516047086684,189
13,WS_SEND_START,1516047086684,189
13,WS_SEND_END,1516047086684,189
13,WS_RECV_START,1516047086684,190
13,WS_RECV_END,1516047086744,190
13,PLAYER_SLEEPBEFORE_START,1516047086744,191
13,PLAYER_SLEEPBEFORE_END,1516047086750,191
13,WS_SEND_START,1516047086750,191
13,WS_SEND_END,1516047086750,191
13,WS_RECV_START,1516047086750,192
13,WS_RECV_END,1516047086791,192
13,PLAYER_SLEEPBEFORE_START,1516047086791,193
13,PLAYER_SLEEPBEFORE_END,1516047087228,193
13,WS_SEND_START,1516047087228,193
13,WS_SEND_END,1516047087228,193
13,WS_RECV_START,1516047087228,194
13,WS_RECV_END,1516047089852,194
13,PLAYER_SLEEPBEFORE_START,1516047089852,195
13,PLAYER_SLEEPBEFORE_END,1516047089865,195
13,WS_SEND_START,1516047089865,195
13,WS_SEND_END,1516047089865,195
13,WS_RECV_START,1516047089865,196
13,WS_RECV_END,1516047091849,196
13,PLAYER_SLEEPBEFORE_START,1516047091849,197
13,PLAYER_SLEEPBEFORE_END,1516047116619,197
13,WS_SEND_START,1516047116619,197
13,WS_SEND_END,1516047116619,197
13,WS_RECV_START,1516047116619,198
13,WS_RECV_END,1516047117126,198
13,PLAYER_SLEEPBEFORE_START,1516047117126,199
13,PLAYER_SLEEPBEFORE_END,1516047117133,199
13,WS_SEND_START,1516047117133,199
13,WS_SEND_END,1516047117133,199
13,WS_RECV_START,1516047117133,200
13,WS_RECV_END,1516047117247,200
13,PLAYER_SLEEPBEFORE_START,1516047117247,201
13,PLAYER_SLEEPBEFORE_END,1516047118544,201
13,WS_SEND_START,1516047118544,201
13,WS_SEND_END,1516047118544,201
13,WS_RECV_START,1516047118544,202
13,WS_RECV_END,1516047121002,202
13,PLAYER_SLEEPBEFORE_START,1516047121002,203
13,PLAYER_SLEEPBEFORE_END,1516047121014,203
13,WS_SEND_START,1516047121014,203
13,WS_SEND_END,1516047121014,203
13,WS_RECV_START,1516047121014,204
13,WS_RECV_END,1516047122203,204
13,PLAYER_SLEEPBEFORE_START,1516047122203,205
13,PLAYER_SLEEPBEFORE_END,1516047143835,205
13,WS_SEND_START,1516047143835,205
13,WS_SEND_END,1516047143835,205
13,WS_RECV_START,1516047143835,206
13,WS_RECV_END,1516047146294,206
13,PLAYER_SLEEPBEFORE_START,1516047146294,207
13,PLAYER_SLEEPBEFORE_END,1516047170417,207
13,WS_SEND_START,1516047170417,207
13,WS_SEND_END,1516047170417,207
13,WS_RECV_START,1516047170417,208
13,WS_RECV_END,1516047170534,208
13,PLAYER_SLEEPBEFORE_START,1516047170534,209
13,PLAYER_SLEEPBEFORE_END,1516047176948,209
13,WS_SEND_START,1516047176948,209
13,WS_SEND_END,1516047176948,209
13,WS_RECV_START,1516047176948,210
13,WS_RECV_END,1516047177070,210
13,PLAYER_SLEEPBEFORE_START,1516047177070,211
13,PLAYER_SLEEPBEFORE_END,1516047195902,211
13,WS_SEND_START,1516047195902,211
13,WS_SEND_END,1516047195902,211
13,WS_RECV_START,1516047195902,212
13,WS_RECV_END,1516047196025,212
13,PLAYER_SLEEPBEFORE_START,1516047196025,213
13,PLAYER_SLEEPBEFORE_END,1516047221078,213
13,WS_SEND_START,1516047221078,213
13,WS_SEND_END,1516047221078,213
13,WS_RECV_START,1516047221078,214
13,WS_RECV_END,1516047221664,214
13,PLAYER_SLEEPBEFORE_START,1516047221664,215
13,PLAYER_SLEEPBEFORE_END,1516047229775,215
13,REQ_START,1516047229775,215
13,REQ_END,1516047229783,215
13,PLAYER_SLEEPBEFORE_START,1516047229783,216
13,PLAYER_SLEEPBEFORE_END,1516047246344,216
13,WS_SEND_START,1516047246344,216
13,WS_SEND_END,1516047246344,216
13,WS_RECV_START,1516047246344,217
13,WS_RECV_END,1516047249079,217
13,PLAYER_SLEEPBEFORE_START,1516047249079,218
13,PLAYER_SLEEPBEFORE_END,1516047249086,218
13,WS_SEND_START,1516047249086,218
13,WS_SEND_END,1516047249086,218
13,WS_RECV_START,1516047249086,219
13,WS_RECV_END,1516047249511,219
13,PLAYER_SLEEPBEFORE_START,1516047249511,220
13,PLAYER_SLEEPBEFORE_END,1516047250279,220
13,WS_SEND_START,1516047250279,220
13,WS_SEND_END,1516047250279,220
13,WS_RECV_START,1516047250279,221
13,WS_RECV_END,1516047252594,221
13,PLAYER_SLEEPBEFORE_START,1516047252594,222
13,PLAYER_SLEEPBEFORE_END,1516047252651,222
13,WS_SEND_START,1516047252651,222
13,WS_SEND_END,1516047252651,222
13,WS_RECV_START,1516047252651,223
13,WS_RECV_END,1516047267124,223
13,PLAYER_SLEEPBEFORE_START,1516047267124,224
13,PLAYER_SLEEPBEFORE_END,1516047289780,224
13,WS_SEND_START,1516047289780,224
13,WS_SEND_END,1516047289780,224
13,WS_RECV_START,1516047289780,225
13,WS_RECV_END,1516047290617,225
13,PLAYER_SLEEPBEFORE_START,1516047290617,226
13,PLAYER_SLEEPBEFORE_END,1516047316352,226
13,WS_SEND_START,1516047316352,226
13,WS_SEND_END,1516047316352,226
13,WS_RECV_START,1516047316352,227
13,WS_RECV_END,1516047316538,227
13,PLAYER_SLEEPBEFORE_START,1516047316538,228
13,PLAYER_SLEEPBEFORE_END,1516047339531,228
13,WS_SEND_START,1516047339531,228
13,WS_SEND_END,1516047339531,228
13,WS_RECV_START,1516047339531,229
13,WS_RECV_END,1516047339670,229
13,PLAYER_SLEEPBEFORE_START,1516047339670,230
13,PLAYER_SLEEPBEFORE_END,1516047363886,230
13,WS_SEND_START,1516047363886,230
13,WS_SEND_END,1516047363886,230
13,WS_RECV_START,1516047363886,231
13,WS_RECV_END,1516047364045,231
13,PLAYER_SLEEPBEFORE_START,1516047364045,232
13,PLAYER_SLEEPBEFORE_END,1516047388802,232
13,WS_SEND_START,1516047388802,232
13,WS_SEND_END,1516047388802,232
13,WS_RECV_START,1516047388802,233
13,WS_RECV_END,1516047388926,233
13,PLAYER_SLEEPBEFORE_START,1516047388926,234
13,PLAYER_SLEEPBEFORE_END,1516047415959,234
13,WS_SEND_START,1516047415959,234
13,WS_SEND_END,1516047415959,234
13,WS_RECV_START,1516047415959,235
13,WS_RECV_END,1516047416078,235
13,PLAYER_SLEEPBEFORE_START,1516047416078,236
13,PLAYER_SLEEPBEFORE_END,1516047439919,236
13,WS_SEND_START,1516047439919,236
13,WS_SEND_END,1516047439919,236
13,WS_RECV_START,1516047439919,237
13,WS_RECV_END,1516047440746,237
13,PLAYER_SLEEPBEFORE_START,1516047440746,238
13,PLAYER_SLEEPBEFORE_END,1516047453556,238
13,WS_SEND_START,1516047453556,238
13,WS_SEND_END,1516047453556,238
13,WS_RECV_START,1516047453556,239
13,WS_RECV_END,1516047458424,239
13,PLAYER_SLEEPBEFORE_START,1516047458424,240
13,PLAYER_SLEEPBEFORE_END,1516047471079,240
13,WS_SEND_START,1516047471079,240
13,WS_SEND_END,1516047471079,240
13,WS_RECV_START,1516047471079,241
13,WS_RECV_END,1516047476721,241
13,PLAYER_SLEEPBEFORE_START,1516047476721,242
13,PLAYER_SLEEPBEFORE_END,1516047476744,242
13,WS_SEND_START,1516047476744,242
13,WS_SEND_END,1516047476744,242
13,WS_RECV_START,1516047476744,243
13,WS_RECV_END,1516047480374,243
13,PLAYER_SLEEPBEFORE_START,1516047480374,244
13,PLAYER_SLEEPBEFORE_END,1516047502612,244
13,WS_SEND_START,1516047502612,244
13,WS_SEND_END,1516047502612,244
13,WS_RECV_START,1516047502612,245
13,WS_RECV_END,1516047504535,245
13,PLAYER_SLEEPBEFORE_START,1516047504535,246
13,PLAYER_SLEEPBEFORE_END,1516047504544,246
13,WS_SEND_START,1516047504544,246
13,WS_SEND_END,1516047504544,246
13,WS_RECV_START,1516047504544,247
13,WS_RECV_END,1516047504802,247
13,PLAYER_SLEEPBEFORE_START,1516047504802,248
13,PLAYER_SLEEPBEFORE_END,1516047506839,248
13,WS_SEND_START,1516047506839,248
13,WS_SEND_END,1516047506839,248
13,WS_RECV_START,1516047506839,249
13,WS_RECV_END,1516047521313,249
13,PLAYER_SLEEPBEFORE_START,1516047521313,250
13,PLAYER_SLEEPBEFORE_END,1516047521351,250
13,WS_SEND_START,1516047521351,250
13,WS_SEND_END,1516047521351,250
13,WS_RECV_START,1516047521351,251
13,WS_RECV_END,1516047525062,251
13,PLAYER_SLEEPBEFORE_START,1516047525062,252
13,PLAYER_SLEEPBEFORE_END,1516047547704,252
13,WS_SEND_START,1516047547704,252
13,WS_SEND_END,1516047547704,252
13,WS_RECV_START,1516047547704,253
13,WS_RECV_END,1516047558072,253
13,PLAYER_SLEEPBEFORE_START,1516047558072,254
13,PLAYER_SLEEPBEFORE_END,1516047558088,254
13,WS_SEND_START,1516047558088,254
13,WS_SEND_END,1516047558088,254
13,WS_RECV_START,1516047558088,255
13,WS_RECV_END,1516047560058,255
13,PLAYER_SLEEPBEFORE_START,1516047560058,256
13,PLAYER_SLEEPBEFORE_END,1516047584680,256
13,WS_SEND_START,1516047584680,256
13,WS_SEND_END,1516047584680,256
13,WS_RECV_START,1516047584680,257
13,WS_RECV_END,1516047586256,257
13,PLAYER_SLEEPBEFORE_START,1516047586256,258
13,PLAYER_SLEEPBEFORE_END,1516047586264,258
13,WS_SEND_START,1516047586264,258
13,WS_SEND_END,1516047586264,258
13,WS_RECV_START,1516047586264,259
13,WS_RECV_END,1516047586381,259
13,PLAYER_SLEEPBEFORE_START,1516047586381,260
13,PLAYER_SLEEPBEFORE_END,1516047586906,260
13,WS_SEND_START,1516047586906,260
13,WS_SEND_END,1516047586906,260
13,WS_RECV_START,1516047586906,261
13,WS_RECV_END,1516047587302,261
13,PLAYER_SLEEPBEFORE_START,1516047587302,262
13,PLAYER_SLEEPBEFORE_END,1516047587574,262
13,WS_SEND_START,1516047587574,262
13,WS_SEND_END,1516047587574,262
13,WS_RECV_START,1516047587574,263
13,WS_RECV_END,1516047587833,263
13,PLAYER_SLEEPBEFORE_START,1516047587833,264
13,PLAYER_SLEEPBEFORE_END,1516047590246,264
13,WS_SEND_START,1516047590246,264
13,WS_SEND_END,1516047590246,264
13,WS_RECV_START,1516047590246,265
13,WS_RECV_END,1516047591755,265
13,PLAYER_SLEEPBEFORE_START,1516047591755,266
13,PLAYER_SLEEPBEFORE_END,1516047591767,266
13,WS_SEND_START,1516047591767,266
13,WS_SEND_END,1516047591767,266
13,WS_RECV_START,1516047591767,267
13,WS_RECV_END,1516047592698,267
13,PLAYER_SLEEPBEFORE_START,1516047592698,268
13,PLAYER_SLEEPBEFORE_END,1516047594168,268
13,REQ_START,1516047594168,268
13,REQ_END,1516047594176,268
13,PLAYER_SLEEPBEFORE_START,1516047594176,269
13,PLAYER_SLEEPBEFORE_END,1516047611571,269
13,WS_SEND_START,1516047611571,269
13,WS_SEND_END,1516047611571,269
13,WS_RECV_START,1516047611571,270
13,WS_RECV_END,1516047612017,270
13,PLAYER_SLEEPBEFORE_START,1516047612017,271
13,PLAYER_SLEEPBEFORE_END,1516047612024,271
13,WS_SEND_START,1516047612024,271
13,WS_SEND_END,1516047612024,271
13,WS_RECV_START,1516047612024,272
13,WS_RECV_END,1516047612257,272
13,PLAYER_SLEEPBEFORE_START,1516047612257,273
13,PLAYER_SLEEPBEFORE_END,1516047613555,273
13,WS_SEND_START,1516047613555,273
13,WS_SEND_END,1516047613555,273
13,WS_RECV_START,1516047613555,274
13,WS_RECV_END,1516047614237,274
13,PLAYER_SLEEPBEFORE_START,1516047614237,275
13,PLAYER_SLEEPBEFORE_END,1516047615410,275
13,WS_SEND_START,1516047615410,275
13,WS_SEND_END,1516047615410,275
13,WS_RECV_START,1516047615411,276
13,WS_RECV_END,1516047622587,276
13,PLAYER_SLEEPBEFORE_START,1516047622587,277
13,PLAYER_SLEEPBEFORE_END,1516047622609,277
13,WS_SEND_START,1516047622609,277
13,WS_SEND_END,1516047622609,277
13,WS_RECV_START,1516047622609,278
13,WS_RECV_END,1516047625291,278
13,PLAYER_SLEEPBEFORE_START,1516047625291,279
13,PLAYER_SLEEPBEFORE_END,1516047649814,279
13,WS_SEND_START,1516047649814,279
13,WS_SEND_END,1516047649814,279
13,WS_RECV_START,1516047649814,280
13,WS_RECV_END,1516047653664,280
13,PLAYER_SLEEPBEFORE_START,1516047653664,281
13,PLAYER_SLEEPBEFORE_END,1516047675952,281
13,WS_SEND_START,1516047675952,281
13,WS_SEND_END,1516047675952,281
13,WS_RECV_START,1516047675952,282
13,WS_RECV_END,1516047677780,282
13,PLAYER_SLEEPBEFORE_START,1516047677780,283
13,PLAYER_SLEEPBEFORE_END,1516047677798,283
13,WS_SEND_START,1516047677798,283
13,WS_SEND_END,1516047677798,283
13,WS_RECV_START,1516047677798,284
13,WS_RECV_END,1516047678044,284
13,PLAYER_SLEEPBEFORE_START,1516047678044,285
13,PLAYER_SLEEPBEFORE_END,1516047702175,285
13,WS_SEND_START,1516047702175,285
13,WS_SEND_END,1516047702175,285
13,WS_RECV_START,1516047702175,286
13,WS_RECV_END,1516047705320,286
13,PLAYER_SLEEPBEFORE_START,1516047705320,287
13,PLAYER_SLEEPBEFORE_END,1516047728474,287
13,WS_SEND_START,1516047728474,287
13,WS_SEND_END,1516047728474,287
13,WS_RECV_START,1516047728474,288
13,WS_RECV_END,1516047730138,288
13,PLAYER_SLEEPBEFORE_START,1516047730138,289
13,PLAYER_SLEEPBEFORE_END,1516047730160,289
13,WS_SEND_START,1516047730160,289
13,WS_SEND_END,1516047730160,289
13,WS_RECV_START,1516047730160,290
13,WS_RECV_END,1516047731309,290
13,PLAYER_SLEEPBEFORE_START,1516047731309,291
13,PLAYER_SLEEPBEFORE_END,1516047741923,291
13,WS_SEND_START,1516047741923,291
13,WS_SEND_END,1516047741923,291
13,WS_RECV_START,1516047741923,292
13,WS_RECV_END,1516047742172,292
13,PLAYER_SLEEPBEFORE_START,1516047742172,293
13,PLAYER_SLEEPBEFORE_END,1516047757928,293
13,WS_SEND_START,1516047757928,293
13,WS_SEND_END,1516047757928,293
13,WS_RECV_START,1516047757928,294
13,WS_RECV_END,1516047769226,294
13,PLAYER_SLEEPBEFORE_START,1516047769226,295
13,PLAYER_SLEEPBEFORE_END,1516047769251,295
13,WS_SEND_START,1516047769251,295
13,WS_SEND_END,1516047769251,295
13,WS_RECV_START,1516047769251,296
13,WS_RECV_END,1516047781255,296
13,PLAYER_SLEEPBEFORE_START,1516047781255,297
13,PLAYER_SLEEPBEFORE_END,1516047802752,297
13,WS_SEND_START,1516047802752,297
13,WS_SEND_END,1516047802752,297
13,WS_RECV_START,1516047802752,298
13,WS_RECV_END,1516047808734,298
13,PLAYER_SLEEPBEFORE_START,1516047808734,299
13,PLAYER_SLEEPBEFORE_END,1516047808744,299
13,WS_SEND_START,1516047808744,299
13,WS_SEND_END,1516047808744,299
13,WS_RECV_START,1516047808744,300
13,WS_RECV_END,1516047810594,300
13,PLAYER_SLEEPBEFORE_START,1516047810594,301
13,PLAYER_SLEEPBEFORE_END,1516047812954,301
13,WS_SEND_START,1516047812954,301
13,WS_SEND_END,1516047812954,301
13,WS_RECV_START,1516047812954,302
13,WS_RECV_END,1516047823851,302
13,PLAYER_SLEEPBEFORE_START,1516047823851,303
13,PLAYER_SLEEPBEFORE_END,1516047823875,303
13,WS_SEND_START,1516047823875,303
13,WS_SEND_END,1516047823875,303
13,WS_RECV_START,1516047823875,304
13,WS_RECV_END,1516047827762,304
13,PLAYER_SLEEPBEFORE_START,1516047827762,305
13,PLAYER_SLEEPBEFORE_END,1516047852752,305
13,WS_SEND_START,1516047852752,305
13,WS_SEND_END,1516047852752,305
13,WS_RECV_START,1516047852752,306
13,WS_RECV_END,1516047854736,306
13,PLAYER_SLEEPBEFORE_START,1516047854736,307
13,PLAYER_SLEEPBEFORE_END,1516047878611,307
13,WS_SEND_START,1516047878611,307
13,WS_SEND_END,1516047878611,307
13,WS_RECV_START,1516047878612,308
13,WS_RECV_END,1516047878732,308
13,PLAYER_SLEEPBEFORE_START,1516047878732,309
13,PLAYER_SLEEPBEFORE_END,1516047900423,309
13,WS_SEND_START,1516047900423,309
13,WS_SEND_END,1516047900423,309
13,WS_RECV_START,1516047900423,310
13,WS_RECV_END,1516047901213,310
13,PLAYER_SLEEPBEFORE_START,1516047901213,311
13,PLAYER_SLEEPBEFORE_END,1516047930040,311
13,WS_SEND_START,1516047930040,311
13,WS_SEND_END,1516047930040,311
13,WS_RECV_START,1516047930040,312
13,WS_RECV_END,1516047933338,312
13,PLAYER_SLEEPBEFORE_START,1516047933338,313
13,PLAYER_SLEEPBEFORE_END,1516047933358,313
13,WS_SEND_START,1516047933358,313
13,WS_SEND_END,1516047933358,313
13,WS_RECV_START,1516047933358,314
13,WS_RECV_END,1516047935835,314
13,PLAYER_SLEEPBEFORE_START,1516047935835,315
13,PLAYER_SLEEPBEFORE_END,1516047957421,315
13,WS_SEND_START,1516047957421,315
13,WS_SEND_END,1516047957421,315
13,WS_RECV_START,1516047957421,316
13,WS_RECV_END,1516047964530,316
13,PLAYER_SLEEPBEFORE_START,1516047964530,317
13,PLAYER_SLEEPBEFORE_END,1516047964538,317
13,WS_SEND_START,1516047964538,317
13,WS_SEND_END,1516047964538,317
13,WS_RECV_START,1516047964538,318
13,WS_RECV_END,1516047965038,318
13,PLAYER_SLEEPBEFORE_START,1516047965038,319
13,PLAYER_SLEEPBEFORE_END,1516047965370,319
13,WS_SEND_START,1516047965370,319
13,WS_SEND_END,1516047965370,319
13,WS_RECV_START,1516047965370,320
13,WS_RECV_END,1516047966402,320
13,PLAYER_SLEEPBEFORE_START,1516047966402,321
13,PLAYER_SLEEPBEFORE_END,1516047966421,321
13,WS_SEND_START,1516047966421,321
13,WS_SEND_END,1516047966421,321
13,WS_RECV_START,1516047966421,322
13,WS_RECV_END,1516047971105,322
13,PLAYER_SLEEPBEFORE_START,1516047971105,323
13,PLAYER_SLEEPBEFORE_END,1516047975498,323
13,REQ_START,1516047975498,323
13,REQ_END,1516047975508,323
13,PLAYER_SLEEPBEFORE_START,1516047975508,324
13,PLAYER_SLEEPBEFORE_END,1516047995394,324
13,WS_SEND_START,1516047995394,324
13,WS_SEND_END,1516047995394,324
13,WS_RECV_START,1516047995394,325
13,WS_RECV_END,1516047997092,325
13,PLAYER_SLEEPBEFORE_START,1516047997092,326
13,PLAYER_SLEEPBEFORE_END,1516047997102,326
13,WS_SEND_START,1516047997102,326
13,WS_SEND_END,1516047997102,326
13,WS_RECV_START,1516047997102,327
13,WS_RECV_END,1516047997446,327
13,PLAYER_SLEEPBEFORE_START,1516047997446,328
13,PLAYER_SLEEPBEFORE_END,1516047997807,328
13,WS_SEND_START,1516047997807,328
13,WS_SEND_END,1516047997807,328
13,WS_RECV_START,1516047997807,329
13,WS_RECV_END,1516047998852,329
13,PLAYER_SLEEPBEFORE_START,1516047998852,330
13,PLAYER_SLEEPBEFORE_END,1516047999198,330
13,WS_SEND_START,1516047999198,330
13,WS_SEND_END,1516047999198,330
13,WS_RECV_START,1516047999198,331
13,WS_RECV_END,1516048001704,331
13,PLAYER_SLEEPBEFORE_START,1516048001704,332
13,PLAYER_SLEEPBEFORE_END,1516048002551,332
13,WS_SEND_START,1516048002551,332
13,WS_SEND_END,1516048002551,332
13,WS_RECV_START,1516048002551,333
13,WS_RECV_END,1516048005023,333
13,PLAYER_SLEEPBEFORE_START,1516048005023,334
13,PLAYER_SLEEPBEFORE_END,1516048005420,334
13,WS_SEND_START,1516048005420,334
13,WS_SEND_END,1516048005420,334
13,WS_RECV_START,1516048005420,335
13,WS_RECV_END,1516048007437,335
13,PLAYER_SLEEPBEFORE_START,1516048007437,336
13,PLAYER_SLEEPBEFORE_END,1516048007761,336
13,WS_SEND_START,1516048007761,336
13,WS_SEND_END,1516048007761,336
13,WS_RECV_START,1516048007761,337
13,WS_RECV_END,1516048011450,337
13,PLAYER_SLEEPBEFORE_START,1516048011450,338
13,PLAYER_SLEEPBEFORE_END,1516048011465,338
13,WS_SEND_START,1516048011465,338
13,WS_SEND_END,1516048011465,338
13,WS_RECV_START,1516048011465,339
13,WS_RECV_END,1516048012026,339
13,PLAYER_SLEEPBEFORE_START,1516048012026,340
13,PLAYER_SLEEPBEFORE_END,1516048029999,340
13,WS_SEND_START,1516048029999,340
13,WS_SEND_END,1516048029999,340
13,WS_RECV_START,1516048029999,341
13,WS_RECV_END,1516048031988,341
13,PLAYER_SLEEPBEFORE_START,1516048031988,342
13,PLAYER_SLEEPBEFORE_END,1516048031997,342
13,WS_SEND_START,1516048031997,342
13,WS_SEND_END,1516048031997,342
13,WS_RECV_START,1516048031997,343
13,WS_RECV_END,1516048037158,343
13,PLAYER_SLEEPBEFORE_START,1516048037158,344
13,PLAYER_SLEEPBEFORE_END,1516048039470,344
13,WS_SEND_START,1516048039470,344
13,WS_SEND_END,1516048039470,344
13,WS_RECV_START,1516048039470,345
13,WS_RECV_END,1516048044122,345
13,PLAYER_SLEEPBEFORE_START,1516048044122,346
13,PLAYER_SLEEPBEFORE_END,1516048044133,346
13,WS_SEND_START,1516048044133,346
13,WS_SEND_END,1516048044133,346
13,WS_RECV_START,1516048044133,347
13,WS_RECV_END,1516048047087,347
13,PLAYER_SLEEPBEFORE_START,1516048047087,348
13,PLAYER_SLEEPBEFORE_END,1516048067694,348
13,WS_SEND_START,1516048067694,348
13,WS_SEND_END,1516048067694,348
13,WS_RECV_START,1516048067694,349
13,WS_RECV_END,1516048069274,349
13,PLAYER_SLEEPBEFORE_START,1516048069274,350
13,PLAYER_SLEEPBEFORE_END,1516048069282,350
13,WS_SEND_START,1516048069282,350
13,WS_SEND_END,1516048069282,350
13,WS_RECV_START,1516048069282,351
13,WS_RECV_END,1516048069762,351
13,PLAYER_SLEEPBEFORE_START,1516048069762,352
13,PLAYER_SLEEPBEFORE_END,1516048070948,352
13,WS_SEND_START,1516048070948,352
13,WS_SEND_END,1516048070948,352
13,WS_RECV_START,1516048070948,353
13,WS_RECV_END,1516048080836,353
13,PLAYER_SLEEPBEFORE_START,1516048080836,354
13,PLAYER_SLEEPBEFORE_END,1516048080852,354
13,WS_SEND_START,1516048080852,354
13,WS_SEND_END,1516048080852,354
13,WS_RECV_START,1516048080852,355
13,WS_RECV_END,1516048091280,355
13,PLAYER_SLEEPBEFORE_START,1516048091280,356
13,PLAYER_SLEEPBEFORE_END,1516048091326,356
13,WS_SEND_START,1516048091326,356
13,WS_SEND_END,1516048091326,356
13,WS_RECV_START,1516048091326,357
13,WS_RECV_END,1516048093902,357
13,PLAYER_SLEEPBEFORE_START,1516048093902,358
13,PLAYER_SLEEPBEFORE_END,1516048093917,358
13,WS_SEND_START,1516048093917,358
13,WS_SEND_END,1516048093917,358
13,WS_RECV_START,1516048093917,359
13,WS_RECV_END,1516048095720,359
13,PLAYER_SLEEPBEFORE_START,1516048095720,360
13,PLAYER_SLEEPBEFORE_END,1516048116186,360
13,WS_SEND_START,1516048116186,360
13,WS_SEND_END,1516048116186,360
13,WS_RECV_START,1516048116186,361
13,WS_RECV_END,1516048118284,361
13,PLAYER_SLEEPBEFORE_START,1516048118284,362
13,PLAYER_SLEEPBEFORE_END,1516048118293,362
13,WS_SEND_START,1516048118293,362
13,WS_SEND_END,1516048118293,362
13,WS_RECV_START,1516048118293,363
13,WS_RECV_END,1516048118618,363
13,PLAYER_SLEEPBEFORE_START,1516048118618,364
13,PLAYER_SLEEPBEFORE_END,1516048120709,364
13,WS_SEND_START,1516048120709,364
13,WS_SEND_END,1516048120709,364
13,WS_RECV_START,1516048120709,365
13,WS_RECV_END,1516048132776,365
13,PLAYER_SLEEPBEFORE_START,1516048132776,366
13,PLAYER_SLEEPBEFORE_END,1516048132786,366
13,WS_SEND_START,1516048132786,366
13,WS_SEND_END,1516048132786,366
13,WS_RECV_START,1516048132786,367
13,WS_RECV_END,1516048137646,367
13,PLAYER_SLEEPBEFORE_START,1516048137646,368
13,PLAYER_SLEEPBEFORE_END,1516048161106,368
13,WS_SEND_START,1516048161106,368
13,WS_SEND_END,1516048161106,368
13,WS_RECV_START,1516048161106,369
13,WS_RECV_END,1516048162899,369
13,PLAYER_SLEEPBEFORE_START,1516048162900,370
13,PLAYER_SLEEPBEFORE_END,1516048162908,370
13,WS_SEND_START,1516048162908,370
13,WS_SEND_END,1516048162908,370
13,WS_RECV_START,1516048162908,371
13,WS_RECV_END,1516048163106,371
13,PLAYER_SLEEPBEFORE_START,1516048163106,372
13,PLAYER_SLEEPBEFORE_END,1516048163478,372
13,WS_SEND_START,1516048163478,372
13,WS_SEND_END,1516048163478,372
13,WS_RECV_START,1516048163478,373
13,WS_RECV_END,1516048163693,373
13,PLAYER_SLEEPBEFORE_START,1516048163693,374
13,PLAYER_SLEEPBEFORE_END,1516048164395,374
13,WS_SEND_START,1516048164395,374
13,WS_SEND_END,1516048164395,374
13,WS_RECV_START,1516048164395,375
13,WS_RECV_END,1516048164457,375
13,PLAYER_SLEEPBEFORE_START,1516048164457,376
13,PLAYER_SLEEPBEFORE_END,1516048164808,376
13,WS_SEND_START,1516048164808,376
13,WS_SEND_END,1516048164808,376
13,WS_RECV_START,1516048164808,377
13,WS_RECV_END,1516048169118,377
13,PLAYER_SLEEPBEFORE_START,1516048169118,378
13,PLAYER_SLEEPBEFORE_END,1516048169137,378
13,WS_SEND_START,1516048169137,378
13,WS_SEND_END,1516048169137,378
13,WS_RECV_START,1516048169137,379
13,WS_RECV_END,1516048173562,379
13,PLAYER_SLEEPBEFORE_START,1516048173562,380
13,PLAYER_SLEEPBEFORE_END,1516048194054,380
13,WS_SEND_START,1516048194054,380
13,WS_SEND_END,1516048194054,380
13,PLAYER_SLEEPBEFORE_START,1516048194054,381
13,PLAYER_SLEEPBEFORE_END,1516048198268,381
13,WS_SEND_START,1516048198268,381
13,WS_SEND_END,1516048198268,381
13,WS_RECV_START,1516048198268,382
13,WS_RECV_END,1516048198475,382
13,PLAYER_SLEEPBEFORE_START,1516048198475,383
13,PLAYER_SLEEPBEFORE_END,1516048218675,383
13,WS_SEND_START,1516048218675,383
13,WS_SEND_END,1516048218676,383
13,PLAYER_SLEEPBEFORE_START,1516048218676,384
13,PLAYER_SLEEPBEFORE_END,1516048221862,384
13,WS_SEND_START,1516048221862,384
13,WS_SEND_END,1516048221862,384
13,WS_RECV_START,1516048221862,385
13,WS_RECV_END,1516048222680,385
13,PLAYER_SLEEPBEFORE_START,1516048222680,386
13,PLAYER_SLEEPBEFORE_END,1516048222696,386
13,WS_SEND_START,1516048222696,386
13,WS_SEND_END,1516048222696,386
13,WS_RECV_START,1516048222696,387
13,WS_RECV_END,1516048225505,387
13,PLAYER_SLEEPBEFORE_START,1516048225505,388
13,PLAYER_SLEEPBEFORE_END,1516048246035,388
13,WS_SEND_START,1516048246035,388
13,WS_SEND_END,1516048246037,388
13,PLAYER_SLEEPBEFORE_START,1516048246037,389
13,PLAYER_SLEEPBEFORE_END,1516048248256,389
13,WS_SEND_START,1516048248256,389
13,WS_SEND_END,1516048248256,389
13,WS_RECV_START,1516048248256,390
13,WS_RECV_END,1516048249659,390
13,PLAYER_SLEEPBEFORE_START,1516048249659,391
13,PLAYER_SLEEPBEFORE_END,1516048272495,391
13,WS_SEND_START,1516048272495,391
13,WS_SEND_END,1516048272495,391
13,WS_RECV_START,1516048272495,392
13,WS_RECV_END,1516048272700,392
13,PLAYER_SLEEPBEFORE_START,1516048272700,393
13,PLAYER_SLEEPBEFORE_END,1516048297389,393
13,WS_SEND_START,1516048297389,393
13,WS_SEND_END,1516048297389,393
13,PLAYER_SLEEPBEFORE_START,1516048297389,394
13,PLAYER_SLEEPBEFORE_END,1516048299361,394
13,WS_SEND_START,1516048299361,394
13,WS_SEND_END,1516048299361,394
13,WS_RECV_START,1516048299361,395
13,WS_RECV_END,1516048300474,395
13,PLAYER_SLEEPBEFORE_START,1516048300474,396
13,PLAYER_SLEEPBEFORE_END,1516048300481,396
13,WS_SEND_START,1516048300481,396
13,WS_SEND_END,1516048300481,396
13,WS_RECV_START,1516048300481,397
13,WS_RECV_END,1516048301450,397
13,PLAYER_SLEEPBEFORE_START,1516048301450,398
13,PLAYER_SLEEPBEFORE_END,1516048301630,398
13,WS_SEND_START,1516048301630,398
13,WS_SEND_END,1516048301630,398
13,WS_RECV_START,1516048301630,399
13,WS_RECV_END,1516048301768,399
13,PLAYER_SLEEPBEFORE_START,1516048301768,400
13,PLAYER_SLEEPBEFORE_END,1516048302843,400
13,WS_SEND_START,1516048302843,400
13,WS_SEND_END,1516048302843,400
13,WS_RECV_START,1516048302843,401
13,WS_RECV_END,1516048302903,401
13,PLAYER_SLEEPBEFORE_START,1516048302903,402
13,PLAYER_SLEEPBEFORE_END,1516048304262,402
13,WS_SEND_START,1516048304262,402
13,WS_SEND_END,1516048304263,402
13,WS_RECV_START,1516048304263,403
13,WS_RECV_END,1516048306524,403
13,PLAYER_SLEEPBEFORE_START,1516048306524,404
13,PLAYER_SLEEPBEFORE_END,1516048306994,404
13,WS_SEND_START,1516048306994,404
13,WS_SEND_END,1516048306994,404
13,WS_RECV_START,1516048306994,405
13,WS_RECV_END,1516048307076,405
13,PLAYER_SLEEPBEFORE_START,1516048307076,406
13,PLAYER_SLEEPBEFORE_END,1516048309803,406
13,WS_SEND_START,1516048309803,406
13,WS_SEND_END,1516048309803,406
13,WS_RECV_START,1516048309803,407
13,WS_RECV_END,1516048309893,407
13,PLAYER_SLEEPBEFORE_START,1516048309893,408
13,PLAYER_SLEEPBEFORE_END,1516048310222,408
13,WS_SEND_START,1516048310222,408
13,WS_SEND_END,1516048310222,408
13,WS_RECV_START,1516048310222,409
13,WS_RECV_END,1516048310283,409
13,PLAYER_SLEEPBEFORE_START,1516048310283,410
13,PLAYER_SLEEPBEFORE_END,1516048311308,410
13,WS_SEND_START,1516048311308,410
13,WS_SEND_END,1516048311308,410
13,WS_RECV_START,1516048311308,411
13,WS_RECV_END,1516048311366,411
13,PLAYER_SLEEPBEFORE_START,1516048311366,412
13,PLAYER_SLEEPBEFORE_END,1516048312022,412
13,WS_SEND_START,1516048312022,412
13,WS_SEND_END,1516048312022,412
13,WS_RECV_START,1516048312022,413
13,WS_RECV_END,1516048313715,413
13,PLAYER_SLEEPBEFORE_START,1516048313715,414
13,PLAYER_SLEEPBEFORE_END,1516048313731,414
13,WS_SEND_START,1516048313731,414
13,WS_SEND_END,1516048313731,414
13,WS_RECV_START,1516048313731,415
13,WS_RECV_END,1516048315817,415
13,PLAYER_SLEEPBEFORE_START,1516048315817,416
13,PLAYER_SLEEPBEFORE_END,1516048330084,416
13,WS_SEND_START,1516048330084,416
13,WS_SEND_END,1516048330084,416
13,PLAYER_SLEEPBEFORE_START,1516048330084,417
13,PLAYER_SLEEPBEFORE_END,1516048358764,417
13,WS_SEND_START,1516048358764,417
13,WS_SEND_END,1516048358764,417
13,WS_RECV_START,1516048358764,418
13,WS_RECV_END,1516048358935,418
13,PLAYER_SLEEPBEFORE_START,1516048358935,419
13,PLAYER_SLEEPBEFORE_END,1516048363757,419
13,REQ_START,1516048363757,419
13,REQ_END,1516048363765,419
13,PLAYER_SLEEPBEFORE_START,1516048363765,420
13,PLAYER_SLEEPBEFORE_END,1516048382510,420
13,WS_CLOSE_START,1516048382510,420
13,WS_CLOSE_END,1516048382510,420
13,PLAYER_DONE,1516048382510
