# --sessions 30 --app-url=http://shinyloadtest.rstudioservices.com/ --output-dir test30 --overwrite-output --log-level warn --start-interval 1500 30min.log
thread_id,event,timestamp,input_line_number,comment
30,PLAYER_SESSION_CREATE,1516046251154
30,PLAYER_START_INTERVAL_START,1516046251154
30,PLAYER_START_INTERVAL_END,1516046296154
30,REQ_HOME_START,1516046296154,2
30,REQ_HOME_END,1516046296248,2
30,REQ_START,1516046296248,3
30,REQ_END,1516046296666,3
30,REQ_START,1516046296666,4
30,REQ_END,1516046296709,4
30,REQ_START,1516046296709,5
30,REQ_END,1516046296740,5
30,REQ_START,1516046296740,6
30,REQ_END,1516046296772,6
30,REQ_START,1516046296772,7
30,REQ_END,1516046296805,7
30,REQ_START,1516046296805,8
30,REQ_END,1516046296836,8
30,REQ_START,1516046296836,9
30,REQ_END,1516046296868,9
30,REQ_START,1516046296868,10
30,REQ_END,1516046296876,10
30,REQ_START,1516046296876,11
30,REQ_END,1516046296906,11
30,REQ_START,1516046296906,12
30,REQ_END,1516046296936,12
30,REQ_START,1516046296936,13
30,REQ_END,1516046296946,13
30,REQ_START,1516046296946,14
30,REQ_END,1516046296961,14
30,REQ_START,1516046296961,15
30,REQ_END,1516046296992,15
30,REQ_TOK_START,1516046296992,16
30,REQ_TOK_END,1516046297000,16
30,REQ_SINF_START,1516046297000,17
30,REQ_SINF_END,1516046297006,17
30,WS_OPEN_START,1516046297006,18
30,WS_OPEN_END,1516046297013,18
30,WS_RECV_START,1516046297013,19
30,WS_RECV_END,1516046297013,19
30,PLAYER_SLEEPBEFORE_START,1516046297013,20
30,PLAYER_SLEEPBEFORE_END,1516046297020,20
30,WS_SEND_START,1516046297020,20
30,WS_SEND_END,1516046297020,20
30,PLAYER_SLEEPBEFORE_START,1516046297020,21
30,PLAYER_SLEEPBEFORE_END,1516046297021,21
30,WS_SEND_START,1516046297021,21
30,WS_SEND_END,1516046297021,21
30,WS_RECV_INIT_START,1516046297021,22
30,WS_RECV_INIT_END,1516046297040,22
30,WS_RECV_START,1516046297040,23
30,WS_RECV_END,1516046297113,23
30,PLAYER_SLEEPBEFORE_START,1516046297113,24
30,PLAYER_SLEEPBEFORE_END,1516046297120,24
30,REQ_START,1516046297120,24
30,REQ_END,1516046297153,24
30,PLAYER_SLEEPBEFORE_START,1516046297153,25
30,PLAYER_SLEEPBEFORE_END,1516046297155,25
30,REQ_START,1516046297155,25
30,REQ_END,1516046297186,25
30,PLAYER_SLEEPBEFORE_START,1516046297186,26
30,PLAYER_SLEEPBEFORE_END,1516046297189,26
30,REQ_START,1516046297189,26
30,REQ_END,1516046297223,26
30,PLAYER_SLEEPBEFORE_START,1516046297223,27
30,PLAYER_SLEEPBEFORE_END,1516046297479,27
30,REQ_START,1516046297479,27
30,REQ_END,1516046297514,27
30,PLAYER_SLEEPBEFORE_START,1516046297514,28
30,PLAYER_SLEEPBEFORE_END,1516046297712,28
30,WS_SEND_START,1516046297712,28
30,WS_SEND_END,1516046297712,28
30,WS_RECV_START,1516046297712,29
30,WS_RECV_END,1516046297896,29
30,PLAYER_SLEEPBEFORE_START,1516046297896,30
30,PLAYER_SLEEPBEFORE_END,1516046297907,30
30,REQ_START,1516046297907,30
30,REQ_END,1516046298098,30
30,PLAYER_SLEEPBEFORE_START,1516046298098,31
30,PLAYER_SLEEPBEFORE_END,1516046328219,31
30,WS_SEND_START,1516046328219,31
30,WS_SEND_END,1516046328219,31
30,WS_RECV_START,1516046328219,32
30,WS_RECV_END,1516046328388,32
30,PLAYER_SLEEPBEFORE_START,1516046328388,33
30,PLAYER_SLEEPBEFORE_END,1516046353154,33
30,WS_SEND_START,1516046353154,33
30,WS_SEND_END,1516046353154,33
30,WS_RECV_START,1516046353154,34
30,WS_RECV_END,1516046355063,34
30,PLAYER_SLEEPBEFORE_START,1516046355063,35
30,PLAYER_SLEEPBEFORE_END,1516046379876,35
30,WS_SEND_START,1516046379876,35
30,WS_SEND_END,1516046379876,35
30,WS_RECV_START,1516046379876,36
30,WS_RECV_END,1516046380747,36
30,PLAYER_SLEEPBEFORE_START,1516046380747,37
30,PLAYER_SLEEPBEFORE_END,1516046380756,37
30,WS_SEND_START,1516046380756,37
30,WS_SEND_END,1516046380756,37
30,WS_RECV_START,1516046380756,38
30,WS_RECV_END,1516046381014,38
30,PLAYER_SLEEPBEFORE_START,1516046381014,39
30,PLAYER_SLEEPBEFORE_END,1516046383711,39
30,WS_SEND_START,1516046383711,39
30,WS_SEND_END,1516046383711,39
30,WS_RECV_START,1516046383711,40
30,WS_RECV_END,1516046385817,40
30,PLAYER_SLEEPBEFORE_START,1516046385817,41
30,PLAYER_SLEEPBEFORE_END,1516046386936,41
30,WS_SEND_START,1516046386936,41
30,WS_SEND_END,1516046386936,41
30,WS_RECV_START,1516046386936,42
30,WS_RECV_END,1516046387998,42
30,PLAYER_SLEEPBEFORE_START,1516046387998,43
30,PLAYER_SLEEPBEFORE_END,1516046388027,43
30,WS_SEND_START,1516046388027,43
30,WS_SEND_END,1516046388027,43
30,WS_RECV_START,1516046388027,44
30,WS_RECV_END,1516046388145,44
30,PLAYER_SLEEPBEFORE_START,1516046388145,45
30,PLAYER_SLEEPBEFORE_END,1516046409634,45
30,WS_SEND_START,1516046409634,45
30,WS_SEND_END,1516046409634,45
30,WS_RECV_START,1516046409634,46
30,WS_RECV_END,1516046409785,46
30,PLAYER_SLEEPBEFORE_START,1516046409785,47
30,PLAYER_SLEEPBEFORE_END,1516046438270,47
30,WS_SEND_START,1516046438270,47
30,WS_SEND_END,1516046438271,47
30,WS_RECV_START,1516046438271,48
30,WS_RECV_END,1516046438416,48
30,PLAYER_SLEEPBEFORE_START,1516046438416,49
30,PLAYER_SLEEPBEFORE_END,1516046464826,49
30,WS_SEND_START,1516046464826,49
30,WS_SEND_END,1516046464826,49
30,WS_RECV_START,1516046464826,50
30,WS_RECV_END,1516046464939,50
30,PLAYER_SLEEPBEFORE_START,1516046464939,51
30,PLAYER_SLEEPBEFORE_END,1516046487490,51
30,WS_SEND_START,1516046487490,51
30,WS_SEND_END,1516046487490,51
30,WS_RECV_START,1516046487490,52
30,WS_RECV_END,1516046487603,52
30,PLAYER_SLEEPBEFORE_START,1516046487603,53
30,PLAYER_SLEEPBEFORE_END,1516046512508,53
30,WS_SEND_START,1516046512508,53
30,WS_SEND_END,1516046512508,53
30,WS_RECV_START,1516046512508,54
30,WS_RECV_END,1516046512620,54
30,PLAYER_SLEEPBEFORE_START,1516046512620,55
30,PLAYER_SLEEPBEFORE_END,1516046538021,55
30,WS_SEND_START,1516046538021,55
30,WS_SEND_END,1516046538021,55
30,WS_RECV_START,1516046538021,56
30,WS_RECV_END,1516046538136,56
30,PLAYER_SLEEPBEFORE_START,1516046538136,57
30,PLAYER_SLEEPBEFORE_END,1516046563474,57
30,WS_SEND_START,1516046563474,57
30,WS_SEND_END,1516046563474,57
30,WS_RECV_START,1516046563474,58
30,WS_RECV_END,1516046564220,58
30,PLAYER_SLEEPBEFORE_START,1516046564220,59
30,PLAYER_SLEEPBEFORE_END,1516046591077,59
30,WS_SEND_START,1516046591077,59
30,WS_SEND_END,1516046591077,59
30,WS_RECV_START,1516046591077,60
30,WS_RECV_END,1516046592995,60
30,PLAYER_SLEEPBEFORE_START,1516046592995,61
30,PLAYER_SLEEPBEFORE_END,1516046593018,61
30,WS_SEND_START,1516046593018,61
30,WS_SEND_END,1516046593018,61
30,WS_RECV_START,1516046593018,62
30,WS_RECV_END,1516046593483,62
30,PLAYER_SLEEPBEFORE_START,1516046593483,63
30,PLAYER_SLEEPBEFORE_END,1516046602487,63
30,REQ_START,1516046602487,63
30,REQ_END,1516046602496,63
30,PLAYER_SLEEPBEFORE_START,1516046602496,64
30,PLAYER_SLEEPBEFORE_END,1516046616702,64
30,WS_SEND_START,1516046616702,64
30,WS_SEND_END,1516046616702,64
30,WS_RECV_START,1516046616702,65
30,WS_RECV_END,1516046616844,65
30,PLAYER_SLEEPBEFORE_START,1516046616844,66
30,PLAYER_SLEEPBEFORE_END,1516046640831,66
30,WS_SEND_START,1516046640831,66
30,WS_SEND_END,1516046640831,66
30,WS_RECV_START,1516046640831,67
30,WS_RECV_END,1516046641810,67
30,PLAYER_SLEEPBEFORE_START,1516046641810,68
30,PLAYER_SLEEPBEFORE_END,1516046667384,68
30,WS_SEND_START,1516046667384,68
30,WS_SEND_END,1516046667384,68
30,WS_RECV_START,1516046667385,69
30,WS_RECV_END,1516046668411,69
30,PLAYER_SLEEPBEFORE_START,1516046668411,70
30,PLAYER_SLEEPBEFORE_END,1516046668420,70
30,WS_SEND_START,1516046668420,70
30,WS_SEND_END,1516046668420,70
30,WS_RECV_START,1516046668420,71
30,WS_RECV_END,1516046670792,71
30,PLAYER_SLEEPBEFORE_START,1516046670792,72
30,PLAYER_SLEEPBEFORE_END,1516046670997,72
30,WS_SEND_START,1516046670997,72
30,WS_SEND_END,1516046670997,72
30,WS_RECV_START,1516046670997,73
30,WS_RECV_END,1516046672902,73
30,PLAYER_SLEEPBEFORE_START,1516046672903,74
30,PLAYER_SLEEPBEFORE_END,1516046674325,74
30,WS_SEND_START,1516046674325,74
30,WS_SEND_END,1516046674325,74
30,WS_RECV_START,1516046674325,75
30,WS_RECV_END,1516046680798,75
30,PLAYER_SLEEPBEFORE_START,1516046680798,76
30,PLAYER_SLEEPBEFORE_END,1516046681293,76
30,WS_SEND_START,1516046681293,76
30,WS_SEND_END,1516046681293,76
30,WS_RECV_START,1516046681293,77
30,WS_RECV_END,1516046685260,77
30,PLAYER_SLEEPBEFORE_START,1516046685260,78
30,PLAYER_SLEEPBEFORE_END,1516046685278,78
30,WS_SEND_START,1516046685278,78
30,WS_SEND_END,1516046685278,78
30,WS_RECV_START,1516046685278,79
30,WS_RECV_END,1516046690976,79
30,PLAYER_SLEEPBEFORE_START,1516046690976,80
30,PLAYER_SLEEPBEFORE_END,1516046711710,80
30,WS_SEND_START,1516046711710,80
30,WS_SEND_END,1516046711710,80
30,WS_RECV_START,1516046711710,81
30,WS_RECV_END,1516046711773,81
30,PLAYER_SLEEPBEFORE_START,1516046711773,82
30,PLAYER_SLEEPBEFORE_END,1516046711784,82
30,WS_SEND_START,1516046711784,82
30,WS_SEND_END,1516046711784,82
30,WS_RECV_START,1516046711784,83
30,WS_RECV_END,1516046711823,83
30,PLAYER_SLEEPBEFORE_START,1516046711823,84
30,PLAYER_SLEEPBEFORE_END,1516046712686,84
30,WS_SEND_START,1516046712686,84
30,WS_SEND_END,1516046712687,84
30,WS_RECV_START,1516046712687,85
30,WS_RECV_END,1516046712747,85
30,PLAYER_SLEEPBEFORE_START,1516046712747,86
30,PLAYER_SLEEPBEFORE_END,1516046713474,86
30,WS_SEND_START,1516046713474,86
30,WS_SEND_END,1516046713474,86
30,WS_RECV_START,1516046713474,87
30,WS_RECV_END,1516046714528,87
30,PLAYER_SLEEPBEFORE_START,1516046714528,88
30,PLAYER_SLEEPBEFORE_END,1516046714549,88
30,WS_SEND_START,1516046714549,88
30,WS_SEND_END,1516046714549,88
30,WS_RECV_START,1516046714549,89
30,WS_RECV_END,1516046715149,89
30,PLAYER_SLEEPBEFORE_START,1516046715149,90
30,PLAYER_SLEEPBEFORE_END,1516046736578,90
30,WS_SEND_START,1516046736578,90
30,WS_SEND_END,1516046736578,90
30,PLAYER_SLEEPBEFORE_START,1516046736578,91
30,PLAYER_SLEEPBEFORE_END,1516046763433,91
30,WS_SEND_START,1516046763433,91
30,WS_SEND_END,1516046763433,91
30,WS_RECV_START,1516046763433,92
30,WS_RECV_END,1516046763621,92
30,PLAYER_SLEEPBEFORE_START,1516046763621,93
30,PLAYER_SLEEPBEFORE_END,1516046765895,93
30,WS_SEND_START,1516046765895,93
30,WS_SEND_END,1516046765895,93
30,WS_RECV_START,1516046765895,94
30,WS_RECV_END,1516046766010,94
30,PLAYER_SLEEPBEFORE_START,1516046766010,95
30,PLAYER_SLEEPBEFORE_END,1516046792006,95
30,WS_SEND_START,1516046792006,95
30,WS_SEND_END,1516046792006,95
30,WS_RECV_START,1516046792006,96
30,WS_RECV_END,1516046792170,96
30,PLAYER_SLEEPBEFORE_START,1516046792170,97
30,PLAYER_SLEEPBEFORE_END,1516046797258,97
30,WS_SEND_START,1516046797258,97
30,WS_SEND_END,1516046797258,97
30,WS_RECV_START,1516046797258,98
30,WS_RECV_END,1516046799364,98
30,PLAYER_SLEEPBEFORE_START,1516046799364,99
30,PLAYER_SLEEPBEFORE_END,1516046801064,99
30,WS_SEND_START,1516046801064,99
30,WS_SEND_END,1516046801064,99
30,WS_RECV_START,1516046801064,100
30,WS_RECV_END,1516046801485,100
30,PLAYER_SLEEPBEFORE_START,1516046801485,101
30,PLAYER_SLEEPBEFORE_END,1516046803324,101
30,WS_SEND_START,1516046803324,101
30,WS_SEND_END,1516046803324,101
30,WS_RECV_START,1516046803324,102
30,WS_RECV_END,1516046806053,102
30,PLAYER_SLEEPBEFORE_START,1516046806053,103
30,PLAYER_SLEEPBEFORE_END,1516046819103,103
30,WS_SEND_START,1516046819103,103
30,WS_SEND_END,1516046819103,103
30,PLAYER_SLEEPBEFORE_START,1516046819103,104
30,PLAYER_SLEEPBEFORE_END,1516046823530,104
30,WS_SEND_START,1516046823530,104
30,WS_SEND_END,1516046823530,104
30,WS_RECV_START,1516046823530,105
30,WS_RECV_END,1516046823879,105
30,PLAYER_SLEEPBEFORE_START,1516046823879,106
30,PLAYER_SLEEPBEFORE_END,1516046823888,106
30,WS_SEND_START,1516046823888,106
30,WS_SEND_END,1516046823888,106
30,WS_RECV_START,1516046823888,107
30,WS_RECV_END,1516046824087,107
30,PLAYER_SLEEPBEFORE_START,1516046824087,108
30,PLAYER_SLEEPBEFORE_END,1516046824551,108
30,WS_SEND_START,1516046824551,108
30,WS_SEND_END,1516046824551,108
30,WS_RECV_START,1516046824551,109
30,WS_RECV_END,1516046825666,109
30,PLAYER_SLEEPBEFORE_START,1516046825666,110
30,PLAYER_SLEEPBEFORE_END,1516046825681,110
30,WS_SEND_START,1516046825681,110
30,WS_SEND_END,1516046825681,110
30,WS_RECV_START,1516046825681,111
30,WS_RECV_END,1516046826132,111
30,PLAYER_SLEEPBEFORE_START,1516046826132,112
30,PLAYER_SLEEPBEFORE_END,1516046846896,112
30,WS_SEND_START,1516046846896,112
30,WS_SEND_END,1516046846896,112
30,PLAYER_SLEEPBEFORE_START,1516046846896,113
30,PLAYER_SLEEPBEFORE_END,1516046849290,113
30,WS_SEND_START,1516046849290,113
30,WS_SEND_END,1516046849290,113
30,WS_RECV_START,1516046849290,114
30,WS_RECV_END,1516046849578,114
30,PLAYER_SLEEPBEFORE_START,1516046849578,115
30,PLAYER_SLEEPBEFORE_END,1516046850360,115
30,WS_SEND_START,1516046850361,115
30,WS_SEND_END,1516046850361,115
30,WS_RECV_START,1516046850361,116
30,WS_RECV_END,1516046850525,116
30,PLAYER_SLEEPBEFORE_START,1516046850525,117
30,PLAYER_SLEEPBEFORE_END,1516046872910,117
30,WS_SEND_START,1516046872910,117
30,WS_SEND_END,1516046872910,117
30,WS_RECV_START,1516046872910,118
30,WS_RECV_END,1516046873076,118
30,PLAYER_SLEEPBEFORE_START,1516046873076,119
30,PLAYER_SLEEPBEFORE_END,1516046874981,119
30,WS_SEND_START,1516046874981,119
30,WS_SEND_END,1516046874981,119
30,WS_RECV_START,1516046874981,120
30,WS_RECV_END,1516046875146,120
30,PLAYER_SLEEPBEFORE_START,1516046875146,121
30,PLAYER_SLEEPBEFORE_END,1516046876298,121
30,WS_SEND_START,1516046876298,121
30,WS_SEND_END,1516046876298,121
30,WS_RECV_START,1516046876298,122
30,WS_RECV_END,1516046876918,122
30,PLAYER_SLEEPBEFORE_START,1516046876918,123
30,PLAYER_SLEEPBEFORE_END,1516046878042,123
30,WS_SEND_START,1516046878042,123
30,WS_SEND_END,1516046878042,123
30,WS_RECV_START,1516046878042,124
30,WS_RECV_END,1516046878481,124
30,PLAYER_SLEEPBEFORE_START,1516046878481,125
30,PLAYER_SLEEPBEFORE_END,1516046879977,125
30,WS_SEND_START,1516046879977,125
30,WS_SEND_END,1516046879977,125
30,WS_RECV_START,1516046879977,126
30,WS_RECV_END,1516046880662,126
30,PLAYER_SLEEPBEFORE_START,1516046880662,127
30,PLAYER_SLEEPBEFORE_END,1516046901272,127
30,WS_SEND_START,1516046901272,127
30,WS_SEND_END,1516046901272,127
30,WS_RECV_START,1516046901272,128
30,WS_RECV_END,1516046901457,128
30,PLAYER_SLEEPBEFORE_START,1516046901457,129
30,PLAYER_SLEEPBEFORE_END,1516046926488,129
30,WS_SEND_START,1516046926488,129
30,WS_SEND_END,1516046926488,129
30,PLAYER_SLEEPBEFORE_START,1516046926488,130
30,PLAYER_SLEEPBEFORE_END,1516046928468,130
30,WS_SEND_START,1516046928468,130
30,WS_SEND_END,1516046928468,130
30,WS_RECV_START,1516046928468,131
30,WS_RECV_END,1516046933046,131
30,PLAYER_SLEEPBEFORE_START,1516046933046,132
30,PLAYER_SLEEPBEFORE_END,1516046933056,132
30,WS_SEND_START,1516046933056,132
30,WS_SEND_END,1516046933056,132
30,WS_RECV_START,1516046933056,133
30,WS_RECV_END,1516046933907,133
30,PLAYER_SLEEPBEFORE_START,1516046933907,134
30,PLAYER_SLEEPBEFORE_END,1516046934983,134
30,REQ_START,1516046934983,134
30,REQ_END,1516046935037,134
30,PLAYER_SLEEPBEFORE_START,1516046935037,135
30,PLAYER_SLEEPBEFORE_END,1516046935628,135
30,WS_SEND_START,1516046935628,135
30,WS_SEND_END,1516046935628,135
30,WS_RECV_START,1516046935628,136
30,WS_RECV_END,1516046936314,136
30,PLAYER_SLEEPBEFORE_START,1516046936314,137
30,PLAYER_SLEEPBEFORE_END,1516046936327,137
30,WS_SEND_START,1516046936327,137
30,WS_SEND_END,1516046936327,137
30,WS_RECV_START,1516046936327,138
30,WS_RECV_END,1516046938240,138
30,PLAYER_SLEEPBEFORE_START,1516046938240,139
30,PLAYER_SLEEPBEFORE_END,1516046955914,139
30,WS_SEND_START,1516046955914,139
30,WS_SEND_END,1516046955915,139
30,PLAYER_SLEEPBEFORE_START,1516046955915,140
30,PLAYER_SLEEPBEFORE_END,1516046959818,140
30,WS_SEND_START,1516046959818,140
30,WS_SEND_END,1516046959818,140
30,PLAYER_SLEEPBEFORE_START,1516046959818,141
30,PLAYER_SLEEPBEFORE_END,1516046962110,141
30,WS_SEND_START,1516046962110,141
30,WS_SEND_END,1516046962110,141
30,WS_RECV_START,1516046962110,142
30,WS_RECV_END,1516046962819,142
30,PLAYER_SLEEPBEFORE_START,1516046962819,143
30,PLAYER_SLEEPBEFORE_END,1516046962827,143
30,WS_SEND_START,1516046962827,143
30,WS_SEND_END,1516046962827,143
30,WS_RECV_START,1516046962827,144
30,WS_RECV_END,1516046962923,144
30,PLAYER_SLEEPBEFORE_START,1516046962923,145
30,PLAYER_SLEEPBEFORE_END,1516046964666,145
30,WS_SEND_START,1516046964666,145
30,WS_SEND_END,1516046964666,145
30,WS_RECV_START,1516046964666,146
30,WS_RECV_END,1516046965455,146
30,PLAYER_SLEEPBEFORE_START,1516046965455,147
30,PLAYER_SLEEPBEFORE_END,1516046965464,147
30,WS_SEND_START,1516046965464,147
30,WS_SEND_END,1516046965464,147
30,WS_RECV_START,1516046965464,148
30,WS_RECV_END,1516046965637,148
30,PLAYER_SLEEPBEFORE_START,1516046965637,149
30,PLAYER_SLEEPBEFORE_END,1516046980750,149
30,WS_SEND_START,1516046980750,149
30,WS_SEND_END,1516046980750,149
30,PLAYER_SLEEPBEFORE_START,1516046980750,150
30,PLAYER_SLEEPBEFORE_END,1516046991425,150
30,WS_SEND_START,1516046991425,150
30,WS_SEND_END,1516046991426,150
30,PLAYER_SLEEPBEFORE_START,1516046991426,151
30,PLAYER_SLEEPBEFORE_END,1516046994417,151
30,WS_SEND_START,1516046994417,151
30,WS_SEND_END,1516046994417,151
30,WS_RECV_START,1516046994417,152
30,WS_RECV_END,1516046997521,152
30,PLAYER_SLEEPBEFORE_START,1516046997521,153
30,PLAYER_SLEEPBEFORE_END,1516046997528,153
30,WS_SEND_START,1516046997529,153
30,WS_SEND_END,1516046997529,153
30,WS_RECV_START,1516046997529,154
30,WS_RECV_END,1516046998263,154
30,PLAYER_SLEEPBEFORE_START,1516046998263,155
30,PLAYER_SLEEPBEFORE_END,1516046998871,155
30,WS_SEND_START,1516046998871,155
30,WS_SEND_END,1516046998871,155
30,WS_RECV_START,1516046998871,156
30,WS_RECV_END,1516047001445,156
30,PLAYER_SLEEPBEFORE_START,1516047001445,157
30,PLAYER_SLEEPBEFORE_END,1516047002788,157
30,WS_SEND_START,1516047002788,157
30,WS_SEND_END,1516047002788,157
30,WS_RECV_START,1516047002788,158
30,WS_RECV_END,1516047002847,158
30,PLAYER_SLEEPBEFORE_START,1516047002847,159
30,PLAYER_SLEEPBEFORE_END,1516047006747,159
30,WS_SEND_START,1516047006747,159
30,WS_SEND_END,1516047006747,159
30,WS_RECV_START,1516047006747,160
30,WS_RECV_END,1516047007234,160
30,PLAYER_SLEEPBEFORE_START,1516047007234,161
30,PLAYER_SLEEPBEFORE_END,1516047008017,161
30,WS_SEND_START,1516047008017,161
30,WS_SEND_END,1516047008017,161
30,WS_RECV_START,1516047008017,162
30,WS_RECV_END,1516047010287,162
30,PLAYER_SLEEPBEFORE_START,1516047010287,163
30,PLAYER_SLEEPBEFORE_END,1516047010296,163
30,WS_SEND_START,1516047010296,163
30,WS_SEND_END,1516047010296,163
30,WS_RECV_START,1516047010296,164
30,WS_RECV_END,1516047010798,164
30,PLAYER_SLEEPBEFORE_START,1516047010798,165
30,PLAYER_SLEEPBEFORE_END,1516047018171,165
30,WS_SEND_START,1516047018171,165
30,WS_SEND_END,1516047018171,165
30,WS_RECV_START,1516047018171,166
30,WS_RECV_END,1516047018291,166
30,PLAYER_SLEEPBEFORE_START,1516047018291,167
30,PLAYER_SLEEPBEFORE_END,1516047039540,167
30,WS_SEND_START,1516047039540,167
30,WS_SEND_END,1516047039540,167
30,PLAYER_SLEEPBEFORE_START,1516047039540,168
30,PLAYER_SLEEPBEFORE_END,1516047044275,168
30,WS_SEND_START,1516047044276,168
30,WS_SEND_END,1516047044276,168
30,PLAYER_SLEEPBEFORE_START,1516047044276,169
30,PLAYER_SLEEPBEFORE_END,1516047045827,169
30,WS_SEND_START,1516047045827,169
30,WS_SEND_END,1516047045827,169
30,WS_RECV_START,1516047045827,170
30,WS_RECV_END,1516047045889,170
30,PLAYER_SLEEPBEFORE_START,1516047045889,171
30,PLAYER_SLEEPBEFORE_END,1516047045896,171
30,WS_SEND_START,1516047045896,171
30,WS_SEND_END,1516047045896,171
30,WS_RECV_START,1516047045896,172
30,WS_RECV_END,1516047045939,172
30,PLAYER_SLEEPBEFORE_START,1516047045939,173
30,PLAYER_SLEEPBEFORE_END,1516047046707,173
30,WS_SEND_START,1516047046707,173
30,WS_SEND_END,1516047046707,173
30,WS_RECV_START,1516047046707,174
30,WS_RECV_END,1516047046765,174
30,PLAYER_SLEEPBEFORE_START,1516047046765,175
30,PLAYER_SLEEPBEFORE_END,1516047047525,175
30,WS_SEND_START,1516047047525,175
30,WS_SEND_END,1516047047525,175
30,WS_RECV_START,1516047047525,176
30,WS_RECV_END,1516047047582,176
30,PLAYER_SLEEPBEFORE_START,1516047047582,177
30,PLAYER_SLEEPBEFORE_END,1516047048382,177
30,WS_SEND_START,1516047048382,177
30,WS_SEND_END,1516047048382,177
30,WS_RECV_START,1516047048382,178
30,WS_RECV_END,1516047049336,178
30,PLAYER_SLEEPBEFORE_START,1516047049336,179
30,PLAYER_SLEEPBEFORE_END,1516047054590,179
30,WS_SEND_START,1516047054590,179
30,WS_SEND_END,1516047054590,179
30,PLAYER_SLEEPBEFORE_START,1516047054590,180
30,PLAYER_SLEEPBEFORE_END,1516047061208,180
30,WS_SEND_START,1516047061208,180
30,WS_SEND_END,1516047061208,180
30,PLAYER_SLEEPBEFORE_START,1516047061208,181
30,PLAYER_SLEEPBEFORE_END,1516047062944,181
30,WS_SEND_START,1516047062944,181
30,WS_SEND_END,1516047062944,181
30,WS_RECV_START,1516047062944,182
30,WS_RECV_END,1516047064955,182
30,PLAYER_SLEEPBEFORE_START,1516047064955,183
30,PLAYER_SLEEPBEFORE_END,1516047065692,183
30,WS_SEND_START,1516047065692,183
30,WS_SEND_END,1516047065692,183
30,WS_RECV_START,1516047065692,184
30,WS_RECV_END,1516047067198,184
30,PLAYER_SLEEPBEFORE_START,1516047067198,185
30,PLAYER_SLEEPBEFORE_END,1516047067211,185
30,WS_SEND_START,1516047067211,185
30,WS_SEND_END,1516047067211,185
30,WS_RECV_START,1516047067211,186
30,WS_RECV_END,1516047067427,186
30,PLAYER_SLEEPBEFORE_START,1516047067427,187
30,PLAYER_SLEEPBEFORE_END,1516047092434,187
30,WS_SEND_START,1516047092434,187
30,WS_SEND_END,1516047092434,187
30,WS_RECV_START,1516047092434,188
30,WS_RECV_END,1516047093546,188
30,PLAYER_SLEEPBEFORE_START,1516047093546,189
30,PLAYER_SLEEPBEFORE_END,1516047118769,189
30,WS_SEND_START,1516047118769,189
30,WS_SEND_END,1516047118769,189
30,WS_RECV_START,1516047118769,190
30,WS_RECV_END,1516047121942,190
30,PLAYER_SLEEPBEFORE_START,1516047121942,191
30,PLAYER_SLEEPBEFORE_END,1516047121947,191
30,WS_SEND_START,1516047121947,191
30,WS_SEND_END,1516047121947,191
30,WS_RECV_START,1516047121947,192
30,WS_RECV_END,1516047122675,192
30,PLAYER_SLEEPBEFORE_START,1516047122675,193
30,PLAYER_SLEEPBEFORE_END,1516047123112,193
30,WS_SEND_START,1516047123112,193
30,WS_SEND_END,1516047123112,193
30,WS_RECV_START,1516047123112,194
30,WS_RECV_END,1516047124045,194
30,PLAYER_SLEEPBEFORE_START,1516047124045,195
30,PLAYER_SLEEPBEFORE_END,1516047124058,195
30,WS_SEND_START,1516047124058,195
30,WS_SEND_END,1516047124058,195
30,WS_RECV_START,1516047124058,196
30,WS_RECV_END,1516047127024,196
30,PLAYER_SLEEPBEFORE_START,1516047127024,197
30,PLAYER_SLEEPBEFORE_END,1516047151794,197
30,WS_SEND_START,1516047151794,197
30,WS_SEND_END,1516047151794,197
30,WS_RECV_START,1516047151794,198
30,WS_RECV_END,1516047151856,198
30,PLAYER_SLEEPBEFORE_START,1516047151856,199
30,PLAYER_SLEEPBEFORE_END,1516047151863,199
30,WS_SEND_START,1516047151863,199
30,WS_SEND_END,1516047151863,199
30,WS_RECV_START,1516047151863,200
30,WS_RECV_END,1516047151903,200
30,PLAYER_SLEEPBEFORE_START,1516047151903,201
30,PLAYER_SLEEPBEFORE_END,1516047153200,201
30,WS_SEND_START,1516047153200,201
30,WS_SEND_END,1516047153200,201
30,WS_RECV_START,1516047153200,202
30,WS_RECV_END,1516047154055,202
30,PLAYER_SLEEPBEFORE_START,1516047154055,203
30,PLAYER_SLEEPBEFORE_END,1516047154067,203
30,WS_SEND_START,1516047154067,203
30,WS_SEND_END,1516047154067,203
30,WS_RECV_START,1516047154067,204
30,WS_RECV_END,1516047154181,204
30,PLAYER_SLEEPBEFORE_START,1516047154181,205
30,PLAYER_SLEEPBEFORE_END,1516047175812,205
30,WS_SEND_START,1516047175812,205
30,WS_SEND_END,1516047175812,205
30,WS_RECV_START,1516047175812,206
30,WS_RECV_END,1516047175934,206
30,PLAYER_SLEEPBEFORE_START,1516047175934,207
30,PLAYER_SLEEPBEFORE_END,1516047200057,207
30,WS_SEND_START,1516047200057,207
30,WS_SEND_END,1516047200057,207
30,WS_RECV_START,1516047200057,208
30,WS_RECV_END,1516047200170,208
30,PLAYER_SLEEPBEFORE_START,1516047200170,209
30,PLAYER_SLEEPBEFORE_END,1516047206584,209
30,WS_SEND_START,1516047206584,209
30,WS_SEND_END,1516047206584,209
30,WS_RECV_START,1516047206584,210
30,WS_RECV_END,1516047206699,210
30,PLAYER_SLEEPBEFORE_START,1516047206699,211
30,PLAYER_SLEEPBEFORE_END,1516047225531,211
30,WS_SEND_START,1516047225531,211
30,WS_SEND_END,1516047225531,211
30,WS_RECV_START,1516047225531,212
30,WS_RECV_END,1516047233803,212
30,PLAYER_SLEEPBEFORE_START,1516047233803,213
30,PLAYER_SLEEPBEFORE_END,1516047258856,213
30,WS_SEND_START,1516047258856,213
30,WS_SEND_END,1516047258856,213
30,WS_RECV_START,1516047258856,214
30,WS_RECV_END,1516047267750,214
30,PLAYER_SLEEPBEFORE_START,1516047267750,215
30,PLAYER_SLEEPBEFORE_END,1516047275861,215
30,REQ_START,1516047275861,215
30,REQ_END,1516047275882,215
30,PLAYER_SLEEPBEFORE_START,1516047275882,216
30,PLAYER_SLEEPBEFORE_END,1516047292443,216
30,WS_SEND_START,1516047292443,216
30,WS_SEND_END,1516047292443,216
30,WS_RECV_START,1516047292443,217
30,WS_RECV_END,1516047300000,217
30,PLAYER_SLEEPBEFORE_START,1516047300000,218
30,PLAYER_SLEEPBEFORE_END,1516047300007,218
30,WS_SEND_START,1516047300007,218
30,WS_SEND_END,1516047300007,218
30,WS_RECV_START,1516047300007,219
30,WS_RECV_END,1516047301351,219
30,PLAYER_SLEEPBEFORE_START,1516047301351,220
30,PLAYER_SLEEPBEFORE_END,1516047302119,220
30,WS_SEND_START,1516047302119,220
30,WS_SEND_END,1516047302119,220
30,WS_RECV_START,1516047302119,221
30,WS_RECV_END,1516047304464,221
30,PLAYER_SLEEPBEFORE_START,1516047304464,222
30,PLAYER_SLEEPBEFORE_END,1516047304521,222
30,WS_SEND_START,1516047304521,222
30,WS_SEND_END,1516047304521,222
30,WS_RECV_START,1516047304521,223
30,WS_RECV_END,1516047304647,223
30,PLAYER_SLEEPBEFORE_START,1516047304647,224
30,PLAYER_SLEEPBEFORE_END,1516047327303,224
30,WS_SEND_START,1516047327303,224
30,WS_SEND_END,1516047327303,224
30,WS_RECV_START,1516047327303,225
30,WS_RECV_END,1516047327422,225
30,PLAYER_SLEEPBEFORE_START,1516047327422,226
30,PLAYER_SLEEPBEFORE_END,1516047353157,226
30,WS_SEND_START,1516047353157,226
30,WS_SEND_END,1516047353157,226
30,WS_RECV_START,1516047353157,227
30,WS_RECV_END,1516047353272,227
30,PLAYER_SLEEPBEFORE_START,1516047353272,228
30,PLAYER_SLEEPBEFORE_END,1516047376265,228
30,WS_SEND_START,1516047376265,228
30,WS_SEND_END,1516047376265,228
30,WS_RECV_START,1516047376265,229
30,WS_RECV_END,1516047376390,229
30,PLAYER_SLEEPBEFORE_START,1516047376390,230
30,PLAYER_SLEEPBEFORE_END,1516047400606,230
30,WS_SEND_START,1516047400606,230
30,WS_SEND_END,1516047400606,230
30,WS_RECV_START,1516047400606,231
30,WS_RECV_END,1516047400739,231
30,PLAYER_SLEEPBEFORE_START,1516047400739,232
30,PLAYER_SLEEPBEFORE_END,1516047425495,232
30,WS_SEND_START,1516047425495,232
30,WS_SEND_END,1516047425495,232
30,WS_RECV_START,1516047425495,233
30,WS_RECV_END,1516047425726,233
30,PLAYER_SLEEPBEFORE_START,1516047425726,234
30,PLAYER_SLEEPBEFORE_END,1516047452759,234
30,WS_SEND_START,1516047452759,234
30,WS_SEND_END,1516047452759,234
30,WS_RECV_START,1516047452759,235
30,WS_RECV_END,1516047457735,235
30,PLAYER_SLEEPBEFORE_START,1516047457735,236
30,PLAYER_SLEEPBEFORE_END,1516047481575,236
30,WS_SEND_START,1516047481575,236
30,WS_SEND_END,1516047481575,236
30,WS_RECV_START,1516047481575,237
30,WS_RECV_END,1516047481701,237
30,PLAYER_SLEEPBEFORE_START,1516047481701,238
30,PLAYER_SLEEPBEFORE_END,1516047494511,238
30,WS_SEND_START,1516047494511,238
30,WS_SEND_END,1516047494511,238
30,WS_RECV_START,1516047494511,239
30,WS_RECV_END,1516047504001,239
30,PLAYER_SLEEPBEFORE_START,1516047504001,240
30,PLAYER_SLEEPBEFORE_END,1516047516656,240
30,WS_SEND_START,1516047516656,240
30,WS_SEND_END,1516047516656,240
30,WS_RECV_START,1516047516656,241
30,WS_RECV_END,1516047529659,241
30,PLAYER_SLEEPBEFORE_START,1516047529659,242
30,PLAYER_SLEEPBEFORE_END,1516047529683,242
30,WS_SEND_START,1516047529683,242
30,WS_SEND_END,1516047529683,242
30,WS_RECV_START,1516047529683,243
30,WS_RECV_END,1516047532641,243
30,PLAYER_SLEEPBEFORE_START,1516047532641,244
30,PLAYER_SLEEPBEFORE_END,1516047554879,244
30,WS_SEND_START,1516047554879,244
30,WS_SEND_END,1516047554880,244
30,WS_RECV_START,1516047554880,245
30,WS_RECV_END,1516047560373,245
30,PLAYER_SLEEPBEFORE_START,1516047560374,246
30,PLAYER_SLEEPBEFORE_END,1516047560383,246
30,WS_SEND_START,1516047560383,246
30,WS_SEND_END,1516047560383,246
30,WS_RECV_START,1516047560383,247
30,WS_RECV_END,1516047560821,247
30,PLAYER_SLEEPBEFORE_START,1516047560821,248
30,PLAYER_SLEEPBEFORE_END,1516047562859,248
30,WS_SEND_START,1516047562859,248
30,WS_SEND_END,1516047562859,248
30,WS_RECV_START,1516047562859,249
30,WS_RECV_END,1516047569373,249
30,PLAYER_SLEEPBEFORE_START,1516047569373,250
30,PLAYER_SLEEPBEFORE_END,1516047569410,250
30,WS_SEND_START,1516047569410,250
30,WS_SEND_END,1516047569410,250
30,WS_RECV_START,1516047569410,251
30,WS_RECV_END,1516047574282,251
30,PLAYER_SLEEPBEFORE_START,1516047574282,252
30,PLAYER_SLEEPBEFORE_END,1516047596924,252
30,WS_SEND_START,1516047596924,252
30,WS_SEND_END,1516047596924,252
30,WS_RECV_START,1516047596924,253
30,WS_RECV_END,1516047600445,253
30,PLAYER_SLEEPBEFORE_START,1516047600445,254
30,PLAYER_SLEEPBEFORE_END,1516047600461,254
30,WS_SEND_START,1516047600462,254
30,WS_SEND_END,1516047600462,254
30,WS_RECV_START,1516047600462,255
30,WS_RECV_END,1516047601790,255
30,PLAYER_SLEEPBEFORE_START,1516047601790,256
30,PLAYER_SLEEPBEFORE_END,1516047626412,256
30,WS_SEND_START,1516047626412,256
30,WS_SEND_END,1516047626412,256
30,WS_RECV_START,1516047626412,257
30,WS_RECV_END,1516047626761,257
30,PLAYER_SLEEPBEFORE_START,1516047626761,258
30,PLAYER_SLEEPBEFORE_END,1516047626769,258
30,WS_SEND_START,1516047626769,258
30,WS_SEND_END,1516047626769,258
30,WS_RECV_START,1516047626769,259
30,WS_RECV_END,1516047627085,259
30,PLAYER_SLEEPBEFORE_START,1516047627085,260
30,PLAYER_SLEEPBEFORE_END,1516047627610,260
30,WS_SEND_START,1516047627610,260
30,WS_SEND_END,1516047627610,260
30,WS_RECV_START,1516047627610,261
30,WS_RECV_END,1516047627667,261
30,PLAYER_SLEEPBEFORE_START,1516047627667,262
30,PLAYER_SLEEPBEFORE_END,1516047627939,262
30,WS_SEND_START,1516047627939,262
30,WS_SEND_END,1516047627939,262
30,WS_RECV_START,1516047627939,263
30,WS_RECV_END,1516047632137,263
30,PLAYER_SLEEPBEFORE_START,1516047632137,264
30,PLAYER_SLEEPBEFORE_END,1516047634550,264
30,WS_SEND_START,1516047634550,264
30,WS_SEND_END,1516047634550,264
30,WS_RECV_START,1516047634550,265
30,WS_RECV_END,1516047636477,265
30,PLAYER_SLEEPBEFORE_START,1516047636477,266
30,PLAYER_SLEEPBEFORE_END,1516047636489,266
30,WS_SEND_START,1516047636489,266
30,WS_SEND_END,1516047636489,266
30,WS_RECV_START,1516047636489,267
30,WS_RECV_END,1516047639032,267
30,PLAYER_SLEEPBEFORE_START,1516047639032,268
30,PLAYER_SLEEPBEFORE_END,1516047640502,268
30,REQ_START,1516047640502,268
30,REQ_END,1516047640512,268
30,PLAYER_SLEEPBEFORE_START,1516047640512,269
30,PLAYER_SLEEPBEFORE_END,1516047657906,269
30,WS_SEND_START,1516047657906,269
30,WS_SEND_END,1516047657906,269
30,WS_RECV_START,1516047657906,270
30,WS_RECV_END,1516047657998,270
30,PLAYER_SLEEPBEFORE_START,1516047657998,271
30,PLAYER_SLEEPBEFORE_END,1516047658005,271
30,WS_SEND_START,1516047658005,271
30,WS_SEND_END,1516047658005,271
30,WS_RECV_START,1516047658005,272
30,WS_RECV_END,1516047658045,272
30,PLAYER_SLEEPBEFORE_START,1516047658045,273
30,PLAYER_SLEEPBEFORE_END,1516047659342,273
30,WS_SEND_START,1516047659343,273
30,WS_SEND_END,1516047659343,273
30,WS_RECV_START,1516047659343,274
30,WS_RECV_END,1516047659402,274
30,PLAYER_SLEEPBEFORE_START,1516047659402,275
30,PLAYER_SLEEPBEFORE_END,1516047660575,275
30,WS_SEND_START,1516047660575,275
30,WS_SEND_END,1516047660576,275
30,WS_RECV_START,1516047660576,276
30,WS_RECV_END,1516047661634,276
30,PLAYER_SLEEPBEFORE_START,1516047661634,277
30,PLAYER_SLEEPBEFORE_END,1516047661656,277
30,WS_SEND_START,1516047661656,277
30,WS_SEND_END,1516047661656,277
30,WS_RECV_START,1516047661656,278
30,WS_RECV_END,1516047669484,278
30,PLAYER_SLEEPBEFORE_START,1516047669484,279
30,PLAYER_SLEEPBEFORE_END,1516047694007,279
30,WS_SEND_START,1516047694007,279
30,WS_SEND_END,1516047694007,279
30,WS_RECV_START,1516047694007,280
30,WS_RECV_END,1516047694994,280
30,PLAYER_SLEEPBEFORE_START,1516047694994,281
30,PLAYER_SLEEPBEFORE_END,1516047717282,281
30,WS_SEND_START,1516047717282,281
30,WS_SEND_END,1516047717282,281
30,WS_RECV_START,1516047717282,282
30,WS_RECV_END,1516047724467,282
30,PLAYER_SLEEPBEFORE_START,1516047724467,283
30,PLAYER_SLEEPBEFORE_END,1516047724485,283
30,WS_SEND_START,1516047724485,283
30,WS_SEND_END,1516047724485,283
30,WS_RECV_START,1516047724485,284
30,WS_RECV_END,1516047727137,284
30,PLAYER_SLEEPBEFORE_START,1516047727137,285
30,PLAYER_SLEEPBEFORE_END,1516047751268,285
30,WS_SEND_START,1516047751268,285
30,WS_SEND_END,1516047751268,285
30,WS_RECV_START,1516047751268,286
30,WS_RECV_END,1516047753615,286
30,PLAYER_SLEEPBEFORE_START,1516047753615,287
30,PLAYER_SLEEPBEFORE_END,1516047776769,287
30,WS_SEND_START,1516047776769,287
30,WS_SEND_END,1516047776769,287
30,WS_RECV_START,1516047776769,288
30,WS_RECV_END,1516047783623,288
30,PLAYER_SLEEPBEFORE_START,1516047783623,289
30,PLAYER_SLEEPBEFORE_END,1516047783645,289
30,WS_SEND_START,1516047783645,289
30,WS_SEND_END,1516047783645,289
30,WS_RECV_START,1516047783645,290
30,WS_RECV_END,1516047786680,290
30,PLAYER_SLEEPBEFORE_START,1516047786680,291
30,PLAYER_SLEEPBEFORE_END,1516047797294,291
30,WS_SEND_START,1516047797294,291
30,WS_SEND_END,1516047797295,291
30,WS_RECV_START,1516047797295,292
30,WS_RECV_END,1516047798267,292
30,PLAYER_SLEEPBEFORE_START,1516047798267,293
30,PLAYER_SLEEPBEFORE_END,1516047814023,293
30,WS_SEND_START,1516047814023,293
30,WS_SEND_END,1516047814023,293
30,WS_RECV_START,1516047814023,294
30,WS_RECV_END,1516047825010,294
30,PLAYER_SLEEPBEFORE_START,1516047825010,295
30,PLAYER_SLEEPBEFORE_END,1516047825035,295
30,WS_SEND_START,1516047825035,295
30,WS_SEND_END,1516047825035,295
30,WS_RECV_START,1516047825035,296
30,WS_RECV_END,1516047827890,296
30,PLAYER_SLEEPBEFORE_START,1516047827890,297
30,PLAYER_SLEEPBEFORE_END,1516047849387,297
30,WS_SEND_START,1516047849387,297
30,WS_SEND_END,1516047849387,297
30,WS_RECV_START,1516047849387,298
30,WS_RECV_END,1516047849455,298
30,PLAYER_SLEEPBEFORE_START,1516047849455,299
30,PLAYER_SLEEPBEFORE_END,1516047849466,299
30,WS_SEND_START,1516047849466,299
30,WS_SEND_END,1516047849466,299
30,WS_RECV_START,1516047849466,300
30,WS_RECV_END,1516047849506,300
30,PLAYER_SLEEPBEFORE_START,1516047849506,301
30,PLAYER_SLEEPBEFORE_END,1516047851866,301
30,WS_SEND_START,1516047851866,301
30,WS_SEND_END,1516047851866,301
30,WS_RECV_START,1516047851866,302
30,WS_RECV_END,1516047852929,302
30,PLAYER_SLEEPBEFORE_START,1516047852929,303
30,PLAYER_SLEEPBEFORE_END,1516047852953,303
30,WS_SEND_START,1516047852953,303
30,WS_SEND_END,1516047852953,303
30,WS_RECV_START,1516047852953,304
30,WS_RECV_END,1516047855148,304
30,PLAYER_SLEEPBEFORE_START,1516047855148,305
30,PLAYER_SLEEPBEFORE_END,1516047880138,305
30,WS_SEND_START,1516047880138,305
30,WS_SEND_END,1516047880138,305
30,WS_RECV_START,1516047880138,306
30,WS_RECV_END,1516047880248,306
30,PLAYER_SLEEPBEFORE_START,1516047880248,307
30,PLAYER_SLEEPBEFORE_END,1516047904124,307
30,WS_SEND_START,1516047904124,307
30,WS_SEND_END,1516047904124,307
30,WS_RECV_START,1516047904124,308
30,WS_RECV_END,1516047904981,308
30,PLAYER_SLEEPBEFORE_START,1516047904981,309
30,PLAYER_SLEEPBEFORE_END,1516047926672,309
30,WS_SEND_START,1516047926672,309
30,WS_SEND_END,1516047926673,309
30,WS_RECV_START,1516047926673,310
30,WS_RECV_END,1516047928559,310
30,PLAYER_SLEEPBEFORE_START,1516047928559,311
30,PLAYER_SLEEPBEFORE_END,1516047957387,311
30,WS_SEND_START,1516047957387,311
30,WS_SEND_END,1516047957387,311
30,WS_RECV_START,1516047957387,312
30,WS_RECV_END,1516047964475,312
30,PLAYER_SLEEPBEFORE_START,1516047964475,313
30,PLAYER_SLEEPBEFORE_END,1516047964495,313
30,WS_SEND_START,1516047964495,313
30,WS_SEND_END,1516047964495,313
30,WS_RECV_START,1516047964495,314
30,WS_RECV_END,1516047964995,314
30,PLAYER_SLEEPBEFORE_START,1516047964995,315
30,PLAYER_SLEEPBEFORE_END,1516047986581,315
30,WS_SEND_START,1516047986581,315
30,WS_SEND_END,1516047986581,315
30,WS_RECV_START,1516047986581,316
30,WS_RECV_END,1516047992478,316
30,PLAYER_SLEEPBEFORE_START,1516047992478,317
30,PLAYER_SLEEPBEFORE_END,1516047992486,317
30,WS_SEND_START,1516047992486,317
30,WS_SEND_END,1516047992486,317
30,WS_RECV_START,1516047992486,318
30,WS_RECV_END,1516047992842,318
30,PLAYER_SLEEPBEFORE_START,1516047992842,319
30,PLAYER_SLEEPBEFORE_END,1516047993174,319
30,WS_SEND_START,1516047993174,319
30,WS_SEND_END,1516047993174,319
30,WS_RECV_START,1516047993174,320
30,WS_RECV_END,1516047996032,320
30,PLAYER_SLEEPBEFORE_START,1516047996032,321
30,PLAYER_SLEEPBEFORE_END,1516047996051,321
30,WS_SEND_START,1516047996051,321
30,WS_SEND_END,1516047996051,321
30,WS_RECV_START,1516047996051,322
30,WS_RECV_END,1516047996662,322
30,PLAYER_SLEEPBEFORE_START,1516047996662,323
30,PLAYER_SLEEPBEFORE_END,1516048001055,323
30,REQ_START,1516048001055,323
30,REQ_END,1516048001064,323
30,PLAYER_SLEEPBEFORE_START,1516048001064,324
30,PLAYER_SLEEPBEFORE_END,1516048020950,324
30,WS_SEND_START,1516048020950,324
30,WS_SEND_END,1516048020950,324
30,WS_RECV_START,1516048020950,325
30,WS_RECV_END,1516048021270,325
30,PLAYER_SLEEPBEFORE_START,1516048021270,326
30,PLAYER_SLEEPBEFORE_END,1516048021280,326
30,WS_SEND_START,1516048021280,326
30,WS_SEND_END,1516048021280,326
30,WS_RECV_START,1516048021280,327
30,WS_RECV_END,1516048023494,327
30,PLAYER_SLEEPBEFORE_START,1516048023494,328
30,PLAYER_SLEEPBEFORE_END,1516048023855,328
30,WS_SEND_START,1516048023855,328
30,WS_SEND_END,1516048023855,328
30,WS_RECV_START,1516048023855,329
30,WS_RECV_END,1516048027519,329
30,PLAYER_SLEEPBEFORE_START,1516048027519,330
30,PLAYER_SLEEPBEFORE_END,1516048027865,330
30,WS_SEND_START,1516048027865,330
30,WS_SEND_END,1516048027865,330
30,WS_RECV_START,1516048027865,331
30,WS_RECV_END,1516048028503,331
30,PLAYER_SLEEPBEFORE_START,1516048028503,332
30,PLAYER_SLEEPBEFORE_END,1516048029350,332
30,WS_SEND_START,1516048029350,332
30,WS_SEND_END,1516048029350,332
30,WS_RECV_START,1516048029350,333
30,WS_RECV_END,1516048029570,333
30,PLAYER_SLEEPBEFORE_START,1516048029570,334
30,PLAYER_SLEEPBEFORE_END,1516048029968,334
30,WS_SEND_START,1516048029968,334
30,WS_SEND_END,1516048029968,334
30,WS_RECV_START,1516048029968,335
30,WS_RECV_END,1516048031698,335
30,PLAYER_SLEEPBEFORE_START,1516048031698,336
30,PLAYER_SLEEPBEFORE_END,1516048032022,336
30,WS_SEND_START,1516048032022,336
30,WS_SEND_END,1516048032022,336
30,WS_RECV_START,1516048032022,337
30,WS_RECV_END,1516048035267,337
30,PLAYER_SLEEPBEFORE_START,1516048035267,338
30,PLAYER_SLEEPBEFORE_END,1516048035282,338
30,WS_SEND_START,1516048035282,338
30,WS_SEND_END,1516048035282,338
30,WS_RECV_START,1516048035282,339
30,WS_RECV_END,1516048040811,339
30,PLAYER_SLEEPBEFORE_START,1516048040811,340
30,PLAYER_SLEEPBEFORE_END,1516048058783,340
30,WS_SEND_START,1516048058783,340
30,WS_SEND_END,1516048058783,340
30,WS_RECV_START,1516048058783,341
30,WS_RECV_END,1516048068297,341
30,PLAYER_SLEEPBEFORE_START,1516048068297,342
30,PLAYER_SLEEPBEFORE_END,1516048068306,342
30,WS_SEND_START,1516048068306,342
30,WS_SEND_END,1516048068306,342
30,WS_RECV_START,1516048068306,343
30,WS_RECV_END,1516048069410,343
30,PLAYER_SLEEPBEFORE_START,1516048069410,344
30,PLAYER_SLEEPBEFORE_END,1516048071722,344
30,WS_SEND_START,1516048071722,344
30,WS_SEND_END,1516048071722,344
30,WS_RECV_START,1516048071722,345
30,WS_RECV_END,1516048082331,345
30,PLAYER_SLEEPBEFORE_START,1516048082331,346
30,PLAYER_SLEEPBEFORE_END,1516048082342,346
30,WS_SEND_START,1516048082342,346
30,WS_SEND_END,1516048082342,346
30,WS_RECV_START,1516048082342,347
30,WS_RECV_END,1516048091513,347
30,PLAYER_SLEEPBEFORE_START,1516048091513,348
30,PLAYER_SLEEPBEFORE_END,1516048112120,348
30,WS_SEND_START,1516048112120,348
30,WS_SEND_END,1516048112120,348
30,WS_RECV_START,1516048112120,349
30,WS_RECV_END,1516048117547,349
30,PLAYER_SLEEPBEFORE_START,1516048117548,350
30,PLAYER_SLEEPBEFORE_END,1516048117556,350
30,WS_SEND_START,1516048117556,350
30,WS_SEND_END,1516048117556,350
30,WS_RECV_START,1516048117556,351
30,WS_RECV_END,1516048118410,351
30,PLAYER_SLEEPBEFORE_START,1516048118410,352
30,PLAYER_SLEEPBEFORE_END,1516048119596,352
30,WS_SEND_START,1516048119596,352
30,WS_SEND_END,1516048119596,352
30,WS_RECV_START,1516048119596,353
30,WS_RECV_END,1516048122649,353
30,PLAYER_SLEEPBEFORE_START,1516048122649,354
30,PLAYER_SLEEPBEFORE_END,1516048122665,354
30,WS_SEND_START,1516048122665,354
30,WS_SEND_END,1516048122665,354
30,WS_RECV_START,1516048122665,355
30,WS_RECV_END,1516048129064,355
30,PLAYER_SLEEPBEFORE_START,1516048129064,356
30,PLAYER_SLEEPBEFORE_END,1516048129110,356
30,WS_SEND_START,1516048129110,356
30,WS_SEND_END,1516048129110,356
30,WS_RECV_START,1516048129111,357
30,WS_RECV_END,1516048136351,357
30,PLAYER_SLEEPBEFORE_START,1516048136351,358
30,PLAYER_SLEEPBEFORE_END,1516048136366,358
30,WS_SEND_START,1516048136366,358
30,WS_SEND_END,1516048136366,358
30,WS_RECV_START,1516048136366,359
30,WS_RECV_END,1516048139060,359
30,PLAYER_SLEEPBEFORE_START,1516048139060,360
30,PLAYER_SLEEPBEFORE_END,1516048159526,360
30,WS_SEND_START,1516048159526,360
30,WS_SEND_END,1516048159526,360
30,WS_RECV_START,1516048159526,361
30,WS_RECV_END,1516048162571,361
30,PLAYER_SLEEPBEFORE_START,1516048162571,362
30,PLAYER_SLEEPBEFORE_END,1516048162580,362
30,WS_SEND_START,1516048162580,362
30,WS_SEND_END,1516048162580,362
30,WS_RECV_START,1516048162580,363
30,WS_RECV_END,1516048163026,363
30,PLAYER_SLEEPBEFORE_START,1516048163026,364
30,PLAYER_SLEEPBEFORE_END,1516048165117,364
30,WS_SEND_START,1516048165117,364
30,WS_SEND_END,1516048165117,364
30,WS_RECV_START,1516048165117,365
30,WS_RECV_END,1516048172670,365
30,PLAYER_SLEEPBEFORE_START,1516048172670,366
30,PLAYER_SLEEPBEFORE_END,1516048172680,366
30,WS_SEND_START,1516048172680,366
30,WS_SEND_END,1516048172680,366
30,WS_RECV_START,1516048172680,367
30,WS_RECV_END,1516048174060,367
30,PLAYER_SLEEPBEFORE_START,1516048174060,368
30,PLAYER_SLEEPBEFORE_END,1516048197521,368
30,WS_SEND_START,1516048197521,368
30,WS_SEND_END,1516048197521,368
30,WS_RECV_START,1516048197521,369
30,WS_RECV_END,1516048197603,369
30,PLAYER_SLEEPBEFORE_START,1516048197603,370
30,PLAYER_SLEEPBEFORE_END,1516048197611,370
30,WS_SEND_START,1516048197611,370
30,WS_SEND_END,1516048197611,370
30,WS_RECV_START,1516048197611,371
30,WS_RECV_END,1516048197654,371
30,PLAYER_SLEEPBEFORE_START,1516048197654,372
30,PLAYER_SLEEPBEFORE_END,1516048198026,372
30,WS_SEND_START,1516048198026,372
30,WS_SEND_END,1516048198026,372
30,WS_RECV_START,1516048198026,373
30,WS_RECV_END,1516048198083,373
30,PLAYER_SLEEPBEFORE_START,1516048198083,374
30,PLAYER_SLEEPBEFORE_END,1516048198785,374
30,WS_SEND_START,1516048198785,374
30,WS_SEND_END,1516048198785,374
30,WS_RECV_START,1516048198785,375
30,WS_RECV_END,1516048198973,375
30,PLAYER_SLEEPBEFORE_START,1516048198973,376
30,PLAYER_SLEEPBEFORE_END,1516048199324,376
30,WS_SEND_START,1516048199324,376
30,WS_SEND_END,1516048199324,376
30,WS_RECV_START,1516048199324,377
30,WS_RECV_END,1516048201351,377
30,PLAYER_SLEEPBEFORE_START,1516048201351,378
30,PLAYER_SLEEPBEFORE_END,1516048201370,378
30,WS_SEND_START,1516048201370,378
30,WS_SEND_END,1516048201370,378
30,WS_RECV_START,1516048201370,379
30,WS_RECV_END,1516048202561,379
30,PLAYER_SLEEPBEFORE_START,1516048202561,380
30,PLAYER_SLEEPBEFORE_END,1516048223053,380
30,WS_SEND_START,1516048223053,380
30,WS_SEND_END,1516048223053,380
30,PLAYER_SLEEPBEFORE_START,1516048223053,381
30,PLAYER_SLEEPBEFORE_END,1516048227268,381
30,WS_SEND_START,1516048227268,381
30,WS_SEND_END,1516048227268,381
30,WS_RECV_START,1516048227268,382
30,WS_RECV_END,1516048227445,382
30,PLAYER_SLEEPBEFORE_START,1516048227445,383
30,PLAYER_SLEEPBEFORE_END,1516048247645,383
30,WS_SEND_START,1516048247645,383
30,WS_SEND_END,1516048247645,383
30,PLAYER_SLEEPBEFORE_START,1516048247645,384
30,PLAYER_SLEEPBEFORE_END,1516048250831,384
30,WS_SEND_START,1516048250831,384
30,WS_SEND_END,1516048250831,384
30,WS_RECV_START,1516048250831,385
30,WS_RECV_END,1516048251666,385
30,PLAYER_SLEEPBEFORE_START,1516048251666,386
30,PLAYER_SLEEPBEFORE_END,1516048251681,386
30,WS_SEND_START,1516048251681,386
30,WS_SEND_END,1516048251681,386
30,WS_RECV_START,1516048251682,387
30,WS_RECV_END,1516048253696,387
30,PLAYER_SLEEPBEFORE_START,1516048253696,388
30,PLAYER_SLEEPBEFORE_END,1516048274226,388
30,WS_SEND_START,1516048274226,388
30,WS_SEND_END,1516048274226,388
30,PLAYER_SLEEPBEFORE_START,1516048274226,389
30,PLAYER_SLEEPBEFORE_END,1516048276445,389
30,WS_SEND_START,1516048276445,389
30,WS_SEND_END,1516048276445,389
30,WS_RECV_START,1516048276445,390
30,WS_RECV_END,1516048276844,390
30,PLAYER_SLEEPBEFORE_START,1516048276844,391
30,PLAYER_SLEEPBEFORE_END,1516048299680,391
30,WS_SEND_START,1516048299680,391
30,WS_SEND_END,1516048299680,391
30,WS_RECV_START,1516048299680,392
30,WS_RECV_END,1516048301236,392
30,PLAYER_SLEEPBEFORE_START,1516048301236,393
30,PLAYER_SLEEPBEFORE_END,1516048325925,393
30,WS_SEND_START,1516048325925,393
30,WS_SEND_END,1516048325925,393
30,PLAYER_SLEEPBEFORE_START,1516048325925,394
30,PLAYER_SLEEPBEFORE_END,1516048327897,394
30,WS_SEND_START,1516048327898,394
30,WS_SEND_END,1516048327898,394
30,WS_RECV_START,1516048327898,395
30,WS_RECV_END,1516048329468,395
30,PLAYER_SLEEPBEFORE_START,1516048329468,396
30,PLAYER_SLEEPBEFORE_END,1516048329475,396
30,WS_SEND_START,1516048329475,396
30,WS_SEND_END,1516048329475,396
30,WS_RECV_START,1516048329475,397
30,WS_RECV_END,1516048329610,397
30,PLAYER_SLEEPBEFORE_START,1516048329610,398
30,PLAYER_SLEEPBEFORE_END,1516048329790,398
30,WS_SEND_START,1516048329790,398
30,WS_SEND_END,1516048329790,398
30,WS_RECV_START,1516048329790,399
30,WS_RECV_END,1516048330023,399
30,PLAYER_SLEEPBEFORE_START,1516048330023,400
30,PLAYER_SLEEPBEFORE_END,1516048331098,400
30,WS_SEND_START,1516048331098,400
30,WS_SEND_END,1516048331098,400
30,WS_RECV_START,1516048331098,401
30,WS_RECV_END,1516048331160,401
30,PLAYER_SLEEPBEFORE_START,1516048331160,402
30,PLAYER_SLEEPBEFORE_END,1516048332519,402
30,WS_SEND_START,1516048332519,402
30,WS_SEND_END,1516048332519,402
30,WS_RECV_START,1516048332519,403
30,WS_RECV_END,1516048335636,403
30,PLAYER_SLEEPBEFORE_START,1516048335636,404
30,PLAYER_SLEEPBEFORE_END,1516048336106,404
30,WS_SEND_START,1516048336106,404
30,WS_SEND_END,1516048336106,404
30,WS_RECV_START,1516048336106,405
30,WS_RECV_END,1516048336470,405
30,PLAYER_SLEEPBEFORE_START,1516048336470,406
30,PLAYER_SLEEPBEFORE_END,1516048339197,406
30,WS_SEND_START,1516048339197,406
30,WS_SEND_END,1516048339197,406
30,WS_RECV_START,1516048339197,407
30,WS_RECV_END,1516048339283,407
30,PLAYER_SLEEPBEFORE_START,1516048339283,408
30,PLAYER_SLEEPBEFORE_END,1516048339612,408
30,WS_SEND_START,1516048339612,408
30,WS_SEND_END,1516048339613,408
30,WS_RECV_START,1516048339613,409
30,WS_RECV_END,1516048339668,409
30,PLAYER_SLEEPBEFORE_START,1516048339668,410
30,PLAYER_SLEEPBEFORE_END,1516048340694,410
30,WS_SEND_START,1516048340694,410
30,WS_SEND_END,1516048340694,410
30,WS_RECV_START,1516048340694,411
30,WS_RECV_END,1516048340752,411
30,PLAYER_SLEEPBEFORE_START,1516048340752,412
30,PLAYER_SLEEPBEFORE_END,1516048341408,412
30,WS_SEND_START,1516048341408,412
30,WS_SEND_END,1516048341408,412
30,WS_RECV_START,1516048341408,413
30,WS_RECV_END,1516048343940,413
30,PLAYER_SLEEPBEFORE_START,1516048343940,414
30,PLAYER_SLEEPBEFORE_END,1516048343956,414
30,WS_SEND_START,1516048343956,414
30,WS_SEND_END,1516048343956,414
30,WS_RECV_START,1516048343956,415
30,WS_RECV_END,1516048344869,415
30,PLAYER_SLEEPBEFORE_START,1516048344869,416
30,PLAYER_SLEEPBEFORE_END,1516048359136,416
30,WS_SEND_START,1516048359136,416
30,WS_SEND_END,1516048359136,416
30,PLAYER_SLEEPBEFORE_START,1516048359136,417
30,PLAYER_SLEEPBEFORE_END,1516048387816,417
30,WS_SEND_START,1516048387816,417
30,WS_SEND_END,1516048387816,417
30,WS_RECV_START,1516048387816,418
30,WS_RECV_END,1516048387981,418
30,PLAYER_SLEEPBEFORE_START,1516048387981,419
30,PLAYER_SLEEPBEFORE_END,1516048392803,419
30,REQ_START,1516048392803,419
30,REQ_END,1516048392811,419
30,PLAYER_SLEEPBEFORE_START,1516048392811,420
30,PLAYER_SLEEPBEFORE_END,1516048411556,420
30,WS_CLOSE_START,1516048411556,420
30,WS_CLOSE_END,1516048411556,420
30,PLAYER_DONE,1516048411556
