# --sessions 360 --app-url=http://shinyloadtest.rstudioservices.com/cran_explorer --output-dir test360 --overwrite-output --log-level warn --start-interval 500 15min.log
thread_id,event,timestamp,input_line_number,comment
114,PLAYER_SESSION_CREATE,1516218150718
114,PLAYER_START_INTERVAL_START,1516218150718
114,PLAYER_START_INTERVAL_END,1516218207718
114,REQ_HOME_START,1516218207719,2
114,REQ_HOME_END,1516218207804,2
114,REQ_START,1516218207804,3
114,REQ_END,1516218207835,3
114,REQ_START,1516218207835,4
114,REQ_END,1516218207869,4
114,REQ_START,1516218207869,5
114,REQ_END,1516218207901,5
114,REQ_START,1516218207901,6
114,REQ_END,1516218207933,6
114,REQ_START,1516218207933,7
114,REQ_END,1516218207965,7
114,REQ_START,1516218207965,8
114,REQ_END,1516218207999,8
114,REQ_START,1516218207999,9
114,REQ_END,1516218208044,9
114,REQ_START,1516218208044,10
114,REQ_END,1516218208052,10
114,REQ_START,1516218208052,11
114,REQ_END,1516218208083,11
114,REQ_START,1516218208083,12
114,REQ_END,1516218208092,12
114,REQ_START,1516218208092,13
114,REQ_END,1516218208127,13
114,REQ_START,1516218208127,14
114,REQ_END,1516218208141,14
114,REQ_START,1516218208141,15
114,REQ_END,1516218208174,15
114,REQ_TOK_START,1516218208174,16
114,REQ_TOK_END,1516218208182,16
114,REQ_SINF_START,1516218208182,17
114,REQ_SINF_END,1516218208188,17
114,WS_OPEN_START,1516218208188,18
114,WS_OPEN_END,1516218208194,18
114,REQ_START,1516218208194,19
114,REQ_END,1516218208220,19
114,WS_RECV_START,1516218208220,20
114,WS_RECV_END,1516218208220,20
114,PLAYER_SLEEPBEFORE_START,1516218208220,21
114,PLAYER_SLEEPBEFORE_END,1516218208225,21
114,WS_SEND_START,1516218208225,21
114,WS_SEND_END,1516218208225,21
114,PLAYER_SLEEPBEFORE_START,1516218208225,22
114,PLAYER_SLEEPBEFORE_END,1516218208227,22
114,WS_SEND_START,1516218208227,22
114,WS_SEND_END,1516218208227,22
114,WS_RECV_INIT_START,1516218208227,23
114,WS_RECV_INIT_END,1516218208262,23
114,WS_RECV_START,1516218208262,24
114,WS_RECV_END,1516218208315,24
114,PLAYER_SLEEPBEFORE_START,1516218208315,25
114,PLAYER_SLEEPBEFORE_END,1516218208322,25
114,REQ_START,1516218208322,25
114,REQ_END,1516218208394,25
114,PLAYER_SLEEPBEFORE_START,1516218208394,26
114,PLAYER_SLEEPBEFORE_END,1516218208396,26
114,REQ_START,1516218208396,26
114,REQ_END,1516218208484,26
114,PLAYER_SLEEPBEFORE_START,1516218208484,27
114,PLAYER_SLEEPBEFORE_END,1516218208487,27
114,REQ_START,1516218208487,27
114,REQ_END,1516218208518,27
114,PLAYER_SLEEPBEFORE_START,1516218208518,28
114,PLAYER_SLEEPBEFORE_END,1516218208804,28
114,REQ_START,1516218208804,28
114,REQ_END,1516218208954,28
114,PLAYER_SLEEPBEFORE_START,1516218208954,29
114,PLAYER_SLEEPBEFORE_END,1516218209129,29
114,WS_SEND_START,1516218209129,29
114,WS_SEND_END,1516218209130,29
114,WS_RECV_START,1516218209130,30
114,WS_RECV_END,1516218209269,30
114,PLAYER_SLEEPBEFORE_START,1516218209269,31
114,PLAYER_SLEEPBEFORE_END,1516218209280,31
114,REQ_START,1516218209280,31
114,REQ_END,1516218209321,31
114,PLAYER_SLEEPBEFORE_START,1516218209321,32
114,PLAYER_SLEEPBEFORE_END,1516218237466,32
114,WS_SEND_START,1516218237466,32
114,WS_SEND_END,1516218237466,32
114,WS_RECV_START,1516218237466,33
114,WS_RECV_END,1516218239273,33
114,PLAYER_SLEEPBEFORE_START,1516218239273,34
114,PLAYER_SLEEPBEFORE_END,1516218265184,34
114,WS_SEND_START,1516218265184,34
114,WS_SEND_END,1516218265184,34
114,WS_RECV_START,1516218265184,35
114,WS_RECV_END,1516218265224,35
114,PLAYER_SLEEPBEFORE_START,1516218265224,36
114,PLAYER_SLEEPBEFORE_END,1516218265233,36
114,WS_SEND_START,1516218265233,36
114,WS_SEND_END,1516218265233,36
114,WS_RECV_START,1516218265233,37
114,WS_RECV_END,1516218265273,37
114,PLAYER_SLEEPBEFORE_START,1516218265273,38
114,PLAYER_SLEEPBEFORE_END,1516218268468,38
114,WS_SEND_START,1516218268468,38
114,WS_SEND_END,1516218268468,38
114,WS_RECV_START,1516218268468,39
114,WS_RECV_END,1516218268605,39
114,PLAYER_SLEEPBEFORE_START,1516218268605,40
114,PLAYER_SLEEPBEFORE_END,1516218268651,40
114,WS_SEND_START,1516218268651,40
114,WS_SEND_END,1516218268651,40
114,WS_RECV_START,1516218268651,41
114,WS_RECV_END,1516218268858,41
114,PLAYER_SLEEPBEFORE_START,1516218268858,42
114,PLAYER_SLEEPBEFORE_END,1516218286993,42
114,WS_SEND_START,1516218286993,42
114,WS_SEND_END,1516218286993,42
114,WS_RECV_START,1516218286993,43
114,WS_RECV_END,1516218287062,43
114,PLAYER_SLEEPBEFORE_START,1516218287062,44
114,PLAYER_SLEEPBEFORE_END,1516218287074,44
114,WS_SEND_START,1516218287074,44
114,WS_SEND_END,1516218287075,44
114,WS_RECV_START,1516218287075,45
114,WS_RECV_END,1516218287117,45
114,PLAYER_SLEEPBEFORE_START,1516218287117,46
114,PLAYER_SLEEPBEFORE_END,1516218288377,46
114,WS_SEND_START,1516218288377,46
114,WS_SEND_END,1516218288377,46
114,WS_RECV_START,1516218288377,47
114,WS_RECV_END,1516218288424,47
114,PLAYER_SLEEPBEFORE_START,1516218288424,48
114,PLAYER_SLEEPBEFORE_END,1516218289744,48
114,WS_SEND_START,1516218289744,48
114,WS_SEND_END,1516218289744,48
114,WS_RECV_START,1516218289744,49
114,WS_RECV_END,1516218290005,49
114,PLAYER_SLEEPBEFORE_START,1516218290005,50
114,PLAYER_SLEEPBEFORE_END,1516218290029,50
114,WS_SEND_START,1516218290029,50
114,WS_SEND_END,1516218290029,50
114,WS_RECV_START,1516218290029,51
114,WS_RECV_END,1516218290245,51
114,PLAYER_SLEEPBEFORE_START,1516218290245,52
114,PLAYER_SLEEPBEFORE_END,1516218312809,52
114,WS_SEND_START,1516218312809,52
114,WS_SEND_END,1516218312809,52
114,WS_RECV_START,1516218312809,53
114,WS_RECV_END,1516218313013,53
114,PLAYER_SLEEPBEFORE_START,1516218313013,54
114,PLAYER_SLEEPBEFORE_END,1516218334316,54
114,WS_SEND_START,1516218334317,54
114,WS_SEND_END,1516218334317,54
114,PLAYER_SLEEPBEFORE_START,1516218334317,55
114,PLAYER_SLEEPBEFORE_END,1516218336258,55
114,WS_SEND_START,1516218336258,55
114,WS_SEND_END,1516218336258,55
114,WS_RECV_START,1516218336258,56
114,WS_RECV_END,1516218336565,56
114,PLAYER_SLEEPBEFORE_START,1516218336565,57
114,PLAYER_SLEEPBEFORE_END,1516218359437,57
114,WS_SEND_START,1516218359437,57
114,WS_SEND_END,1516218359437,57
114,WS_RECV_START,1516218359437,58
114,WS_RECV_END,1516218359516,58
114,PLAYER_SLEEPBEFORE_START,1516218359516,59
114,PLAYER_SLEEPBEFORE_END,1516218361843,59
114,WS_SEND_START,1516218361843,59
114,WS_SEND_END,1516218361843,59
114,WS_RECV_START,1516218361843,60
114,WS_RECV_END,1516218362162,60
114,PLAYER_SLEEPBEFORE_START,1516218362162,61
114,PLAYER_SLEEPBEFORE_END,1516218365753,61
114,WS_SEND_START,1516218365753,61
114,WS_SEND_END,1516218365753,61
114,WS_RECV_START,1516218365753,62
114,WS_RECV_END,1516218366293,62
114,PLAYER_SLEEPBEFORE_START,1516218366293,63
114,PLAYER_SLEEPBEFORE_END,1516218385555,63
114,WS_SEND_START,1516218385555,63
114,WS_SEND_END,1516218385555,63
114,WS_RECV_START,1516218385555,64
114,WS_RECV_END,1516218385899,64
114,PLAYER_SLEEPBEFORE_START,1516218385899,65
114,PLAYER_SLEEPBEFORE_END,1516218412716,65
114,WS_SEND_START,1516218412716,65
114,WS_SEND_END,1516218412716,65
114,WS_RECV_START,1516218412716,66
114,WS_RECV_END,1516218412953,66
114,PLAYER_SLEEPBEFORE_START,1516218412953,67
114,PLAYER_SLEEPBEFORE_END,1516218414461,67
114,WS_SEND_START,1516218414461,67
114,WS_SEND_END,1516218414461,67
114,WS_RECV_START,1516218414461,68
114,WS_RECV_END,1516218414609,68
114,PLAYER_SLEEPBEFORE_START,1516218414609,69
114,PLAYER_SLEEPBEFORE_END,1516218436607,69
114,WS_SEND_START,1516218436607,69
114,WS_SEND_END,1516218436607,69
114,WS_RECV_START,1516218436607,70
114,WS_RECV_END,1516218436762,70
114,PLAYER_SLEEPBEFORE_START,1516218436762,71
114,PLAYER_SLEEPBEFORE_END,1516218461538,71
114,WS_SEND_START,1516218461538,71
114,WS_SEND_END,1516218461538,71
114,PLAYER_SLEEPBEFORE_START,1516218461538,72
114,PLAYER_SLEEPBEFORE_END,1516218464145,72
114,WS_SEND_START,1516218464145,72
114,WS_SEND_END,1516218464145,72
114,WS_RECV_START,1516218464145,73
114,WS_RECV_END,1516218464178,73
114,PLAYER_SLEEPBEFORE_START,1516218464178,74
114,PLAYER_SLEEPBEFORE_END,1516218464188,74
114,WS_SEND_START,1516218464188,74
114,WS_SEND_END,1516218464188,74
114,WS_RECV_START,1516218464188,75
114,WS_RECV_END,1516218464233,75
114,PLAYER_SLEEPBEFORE_START,1516218464233,76
114,PLAYER_SLEEPBEFORE_END,1516218465739,76
114,WS_SEND_START,1516218465739,76
114,WS_SEND_END,1516218465739,76
114,WS_RECV_START,1516218465739,77
114,WS_RECV_END,1516218465985,77
114,PLAYER_SLEEPBEFORE_START,1516218465985,78
114,PLAYER_SLEEPBEFORE_END,1516218466853,78
114,WS_SEND_START,1516218466853,78
114,WS_SEND_END,1516218466853,78
114,WS_RECV_START,1516218466853,79
114,WS_RECV_END,1516218467799,79
114,PLAYER_SLEEPBEFORE_START,1516218467799,80
114,PLAYER_SLEEPBEFORE_END,1516218475465,80
114,WS_SEND_START,1516218475465,80
114,WS_SEND_END,1516218475465,80
114,WS_RECV_START,1516218475465,81
114,WS_RECV_END,1516218475727,81
114,PLAYER_SLEEPBEFORE_START,1516218475727,82
114,PLAYER_SLEEPBEFORE_END,1516218476829,82
114,WS_SEND_START,1516218476829,82
114,WS_SEND_END,1516218476829,82
114,WS_RECV_START,1516218476829,83
114,WS_RECV_END,1516218477154,83
114,PLAYER_SLEEPBEFORE_START,1516218477154,84
114,PLAYER_SLEEPBEFORE_END,1516218478101,84
114,WS_SEND_START,1516218478101,84
114,WS_SEND_END,1516218478101,84
114,WS_RECV_START,1516218478101,85
114,WS_RECV_END,1516218478148,85
114,PLAYER_SLEEPBEFORE_START,1516218478148,86
114,PLAYER_SLEEPBEFORE_END,1516218482321,86
114,WS_SEND_START,1516218482321,86
114,WS_SEND_END,1516218482321,86
114,WS_RECV_START,1516218482321,87
114,WS_RECV_END,1516218482462,87
114,PLAYER_SLEEPBEFORE_START,1516218482462,88
114,PLAYER_SLEEPBEFORE_END,1516218482470,88
114,WS_SEND_START,1516218482470,88
114,WS_SEND_END,1516218482470,88
114,WS_RECV_START,1516218482470,89
114,WS_RECV_END,1516218482590,89
114,PLAYER_SLEEPBEFORE_START,1516218482590,90
114,PLAYER_SLEEPBEFORE_END,1516218509787,90
114,REQ_START,1516218509787,90
114,REQ_END,1516218509795,90
114,PLAYER_SLEEPBEFORE_START,1516218509795,91
114,PLAYER_SLEEPBEFORE_END,1516218517685,91
114,WS_SEND_START,1516218517685,91
114,WS_SEND_END,1516218517685,91
114,WS_RECV_START,1516218517685,92
114,WS_RECV_END,1516218518191,92
114,PLAYER_SLEEPBEFORE_START,1516218518191,93
114,PLAYER_SLEEPBEFORE_END,1516218518206,93
114,WS_SEND_START,1516218518206,93
114,WS_SEND_END,1516218518206,93
114,WS_RECV_START,1516218518206,94
114,WS_RECV_END,1516218518585,94
114,PLAYER_SLEEPBEFORE_START,1516218518585,95
114,PLAYER_SLEEPBEFORE_END,1516218542140,95
114,WS_SEND_START,1516218542140,95
114,WS_SEND_END,1516218542140,95
114,WS_RECV_START,1516218542140,96
114,WS_RECV_END,1516218542687,96
114,PLAYER_SLEEPBEFORE_START,1516218542687,97
114,PLAYER_SLEEPBEFORE_END,1516218565127,97
114,WS_SEND_START,1516218565127,97
114,WS_SEND_END,1516218565127,97
114,WS_RECV_START,1516218565127,98
114,WS_RECV_END,1516218565360,98
114,PLAYER_SLEEPBEFORE_START,1516218565360,99
114,PLAYER_SLEEPBEFORE_END,1516218565381,99
114,WS_SEND_START,1516218565381,99
114,WS_SEND_END,1516218565382,99
114,WS_RECV_START,1516218565382,100
114,WS_RECV_END,1516218565517,100
114,PLAYER_SLEEPBEFORE_START,1516218565517,101
114,PLAYER_SLEEPBEFORE_END,1516218589076,101
114,WS_SEND_START,1516218589076,101
114,WS_SEND_END,1516218589076,101
114,WS_RECV_START,1516218589076,102
114,WS_RECV_END,1516218589404,102
114,PLAYER_SLEEPBEFORE_START,1516218589404,103
114,PLAYER_SLEEPBEFORE_END,1516218613029,103
114,WS_SEND_START,1516218613029,103
114,WS_SEND_END,1516218613029,103
114,WS_RECV_START,1516218613029,104
114,WS_RECV_END,1516218613434,104
114,PLAYER_SLEEPBEFORE_START,1516218613434,105
114,PLAYER_SLEEPBEFORE_END,1516218638811,105
114,WS_SEND_START,1516218638811,105
114,WS_SEND_END,1516218638811,105
114,WS_RECV_START,1516218638811,106
114,WS_RECV_END,1516218639086,106
114,PLAYER_SLEEPBEFORE_START,1516218639086,107
114,PLAYER_SLEEPBEFORE_END,1516218662509,107
114,WS_SEND_START,1516218662509,107
114,WS_SEND_END,1516218662509,107
114,WS_RECV_START,1516218662509,108
114,WS_RECV_END,1516218662663,108
114,PLAYER_SLEEPBEFORE_START,1516218662663,109
114,PLAYER_SLEEPBEFORE_END,1516218662672,109
114,WS_SEND_START,1516218662672,109
114,WS_SEND_END,1516218662672,109
114,WS_RECV_START,1516218662672,110
114,WS_RECV_END,1516218662716,110
114,PLAYER_SLEEPBEFORE_START,1516218662716,111
114,PLAYER_SLEEPBEFORE_END,1516218663675,111
114,WS_SEND_START,1516218663675,111
114,WS_SEND_END,1516218663675,111
114,WS_RECV_START,1516218663675,112
114,WS_RECV_END,1516218663705,112
114,PLAYER_SLEEPBEFORE_START,1516218663705,113
114,PLAYER_SLEEPBEFORE_END,1516218664267,113
114,WS_SEND_START,1516218664267,113
114,WS_SEND_END,1516218664267,113
114,WS_RECV_START,1516218664267,114
114,WS_RECV_END,1516218664403,114
114,PLAYER_SLEEPBEFORE_START,1516218664403,115
114,PLAYER_SLEEPBEFORE_END,1516218664412,115
114,WS_SEND_START,1516218664412,115
114,WS_SEND_END,1516218664412,115
114,WS_RECV_START,1516218664413,116
114,WS_RECV_END,1516218664550,116
114,PLAYER_SLEEPBEFORE_START,1516218664550,117
114,PLAYER_SLEEPBEFORE_END,1516218684910,117
114,WS_SEND_START,1516218684910,117
114,WS_SEND_END,1516218684910,117
114,PLAYER_SLEEPBEFORE_START,1516218684910,118
114,PLAYER_SLEEPBEFORE_END,1516218688662,118
114,WS_SEND_START,1516218688662,118
114,WS_SEND_END,1516218688662,118
114,WS_RECV_START,1516218688662,119
114,WS_RECV_END,1516218688911,119
114,PLAYER_SLEEPBEFORE_START,1516218688911,120
114,PLAYER_SLEEPBEFORE_END,1516218689899,120
114,WS_SEND_START,1516218689899,120
114,WS_SEND_END,1516218689899,120
114,WS_RECV_START,1516218689899,121
114,WS_RECV_END,1516218690009,121
114,PLAYER_SLEEPBEFORE_START,1516218690009,122
114,PLAYER_SLEEPBEFORE_END,1516218691194,122
114,WS_SEND_START,1516218691194,122
114,WS_SEND_END,1516218691194,122
114,WS_RECV_START,1516218691194,123
114,WS_RECV_END,1516218691521,123
114,PLAYER_SLEEPBEFORE_START,1516218691521,124
114,PLAYER_SLEEPBEFORE_END,1516218715926,124
114,WS_SEND_START,1516218715926,124
114,WS_SEND_END,1516218715926,124
114,WS_RECV_START,1516218715926,125
114,WS_RECV_END,1516218716049,125
114,PLAYER_SLEEPBEFORE_START,1516218716049,126
114,PLAYER_SLEEPBEFORE_END,1516218736562,126
114,WS_SEND_START,1516218736562,126
114,WS_SEND_END,1516218736562,126
114,PLAYER_SLEEPBEFORE_START,1516218736562,127
114,PLAYER_SLEEPBEFORE_END,1516218739616,127
114,WS_SEND_START,1516218739616,127
114,WS_SEND_END,1516218739616,127
114,WS_RECV_START,1516218739616,128
114,WS_RECV_END,1516218739719,128
114,PLAYER_SLEEPBEFORE_START,1516218739719,129
114,PLAYER_SLEEPBEFORE_END,1516218739739,129
114,WS_SEND_START,1516218739739,129
114,WS_SEND_END,1516218739739,129
114,WS_RECV_START,1516218739739,130
114,WS_RECV_END,1516218740005,130
114,PLAYER_SLEEPBEFORE_START,1516218740005,131
114,PLAYER_SLEEPBEFORE_END,1516218761629,131
114,WS_SEND_START,1516218761629,131
114,WS_SEND_END,1516218761629,131
114,PLAYER_SLEEPBEFORE_START,1516218761629,132
114,PLAYER_SLEEPBEFORE_END,1516218764709,132
114,WS_SEND_START,1516218764709,132
114,WS_SEND_END,1516218764709,132
114,WS_RECV_START,1516218764709,133
114,WS_RECV_END,1516218766819,133
114,PLAYER_SLEEPBEFORE_START,1516218766819,134
114,PLAYER_SLEEPBEFORE_END,1516218788036,134
114,WS_SEND_START,1516218788036,134
114,WS_SEND_END,1516218788036,134
114,PLAYER_SLEEPBEFORE_START,1516218788036,135
114,PLAYER_SLEEPBEFORE_END,1516218791226,135
114,WS_SEND_START,1516218791226,135
114,WS_SEND_END,1516218791226,135
114,WS_RECV_START,1516218791226,136
114,WS_RECV_END,1516218791759,136
114,PLAYER_SLEEPBEFORE_START,1516218791759,137
114,PLAYER_SLEEPBEFORE_END,1516218791766,137
114,WS_SEND_START,1516218791766,137
114,WS_SEND_END,1516218791766,137
114,WS_RECV_START,1516218791766,138
114,WS_RECV_END,1516218791812,138
114,PLAYER_SLEEPBEFORE_START,1516218791812,139
114,PLAYER_SLEEPBEFORE_END,1516218792502,139
114,WS_SEND_START,1516218792502,139
114,WS_SEND_END,1516218792502,139
114,WS_RECV_START,1516218792502,140
114,WS_RECV_END,1516218793077,140
114,PLAYER_SLEEPBEFORE_START,1516218793077,141
114,PLAYER_SLEEPBEFORE_END,1516218793733,141
114,WS_SEND_START,1516218793733,141
114,WS_SEND_END,1516218793733,141
114,WS_RECV_START,1516218793733,142
114,WS_RECV_END,1516218793885,142
114,PLAYER_SLEEPBEFORE_START,1516218793885,143
114,PLAYER_SLEEPBEFORE_END,1516218793942,143
114,WS_SEND_START,1516218793942,143
114,WS_SEND_END,1516218793942,143
114,WS_RECV_START,1516218793942,144
114,WS_RECV_END,1516218794215,144
114,PLAYER_SLEEPBEFORE_START,1516218794215,145
114,PLAYER_SLEEPBEFORE_END,1516218810277,145
114,REQ_START,1516218810277,145
114,REQ_END,1516218810285,145
114,PLAYER_SLEEPBEFORE_START,1516218810285,146
114,PLAYER_SLEEPBEFORE_END,1516218819163,146
114,WS_SEND_START,1516218819163,146
114,WS_SEND_END,1516218819163,146
114,WS_RECV_START,1516218819163,147
114,WS_RECV_END,1516218819980,147
114,PLAYER_SLEEPBEFORE_START,1516218819980,148
114,PLAYER_SLEEPBEFORE_END,1516218841902,148
114,WS_SEND_START,1516218841902,148
114,WS_SEND_END,1516218841902,148
114,PLAYER_SLEEPBEFORE_START,1516218841902,149
114,PLAYER_SLEEPBEFORE_END,1516218844331,149
114,WS_SEND_START,1516218844331,149
114,WS_SEND_END,1516218844331,149
114,WS_RECV_START,1516218844331,150
114,WS_RECV_END,1516218844549,150
114,PLAYER_SLEEPBEFORE_START,1516218844549,151
114,PLAYER_SLEEPBEFORE_END,1516218844760,151
114,WS_SEND_START,1516218844760,151
114,WS_SEND_END,1516218844760,151
114,WS_RECV_START,1516218844760,152
114,WS_RECV_END,1516218844876,152
114,PLAYER_SLEEPBEFORE_START,1516218844876,153
114,PLAYER_SLEEPBEFORE_END,1516218868803,153
114,WS_SEND_START,1516218868803,153
114,WS_SEND_END,1516218868803,153
114,WS_RECV_START,1516218868803,154
114,WS_RECV_END,1516218868930,154
114,PLAYER_SLEEPBEFORE_START,1516218868930,155
114,PLAYER_SLEEPBEFORE_END,1516218891488,155
114,WS_SEND_START,1516218891488,155
114,WS_SEND_END,1516218891488,155
114,PLAYER_SLEEPBEFORE_START,1516218891488,156
114,PLAYER_SLEEPBEFORE_END,1516218894762,156
114,WS_SEND_START,1516218894762,156
114,WS_SEND_END,1516218894762,156
114,WS_RECV_START,1516218894762,157
114,WS_RECV_END,1516218894797,157
114,PLAYER_SLEEPBEFORE_START,1516218894797,158
114,PLAYER_SLEEPBEFORE_END,1516218894807,158
114,WS_SEND_START,1516218894807,158
114,WS_SEND_END,1516218894807,158
114,WS_RECV_START,1516218894807,159
114,WS_RECV_END,1516218894852,159
114,PLAYER_SLEEPBEFORE_START,1516218894852,160
114,PLAYER_SLEEPBEFORE_END,1516218895027,160
114,WS_SEND_START,1516218895027,160
114,WS_SEND_END,1516218895027,160
114,WS_RECV_START,1516218895027,161
114,WS_RECV_END,1516218895342,161
114,PLAYER_SLEEPBEFORE_START,1516218895342,162
114,PLAYER_SLEEPBEFORE_END,1516218895367,162
114,WS_SEND_START,1516218895367,162
114,WS_SEND_END,1516218895367,162
114,WS_RECV_START,1516218895367,163
114,WS_RECV_END,1516218895589,163
114,PLAYER_SLEEPBEFORE_START,1516218895589,164
114,PLAYER_SLEEPBEFORE_END,1516218916401,164
114,WS_SEND_START,1516218916401,164
114,WS_SEND_END,1516218916401,164
114,WS_RECV_START,1516218916401,165
114,WS_RECV_END,1516218916526,165
114,PLAYER_SLEEPBEFORE_START,1516218916526,166
114,PLAYER_SLEEPBEFORE_END,1516218938981,166
114,WS_SEND_START,1516218938981,166
114,WS_SEND_END,1516218938981,166
114,WS_RECV_START,1516218938981,167
114,WS_RECV_END,1516218939599,167
114,PLAYER_SLEEPBEFORE_START,1516218939599,168
114,PLAYER_SLEEPBEFORE_END,1516218966956,168
114,WS_SEND_START,1516218966956,168
114,WS_SEND_END,1516218966956,168
114,WS_RECV_START,1516218966956,169
114,WS_RECV_END,1516218966994,169
114,PLAYER_SLEEPBEFORE_START,1516218966994,170
114,PLAYER_SLEEPBEFORE_END,1516218967003,170
114,WS_SEND_START,1516218967003,170
114,WS_SEND_END,1516218967003,170
114,WS_RECV_START,1516218967003,171
114,WS_RECV_END,1516218967067,171
114,PLAYER_SLEEPBEFORE_START,1516218967067,172
114,PLAYER_SLEEPBEFORE_END,1516218967437,172
114,WS_SEND_START,1516218967437,172
114,WS_SEND_END,1516218967437,172
114,WS_RECV_START,1516218967437,173
114,WS_RECV_END,1516218967569,173
114,PLAYER_SLEEPBEFORE_START,1516218967569,174
114,PLAYER_SLEEPBEFORE_END,1516218967610,174
114,WS_SEND_START,1516218967610,174
114,WS_SEND_END,1516218967610,174
114,WS_RECV_START,1516218967610,175
114,WS_RECV_END,1516218967832,175
114,PLAYER_SLEEPBEFORE_START,1516218967832,176
114,PLAYER_SLEEPBEFORE_END,1516218989593,176
114,WS_SEND_START,1516218989593,176
114,WS_SEND_END,1516218989593,176
114,PLAYER_SLEEPBEFORE_START,1516218989593,177
114,PLAYER_SLEEPBEFORE_END,1516218992111,177
114,WS_SEND_START,1516218992111,177
114,WS_SEND_END,1516218992111,177
114,WS_RECV_START,1516218992111,178
114,WS_RECV_END,1516218993745,178
114,PLAYER_SLEEPBEFORE_START,1516218993745,179
114,PLAYER_SLEEPBEFORE_END,1516219016085,179
114,WS_SEND_START,1516219016085,179
114,WS_SEND_END,1516219016085,179
114,WS_RECV_START,1516219016085,180
114,WS_RECV_END,1516219019455,180
114,PLAYER_SLEEPBEFORE_START,1516219019455,181
114,PLAYER_SLEEPBEFORE_END,1516219019899,181
114,WS_SEND_START,1516219019899,181
114,WS_SEND_END,1516219019899,181
114,WS_RECV_START,1516219019899,182
114,WS_RECV_END,1516219021119,182
114,PLAYER_SLEEPBEFORE_START,1516219021119,183
114,PLAYER_SLEEPBEFORE_END,1516219021642,183
114,WS_SEND_START,1516219021642,183
114,WS_SEND_END,1516219021642,183
114,WS_RECV_START,1516219021642,184
114,WS_RECV_END,1516219023359,184
114,PLAYER_SLEEPBEFORE_START,1516219023359,185
114,PLAYER_SLEEPBEFORE_END,1516219023627,185
114,WS_SEND_START,1516219023627,185
114,WS_SEND_END,1516219023627,185
114,WS_RECV_START,1516219023627,186
114,WS_RECV_END,1516219026077,186
114,PLAYER_SLEEPBEFORE_START,1516219026077,187
114,PLAYER_SLEEPBEFORE_END,1516219048577,187
114,WS_SEND_START,1516219048577,187
114,WS_SEND_END,1516219048577,187
114,WS_RECV_START,1516219048577,188
114,WS_RECV_END,1516219053275,188
114,PLAYER_SLEEPBEFORE_START,1516219053275,189
114,PLAYER_SLEEPBEFORE_END,1516219059514,189
114,WS_SEND_START,1516219059514,189
114,WS_SEND_END,1516219059514,189
114,WS_RECV_START,1516219059514,190
114,WS_RECV_END,1516219064411,190
114,PLAYER_SLEEPBEFORE_START,1516219064411,191
114,PLAYER_SLEEPBEFORE_END,1516219066327,191
114,WS_SEND_START,1516219066327,191
114,WS_SEND_END,1516219066327,191
114,WS_RECV_START,1516219066327,192
114,WS_RECV_END,1516219071016,192
114,PLAYER_SLEEPBEFORE_START,1516219071016,193
114,PLAYER_SLEEPBEFORE_END,1516219071144,193
114,WS_SEND_START,1516219071144,193
114,WS_SEND_END,1516219071144,193
114,WS_RECV_START,1516219071144,194
114,WS_RECV_END,1516219073032,194
114,PLAYER_SLEEPBEFORE_START,1516219073032,195
114,PLAYER_SLEEPBEFORE_END,1516219074787,195
114,WS_SEND_START,1516219074787,195
114,WS_SEND_END,1516219074787,195
114,WS_RECV_START,1516219074787,196
114,WS_RECV_END,1516219077451,196
114,PLAYER_SLEEPBEFORE_START,1516219077451,197
114,PLAYER_SLEEPBEFORE_END,1516219079255,197
114,WS_SEND_START,1516219079255,197
114,WS_SEND_END,1516219079255,197
114,WS_RECV_START,1516219079255,198
114,WS_RECV_END,1516219083169,198
114,PLAYER_SLEEPBEFORE_START,1516219083169,199
114,PLAYER_SLEEPBEFORE_END,1516219095024,199
114,WS_SEND_START,1516219095024,199
114,WS_SEND_END,1516219095024,199
114,PLAYER_SLEEPBEFORE_START,1516219095024,200
114,PLAYER_SLEEPBEFORE_END,1516219099112,200
114,WS_SEND_START,1516219099112,200
114,WS_SEND_END,1516219099112,200
114,WS_RECV_START,1516219099112,201
114,WS_RECV_END,1516219101196,201
114,PLAYER_SLEEPBEFORE_START,1516219101197,202
114,PLAYER_SLEEPBEFORE_END,1516219101211,202
114,WS_SEND_START,1516219101211,202
114,WS_SEND_END,1516219101211,202
114,WS_RECV_START,1516219101211,203
114,WS_RECV_END,1516219103491,203
114,PLAYER_SLEEPBEFORE_START,1516219103491,204
114,PLAYER_SLEEPBEFORE_END,1516219123141,204
114,WS_SEND_START,1516219123141,204
114,WS_SEND_END,1516219123141,204
114,PLAYER_SLEEPBEFORE_START,1516219123141,205
114,PLAYER_SLEEPBEFORE_END,1516219127039,205
114,WS_SEND_START,1516219127039,205
114,WS_SEND_END,1516219127039,205
114,WS_RECV_START,1516219127039,206
114,WS_RECV_END,1516219128915,206
114,PLAYER_SLEEPBEFORE_START,1516219128916,207
114,PLAYER_SLEEPBEFORE_END,1516219145847,207
114,REQ_START,1516219145847,207
114,REQ_END,1516219145857,207
114,PLAYER_SLEEPBEFORE_START,1516219145857,208
114,PLAYER_SLEEPBEFORE_END,1516219152710,208
114,WS_CLOSE_START,1516219152710,208
114,WS_CLOSE_END,1516219152710,208
114,PLAYER_DONE,1516219152710
