# --sessions 360 --app-url=http://shinyloadtest.rstudioservices.com/cran_explorer --output-dir test360 --overwrite-output --log-level warn --start-interval 500 15min.log
thread_id,event,timestamp,input_line_number,comment
152,PLAYER_SESSION_CREATE,1516218150682
152,PLAYER_START_INTERVAL_START,1516218150682
152,PLAYER_START_INTERVAL_END,1516218226682
152,REQ_HOME_START,1516218226682,2
152,REQ_HOME_END,1516218226836,2
152,REQ_START,1516218226836,3
152,REQ_END,1516218226866,3
152,REQ_START,1516218226866,4
152,REQ_END,1516218226897,4
152,REQ_START,1516218226897,5
152,REQ_END,1516218226928,5
152,REQ_START,1516218226928,6
152,REQ_END,1516218226962,6
152,REQ_START,1516218226962,7
152,REQ_END,1516218226995,7
152,REQ_START,1516218226995,8
152,REQ_END,1516218227030,8
152,REQ_START,1516218227030,9
152,REQ_END,1516218227069,9
152,REQ_START,1516218227069,10
152,REQ_END,1516218227076,10
152,REQ_START,1516218227076,11
152,REQ_END,1516218227107,11
152,REQ_START,1516218227107,12
152,REQ_END,1516218227116,12
152,REQ_START,1516218227116,13
152,REQ_END,1516218227152,13
152,REQ_START,1516218227152,14
152,REQ_END,1516218227166,14
152,REQ_START,1516218227166,15
152,REQ_END,1516218227198,15
152,REQ_TOK_START,1516218227198,16
152,REQ_TOK_END,1516218227205,16
152,REQ_SINF_START,1516218227205,17
152,REQ_SINF_END,1516218227212,17
152,WS_OPEN_START,1516218227212,18
152,WS_OPEN_END,1516218227218,18
152,REQ_START,1516218227218,19
152,REQ_END,1516218227245,19
152,WS_RECV_START,1516218227245,20
152,WS_RECV_END,1516218227245,20
152,PLAYER_SLEEPBEFORE_START,1516218227245,21
152,PLAYER_SLEEPBEFORE_END,1516218227250,21
152,WS_SEND_START,1516218227250,21
152,WS_SEND_END,1516218227250,21
152,PLAYER_SLEEPBEFORE_START,1516218227250,22
152,PLAYER_SLEEPBEFORE_END,1516218227251,22
152,WS_SEND_START,1516218227251,22
152,WS_SEND_END,1516218227252,22
152,WS_RECV_INIT_START,1516218227252,23
152,WS_RECV_INIT_END,1516218227274,23
152,WS_RECV_START,1516218227274,24
152,WS_RECV_END,1516218227346,24
152,PLAYER_SLEEPBEFORE_START,1516218227346,25
152,PLAYER_SLEEPBEFORE_END,1516218227353,25
152,REQ_START,1516218227353,25
152,REQ_END,1516218227384,25
152,PLAYER_SLEEPBEFORE_START,1516218227384,26
152,PLAYER_SLEEPBEFORE_END,1516218227386,26
152,REQ_START,1516218227386,26
152,REQ_END,1516218227477,26
152,PLAYER_SLEEPBEFORE_START,1516218227477,27
152,PLAYER_SLEEPBEFORE_END,1516218227480,27
152,REQ_START,1516218227480,27
152,REQ_END,1516218227513,27
152,PLAYER_SLEEPBEFORE_START,1516218227513,28
152,PLAYER_SLEEPBEFORE_END,1516218227798,28
152,REQ_START,1516218227798,28
152,REQ_END,1516218227902,28
152,PLAYER_SLEEPBEFORE_START,1516218227902,29
152,PLAYER_SLEEPBEFORE_END,1516218228077,29
152,WS_SEND_START,1516218228077,29
152,WS_SEND_END,1516218228077,29
152,WS_RECV_START,1516218228077,30
152,WS_RECV_END,1516218228288,30
152,PLAYER_SLEEPBEFORE_START,1516218228288,31
152,PLAYER_SLEEPBEFORE_END,1516218228299,31
152,REQ_START,1516218228299,31
152,REQ_END,1516218228332,31
152,PLAYER_SLEEPBEFORE_START,1516218228332,32
152,PLAYER_SLEEPBEFORE_END,1516218256477,32
152,WS_SEND_START,1516218256477,32
152,WS_SEND_END,1516218256477,32
152,WS_RECV_START,1516218256477,33
152,WS_RECV_END,1516218256711,33
152,PLAYER_SLEEPBEFORE_START,1516218256711,34
152,PLAYER_SLEEPBEFORE_END,1516218282623,34
152,WS_SEND_START,1516218282623,34
152,WS_SEND_END,1516218282623,34
152,WS_RECV_START,1516218282623,35
152,WS_RECV_END,1516218283029,35
152,PLAYER_SLEEPBEFORE_START,1516218283029,36
152,PLAYER_SLEEPBEFORE_END,1516218283038,36
152,WS_SEND_START,1516218283038,36
152,WS_SEND_END,1516218283038,36
152,WS_RECV_START,1516218283038,37
152,WS_RECV_END,1516218283121,37
152,PLAYER_SLEEPBEFORE_START,1516218283121,38
152,PLAYER_SLEEPBEFORE_END,1516218286316,38
152,WS_SEND_START,1516218286316,38
152,WS_SEND_END,1516218286316,38
152,WS_RECV_START,1516218286316,39
152,WS_RECV_END,1516218286582,39
152,PLAYER_SLEEPBEFORE_START,1516218286582,40
152,PLAYER_SLEEPBEFORE_END,1516218286628,40
152,WS_SEND_START,1516218286628,40
152,WS_SEND_END,1516218286628,40
152,WS_RECV_START,1516218286628,41
152,WS_RECV_END,1516218286920,41
152,PLAYER_SLEEPBEFORE_START,1516218286920,42
152,PLAYER_SLEEPBEFORE_END,1516218305055,42
152,WS_SEND_START,1516218305055,42
152,WS_SEND_END,1516218305055,42
152,WS_RECV_START,1516218305055,43
152,WS_RECV_END,1516218305226,43
152,PLAYER_SLEEPBEFORE_START,1516218305226,44
152,PLAYER_SLEEPBEFORE_END,1516218305238,44
152,WS_SEND_START,1516218305238,44
152,WS_SEND_END,1516218305238,44
152,WS_RECV_START,1516218305239,45
152,WS_RECV_END,1516218305325,45
152,PLAYER_SLEEPBEFORE_START,1516218305325,46
152,PLAYER_SLEEPBEFORE_END,1516218306585,46
152,WS_SEND_START,1516218306585,46
152,WS_SEND_END,1516218306585,46
152,WS_RECV_START,1516218306585,47
152,WS_RECV_END,1516218307183,47
152,PLAYER_SLEEPBEFORE_START,1516218307183,48
152,PLAYER_SLEEPBEFORE_END,1516218308503,48
152,WS_SEND_START,1516218308503,48
152,WS_SEND_END,1516218308503,48
152,WS_RECV_START,1516218308503,49
152,WS_RECV_END,1516218308810,49
152,PLAYER_SLEEPBEFORE_START,1516218308810,50
152,PLAYER_SLEEPBEFORE_END,1516218308834,50
152,WS_SEND_START,1516218308834,50
152,WS_SEND_END,1516218308834,50
152,WS_RECV_START,1516218308834,51
152,WS_RECV_END,1516218309278,51
152,PLAYER_SLEEPBEFORE_START,1516218309278,52
152,PLAYER_SLEEPBEFORE_END,1516218331842,52
152,WS_SEND_START,1516218331842,52
152,WS_SEND_END,1516218331843,52
152,WS_RECV_START,1516218331843,53
152,WS_RECV_END,1516218332443,53
152,PLAYER_SLEEPBEFORE_START,1516218332443,54
152,PLAYER_SLEEPBEFORE_END,1516218353746,54
152,WS_SEND_START,1516218353746,54
152,WS_SEND_END,1516218353746,54
152,PLAYER_SLEEPBEFORE_START,1516218353746,55
152,PLAYER_SLEEPBEFORE_END,1516218355688,55
152,WS_SEND_START,1516218355688,55
152,WS_SEND_END,1516218355688,55
152,WS_RECV_START,1516218355688,56
152,WS_RECV_END,1516218355846,56
152,PLAYER_SLEEPBEFORE_START,1516218355846,57
152,PLAYER_SLEEPBEFORE_END,1516218378718,57
152,WS_SEND_START,1516218378718,57
152,WS_SEND_END,1516218378718,57
152,WS_RECV_START,1516218378718,58
152,WS_RECV_END,1516218379106,58
152,PLAYER_SLEEPBEFORE_START,1516218379106,59
152,PLAYER_SLEEPBEFORE_END,1516218381433,59
152,WS_SEND_START,1516218381433,59
152,WS_SEND_END,1516218381433,59
152,WS_RECV_START,1516218381433,60
152,WS_RECV_END,1516218381776,60
152,PLAYER_SLEEPBEFORE_START,1516218381776,61
152,PLAYER_SLEEPBEFORE_END,1516218385367,61
152,WS_SEND_START,1516218385367,61
152,WS_SEND_END,1516218385367,61
152,WS_RECV_START,1516218385367,62
152,WS_RECV_END,1516218385801,62
152,PLAYER_SLEEPBEFORE_START,1516218385801,63
152,PLAYER_SLEEPBEFORE_END,1516218405064,63
152,WS_SEND_START,1516218405064,63
152,WS_SEND_END,1516218405064,63
152,WS_RECV_START,1516218405064,64
152,WS_RECV_END,1516218405597,64
152,PLAYER_SLEEPBEFORE_START,1516218405597,65
152,PLAYER_SLEEPBEFORE_END,1516218432415,65
152,WS_SEND_START,1516218432415,65
152,WS_SEND_END,1516218432415,65
152,WS_RECV_START,1516218432415,66
152,WS_RECV_END,1516218433311,66
152,PLAYER_SLEEPBEFORE_START,1516218433311,67
152,PLAYER_SLEEPBEFORE_END,1516218434818,67
152,WS_SEND_START,1516218434818,67
152,WS_SEND_END,1516218434818,67
152,WS_RECV_START,1516218434818,68
152,WS_RECV_END,1516218436621,68
152,PLAYER_SLEEPBEFORE_START,1516218436621,69
152,PLAYER_SLEEPBEFORE_END,1516218458619,69
152,WS_SEND_START,1516218458619,69
152,WS_SEND_END,1516218458619,69
152,WS_RECV_START,1516218458619,70
152,WS_RECV_END,1516218459032,70
152,PLAYER_SLEEPBEFORE_START,1516218459032,71
152,PLAYER_SLEEPBEFORE_END,1516218483807,71
152,WS_SEND_START,1516218483807,71
152,WS_SEND_END,1516218483807,71
152,PLAYER_SLEEPBEFORE_START,1516218483807,72
152,PLAYER_SLEEPBEFORE_END,1516218486414,72
152,WS_SEND_START,1516218486414,72
152,WS_SEND_END,1516218486414,72
152,WS_RECV_START,1516218486414,73
152,WS_RECV_END,1516218487504,73
152,PLAYER_SLEEPBEFORE_START,1516218487504,74
152,PLAYER_SLEEPBEFORE_END,1516218487513,74
152,WS_SEND_START,1516218487513,74
152,WS_SEND_END,1516218487514,74
152,WS_RECV_START,1516218487514,75
152,WS_RECV_END,1516218487781,75
152,PLAYER_SLEEPBEFORE_START,1516218487781,76
152,PLAYER_SLEEPBEFORE_END,1516218489288,76
152,WS_SEND_START,1516218489288,76
152,WS_SEND_END,1516218489288,76
152,WS_RECV_START,1516218489288,77
152,WS_RECV_END,1516218489739,77
152,PLAYER_SLEEPBEFORE_START,1516218489739,78
152,PLAYER_SLEEPBEFORE_END,1516218490607,78
152,WS_SEND_START,1516218490607,78
152,WS_SEND_END,1516218490607,78
152,WS_RECV_START,1516218490607,79
152,WS_RECV_END,1516218490651,79
152,PLAYER_SLEEPBEFORE_START,1516218490651,80
152,PLAYER_SLEEPBEFORE_END,1516218498317,80
152,WS_SEND_START,1516218498317,80
152,WS_SEND_END,1516218498317,80
152,WS_RECV_START,1516218498317,81
152,WS_RECV_END,1516218498726,81
152,PLAYER_SLEEPBEFORE_START,1516218498726,82
152,PLAYER_SLEEPBEFORE_END,1516218499828,82
152,WS_SEND_START,1516218499828,82
152,WS_SEND_END,1516218499828,82
152,WS_RECV_START,1516218499828,83
152,WS_RECV_END,1516218500704,83
152,PLAYER_SLEEPBEFORE_START,1516218500704,84
152,PLAYER_SLEEPBEFORE_END,1516218501651,84
152,WS_SEND_START,1516218501651,84
152,WS_SEND_END,1516218501651,84
152,WS_RECV_START,1516218501651,85
152,WS_RECV_END,1516218501924,85
152,PLAYER_SLEEPBEFORE_START,1516218501924,86
152,PLAYER_SLEEPBEFORE_END,1516218506096,86
152,WS_SEND_START,1516218506096,86
152,WS_SEND_END,1516218506096,86
152,WS_RECV_START,1516218506097,87
152,WS_RECV_END,1516218506463,87
152,PLAYER_SLEEPBEFORE_START,1516218506463,88
152,PLAYER_SLEEPBEFORE_END,1516218506472,88
152,WS_SEND_START,1516218506472,88
152,WS_SEND_END,1516218506472,88
152,WS_RECV_START,1516218506472,89
152,WS_RECV_END,1516218506605,89
152,PLAYER_SLEEPBEFORE_START,1516218506605,90
152,PLAYER_SLEEPBEFORE_END,1516218533802,90
152,REQ_START,1516218533802,90
152,REQ_END,1516218533810,90
152,PLAYER_SLEEPBEFORE_START,1516218533810,91
152,PLAYER_SLEEPBEFORE_END,1516218541700,91
152,WS_SEND_START,1516218541700,91
152,WS_SEND_END,1516218541700,91
152,WS_RECV_START,1516218541700,92
152,WS_RECV_END,1516218542978,92
152,PLAYER_SLEEPBEFORE_START,1516218542978,93
152,PLAYER_SLEEPBEFORE_END,1516218542993,93
152,WS_SEND_START,1516218542993,93
152,WS_SEND_END,1516218542993,93
152,WS_RECV_START,1516218542993,94
152,WS_RECV_END,1516218543583,94
152,PLAYER_SLEEPBEFORE_START,1516218543583,95
152,PLAYER_SLEEPBEFORE_END,1516218567138,95
152,WS_SEND_START,1516218567138,95
152,WS_SEND_END,1516218567138,95
152,WS_RECV_START,1516218567138,96
152,WS_RECV_END,1516218567765,96
152,PLAYER_SLEEPBEFORE_START,1516218567765,97
152,PLAYER_SLEEPBEFORE_END,1516218590206,97
152,WS_SEND_START,1516218590206,97
152,WS_SEND_END,1516218590206,97
152,WS_RECV_START,1516218590206,98
152,WS_RECV_END,1516218590436,98
152,PLAYER_SLEEPBEFORE_START,1516218590436,99
152,PLAYER_SLEEPBEFORE_END,1516218590457,99
152,WS_SEND_START,1516218590457,99
152,WS_SEND_END,1516218590457,99
152,WS_RECV_START,1516218590457,100
152,WS_RECV_END,1516218590751,100
152,PLAYER_SLEEPBEFORE_START,1516218590751,101
152,PLAYER_SLEEPBEFORE_END,1516218614310,101
152,WS_SEND_START,1516218614311,101
152,WS_SEND_END,1516218614311,101
152,WS_RECV_START,1516218614311,102
152,WS_RECV_END,1516218614522,102
152,PLAYER_SLEEPBEFORE_START,1516218614522,103
152,PLAYER_SLEEPBEFORE_END,1516218638147,103
152,WS_SEND_START,1516218638147,103
152,WS_SEND_END,1516218638147,103
152,WS_RECV_START,1516218638147,104
152,WS_RECV_END,1516218638542,104
152,PLAYER_SLEEPBEFORE_START,1516218638542,105
152,PLAYER_SLEEPBEFORE_END,1516218663919,105
152,WS_SEND_START,1516218663919,105
152,WS_SEND_END,1516218663919,105
152,WS_RECV_START,1516218663919,106
152,WS_RECV_END,1516218666451,106
152,PLAYER_SLEEPBEFORE_START,1516218666451,107
152,PLAYER_SLEEPBEFORE_END,1516218689874,107
152,WS_SEND_START,1516218689874,107
152,WS_SEND_END,1516218689874,107
152,WS_RECV_START,1516218689874,108
152,WS_RECV_END,1516218690862,108
152,PLAYER_SLEEPBEFORE_START,1516218690862,109
152,PLAYER_SLEEPBEFORE_END,1516218690871,109
152,WS_SEND_START,1516218690871,109
152,WS_SEND_END,1516218690871,109
152,WS_RECV_START,1516218690871,110
152,WS_RECV_END,1516218691340,110
152,PLAYER_SLEEPBEFORE_START,1516218691340,111
152,PLAYER_SLEEPBEFORE_END,1516218692299,111
152,WS_SEND_START,1516218692299,111
152,WS_SEND_END,1516218692299,111
152,WS_RECV_START,1516218692299,112
152,WS_RECV_END,1516218692620,112
152,PLAYER_SLEEPBEFORE_START,1516218692620,113
152,PLAYER_SLEEPBEFORE_END,1516218693182,113
152,WS_SEND_START,1516218693182,113
152,WS_SEND_END,1516218693182,113
152,WS_RECV_START,1516218693182,114
152,WS_RECV_END,1516218693917,114
152,PLAYER_SLEEPBEFORE_START,1516218693917,115
152,PLAYER_SLEEPBEFORE_END,1516218693927,115
152,WS_SEND_START,1516218693927,115
152,WS_SEND_END,1516218693927,115
152,WS_RECV_START,1516218693927,116
152,WS_RECV_END,1516218694433,116
152,PLAYER_SLEEPBEFORE_START,1516218694433,117
152,PLAYER_SLEEPBEFORE_END,1516218714793,117
152,WS_SEND_START,1516218714793,117
152,WS_SEND_END,1516218714793,117
152,PLAYER_SLEEPBEFORE_START,1516218714793,118
152,PLAYER_SLEEPBEFORE_END,1516218718545,118
152,WS_SEND_START,1516218718545,118
152,WS_SEND_END,1516218718545,118
152,WS_RECV_START,1516218718545,119
152,WS_RECV_END,1516218721232,119
152,PLAYER_SLEEPBEFORE_START,1516218721232,120
152,PLAYER_SLEEPBEFORE_END,1516218722220,120
152,WS_SEND_START,1516218722221,120
152,WS_SEND_END,1516218722221,120
152,WS_RECV_START,1516218722221,121
152,WS_RECV_END,1516218724733,121
152,PLAYER_SLEEPBEFORE_START,1516218724733,122
152,PLAYER_SLEEPBEFORE_END,1516218725918,122
152,WS_SEND_START,1516218725918,122
152,WS_SEND_END,1516218725918,122
152,WS_RECV_START,1516218725918,123
152,WS_RECV_END,1516218728521,123
152,PLAYER_SLEEPBEFORE_START,1516218728521,124
152,PLAYER_SLEEPBEFORE_END,1516218752926,124
152,WS_SEND_START,1516218752926,124
152,WS_SEND_END,1516218752926,124
152,WS_RECV_START,1516218752926,125
152,WS_RECV_END,1516218753916,125
152,PLAYER_SLEEPBEFORE_START,1516218753916,126
152,PLAYER_SLEEPBEFORE_END,1516218774428,126
152,WS_SEND_START,1516218774428,126
152,WS_SEND_END,1516218774428,126
152,PLAYER_SLEEPBEFORE_START,1516218774428,127
152,PLAYER_SLEEPBEFORE_END,1516218777482,127
152,WS_SEND_START,1516218777482,127
152,WS_SEND_END,1516218777482,127
152,WS_RECV_START,1516218777482,128
152,WS_RECV_END,1516218779562,128
152,PLAYER_SLEEPBEFORE_START,1516218779562,129
152,PLAYER_SLEEPBEFORE_END,1516218779582,129
152,WS_SEND_START,1516218779582,129
152,WS_SEND_END,1516218779582,129
152,WS_RECV_START,1516218779582,130
152,WS_RECV_END,1516218782540,130
152,PLAYER_SLEEPBEFORE_START,1516218782540,131
152,PLAYER_SLEEPBEFORE_END,1516218804164,131
152,WS_SEND_START,1516218804164,131
152,WS_SEND_END,1516218804164,131
152,PLAYER_SLEEPBEFORE_START,1516218804164,132
152,PLAYER_SLEEPBEFORE_END,1516218807245,132
152,WS_SEND_START,1516218807245,132
152,WS_SEND_END,1516218807245,132
152,WS_RECV_START,1516218807245,133
152,WS_RECV_END,1516218808268,133
152,PLAYER_SLEEPBEFORE_START,1516218808268,134
152,PLAYER_SLEEPBEFORE_END,1516218829485,134
152,WS_SEND_START,1516218829485,134
152,WS_SEND_END,1516218829485,134
152,PLAYER_SLEEPBEFORE_START,1516218829485,135
152,PLAYER_SLEEPBEFORE_END,1516218832675,135
152,WS_SEND_START,1516218832675,135
152,WS_SEND_END,1516218832675,135
152,WS_RECV_START,1516218832675,136
152,WS_RECV_END,1516218833552,136
152,PLAYER_SLEEPBEFORE_START,1516218833552,137
152,PLAYER_SLEEPBEFORE_END,1516218833560,137
152,WS_SEND_START,1516218833560,137
152,WS_SEND_END,1516218833560,137
152,WS_RECV_START,1516218833560,138
152,WS_RECV_END,1516218834852,138
152,PLAYER_SLEEPBEFORE_START,1516218834852,139
152,PLAYER_SLEEPBEFORE_END,1516218835542,139
152,WS_SEND_START,1516218835542,139
152,WS_SEND_END,1516218835542,139
152,WS_RECV_START,1516218835542,140
152,WS_RECV_END,1516218837689,140
152,PLAYER_SLEEPBEFORE_START,1516218837689,141
152,PLAYER_SLEEPBEFORE_END,1516218838344,141
152,WS_SEND_START,1516218838344,141
152,WS_SEND_END,1516218838344,141
152,WS_RECV_START,1516218838344,142
152,WS_RECV_END,1516218841093,142
152,PLAYER_SLEEPBEFORE_START,1516218841093,143
152,PLAYER_SLEEPBEFORE_END,1516218841150,143
152,WS_SEND_START,1516218841150,143
152,WS_SEND_END,1516218841150,143
152,WS_RECV_START,1516218841150,144
152,WS_RECV_END,1516218843781,144
152,PLAYER_SLEEPBEFORE_START,1516218843781,145
152,PLAYER_SLEEPBEFORE_END,1516218859843,145
152,REQ_START,1516218859844,145
152,REQ_END,1516218859851,145
152,PLAYER_SLEEPBEFORE_START,1516218859851,146
152,PLAYER_SLEEPBEFORE_END,1516218868728,146
152,WS_SEND_START,1516218868728,146
152,WS_SEND_END,1516218868728,146
152,WS_RECV_START,1516218868728,147
152,WS_RECV_END,1516218869938,147
152,PLAYER_SLEEPBEFORE_START,1516218869938,148
152,PLAYER_SLEEPBEFORE_END,1516218891860,148
152,WS_SEND_START,1516218891860,148
152,WS_SEND_END,1516218891860,148
152,PLAYER_SLEEPBEFORE_START,1516218891860,149
152,PLAYER_SLEEPBEFORE_END,1516218894288,149
152,WS_SEND_START,1516218894288,149
152,WS_SEND_END,1516218894288,149
152,WS_RECV_START,1516218894288,150
152,WS_RECV_END,1516218895028,150
152,PLAYER_SLEEPBEFORE_START,1516218895028,151
152,PLAYER_SLEEPBEFORE_END,1516218895238,151
152,WS_SEND_START,1516218895238,151
152,WS_SEND_END,1516218895238,151
152,WS_RECV_START,1516218895238,152
152,WS_RECV_END,1516218895862,152
152,PLAYER_SLEEPBEFORE_START,1516218895862,153
152,PLAYER_SLEEPBEFORE_END,1516218919789,153
152,WS_SEND_START,1516218919789,153
152,WS_SEND_END,1516218919789,153
152,WS_RECV_START,1516218919789,154
152,WS_RECV_END,1516218921416,154
152,PLAYER_SLEEPBEFORE_START,1516218921416,155
152,PLAYER_SLEEPBEFORE_END,1516218943974,155
152,WS_SEND_START,1516218943974,155
152,WS_SEND_END,1516218943975,155
152,PLAYER_SLEEPBEFORE_START,1516218943975,156
152,PLAYER_SLEEPBEFORE_END,1516218947249,156
152,WS_SEND_START,1516218947249,156
152,WS_SEND_END,1516218947249,156
152,WS_RECV_START,1516218947249,157
152,WS_RECV_END,1516218947771,157
152,PLAYER_SLEEPBEFORE_START,1516218947771,158
152,PLAYER_SLEEPBEFORE_END,1516218947782,158
152,WS_SEND_START,1516218947782,158
152,WS_SEND_END,1516218947782,158
152,WS_RECV_START,1516218947782,159
152,WS_RECV_END,1516218948340,159
152,PLAYER_SLEEPBEFORE_START,1516218948340,160
152,PLAYER_SLEEPBEFORE_END,1516218948515,160
152,WS_SEND_START,1516218948515,160
152,WS_SEND_END,1516218948515,160
152,WS_RECV_START,1516218948515,161
152,WS_RECV_END,1516218949296,161
152,PLAYER_SLEEPBEFORE_START,1516218949296,162
152,PLAYER_SLEEPBEFORE_END,1516218949321,162
152,WS_SEND_START,1516218949321,162
152,WS_SEND_END,1516218949321,162
152,WS_RECV_START,1516218949321,163
152,WS_RECV_END,1516218950069,163
152,PLAYER_SLEEPBEFORE_START,1516218950069,164
152,PLAYER_SLEEPBEFORE_END,1516218970881,164
152,WS_SEND_START,1516218970881,164
152,WS_SEND_END,1516218970881,164
152,WS_RECV_START,1516218970881,165
152,WS_RECV_END,1516218972658,165
152,PLAYER_SLEEPBEFORE_START,1516218972658,166
152,PLAYER_SLEEPBEFORE_END,1516218995113,166
152,WS_SEND_START,1516218995113,166
152,WS_SEND_END,1516218995113,166
152,WS_RECV_START,1516218995113,167
152,WS_RECV_END,1516218996254,167
152,PLAYER_SLEEPBEFORE_START,1516218996254,168
152,PLAYER_SLEEPBEFORE_END,1516219023611,168
152,WS_SEND_START,1516219023611,168
152,WS_SEND_END,1516219023611,168
152,WS_RECV_START,1516219023611,169
152,WS_RECV_END,1516219026689,169
152,PLAYER_SLEEPBEFORE_START,1516219026689,170
152,PLAYER_SLEEPBEFORE_END,1516219026698,170
152,WS_SEND_START,1516219026698,170
152,WS_SEND_END,1516219026698,170
152,WS_RECV_START,1516219026698,171
152,WS_RECV_END,1516219027328,171
152,PLAYER_SLEEPBEFORE_START,1516219027328,172
152,PLAYER_SLEEPBEFORE_END,1516219027697,172
152,WS_SEND_START,1516219027697,172
152,WS_SEND_END,1516219027697,172
152,WS_RECV_START,1516219027697,173
152,WS_RECV_END,1516219029353,173
152,PLAYER_SLEEPBEFORE_START,1516219029353,174
152,PLAYER_SLEEPBEFORE_END,1516219029394,174
152,WS_SEND_START,1516219029394,174
152,WS_SEND_END,1516219029394,174
152,WS_RECV_START,1516219029394,175
152,WS_RECV_END,1516219032183,175
152,PLAYER_SLEEPBEFORE_START,1516219032183,176
152,PLAYER_SLEEPBEFORE_END,1516219053945,176
152,WS_SEND_START,1516219053945,176
152,WS_SEND_END,1516219053945,176
152,PLAYER_SLEEPBEFORE_START,1516219053945,177
152,PLAYER_SLEEPBEFORE_END,1516219056463,177
152,WS_SEND_START,1516219056463,177
152,WS_SEND_END,1516219056463,177
152,WS_RECV_START,1516219056463,178
152,WS_RECV_END,1516219060026,178
152,PLAYER_SLEEPBEFORE_START,1516219060026,179
152,PLAYER_SLEEPBEFORE_END,1516219082366,179
152,WS_SEND_START,1516219082366,179
152,WS_SEND_END,1516219082366,179
152,WS_RECV_START,1516219082366,180
152,WS_RECV_END,1516219089782,180
152,PLAYER_SLEEPBEFORE_START,1516219089782,181
152,PLAYER_SLEEPBEFORE_END,1516219090226,181
152,WS_SEND_START,1516219090226,181
152,WS_SEND_END,1516219090226,181
152,WS_RECV_START,1516219090226,182
152,WS_RECV_END,1516219094314,182
152,PLAYER_SLEEPBEFORE_START,1516219094314,183
152,PLAYER_SLEEPBEFORE_END,1516219094837,183
152,WS_SEND_START,1516219094837,183
152,WS_SEND_END,1516219094838,183
152,WS_RECV_START,1516219094838,184
152,WS_RECV_END,1516219100377,184
152,PLAYER_SLEEPBEFORE_START,1516219100377,185
152,PLAYER_SLEEPBEFORE_END,1516219100645,185
152,WS_SEND_START,1516219100645,185
152,WS_SEND_END,1516219100645,185
152,WS_RECV_START,1516219100645,186
152,WS_RECV_END,1516219106985,186
152,PLAYER_SLEEPBEFORE_START,1516219106985,187
152,PLAYER_SLEEPBEFORE_END,1516219129485,187
152,WS_SEND_START,1516219129485,187
152,WS_SEND_END,1516219129485,187
152,WS_RECV_START,1516219129485,188
152,WS_RECV_END,1516219136663,188
152,PLAYER_SLEEPBEFORE_START,1516219136663,189
152,PLAYER_SLEEPBEFORE_END,1516219142902,189
152,WS_SEND_START,1516219142902,189
152,WS_SEND_END,1516219142902,189
152,WS_RECV_START,1516219142902,190
152,WS_RECV_END,1516219150974,190
152,PLAYER_SLEEPBEFORE_START,1516219150974,191
152,PLAYER_SLEEPBEFORE_END,1516219152889,191
152,WS_SEND_START,1516219152889,191
152,WS_SEND_END,1516219152889,191
152,WS_RECV_START,1516219152889,192
152,WS_RECV_END,1516219159618,192
152,PLAYER_SLEEPBEFORE_START,1516219159618,193
152,PLAYER_SLEEPBEFORE_END,1516219159746,193
152,WS_SEND_START,1516219159746,193
152,WS_SEND_END,1516219159746,193
152,WS_RECV_START,1516219159746,194
152,WS_RECV_END,1516219163247,194
152,PLAYER_SLEEPBEFORE_START,1516219163247,195
152,PLAYER_SLEEPBEFORE_END,1516219165002,195
152,WS_SEND_START,1516219165002,195
152,WS_SEND_END,1516219165002,195
152,WS_RECV_START,1516219165002,196
152,WS_RECV_END,1516219166965,196
152,PLAYER_SLEEPBEFORE_START,1516219166965,197
152,PLAYER_SLEEPBEFORE_END,1516219168769,197
152,WS_SEND_START,1516219168769,197
152,WS_SEND_END,1516219168769,197
152,WS_RECV_START,1516219168769,198
152,WS_RECV_END,1516219170115,198
152,PLAYER_SLEEPBEFORE_START,1516219170115,199
152,PLAYER_SLEEPBEFORE_END,1516219181969,199
152,WS_SEND_START,1516219181969,199
152,WS_SEND_END,1516219181969,199
152,PLAYER_SLEEPBEFORE_START,1516219181969,200
152,PLAYER_SLEEPBEFORE_END,1516219186057,200
152,WS_SEND_START,1516219186057,200
152,WS_SEND_END,1516219186057,200
152,WS_RECV_START,1516219186057,201
152,WS_RECV_END,1516219186354,201
152,PLAYER_SLEEPBEFORE_START,1516219186354,202
152,PLAYER_SLEEPBEFORE_END,1516219186368,202
152,WS_SEND_START,1516219186368,202
152,WS_SEND_END,1516219186368,202
152,WS_RECV_START,1516219186368,203
152,WS_RECV_END,1516219189012,203
152,PLAYER_SLEEPBEFORE_START,1516219189012,204
152,PLAYER_SLEEPBEFORE_END,1516219208661,204
152,WS_SEND_START,1516219208661,204
152,WS_SEND_END,1516219208661,204
152,PLAYER_SLEEPBEFORE_START,1516219208661,205
152,PLAYER_SLEEPBEFORE_END,1516219212559,205
152,WS_SEND_START,1516219212559,205
152,WS_SEND_END,1516219212559,205
152,WS_RECV_START,1516219212559,206
152,WS_RECV_END,1516219214832,206
152,PLAYER_SLEEPBEFORE_START,1516219214832,207
152,PLAYER_SLEEPBEFORE_END,1516219231763,207
152,REQ_START,1516219231763,207
152,REQ_END,1516219231771,207
152,PLAYER_SLEEPBEFORE_START,1516219231771,208
152,PLAYER_SLEEPBEFORE_END,1516219238623,208
152,WS_CLOSE_START,1516219238623,208
152,WS_CLOSE_END,1516219238623,208
152,PLAYER_DONE,1516219238623
