# --sessions 360 --app-url=http://shinyloadtest.rstudioservices.com/cran_explorer --output-dir test360 --overwrite-output --log-level warn --start-interval 500 15min.log
thread_id,event,timestamp,input_line_number,comment
162,PLAYER_SESSION_CREATE,1516218150720
162,PLAYER_START_INTERVAL_START,1516218150720
162,PLAYER_START_INTERVAL_END,1516218231721
162,REQ_HOME_START,1516218231721,2
162,REQ_HOME_END,1516218231833,2
162,REQ_START,1516218231833,3
162,REQ_END,1516218231873,3
162,REQ_START,1516218231874,4
162,REQ_END,1516218231904,4
162,REQ_START,1516218231904,5
162,REQ_END,1516218231938,5
162,REQ_START,1516218231938,6
162,REQ_END,1516218231970,6
162,REQ_START,1516218231970,7
162,REQ_END,1516218232002,7
162,REQ_START,1516218232002,8
162,REQ_END,1516218232034,8
162,REQ_START,1516218232034,9
162,REQ_END,1516218232066,9
162,REQ_START,1516218232066,10
162,REQ_END,1516218232073,10
162,REQ_START,1516218232073,11
162,REQ_END,1516218232430,11
162,REQ_START,1516218232430,12
162,REQ_END,1516218232439,12
162,REQ_START,1516218232439,13
162,REQ_END,1516218232611,13
162,REQ_START,1516218232611,14
162,REQ_END,1516218232625,14
162,REQ_START,1516218232625,15
162,REQ_END,1516218232657,15
162,REQ_TOK_START,1516218232657,16
162,REQ_TOK_END,1516218232664,16
162,REQ_SINF_START,1516218232664,17
162,REQ_SINF_END,1516218232670,17
162,WS_OPEN_START,1516218232670,18
162,WS_OPEN_END,1516218232677,18
162,REQ_START,1516218232677,19
162,REQ_END,1516218232754,19
162,WS_RECV_START,1516218232754,20
162,WS_RECV_END,1516218232754,20
162,PLAYER_SLEEPBEFORE_START,1516218232754,21
162,PLAYER_SLEEPBEFORE_END,1516218232759,21
162,WS_SEND_START,1516218232759,21
162,WS_SEND_END,1516218232759,21
162,PLAYER_SLEEPBEFORE_START,1516218232759,22
162,PLAYER_SLEEPBEFORE_END,1516218232761,22
162,WS_SEND_START,1516218232761,22
162,WS_SEND_END,1516218232761,22
162,WS_RECV_INIT_START,1516218232761,23
162,WS_RECV_INIT_END,1516218232787,23
162,WS_RECV_START,1516218232787,24
162,WS_RECV_END,1516218232837,24
162,PLAYER_SLEEPBEFORE_START,1516218232837,25
162,PLAYER_SLEEPBEFORE_END,1516218232844,25
162,REQ_START,1516218232844,25
162,REQ_END,1516218232874,25
162,PLAYER_SLEEPBEFORE_START,1516218232874,26
162,PLAYER_SLEEPBEFORE_END,1516218232875,26
162,REQ_START,1516218232875,26
162,REQ_END,1516218232907,26
162,PLAYER_SLEEPBEFORE_START,1516218232907,27
162,PLAYER_SLEEPBEFORE_END,1516218232910,27
162,REQ_START,1516218232910,27
162,REQ_END,1516218232943,27
162,PLAYER_SLEEPBEFORE_START,1516218232943,28
162,PLAYER_SLEEPBEFORE_END,1516218233228,28
162,REQ_START,1516218233229,28
162,REQ_END,1516218233259,28
162,PLAYER_SLEEPBEFORE_START,1516218233259,29
162,PLAYER_SLEEPBEFORE_END,1516218233434,29
162,WS_SEND_START,1516218233434,29
162,WS_SEND_END,1516218233434,29
162,WS_RECV_START,1516218233434,30
162,WS_RECV_END,1516218233569,30
162,PLAYER_SLEEPBEFORE_START,1516218233569,31
162,PLAYER_SLEEPBEFORE_END,1516218233580,31
162,REQ_START,1516218233580,31
162,REQ_END,1516218233612,31
162,PLAYER_SLEEPBEFORE_START,1516218233612,32
162,PLAYER_SLEEPBEFORE_END,1516218261757,32
162,WS_SEND_START,1516218261757,32
162,WS_SEND_END,1516218261757,32
162,WS_RECV_START,1516218261757,33
162,WS_RECV_END,1516218261881,33
162,PLAYER_SLEEPBEFORE_START,1516218261881,34
162,PLAYER_SLEEPBEFORE_END,1516218287792,34
162,WS_SEND_START,1516218287792,34
162,WS_SEND_END,1516218287792,34
162,WS_RECV_START,1516218287792,35
162,WS_RECV_END,1516218287919,35
162,PLAYER_SLEEPBEFORE_START,1516218287919,36
162,PLAYER_SLEEPBEFORE_END,1516218287928,36
162,WS_SEND_START,1516218287928,36
162,WS_SEND_END,1516218287928,36
162,WS_RECV_START,1516218287928,37
162,WS_RECV_END,1516218288069,37
162,PLAYER_SLEEPBEFORE_START,1516218288069,38
162,PLAYER_SLEEPBEFORE_END,1516218291265,38
162,WS_SEND_START,1516218291265,38
162,WS_SEND_END,1516218291265,38
162,WS_RECV_START,1516218291265,39
162,WS_RECV_END,1516218291514,39
162,PLAYER_SLEEPBEFORE_START,1516218291514,40
162,PLAYER_SLEEPBEFORE_END,1516218291560,40
162,WS_SEND_START,1516218291560,40
162,WS_SEND_END,1516218291560,40
162,WS_RECV_START,1516218291560,41
162,WS_RECV_END,1516218291779,41
162,PLAYER_SLEEPBEFORE_START,1516218291779,42
162,PLAYER_SLEEPBEFORE_END,1516218309914,42
162,WS_SEND_START,1516218309914,42
162,WS_SEND_END,1516218309914,42
162,WS_RECV_START,1516218309914,43
162,WS_RECV_END,1516218310069,43
162,PLAYER_SLEEPBEFORE_START,1516218310069,44
162,PLAYER_SLEEPBEFORE_END,1516218310081,44
162,WS_SEND_START,1516218310081,44
162,WS_SEND_END,1516218310081,44
162,WS_RECV_START,1516218310081,45
162,WS_RECV_END,1516218310133,45
162,PLAYER_SLEEPBEFORE_START,1516218310133,46
162,PLAYER_SLEEPBEFORE_END,1516218311393,46
162,WS_SEND_START,1516218311393,46
162,WS_SEND_END,1516218311393,46
162,WS_RECV_START,1516218311393,47
162,WS_RECV_END,1516218311737,47
162,PLAYER_SLEEPBEFORE_START,1516218311737,48
162,PLAYER_SLEEPBEFORE_END,1516218313057,48
162,WS_SEND_START,1516218313057,48
162,WS_SEND_END,1516218313057,48
162,WS_RECV_START,1516218313057,49
162,WS_RECV_END,1516218313319,49
162,PLAYER_SLEEPBEFORE_START,1516218313319,50
162,PLAYER_SLEEPBEFORE_END,1516218313343,50
162,WS_SEND_START,1516218313343,50
162,WS_SEND_END,1516218313343,50
162,WS_RECV_START,1516218313343,51
162,WS_RECV_END,1516218313695,51
162,PLAYER_SLEEPBEFORE_START,1516218313696,52
162,PLAYER_SLEEPBEFORE_END,1516218336260,52
162,WS_SEND_START,1516218336260,52
162,WS_SEND_END,1516218336260,52
162,WS_RECV_START,1516218336260,53
162,WS_RECV_END,1516218336487,53
162,PLAYER_SLEEPBEFORE_START,1516218336487,54
162,PLAYER_SLEEPBEFORE_END,1516218357790,54
162,WS_SEND_START,1516218357790,54
162,WS_SEND_END,1516218357790,54
162,PLAYER_SLEEPBEFORE_START,1516218357790,55
162,PLAYER_SLEEPBEFORE_END,1516218359731,55
162,WS_SEND_START,1516218359731,55
162,WS_SEND_END,1516218359731,55
162,WS_RECV_START,1516218359731,56
162,WS_RECV_END,1516218359840,56
162,PLAYER_SLEEPBEFORE_START,1516218359840,57
162,PLAYER_SLEEPBEFORE_END,1516218382713,57
162,WS_SEND_START,1516218382713,57
162,WS_SEND_END,1516218382713,57
162,WS_RECV_START,1516218382713,58
162,WS_RECV_END,1516218383263,58
162,PLAYER_SLEEPBEFORE_START,1516218383263,59
162,PLAYER_SLEEPBEFORE_END,1516218385590,59
162,WS_SEND_START,1516218385590,59
162,WS_SEND_END,1516218385590,59
162,WS_RECV_START,1516218385590,60
162,WS_RECV_END,1516218385725,60
162,PLAYER_SLEEPBEFORE_START,1516218385725,61
162,PLAYER_SLEEPBEFORE_END,1516218389317,61
162,WS_SEND_START,1516218389317,61
162,WS_SEND_END,1516218389317,61
162,WS_RECV_START,1516218389317,62
162,WS_RECV_END,1516218389533,62
162,PLAYER_SLEEPBEFORE_START,1516218389533,63
162,PLAYER_SLEEPBEFORE_END,1516218408795,63
162,WS_SEND_START,1516218408795,63
162,WS_SEND_END,1516218408795,63
162,WS_RECV_START,1516218408795,64
162,WS_RECV_END,1516218409037,64
162,PLAYER_SLEEPBEFORE_START,1516218409037,65
162,PLAYER_SLEEPBEFORE_END,1516218435854,65
162,WS_SEND_START,1516218435854,65
162,WS_SEND_END,1516218435854,65
162,WS_RECV_START,1516218435854,66
162,WS_RECV_END,1516218436180,66
162,PLAYER_SLEEPBEFORE_START,1516218436180,67
162,PLAYER_SLEEPBEFORE_END,1516218437687,67
162,WS_SEND_START,1516218437687,67
162,WS_SEND_END,1516218437687,67
162,WS_RECV_START,1516218437687,68
162,WS_RECV_END,1516218437948,68
162,PLAYER_SLEEPBEFORE_START,1516218437948,69
162,PLAYER_SLEEPBEFORE_END,1516218459946,69
162,WS_SEND_START,1516218459946,69
162,WS_SEND_END,1516218459946,69
162,WS_RECV_START,1516218459946,70
162,WS_RECV_END,1516218460314,70
162,PLAYER_SLEEPBEFORE_START,1516218460314,71
162,PLAYER_SLEEPBEFORE_END,1516218485089,71
162,WS_SEND_START,1516218485089,71
162,WS_SEND_END,1516218485089,71
162,PLAYER_SLEEPBEFORE_START,1516218485089,72
162,PLAYER_SLEEPBEFORE_END,1516218487696,72
162,WS_SEND_START,1516218487696,72
162,WS_SEND_END,1516218487696,72
162,WS_RECV_START,1516218487696,73
162,WS_RECV_END,1516218487741,73
162,PLAYER_SLEEPBEFORE_START,1516218487741,74
162,PLAYER_SLEEPBEFORE_END,1516218487750,74
162,WS_SEND_START,1516218487750,74
162,WS_SEND_END,1516218487750,74
162,WS_RECV_START,1516218487750,75
162,WS_RECV_END,1516218487793,75
162,PLAYER_SLEEPBEFORE_START,1516218487793,76
162,PLAYER_SLEEPBEFORE_END,1516218489299,76
162,WS_SEND_START,1516218489299,76
162,WS_SEND_END,1516218489299,76
162,WS_RECV_START,1516218489299,77
162,WS_RECV_END,1516218489476,77
162,PLAYER_SLEEPBEFORE_START,1516218489476,78
162,PLAYER_SLEEPBEFORE_END,1516218490344,78
162,WS_SEND_START,1516218490344,78
162,WS_SEND_END,1516218490344,78
162,WS_RECV_START,1516218490344,79
162,WS_RECV_END,1516218490384,79
162,PLAYER_SLEEPBEFORE_START,1516218490384,80
162,PLAYER_SLEEPBEFORE_END,1516218498050,80
162,WS_SEND_START,1516218498050,80
162,WS_SEND_END,1516218498050,80
162,WS_RECV_START,1516218498050,81
162,WS_RECV_END,1516218498102,81
162,PLAYER_SLEEPBEFORE_START,1516218498102,82
162,PLAYER_SLEEPBEFORE_END,1516218499204,82
162,WS_SEND_START,1516218499204,82
162,WS_SEND_END,1516218499204,82
162,WS_RECV_START,1516218499204,83
162,WS_RECV_END,1516218499246,83
162,PLAYER_SLEEPBEFORE_START,1516218499246,84
162,PLAYER_SLEEPBEFORE_END,1516218500193,84
162,WS_SEND_START,1516218500193,84
162,WS_SEND_END,1516218500193,84
162,WS_RECV_START,1516218500193,85
162,WS_RECV_END,1516218500362,85
162,PLAYER_SLEEPBEFORE_START,1516218500362,86
162,PLAYER_SLEEPBEFORE_END,1516218504534,86
162,WS_SEND_START,1516218504534,86
162,WS_SEND_END,1516218504534,86
162,WS_RECV_START,1516218504534,87
162,WS_RECV_END,1516218504681,87
162,PLAYER_SLEEPBEFORE_START,1516218504681,88
162,PLAYER_SLEEPBEFORE_END,1516218504689,88
162,WS_SEND_START,1516218504689,88
162,WS_SEND_END,1516218504689,88
162,WS_RECV_START,1516218504689,89
162,WS_RECV_END,1516218504967,89
162,PLAYER_SLEEPBEFORE_START,1516218504967,90
162,PLAYER_SLEEPBEFORE_END,1516218532164,90
162,REQ_START,1516218532164,90
162,REQ_END,1516218532172,90
162,PLAYER_SLEEPBEFORE_START,1516218532172,91
162,PLAYER_SLEEPBEFORE_END,1516218540061,91
162,WS_SEND_START,1516218540062,91
162,WS_SEND_END,1516218540062,91
162,WS_RECV_START,1516218540062,92
162,WS_RECV_END,1516218540273,92
162,PLAYER_SLEEPBEFORE_START,1516218540273,93
162,PLAYER_SLEEPBEFORE_END,1516218540288,93
162,WS_SEND_START,1516218540288,93
162,WS_SEND_END,1516218540288,93
162,WS_RECV_START,1516218540288,94
162,WS_RECV_END,1516218540510,94
162,PLAYER_SLEEPBEFORE_START,1516218540510,95
162,PLAYER_SLEEPBEFORE_END,1516218564065,95
162,WS_SEND_START,1516218564065,95
162,WS_SEND_END,1516218564065,95
162,WS_RECV_START,1516218564065,96
162,WS_RECV_END,1516218564220,96
162,PLAYER_SLEEPBEFORE_START,1516218564220,97
162,PLAYER_SLEEPBEFORE_END,1516218586661,97
162,WS_SEND_START,1516218586661,97
162,WS_SEND_END,1516218586661,97
162,WS_RECV_START,1516218586661,98
162,WS_RECV_END,1516218587163,98
162,PLAYER_SLEEPBEFORE_START,1516218587163,99
162,PLAYER_SLEEPBEFORE_END,1516218587184,99
162,WS_SEND_START,1516218587184,99
162,WS_SEND_END,1516218587184,99
162,WS_RECV_START,1516218587184,100
162,WS_RECV_END,1516218587360,100
162,PLAYER_SLEEPBEFORE_START,1516218587360,101
162,PLAYER_SLEEPBEFORE_END,1516218610919,101
162,WS_SEND_START,1516218610919,101
162,WS_SEND_END,1516218610919,101
162,WS_RECV_START,1516218610919,102
162,WS_RECV_END,1516218611132,102
162,PLAYER_SLEEPBEFORE_START,1516218611132,103
162,PLAYER_SLEEPBEFORE_END,1516218634757,103
162,WS_SEND_START,1516218634757,103
162,WS_SEND_END,1516218634757,103
162,WS_RECV_START,1516218634757,104
162,WS_RECV_END,1516218635502,104
162,PLAYER_SLEEPBEFORE_START,1516218635502,105
162,PLAYER_SLEEPBEFORE_END,1516218660879,105
162,WS_SEND_START,1516218660879,105
162,WS_SEND_END,1516218660879,105
162,WS_RECV_START,1516218660879,106
162,WS_RECV_END,1516218661205,106
162,PLAYER_SLEEPBEFORE_START,1516218661205,107
162,PLAYER_SLEEPBEFORE_END,1516218684628,107
162,WS_SEND_START,1516218684628,107
162,WS_SEND_END,1516218684628,107
162,WS_RECV_START,1516218684628,108
162,WS_RECV_END,1516218685177,108
162,PLAYER_SLEEPBEFORE_START,1516218685177,109
162,PLAYER_SLEEPBEFORE_END,1516218685186,109
162,WS_SEND_START,1516218685186,109
162,WS_SEND_END,1516218685186,109
162,WS_RECV_START,1516218685186,110
162,WS_RECV_END,1516218685388,110
162,PLAYER_SLEEPBEFORE_START,1516218685388,111
162,PLAYER_SLEEPBEFORE_END,1516218686347,111
162,WS_SEND_START,1516218686347,111
162,WS_SEND_END,1516218686347,111
162,WS_RECV_START,1516218686347,112
162,WS_RECV_END,1516218686693,112
162,PLAYER_SLEEPBEFORE_START,1516218686693,113
162,PLAYER_SLEEPBEFORE_END,1516218687255,113
162,WS_SEND_START,1516218687255,113
162,WS_SEND_END,1516218687255,113
162,WS_RECV_START,1516218687255,114
162,WS_RECV_END,1516218687919,114
162,PLAYER_SLEEPBEFORE_START,1516218687919,115
162,PLAYER_SLEEPBEFORE_END,1516218687930,115
162,WS_SEND_START,1516218687930,115
162,WS_SEND_END,1516218687930,115
162,WS_RECV_START,1516218687930,116
162,WS_RECV_END,1516218688468,116
162,PLAYER_SLEEPBEFORE_START,1516218688468,117
162,PLAYER_SLEEPBEFORE_END,1516218708828,117
162,WS_SEND_START,1516218708828,117
162,WS_SEND_END,1516218708828,117
162,PLAYER_SLEEPBEFORE_START,1516218708828,118
162,PLAYER_SLEEPBEFORE_END,1516218712580,118
162,WS_SEND_START,1516218712580,118
162,WS_SEND_END,1516218712580,118
162,WS_RECV_START,1516218712580,119
162,WS_RECV_END,1516218712842,119
162,PLAYER_SLEEPBEFORE_START,1516218712842,120
162,PLAYER_SLEEPBEFORE_END,1516218713830,120
162,WS_SEND_START,1516218713830,120
162,WS_SEND_END,1516218713830,120
162,WS_RECV_START,1516218713830,121
162,WS_RECV_END,1516218714197,121
162,PLAYER_SLEEPBEFORE_START,1516218714197,122
162,PLAYER_SLEEPBEFORE_END,1516218715382,122
162,WS_SEND_START,1516218715382,122
162,WS_SEND_END,1516218715382,122
162,WS_RECV_START,1516218715382,123
162,WS_RECV_END,1516218715700,123
162,PLAYER_SLEEPBEFORE_START,1516218715700,124
162,PLAYER_SLEEPBEFORE_END,1516218740105,124
162,WS_SEND_START,1516218740105,124
162,WS_SEND_END,1516218740105,124
162,WS_RECV_START,1516218740105,125
162,WS_RECV_END,1516218740823,125
162,PLAYER_SLEEPBEFORE_START,1516218740823,126
162,PLAYER_SLEEPBEFORE_END,1516218761335,126
162,WS_SEND_START,1516218761335,126
162,WS_SEND_END,1516218761335,126
162,PLAYER_SLEEPBEFORE_START,1516218761335,127
162,PLAYER_SLEEPBEFORE_END,1516218764389,127
162,WS_SEND_START,1516218764389,127
162,WS_SEND_END,1516218764389,127
162,WS_RECV_START,1516218764389,128
162,WS_RECV_END,1516218764941,128
162,PLAYER_SLEEPBEFORE_START,1516218764941,129
162,PLAYER_SLEEPBEFORE_END,1516218764961,129
162,WS_SEND_START,1516218764961,129
162,WS_SEND_END,1516218764961,129
162,WS_RECV_START,1516218764961,130
162,WS_RECV_END,1516218765328,130
162,PLAYER_SLEEPBEFORE_START,1516218765328,131
162,PLAYER_SLEEPBEFORE_END,1516218786952,131
162,WS_SEND_START,1516218786952,131
162,WS_SEND_END,1516218786952,131
162,PLAYER_SLEEPBEFORE_START,1516218786952,132
162,PLAYER_SLEEPBEFORE_END,1516218790032,132
162,WS_SEND_START,1516218790032,132
162,WS_SEND_END,1516218790032,132
162,WS_RECV_START,1516218790032,133
162,WS_RECV_END,1516218790787,133
162,PLAYER_SLEEPBEFORE_START,1516218790787,134
162,PLAYER_SLEEPBEFORE_END,1516218812004,134
162,WS_SEND_START,1516218812004,134
162,WS_SEND_END,1516218812004,134
162,PLAYER_SLEEPBEFORE_START,1516218812004,135
162,PLAYER_SLEEPBEFORE_END,1516218815194,135
162,WS_SEND_START,1516218815194,135
162,WS_SEND_END,1516218815194,135
162,WS_RECV_START,1516218815194,136
162,WS_RECV_END,1516218815266,136
162,PLAYER_SLEEPBEFORE_START,1516218815267,137
162,PLAYER_SLEEPBEFORE_END,1516218815274,137
162,WS_SEND_START,1516218815274,137
162,WS_SEND_END,1516218815274,137
162,WS_RECV_START,1516218815274,138
162,WS_RECV_END,1516218815320,138
162,PLAYER_SLEEPBEFORE_START,1516218815320,139
162,PLAYER_SLEEPBEFORE_END,1516218816010,139
162,WS_SEND_START,1516218816010,139
162,WS_SEND_END,1516218816010,139
162,WS_RECV_START,1516218816010,140
162,WS_RECV_END,1516218816361,140
162,PLAYER_SLEEPBEFORE_START,1516218816361,141
162,PLAYER_SLEEPBEFORE_END,1516218817016,141
162,WS_SEND_START,1516218817016,141
162,WS_SEND_END,1516218817016,141
162,WS_RECV_START,1516218817016,142
162,WS_RECV_END,1516218817191,142
162,PLAYER_SLEEPBEFORE_START,1516218817191,143
162,PLAYER_SLEEPBEFORE_END,1516218817248,143
162,WS_SEND_START,1516218817248,143
162,WS_SEND_END,1516218817248,143
162,WS_RECV_START,1516218817248,144
162,WS_RECV_END,1516218817522,144
162,PLAYER_SLEEPBEFORE_START,1516218817522,145
162,PLAYER_SLEEPBEFORE_END,1516218833584,145
162,REQ_START,1516218833584,145
162,REQ_END,1516218833592,145
162,PLAYER_SLEEPBEFORE_START,1516218833592,146
162,PLAYER_SLEEPBEFORE_END,1516218842469,146
162,WS_SEND_START,1516218842469,146
162,WS_SEND_END,1516218842469,146
162,WS_RECV_START,1516218842469,147
162,WS_RECV_END,1516218842785,147
162,PLAYER_SLEEPBEFORE_START,1516218842785,148
162,PLAYER_SLEEPBEFORE_END,1516218864707,148
162,WS_SEND_START,1516218864707,148
162,WS_SEND_END,1516218864707,148
162,PLAYER_SLEEPBEFORE_START,1516218864707,149
162,PLAYER_SLEEPBEFORE_END,1516218867135,149
162,WS_SEND_START,1516218867135,149
162,WS_SEND_END,1516218867135,149
162,WS_RECV_START,1516218867135,150
162,WS_RECV_END,1516218867364,150
162,PLAYER_SLEEPBEFORE_START,1516218867364,151
162,PLAYER_SLEEPBEFORE_END,1516218867574,151
162,WS_SEND_START,1516218867574,151
162,WS_SEND_END,1516218867574,151
162,WS_RECV_START,1516218867574,152
162,WS_RECV_END,1516218867679,152
162,PLAYER_SLEEPBEFORE_START,1516218867679,153
162,PLAYER_SLEEPBEFORE_END,1516218891606,153
162,WS_SEND_START,1516218891606,153
162,WS_SEND_END,1516218891607,153
162,WS_RECV_START,1516218891607,154
162,WS_RECV_END,1516218891826,154
162,PLAYER_SLEEPBEFORE_START,1516218891826,155
162,PLAYER_SLEEPBEFORE_END,1516218914384,155
162,WS_SEND_START,1516218914384,155
162,WS_SEND_END,1516218914384,155
162,PLAYER_SLEEPBEFORE_START,1516218914384,156
162,PLAYER_SLEEPBEFORE_END,1516218917658,156
162,WS_SEND_START,1516218917658,156
162,WS_SEND_END,1516218917658,156
162,WS_RECV_START,1516218917658,157
162,WS_RECV_END,1516218917836,157
162,PLAYER_SLEEPBEFORE_START,1516218917836,158
162,PLAYER_SLEEPBEFORE_END,1516218917846,158
162,WS_SEND_START,1516218917846,158
162,WS_SEND_END,1516218917846,158
162,WS_RECV_START,1516218917846,159
162,WS_RECV_END,1516218918016,159
162,PLAYER_SLEEPBEFORE_START,1516218918016,160
162,PLAYER_SLEEPBEFORE_END,1516218918191,160
162,WS_SEND_START,1516218918191,160
162,WS_SEND_END,1516218918191,160
162,WS_RECV_START,1516218918191,161
162,WS_RECV_END,1516218918334,161
162,PLAYER_SLEEPBEFORE_START,1516218918334,162
162,PLAYER_SLEEPBEFORE_END,1516218918359,162
162,WS_SEND_START,1516218918359,162
162,WS_SEND_END,1516218918359,162
162,WS_RECV_START,1516218918359,163
162,WS_RECV_END,1516218918666,163
162,PLAYER_SLEEPBEFORE_START,1516218918666,164
162,PLAYER_SLEEPBEFORE_END,1516218939478,164
162,WS_SEND_START,1516218939478,164
162,WS_SEND_END,1516218939478,164
162,WS_RECV_START,1516218939478,165
162,WS_RECV_END,1516218939868,165
162,PLAYER_SLEEPBEFORE_START,1516218939868,166
162,PLAYER_SLEEPBEFORE_END,1516218962323,166
162,WS_SEND_START,1516218962323,166
162,WS_SEND_END,1516218962323,166
162,WS_RECV_START,1516218962323,167
162,WS_RECV_END,1516218962939,167
162,PLAYER_SLEEPBEFORE_START,1516218962939,168
162,PLAYER_SLEEPBEFORE_END,1516218990296,168
162,WS_SEND_START,1516218990296,168
162,WS_SEND_END,1516218990296,168
162,WS_RECV_START,1516218990296,169
162,WS_RECV_END,1516218990941,169
162,PLAYER_SLEEPBEFORE_START,1516218990941,170
162,PLAYER_SLEEPBEFORE_END,1516218990950,170
162,WS_SEND_START,1516218990950,170
162,WS_SEND_END,1516218990950,170
162,WS_RECV_START,1516218990950,171
162,WS_RECV_END,1516218991159,171
162,PLAYER_SLEEPBEFORE_START,1516218991159,172
162,PLAYER_SLEEPBEFORE_END,1516218991529,172
162,WS_SEND_START,1516218991529,172
162,WS_SEND_END,1516218991529,172
162,WS_RECV_START,1516218991529,173
162,WS_RECV_END,1516218992738,173
162,PLAYER_SLEEPBEFORE_START,1516218992738,174
162,PLAYER_SLEEPBEFORE_END,1516218992779,174
162,WS_SEND_START,1516218992779,174
162,WS_SEND_END,1516218992779,174
162,WS_RECV_START,1516218992779,175
162,WS_RECV_END,1516218993478,175
162,PLAYER_SLEEPBEFORE_START,1516218993478,176
162,PLAYER_SLEEPBEFORE_END,1516219015239,176
162,WS_SEND_START,1516219015239,176
162,WS_SEND_END,1516219015239,176
162,PLAYER_SLEEPBEFORE_START,1516219015239,177
162,PLAYER_SLEEPBEFORE_END,1516219017757,177
162,WS_SEND_START,1516219017757,177
162,WS_SEND_END,1516219017757,177
162,WS_RECV_START,1516219017757,178
162,WS_RECV_END,1516219019061,178
162,PLAYER_SLEEPBEFORE_START,1516219019061,179
162,PLAYER_SLEEPBEFORE_END,1516219041401,179
162,WS_SEND_START,1516219041401,179
162,WS_SEND_END,1516219041401,179
162,WS_RECV_START,1516219041401,180
162,WS_RECV_END,1516219046045,180
162,PLAYER_SLEEPBEFORE_START,1516219046045,181
162,PLAYER_SLEEPBEFORE_END,1516219046489,181
162,WS_SEND_START,1516219046489,181
162,WS_SEND_END,1516219046489,181
162,WS_RECV_START,1516219046489,182
162,WS_RECV_END,1516219048250,182
162,PLAYER_SLEEPBEFORE_START,1516219048250,183
162,PLAYER_SLEEPBEFORE_END,1516219048773,183
162,WS_SEND_START,1516219048773,183
162,WS_SEND_END,1516219048773,183
162,WS_RECV_START,1516219048773,184
162,WS_RECV_END,1516219051535,184
162,PLAYER_SLEEPBEFORE_START,1516219051535,185
162,PLAYER_SLEEPBEFORE_END,1516219051803,185
162,WS_SEND_START,1516219051803,185
162,WS_SEND_END,1516219051803,185
162,WS_RECV_START,1516219051803,186
162,WS_RECV_END,1516219054638,186
162,PLAYER_SLEEPBEFORE_START,1516219054638,187
162,PLAYER_SLEEPBEFORE_END,1516219077138,187
162,WS_SEND_START,1516219077138,187
162,WS_SEND_END,1516219077138,187
162,WS_RECV_START,1516219077138,188
162,WS_RECV_END,1516219080900,188
162,PLAYER_SLEEPBEFORE_START,1516219080900,189
162,PLAYER_SLEEPBEFORE_END,1516219087139,189
162,WS_SEND_START,1516219087139,189
162,WS_SEND_END,1516219087139,189
162,WS_RECV_START,1516219087139,190
162,WS_RECV_END,1516219090298,190
162,PLAYER_SLEEPBEFORE_START,1516219090298,191
162,PLAYER_SLEEPBEFORE_END,1516219092213,191
162,WS_SEND_START,1516219092213,191
162,WS_SEND_END,1516219092213,191
162,WS_RECV_START,1516219092213,192
162,WS_RECV_END,1516219095549,192
162,PLAYER_SLEEPBEFORE_START,1516219095550,193
162,PLAYER_SLEEPBEFORE_END,1516219095678,193
162,WS_SEND_START,1516219095678,193
162,WS_SEND_END,1516219095678,193
162,WS_RECV_START,1516219095678,194
162,WS_RECV_END,1516219096863,194
162,PLAYER_SLEEPBEFORE_START,1516219096863,195
162,PLAYER_SLEEPBEFORE_END,1516219098618,195
162,WS_SEND_START,1516219098618,195
162,WS_SEND_END,1516219098618,195
162,WS_RECV_START,1516219098618,196
162,WS_RECV_END,1516219101416,196
162,PLAYER_SLEEPBEFORE_START,1516219101416,197
162,PLAYER_SLEEPBEFORE_END,1516219103220,197
162,WS_SEND_START,1516219103220,197
162,WS_SEND_END,1516219103220,197
162,WS_RECV_START,1516219103220,198
162,WS_RECV_END,1516219106378,198
162,PLAYER_SLEEPBEFORE_START,1516219106378,199
162,PLAYER_SLEEPBEFORE_END,1516219118232,199
162,WS_SEND_START,1516219118232,199
162,WS_SEND_END,1516219118232,199
162,PLAYER_SLEEPBEFORE_START,1516219118232,200
162,PLAYER_SLEEPBEFORE_END,1516219122320,200
162,WS_SEND_START,1516219122320,200
162,WS_SEND_END,1516219122320,200
162,WS_RECV_START,1516219122320,201
162,WS_RECV_END,1516219123666,201
162,PLAYER_SLEEPBEFORE_START,1516219123666,202
162,PLAYER_SLEEPBEFORE_END,1516219123680,202
162,WS_SEND_START,1516219123680,202
162,WS_SEND_END,1516219123680,202
162,WS_RECV_START,1516219123680,203
162,WS_RECV_END,1516219126354,203
162,PLAYER_SLEEPBEFORE_START,1516219126354,204
162,PLAYER_SLEEPBEFORE_END,1516219146003,204
162,WS_SEND_START,1516219146003,204
162,WS_SEND_END,1516219146003,204
162,PLAYER_SLEEPBEFORE_START,1516219146003,205
162,PLAYER_SLEEPBEFORE_END,1516219149901,205
162,WS_SEND_START,1516219149901,205
162,WS_SEND_END,1516219149902,205
162,WS_RECV_START,1516219149902,206
162,WS_RECV_END,1516219150283,206
162,PLAYER_SLEEPBEFORE_START,1516219150283,207
162,PLAYER_SLEEPBEFORE_END,1516219167214,207
162,REQ_START,1516219167214,207
162,REQ_END,1516219167222,207
162,PLAYER_SLEEPBEFORE_START,1516219167222,208
162,PLAYER_SLEEPBEFORE_END,1516219174074,208
162,WS_CLOSE_START,1516219174074,208
162,WS_CLOSE_END,1516219174074,208
162,PLAYER_DONE,1516219174075
