# --sessions 360 --app-url=http://shinyloadtest.rstudioservices.com/cran_explorer --output-dir test360 --overwrite-output --log-level warn --start-interval 500 15min.log
thread_id,event,timestamp,input_line_number,comment
254,PLAYER_SESSION_CREATE,1516218150775
254,PLAYER_START_INTERVAL_START,1516218150775
254,PLAYER_START_INTERVAL_END,1516218277775
254,REQ_HOME_START,1516218277775,2
254,REQ_HOME_END,1516218278157,2
254,REQ_START,1516218278157,3
254,REQ_END,1516218278355,3
254,REQ_START,1516218278355,4
254,REQ_END,1516218278389,4
254,REQ_START,1516218278389,5
254,REQ_END,1516218278423,5
254,REQ_START,1516218278423,6
254,REQ_END,1516218278612,6
254,REQ_START,1516218278612,7
254,REQ_END,1516218279069,7
254,REQ_START,1516218279069,8
254,REQ_END,1516218279103,8
254,REQ_START,1516218279103,9
254,REQ_END,1516218279149,9
254,REQ_START,1516218279149,10
254,REQ_END,1516218279156,10
254,REQ_START,1516218279156,11
254,REQ_END,1516218279193,11
254,REQ_START,1516218279193,12
254,REQ_END,1516218279202,12
254,REQ_START,1516218279202,13
254,REQ_END,1516218279327,13
254,REQ_START,1516218279327,14
254,REQ_END,1516218279341,14
254,REQ_START,1516218279341,15
254,REQ_END,1516218279659,15
254,REQ_TOK_START,1516218279659,16
254,REQ_TOK_END,1516218279666,16
254,REQ_SINF_START,1516218279666,17
254,REQ_SINF_END,1516218279673,17
254,WS_OPEN_START,1516218279673,18
254,WS_OPEN_END,1516218279680,18
254,REQ_START,1516218279680,19
254,REQ_END,1516218279708,19
254,WS_RECV_START,1516218279708,20
254,WS_RECV_END,1516218279708,20
254,PLAYER_SLEEPBEFORE_START,1516218279708,21
254,PLAYER_SLEEPBEFORE_END,1516218279713,21
254,WS_SEND_START,1516218279713,21
254,WS_SEND_END,1516218279714,21
254,PLAYER_SLEEPBEFORE_START,1516218279714,22
254,PLAYER_SLEEPBEFORE_END,1516218279715,22
254,WS_SEND_START,1516218279715,22
254,WS_SEND_END,1516218279715,22
254,WS_RECV_INIT_START,1516218279715,23
254,WS_RECV_INIT_END,1516218279735,23
254,WS_RECV_START,1516218279735,24
254,WS_RECV_END,1516218279809,24
254,PLAYER_SLEEPBEFORE_START,1516218279809,25
254,PLAYER_SLEEPBEFORE_END,1516218279816,25
254,REQ_START,1516218279816,25
254,REQ_END,1516218280193,25
254,PLAYER_SLEEPBEFORE_START,1516218280193,26
254,PLAYER_SLEEPBEFORE_END,1516218280194,26
254,REQ_START,1516218280194,26
254,REQ_END,1516218280260,26
254,PLAYER_SLEEPBEFORE_START,1516218280260,27
254,PLAYER_SLEEPBEFORE_END,1516218280263,27
254,REQ_START,1516218280263,27
254,REQ_END,1516218280316,27
254,PLAYER_SLEEPBEFORE_START,1516218280316,28
254,PLAYER_SLEEPBEFORE_END,1516218280601,28
254,REQ_START,1516218280601,28
254,REQ_END,1516218280729,28
254,PLAYER_SLEEPBEFORE_START,1516218280729,29
254,PLAYER_SLEEPBEFORE_END,1516218280905,29
254,WS_SEND_START,1516218280905,29
254,WS_SEND_END,1516218280905,29
254,WS_RECV_START,1516218280905,30
254,WS_RECV_END,1516218281044,30
254,PLAYER_SLEEPBEFORE_START,1516218281044,31
254,PLAYER_SLEEPBEFORE_END,1516218281055,31
254,REQ_START,1516218281055,31
254,REQ_END,1516218281465,31
254,PLAYER_SLEEPBEFORE_START,1516218281465,32
254,PLAYER_SLEEPBEFORE_END,1516218309610,32
254,WS_SEND_START,1516218309610,32
254,WS_SEND_END,1516218309610,32
254,WS_RECV_START,1516218309610,33
254,WS_RECV_END,1516218309734,33
254,PLAYER_SLEEPBEFORE_START,1516218309734,34
254,PLAYER_SLEEPBEFORE_END,1516218335645,34
254,WS_SEND_START,1516218335645,34
254,WS_SEND_END,1516218335645,34
254,WS_RECV_START,1516218335645,35
254,WS_RECV_END,1516218335812,35
254,PLAYER_SLEEPBEFORE_START,1516218335812,36
254,PLAYER_SLEEPBEFORE_END,1516218335821,36
254,WS_SEND_START,1516218335821,36
254,WS_SEND_END,1516218335821,36
254,WS_RECV_START,1516218335821,37
254,WS_RECV_END,1516218335937,37
254,PLAYER_SLEEPBEFORE_START,1516218335937,38
254,PLAYER_SLEEPBEFORE_END,1516218339132,38
254,WS_SEND_START,1516218339132,38
254,WS_SEND_END,1516218339132,38
254,WS_RECV_START,1516218339132,39
254,WS_RECV_END,1516218339492,39
254,PLAYER_SLEEPBEFORE_START,1516218339492,40
254,PLAYER_SLEEPBEFORE_END,1516218339538,40
254,WS_SEND_START,1516218339538,40
254,WS_SEND_END,1516218339538,40
254,WS_RECV_START,1516218339538,41
254,WS_RECV_END,1516218339734,41
254,PLAYER_SLEEPBEFORE_START,1516218339734,42
254,PLAYER_SLEEPBEFORE_END,1516218357869,42
254,WS_SEND_START,1516218357869,42
254,WS_SEND_END,1516218357869,42
254,WS_RECV_START,1516218357869,43
254,WS_RECV_END,1516218357914,43
254,PLAYER_SLEEPBEFORE_START,1516218357914,44
254,PLAYER_SLEEPBEFORE_END,1516218357926,44
254,WS_SEND_START,1516218357926,44
254,WS_SEND_END,1516218357926,44
254,WS_RECV_START,1516218357926,45
254,WS_RECV_END,1516218358045,45
254,PLAYER_SLEEPBEFORE_START,1516218358045,46
254,PLAYER_SLEEPBEFORE_END,1516218359305,46
254,WS_SEND_START,1516218359305,46
254,WS_SEND_END,1516218359305,46
254,WS_RECV_START,1516218359305,47
254,WS_RECV_END,1516218359516,47
254,PLAYER_SLEEPBEFORE_START,1516218359516,48
254,PLAYER_SLEEPBEFORE_END,1516218360836,48
254,WS_SEND_START,1516218360836,48
254,WS_SEND_END,1516218360836,48
254,WS_RECV_START,1516218360836,49
254,WS_RECV_END,1516218361064,49
254,PLAYER_SLEEPBEFORE_START,1516218361064,50
254,PLAYER_SLEEPBEFORE_END,1516218361088,50
254,WS_SEND_START,1516218361088,50
254,WS_SEND_END,1516218361088,50
254,WS_RECV_START,1516218361088,51
254,WS_RECV_END,1516218361226,51
254,PLAYER_SLEEPBEFORE_START,1516218361226,52
254,PLAYER_SLEEPBEFORE_END,1516218383790,52
254,WS_SEND_START,1516218383790,52
254,WS_SEND_END,1516218383790,52
254,WS_RECV_START,1516218383790,53
254,WS_RECV_END,1516218383981,53
254,PLAYER_SLEEPBEFORE_START,1516218383981,54
254,PLAYER_SLEEPBEFORE_END,1516218405284,54
254,WS_SEND_START,1516218405284,54
254,WS_SEND_END,1516218405284,54
254,PLAYER_SLEEPBEFORE_START,1516218405284,55
254,PLAYER_SLEEPBEFORE_END,1516218407226,55
254,WS_SEND_START,1516218407226,55
254,WS_SEND_END,1516218407226,55
254,WS_RECV_START,1516218407226,56
254,WS_RECV_END,1516218407389,56
254,PLAYER_SLEEPBEFORE_START,1516218407389,57
254,PLAYER_SLEEPBEFORE_END,1516218430261,57
254,WS_SEND_START,1516218430261,57
254,WS_SEND_END,1516218430261,57
254,WS_RECV_START,1516218430261,58
254,WS_RECV_END,1516218430449,58
254,PLAYER_SLEEPBEFORE_START,1516218430449,59
254,PLAYER_SLEEPBEFORE_END,1516218432776,59
254,WS_SEND_START,1516218432776,59
254,WS_SEND_END,1516218432776,59
254,WS_RECV_START,1516218432776,60
254,WS_RECV_END,1516218433394,60
254,PLAYER_SLEEPBEFORE_START,1516218433394,61
254,PLAYER_SLEEPBEFORE_END,1516218436985,61
254,WS_SEND_START,1516218436985,61
254,WS_SEND_END,1516218436985,61
254,WS_RECV_START,1516218436985,62
254,WS_RECV_END,1516218437362,62
254,PLAYER_SLEEPBEFORE_START,1516218437362,63
254,PLAYER_SLEEPBEFORE_END,1516218456624,63
254,WS_SEND_START,1516218456624,63
254,WS_SEND_END,1516218456624,63
254,WS_RECV_START,1516218456624,64
254,WS_RECV_END,1516218456722,64
254,PLAYER_SLEEPBEFORE_START,1516218456722,65
254,PLAYER_SLEEPBEFORE_END,1516218483539,65
254,WS_SEND_START,1516218483539,65
254,WS_SEND_END,1516218483539,65
254,WS_RECV_START,1516218483539,66
254,WS_RECV_END,1516218483679,66
254,PLAYER_SLEEPBEFORE_START,1516218483679,67
254,PLAYER_SLEEPBEFORE_END,1516218485186,67
254,WS_SEND_START,1516218485186,67
254,WS_SEND_END,1516218485186,67
254,WS_RECV_START,1516218485186,68
254,WS_RECV_END,1516218485335,68
254,PLAYER_SLEEPBEFORE_START,1516218485335,69
254,PLAYER_SLEEPBEFORE_END,1516218507333,69
254,WS_SEND_START,1516218507333,69
254,WS_SEND_END,1516218507333,69
254,WS_RECV_START,1516218507333,70
254,WS_RECV_END,1516218507490,70
254,PLAYER_SLEEPBEFORE_START,1516218507490,71
254,PLAYER_SLEEPBEFORE_END,1516218532265,71
254,WS_SEND_START,1516218532265,71
254,WS_SEND_END,1516218532265,71
254,PLAYER_SLEEPBEFORE_START,1516218532265,72
254,PLAYER_SLEEPBEFORE_END,1516218534872,72
254,WS_SEND_START,1516218534872,72
254,WS_SEND_END,1516218534872,72
254,WS_RECV_START,1516218534872,73
254,WS_RECV_END,1516218534929,73
254,PLAYER_SLEEPBEFORE_START,1516218534929,74
254,PLAYER_SLEEPBEFORE_END,1516218534938,74
254,WS_SEND_START,1516218534938,74
254,WS_SEND_END,1516218534938,74
254,WS_RECV_START,1516218534938,75
254,WS_RECV_END,1516218535112,75
254,PLAYER_SLEEPBEFORE_START,1516218535112,76
254,PLAYER_SLEEPBEFORE_END,1516218536619,76
254,WS_SEND_START,1516218536619,76
254,WS_SEND_END,1516218536619,76
254,WS_RECV_START,1516218536619,77
254,WS_RECV_END,1516218536962,77
254,PLAYER_SLEEPBEFORE_START,1516218536962,78
254,PLAYER_SLEEPBEFORE_END,1516218537830,78
254,WS_SEND_START,1516218537830,78
254,WS_SEND_END,1516218537830,78
254,WS_RECV_START,1516218537830,79
254,WS_RECV_END,1516218537887,79
254,PLAYER_SLEEPBEFORE_START,1516218537887,80
254,PLAYER_SLEEPBEFORE_END,1516218545553,80
254,WS_SEND_START,1516218545553,80
254,WS_SEND_END,1516218545553,80
254,WS_RECV_START,1516218545553,81
254,WS_RECV_END,1516218545897,81
254,PLAYER_SLEEPBEFORE_START,1516218545897,82
254,PLAYER_SLEEPBEFORE_END,1516218546999,82
254,WS_SEND_START,1516218547000,82
254,WS_SEND_END,1516218547000,82
254,WS_RECV_START,1516218547000,83
254,WS_RECV_END,1516218547153,83
254,PLAYER_SLEEPBEFORE_START,1516218547153,84
254,PLAYER_SLEEPBEFORE_END,1516218548100,84
254,WS_SEND_START,1516218548100,84
254,WS_SEND_END,1516218548100,84
254,WS_RECV_START,1516218548100,85
254,WS_RECV_END,1516218548326,85
254,PLAYER_SLEEPBEFORE_START,1516218548326,86
254,PLAYER_SLEEPBEFORE_END,1516218552498,86
254,WS_SEND_START,1516218552498,86
254,WS_SEND_END,1516218552498,86
254,WS_RECV_START,1516218552498,87
254,WS_RECV_END,1516218552837,87
254,PLAYER_SLEEPBEFORE_START,1516218552837,88
254,PLAYER_SLEEPBEFORE_END,1516218552845,88
254,WS_SEND_START,1516218552845,88
254,WS_SEND_END,1516218552845,88
254,WS_RECV_START,1516218552845,89
254,WS_RECV_END,1516218553179,89
254,PLAYER_SLEEPBEFORE_START,1516218553179,90
254,PLAYER_SLEEPBEFORE_END,1516218580376,90
254,REQ_START,1516218580376,90
254,REQ_END,1516218580383,90
254,PLAYER_SLEEPBEFORE_START,1516218580383,91
254,PLAYER_SLEEPBEFORE_END,1516218588272,91
254,WS_SEND_START,1516218588272,91
254,WS_SEND_END,1516218588272,91
254,WS_RECV_START,1516218588272,92
254,WS_RECV_END,1516218588460,92
254,PLAYER_SLEEPBEFORE_START,1516218588460,93
254,PLAYER_SLEEPBEFORE_END,1516218588475,93
254,WS_SEND_START,1516218588475,93
254,WS_SEND_END,1516218588475,93
254,WS_RECV_START,1516218588475,94
254,WS_RECV_END,1516218588729,94
254,PLAYER_SLEEPBEFORE_START,1516218588729,95
254,PLAYER_SLEEPBEFORE_END,1516218612284,95
254,WS_SEND_START,1516218612284,95
254,WS_SEND_END,1516218612285,95
254,WS_RECV_START,1516218612285,96
254,WS_RECV_END,1516218612404,96
254,PLAYER_SLEEPBEFORE_START,1516218612404,97
254,PLAYER_SLEEPBEFORE_END,1516218634844,97
254,WS_SEND_START,1516218634844,97
254,WS_SEND_END,1516218634844,97
254,WS_RECV_START,1516218634844,98
254,WS_RECV_END,1516218635513,98
254,PLAYER_SLEEPBEFORE_START,1516218635513,99
254,PLAYER_SLEEPBEFORE_END,1516218635535,99
254,WS_SEND_START,1516218635535,99
254,WS_SEND_END,1516218635535,99
254,WS_RECV_START,1516218635535,100
254,WS_RECV_END,1516218635848,100
254,PLAYER_SLEEPBEFORE_START,1516218635848,101
254,PLAYER_SLEEPBEFORE_END,1516218659408,101
254,WS_SEND_START,1516218659408,101
254,WS_SEND_END,1516218659408,101
254,WS_RECV_START,1516218659408,102
254,WS_RECV_END,1516218659871,102
254,PLAYER_SLEEPBEFORE_START,1516218659871,103
254,PLAYER_SLEEPBEFORE_END,1516218683496,103
254,WS_SEND_START,1516218683496,103
254,WS_SEND_END,1516218683496,103
254,WS_RECV_START,1516218683496,104
254,WS_RECV_END,1516218684274,104
254,PLAYER_SLEEPBEFORE_START,1516218684274,105
254,PLAYER_SLEEPBEFORE_END,1516218709651,105
254,WS_SEND_START,1516218709651,105
254,WS_SEND_END,1516218709652,105
254,WS_RECV_START,1516218709652,106
254,WS_RECV_END,1516218710273,106
254,PLAYER_SLEEPBEFORE_START,1516218710273,107
254,PLAYER_SLEEPBEFORE_END,1516218733696,107
254,WS_SEND_START,1516218733696,107
254,WS_SEND_END,1516218733696,107
254,WS_RECV_START,1516218733696,108
254,WS_RECV_END,1516218734390,108
254,PLAYER_SLEEPBEFORE_START,1516218734390,109
254,PLAYER_SLEEPBEFORE_END,1516218734399,109
254,WS_SEND_START,1516218734399,109
254,WS_SEND_END,1516218734399,109
254,WS_RECV_START,1516218734399,110
254,WS_RECV_END,1516218734864,110
254,PLAYER_SLEEPBEFORE_START,1516218734864,111
254,PLAYER_SLEEPBEFORE_END,1516218735823,111
254,WS_SEND_START,1516218735823,111
254,WS_SEND_END,1516218735823,111
254,WS_RECV_START,1516218735823,112
254,WS_RECV_END,1516218736422,112
254,PLAYER_SLEEPBEFORE_START,1516218736422,113
254,PLAYER_SLEEPBEFORE_END,1516218736985,113
254,WS_SEND_START,1516218736985,113
254,WS_SEND_END,1516218736985,113
254,WS_RECV_START,1516218736985,114
254,WS_RECV_END,1516218737445,114
254,PLAYER_SLEEPBEFORE_START,1516218737445,115
254,PLAYER_SLEEPBEFORE_END,1516218737454,115
254,WS_SEND_START,1516218737454,115
254,WS_SEND_END,1516218737454,115
254,WS_RECV_START,1516218737454,116
254,WS_RECV_END,1516218737946,116
254,PLAYER_SLEEPBEFORE_START,1516218737946,117
254,PLAYER_SLEEPBEFORE_END,1516218758306,117
254,WS_SEND_START,1516218758306,117
254,WS_SEND_END,1516218758306,117
254,PLAYER_SLEEPBEFORE_START,1516218758306,118
254,PLAYER_SLEEPBEFORE_END,1516218762058,118
254,WS_SEND_START,1516218762058,118
254,WS_SEND_END,1516218762058,118
254,WS_RECV_START,1516218762058,119
254,WS_RECV_END,1516218763188,119
254,PLAYER_SLEEPBEFORE_START,1516218763188,120
254,PLAYER_SLEEPBEFORE_END,1516218764177,120
254,WS_SEND_START,1516218764177,120
254,WS_SEND_END,1516218764177,120
254,WS_RECV_START,1516218764177,121
254,WS_RECV_END,1516218765388,121
254,PLAYER_SLEEPBEFORE_START,1516218765388,122
254,PLAYER_SLEEPBEFORE_END,1516218766574,122
254,WS_SEND_START,1516218766574,122
254,WS_SEND_END,1516218766574,122
254,WS_RECV_START,1516218766574,123
254,WS_RECV_END,1516218767567,123
254,PLAYER_SLEEPBEFORE_START,1516218767567,124
254,PLAYER_SLEEPBEFORE_END,1516218791972,124
254,WS_SEND_START,1516218791972,124
254,WS_SEND_END,1516218791972,124
254,WS_RECV_START,1516218791972,125
254,WS_RECV_END,1516218792455,125
254,PLAYER_SLEEPBEFORE_START,1516218792455,126
254,PLAYER_SLEEPBEFORE_END,1516218812967,126
254,WS_SEND_START,1516218812967,126
254,WS_SEND_END,1516218812967,126
254,PLAYER_SLEEPBEFORE_START,1516218812967,127
254,PLAYER_SLEEPBEFORE_END,1516218816022,127
254,WS_SEND_START,1516218816022,127
254,WS_SEND_END,1516218816022,127
254,WS_RECV_START,1516218816022,128
254,WS_RECV_END,1516218816326,128
254,PLAYER_SLEEPBEFORE_START,1516218816326,129
254,PLAYER_SLEEPBEFORE_END,1516218816346,129
254,WS_SEND_START,1516218816346,129
254,WS_SEND_END,1516218816346,129
254,WS_RECV_START,1516218816346,130
254,WS_RECV_END,1516218816605,130
254,PLAYER_SLEEPBEFORE_START,1516218816605,131
254,PLAYER_SLEEPBEFORE_END,1516218838229,131
254,WS_SEND_START,1516218838229,131
254,WS_SEND_END,1516218838229,131
254,PLAYER_SLEEPBEFORE_START,1516218838229,132
254,PLAYER_SLEEPBEFORE_END,1516218841309,132
254,WS_SEND_START,1516218841309,132
254,WS_SEND_END,1516218841309,132
254,WS_RECV_START,1516218841309,133
254,WS_RECV_END,1516218841779,133
254,PLAYER_SLEEPBEFORE_START,1516218841779,134
254,PLAYER_SLEEPBEFORE_END,1516218862997,134
254,WS_SEND_START,1516218862997,134
254,WS_SEND_END,1516218862997,134
254,PLAYER_SLEEPBEFORE_START,1516218862997,135
254,PLAYER_SLEEPBEFORE_END,1516218866187,135
254,WS_SEND_START,1516218866187,135
254,WS_SEND_END,1516218866187,135
254,WS_RECV_START,1516218866187,136
254,WS_RECV_END,1516218866330,136
254,PLAYER_SLEEPBEFORE_START,1516218866330,137
254,PLAYER_SLEEPBEFORE_END,1516218866337,137
254,WS_SEND_START,1516218866337,137
254,WS_SEND_END,1516218866337,137
254,WS_RECV_START,1516218866337,138
254,WS_RECV_END,1516218866604,138
254,PLAYER_SLEEPBEFORE_START,1516218866604,139
254,PLAYER_SLEEPBEFORE_END,1516218867294,139
254,WS_SEND_START,1516218867294,139
254,WS_SEND_END,1516218867294,139
254,WS_RECV_START,1516218867294,140
254,WS_RECV_END,1516218867439,140
254,PLAYER_SLEEPBEFORE_START,1516218867439,141
254,PLAYER_SLEEPBEFORE_END,1516218868094,141
254,WS_SEND_START,1516218868094,141
254,WS_SEND_END,1516218868094,141
254,WS_RECV_START,1516218868094,142
254,WS_RECV_END,1516218868379,142
254,PLAYER_SLEEPBEFORE_START,1516218868379,143
254,PLAYER_SLEEPBEFORE_END,1516218868436,143
254,WS_SEND_START,1516218868436,143
254,WS_SEND_END,1516218868436,143
254,WS_RECV_START,1516218868436,144
254,WS_RECV_END,1516218868769,144
254,PLAYER_SLEEPBEFORE_START,1516218868769,145
254,PLAYER_SLEEPBEFORE_END,1516218884831,145
254,REQ_START,1516218884831,145
254,REQ_END,1516218884839,145
254,PLAYER_SLEEPBEFORE_START,1516218884839,146
254,PLAYER_SLEEPBEFORE_END,1516218893717,146
254,WS_SEND_START,1516218893717,146
254,WS_SEND_END,1516218893717,146
254,WS_RECV_START,1516218893717,147
254,WS_RECV_END,1516218893958,147
254,PLAYER_SLEEPBEFORE_START,1516218893958,148
254,PLAYER_SLEEPBEFORE_END,1516218915880,148
254,WS_SEND_START,1516218915880,148
254,WS_SEND_END,1516218915880,148
254,PLAYER_SLEEPBEFORE_START,1516218915880,149
254,PLAYER_SLEEPBEFORE_END,1516218918309,149
254,WS_SEND_START,1516218918309,149
254,WS_SEND_END,1516218918309,149
254,WS_RECV_START,1516218918309,150
254,WS_RECV_END,1516218918443,150
254,PLAYER_SLEEPBEFORE_START,1516218918443,151
254,PLAYER_SLEEPBEFORE_END,1516218918653,151
254,WS_SEND_START,1516218918653,151
254,WS_SEND_END,1516218918653,151
254,WS_RECV_START,1516218918653,152
254,WS_RECV_END,1516218918970,152
254,PLAYER_SLEEPBEFORE_START,1516218918970,153
254,PLAYER_SLEEPBEFORE_END,1516218942897,153
254,WS_SEND_START,1516218942897,153
254,WS_SEND_END,1516218942897,153
254,WS_RECV_START,1516218942897,154
254,WS_RECV_END,1516218943029,154
254,PLAYER_SLEEPBEFORE_START,1516218943029,155
254,PLAYER_SLEEPBEFORE_END,1516218965587,155
254,WS_SEND_START,1516218965587,155
254,WS_SEND_END,1516218965587,155
254,PLAYER_SLEEPBEFORE_START,1516218965587,156
254,PLAYER_SLEEPBEFORE_END,1516218968861,156
254,WS_SEND_START,1516218968861,156
254,WS_SEND_END,1516218968861,156
254,WS_RECV_START,1516218968861,157
254,WS_RECV_END,1516218968930,157
254,PLAYER_SLEEPBEFORE_START,1516218968930,158
254,PLAYER_SLEEPBEFORE_END,1516218968940,158
254,WS_SEND_START,1516218968940,158
254,WS_SEND_END,1516218968940,158
254,WS_RECV_START,1516218968940,159
254,WS_RECV_END,1516218968984,159
254,PLAYER_SLEEPBEFORE_START,1516218968984,160
254,PLAYER_SLEEPBEFORE_END,1516218969159,160
254,WS_SEND_START,1516218969159,160
254,WS_SEND_END,1516218969159,160
254,WS_RECV_START,1516218969159,161
254,WS_RECV_END,1516218969463,161
254,PLAYER_SLEEPBEFORE_START,1516218969463,162
254,PLAYER_SLEEPBEFORE_END,1516218969489,162
254,WS_SEND_START,1516218969489,162
254,WS_SEND_END,1516218969489,162
254,WS_RECV_START,1516218969489,163
254,WS_RECV_END,1516218969642,163
254,PLAYER_SLEEPBEFORE_START,1516218969642,164
254,PLAYER_SLEEPBEFORE_END,1516218990454,164
254,WS_SEND_START,1516218990454,164
254,WS_SEND_END,1516218990454,164
254,WS_RECV_START,1516218990454,165
254,WS_RECV_END,1516218992682,165
254,PLAYER_SLEEPBEFORE_START,1516218992682,166
254,PLAYER_SLEEPBEFORE_END,1516219015137,166
254,WS_SEND_START,1516219015137,166
254,WS_SEND_END,1516219015137,166
254,WS_RECV_START,1516219015137,167
254,WS_RECV_END,1516219016889,167
254,PLAYER_SLEEPBEFORE_START,1516219016889,168
254,PLAYER_SLEEPBEFORE_END,1516219044250,168
254,WS_SEND_START,1516219044250,168
254,WS_SEND_END,1516219044250,168
254,WS_RECV_START,1516219044250,169
254,WS_RECV_END,1516219048183,169
254,PLAYER_SLEEPBEFORE_START,1516219048183,170
254,PLAYER_SLEEPBEFORE_END,1516219048192,170
254,WS_SEND_START,1516219048192,170
254,WS_SEND_END,1516219048192,170
254,WS_RECV_START,1516219048192,171
254,WS_RECV_END,1516219050567,171
254,PLAYER_SLEEPBEFORE_START,1516219050567,172
254,PLAYER_SLEEPBEFORE_END,1516219050937,172
254,WS_SEND_START,1516219050937,172
254,WS_SEND_END,1516219050937,172
254,WS_RECV_START,1516219050937,173
254,WS_RECV_END,1516219053018,173
254,PLAYER_SLEEPBEFORE_START,1516219053018,174
254,PLAYER_SLEEPBEFORE_END,1516219053059,174
254,WS_SEND_START,1516219053059,174
254,WS_SEND_END,1516219053060,174
254,WS_RECV_START,1516219053060,175
254,WS_RECV_END,1516219057308,175
254,PLAYER_SLEEPBEFORE_START,1516219057308,176
254,PLAYER_SLEEPBEFORE_END,1516219079069,176
254,WS_SEND_START,1516219079069,176
254,WS_SEND_END,1516219079069,176
254,PLAYER_SLEEPBEFORE_START,1516219079069,177
254,PLAYER_SLEEPBEFORE_END,1516219081587,177
254,WS_SEND_START,1516219081587,177
254,WS_SEND_END,1516219081587,177
254,WS_RECV_START,1516219081587,178
254,WS_RECV_END,1516219083671,178
254,PLAYER_SLEEPBEFORE_START,1516219083671,179
254,PLAYER_SLEEPBEFORE_END,1516219106011,179
254,WS_SEND_START,1516219106011,179
254,WS_SEND_END,1516219106011,179
254,WS_RECV_START,1516219106011,180
254,WS_RECV_END,1516219108296,180
254,PLAYER_SLEEPBEFORE_START,1516219108296,181
254,PLAYER_SLEEPBEFORE_END,1516219108740,181
254,WS_SEND_START,1516219108740,181
254,WS_SEND_END,1516219108740,181
254,WS_RECV_START,1516219108740,182
254,WS_RECV_END,1516219110702,182
254,PLAYER_SLEEPBEFORE_START,1516219110702,183
254,PLAYER_SLEEPBEFORE_END,1516219111225,183
254,WS_SEND_START,1516219111225,183
254,WS_SEND_END,1516219111225,183
254,WS_RECV_START,1516219111225,184
254,WS_RECV_END,1516219112289,184
254,PLAYER_SLEEPBEFORE_START,1516219112289,185
254,PLAYER_SLEEPBEFORE_END,1516219112557,185
254,WS_SEND_START,1516219112557,185
254,WS_SEND_END,1516219112557,185
254,WS_RECV_START,1516219112557,186
254,WS_RECV_END,1516219113784,186
254,PLAYER_SLEEPBEFORE_START,1516219113784,187
254,PLAYER_SLEEPBEFORE_END,1516219136284,187
254,WS_SEND_START,1516219136284,187
254,WS_SEND_END,1516219136284,187
254,WS_RECV_START,1516219136284,188
254,WS_RECV_END,1516219136923,188
254,PLAYER_SLEEPBEFORE_START,1516219136923,189
254,PLAYER_SLEEPBEFORE_END,1516219143162,189
254,WS_SEND_START,1516219143162,189
254,WS_SEND_END,1516219143162,189
254,WS_RECV_START,1516219143162,190
254,WS_RECV_END,1516219143753,190
254,PLAYER_SLEEPBEFORE_START,1516219143753,191
254,PLAYER_SLEEPBEFORE_END,1516219145669,191
254,WS_SEND_START,1516219145669,191
254,WS_SEND_END,1516219145669,191
254,WS_RECV_START,1516219145669,192
254,WS_RECV_END,1516219146116,192
254,PLAYER_SLEEPBEFORE_START,1516219146116,193
254,PLAYER_SLEEPBEFORE_END,1516219146245,193
254,WS_SEND_START,1516219146245,193
254,WS_SEND_END,1516219146245,193
254,WS_RECV_START,1516219146245,194
254,WS_RECV_END,1516219146788,194
254,PLAYER_SLEEPBEFORE_START,1516219146788,195
254,PLAYER_SLEEPBEFORE_END,1516219148543,195
254,WS_SEND_START,1516219148543,195
254,WS_SEND_END,1516219148543,195
254,WS_RECV_START,1516219148543,196
254,WS_RECV_END,1516219148794,196
254,PLAYER_SLEEPBEFORE_START,1516219148794,197
254,PLAYER_SLEEPBEFORE_END,1516219150598,197
254,WS_SEND_START,1516219150598,197
254,WS_SEND_END,1516219150598,197
254,WS_RECV_START,1516219150598,198
254,WS_RECV_END,1516219150862,198
254,PLAYER_SLEEPBEFORE_START,1516219150862,199
254,PLAYER_SLEEPBEFORE_END,1516219162716,199
254,WS_SEND_START,1516219162716,199
254,WS_SEND_END,1516219162716,199
254,PLAYER_SLEEPBEFORE_START,1516219162716,200
254,PLAYER_SLEEPBEFORE_END,1516219166804,200
254,WS_SEND_START,1516219166804,200
254,WS_SEND_END,1516219166804,200
254,WS_RECV_START,1516219166804,201
254,WS_RECV_END,1516219167385,201
254,PLAYER_SLEEPBEFORE_START,1516219167385,202
254,PLAYER_SLEEPBEFORE_END,1516219167399,202
254,WS_SEND_START,1516219167399,202
254,WS_SEND_END,1516219167399,202
254,WS_RECV_START,1516219167399,203
254,WS_RECV_END,1516219167885,203
254,PLAYER_SLEEPBEFORE_START,1516219167885,204
254,PLAYER_SLEEPBEFORE_END,1516219187534,204
254,WS_SEND_START,1516219187534,204
254,WS_SEND_END,1516219187534,204
254,PLAYER_SLEEPBEFORE_START,1516219187534,205
254,PLAYER_SLEEPBEFORE_END,1516219191432,205
254,WS_SEND_START,1516219191432,205
254,WS_SEND_END,1516219191432,205
254,WS_RECV_START,1516219191432,206
254,WS_RECV_END,1516219191562,206
254,PLAYER_SLEEPBEFORE_START,1516219191562,207
254,PLAYER_SLEEPBEFORE_END,1516219208493,207
254,REQ_START,1516219208493,207
254,REQ_END,1516219208500,207
254,PLAYER_SLEEPBEFORE_START,1516219208500,208
254,PLAYER_SLEEPBEFORE_END,1516219215352,208
254,WS_CLOSE_START,1516219215352,208
254,WS_CLOSE_END,1516219215352,208
254,PLAYER_DONE,1516219215352
