# --sessions 360 --app-url=http://shinyloadtest.rstudioservices.com/cran_explorer --output-dir test360 --overwrite-output --log-level warn --start-interval 500 15min.log
thread_id,event,timestamp,input_line_number,comment
257,PLAYER_SESSION_CREATE,1516218150775
257,PLAYER_START_INTERVAL_START,1516218150775
257,PLAYER_START_INTERVAL_END,1516218279275
257,REQ_HOME_START,1516218279275,2
257,REQ_HOME_END,1516218279391,2
257,REQ_START,1516218279391,3
257,REQ_END,1516218279491,3
257,REQ_START,1516218279491,4
257,REQ_END,1516218279540,4
257,REQ_START,1516218279540,5
257,REQ_END,1516218279729,5
257,REQ_START,1516218279729,6
257,REQ_END,1516218280313,6
257,REQ_START,1516218280313,7
257,REQ_END,1516218280741,7
257,REQ_START,1516218280741,8
257,REQ_END,1516218280792,8
257,REQ_START,1516218280792,9
257,REQ_END,1516218281258,9
257,REQ_START,1516218281258,10
257,REQ_END,1516218281266,10
257,REQ_START,1516218281266,11
257,REQ_END,1516218282567,11
257,REQ_START,1516218282567,12
257,REQ_END,1516218282577,12
257,REQ_START,1516218282577,13
257,REQ_END,1516218283257,13
257,REQ_START,1516218283257,14
257,REQ_END,1516218283280,14
257,REQ_START,1516218283280,15
257,REQ_END,1516218283321,15
257,REQ_TOK_START,1516218283321,16
257,REQ_TOK_END,1516218283329,16
257,REQ_SINF_START,1516218283329,17
257,REQ_SINF_END,1516218283336,17
257,WS_OPEN_START,1516218283336,18
257,WS_OPEN_END,1516218283342,18
257,REQ_START,1516218283342,19
257,REQ_END,1516218283366,19
257,WS_RECV_START,1516218283366,20
257,WS_RECV_END,1516218283366,20
257,PLAYER_SLEEPBEFORE_START,1516218283366,21
257,PLAYER_SLEEPBEFORE_END,1516218283371,21
257,WS_SEND_START,1516218283371,21
257,WS_SEND_END,1516218283371,21
257,PLAYER_SLEEPBEFORE_START,1516218283371,22
257,PLAYER_SLEEPBEFORE_END,1516218283372,22
257,WS_SEND_START,1516218283372,22
257,WS_SEND_END,1516218283372,22
257,WS_RECV_INIT_START,1516218283372,23
257,WS_RECV_INIT_END,1516218283741,23
257,WS_RECV_START,1516218283741,24
257,WS_RECV_END,1516218283850,24
257,PLAYER_SLEEPBEFORE_START,1516218283850,25
257,PLAYER_SLEEPBEFORE_END,1516218283857,25
257,REQ_START,1516218283857,25
257,REQ_END,1516218284249,25
257,PLAYER_SLEEPBEFORE_START,1516218284249,26
257,PLAYER_SLEEPBEFORE_END,1516218284250,26
257,REQ_START,1516218284250,26
257,REQ_END,1516218284282,26
257,PLAYER_SLEEPBEFORE_START,1516218284282,27
257,PLAYER_SLEEPBEFORE_END,1516218284285,27
257,REQ_START,1516218284285,27
257,REQ_END,1516218284580,27
257,PLAYER_SLEEPBEFORE_START,1516218284580,28
257,PLAYER_SLEEPBEFORE_END,1516218284865,28
257,REQ_START,1516218284865,28
257,REQ_END,1516218285360,28
257,PLAYER_SLEEPBEFORE_START,1516218285360,29
257,PLAYER_SLEEPBEFORE_END,1516218285535,29
257,WS_SEND_START,1516218285535,29
257,WS_SEND_END,1516218285535,29
257,WS_RECV_START,1516218285535,30
257,WS_RECV_END,1516218285809,30
257,PLAYER_SLEEPBEFORE_START,1516218285809,31
257,PLAYER_SLEEPBEFORE_END,1516218285820,31
257,REQ_START,1516218285820,31
257,REQ_END,1516218286371,31
257,PLAYER_SLEEPBEFORE_START,1516218286371,32
257,PLAYER_SLEEPBEFORE_END,1516218314516,32
257,WS_SEND_START,1516218314516,32
257,WS_SEND_END,1516218314516,32
257,WS_RECV_START,1516218314516,33
257,WS_RECV_END,1516218315308,33
257,PLAYER_SLEEPBEFORE_START,1516218315308,34
257,PLAYER_SLEEPBEFORE_END,1516218341219,34
257,WS_SEND_START,1516218341219,34
257,WS_SEND_END,1516218341219,34
257,WS_RECV_START,1516218341219,35
257,WS_RECV_END,1516218341663,35
257,PLAYER_SLEEPBEFORE_START,1516218341663,36
257,PLAYER_SLEEPBEFORE_END,1516218341672,36
257,WS_SEND_START,1516218341672,36
257,WS_SEND_END,1516218341672,36
257,WS_RECV_START,1516218341672,37
257,WS_RECV_END,1516218341961,37
257,PLAYER_SLEEPBEFORE_START,1516218341961,38
257,PLAYER_SLEEPBEFORE_END,1516218345156,38
257,WS_SEND_START,1516218345156,38
257,WS_SEND_END,1516218345156,38
257,WS_RECV_START,1516218345156,39
257,WS_RECV_END,1516218345800,39
257,PLAYER_SLEEPBEFORE_START,1516218345800,40
257,PLAYER_SLEEPBEFORE_END,1516218345846,40
257,WS_SEND_START,1516218345846,40
257,WS_SEND_END,1516218345846,40
257,WS_RECV_START,1516218345846,41
257,WS_RECV_END,1516218346137,41
257,PLAYER_SLEEPBEFORE_START,1516218346137,42
257,PLAYER_SLEEPBEFORE_END,1516218364272,42
257,WS_SEND_START,1516218364272,42
257,WS_SEND_END,1516218364272,42
257,WS_RECV_START,1516218364272,43
257,WS_RECV_END,1516218364361,43
257,PLAYER_SLEEPBEFORE_START,1516218364361,44
257,PLAYER_SLEEPBEFORE_END,1516218364373,44
257,WS_SEND_START,1516218364373,44
257,WS_SEND_END,1516218364373,44
257,WS_RECV_START,1516218364373,45
257,WS_RECV_END,1516218364413,45
257,PLAYER_SLEEPBEFORE_START,1516218364413,46
257,PLAYER_SLEEPBEFORE_END,1516218365673,46
257,WS_SEND_START,1516218365673,46
257,WS_SEND_END,1516218365673,46
257,WS_RECV_START,1516218365673,47
257,WS_RECV_END,1516218366232,47
257,PLAYER_SLEEPBEFORE_START,1516218366232,48
257,PLAYER_SLEEPBEFORE_END,1516218367552,48
257,WS_SEND_START,1516218367552,48
257,WS_SEND_END,1516218367552,48
257,WS_RECV_START,1516218367552,49
257,WS_RECV_END,1516218367762,49
257,PLAYER_SLEEPBEFORE_START,1516218367762,50
257,PLAYER_SLEEPBEFORE_END,1516218367786,50
257,WS_SEND_START,1516218367786,50
257,WS_SEND_END,1516218367786,50
257,WS_RECV_START,1516218367786,51
257,WS_RECV_END,1516218368057,51
257,PLAYER_SLEEPBEFORE_START,1516218368057,52
257,PLAYER_SLEEPBEFORE_END,1516218390621,52
257,WS_SEND_START,1516218390621,52
257,WS_SEND_END,1516218390621,52
257,WS_RECV_START,1516218390621,53
257,WS_RECV_END,1516218390784,53
257,PLAYER_SLEEPBEFORE_START,1516218390784,54
257,PLAYER_SLEEPBEFORE_END,1516218412087,54
257,WS_SEND_START,1516218412087,54
257,WS_SEND_END,1516218412087,54
257,PLAYER_SLEEPBEFORE_START,1516218412087,55
257,PLAYER_SLEEPBEFORE_END,1516218414028,55
257,WS_SEND_START,1516218414028,55
257,WS_SEND_END,1516218414028,55
257,WS_RECV_START,1516218414028,56
257,WS_RECV_END,1516218414243,56
257,PLAYER_SLEEPBEFORE_START,1516218414243,57
257,PLAYER_SLEEPBEFORE_END,1516218437115,57
257,WS_SEND_START,1516218437115,57
257,WS_SEND_END,1516218437115,57
257,WS_RECV_START,1516218437115,58
257,WS_RECV_END,1516218437870,58
257,PLAYER_SLEEPBEFORE_START,1516218437870,59
257,PLAYER_SLEEPBEFORE_END,1516218440197,59
257,WS_SEND_START,1516218440197,59
257,WS_SEND_END,1516218440197,59
257,WS_RECV_START,1516218440197,60
257,WS_RECV_END,1516218440661,60
257,PLAYER_SLEEPBEFORE_START,1516218440661,61
257,PLAYER_SLEEPBEFORE_END,1516218444252,61
257,WS_SEND_START,1516218444252,61
257,WS_SEND_END,1516218444252,61
257,WS_RECV_START,1516218444252,62
257,WS_RECV_END,1516218444522,62
257,PLAYER_SLEEPBEFORE_START,1516218444522,63
257,PLAYER_SLEEPBEFORE_END,1516218463784,63
257,WS_SEND_START,1516218463784,63
257,WS_SEND_END,1516218463784,63
257,WS_RECV_START,1516218463784,64
257,WS_RECV_END,1516218463859,64
257,PLAYER_SLEEPBEFORE_START,1516218463859,65
257,PLAYER_SLEEPBEFORE_END,1516218490676,65
257,WS_SEND_START,1516218490676,65
257,WS_SEND_END,1516218490676,65
257,WS_RECV_START,1516218490676,66
257,WS_RECV_END,1516218490889,66
257,PLAYER_SLEEPBEFORE_START,1516218490889,67
257,PLAYER_SLEEPBEFORE_END,1516218492396,67
257,WS_SEND_START,1516218492396,67
257,WS_SEND_END,1516218492396,67
257,WS_RECV_START,1516218492396,68
257,WS_RECV_END,1516218493122,68
257,PLAYER_SLEEPBEFORE_START,1516218493122,69
257,PLAYER_SLEEPBEFORE_END,1516218515120,69
257,WS_SEND_START,1516218515120,69
257,WS_SEND_END,1516218515120,69
257,WS_RECV_START,1516218515120,70
257,WS_RECV_END,1516218516730,70
257,PLAYER_SLEEPBEFORE_START,1516218516731,71
257,PLAYER_SLEEPBEFORE_END,1516218541506,71
257,WS_SEND_START,1516218541506,71
257,WS_SEND_END,1516218541506,71
257,PLAYER_SLEEPBEFORE_START,1516218541506,72
257,PLAYER_SLEEPBEFORE_END,1516218544113,72
257,WS_SEND_START,1516218544113,72
257,WS_SEND_END,1516218544113,72
257,WS_RECV_START,1516218544113,73
257,WS_RECV_END,1516218545463,73
257,PLAYER_SLEEPBEFORE_START,1516218545463,74
257,PLAYER_SLEEPBEFORE_END,1516218545472,74
257,WS_SEND_START,1516218545472,74
257,WS_SEND_END,1516218545472,74
257,WS_RECV_START,1516218545472,75
257,WS_RECV_END,1516218545856,75
257,PLAYER_SLEEPBEFORE_START,1516218545856,76
257,PLAYER_SLEEPBEFORE_END,1516218547362,76
257,WS_SEND_START,1516218547363,76
257,WS_SEND_END,1516218547363,76
257,WS_RECV_START,1516218547363,77
257,WS_RECV_END,1516218548616,77
257,PLAYER_SLEEPBEFORE_START,1516218548616,78
257,PLAYER_SLEEPBEFORE_END,1516218549484,78
257,WS_SEND_START,1516218549484,78
257,WS_SEND_END,1516218549484,78
257,WS_RECV_START,1516218549484,79
257,WS_RECV_END,1516218550493,79
257,PLAYER_SLEEPBEFORE_START,1516218550493,80
257,PLAYER_SLEEPBEFORE_END,1516218558159,80
257,WS_SEND_START,1516218558159,80
257,WS_SEND_END,1516218558159,80
257,WS_RECV_START,1516218558159,81
257,WS_RECV_END,1516218558834,81
257,PLAYER_SLEEPBEFORE_START,1516218558834,82
257,PLAYER_SLEEPBEFORE_END,1516218559936,82
257,WS_SEND_START,1516218559936,82
257,WS_SEND_END,1516218559936,82
257,WS_RECV_START,1516218559936,83
257,WS_RECV_END,1516218560747,83
257,PLAYER_SLEEPBEFORE_START,1516218560747,84
257,PLAYER_SLEEPBEFORE_END,1516218561694,84
257,WS_SEND_START,1516218561694,84
257,WS_SEND_END,1516218561694,84
257,WS_RECV_START,1516218561694,85
257,WS_RECV_END,1516218562346,85
257,PLAYER_SLEEPBEFORE_START,1516218562346,86
257,PLAYER_SLEEPBEFORE_END,1516218566518,86
257,WS_SEND_START,1516218566518,86
257,WS_SEND_END,1516218566518,86
257,WS_RECV_START,1516218566518,87
257,WS_RECV_END,1516218567048,87
257,PLAYER_SLEEPBEFORE_START,1516218567048,88
257,PLAYER_SLEEPBEFORE_END,1516218567056,88
257,WS_SEND_START,1516218567056,88
257,WS_SEND_END,1516218567056,88
257,WS_RECV_START,1516218567056,89
257,WS_RECV_END,1516218567378,89
257,PLAYER_SLEEPBEFORE_START,1516218567378,90
257,PLAYER_SLEEPBEFORE_END,1516218594575,90
257,REQ_START,1516218594575,90
257,REQ_END,1516218594583,90
257,PLAYER_SLEEPBEFORE_START,1516218594583,91
257,PLAYER_SLEEPBEFORE_END,1516218602472,91
257,WS_SEND_START,1516218602472,91
257,WS_SEND_END,1516218602472,91
257,WS_RECV_START,1516218602472,92
257,WS_RECV_END,1516218602715,92
257,PLAYER_SLEEPBEFORE_START,1516218602715,93
257,PLAYER_SLEEPBEFORE_END,1516218602730,93
257,WS_SEND_START,1516218602730,93
257,WS_SEND_END,1516218602730,93
257,WS_RECV_START,1516218602730,94
257,WS_RECV_END,1516218602934,94
257,PLAYER_SLEEPBEFORE_START,1516218602934,95
257,PLAYER_SLEEPBEFORE_END,1516218626489,95
257,WS_SEND_START,1516218626489,95
257,WS_SEND_END,1516218626489,95
257,WS_RECV_START,1516218626489,96
257,WS_RECV_END,1516218627244,96
257,PLAYER_SLEEPBEFORE_START,1516218627244,97
257,PLAYER_SLEEPBEFORE_END,1516218649684,97
257,WS_SEND_START,1516218649684,97
257,WS_SEND_END,1516218649684,97
257,WS_RECV_START,1516218649684,98
257,WS_RECV_END,1516218650487,98
257,PLAYER_SLEEPBEFORE_START,1516218650487,99
257,PLAYER_SLEEPBEFORE_END,1516218650508,99
257,WS_SEND_START,1516218650508,99
257,WS_SEND_END,1516218650508,99
257,WS_RECV_START,1516218650508,100
257,WS_RECV_END,1516218650695,100
257,PLAYER_SLEEPBEFORE_START,1516218650695,101
257,PLAYER_SLEEPBEFORE_END,1516218674254,101
257,WS_SEND_START,1516218674254,101
257,WS_SEND_END,1516218674254,101
257,WS_RECV_START,1516218674254,102
257,WS_RECV_END,1516218677291,102
257,PLAYER_SLEEPBEFORE_START,1516218677291,103
257,PLAYER_SLEEPBEFORE_END,1516218700916,103
257,WS_SEND_START,1516218700916,103
257,WS_SEND_END,1516218700916,103
257,WS_RECV_START,1516218700916,104
257,WS_RECV_END,1516218701088,104
257,PLAYER_SLEEPBEFORE_START,1516218701088,105
257,PLAYER_SLEEPBEFORE_END,1516218726465,105
257,WS_SEND_START,1516218726465,105
257,WS_SEND_END,1516218726465,105
257,WS_RECV_START,1516218726465,106
257,WS_RECV_END,1516218728922,106
257,PLAYER_SLEEPBEFORE_START,1516218728922,107
257,PLAYER_SLEEPBEFORE_END,1516218752345,107
257,WS_SEND_START,1516218752345,107
257,WS_SEND_END,1516218752345,107
257,WS_RECV_START,1516218752345,108
257,WS_RECV_END,1516218752668,108
257,PLAYER_SLEEPBEFORE_START,1516218752668,109
257,PLAYER_SLEEPBEFORE_END,1516218752677,109
257,WS_SEND_START,1516218752677,109
257,WS_SEND_END,1516218752677,109
257,WS_RECV_START,1516218752677,110
257,WS_RECV_END,1516218753078,110
257,PLAYER_SLEEPBEFORE_START,1516218753078,111
257,PLAYER_SLEEPBEFORE_END,1516218754037,111
257,WS_SEND_START,1516218754037,111
257,WS_SEND_END,1516218754037,111
257,WS_RECV_START,1516218754037,112
257,WS_RECV_END,1516218754423,112
257,PLAYER_SLEEPBEFORE_START,1516218754423,113
257,PLAYER_SLEEPBEFORE_END,1516218754985,113
257,WS_SEND_START,1516218754985,113
257,WS_SEND_END,1516218754985,113
257,WS_RECV_START,1516218754985,114
257,WS_RECV_END,1516218755334,114
257,PLAYER_SLEEPBEFORE_START,1516218755334,115
257,PLAYER_SLEEPBEFORE_END,1516218755344,115
257,WS_SEND_START,1516218755344,115
257,WS_SEND_END,1516218755344,115
257,WS_RECV_START,1516218755344,116
257,WS_RECV_END,1516218756060,116
257,PLAYER_SLEEPBEFORE_START,1516218756060,117
257,PLAYER_SLEEPBEFORE_END,1516218776420,117
257,WS_SEND_START,1516218776420,117
257,WS_SEND_END,1516218776420,117
257,PLAYER_SLEEPBEFORE_START,1516218776420,118
257,PLAYER_SLEEPBEFORE_END,1516218780172,118
257,WS_SEND_START,1516218780172,118
257,WS_SEND_END,1516218780172,118
257,WS_RECV_START,1516218780172,119
257,WS_RECV_END,1516218780786,119
257,PLAYER_SLEEPBEFORE_START,1516218780786,120
257,PLAYER_SLEEPBEFORE_END,1516218781774,120
257,WS_SEND_START,1516218781774,120
257,WS_SEND_END,1516218781774,120
257,WS_RECV_START,1516218781774,121
257,WS_RECV_END,1516218786992,121
257,PLAYER_SLEEPBEFORE_START,1516218786992,122
257,PLAYER_SLEEPBEFORE_END,1516218788177,122
257,WS_SEND_START,1516218788177,122
257,WS_SEND_END,1516218788177,122
257,WS_RECV_START,1516218788177,123
257,WS_RECV_END,1516218794034,123
257,PLAYER_SLEEPBEFORE_START,1516218794034,124
257,PLAYER_SLEEPBEFORE_END,1516218818439,124
257,WS_SEND_START,1516218818439,124
257,WS_SEND_END,1516218818439,124
257,WS_RECV_START,1516218818439,125
257,WS_RECV_END,1516218821403,125
257,PLAYER_SLEEPBEFORE_START,1516218821403,126
257,PLAYER_SLEEPBEFORE_END,1516218841915,126
257,WS_SEND_START,1516218841915,126
257,WS_SEND_END,1516218841915,126
257,PLAYER_SLEEPBEFORE_START,1516218841915,127
257,PLAYER_SLEEPBEFORE_END,1516218844969,127
257,WS_SEND_START,1516218844969,127
257,WS_SEND_END,1516218844969,127
257,WS_RECV_START,1516218844969,128
257,WS_RECV_END,1516218846281,128
257,PLAYER_SLEEPBEFORE_START,1516218846281,129
257,PLAYER_SLEEPBEFORE_END,1516218846301,129
257,WS_SEND_START,1516218846301,129
257,WS_SEND_END,1516218846301,129
257,WS_RECV_START,1516218846301,130
257,WS_RECV_END,1516218849220,130
257,PLAYER_SLEEPBEFORE_START,1516218849220,131
257,PLAYER_SLEEPBEFORE_END,1516218870844,131
257,WS_SEND_START,1516218870844,131
257,WS_SEND_END,1516218870844,131
257,PLAYER_SLEEPBEFORE_START,1516218870844,132
257,PLAYER_SLEEPBEFORE_END,1516218873924,132
257,WS_SEND_START,1516218873924,132
257,WS_SEND_END,1516218873924,132
257,WS_RECV_START,1516218873924,133
257,WS_RECV_END,1516218875809,133
257,PLAYER_SLEEPBEFORE_START,1516218875809,134
257,PLAYER_SLEEPBEFORE_END,1516218897026,134
257,WS_SEND_START,1516218897026,134
257,WS_SEND_END,1516218897026,134
257,PLAYER_SLEEPBEFORE_START,1516218897026,135
257,PLAYER_SLEEPBEFORE_END,1516218900216,135
257,WS_SEND_START,1516218900216,135
257,WS_SEND_END,1516218900216,135
257,WS_RECV_START,1516218900216,136
257,WS_RECV_END,1516218901085,136
257,PLAYER_SLEEPBEFORE_START,1516218901085,137
257,PLAYER_SLEEPBEFORE_END,1516218901092,137
257,WS_SEND_START,1516218901092,137
257,WS_SEND_END,1516218901092,137
257,WS_RECV_START,1516218901092,138
257,WS_RECV_END,1516218901867,138
257,PLAYER_SLEEPBEFORE_START,1516218901867,139
257,PLAYER_SLEEPBEFORE_END,1516218902557,139
257,WS_SEND_START,1516218902557,139
257,WS_SEND_END,1516218902557,139
257,WS_RECV_START,1516218902557,140
257,WS_RECV_END,1516218903644,140
257,PLAYER_SLEEPBEFORE_START,1516218903644,141
257,PLAYER_SLEEPBEFORE_END,1516218904299,141
257,WS_SEND_START,1516218904299,141
257,WS_SEND_END,1516218904299,141
257,WS_RECV_START,1516218904299,142
257,WS_RECV_END,1516218905293,142
257,PLAYER_SLEEPBEFORE_START,1516218905293,143
257,PLAYER_SLEEPBEFORE_END,1516218905350,143
257,WS_SEND_START,1516218905350,143
257,WS_SEND_END,1516218905350,143
257,WS_RECV_START,1516218905350,144
257,WS_RECV_END,1516218906640,144
257,PLAYER_SLEEPBEFORE_START,1516218906640,145
257,PLAYER_SLEEPBEFORE_END,1516218922702,145
257,REQ_START,1516218922702,145
257,REQ_END,1516218922710,145
257,PLAYER_SLEEPBEFORE_START,1516218922710,146
257,PLAYER_SLEEPBEFORE_END,1516218931587,146
257,WS_SEND_START,1516218931587,146
257,WS_SEND_END,1516218931587,146
257,WS_RECV_START,1516218931587,147
257,WS_RECV_END,1516218932846,147
257,PLAYER_SLEEPBEFORE_START,1516218932846,148
257,PLAYER_SLEEPBEFORE_END,1516218954769,148
257,WS_SEND_START,1516218954769,148
257,WS_SEND_END,1516218954769,148
257,PLAYER_SLEEPBEFORE_START,1516218954769,149
257,PLAYER_SLEEPBEFORE_END,1516218957197,149
257,WS_SEND_START,1516218957197,149
257,WS_SEND_END,1516218957197,149
257,WS_RECV_START,1516218957197,150
257,WS_RECV_END,1516218957798,150
257,PLAYER_SLEEPBEFORE_START,1516218957798,151
257,PLAYER_SLEEPBEFORE_END,1516218958009,151
257,WS_SEND_START,1516218958009,151
257,WS_SEND_END,1516218958009,151
257,WS_RECV_START,1516218958009,152
257,WS_RECV_END,1516218959231,152
257,PLAYER_SLEEPBEFORE_START,1516218959231,153
257,PLAYER_SLEEPBEFORE_END,1516218983158,153
257,WS_SEND_START,1516218983158,153
257,WS_SEND_END,1516218983158,153
257,WS_RECV_START,1516218983158,154
257,WS_RECV_END,1516218984419,154
257,PLAYER_SLEEPBEFORE_START,1516218984419,155
257,PLAYER_SLEEPBEFORE_END,1516219006977,155
257,WS_SEND_START,1516219006977,155
257,WS_SEND_END,1516219006977,155
257,PLAYER_SLEEPBEFORE_START,1516219006977,156
257,PLAYER_SLEEPBEFORE_END,1516219010252,156
257,WS_SEND_START,1516219010252,156
257,WS_SEND_END,1516219010252,156
257,WS_RECV_START,1516219010252,157
257,WS_RECV_END,1516219011745,157
257,PLAYER_SLEEPBEFORE_START,1516219011745,158
257,PLAYER_SLEEPBEFORE_END,1516219011756,158
257,WS_SEND_START,1516219011756,158
257,WS_SEND_END,1516219011756,158
257,WS_RECV_START,1516219011756,159
257,WS_RECV_END,1516219013274,159
257,PLAYER_SLEEPBEFORE_START,1516219013275,160
257,PLAYER_SLEEPBEFORE_END,1516219013450,160
257,WS_SEND_START,1516219013450,160
257,WS_SEND_END,1516219013450,160
257,WS_RECV_START,1516219013450,161
257,WS_RECV_END,1516219014812,161
257,PLAYER_SLEEPBEFORE_START,1516219014812,162
257,PLAYER_SLEEPBEFORE_END,1516219014838,162
257,WS_SEND_START,1516219014838,162
257,WS_SEND_END,1516219014838,162
257,WS_RECV_START,1516219014838,163
257,WS_RECV_END,1516219015989,163
257,PLAYER_SLEEPBEFORE_START,1516219015989,164
257,PLAYER_SLEEPBEFORE_END,1516219036801,164
257,WS_SEND_START,1516219036801,164
257,WS_SEND_END,1516219036801,164
257,WS_RECV_START,1516219036801,165
257,WS_RECV_END,1516219042555,165
257,PLAYER_SLEEPBEFORE_START,1516219042555,166
257,PLAYER_SLEEPBEFORE_END,1516219065010,166
257,WS_SEND_START,1516219065010,166
257,WS_SEND_END,1516219065010,166
257,WS_RECV_START,1516219065010,167
257,WS_RECV_END,1516219071014,167
257,PLAYER_SLEEPBEFORE_START,1516219071014,168
257,PLAYER_SLEEPBEFORE_END,1516219098371,168
257,WS_SEND_START,1516219098371,168
257,WS_SEND_END,1516219098371,168
257,WS_RECV_START,1516219098371,169
257,WS_RECV_END,1516219105149,169
257,PLAYER_SLEEPBEFORE_START,1516219105149,170
257,PLAYER_SLEEPBEFORE_END,1516219105163,170
257,WS_SEND_START,1516219105163,170
257,WS_SEND_END,1516219105163,170
257,WS_RECV_START,1516219105163,171
257,WS_RECV_END,1516219110007,171
257,PLAYER_SLEEPBEFORE_START,1516219110007,172
257,PLAYER_SLEEPBEFORE_END,1516219110377,172
257,WS_SEND_START,1516219110377,172
257,WS_SEND_END,1516219110377,172
257,WS_RECV_START,1516219110377,173
257,WS_RECV_END,1516219114990,173
257,PLAYER_SLEEPBEFORE_START,1516219114990,174
257,PLAYER_SLEEPBEFORE_END,1516219115031,174
257,WS_SEND_START,1516219115031,174
257,WS_SEND_END,1516219115031,174
257,WS_RECV_START,1516219115031,175
257,WS_RECV_END,1516219120713,175
257,PLAYER_SLEEPBEFORE_START,1516219120713,176
257,PLAYER_SLEEPBEFORE_END,1516219142474,176
257,WS_SEND_START,1516219142474,176
257,WS_SEND_END,1516219142474,176
257,PLAYER_SLEEPBEFORE_START,1516219142474,177
257,PLAYER_SLEEPBEFORE_END,1516219144992,177
257,WS_SEND_START,1516219144992,177
257,WS_SEND_END,1516219144992,177
257,WS_RECV_START,1516219144992,178
257,WS_RECV_END,1516219150750,178
257,PLAYER_SLEEPBEFORE_START,1516219150750,179
257,PLAYER_SLEEPBEFORE_END,1516219173090,179
257,WS_SEND_START,1516219173090,179
257,WS_SEND_END,1516219173090,179
257,WS_RECV_START,1516219173090,180
257,WS_RECV_END,1516219177904,180
257,PLAYER_SLEEPBEFORE_START,1516219177904,181
257,PLAYER_SLEEPBEFORE_END,1516219178348,181
257,WS_SEND_START,1516219178348,181
257,WS_SEND_END,1516219178348,181
257,WS_RECV_START,1516219178348,182
257,WS_RECV_END,1516219180795,182
257,PLAYER_SLEEPBEFORE_START,1516219180795,183
257,PLAYER_SLEEPBEFORE_END,1516219181318,183
257,WS_SEND_START,1516219181318,183
257,WS_SEND_END,1516219181318,183
257,WS_RECV_START,1516219181318,184
257,WS_RECV_END,1516219184756,184
257,PLAYER_SLEEPBEFORE_START,1516219184756,185
257,PLAYER_SLEEPBEFORE_END,1516219185024,185
257,WS_SEND_START,1516219185024,185
257,WS_SEND_END,1516219185024,185
257,WS_RECV_START,1516219185024,186
257,WS_RECV_END,1516219187876,186
257,PLAYER_SLEEPBEFORE_START,1516219187876,187
257,PLAYER_SLEEPBEFORE_END,1516219210376,187
257,WS_SEND_START,1516219210376,187
257,WS_SEND_END,1516219210376,187
257,WS_RECV_START,1516219210376,188
257,WS_RECV_END,1516219213280,188
257,PLAYER_SLEEPBEFORE_START,1516219213280,189
257,PLAYER_SLEEPBEFORE_END,1516219219519,189
257,WS_SEND_START,1516219219519,189
257,WS_SEND_END,1516219219519,189
257,WS_RECV_START,1516219219519,190
257,WS_RECV_END,1516219220516,190
257,PLAYER_SLEEPBEFORE_START,1516219220516,191
257,PLAYER_SLEEPBEFORE_END,1516219222431,191
257,WS_SEND_START,1516219222431,191
257,WS_SEND_END,1516219222431,191
257,WS_RECV_START,1516219222431,192
257,WS_RECV_END,1516219223076,192
257,PLAYER_SLEEPBEFORE_START,1516219223076,193
257,PLAYER_SLEEPBEFORE_END,1516219223204,193
257,WS_SEND_START,1516219223204,193
257,WS_SEND_END,1516219223204,193
257,WS_RECV_START,1516219223204,194
257,WS_RECV_END,1516219223431,194
257,PLAYER_SLEEPBEFORE_START,1516219223431,195
257,PLAYER_SLEEPBEFORE_END,1516219225187,195
257,WS_SEND_START,1516219225187,195
257,WS_SEND_END,1516219225187,195
257,WS_RECV_START,1516219225187,196
257,WS_RECV_END,1516219225480,196
257,PLAYER_SLEEPBEFORE_START,1516219225480,197
257,PLAYER_SLEEPBEFORE_END,1516219227284,197
257,WS_SEND_START,1516219227284,197
257,WS_SEND_END,1516219227284,197
257,WS_RECV_START,1516219227284,198
257,WS_RECV_END,1516219228139,198
257,PLAYER_SLEEPBEFORE_START,1516219228139,199
257,PLAYER_SLEEPBEFORE_END,1516219239993,199
257,WS_SEND_START,1516219239993,199
257,WS_SEND_END,1516219239993,199
257,PLAYER_SLEEPBEFORE_START,1516219239993,200
257,PLAYER_SLEEPBEFORE_END,1516219244081,200
257,WS_SEND_START,1516219244081,200
257,WS_SEND_END,1516219244081,200
257,WS_RECV_START,1516219244081,201
257,WS_RECV_END,1516219244532,201
257,PLAYER_SLEEPBEFORE_START,1516219244532,202
257,PLAYER_SLEEPBEFORE_END,1516219244546,202
257,WS_SEND_START,1516219244546,202
257,WS_SEND_END,1516219244546,202
257,WS_RECV_START,1516219244546,203
257,WS_RECV_END,1516219244880,203
257,PLAYER_SLEEPBEFORE_START,1516219244880,204
257,PLAYER_SLEEPBEFORE_END,1516219264529,204
257,WS_SEND_START,1516219264530,204
257,WS_SEND_END,1516219264530,204
257,PLAYER_SLEEPBEFORE_START,1516219264530,205
257,PLAYER_SLEEPBEFORE_END,1516219268428,205
257,WS_SEND_START,1516219268428,205
257,WS_SEND_END,1516219268428,205
257,WS_RECV_START,1516219268428,206
257,WS_RECV_END,1516219268569,206
257,PLAYER_SLEEPBEFORE_START,1516219268569,207
257,PLAYER_SLEEPBEFORE_END,1516219285500,207
257,REQ_START,1516219285500,207
257,REQ_END,1516219285508,207
257,PLAYER_SLEEPBEFORE_START,1516219285508,208
257,PLAYER_SLEEPBEFORE_END,1516219292360,208
257,WS_CLOSE_START,1516219292360,208
257,WS_CLOSE_END,1516219292360,208
257,PLAYER_DONE,1516219292360
