# --sessions 360 --app-url=http://shinyloadtest.rstudioservices.com/cran_explorer --output-dir test360 --overwrite-output --log-level warn --start-interval 500 15min.log
thread_id,event,timestamp,input_line_number,comment
298,PLAYER_SESSION_CREATE,1516218150780
298,PLAYER_START_INTERVAL_START,1516218150780
298,PLAYER_START_INTERVAL_END,1516218299780
298,REQ_HOME_START,1516218299780,2
298,REQ_HOME_END,1516218299872,2
298,REQ_START,1516218299872,3
298,REQ_END,1516218299979,3
298,REQ_START,1516218299979,4
298,REQ_END,1516218300029,4
298,REQ_START,1516218300029,5
298,REQ_END,1516218300103,5
298,REQ_START,1516218300103,6
298,REQ_END,1516218300179,6
298,REQ_START,1516218300179,7
298,REQ_END,1516218300247,7
298,REQ_START,1516218300247,8
298,REQ_END,1516218300285,8
298,REQ_START,1516218300285,9
298,REQ_END,1516218300322,9
298,REQ_START,1516218300322,10
298,REQ_END,1516218300330,10
298,REQ_START,1516218300330,11
298,REQ_END,1516218300433,11
298,REQ_START,1516218300433,12
298,REQ_END,1516218300442,12
298,REQ_START,1516218300442,13
298,REQ_END,1516218300485,13
298,REQ_START,1516218300485,14
298,REQ_END,1516218300500,14
298,REQ_START,1516218300500,15
298,REQ_END,1516218300533,15
298,REQ_TOK_START,1516218300533,16
298,REQ_TOK_END,1516218300540,16
298,REQ_SINF_START,1516218300540,17
298,REQ_SINF_END,1516218300546,17
298,WS_OPEN_START,1516218300546,18
298,WS_OPEN_END,1516218300553,18
298,REQ_START,1516218300553,19
298,REQ_END,1516218300580,19
298,WS_RECV_START,1516218300580,20
298,WS_RECV_END,1516218300580,20
298,PLAYER_SLEEPBEFORE_START,1516218300580,21
298,PLAYER_SLEEPBEFORE_END,1516218300585,21
298,WS_SEND_START,1516218300585,21
298,WS_SEND_END,1516218300585,21
298,PLAYER_SLEEPBEFORE_START,1516218300585,22
298,PLAYER_SLEEPBEFORE_END,1516218300586,22
298,WS_SEND_START,1516218300586,22
298,WS_SEND_END,1516218300586,22
298,WS_RECV_INIT_START,1516218300586,23
298,WS_RECV_INIT_END,1516218300651,23
298,WS_RECV_START,1516218300651,24
298,WS_RECV_END,1516218300701,24
298,PLAYER_SLEEPBEFORE_START,1516218300701,25
298,PLAYER_SLEEPBEFORE_END,1516218300708,25
298,REQ_START,1516218300708,25
298,REQ_END,1516218300807,25
298,PLAYER_SLEEPBEFORE_START,1516218300807,26
298,PLAYER_SLEEPBEFORE_END,1516218300808,26
298,REQ_START,1516218300808,26
298,REQ_END,1516218300852,26
298,PLAYER_SLEEPBEFORE_START,1516218300852,27
298,PLAYER_SLEEPBEFORE_END,1516218300855,27
298,REQ_START,1516218300855,27
298,REQ_END,1516218300901,27
298,PLAYER_SLEEPBEFORE_START,1516218300901,28
298,PLAYER_SLEEPBEFORE_END,1516218301186,28
298,REQ_START,1516218301186,28
298,REQ_END,1516218301451,28
298,PLAYER_SLEEPBEFORE_START,1516218301451,29
298,PLAYER_SLEEPBEFORE_END,1516218301626,29
298,WS_SEND_START,1516218301626,29
298,WS_SEND_END,1516218301626,29
298,WS_RECV_START,1516218301626,30
298,WS_RECV_END,1516218301844,30
298,PLAYER_SLEEPBEFORE_START,1516218301844,31
298,PLAYER_SLEEPBEFORE_END,1516218301855,31
298,REQ_START,1516218301855,31
298,REQ_END,1516218302818,31
298,PLAYER_SLEEPBEFORE_START,1516218302818,32
298,PLAYER_SLEEPBEFORE_END,1516218330963,32
298,WS_SEND_START,1516218330963,32
298,WS_SEND_END,1516218330963,32
298,WS_RECV_START,1516218330963,33
298,WS_RECV_END,1516218331310,33
298,PLAYER_SLEEPBEFORE_START,1516218331310,34
298,PLAYER_SLEEPBEFORE_END,1516218357221,34
298,WS_SEND_START,1516218357221,34
298,WS_SEND_END,1516218357221,34
298,WS_RECV_START,1516218357221,35
298,WS_RECV_END,1516218357254,35
298,PLAYER_SLEEPBEFORE_START,1516218357254,36
298,PLAYER_SLEEPBEFORE_END,1516218357263,36
298,WS_SEND_START,1516218357263,36
298,WS_SEND_END,1516218357263,36
298,WS_RECV_START,1516218357263,37
298,WS_RECV_END,1516218357305,37
298,PLAYER_SLEEPBEFORE_START,1516218357305,38
298,PLAYER_SLEEPBEFORE_END,1516218360500,38
298,WS_SEND_START,1516218360500,38
298,WS_SEND_END,1516218360500,38
298,WS_RECV_START,1516218360500,39
298,WS_RECV_END,1516218360637,39
298,PLAYER_SLEEPBEFORE_START,1516218360637,40
298,PLAYER_SLEEPBEFORE_END,1516218360684,40
298,WS_SEND_START,1516218360684,40
298,WS_SEND_END,1516218360684,40
298,WS_RECV_START,1516218360684,41
298,WS_RECV_END,1516218360855,41
298,PLAYER_SLEEPBEFORE_START,1516218360855,42
298,PLAYER_SLEEPBEFORE_END,1516218378990,42
298,WS_SEND_START,1516218378991,42
298,WS_SEND_END,1516218378991,42
298,WS_RECV_START,1516218378991,43
298,WS_RECV_END,1516218379029,43
298,PLAYER_SLEEPBEFORE_START,1516218379029,44
298,PLAYER_SLEEPBEFORE_END,1516218379041,44
298,WS_SEND_START,1516218379041,44
298,WS_SEND_END,1516218379041,44
298,WS_RECV_START,1516218379041,45
298,WS_RECV_END,1516218379085,45
298,PLAYER_SLEEPBEFORE_START,1516218379085,46
298,PLAYER_SLEEPBEFORE_END,1516218380345,46
298,WS_SEND_START,1516218380345,46
298,WS_SEND_END,1516218380345,46
298,WS_RECV_START,1516218380345,47
298,WS_RECV_END,1516218380518,47
298,PLAYER_SLEEPBEFORE_START,1516218380518,48
298,PLAYER_SLEEPBEFORE_END,1516218381838,48
298,WS_SEND_START,1516218381838,48
298,WS_SEND_END,1516218381838,48
298,WS_RECV_START,1516218381838,49
298,WS_RECV_END,1516218381952,49
298,PLAYER_SLEEPBEFORE_START,1516218381952,50
298,PLAYER_SLEEPBEFORE_END,1516218381976,50
298,WS_SEND_START,1516218381976,50
298,WS_SEND_END,1516218381976,50
298,WS_RECV_START,1516218381976,51
298,WS_RECV_END,1516218382085,51
298,PLAYER_SLEEPBEFORE_START,1516218382085,52
298,PLAYER_SLEEPBEFORE_END,1516218404650,52
298,WS_SEND_START,1516218404650,52
298,WS_SEND_END,1516218404650,52
298,WS_RECV_START,1516218404650,53
298,WS_RECV_END,1516218405091,53
298,PLAYER_SLEEPBEFORE_START,1516218405091,54
298,PLAYER_SLEEPBEFORE_END,1516218426395,54
298,WS_SEND_START,1516218426395,54
298,WS_SEND_END,1516218426395,54
298,PLAYER_SLEEPBEFORE_START,1516218426395,55
298,PLAYER_SLEEPBEFORE_END,1516218428336,55
298,WS_SEND_START,1516218428336,55
298,WS_SEND_END,1516218428336,55
298,WS_RECV_START,1516218428336,56
298,WS_RECV_END,1516218428471,56
298,PLAYER_SLEEPBEFORE_START,1516218428471,57
298,PLAYER_SLEEPBEFORE_END,1516218451343,57
298,WS_SEND_START,1516218451343,57
298,WS_SEND_END,1516218451343,57
298,WS_RECV_START,1516218451343,58
298,WS_RECV_END,1516218451527,58
298,PLAYER_SLEEPBEFORE_START,1516218451527,59
298,PLAYER_SLEEPBEFORE_END,1516218453854,59
298,WS_SEND_START,1516218453854,59
298,WS_SEND_END,1516218453854,59
298,WS_RECV_START,1516218453854,60
298,WS_RECV_END,1516218454063,60
298,PLAYER_SLEEPBEFORE_START,1516218454063,61
298,PLAYER_SLEEPBEFORE_END,1516218457654,61
298,WS_SEND_START,1516218457654,61
298,WS_SEND_END,1516218457654,61
298,WS_RECV_START,1516218457654,62
298,WS_RECV_END,1516218458010,62
298,PLAYER_SLEEPBEFORE_START,1516218458010,63
298,PLAYER_SLEEPBEFORE_END,1516218477272,63
298,WS_SEND_START,1516218477272,63
298,WS_SEND_END,1516218477272,63
298,WS_RECV_START,1516218477272,64
298,WS_RECV_END,1516218477464,64
298,PLAYER_SLEEPBEFORE_START,1516218477464,65
298,PLAYER_SLEEPBEFORE_END,1516218504281,65
298,WS_SEND_START,1516218504281,65
298,WS_SEND_END,1516218504281,65
298,WS_RECV_START,1516218504281,66
298,WS_RECV_END,1516218504383,66
298,PLAYER_SLEEPBEFORE_START,1516218504383,67
298,PLAYER_SLEEPBEFORE_END,1516218505891,67
298,WS_SEND_START,1516218505891,67
298,WS_SEND_END,1516218505891,67
298,WS_RECV_START,1516218505891,68
298,WS_RECV_END,1516218506021,68
298,PLAYER_SLEEPBEFORE_START,1516218506021,69
298,PLAYER_SLEEPBEFORE_END,1516218528019,69
298,WS_SEND_START,1516218528019,69
298,WS_SEND_END,1516218528019,69
298,WS_RECV_START,1516218528019,70
298,WS_RECV_END,1516218528731,70
298,PLAYER_SLEEPBEFORE_START,1516218528731,71
298,PLAYER_SLEEPBEFORE_END,1516218553507,71
298,WS_SEND_START,1516218553507,71
298,WS_SEND_END,1516218553507,71
298,PLAYER_SLEEPBEFORE_START,1516218553507,72
298,PLAYER_SLEEPBEFORE_END,1516218556114,72
298,WS_SEND_START,1516218556114,72
298,WS_SEND_END,1516218556114,72
298,WS_RECV_START,1516218556114,73
298,WS_RECV_END,1516218556222,73
298,PLAYER_SLEEPBEFORE_START,1516218556222,74
298,PLAYER_SLEEPBEFORE_END,1516218556231,74
298,WS_SEND_START,1516218556231,74
298,WS_SEND_END,1516218556231,74
298,WS_RECV_START,1516218556231,75
298,WS_RECV_END,1516218556276,75
298,PLAYER_SLEEPBEFORE_START,1516218556276,76
298,PLAYER_SLEEPBEFORE_END,1516218557783,76
298,WS_SEND_START,1516218557783,76
298,WS_SEND_END,1516218557783,76
298,WS_RECV_START,1516218557783,77
298,WS_RECV_END,1516218558602,77
298,PLAYER_SLEEPBEFORE_START,1516218558602,78
298,PLAYER_SLEEPBEFORE_END,1516218559470,78
298,WS_SEND_START,1516218559470,78
298,WS_SEND_END,1516218559470,78
298,WS_RECV_START,1516218559470,79
298,WS_RECV_END,1516218559517,79
298,PLAYER_SLEEPBEFORE_START,1516218559517,80
298,PLAYER_SLEEPBEFORE_END,1516218567183,80
298,WS_SEND_START,1516218567183,80
298,WS_SEND_END,1516218567183,80
298,WS_RECV_START,1516218567183,81
298,WS_RECV_END,1516218567429,81
298,PLAYER_SLEEPBEFORE_START,1516218567429,82
298,PLAYER_SLEEPBEFORE_END,1516218568532,82
298,WS_SEND_START,1516218568532,82
298,WS_SEND_END,1516218568532,82
298,WS_RECV_START,1516218568532,83
298,WS_RECV_END,1516218568951,83
298,PLAYER_SLEEPBEFORE_START,1516218568951,84
298,PLAYER_SLEEPBEFORE_END,1516218569898,84
298,WS_SEND_START,1516218569898,84
298,WS_SEND_END,1516218569898,84
298,WS_RECV_START,1516218569898,85
298,WS_RECV_END,1516218569963,85
298,PLAYER_SLEEPBEFORE_START,1516218569963,86
298,PLAYER_SLEEPBEFORE_END,1516218574135,86
298,WS_SEND_START,1516218574135,86
298,WS_SEND_END,1516218574135,86
298,WS_RECV_START,1516218574135,87
298,WS_RECV_END,1516218574393,87
298,PLAYER_SLEEPBEFORE_START,1516218574393,88
298,PLAYER_SLEEPBEFORE_END,1516218574401,88
298,WS_SEND_START,1516218574401,88
298,WS_SEND_END,1516218574401,88
298,WS_RECV_START,1516218574401,89
298,WS_RECV_END,1516218574512,89
298,PLAYER_SLEEPBEFORE_START,1516218574512,90
298,PLAYER_SLEEPBEFORE_END,1516218601710,90
298,REQ_START,1516218601710,90
298,REQ_END,1516218601717,90
298,PLAYER_SLEEPBEFORE_START,1516218601717,91
298,PLAYER_SLEEPBEFORE_END,1516218609606,91
298,WS_SEND_START,1516218609606,91
298,WS_SEND_END,1516218609606,91
298,WS_RECV_START,1516218609606,92
298,WS_RECV_END,1516218609700,92
298,PLAYER_SLEEPBEFORE_START,1516218609700,93
298,PLAYER_SLEEPBEFORE_END,1516218609716,93
298,WS_SEND_START,1516218609716,93
298,WS_SEND_END,1516218609716,93
298,WS_RECV_START,1516218609716,94
298,WS_RECV_END,1516218609845,94
298,PLAYER_SLEEPBEFORE_START,1516218609846,95
298,PLAYER_SLEEPBEFORE_END,1516218633401,95
298,WS_SEND_START,1516218633401,95
298,WS_SEND_END,1516218633401,95
298,WS_RECV_START,1516218633401,96
298,WS_RECV_END,1516218633584,96
298,PLAYER_SLEEPBEFORE_START,1516218633584,97
298,PLAYER_SLEEPBEFORE_END,1516218656024,97
298,WS_SEND_START,1516218656024,97
298,WS_SEND_END,1516218656024,97
298,WS_RECV_START,1516218656024,98
298,WS_RECV_END,1516218656562,98
298,PLAYER_SLEEPBEFORE_START,1516218656562,99
298,PLAYER_SLEEPBEFORE_END,1516218656583,99
298,WS_SEND_START,1516218656583,99
298,WS_SEND_END,1516218656583,99
298,WS_RECV_START,1516218656583,100
298,WS_RECV_END,1516218656991,100
298,PLAYER_SLEEPBEFORE_START,1516218656991,101
298,PLAYER_SLEEPBEFORE_END,1516218680551,101
298,WS_SEND_START,1516218680551,101
298,WS_SEND_END,1516218680551,101
298,WS_RECV_START,1516218680551,102
298,WS_RECV_END,1516218681451,102
298,PLAYER_SLEEPBEFORE_START,1516218681451,103
298,PLAYER_SLEEPBEFORE_END,1516218705076,103
298,WS_SEND_START,1516218705076,103
298,WS_SEND_END,1516218705076,103
298,WS_RECV_START,1516218705076,104
298,WS_RECV_END,1516218705209,104
298,PLAYER_SLEEPBEFORE_START,1516218705209,105
298,PLAYER_SLEEPBEFORE_END,1516218730586,105
298,WS_SEND_START,1516218730586,105
298,WS_SEND_END,1516218730586,105
298,WS_RECV_START,1516218730586,106
298,WS_RECV_END,1516218730730,106
298,PLAYER_SLEEPBEFORE_START,1516218730730,107
298,PLAYER_SLEEPBEFORE_END,1516218754153,107
298,WS_SEND_START,1516218754153,107
298,WS_SEND_END,1516218754153,107
298,WS_RECV_START,1516218754153,108
298,WS_RECV_END,1516218755933,108
298,PLAYER_SLEEPBEFORE_START,1516218755933,109
298,PLAYER_SLEEPBEFORE_END,1516218755942,109
298,WS_SEND_START,1516218755942,109
298,WS_SEND_END,1516218755942,109
298,WS_RECV_START,1516218755942,110
298,WS_RECV_END,1516218757064,110
298,PLAYER_SLEEPBEFORE_START,1516218757064,111
298,PLAYER_SLEEPBEFORE_END,1516218758023,111
298,WS_SEND_START,1516218758023,111
298,WS_SEND_END,1516218758023,111
298,WS_RECV_START,1516218758023,112
298,WS_RECV_END,1516218760005,112
298,PLAYER_SLEEPBEFORE_START,1516218760005,113
298,PLAYER_SLEEPBEFORE_END,1516218760567,113
298,WS_SEND_START,1516218760567,113
298,WS_SEND_END,1516218760567,113
298,WS_RECV_START,1516218760567,114
298,WS_RECV_END,1516218761273,114
298,PLAYER_SLEEPBEFORE_START,1516218761273,115
298,PLAYER_SLEEPBEFORE_END,1516218761283,115
298,WS_SEND_START,1516218761283,115
298,WS_SEND_END,1516218761283,115
298,WS_RECV_START,1516218761283,116
298,WS_RECV_END,1516218762755,116
298,PLAYER_SLEEPBEFORE_START,1516218762755,117
298,PLAYER_SLEEPBEFORE_END,1516218783115,117
298,WS_SEND_START,1516218783115,117
298,WS_SEND_END,1516218783115,117
298,PLAYER_SLEEPBEFORE_START,1516218783115,118
298,PLAYER_SLEEPBEFORE_END,1516218786867,118
298,WS_SEND_START,1516218786867,118
298,WS_SEND_END,1516218786867,118
298,WS_RECV_START,1516218786867,119
298,WS_RECV_END,1516218787219,119
298,PLAYER_SLEEPBEFORE_START,1516218787219,120
298,PLAYER_SLEEPBEFORE_END,1516218788207,120
298,WS_SEND_START,1516218788207,120
298,WS_SEND_END,1516218788207,120
298,WS_RECV_START,1516218788207,121
298,WS_RECV_END,1516218788654,121
298,PLAYER_SLEEPBEFORE_START,1516218788654,122
298,PLAYER_SLEEPBEFORE_END,1516218789839,122
298,WS_SEND_START,1516218789839,122
298,WS_SEND_END,1516218789839,122
298,WS_RECV_START,1516218789839,123
298,WS_RECV_END,1516218790552,123
298,PLAYER_SLEEPBEFORE_START,1516218790552,124
298,PLAYER_SLEEPBEFORE_END,1516218814957,124
298,WS_SEND_START,1516218814957,124
298,WS_SEND_END,1516218814957,124
298,WS_RECV_START,1516218814957,125
298,WS_RECV_END,1516218815589,125
298,PLAYER_SLEEPBEFORE_START,1516218815589,126
298,PLAYER_SLEEPBEFORE_END,1516218836101,126
298,WS_SEND_START,1516218836101,126
298,WS_SEND_END,1516218836101,126
298,PLAYER_SLEEPBEFORE_START,1516218836101,127
298,PLAYER_SLEEPBEFORE_END,1516218839155,127
298,WS_SEND_START,1516218839155,127
298,WS_SEND_END,1516218839155,127
298,WS_RECV_START,1516218839155,128
298,WS_RECV_END,1516218839391,128
298,PLAYER_SLEEPBEFORE_START,1516218839391,129
298,PLAYER_SLEEPBEFORE_END,1516218839411,129
298,WS_SEND_START,1516218839411,129
298,WS_SEND_END,1516218839411,129
298,WS_RECV_START,1516218839411,130
298,WS_RECV_END,1516218839899,130
298,PLAYER_SLEEPBEFORE_START,1516218839899,131
298,PLAYER_SLEEPBEFORE_END,1516218861523,131
298,WS_SEND_START,1516218861523,131
298,WS_SEND_END,1516218861523,131
298,PLAYER_SLEEPBEFORE_START,1516218861523,132
298,PLAYER_SLEEPBEFORE_END,1516218864603,132
298,WS_SEND_START,1516218864603,132
298,WS_SEND_END,1516218864603,132
298,WS_RECV_START,1516218864603,133
298,WS_RECV_END,1516218865001,133
298,PLAYER_SLEEPBEFORE_START,1516218865001,134
298,PLAYER_SLEEPBEFORE_END,1516218886218,134
298,WS_SEND_START,1516218886218,134
298,WS_SEND_END,1516218886218,134
298,PLAYER_SLEEPBEFORE_START,1516218886218,135
298,PLAYER_SLEEPBEFORE_END,1516218889408,135
298,WS_SEND_START,1516218889408,135
298,WS_SEND_END,1516218889408,135
298,WS_RECV_START,1516218889408,136
298,WS_RECV_END,1516218889445,136
298,PLAYER_SLEEPBEFORE_START,1516218889445,137
298,PLAYER_SLEEPBEFORE_END,1516218889452,137
298,WS_SEND_START,1516218889452,137
298,WS_SEND_END,1516218889452,137
298,WS_RECV_START,1516218889452,138
298,WS_RECV_END,1516218889496,138
298,PLAYER_SLEEPBEFORE_START,1516218889496,139
298,PLAYER_SLEEPBEFORE_END,1516218890186,139
298,WS_SEND_START,1516218890186,139
298,WS_SEND_END,1516218890186,139
298,WS_RECV_START,1516218890186,140
298,WS_RECV_END,1516218890219,140
298,PLAYER_SLEEPBEFORE_START,1516218890219,141
298,PLAYER_SLEEPBEFORE_END,1516218890874,141
298,WS_SEND_START,1516218890874,141
298,WS_SEND_END,1516218890874,141
298,WS_RECV_START,1516218890874,142
298,WS_RECV_END,1516218891247,142
298,PLAYER_SLEEPBEFORE_START,1516218891247,143
298,PLAYER_SLEEPBEFORE_END,1516218891304,143
298,WS_SEND_START,1516218891304,143
298,WS_SEND_END,1516218891304,143
298,WS_RECV_START,1516218891304,144
298,WS_RECV_END,1516218891643,144
298,PLAYER_SLEEPBEFORE_START,1516218891643,145
298,PLAYER_SLEEPBEFORE_END,1516218907705,145
298,REQ_START,1516218907705,145
298,REQ_END,1516218907713,145
298,PLAYER_SLEEPBEFORE_START,1516218907713,146
298,PLAYER_SLEEPBEFORE_END,1516218916590,146
298,WS_SEND_START,1516218916590,146
298,WS_SEND_END,1516218916590,146
298,WS_RECV_START,1516218916590,147
298,WS_RECV_END,1516218916758,147
298,PLAYER_SLEEPBEFORE_START,1516218916758,148
298,PLAYER_SLEEPBEFORE_END,1516218938680,148
298,WS_SEND_START,1516218938680,148
298,WS_SEND_END,1516218938680,148
298,PLAYER_SLEEPBEFORE_START,1516218938680,149
298,PLAYER_SLEEPBEFORE_END,1516218941108,149
298,WS_SEND_START,1516218941108,149
298,WS_SEND_END,1516218941108,149
298,WS_RECV_START,1516218941108,150
298,WS_RECV_END,1516218941226,150
298,PLAYER_SLEEPBEFORE_START,1516218941226,151
298,PLAYER_SLEEPBEFORE_END,1516218941436,151
298,WS_SEND_START,1516218941436,151
298,WS_SEND_END,1516218941436,151
298,WS_RECV_START,1516218941436,152
298,WS_RECV_END,1516218941601,152
298,PLAYER_SLEEPBEFORE_START,1516218941601,153
298,PLAYER_SLEEPBEFORE_END,1516218965528,153
298,WS_SEND_START,1516218965528,153
298,WS_SEND_END,1516218965528,153
298,WS_RECV_START,1516218965528,154
298,WS_RECV_END,1516218965635,154
298,PLAYER_SLEEPBEFORE_START,1516218965635,155
298,PLAYER_SLEEPBEFORE_END,1516218988193,155
298,WS_SEND_START,1516218988193,155
298,WS_SEND_END,1516218988193,155
298,PLAYER_SLEEPBEFORE_START,1516218988193,156
298,PLAYER_SLEEPBEFORE_END,1516218991467,156
298,WS_SEND_START,1516218991467,156
298,WS_SEND_END,1516218991467,156
298,WS_RECV_START,1516218991467,157
298,WS_RECV_END,1516218993464,157
298,PLAYER_SLEEPBEFORE_START,1516218993464,158
298,PLAYER_SLEEPBEFORE_END,1516218993474,158
298,WS_SEND_START,1516218993474,158
298,WS_SEND_END,1516218993474,158
298,WS_RECV_START,1516218993474,159
298,WS_RECV_END,1516218994527,159
298,PLAYER_SLEEPBEFORE_START,1516218994528,160
298,PLAYER_SLEEPBEFORE_END,1516218994703,160
298,WS_SEND_START,1516218994703,160
298,WS_SEND_END,1516218994703,160
298,WS_RECV_START,1516218994703,161
298,WS_RECV_END,1516218995316,161
298,PLAYER_SLEEPBEFORE_START,1516218995316,162
298,PLAYER_SLEEPBEFORE_END,1516218995342,162
298,WS_SEND_START,1516218995342,162
298,WS_SEND_END,1516218995342,162
298,WS_RECV_START,1516218995342,163
298,WS_RECV_END,1516218996163,163
298,PLAYER_SLEEPBEFORE_START,1516218996163,164
298,PLAYER_SLEEPBEFORE_END,1516219016976,164
298,WS_SEND_START,1516219016976,164
298,WS_SEND_END,1516219016976,164
298,WS_RECV_START,1516219016976,165
298,WS_RECV_END,1516219019897,165
298,PLAYER_SLEEPBEFORE_START,1516219019897,166
298,PLAYER_SLEEPBEFORE_END,1516219042352,166
298,WS_SEND_START,1516219042352,166
298,WS_SEND_END,1516219042352,166
298,WS_RECV_START,1516219042352,167
298,WS_RECV_END,1516219048248,167
298,PLAYER_SLEEPBEFORE_START,1516219048248,168
298,PLAYER_SLEEPBEFORE_END,1516219075605,168
298,WS_SEND_START,1516219075605,168
298,WS_SEND_END,1516219075605,168
298,WS_RECV_START,1516219075605,169
298,WS_RECV_END,1516219078668,169
298,PLAYER_SLEEPBEFORE_START,1516219078668,170
298,PLAYER_SLEEPBEFORE_END,1516219078677,170
298,WS_SEND_START,1516219078677,170
298,WS_SEND_END,1516219078677,170
298,WS_RECV_START,1516219078677,171
298,WS_RECV_END,1516219080303,171
298,PLAYER_SLEEPBEFORE_START,1516219080303,172
298,PLAYER_SLEEPBEFORE_END,1516219080672,172
298,WS_SEND_START,1516219080672,172
298,WS_SEND_END,1516219080672,172
298,WS_RECV_START,1516219080672,173
298,WS_RECV_END,1516219082537,173
298,PLAYER_SLEEPBEFORE_START,1516219082537,174
298,PLAYER_SLEEPBEFORE_END,1516219082578,174
298,WS_SEND_START,1516219082578,174
298,WS_SEND_END,1516219082578,174
298,WS_RECV_START,1516219082578,175
298,WS_RECV_END,1516219084992,175
298,PLAYER_SLEEPBEFORE_START,1516219084992,176
298,PLAYER_SLEEPBEFORE_END,1516219106753,176
298,WS_SEND_START,1516219106753,176
298,WS_SEND_END,1516219106753,176
298,PLAYER_SLEEPBEFORE_START,1516219106753,177
298,PLAYER_SLEEPBEFORE_END,1516219109272,177
298,WS_SEND_START,1516219109272,177
298,WS_SEND_END,1516219109272,177
298,WS_RECV_START,1516219109272,178
298,WS_RECV_END,1516219109539,178
298,PLAYER_SLEEPBEFORE_START,1516219109539,179
298,PLAYER_SLEEPBEFORE_END,1516219131879,179
298,WS_SEND_START,1516219131879,179
298,WS_SEND_END,1516219131879,179
298,WS_RECV_START,1516219131879,180
298,WS_RECV_END,1516219133235,180
298,PLAYER_SLEEPBEFORE_START,1516219133235,181
298,PLAYER_SLEEPBEFORE_END,1516219133679,181
298,WS_SEND_START,1516219133679,181
298,WS_SEND_END,1516219133679,181
298,WS_RECV_START,1516219133679,182
298,WS_RECV_END,1516219135805,182
298,PLAYER_SLEEPBEFORE_START,1516219135805,183
298,PLAYER_SLEEPBEFORE_END,1516219136329,183
298,WS_SEND_START,1516219136329,183
298,WS_SEND_END,1516219136329,183
298,WS_RECV_START,1516219136329,184
298,WS_RECV_END,1516219137285,184
298,PLAYER_SLEEPBEFORE_START,1516219137285,185
298,PLAYER_SLEEPBEFORE_END,1516219137553,185
298,WS_SEND_START,1516219137553,185
298,WS_SEND_END,1516219137553,185
298,WS_RECV_START,1516219137553,186
298,WS_RECV_END,1516219138484,186
298,PLAYER_SLEEPBEFORE_START,1516219138484,187
298,PLAYER_SLEEPBEFORE_END,1516219160984,187
298,WS_SEND_START,1516219160984,187
298,WS_SEND_END,1516219160984,187
298,WS_RECV_START,1516219160984,188
298,WS_RECV_END,1516219161139,188
298,PLAYER_SLEEPBEFORE_START,1516219161139,189
298,PLAYER_SLEEPBEFORE_END,1516219167378,189
298,WS_SEND_START,1516219167378,189
298,WS_SEND_END,1516219167378,189
298,WS_RECV_START,1516219167378,190
298,WS_RECV_END,1516219167563,190
298,PLAYER_SLEEPBEFORE_START,1516219167563,191
298,PLAYER_SLEEPBEFORE_END,1516219169478,191
298,WS_SEND_START,1516219169478,191
298,WS_SEND_END,1516219169478,191
298,WS_RECV_START,1516219169478,192
298,WS_RECV_END,1516219169821,192
298,PLAYER_SLEEPBEFORE_START,1516219169821,193
298,PLAYER_SLEEPBEFORE_END,1516219169949,193
298,WS_SEND_START,1516219169949,193
298,WS_SEND_END,1516219169949,193
298,WS_RECV_START,1516219169949,194
298,WS_RECV_END,1516219170728,194
298,PLAYER_SLEEPBEFORE_START,1516219170728,195
298,PLAYER_SLEEPBEFORE_END,1516219172483,195
298,WS_SEND_START,1516219172483,195
298,WS_SEND_END,1516219172483,195
298,WS_RECV_START,1516219172483,196
298,WS_RECV_END,1516219173430,196
298,PLAYER_SLEEPBEFORE_START,1516219173430,197
298,PLAYER_SLEEPBEFORE_END,1516219175234,197
298,WS_SEND_START,1516219175234,197
298,WS_SEND_END,1516219175234,197
298,WS_RECV_START,1516219175234,198
298,WS_RECV_END,1516219175942,198
298,PLAYER_SLEEPBEFORE_START,1516219175942,199
298,PLAYER_SLEEPBEFORE_END,1516219187796,199
298,WS_SEND_START,1516219187796,199
298,WS_SEND_END,1516219187796,199
298,PLAYER_SLEEPBEFORE_START,1516219187796,200
298,PLAYER_SLEEPBEFORE_END,1516219191885,200
298,WS_SEND_START,1516219191885,200
298,WS_SEND_END,1516219191885,200
298,WS_RECV_START,1516219191885,201
298,WS_RECV_END,1516219192006,201
298,PLAYER_SLEEPBEFORE_START,1516219192006,202
298,PLAYER_SLEEPBEFORE_END,1516219192020,202
298,WS_SEND_START,1516219192020,202
298,WS_SEND_END,1516219192020,202
298,WS_RECV_START,1516219192020,203
298,WS_RECV_END,1516219192168,203
298,PLAYER_SLEEPBEFORE_START,1516219192168,204
298,PLAYER_SLEEPBEFORE_END,1516219211817,204
298,WS_SEND_START,1516219211817,204
298,WS_SEND_END,1516219211817,204
298,PLAYER_SLEEPBEFORE_START,1516219211817,205
298,PLAYER_SLEEPBEFORE_END,1516219215715,205
298,WS_SEND_START,1516219215715,205
298,WS_SEND_END,1516219215715,205
298,WS_RECV_START,1516219215715,206
298,WS_RECV_END,1516219215887,206
298,PLAYER_SLEEPBEFORE_START,1516219215887,207
298,PLAYER_SLEEPBEFORE_END,1516219232818,207
298,REQ_START,1516219232818,207
298,REQ_END,1516219232826,207
298,PLAYER_SLEEPBEFORE_START,1516219232826,208
298,PLAYER_SLEEPBEFORE_END,1516219239678,208
298,WS_CLOSE_START,1516219239678,208
298,WS_CLOSE_END,1516219239678,208
298,PLAYER_DONE,1516219239678
