# --sessions 360 --app-url=http://shinyloadtest.rstudioservices.com/cran_explorer --output-dir test360 --overwrite-output --log-level warn --start-interval 500 15min.log
thread_id,event,timestamp,input_line_number,comment
355,PLAYER_SESSION_CREATE,1516218150799
355,PLAYER_START_INTERVAL_START,1516218150799
355,PLAYER_START_INTERVAL_END,1516218328299
355,REQ_HOME_START,1516218328299,2
355,REQ_HOME_END,1516218328461,2
355,REQ_START,1516218328461,3
355,REQ_END,1516218328885,3
355,REQ_START,1516218328885,4
355,REQ_END,1516218329770,4
355,REQ_START,1516218329770,5
355,REQ_END,1516218329951,5
355,REQ_START,1516218329951,6
355,REQ_END,1516218330211,6
355,REQ_START,1516218330211,7
355,REQ_END,1516218330294,7
355,REQ_START,1516218330294,8
355,REQ_END,1516218330797,8
355,REQ_START,1516218330797,9
355,REQ_END,1516218331076,9
355,REQ_START,1516218331076,10
355,REQ_END,1516218331085,10
355,REQ_START,1516218331085,11
355,REQ_END,1516218331133,11
355,REQ_START,1516218331133,12
355,REQ_END,1516218331144,12
355,REQ_START,1516218331144,13
355,REQ_END,1516218331398,13
355,REQ_START,1516218331398,14
355,REQ_END,1516218331415,14
355,REQ_START,1516218331415,15
355,REQ_END,1516218332395,15
355,REQ_TOK_START,1516218332395,16
355,REQ_TOK_END,1516218332402,16
355,REQ_SINF_START,1516218332402,17
355,REQ_SINF_END,1516218332410,17
355,WS_OPEN_START,1516218332410,18
355,WS_OPEN_END,1516218332417,18
355,REQ_START,1516218332417,19
355,REQ_END,1516218333141,19
355,WS_RECV_START,1516218333141,20
355,WS_RECV_END,1516218333141,20
355,PLAYER_SLEEPBEFORE_START,1516218333141,21
355,PLAYER_SLEEPBEFORE_END,1516218333146,21
355,WS_SEND_START,1516218333146,21
355,WS_SEND_END,1516218333146,21
355,PLAYER_SLEEPBEFORE_START,1516218333146,22
355,PLAYER_SLEEPBEFORE_END,1516218333147,22
355,WS_SEND_START,1516218333147,22
355,WS_SEND_END,1516218333147,22
355,WS_RECV_INIT_START,1516218333147,23
355,WS_RECV_INIT_END,1516218333698,23
355,WS_RECV_START,1516218333698,24
355,WS_RECV_END,1516218333857,24
355,PLAYER_SLEEPBEFORE_START,1516218333857,25
355,PLAYER_SLEEPBEFORE_END,1516218333864,25
355,REQ_START,1516218333864,25
355,REQ_END,1516218334635,25
355,PLAYER_SLEEPBEFORE_START,1516218334635,26
355,PLAYER_SLEEPBEFORE_END,1516218334637,26
355,REQ_START,1516218334637,26
355,REQ_END,1516218334669,26
355,PLAYER_SLEEPBEFORE_START,1516218334669,27
355,PLAYER_SLEEPBEFORE_END,1516218334672,27
355,REQ_START,1516218334672,27
355,REQ_END,1516218334855,27
355,PLAYER_SLEEPBEFORE_START,1516218334855,28
355,PLAYER_SLEEPBEFORE_END,1516218335140,28
355,REQ_START,1516218335140,28
355,REQ_END,1516218335672,28
355,PLAYER_SLEEPBEFORE_START,1516218335672,29
355,PLAYER_SLEEPBEFORE_END,1516218335847,29
355,WS_SEND_START,1516218335847,29
355,WS_SEND_END,1516218335847,29
355,WS_RECV_START,1516218335847,30
355,WS_RECV_END,1516218336103,30
355,PLAYER_SLEEPBEFORE_START,1516218336103,31
355,PLAYER_SLEEPBEFORE_END,1516218336114,31
355,REQ_START,1516218336114,31
355,REQ_END,1516218336147,31
355,PLAYER_SLEEPBEFORE_START,1516218336147,32
355,PLAYER_SLEEPBEFORE_END,1516218364293,32
355,WS_SEND_START,1516218364293,32
355,WS_SEND_END,1516218364293,32
355,WS_RECV_START,1516218364293,33
355,WS_RECV_END,1516218364508,33
355,PLAYER_SLEEPBEFORE_START,1516218364508,34
355,PLAYER_SLEEPBEFORE_END,1516218390419,34
355,WS_SEND_START,1516218390419,34
355,WS_SEND_END,1516218390419,34
355,WS_RECV_START,1516218390419,35
355,WS_RECV_END,1516218390774,35
355,PLAYER_SLEEPBEFORE_START,1516218390774,36
355,PLAYER_SLEEPBEFORE_END,1516218390783,36
355,WS_SEND_START,1516218390783,36
355,WS_SEND_END,1516218390783,36
355,WS_RECV_START,1516218390783,37
355,WS_RECV_END,1516218390825,37
355,PLAYER_SLEEPBEFORE_START,1516218390825,38
355,PLAYER_SLEEPBEFORE_END,1516218394020,38
355,WS_SEND_START,1516218394020,38
355,WS_SEND_END,1516218394020,38
355,WS_RECV_START,1516218394020,39
355,WS_RECV_END,1516218394411,39
355,PLAYER_SLEEPBEFORE_START,1516218394411,40
355,PLAYER_SLEEPBEFORE_END,1516218394457,40
355,WS_SEND_START,1516218394457,40
355,WS_SEND_END,1516218394458,40
355,WS_RECV_START,1516218394458,41
355,WS_RECV_END,1516218394773,41
355,PLAYER_SLEEPBEFORE_START,1516218394773,42
355,PLAYER_SLEEPBEFORE_END,1516218412908,42
355,WS_SEND_START,1516218412908,42
355,WS_SEND_END,1516218412908,42
355,WS_RECV_START,1516218412908,43
355,WS_RECV_END,1516218413037,43
355,PLAYER_SLEEPBEFORE_START,1516218413037,44
355,PLAYER_SLEEPBEFORE_END,1516218413049,44
355,WS_SEND_START,1516218413049,44
355,WS_SEND_END,1516218413049,44
355,WS_RECV_START,1516218413049,45
355,WS_RECV_END,1516218413189,45
355,PLAYER_SLEEPBEFORE_START,1516218413189,46
355,PLAYER_SLEEPBEFORE_END,1516218414449,46
355,WS_SEND_START,1516218414449,46
355,WS_SEND_END,1516218414449,46
355,WS_RECV_START,1516218414449,47
355,WS_RECV_END,1516218414738,47
355,PLAYER_SLEEPBEFORE_START,1516218414738,48
355,PLAYER_SLEEPBEFORE_END,1516218416058,48
355,WS_SEND_START,1516218416058,48
355,WS_SEND_END,1516218416058,48
355,WS_RECV_START,1516218416058,49
355,WS_RECV_END,1516218416228,49
355,PLAYER_SLEEPBEFORE_START,1516218416228,50
355,PLAYER_SLEEPBEFORE_END,1516218416253,50
355,WS_SEND_START,1516218416253,50
355,WS_SEND_END,1516218416253,50
355,WS_RECV_START,1516218416253,51
355,WS_RECV_END,1516218416563,51
355,PLAYER_SLEEPBEFORE_START,1516218416563,52
355,PLAYER_SLEEPBEFORE_END,1516218439127,52
355,WS_SEND_START,1516218439128,52
355,WS_SEND_END,1516218439128,52
355,WS_RECV_START,1516218439128,53
355,WS_RECV_END,1516218439509,53
355,PLAYER_SLEEPBEFORE_START,1516218439509,54
355,PLAYER_SLEEPBEFORE_END,1516218460813,54
355,WS_SEND_START,1516218460813,54
355,WS_SEND_END,1516218460813,54
355,PLAYER_SLEEPBEFORE_START,1516218460813,55
355,PLAYER_SLEEPBEFORE_END,1516218462754,55
355,WS_SEND_START,1516218462754,55
355,WS_SEND_END,1516218462758,55
355,WS_RECV_START,1516218462758,56
355,WS_RECV_END,1516218463172,56
355,PLAYER_SLEEPBEFORE_START,1516218463172,57
355,PLAYER_SLEEPBEFORE_END,1516218486044,57
355,WS_SEND_START,1516218486044,57
355,WS_SEND_END,1516218486044,57
355,WS_RECV_START,1516218486044,58
355,WS_RECV_END,1516218486245,58
355,PLAYER_SLEEPBEFORE_START,1516218486246,59
355,PLAYER_SLEEPBEFORE_END,1516218488573,59
355,WS_SEND_START,1516218488573,59
355,WS_SEND_END,1516218488573,59
355,WS_RECV_START,1516218488573,60
355,WS_RECV_END,1516218489038,60
355,PLAYER_SLEEPBEFORE_START,1516218489038,61
355,PLAYER_SLEEPBEFORE_END,1516218492629,61
355,WS_SEND_START,1516218492629,61
355,WS_SEND_END,1516218492629,61
355,WS_RECV_START,1516218492629,62
355,WS_RECV_END,1516218492910,62
355,PLAYER_SLEEPBEFORE_START,1516218492910,63
355,PLAYER_SLEEPBEFORE_END,1516218512172,63
355,WS_SEND_START,1516218512172,63
355,WS_SEND_END,1516218512172,63
355,WS_RECV_START,1516218512172,64
355,WS_RECV_END,1516218512292,64
355,PLAYER_SLEEPBEFORE_START,1516218512292,65
355,PLAYER_SLEEPBEFORE_END,1516218539109,65
355,WS_SEND_START,1516218539109,65
355,WS_SEND_END,1516218539109,65
355,WS_RECV_START,1516218539109,66
355,WS_RECV_END,1516218539272,66
355,PLAYER_SLEEPBEFORE_START,1516218539272,67
355,PLAYER_SLEEPBEFORE_END,1516218540779,67
355,WS_SEND_START,1516218540779,67
355,WS_SEND_END,1516218540779,67
355,WS_RECV_START,1516218540779,68
355,WS_RECV_END,1516218540915,68
355,PLAYER_SLEEPBEFORE_START,1516218540915,69
355,PLAYER_SLEEPBEFORE_END,1516218562914,69
355,WS_SEND_START,1516218562914,69
355,WS_SEND_END,1516218562914,69
355,WS_RECV_START,1516218562914,70
355,WS_RECV_END,1516218563080,70
355,PLAYER_SLEEPBEFORE_START,1516218563080,71
355,PLAYER_SLEEPBEFORE_END,1516218587855,71
355,WS_SEND_START,1516218587855,71
355,WS_SEND_END,1516218587855,71
355,PLAYER_SLEEPBEFORE_START,1516218587855,72
355,PLAYER_SLEEPBEFORE_END,1516218590462,72
355,WS_SEND_START,1516218590462,72
355,WS_SEND_END,1516218590462,72
355,WS_RECV_START,1516218590462,73
355,WS_RECV_END,1516218590725,73
355,PLAYER_SLEEPBEFORE_START,1516218590725,74
355,PLAYER_SLEEPBEFORE_END,1516218590734,74
355,WS_SEND_START,1516218590734,74
355,WS_SEND_END,1516218590735,74
355,WS_RECV_START,1516218590735,75
355,WS_RECV_END,1516218590896,75
355,PLAYER_SLEEPBEFORE_START,1516218590896,76
355,PLAYER_SLEEPBEFORE_END,1516218592402,76
355,WS_SEND_START,1516218592402,76
355,WS_SEND_END,1516218592402,76
355,WS_RECV_START,1516218592402,77
355,WS_RECV_END,1516218592968,77
355,PLAYER_SLEEPBEFORE_START,1516218592968,78
355,PLAYER_SLEEPBEFORE_END,1516218593836,78
355,WS_SEND_START,1516218593836,78
355,WS_SEND_END,1516218593836,78
355,WS_RECV_START,1516218593836,79
355,WS_RECV_END,1516218594228,79
355,PLAYER_SLEEPBEFORE_START,1516218594228,80
355,PLAYER_SLEEPBEFORE_END,1516218601894,80
355,WS_SEND_START,1516218601894,80
355,WS_SEND_END,1516218601894,80
355,WS_RECV_START,1516218601894,81
355,WS_RECV_END,1516218602067,81
355,PLAYER_SLEEPBEFORE_START,1516218602067,82
355,PLAYER_SLEEPBEFORE_END,1516218603169,82
355,WS_SEND_START,1516218603169,82
355,WS_SEND_END,1516218603169,82
355,WS_RECV_START,1516218603169,83
355,WS_RECV_END,1516218603612,83
355,PLAYER_SLEEPBEFORE_START,1516218603612,84
355,PLAYER_SLEEPBEFORE_END,1516218604559,84
355,WS_SEND_START,1516218604559,84
355,WS_SEND_END,1516218604560,84
355,WS_RECV_START,1516218604560,85
355,WS_RECV_END,1516218604945,85
355,PLAYER_SLEEPBEFORE_START,1516218604945,86
355,PLAYER_SLEEPBEFORE_END,1516218609117,86
355,WS_SEND_START,1516218609117,86
355,WS_SEND_END,1516218609117,86
355,WS_RECV_START,1516218609117,87
355,WS_RECV_END,1516218609220,87
355,PLAYER_SLEEPBEFORE_START,1516218609220,88
355,PLAYER_SLEEPBEFORE_END,1516218609228,88
355,WS_SEND_START,1516218609228,88
355,WS_SEND_END,1516218609228,88
355,WS_RECV_START,1516218609228,89
355,WS_RECV_END,1516218609367,89
355,PLAYER_SLEEPBEFORE_START,1516218609367,90
355,PLAYER_SLEEPBEFORE_END,1516218636564,90
355,REQ_START,1516218636564,90
355,REQ_END,1516218636571,90
355,PLAYER_SLEEPBEFORE_START,1516218636571,91
355,PLAYER_SLEEPBEFORE_END,1516218644460,91
355,WS_SEND_START,1516218644460,91
355,WS_SEND_END,1516218644460,91
355,WS_RECV_START,1516218644460,92
355,WS_RECV_END,1516218645578,92
355,PLAYER_SLEEPBEFORE_START,1516218645578,93
355,PLAYER_SLEEPBEFORE_END,1516218645593,93
355,WS_SEND_START,1516218645593,93
355,WS_SEND_END,1516218645593,93
355,WS_RECV_START,1516218645593,94
355,WS_RECV_END,1516218646273,94
355,PLAYER_SLEEPBEFORE_START,1516218646273,95
355,PLAYER_SLEEPBEFORE_END,1516218669828,95
355,WS_SEND_START,1516218669828,95
355,WS_SEND_END,1516218669828,95
355,WS_RECV_START,1516218669828,96
355,WS_RECV_END,1516218670328,96
355,PLAYER_SLEEPBEFORE_START,1516218670328,97
355,PLAYER_SLEEPBEFORE_END,1516218692768,97
355,WS_SEND_START,1516218692768,97
355,WS_SEND_END,1516218692768,97
355,WS_RECV_START,1516218692768,98
355,WS_RECV_END,1516218693455,98
355,PLAYER_SLEEPBEFORE_START,1516218693455,99
355,PLAYER_SLEEPBEFORE_END,1516218693476,99
355,WS_SEND_START,1516218693476,99
355,WS_SEND_END,1516218693476,99
355,WS_RECV_START,1516218693476,100
355,WS_RECV_END,1516218694149,100
355,PLAYER_SLEEPBEFORE_START,1516218694149,101
355,PLAYER_SLEEPBEFORE_END,1516218717708,101
355,WS_SEND_START,1516218717708,101
355,WS_SEND_END,1516218717708,101
355,WS_RECV_START,1516218717708,102
355,WS_RECV_END,1516218717927,102
355,PLAYER_SLEEPBEFORE_START,1516218717927,103
355,PLAYER_SLEEPBEFORE_END,1516218741552,103
355,WS_SEND_START,1516218741552,103
355,WS_SEND_END,1516218741552,103
355,WS_RECV_START,1516218741552,104
355,WS_RECV_END,1516218742031,104
355,PLAYER_SLEEPBEFORE_START,1516218742031,105
355,PLAYER_SLEEPBEFORE_END,1516218767408,105
355,WS_SEND_START,1516218767408,105
355,WS_SEND_END,1516218767408,105
355,WS_RECV_START,1516218767408,106
355,WS_RECV_END,1516218768116,106
355,PLAYER_SLEEPBEFORE_START,1516218768116,107
355,PLAYER_SLEEPBEFORE_END,1516218791539,107
355,WS_SEND_START,1516218791539,107
355,WS_SEND_END,1516218791539,107
355,WS_RECV_START,1516218791539,108
355,WS_RECV_END,1516218792328,108
355,PLAYER_SLEEPBEFORE_START,1516218792328,109
355,PLAYER_SLEEPBEFORE_END,1516218792338,109
355,WS_SEND_START,1516218792338,109
355,WS_SEND_END,1516218792338,109
355,WS_RECV_START,1516218792338,110
355,WS_RECV_END,1516218793988,110
355,PLAYER_SLEEPBEFORE_START,1516218793988,111
355,PLAYER_SLEEPBEFORE_END,1516218794947,111
355,WS_SEND_START,1516218794947,111
355,WS_SEND_END,1516218794947,111
355,WS_RECV_START,1516218794947,112
355,WS_RECV_END,1516218796001,112
355,PLAYER_SLEEPBEFORE_START,1516218796001,113
355,PLAYER_SLEEPBEFORE_END,1516218796563,113
355,WS_SEND_START,1516218796563,113
355,WS_SEND_END,1516218796563,113
355,WS_RECV_START,1516218796563,114
355,WS_RECV_END,1516218797482,114
355,PLAYER_SLEEPBEFORE_START,1516218797482,115
355,PLAYER_SLEEPBEFORE_END,1516218797491,115
355,WS_SEND_START,1516218797491,115
355,WS_SEND_END,1516218797491,115
355,WS_RECV_START,1516218797491,116
355,WS_RECV_END,1516218798454,116
355,PLAYER_SLEEPBEFORE_START,1516218798454,117
355,PLAYER_SLEEPBEFORE_END,1516218818814,117
355,WS_SEND_START,1516218818814,117
355,WS_SEND_END,1516218818814,117
355,PLAYER_SLEEPBEFORE_START,1516218818814,118
355,PLAYER_SLEEPBEFORE_END,1516218822566,118
355,WS_SEND_START,1516218822566,118
355,WS_SEND_END,1516218822566,118
355,WS_RECV_START,1516218822566,119
355,WS_RECV_END,1516218823177,119
355,PLAYER_SLEEPBEFORE_START,1516218823177,120
355,PLAYER_SLEEPBEFORE_END,1516218824165,120
355,WS_SEND_START,1516218824165,120
355,WS_SEND_END,1516218824165,120
355,WS_RECV_START,1516218824165,121
355,WS_RECV_END,1516218824331,121
355,PLAYER_SLEEPBEFORE_START,1516218824331,122
355,PLAYER_SLEEPBEFORE_END,1516218825516,122
355,WS_SEND_START,1516218825516,122
355,WS_SEND_END,1516218825516,122
355,WS_RECV_START,1516218825516,123
355,WS_RECV_END,1516218826121,123
355,PLAYER_SLEEPBEFORE_START,1516218826121,124
355,PLAYER_SLEEPBEFORE_END,1516218850526,124
355,WS_SEND_START,1516218850526,124
355,WS_SEND_END,1516218850526,124
355,WS_RECV_START,1516218850526,125
355,WS_RECV_END,1516218851498,125
355,PLAYER_SLEEPBEFORE_START,1516218851498,126
355,PLAYER_SLEEPBEFORE_END,1516218872010,126
355,WS_SEND_START,1516218872010,126
355,WS_SEND_END,1516218872010,126
355,PLAYER_SLEEPBEFORE_START,1516218872010,127
355,PLAYER_SLEEPBEFORE_END,1516218875064,127
355,WS_SEND_START,1516218875064,127
355,WS_SEND_END,1516218875064,127
355,WS_RECV_START,1516218875064,128
355,WS_RECV_END,1516218875459,128
355,PLAYER_SLEEPBEFORE_START,1516218875459,129
355,PLAYER_SLEEPBEFORE_END,1516218875479,129
355,WS_SEND_START,1516218875479,129
355,WS_SEND_END,1516218875479,129
355,WS_RECV_START,1516218875479,130
355,WS_RECV_END,1516218875741,130
355,PLAYER_SLEEPBEFORE_START,1516218875741,131
355,PLAYER_SLEEPBEFORE_END,1516218897365,131
355,WS_SEND_START,1516218897365,131
355,WS_SEND_END,1516218897365,131
355,PLAYER_SLEEPBEFORE_START,1516218897365,132
355,PLAYER_SLEEPBEFORE_END,1516218900445,132
355,WS_SEND_START,1516218900445,132
355,WS_SEND_END,1516218900445,132
355,WS_RECV_START,1516218900445,133
355,WS_RECV_END,1516218900626,133
355,PLAYER_SLEEPBEFORE_START,1516218900626,134
355,PLAYER_SLEEPBEFORE_END,1516218921843,134
355,WS_SEND_START,1516218921843,134
355,WS_SEND_END,1516218921843,134
355,PLAYER_SLEEPBEFORE_START,1516218921843,135
355,PLAYER_SLEEPBEFORE_END,1516218925033,135
355,WS_SEND_START,1516218925033,135
355,WS_SEND_END,1516218925033,135
355,WS_RECV_START,1516218925033,136
355,WS_RECV_END,1516218925201,136
355,PLAYER_SLEEPBEFORE_START,1516218925201,137
355,PLAYER_SLEEPBEFORE_END,1516218925208,137
355,WS_SEND_START,1516218925208,137
355,WS_SEND_END,1516218925208,137
355,WS_RECV_START,1516218925208,138
355,WS_RECV_END,1516218925272,138
355,PLAYER_SLEEPBEFORE_START,1516218925272,139
355,PLAYER_SLEEPBEFORE_END,1516218925962,139
355,WS_SEND_START,1516218925962,139
355,WS_SEND_END,1516218925962,139
355,WS_RECV_START,1516218925962,140
355,WS_RECV_END,1516218926218,140
355,PLAYER_SLEEPBEFORE_START,1516218926218,141
355,PLAYER_SLEEPBEFORE_END,1516218926873,141
355,WS_SEND_START,1516218926873,141
355,WS_SEND_END,1516218926873,141
355,WS_RECV_START,1516218926873,142
355,WS_RECV_END,1516218927076,142
355,PLAYER_SLEEPBEFORE_START,1516218927076,143
355,PLAYER_SLEEPBEFORE_END,1516218927133,143
355,WS_SEND_START,1516218927133,143
355,WS_SEND_END,1516218927133,143
355,WS_RECV_START,1516218927133,144
355,WS_RECV_END,1516218927459,144
355,PLAYER_SLEEPBEFORE_START,1516218927459,145
355,PLAYER_SLEEPBEFORE_END,1516218943521,145
355,REQ_START,1516218943521,145
355,REQ_END,1516218943528,145
355,PLAYER_SLEEPBEFORE_START,1516218943528,146
355,PLAYER_SLEEPBEFORE_END,1516218952406,146
355,WS_SEND_START,1516218952406,146
355,WS_SEND_END,1516218952406,146
355,WS_RECV_START,1516218952406,147
355,WS_RECV_END,1516218952555,147
355,PLAYER_SLEEPBEFORE_START,1516218952555,148
355,PLAYER_SLEEPBEFORE_END,1516218974477,148
355,WS_SEND_START,1516218974477,148
355,WS_SEND_END,1516218974477,148
355,PLAYER_SLEEPBEFORE_START,1516218974477,149
355,PLAYER_SLEEPBEFORE_END,1516218976905,149
355,WS_SEND_START,1516218976905,149
355,WS_SEND_END,1516218976906,149
355,WS_RECV_START,1516218976906,150
355,WS_RECV_END,1516218977990,150
355,PLAYER_SLEEPBEFORE_START,1516218977990,151
355,PLAYER_SLEEPBEFORE_END,1516218978200,151
355,WS_SEND_START,1516218978200,151
355,WS_SEND_END,1516218978200,151
355,WS_RECV_START,1516218978200,152
355,WS_RECV_END,1516218978717,152
355,PLAYER_SLEEPBEFORE_START,1516218978717,153
355,PLAYER_SLEEPBEFORE_END,1516219002644,153
355,WS_SEND_START,1516219002644,153
355,WS_SEND_END,1516219002644,153
355,WS_RECV_START,1516219002644,154
355,WS_RECV_END,1516219005769,154
355,PLAYER_SLEEPBEFORE_START,1516219005769,155
355,PLAYER_SLEEPBEFORE_END,1516219028328,155
355,WS_SEND_START,1516219028328,155
355,WS_SEND_END,1516219028328,155
355,PLAYER_SLEEPBEFORE_START,1516219028328,156
355,PLAYER_SLEEPBEFORE_END,1516219031602,156
355,WS_SEND_START,1516219031602,156
355,WS_SEND_END,1516219031602,156
355,WS_RECV_START,1516219031602,157
355,WS_RECV_END,1516219033924,157
355,PLAYER_SLEEPBEFORE_START,1516219033924,158
355,PLAYER_SLEEPBEFORE_END,1516219033934,158
355,WS_SEND_START,1516219033934,158
355,WS_SEND_END,1516219033934,158
355,WS_RECV_START,1516219033934,159
355,WS_RECV_END,1516219036551,159
355,PLAYER_SLEEPBEFORE_START,1516219036552,160
355,PLAYER_SLEEPBEFORE_END,1516219036727,160
355,WS_SEND_START,1516219036727,160
355,WS_SEND_END,1516219036727,160
355,WS_RECV_START,1516219036727,161
355,WS_RECV_END,1516219039614,161
355,PLAYER_SLEEPBEFORE_START,1516219039614,162
355,PLAYER_SLEEPBEFORE_END,1516219039639,162
355,WS_SEND_START,1516219039639,162
355,WS_SEND_END,1516219039639,162
355,WS_RECV_START,1516219039639,163
355,WS_RECV_END,1516219042760,163
355,PLAYER_SLEEPBEFORE_START,1516219042760,164
355,PLAYER_SLEEPBEFORE_END,1516219063572,164
355,WS_SEND_START,1516219063573,164
355,WS_SEND_END,1516219063573,164
355,WS_RECV_START,1516219063573,165
355,WS_RECV_END,1516219067674,165
355,PLAYER_SLEEPBEFORE_START,1516219067674,166
355,PLAYER_SLEEPBEFORE_END,1516219090130,166
355,WS_SEND_START,1516219090130,166
355,WS_SEND_END,1516219090130,166
355,WS_RECV_START,1516219090130,167
355,WS_RECV_END,1516219093274,167
355,PLAYER_SLEEPBEFORE_START,1516219093274,168
355,PLAYER_SLEEPBEFORE_END,1516219120631,168
355,WS_SEND_START,1516219120631,168
355,WS_SEND_END,1516219120631,168
355,WS_RECV_START,1516219120631,169
355,WS_RECV_END,1516219126872,169
355,PLAYER_SLEEPBEFORE_START,1516219126872,170
355,PLAYER_SLEEPBEFORE_END,1516219126881,170
355,WS_SEND_START,1516219126881,170
355,WS_SEND_END,1516219126881,170
355,WS_RECV_START,1516219126881,171
355,WS_RECV_END,1516219129008,171
355,PLAYER_SLEEPBEFORE_START,1516219129008,172
355,PLAYER_SLEEPBEFORE_END,1516219129377,172
355,WS_SEND_START,1516219129377,172
355,WS_SEND_END,1516219129377,172
355,WS_RECV_START,1516219129377,173
355,WS_RECV_END,1516219130509,173
355,PLAYER_SLEEPBEFORE_START,1516219130509,174
355,PLAYER_SLEEPBEFORE_END,1516219130551,174
355,WS_SEND_START,1516219130551,174
355,WS_SEND_END,1516219130551,174
355,WS_RECV_START,1516219130551,175
355,WS_RECV_END,1516219131963,175
355,PLAYER_SLEEPBEFORE_START,1516219131963,176
355,PLAYER_SLEEPBEFORE_END,1516219153724,176
355,WS_SEND_START,1516219153724,176
355,WS_SEND_END,1516219153724,176
355,PLAYER_SLEEPBEFORE_START,1516219153724,177
355,PLAYER_SLEEPBEFORE_END,1516219156243,177
355,WS_SEND_START,1516219156243,177
355,WS_SEND_END,1516219156243,177
355,WS_RECV_START,1516219156243,178
355,WS_RECV_END,1516219156386,178
355,PLAYER_SLEEPBEFORE_START,1516219156386,179
355,PLAYER_SLEEPBEFORE_END,1516219178726,179
355,WS_SEND_START,1516219178726,179
355,WS_SEND_END,1516219178726,179
355,WS_RECV_START,1516219178726,180
355,WS_RECV_END,1516219179027,180
355,PLAYER_SLEEPBEFORE_START,1516219179027,181
355,PLAYER_SLEEPBEFORE_END,1516219179471,181
355,WS_SEND_START,1516219179471,181
355,WS_SEND_END,1516219179471,181
355,WS_RECV_START,1516219179471,182
355,WS_RECV_END,1516219179631,182
355,PLAYER_SLEEPBEFORE_START,1516219179631,183
355,PLAYER_SLEEPBEFORE_END,1516219180154,183
355,WS_SEND_START,1516219180155,183
355,WS_SEND_END,1516219180155,183
355,WS_RECV_START,1516219180155,184
355,WS_RECV_END,1516219180329,184
355,PLAYER_SLEEPBEFORE_START,1516219180329,185
355,PLAYER_SLEEPBEFORE_END,1516219180597,185
355,WS_SEND_START,1516219180597,185
355,WS_SEND_END,1516219180597,185
355,WS_RECV_START,1516219180597,186
355,WS_RECV_END,1516219180766,186
355,PLAYER_SLEEPBEFORE_START,1516219180766,187
355,PLAYER_SLEEPBEFORE_END,1516219203266,187
355,WS_SEND_START,1516219203266,187
355,WS_SEND_END,1516219203266,187
355,WS_RECV_START,1516219203266,188
355,WS_RECV_END,1516219203448,188
355,PLAYER_SLEEPBEFORE_START,1516219203448,189
355,PLAYER_SLEEPBEFORE_END,1516219209687,189
355,WS_SEND_START,1516219209687,189
355,WS_SEND_END,1516219209687,189
355,WS_RECV_START,1516219209687,190
355,WS_RECV_END,1516219209835,190
355,PLAYER_SLEEPBEFORE_START,1516219209835,191
355,PLAYER_SLEEPBEFORE_END,1516219211750,191
355,WS_SEND_START,1516219211750,191
355,WS_SEND_END,1516219211750,191
355,WS_RECV_START,1516219211750,192
355,WS_RECV_END,1516219211874,192
355,PLAYER_SLEEPBEFORE_START,1516219211874,193
355,PLAYER_SLEEPBEFORE_END,1516219212002,193
355,WS_SEND_START,1516219212002,193
355,WS_SEND_END,1516219212002,193
355,WS_RECV_START,1516219212002,194
355,WS_RECV_END,1516219212151,194
355,PLAYER_SLEEPBEFORE_START,1516219212151,195
355,PLAYER_SLEEPBEFORE_END,1516219213906,195
355,WS_SEND_START,1516219213906,195
355,WS_SEND_END,1516219213906,195
355,WS_RECV_START,1516219213906,196
355,WS_RECV_END,1516219214056,196
355,PLAYER_SLEEPBEFORE_START,1516219214056,197
355,PLAYER_SLEEPBEFORE_END,1516219215860,197
355,WS_SEND_START,1516219215860,197
355,WS_SEND_END,1516219215860,197
355,WS_RECV_START,1516219215860,198
355,WS_RECV_END,1516219216001,198
355,PLAYER_SLEEPBEFORE_START,1516219216001,199
355,PLAYER_SLEEPBEFORE_END,1516219227855,199
355,WS_SEND_START,1516219227855,199
355,WS_SEND_END,1516219227855,199
355,PLAYER_SLEEPBEFORE_START,1516219227855,200
355,PLAYER_SLEEPBEFORE_END,1516219231943,200
355,WS_SEND_START,1516219231943,200
355,WS_SEND_END,1516219231943,200
355,WS_RECV_START,1516219231943,201
355,WS_RECV_END,1516219232041,201
355,PLAYER_SLEEPBEFORE_START,1516219232041,202
355,PLAYER_SLEEPBEFORE_END,1516219232055,202
355,WS_SEND_START,1516219232055,202
355,WS_SEND_END,1516219232055,202
355,WS_RECV_START,1516219232055,203
355,WS_RECV_END,1516219232174,203
355,PLAYER_SLEEPBEFORE_START,1516219232174,204
355,PLAYER_SLEEPBEFORE_END,1516219251823,204
355,WS_SEND_START,1516219251823,204
355,WS_SEND_END,1516219251823,204
355,PLAYER_SLEEPBEFORE_START,1516219251823,205
355,PLAYER_SLEEPBEFORE_END,1516219255721,205
355,WS_SEND_START,1516219255721,205
355,WS_SEND_END,1516219255721,205
355,WS_RECV_START,1516219255721,206
355,WS_RECV_END,1516219255840,206
355,PLAYER_SLEEPBEFORE_START,1516219255840,207
355,PLAYER_SLEEPBEFORE_END,1516219272771,207
355,REQ_START,1516219272771,207
355,REQ_END,1516219272779,207
355,PLAYER_SLEEPBEFORE_START,1516219272779,208
355,PLAYER_SLEEPBEFORE_END,1516219279631,208
355,WS_CLOSE_START,1516219279631,208
355,WS_CLOSE_END,1516219279631,208
355,PLAYER_DONE,1516219279631
