# --sessions 360 --app-url=http://shinyloadtest.rstudioservices.com/cran_explorer --output-dir test360 --overwrite-output --log-level warn --start-interval 500 15min.log
thread_id,event,timestamp,input_line_number,comment
54,PLAYER_SESSION_CREATE,1516218150671
54,PLAYER_START_INTERVAL_START,1516218150672
54,PLAYER_START_INTERVAL_END,1516218177672
54,REQ_HOME_START,1516218177672,2
54,REQ_HOME_END,1516218177755,2
54,REQ_START,1516218177755,3
54,REQ_END,1516218177787,3
54,REQ_START,1516218177787,4
54,REQ_END,1516218177821,4
54,REQ_START,1516218177821,5
54,REQ_END,1516218177855,5
54,REQ_START,1516218177855,6
54,REQ_END,1516218177888,6
54,REQ_START,1516218177888,7
54,REQ_END,1516218177923,7
54,REQ_START,1516218177923,8
54,REQ_END,1516218177960,8
54,REQ_START,1516218177960,9
54,REQ_END,1516218177996,9
54,REQ_START,1516218177996,10
54,REQ_END,1516218178006,10
54,REQ_START,1516218178006,11
54,REQ_END,1516218178056,11
54,REQ_START,1516218178056,12
54,REQ_END,1516218178066,12
54,REQ_START,1516218178066,13
54,REQ_END,1516218178097,13
54,REQ_START,1516218178097,14
54,REQ_END,1516218178113,14
54,REQ_START,1516218178113,15
54,REQ_END,1516218178146,15
54,REQ_TOK_START,1516218178146,16
54,REQ_TOK_END,1516218178154,16
54,REQ_SINF_START,1516218178154,17
54,REQ_SINF_END,1516218178162,17
54,WS_OPEN_START,1516218178162,18
54,WS_OPEN_END,1516218178169,18
54,REQ_START,1516218178169,19
54,REQ_END,1516218178195,19
54,WS_RECV_START,1516218178195,20
54,WS_RECV_END,1516218178196,20
54,PLAYER_SLEEPBEFORE_START,1516218178196,21
54,PLAYER_SLEEPBEFORE_END,1516218178201,21
54,WS_SEND_START,1516218178201,21
54,WS_SEND_END,1516218178201,21
54,PLAYER_SLEEPBEFORE_START,1516218178201,22
54,PLAYER_SLEEPBEFORE_END,1516218178202,22
54,WS_SEND_START,1516218178202,22
54,WS_SEND_END,1516218178202,22
54,WS_RECV_INIT_START,1516218178202,23
54,WS_RECV_INIT_END,1516218178218,23
54,WS_RECV_START,1516218178218,24
54,WS_RECV_END,1516218178282,24
54,PLAYER_SLEEPBEFORE_START,1516218178282,25
54,PLAYER_SLEEPBEFORE_END,1516218178289,25
54,REQ_START,1516218178289,25
54,REQ_END,1516218178320,25
54,PLAYER_SLEEPBEFORE_START,1516218178320,26
54,PLAYER_SLEEPBEFORE_END,1516218178321,26
54,REQ_START,1516218178321,26
54,REQ_END,1516218178351,26
54,PLAYER_SLEEPBEFORE_START,1516218178351,27
54,PLAYER_SLEEPBEFORE_END,1516218178354,27
54,REQ_START,1516218178354,27
54,REQ_END,1516218178385,27
54,PLAYER_SLEEPBEFORE_START,1516218178385,28
54,PLAYER_SLEEPBEFORE_END,1516218178671,28
54,REQ_START,1516218178671,28
54,REQ_END,1516218178705,28
54,PLAYER_SLEEPBEFORE_START,1516218178705,29
54,PLAYER_SLEEPBEFORE_END,1516218178880,29
54,WS_SEND_START,1516218178880,29
54,WS_SEND_END,1516218178880,29
54,WS_RECV_START,1516218178880,30
54,WS_RECV_END,1516218178992,30
54,PLAYER_SLEEPBEFORE_START,1516218178992,31
54,PLAYER_SLEEPBEFORE_END,1516218179003,31
54,REQ_START,1516218179003,31
54,REQ_END,1516218179038,31
54,PLAYER_SLEEPBEFORE_START,1516218179038,32
54,PLAYER_SLEEPBEFORE_END,1516218207183,32
54,WS_SEND_START,1516218207183,32
54,WS_SEND_END,1516218207183,32
54,WS_RECV_START,1516218207183,33
54,WS_RECV_END,1516218207302,33
54,PLAYER_SLEEPBEFORE_START,1516218207302,34
54,PLAYER_SLEEPBEFORE_END,1516218233213,34
54,WS_SEND_START,1516218233213,34
54,WS_SEND_END,1516218233213,34
54,WS_RECV_START,1516218233213,35
54,WS_RECV_END,1516218233238,35
54,PLAYER_SLEEPBEFORE_START,1516218233238,36
54,PLAYER_SLEEPBEFORE_END,1516218233247,36
54,WS_SEND_START,1516218233247,36
54,WS_SEND_END,1516218233247,36
54,WS_RECV_START,1516218233247,37
54,WS_RECV_END,1516218233290,37
54,PLAYER_SLEEPBEFORE_START,1516218233290,38
54,PLAYER_SLEEPBEFORE_END,1516218236485,38
54,WS_SEND_START,1516218236485,38
54,WS_SEND_END,1516218236485,38
54,WS_RECV_START,1516218236485,39
54,WS_RECV_END,1516218236660,39
54,PLAYER_SLEEPBEFORE_START,1516218236660,40
54,PLAYER_SLEEPBEFORE_END,1516218236706,40
54,WS_SEND_START,1516218236706,40
54,WS_SEND_END,1516218236706,40
54,WS_RECV_START,1516218236706,41
54,WS_RECV_END,1516218238999,41
54,PLAYER_SLEEPBEFORE_START,1516218238999,42
54,PLAYER_SLEEPBEFORE_END,1516218257135,42
54,WS_SEND_START,1516218257135,42
54,WS_SEND_END,1516218257135,42
54,WS_RECV_START,1516218257135,43
54,WS_RECV_END,1516218257206,43
54,PLAYER_SLEEPBEFORE_START,1516218257206,44
54,PLAYER_SLEEPBEFORE_END,1516218257218,44
54,WS_SEND_START,1516218257218,44
54,WS_SEND_END,1516218257218,44
54,WS_RECV_START,1516218257218,45
54,WS_RECV_END,1516218257369,45
54,PLAYER_SLEEPBEFORE_START,1516218257369,46
54,PLAYER_SLEEPBEFORE_END,1516218258630,46
54,WS_SEND_START,1516218258630,46
54,WS_SEND_END,1516218258630,46
54,WS_RECV_START,1516218258630,47
54,WS_RECV_END,1516218258671,47
54,PLAYER_SLEEPBEFORE_START,1516218258671,48
54,PLAYER_SLEEPBEFORE_END,1516218259991,48
54,WS_SEND_START,1516218259991,48
54,WS_SEND_END,1516218259991,48
54,WS_RECV_START,1516218259991,49
54,WS_RECV_END,1516218260115,49
54,PLAYER_SLEEPBEFORE_START,1516218260115,50
54,PLAYER_SLEEPBEFORE_END,1516218260139,50
54,WS_SEND_START,1516218260139,50
54,WS_SEND_END,1516218260139,50
54,WS_RECV_START,1516218260139,51
54,WS_RECV_END,1516218260245,51
54,PLAYER_SLEEPBEFORE_START,1516218260245,52
54,PLAYER_SLEEPBEFORE_END,1516218282810,52
54,WS_SEND_START,1516218282810,52
54,WS_SEND_END,1516218282810,52
54,WS_RECV_START,1516218282810,53
54,WS_RECV_END,1516218283164,53
54,PLAYER_SLEEPBEFORE_START,1516218283164,54
54,PLAYER_SLEEPBEFORE_END,1516218304467,54
54,WS_SEND_START,1516218304467,54
54,WS_SEND_END,1516218304467,54
54,PLAYER_SLEEPBEFORE_START,1516218304467,55
54,PLAYER_SLEEPBEFORE_END,1516218306408,55
54,WS_SEND_START,1516218306408,55
54,WS_SEND_END,1516218306408,55
54,WS_RECV_START,1516218306408,56
54,WS_RECV_END,1516218306489,56
54,PLAYER_SLEEPBEFORE_START,1516218306489,57
54,PLAYER_SLEEPBEFORE_END,1516218329361,57
54,WS_SEND_START,1516218329361,57
54,WS_SEND_END,1516218329361,57
54,WS_RECV_START,1516218329361,58
54,WS_RECV_END,1516218329652,58
54,PLAYER_SLEEPBEFORE_START,1516218329652,59
54,PLAYER_SLEEPBEFORE_END,1516218331979,59
54,WS_SEND_START,1516218331979,59
54,WS_SEND_END,1516218331979,59
54,WS_RECV_START,1516218331979,60
54,WS_RECV_END,1516218332256,60
54,PLAYER_SLEEPBEFORE_START,1516218332256,61
54,PLAYER_SLEEPBEFORE_END,1516218335847,61
54,WS_SEND_START,1516218335847,61
54,WS_SEND_END,1516218335847,61
54,WS_RECV_START,1516218335847,62
54,WS_RECV_END,1516218336240,62
54,PLAYER_SLEEPBEFORE_START,1516218336240,63
54,PLAYER_SLEEPBEFORE_END,1516218355502,63
54,WS_SEND_START,1516218355502,63
54,WS_SEND_END,1516218355502,63
54,WS_RECV_START,1516218355502,64
54,WS_RECV_END,1516218355553,64
54,PLAYER_SLEEPBEFORE_START,1516218355553,65
54,PLAYER_SLEEPBEFORE_END,1516218382371,65
54,WS_SEND_START,1516218382371,65
54,WS_SEND_END,1516218382371,65
54,WS_RECV_START,1516218382371,66
54,WS_RECV_END,1516218382547,66
54,PLAYER_SLEEPBEFORE_START,1516218382547,67
54,PLAYER_SLEEPBEFORE_END,1516218384054,67
54,WS_SEND_START,1516218384054,67
54,WS_SEND_END,1516218384054,67
54,WS_RECV_START,1516218384054,68
54,WS_RECV_END,1516218384291,68
54,PLAYER_SLEEPBEFORE_START,1516218384291,69
54,PLAYER_SLEEPBEFORE_END,1516218406289,69
54,WS_SEND_START,1516218406289,69
54,WS_SEND_END,1516218406289,69
54,WS_RECV_START,1516218406289,70
54,WS_RECV_END,1516218406393,70
54,PLAYER_SLEEPBEFORE_START,1516218406393,71
54,PLAYER_SLEEPBEFORE_END,1516218431168,71
54,WS_SEND_START,1516218431168,71
54,WS_SEND_END,1516218431168,71
54,PLAYER_SLEEPBEFORE_START,1516218431168,72
54,PLAYER_SLEEPBEFORE_END,1516218433775,72
54,WS_SEND_START,1516218433775,72
54,WS_SEND_END,1516218433775,72
54,WS_RECV_START,1516218433775,73
54,WS_RECV_END,1516218434202,73
54,PLAYER_SLEEPBEFORE_START,1516218434202,74
54,PLAYER_SLEEPBEFORE_END,1516218434211,74
54,WS_SEND_START,1516218434211,74
54,WS_SEND_END,1516218434211,74
54,WS_RECV_START,1516218434211,75
54,WS_RECV_END,1516218434617,75
54,PLAYER_SLEEPBEFORE_START,1516218434617,76
54,PLAYER_SLEEPBEFORE_END,1516218436123,76
54,WS_SEND_START,1516218436123,76
54,WS_SEND_END,1516218436123,76
54,WS_RECV_START,1516218436123,77
54,WS_RECV_END,1516218436305,77
54,PLAYER_SLEEPBEFORE_START,1516218436305,78
54,PLAYER_SLEEPBEFORE_END,1516218437173,78
54,WS_SEND_START,1516218437173,78
54,WS_SEND_END,1516218437173,78
54,WS_RECV_START,1516218437173,79
54,WS_RECV_END,1516218437456,79
54,PLAYER_SLEEPBEFORE_START,1516218437456,80
54,PLAYER_SLEEPBEFORE_END,1516218445122,80
54,WS_SEND_START,1516218445122,80
54,WS_SEND_END,1516218445122,80
54,WS_RECV_START,1516218445122,81
54,WS_RECV_END,1516218445210,81
54,PLAYER_SLEEPBEFORE_START,1516218445210,82
54,PLAYER_SLEEPBEFORE_END,1516218446312,82
54,WS_SEND_START,1516218446312,82
54,WS_SEND_END,1516218446312,82
54,WS_RECV_START,1516218446312,83
54,WS_RECV_END,1516218446347,83
54,PLAYER_SLEEPBEFORE_START,1516218446348,84
54,PLAYER_SLEEPBEFORE_END,1516218447295,84
54,WS_SEND_START,1516218447295,84
54,WS_SEND_END,1516218447295,84
54,WS_RECV_START,1516218447295,85
54,WS_RECV_END,1516218447485,85
54,PLAYER_SLEEPBEFORE_START,1516218447485,86
54,PLAYER_SLEEPBEFORE_END,1516218451657,86
54,WS_SEND_START,1516218451657,86
54,WS_SEND_END,1516218451657,86
54,WS_RECV_START,1516218451657,87
54,WS_RECV_END,1516218451806,87
54,PLAYER_SLEEPBEFORE_START,1516218451806,88
54,PLAYER_SLEEPBEFORE_END,1516218451814,88
54,WS_SEND_START,1516218451814,88
54,WS_SEND_END,1516218451814,88
54,WS_RECV_START,1516218451814,89
54,WS_RECV_END,1516218452053,89
54,PLAYER_SLEEPBEFORE_START,1516218452053,90
54,PLAYER_SLEEPBEFORE_END,1516218479250,90
54,REQ_START,1516218479250,90
54,REQ_END,1516218479257,90
54,PLAYER_SLEEPBEFORE_START,1516218479257,91
54,PLAYER_SLEEPBEFORE_END,1516218487146,91
54,WS_SEND_START,1516218487146,91
54,WS_SEND_END,1516218487146,91
54,WS_RECV_START,1516218487147,92
54,WS_RECV_END,1516218487327,92
54,PLAYER_SLEEPBEFORE_START,1516218487327,93
54,PLAYER_SLEEPBEFORE_END,1516218487342,93
54,WS_SEND_START,1516218487342,93
54,WS_SEND_END,1516218487342,93
54,WS_RECV_START,1516218487342,94
54,WS_RECV_END,1516218487634,94
54,PLAYER_SLEEPBEFORE_START,1516218487634,95
54,PLAYER_SLEEPBEFORE_END,1516218511189,95
54,WS_SEND_START,1516218511189,95
54,WS_SEND_END,1516218511189,95
54,WS_RECV_START,1516218511189,96
54,WS_RECV_END,1516218511394,96
54,PLAYER_SLEEPBEFORE_START,1516218511394,97
54,PLAYER_SLEEPBEFORE_END,1516218533834,97
54,WS_SEND_START,1516218533834,97
54,WS_SEND_END,1516218533834,97
54,WS_RECV_START,1516218533834,98
54,WS_RECV_END,1516218534231,98
54,PLAYER_SLEEPBEFORE_START,1516218534231,99
54,PLAYER_SLEEPBEFORE_END,1516218534252,99
54,WS_SEND_START,1516218534252,99
54,WS_SEND_END,1516218534252,99
54,WS_RECV_START,1516218534252,100
54,WS_RECV_END,1516218534408,100
54,PLAYER_SLEEPBEFORE_START,1516218534408,101
54,PLAYER_SLEEPBEFORE_END,1516218557967,101
54,WS_SEND_START,1516218557967,101
54,WS_SEND_END,1516218557967,101
54,WS_RECV_START,1516218557967,102
54,WS_RECV_END,1516218558729,102
54,PLAYER_SLEEPBEFORE_START,1516218558729,103
54,PLAYER_SLEEPBEFORE_END,1516218582354,103
54,WS_SEND_START,1516218582354,103
54,WS_SEND_END,1516218582354,103
54,WS_RECV_START,1516218582354,104
54,WS_RECV_END,1516218582666,104
54,PLAYER_SLEEPBEFORE_START,1516218582666,105
54,PLAYER_SLEEPBEFORE_END,1516218608043,105
54,WS_SEND_START,1516218608043,105
54,WS_SEND_END,1516218608043,105
54,WS_RECV_START,1516218608043,106
54,WS_RECV_END,1516218608287,106
54,PLAYER_SLEEPBEFORE_START,1516218608287,107
54,PLAYER_SLEEPBEFORE_END,1516218631710,107
54,WS_SEND_START,1516218631710,107
54,WS_SEND_END,1516218631710,107
54,WS_RECV_START,1516218631710,108
54,WS_RECV_END,1516218631856,108
54,PLAYER_SLEEPBEFORE_START,1516218631856,109
54,PLAYER_SLEEPBEFORE_END,1516218631865,109
54,WS_SEND_START,1516218631865,109
54,WS_SEND_END,1516218631865,109
54,WS_RECV_START,1516218631865,110
54,WS_RECV_END,1516218632152,110
54,PLAYER_SLEEPBEFORE_START,1516218632152,111
54,PLAYER_SLEEPBEFORE_END,1516218633111,111
54,WS_SEND_START,1516218633111,111
54,WS_SEND_END,1516218633111,111
54,WS_RECV_START,1516218633111,112
54,WS_RECV_END,1516218633320,112
54,PLAYER_SLEEPBEFORE_START,1516218633320,113
54,PLAYER_SLEEPBEFORE_END,1516218633882,113
54,WS_SEND_START,1516218633882,113
54,WS_SEND_END,1516218633882,113
54,WS_RECV_START,1516218633882,114
54,WS_RECV_END,1516218633972,114
54,PLAYER_SLEEPBEFORE_START,1516218633972,115
54,PLAYER_SLEEPBEFORE_END,1516218633981,115
54,WS_SEND_START,1516218633981,115
54,WS_SEND_END,1516218633981,115
54,WS_RECV_START,1516218633981,116
54,WS_RECV_END,1516218634340,116
54,PLAYER_SLEEPBEFORE_START,1516218634340,117
54,PLAYER_SLEEPBEFORE_END,1516218654700,117
54,WS_SEND_START,1516218654700,117
54,WS_SEND_END,1516218654700,117
54,PLAYER_SLEEPBEFORE_START,1516218654700,118
54,PLAYER_SLEEPBEFORE_END,1516218658452,118
54,WS_SEND_START,1516218658452,118
54,WS_SEND_END,1516218658452,118
54,WS_RECV_START,1516218658452,119
54,WS_RECV_END,1516218658989,119
54,PLAYER_SLEEPBEFORE_START,1516218658989,120
54,PLAYER_SLEEPBEFORE_END,1516218659977,120
54,WS_SEND_START,1516218659977,120
54,WS_SEND_END,1516218659977,120
54,WS_RECV_START,1516218659977,121
54,WS_RECV_END,1516218660136,121
54,PLAYER_SLEEPBEFORE_START,1516218660136,122
54,PLAYER_SLEEPBEFORE_END,1516218661321,122
54,WS_SEND_START,1516218661321,122
54,WS_SEND_END,1516218661321,122
54,WS_RECV_START,1516218661321,123
54,WS_RECV_END,1516218661463,123
54,PLAYER_SLEEPBEFORE_START,1516218661463,124
54,PLAYER_SLEEPBEFORE_END,1516218685868,124
54,WS_SEND_START,1516218685868,124
54,WS_SEND_END,1516218685868,124
54,WS_RECV_START,1516218685868,125
54,WS_RECV_END,1516218686239,125
54,PLAYER_SLEEPBEFORE_START,1516218686239,126
54,PLAYER_SLEEPBEFORE_END,1516218706751,126
54,WS_SEND_START,1516218706751,126
54,WS_SEND_END,1516218706751,126
54,PLAYER_SLEEPBEFORE_START,1516218706751,127
54,PLAYER_SLEEPBEFORE_END,1516218709805,127
54,WS_SEND_START,1516218709805,127
54,WS_SEND_END,1516218709805,127
54,WS_RECV_START,1516218709805,128
54,WS_RECV_END,1516218709928,128
54,PLAYER_SLEEPBEFORE_START,1516218709928,129
54,PLAYER_SLEEPBEFORE_END,1516218709948,129
54,WS_SEND_START,1516218709948,129
54,WS_SEND_END,1516218709948,129
54,WS_RECV_START,1516218709948,130
54,WS_RECV_END,1516218710266,130
54,PLAYER_SLEEPBEFORE_START,1516218710266,131
54,PLAYER_SLEEPBEFORE_END,1516218731890,131
54,WS_SEND_START,1516218731890,131
54,WS_SEND_END,1516218731891,131
54,PLAYER_SLEEPBEFORE_START,1516218731891,132
54,PLAYER_SLEEPBEFORE_END,1516218734971,132
54,WS_SEND_START,1516218734971,132
54,WS_SEND_END,1516218734971,132
54,WS_RECV_START,1516218734971,133
54,WS_RECV_END,1516218735649,133
54,PLAYER_SLEEPBEFORE_START,1516218735649,134
54,PLAYER_SLEEPBEFORE_END,1516218756866,134
54,WS_SEND_START,1516218756866,134
54,WS_SEND_END,1516218756866,134
54,PLAYER_SLEEPBEFORE_START,1516218756866,135
54,PLAYER_SLEEPBEFORE_END,1516218760056,135
54,WS_SEND_START,1516218760056,135
54,WS_SEND_END,1516218760056,135
54,WS_RECV_START,1516218760056,136
54,WS_RECV_END,1516218761505,136
54,PLAYER_SLEEPBEFORE_START,1516218761505,137
54,PLAYER_SLEEPBEFORE_END,1516218761512,137
54,WS_SEND_START,1516218761512,137
54,WS_SEND_END,1516218761512,137
54,WS_RECV_START,1516218761512,138
54,WS_RECV_END,1516218762804,138
54,PLAYER_SLEEPBEFORE_START,1516218762804,139
54,PLAYER_SLEEPBEFORE_END,1516218763494,139
54,WS_SEND_START,1516218763494,139
54,WS_SEND_END,1516218763494,139
54,WS_RECV_START,1516218763494,140
54,WS_RECV_END,1516218764303,140
54,PLAYER_SLEEPBEFORE_START,1516218764303,141
54,PLAYER_SLEEPBEFORE_END,1516218764958,141
54,WS_SEND_START,1516218764958,141
54,WS_SEND_END,1516218764958,141
54,WS_RECV_START,1516218764958,142
54,WS_RECV_END,1516218766146,142
54,PLAYER_SLEEPBEFORE_START,1516218766146,143
54,PLAYER_SLEEPBEFORE_END,1516218766203,143
54,WS_SEND_START,1516218766203,143
54,WS_SEND_END,1516218766203,143
54,WS_RECV_START,1516218766203,144
54,WS_RECV_END,1516218767350,144
54,PLAYER_SLEEPBEFORE_START,1516218767350,145
54,PLAYER_SLEEPBEFORE_END,1516218783412,145
54,REQ_START,1516218783412,145
54,REQ_END,1516218783420,145
54,PLAYER_SLEEPBEFORE_START,1516218783420,146
54,PLAYER_SLEEPBEFORE_END,1516218792297,146
54,WS_SEND_START,1516218792297,146
54,WS_SEND_END,1516218792297,146
54,WS_RECV_START,1516218792297,147
54,WS_RECV_END,1516218792699,147
54,PLAYER_SLEEPBEFORE_START,1516218792699,148
54,PLAYER_SLEEPBEFORE_END,1516218814621,148
54,WS_SEND_START,1516218814621,148
54,WS_SEND_END,1516218814621,148
54,PLAYER_SLEEPBEFORE_START,1516218814621,149
54,PLAYER_SLEEPBEFORE_END,1516218817049,149
54,WS_SEND_START,1516218817049,149
54,WS_SEND_END,1516218817049,149
54,WS_RECV_START,1516218817049,150
54,WS_RECV_END,1516218818100,150
54,PLAYER_SLEEPBEFORE_START,1516218818100,151
54,PLAYER_SLEEPBEFORE_END,1516218818310,151
54,WS_SEND_START,1516218818310,151
54,WS_SEND_END,1516218818310,151
54,WS_RECV_START,1516218818310,152
54,WS_RECV_END,1516218818679,152
54,PLAYER_SLEEPBEFORE_START,1516218818679,153
54,PLAYER_SLEEPBEFORE_END,1516218842606,153
54,WS_SEND_START,1516218842606,153
54,WS_SEND_END,1516218842606,153
54,WS_RECV_START,1516218842606,154
54,WS_RECV_END,1516218843070,154
54,PLAYER_SLEEPBEFORE_START,1516218843070,155
54,PLAYER_SLEEPBEFORE_END,1516218865628,155
54,WS_SEND_START,1516218865628,155
54,WS_SEND_END,1516218865628,155
54,PLAYER_SLEEPBEFORE_START,1516218865628,156
54,PLAYER_SLEEPBEFORE_END,1516218868902,156
54,WS_SEND_START,1516218868902,156
54,WS_SEND_END,1516218868902,156
54,WS_RECV_START,1516218868902,157
54,WS_RECV_END,1516218869186,157
54,PLAYER_SLEEPBEFORE_START,1516218869186,158
54,PLAYER_SLEEPBEFORE_END,1516218869196,158
54,WS_SEND_START,1516218869196,158
54,WS_SEND_END,1516218869196,158
54,WS_RECV_START,1516218869196,159
54,WS_RECV_END,1516218869372,159
54,PLAYER_SLEEPBEFORE_START,1516218869372,160
54,PLAYER_SLEEPBEFORE_END,1516218869547,160
54,WS_SEND_START,1516218869547,160
54,WS_SEND_END,1516218869547,160
54,WS_RECV_START,1516218869547,161
54,WS_RECV_END,1516218869733,161
54,PLAYER_SLEEPBEFORE_START,1516218869733,162
54,PLAYER_SLEEPBEFORE_END,1516218869758,162
54,WS_SEND_START,1516218869758,162
54,WS_SEND_END,1516218869758,162
54,WS_RECV_START,1516218869758,163
54,WS_RECV_END,1516218869942,163
54,PLAYER_SLEEPBEFORE_START,1516218869943,164
54,PLAYER_SLEEPBEFORE_END,1516218890755,164
54,WS_SEND_START,1516218890755,164
54,WS_SEND_END,1516218890755,164
54,WS_RECV_START,1516218890755,165
54,WS_RECV_END,1516218890986,165
54,PLAYER_SLEEPBEFORE_START,1516218890986,166
54,PLAYER_SLEEPBEFORE_END,1516218913441,166
54,WS_SEND_START,1516218913441,166
54,WS_SEND_END,1516218913441,166
54,WS_RECV_START,1516218913441,167
54,WS_RECV_END,1516218913636,167
54,PLAYER_SLEEPBEFORE_START,1516218913636,168
54,PLAYER_SLEEPBEFORE_END,1516218940993,168
54,WS_SEND_START,1516218940993,168
54,WS_SEND_END,1516218940993,168
54,WS_RECV_START,1516218940993,169
54,WS_RECV_END,1516218941047,169
54,PLAYER_SLEEPBEFORE_START,1516218941047,170
54,PLAYER_SLEEPBEFORE_END,1516218941056,170
54,WS_SEND_START,1516218941056,170
54,WS_SEND_END,1516218941056,170
54,WS_RECV_START,1516218941056,171
54,WS_RECV_END,1516218941095,171
54,PLAYER_SLEEPBEFORE_START,1516218941095,172
54,PLAYER_SLEEPBEFORE_END,1516218941465,172
54,WS_SEND_START,1516218941465,172
54,WS_SEND_END,1516218941465,172
54,WS_RECV_START,1516218941465,173
54,WS_RECV_END,1516218941755,173
54,PLAYER_SLEEPBEFORE_START,1516218941755,174
54,PLAYER_SLEEPBEFORE_END,1516218941796,174
54,WS_SEND_START,1516218941796,174
54,WS_SEND_END,1516218941796,174
54,WS_RECV_START,1516218941796,175
54,WS_RECV_END,1516218941911,175
54,PLAYER_SLEEPBEFORE_START,1516218941911,176
54,PLAYER_SLEEPBEFORE_END,1516218963672,176
54,WS_SEND_START,1516218963672,176
54,WS_SEND_END,1516218963672,176
54,PLAYER_SLEEPBEFORE_START,1516218963672,177
54,PLAYER_SLEEPBEFORE_END,1516218966191,177
54,WS_SEND_START,1516218966191,177
54,WS_SEND_END,1516218966191,177
54,WS_RECV_START,1516218966191,178
54,WS_RECV_END,1516218966320,178
54,PLAYER_SLEEPBEFORE_START,1516218966320,179
54,PLAYER_SLEEPBEFORE_END,1516218988660,179
54,WS_SEND_START,1516218988660,179
54,WS_SEND_END,1516218988661,179
54,WS_RECV_START,1516218988661,180
54,WS_RECV_END,1516218990346,180
54,PLAYER_SLEEPBEFORE_START,1516218990346,181
54,PLAYER_SLEEPBEFORE_END,1516218990790,181
54,WS_SEND_START,1516218990790,181
54,WS_SEND_END,1516218990790,181
54,WS_RECV_START,1516218990790,182
54,WS_RECV_END,1516218992473,182
54,PLAYER_SLEEPBEFORE_START,1516218992473,183
54,PLAYER_SLEEPBEFORE_END,1516218992996,183
54,WS_SEND_START,1516218992996,183
54,WS_SEND_END,1516218992996,183
54,WS_RECV_START,1516218992996,184
54,WS_RECV_END,1516218994664,184
54,PLAYER_SLEEPBEFORE_START,1516218994664,185
54,PLAYER_SLEEPBEFORE_END,1516218994932,185
54,WS_SEND_START,1516218994932,185
54,WS_SEND_END,1516218994932,185
54,WS_RECV_START,1516218994932,186
54,WS_RECV_END,1516218995456,186
54,PLAYER_SLEEPBEFORE_START,1516218995456,187
54,PLAYER_SLEEPBEFORE_END,1516219017956,187
54,WS_SEND_START,1516219017956,187
54,WS_SEND_END,1516219017956,187
54,WS_RECV_START,1516219017956,188
54,WS_RECV_END,1516219021225,188
54,PLAYER_SLEEPBEFORE_START,1516219021225,189
54,PLAYER_SLEEPBEFORE_END,1516219027464,189
54,WS_SEND_START,1516219027464,189
54,WS_SEND_END,1516219027464,189
54,WS_RECV_START,1516219027464,190
54,WS_RECV_END,1516219029703,190
54,PLAYER_SLEEPBEFORE_START,1516219029703,191
54,PLAYER_SLEEPBEFORE_END,1516219031618,191
54,WS_SEND_START,1516219031618,191
54,WS_SEND_END,1516219031618,191
54,WS_RECV_START,1516219031618,192
54,WS_RECV_END,1516219034706,192
54,PLAYER_SLEEPBEFORE_START,1516219034706,193
54,PLAYER_SLEEPBEFORE_END,1516219034834,193
54,WS_SEND_START,1516219034834,193
54,WS_SEND_END,1516219034834,193
54,WS_RECV_START,1516219034834,194
54,WS_RECV_END,1516219036313,194
54,PLAYER_SLEEPBEFORE_START,1516219036313,195
54,PLAYER_SLEEPBEFORE_END,1516219038068,195
54,WS_SEND_START,1516219038068,195
54,WS_SEND_END,1516219038069,195
54,WS_RECV_START,1516219038069,196
54,WS_RECV_END,1516219039239,196
54,PLAYER_SLEEPBEFORE_START,1516219039239,197
54,PLAYER_SLEEPBEFORE_END,1516219041043,197
54,WS_SEND_START,1516219041043,197
54,WS_SEND_END,1516219041043,197
54,WS_RECV_START,1516219041043,198
54,WS_RECV_END,1516219042203,198
54,PLAYER_SLEEPBEFORE_START,1516219042203,199
54,PLAYER_SLEEPBEFORE_END,1516219054057,199
54,WS_SEND_START,1516219054057,199
54,WS_SEND_END,1516219054057,199
54,PLAYER_SLEEPBEFORE_START,1516219054057,200
54,PLAYER_SLEEPBEFORE_END,1516219058145,200
54,WS_SEND_START,1516219058145,200
54,WS_SEND_END,1516219058145,200
54,WS_RECV_START,1516219058145,201
54,WS_RECV_END,1516219059962,201
54,PLAYER_SLEEPBEFORE_START,1516219059962,202
54,PLAYER_SLEEPBEFORE_END,1516219059976,202
54,WS_SEND_START,1516219059976,202
54,WS_SEND_END,1516219059976,202
54,WS_RECV_START,1516219059976,203
54,WS_RECV_END,1516219062725,203
54,PLAYER_SLEEPBEFORE_START,1516219062725,204
54,PLAYER_SLEEPBEFORE_END,1516219082374,204
54,WS_SEND_START,1516219082374,204
54,WS_SEND_END,1516219082374,204
54,PLAYER_SLEEPBEFORE_START,1516219082374,205
54,PLAYER_SLEEPBEFORE_END,1516219086272,205
54,WS_SEND_START,1516219086272,205
54,WS_SEND_END,1516219086272,205
54,WS_RECV_START,1516219086272,206
54,WS_RECV_END,1516219088053,206
54,PLAYER_SLEEPBEFORE_START,1516219088053,207
54,PLAYER_SLEEPBEFORE_END,1516219104984,207
54,REQ_START,1516219104984,207
54,REQ_END,1516219104992,207
54,PLAYER_SLEEPBEFORE_START,1516219104992,208
54,PLAYER_SLEEPBEFORE_END,1516219111844,208
54,WS_CLOSE_START,1516219111844,208
54,WS_CLOSE_END,1516219111844,208
54,PLAYER_DONE,1516219111844
