# --sessions 360 --app-url=http://shinyloadtest.rstudioservices.com/cran_explorer --output-dir test360 --overwrite-output --log-level warn --start-interval 500 15min.log
thread_id,event,timestamp,input_line_number,comment
9,PLAYER_SESSION_CREATE,1516218150638
9,PLAYER_START_INTERVAL_START,1516218150638
9,PLAYER_START_INTERVAL_END,1516218155138
9,REQ_HOME_START,1516218155138,2
9,REQ_HOME_END,1516218155243,2
9,REQ_START,1516218155243,3
9,REQ_END,1516218155279,3
9,REQ_START,1516218155279,4
9,REQ_END,1516218155309,4
9,REQ_START,1516218155309,5
9,REQ_END,1516218155343,5
9,REQ_START,1516218155343,6
9,REQ_END,1516218155376,6
9,REQ_START,1516218155376,7
9,REQ_END,1516218155409,7
9,REQ_START,1516218155409,8
9,REQ_END,1516218155445,8
9,REQ_START,1516218155445,9
9,REQ_END,1516218155481,9
9,REQ_START,1516218155481,10
9,REQ_END,1516218155489,10
9,REQ_START,1516218155489,11
9,REQ_END,1516218155519,11
9,REQ_START,1516218155519,12
9,REQ_END,1516218155531,12
9,REQ_START,1516218155531,13
9,REQ_END,1516218155562,13
9,REQ_START,1516218155562,14
9,REQ_END,1516218155578,14
9,REQ_START,1516218155578,15
9,REQ_END,1516218155613,15
9,REQ_TOK_START,1516218155614,16
9,REQ_TOK_END,1516218155622,16
9,REQ_SINF_START,1516218155622,17
9,REQ_SINF_END,1516218155630,17
9,WS_OPEN_START,1516218155630,18
9,WS_OPEN_END,1516218155637,18
9,REQ_START,1516218155638,19
9,REQ_END,1516218155671,19
9,WS_RECV_START,1516218155671,20
9,WS_RECV_END,1516218155671,20
9,PLAYER_SLEEPBEFORE_START,1516218155671,21
9,PLAYER_SLEEPBEFORE_END,1516218155676,21
9,WS_SEND_START,1516218155676,21
9,WS_SEND_END,1516218155676,21
9,PLAYER_SLEEPBEFORE_START,1516218155676,22
9,PLAYER_SLEEPBEFORE_END,1516218155677,22
9,WS_SEND_START,1516218155677,22
9,WS_SEND_END,1516218155677,22
9,WS_RECV_INIT_START,1516218155677,23
9,WS_RECV_INIT_END,1516218155695,23
9,WS_RECV_START,1516218155695,24
9,WS_RECV_END,1516218155744,24
9,PLAYER_SLEEPBEFORE_START,1516218155744,25
9,PLAYER_SLEEPBEFORE_END,1516218155751,25
9,REQ_START,1516218155751,25
9,REQ_END,1516218155783,25
9,PLAYER_SLEEPBEFORE_START,1516218155783,26
9,PLAYER_SLEEPBEFORE_END,1516218155784,26
9,REQ_START,1516218155784,26
9,REQ_END,1516218155816,26
9,PLAYER_SLEEPBEFORE_START,1516218155816,27
9,PLAYER_SLEEPBEFORE_END,1516218155819,27
9,REQ_START,1516218155819,27
9,REQ_END,1516218155854,27
9,PLAYER_SLEEPBEFORE_START,1516218155854,28
9,PLAYER_SLEEPBEFORE_END,1516218156139,28
9,REQ_START,1516218156139,28
9,REQ_END,1516218156172,28
9,PLAYER_SLEEPBEFORE_START,1516218156172,29
9,PLAYER_SLEEPBEFORE_END,1516218156347,29
9,WS_SEND_START,1516218156347,29
9,WS_SEND_END,1516218156347,29
9,WS_RECV_START,1516218156347,30
9,WS_RECV_END,1516218156507,30
9,PLAYER_SLEEPBEFORE_START,1516218156507,31
9,PLAYER_SLEEPBEFORE_END,1516218156518,31
9,REQ_START,1516218156518,31
9,REQ_END,1516218156553,31
9,PLAYER_SLEEPBEFORE_START,1516218156553,32
9,PLAYER_SLEEPBEFORE_END,1516218184698,32
9,WS_SEND_START,1516218184698,32
9,WS_SEND_END,1516218184698,32
9,WS_RECV_START,1516218184698,33
9,WS_RECV_END,1516218184844,33
9,PLAYER_SLEEPBEFORE_START,1516218184844,34
9,PLAYER_SLEEPBEFORE_END,1516218210755,34
9,WS_SEND_START,1516218210755,34
9,WS_SEND_END,1516218210756,34
9,WS_RECV_START,1516218210756,35
9,WS_RECV_END,1516218210863,35
9,PLAYER_SLEEPBEFORE_START,1516218210863,36
9,PLAYER_SLEEPBEFORE_END,1516218210872,36
9,WS_SEND_START,1516218210872,36
9,WS_SEND_END,1516218210872,36
9,WS_RECV_START,1516218210872,37
9,WS_RECV_END,1516218211014,37
9,PLAYER_SLEEPBEFORE_START,1516218211014,38
9,PLAYER_SLEEPBEFORE_END,1516218214209,38
9,WS_SEND_START,1516218214209,38
9,WS_SEND_END,1516218214209,38
9,WS_RECV_START,1516218214209,39
9,WS_RECV_END,1516218214329,39
9,PLAYER_SLEEPBEFORE_START,1516218214329,40
9,PLAYER_SLEEPBEFORE_END,1516218214376,40
9,WS_SEND_START,1516218214376,40
9,WS_SEND_END,1516218214376,40
9,WS_RECV_START,1516218214376,41
9,WS_RECV_END,1516218214544,41
9,PLAYER_SLEEPBEFORE_START,1516218214544,42
9,PLAYER_SLEEPBEFORE_END,1516218232679,42
9,WS_SEND_START,1516218232679,42
9,WS_SEND_END,1516218232679,42
9,WS_RECV_START,1516218232679,43
9,WS_RECV_END,1516218232728,43
9,PLAYER_SLEEPBEFORE_START,1516218232728,44
9,PLAYER_SLEEPBEFORE_END,1516218232740,44
9,WS_SEND_START,1516218232740,44
9,WS_SEND_END,1516218232740,44
9,WS_RECV_START,1516218232740,45
9,WS_RECV_END,1516218232794,45
9,PLAYER_SLEEPBEFORE_START,1516218232794,46
9,PLAYER_SLEEPBEFORE_END,1516218234054,46
9,WS_SEND_START,1516218234054,46
9,WS_SEND_END,1516218234054,46
9,WS_RECV_START,1516218234054,47
9,WS_RECV_END,1516218234082,47
9,PLAYER_SLEEPBEFORE_START,1516218234082,48
9,PLAYER_SLEEPBEFORE_END,1516218235402,48
9,WS_SEND_START,1516218235402,48
9,WS_SEND_END,1516218235402,48
9,WS_RECV_START,1516218235402,49
9,WS_RECV_END,1516218235501,49
9,PLAYER_SLEEPBEFORE_START,1516218235501,50
9,PLAYER_SLEEPBEFORE_END,1516218235526,50
9,WS_SEND_START,1516218235526,50
9,WS_SEND_END,1516218235526,50
9,WS_RECV_START,1516218235526,51
9,WS_RECV_END,1516218235669,51
9,PLAYER_SLEEPBEFORE_START,1516218235669,52
9,PLAYER_SLEEPBEFORE_END,1516218258233,52
9,WS_SEND_START,1516218258233,52
9,WS_SEND_END,1516218258233,52
9,WS_RECV_START,1516218258233,53
9,WS_RECV_END,1516218258372,53
9,PLAYER_SLEEPBEFORE_START,1516218258372,54
9,PLAYER_SLEEPBEFORE_END,1516218279675,54
9,WS_SEND_START,1516218279675,54
9,WS_SEND_END,1516218279675,54
9,PLAYER_SLEEPBEFORE_START,1516218279675,55
9,PLAYER_SLEEPBEFORE_END,1516218281617,55
9,WS_SEND_START,1516218281617,55
9,WS_SEND_END,1516218281617,55
9,WS_RECV_START,1516218281617,56
9,WS_RECV_END,1516218281666,56
9,PLAYER_SLEEPBEFORE_START,1516218281666,57
9,PLAYER_SLEEPBEFORE_END,1516218304538,57
9,WS_SEND_START,1516218304538,57
9,WS_SEND_END,1516218304538,57
9,WS_RECV_START,1516218304539,58
9,WS_RECV_END,1516218304639,58
9,PLAYER_SLEEPBEFORE_START,1516218304639,59
9,PLAYER_SLEEPBEFORE_END,1516218306966,59
9,WS_SEND_START,1516218306966,59
9,WS_SEND_END,1516218306966,59
9,WS_RECV_START,1516218306966,60
9,WS_RECV_END,1516218307206,60
9,PLAYER_SLEEPBEFORE_START,1516218307206,61
9,PLAYER_SLEEPBEFORE_END,1516218310797,61
9,WS_SEND_START,1516218310797,61
9,WS_SEND_END,1516218310797,61
9,WS_RECV_START,1516218310797,62
9,WS_RECV_END,1516218311030,62
9,PLAYER_SLEEPBEFORE_START,1516218311030,63
9,PLAYER_SLEEPBEFORE_END,1516218330292,63
9,WS_SEND_START,1516218330292,63
9,WS_SEND_END,1516218330292,63
9,WS_RECV_START,1516218330292,64
9,WS_RECV_END,1516218330512,64
9,PLAYER_SLEEPBEFORE_START,1516218330512,65
9,PLAYER_SLEEPBEFORE_END,1516218357329,65
9,WS_SEND_START,1516218357329,65
9,WS_SEND_END,1516218357329,65
9,WS_RECV_START,1516218357329,66
9,WS_RECV_END,1516218357487,66
9,PLAYER_SLEEPBEFORE_START,1516218357487,67
9,PLAYER_SLEEPBEFORE_END,1516218358995,67
9,WS_SEND_START,1516218358995,67
9,WS_SEND_END,1516218358995,67
9,WS_RECV_START,1516218358995,68
9,WS_RECV_END,1516218359151,68
9,PLAYER_SLEEPBEFORE_START,1516218359151,69
9,PLAYER_SLEEPBEFORE_END,1516218381150,69
9,WS_SEND_START,1516218381150,69
9,WS_SEND_END,1516218381150,69
9,WS_RECV_START,1516218381150,70
9,WS_RECV_END,1516218381325,70
9,PLAYER_SLEEPBEFORE_START,1516218381325,71
9,PLAYER_SLEEPBEFORE_END,1516218406100,71
9,WS_SEND_START,1516218406100,71
9,WS_SEND_END,1516218406100,71
9,PLAYER_SLEEPBEFORE_START,1516218406100,72
9,PLAYER_SLEEPBEFORE_END,1516218408707,72
9,WS_SEND_START,1516218408707,72
9,WS_SEND_END,1516218408708,72
9,WS_RECV_START,1516218408708,73
9,WS_RECV_END,1516218408733,73
9,PLAYER_SLEEPBEFORE_START,1516218408733,74
9,PLAYER_SLEEPBEFORE_END,1516218408743,74
9,WS_SEND_START,1516218408743,74
9,WS_SEND_END,1516218408743,74
9,WS_RECV_START,1516218408743,75
9,WS_RECV_END,1516218408793,75
9,PLAYER_SLEEPBEFORE_START,1516218408793,76
9,PLAYER_SLEEPBEFORE_END,1516218410299,76
9,WS_SEND_START,1516218410299,76
9,WS_SEND_END,1516218410299,76
9,WS_RECV_START,1516218410299,77
9,WS_RECV_END,1516218410322,77
9,PLAYER_SLEEPBEFORE_START,1516218410322,78
9,PLAYER_SLEEPBEFORE_END,1516218411190,78
9,WS_SEND_START,1516218411190,78
9,WS_SEND_END,1516218411190,78
9,WS_RECV_START,1516218411190,79
9,WS_RECV_END,1516218411558,79
9,PLAYER_SLEEPBEFORE_START,1516218411558,80
9,PLAYER_SLEEPBEFORE_END,1516218419224,80
9,WS_SEND_START,1516218419224,80
9,WS_SEND_END,1516218419224,80
9,WS_RECV_START,1516218419224,81
9,WS_RECV_END,1516218419327,81
9,PLAYER_SLEEPBEFORE_START,1516218419327,82
9,PLAYER_SLEEPBEFORE_END,1516218420429,82
9,WS_SEND_START,1516218420429,82
9,WS_SEND_END,1516218420429,82
9,WS_RECV_START,1516218420429,83
9,WS_RECV_END,1516218420507,83
9,PLAYER_SLEEPBEFORE_START,1516218420507,84
9,PLAYER_SLEEPBEFORE_END,1516218421454,84
9,WS_SEND_START,1516218421454,84
9,WS_SEND_END,1516218421454,84
9,WS_RECV_START,1516218421454,85
9,WS_RECV_END,1516218421499,85
9,PLAYER_SLEEPBEFORE_START,1516218421499,86
9,PLAYER_SLEEPBEFORE_END,1516218425671,86
9,WS_SEND_START,1516218425671,86
9,WS_SEND_END,1516218425671,86
9,WS_RECV_START,1516218425671,87
9,WS_RECV_END,1516218425853,87
9,PLAYER_SLEEPBEFORE_START,1516218425853,88
9,PLAYER_SLEEPBEFORE_END,1516218425861,88
9,WS_SEND_START,1516218425861,88
9,WS_SEND_END,1516218425861,88
9,WS_RECV_START,1516218425861,89
9,WS_RECV_END,1516218426001,89
9,PLAYER_SLEEPBEFORE_START,1516218426001,90
9,PLAYER_SLEEPBEFORE_END,1516218453198,90
9,REQ_START,1516218453198,90
9,REQ_END,1516218453206,90
9,PLAYER_SLEEPBEFORE_START,1516218453206,91
9,PLAYER_SLEEPBEFORE_END,1516218461095,91
9,WS_SEND_START,1516218461095,91
9,WS_SEND_END,1516218461095,91
9,WS_RECV_START,1516218461095,92
9,WS_RECV_END,1516218461294,92
9,PLAYER_SLEEPBEFORE_START,1516218461294,93
9,PLAYER_SLEEPBEFORE_END,1516218461309,93
9,WS_SEND_START,1516218461309,93
9,WS_SEND_END,1516218461309,93
9,WS_RECV_START,1516218461309,94
9,WS_RECV_END,1516218461418,94
9,PLAYER_SLEEPBEFORE_START,1516218461418,95
9,PLAYER_SLEEPBEFORE_END,1516218484974,95
9,WS_SEND_START,1516218484974,95
9,WS_SEND_END,1516218484974,95
9,WS_RECV_START,1516218484974,96
9,WS_RECV_END,1516218485227,96
9,PLAYER_SLEEPBEFORE_START,1516218485227,97
9,PLAYER_SLEEPBEFORE_END,1516218507667,97
9,WS_SEND_START,1516218507667,97
9,WS_SEND_END,1516218507667,97
9,WS_RECV_START,1516218507667,98
9,WS_RECV_END,1516218508461,98
9,PLAYER_SLEEPBEFORE_START,1516218508461,99
9,PLAYER_SLEEPBEFORE_END,1516218508482,99
9,WS_SEND_START,1516218508482,99
9,WS_SEND_END,1516218508482,99
9,WS_RECV_START,1516218508482,100
9,WS_RECV_END,1516218508696,100
9,PLAYER_SLEEPBEFORE_START,1516218508696,101
9,PLAYER_SLEEPBEFORE_END,1516218532255,101
9,WS_SEND_START,1516218532255,101
9,WS_SEND_END,1516218532255,101
9,WS_RECV_START,1516218532255,102
9,WS_RECV_END,1516218532395,102
9,PLAYER_SLEEPBEFORE_START,1516218532395,103
9,PLAYER_SLEEPBEFORE_END,1516218556020,103
9,WS_SEND_START,1516218556020,103
9,WS_SEND_END,1516218556020,103
9,WS_RECV_START,1516218556020,104
9,WS_RECV_END,1516218556459,104
9,PLAYER_SLEEPBEFORE_START,1516218556459,105
9,PLAYER_SLEEPBEFORE_END,1516218581837,105
9,WS_SEND_START,1516218581837,105
9,WS_SEND_END,1516218581837,105
9,WS_RECV_START,1516218581837,106
9,WS_RECV_END,1516218582032,106
9,PLAYER_SLEEPBEFORE_START,1516218582032,107
9,PLAYER_SLEEPBEFORE_END,1516218605455,107
9,WS_SEND_START,1516218605455,107
9,WS_SEND_END,1516218605455,107
9,WS_RECV_START,1516218605455,108
9,WS_RECV_END,1516218605590,108
9,PLAYER_SLEEPBEFORE_START,1516218605590,109
9,PLAYER_SLEEPBEFORE_END,1516218605599,109
9,WS_SEND_START,1516218605599,109
9,WS_SEND_END,1516218605599,109
9,WS_RECV_START,1516218605599,110
9,WS_RECV_END,1516218605652,110
9,PLAYER_SLEEPBEFORE_START,1516218605652,111
9,PLAYER_SLEEPBEFORE_END,1516218606612,111
9,WS_SEND_START,1516218606612,111
9,WS_SEND_END,1516218606612,111
9,WS_RECV_START,1516218606612,112
9,WS_RECV_END,1516218607090,112
9,PLAYER_SLEEPBEFORE_START,1516218607090,113
9,PLAYER_SLEEPBEFORE_END,1516218607652,113
9,WS_SEND_START,1516218607653,113
9,WS_SEND_END,1516218607653,113
9,WS_RECV_START,1516218607653,114
9,WS_RECV_END,1516218607931,114
9,PLAYER_SLEEPBEFORE_START,1516218607931,115
9,PLAYER_SLEEPBEFORE_END,1516218607940,115
9,WS_SEND_START,1516218607940,115
9,WS_SEND_END,1516218607940,115
9,WS_RECV_START,1516218607940,116
9,WS_RECV_END,1516218608327,116
9,PLAYER_SLEEPBEFORE_START,1516218608327,117
9,PLAYER_SLEEPBEFORE_END,1516218628687,117
9,WS_SEND_START,1516218628687,117
9,WS_SEND_END,1516218628687,117
9,PLAYER_SLEEPBEFORE_START,1516218628687,118
9,PLAYER_SLEEPBEFORE_END,1516218632439,118
9,WS_SEND_START,1516218632439,118
9,WS_SEND_END,1516218632439,118
9,WS_RECV_START,1516218632439,119
9,WS_RECV_END,1516218632630,119
9,PLAYER_SLEEPBEFORE_START,1516218632630,120
9,PLAYER_SLEEPBEFORE_END,1516218633618,120
9,WS_SEND_START,1516218633618,120
9,WS_SEND_END,1516218633618,120
9,WS_RECV_START,1516218633618,121
9,WS_RECV_END,1516218633939,121
9,PLAYER_SLEEPBEFORE_START,1516218633939,122
9,PLAYER_SLEEPBEFORE_END,1516218635124,122
9,WS_SEND_START,1516218635124,122
9,WS_SEND_END,1516218635124,122
9,WS_RECV_START,1516218635124,123
9,WS_RECV_END,1516218636296,123
9,PLAYER_SLEEPBEFORE_START,1516218636296,124
9,PLAYER_SLEEPBEFORE_END,1516218660701,124
9,WS_SEND_START,1516218660701,124
9,WS_SEND_END,1516218660701,124
9,WS_RECV_START,1516218660701,125
9,WS_RECV_END,1516218660887,125
9,PLAYER_SLEEPBEFORE_START,1516218660887,126
9,PLAYER_SLEEPBEFORE_END,1516218681400,126
9,WS_SEND_START,1516218681400,126
9,WS_SEND_END,1516218681400,126
9,PLAYER_SLEEPBEFORE_START,1516218681400,127
9,PLAYER_SLEEPBEFORE_END,1516218684454,127
9,WS_SEND_START,1516218684454,127
9,WS_SEND_END,1516218684454,127
9,WS_RECV_START,1516218684454,128
9,WS_RECV_END,1516218684971,128
9,PLAYER_SLEEPBEFORE_START,1516218684971,129
9,PLAYER_SLEEPBEFORE_END,1516218684991,129
9,WS_SEND_START,1516218684991,129
9,WS_SEND_END,1516218684991,129
9,WS_RECV_START,1516218684991,130
9,WS_RECV_END,1516218685298,130
9,PLAYER_SLEEPBEFORE_START,1516218685298,131
9,PLAYER_SLEEPBEFORE_END,1516218706922,131
9,WS_SEND_START,1516218706922,131
9,WS_SEND_END,1516218706922,131
9,PLAYER_SLEEPBEFORE_START,1516218706922,132
9,PLAYER_SLEEPBEFORE_END,1516218710002,132
9,WS_SEND_START,1516218710002,132
9,WS_SEND_END,1516218710002,132
9,WS_RECV_START,1516218710002,133
9,WS_RECV_END,1516218710347,133
9,PLAYER_SLEEPBEFORE_START,1516218710347,134
9,PLAYER_SLEEPBEFORE_END,1516218731564,134
9,WS_SEND_START,1516218731564,134
9,WS_SEND_END,1516218731564,134
9,PLAYER_SLEEPBEFORE_START,1516218731564,135
9,PLAYER_SLEEPBEFORE_END,1516218734754,135
9,WS_SEND_START,1516218734754,135
9,WS_SEND_END,1516218734754,135
9,WS_RECV_START,1516218734754,136
9,WS_RECV_END,1516218734811,136
9,PLAYER_SLEEPBEFORE_START,1516218734811,137
9,PLAYER_SLEEPBEFORE_END,1516218734818,137
9,WS_SEND_START,1516218734818,137
9,WS_SEND_END,1516218734818,137
9,WS_RECV_START,1516218734818,138
9,WS_RECV_END,1516218734876,138
9,PLAYER_SLEEPBEFORE_START,1516218734876,139
9,PLAYER_SLEEPBEFORE_END,1516218735566,139
9,WS_SEND_START,1516218735566,139
9,WS_SEND_END,1516218735566,139
9,WS_RECV_START,1516218735566,140
9,WS_RECV_END,1516218736113,140
9,PLAYER_SLEEPBEFORE_START,1516218736113,141
9,PLAYER_SLEEPBEFORE_END,1516218736768,141
9,WS_SEND_START,1516218736768,141
9,WS_SEND_END,1516218736768,141
9,WS_RECV_START,1516218736768,142
9,WS_RECV_END,1516218736971,142
9,PLAYER_SLEEPBEFORE_START,1516218736971,143
9,PLAYER_SLEEPBEFORE_END,1516218737029,143
9,WS_SEND_START,1516218737029,143
9,WS_SEND_END,1516218737029,143
9,WS_RECV_START,1516218737029,144
9,WS_RECV_END,1516218737172,144
9,PLAYER_SLEEPBEFORE_START,1516218737172,145
9,PLAYER_SLEEPBEFORE_END,1516218753235,145
9,REQ_START,1516218753235,145
9,REQ_END,1516218753247,145
9,PLAYER_SLEEPBEFORE_START,1516218753247,146
9,PLAYER_SLEEPBEFORE_END,1516218762124,146
9,WS_SEND_START,1516218762124,146
9,WS_SEND_END,1516218762124,146
9,WS_RECV_START,1516218762124,147
9,WS_RECV_END,1516218762458,147
9,PLAYER_SLEEPBEFORE_START,1516218762458,148
9,PLAYER_SLEEPBEFORE_END,1516218784380,148
9,WS_SEND_START,1516218784380,148
9,WS_SEND_END,1516218784380,148
9,PLAYER_SLEEPBEFORE_START,1516218784380,149
9,PLAYER_SLEEPBEFORE_END,1516218786811,149
9,WS_SEND_START,1516218786811,149
9,WS_SEND_END,1516218786811,149
9,WS_RECV_START,1516218786811,150
9,WS_RECV_END,1516218787517,150
9,PLAYER_SLEEPBEFORE_START,1516218787517,151
9,PLAYER_SLEEPBEFORE_END,1516218787727,151
9,WS_SEND_START,1516218787727,151
9,WS_SEND_END,1516218787727,151
9,WS_RECV_START,1516218787727,152
9,WS_RECV_END,1516218788182,152
9,PLAYER_SLEEPBEFORE_START,1516218788182,153
9,PLAYER_SLEEPBEFORE_END,1516218812109,153
9,WS_SEND_START,1516218812109,153
9,WS_SEND_END,1516218812109,153
9,WS_RECV_START,1516218812109,154
9,WS_RECV_END,1516218812264,154
9,PLAYER_SLEEPBEFORE_START,1516218812264,155
9,PLAYER_SLEEPBEFORE_END,1516218834822,155
9,WS_SEND_START,1516218834822,155
9,WS_SEND_END,1516218834822,155
9,PLAYER_SLEEPBEFORE_START,1516218834822,156
9,PLAYER_SLEEPBEFORE_END,1516218838097,156
9,WS_SEND_START,1516218838097,156
9,WS_SEND_END,1516218838097,156
9,WS_RECV_START,1516218838097,157
9,WS_RECV_END,1516218838240,157
9,PLAYER_SLEEPBEFORE_START,1516218838240,158
9,PLAYER_SLEEPBEFORE_END,1516218838250,158
9,WS_SEND_START,1516218838250,158
9,WS_SEND_END,1516218838250,158
9,WS_RECV_START,1516218838250,159
9,WS_RECV_END,1516218838476,159
9,PLAYER_SLEEPBEFORE_START,1516218838476,160
9,PLAYER_SLEEPBEFORE_END,1516218838651,160
9,WS_SEND_START,1516218838651,160
9,WS_SEND_END,1516218838651,160
9,WS_RECV_START,1516218838651,161
9,WS_RECV_END,1516218838985,161
9,PLAYER_SLEEPBEFORE_START,1516218838985,162
9,PLAYER_SLEEPBEFORE_END,1516218839010,162
9,WS_SEND_START,1516218839010,162
9,WS_SEND_END,1516218839010,162
9,WS_RECV_START,1516218839010,163
9,WS_RECV_END,1516218839278,163
9,PLAYER_SLEEPBEFORE_START,1516218839278,164
9,PLAYER_SLEEPBEFORE_END,1516218860090,164
9,WS_SEND_START,1516218860090,164
9,WS_SEND_END,1516218860090,164
9,WS_RECV_START,1516218860090,165
9,WS_RECV_END,1516218860731,165
9,PLAYER_SLEEPBEFORE_START,1516218860731,166
9,PLAYER_SLEEPBEFORE_END,1516218883186,166
9,WS_SEND_START,1516218883186,166
9,WS_SEND_END,1516218883186,166
9,WS_RECV_START,1516218883186,167
9,WS_RECV_END,1516218883304,167
9,PLAYER_SLEEPBEFORE_START,1516218883304,168
9,PLAYER_SLEEPBEFORE_END,1516218910661,168
9,WS_SEND_START,1516218910661,168
9,WS_SEND_END,1516218910661,168
9,WS_RECV_START,1516218910661,169
9,WS_RECV_END,1516218911244,169
9,PLAYER_SLEEPBEFORE_START,1516218911244,170
9,PLAYER_SLEEPBEFORE_END,1516218911253,170
9,WS_SEND_START,1516218911253,170
9,WS_SEND_END,1516218911253,170
9,WS_RECV_START,1516218911253,171
9,WS_RECV_END,1516218911476,171
9,PLAYER_SLEEPBEFORE_START,1516218911476,172
9,PLAYER_SLEEPBEFORE_END,1516218911845,172
9,WS_SEND_START,1516218911845,172
9,WS_SEND_END,1516218911845,172
9,WS_RECV_START,1516218911845,173
9,WS_RECV_END,1516218911956,173
9,PLAYER_SLEEPBEFORE_START,1516218911956,174
9,PLAYER_SLEEPBEFORE_END,1516218911997,174
9,WS_SEND_START,1516218911997,174
9,WS_SEND_END,1516218911997,174
9,WS_RECV_START,1516218911997,175
9,WS_RECV_END,1516218912345,175
9,PLAYER_SLEEPBEFORE_START,1516218912345,176
9,PLAYER_SLEEPBEFORE_END,1516218934106,176
9,WS_SEND_START,1516218934106,176
9,WS_SEND_END,1516218934106,176
9,PLAYER_SLEEPBEFORE_START,1516218934106,177
9,PLAYER_SLEEPBEFORE_END,1516218936624,177
9,WS_SEND_START,1516218936624,177
9,WS_SEND_END,1516218936624,177
9,WS_RECV_START,1516218936624,178
9,WS_RECV_END,1516218936859,178
9,PLAYER_SLEEPBEFORE_START,1516218936859,179
9,PLAYER_SLEEPBEFORE_END,1516218959199,179
9,WS_SEND_START,1516218959199,179
9,WS_SEND_END,1516218959199,179
9,WS_RECV_START,1516218959199,180
9,WS_RECV_END,1516218959692,180
9,PLAYER_SLEEPBEFORE_START,1516218959692,181
9,PLAYER_SLEEPBEFORE_END,1516218960136,181
9,WS_SEND_START,1516218960136,181
9,WS_SEND_END,1516218960136,181
9,WS_RECV_START,1516218960136,182
9,WS_RECV_END,1516218960670,182
9,PLAYER_SLEEPBEFORE_START,1516218960670,183
9,PLAYER_SLEEPBEFORE_END,1516218961193,183
9,WS_SEND_START,1516218961193,183
9,WS_SEND_END,1516218961193,183
9,WS_RECV_START,1516218961193,184
9,WS_RECV_END,1516218962342,184
9,PLAYER_SLEEPBEFORE_START,1516218962342,185
9,PLAYER_SLEEPBEFORE_END,1516218962610,185
9,WS_SEND_START,1516218962610,185
9,WS_SEND_END,1516218962610,185
9,WS_RECV_START,1516218962610,186
9,WS_RECV_END,1516218963326,186
9,PLAYER_SLEEPBEFORE_START,1516218963326,187
9,PLAYER_SLEEPBEFORE_END,1516218985827,187
9,WS_SEND_START,1516218985827,187
9,WS_SEND_END,1516218985827,187
9,WS_RECV_START,1516218985827,188
9,WS_RECV_END,1516218986981,188
9,PLAYER_SLEEPBEFORE_START,1516218986981,189
9,PLAYER_SLEEPBEFORE_END,1516218993220,189
9,WS_SEND_START,1516218993220,189
9,WS_SEND_END,1516218993220,189
9,WS_RECV_START,1516218993220,190
9,WS_RECV_END,1516218994032,190
9,PLAYER_SLEEPBEFORE_START,1516218994032,191
9,PLAYER_SLEEPBEFORE_END,1516218995947,191
9,WS_SEND_START,1516218995947,191
9,WS_SEND_END,1516218995947,191
9,WS_RECV_START,1516218995947,192
9,WS_RECV_END,1516218997172,192
9,PLAYER_SLEEPBEFORE_START,1516218997172,193
9,PLAYER_SLEEPBEFORE_END,1516218997300,193
9,WS_SEND_START,1516218997300,193
9,WS_SEND_END,1516218997300,193
9,WS_RECV_START,1516218997300,194
9,WS_RECV_END,1516218998838,194
9,PLAYER_SLEEPBEFORE_START,1516218998838,195
9,PLAYER_SLEEPBEFORE_END,1516219000593,195
9,WS_SEND_START,1516219000593,195
9,WS_SEND_END,1516219000593,195
9,WS_RECV_START,1516219000593,196
9,WS_RECV_END,1516219002107,196
9,PLAYER_SLEEPBEFORE_START,1516219002107,197
9,PLAYER_SLEEPBEFORE_END,1516219003911,197
9,WS_SEND_START,1516219003911,197
9,WS_SEND_END,1516219003911,197
9,WS_RECV_START,1516219003911,198
9,WS_RECV_END,1516219006460,198
9,PLAYER_SLEEPBEFORE_START,1516219006460,199
9,PLAYER_SLEEPBEFORE_END,1516219018315,199
9,WS_SEND_START,1516219018315,199
9,WS_SEND_END,1516219018315,199
9,PLAYER_SLEEPBEFORE_START,1516219018315,200
9,PLAYER_SLEEPBEFORE_END,1516219022403,200
9,WS_SEND_START,1516219022403,200
9,WS_SEND_END,1516219022403,200
9,WS_RECV_START,1516219022403,201
9,WS_RECV_END,1516219026643,201
9,PLAYER_SLEEPBEFORE_START,1516219026643,202
9,PLAYER_SLEEPBEFORE_END,1516219026657,202
9,WS_SEND_START,1516219026657,202
9,WS_SEND_END,1516219026657,202
9,WS_RECV_START,1516219026657,203
9,WS_RECV_END,1516219028857,203
9,PLAYER_SLEEPBEFORE_START,1516219028857,204
9,PLAYER_SLEEPBEFORE_END,1516219048506,204
9,WS_SEND_START,1516219048506,204
9,WS_SEND_END,1516219048506,204
9,PLAYER_SLEEPBEFORE_START,1516219048506,205
9,PLAYER_SLEEPBEFORE_END,1516219052404,205
9,WS_SEND_START,1516219052404,205
9,WS_SEND_END,1516219052404,205
9,WS_RECV_START,1516219052404,206
9,WS_RECV_END,1516219053637,206
9,PLAYER_SLEEPBEFORE_START,1516219053637,207
9,PLAYER_SLEEPBEFORE_END,1516219070568,207
9,REQ_START,1516219070568,207
9,REQ_END,1516219070576,207
9,PLAYER_SLEEPBEFORE_START,1516219070576,208
9,PLAYER_SLEEPBEFORE_END,1516219077428,208
9,WS_CLOSE_START,1516219077428,208
9,WS_CLOSE_END,1516219077428,208
9,PLAYER_DONE,1516219077428
