# --sessions 630 --app-url=http://shinyloadtest.rstudioservices.com/cran_explorer --output-dir test630 --overwrite-output --log-level warn --start-interval 800 15min.log
thread_id,event,timestamp,input_line_number,comment
116,PLAYER_SESSION_CREATE,1516292633490
116,PLAYER_START_INTERVAL_START,1516292633490
116,PLAYER_START_INTERVAL_END,1516292726290
116,REQ_HOME_START,1516292726290,2
116,REQ_HOME_END,1516292726366,2
116,REQ_START,1516292726366,3
116,REQ_END,1516292726396,3
116,REQ_START,1516292726396,4
116,REQ_END,1516292726425,4
116,REQ_START,1516292726425,5
116,REQ_END,1516292726456,5
116,REQ_START,1516292726456,6
116,REQ_END,1516292726487,6
116,REQ_START,1516292726487,7
116,REQ_END,1516292726516,7
116,REQ_START,1516292726516,8
116,REQ_END,1516292726547,8
116,REQ_START,1516292726547,9
116,REQ_END,1516292726580,9
116,REQ_START,1516292726580,10
116,REQ_END,1516292726587,10
116,REQ_START,1516292726587,11
116,REQ_END,1516292726620,11
116,REQ_START,1516292726620,12
116,REQ_END,1516292726629,12
116,REQ_START,1516292726629,13
116,REQ_END,1516292726658,13
116,REQ_START,1516292726658,14
116,REQ_END,1516292726671,14
116,REQ_START,1516292726671,15
116,REQ_END,1516292726702,15
116,REQ_TOK_START,1516292726702,16
116,REQ_TOK_END,1516292726709,16
116,REQ_SINF_START,1516292726709,17
116,REQ_SINF_END,1516292726716,17
116,WS_OPEN_START,1516292726716,18
116,WS_OPEN_END,1516292726722,18
116,REQ_START,1516292726722,19
116,REQ_END,1516292726753,19
116,WS_RECV_START,1516292726753,20
116,WS_RECV_END,1516292726753,20
116,PLAYER_SLEEPBEFORE_START,1516292726753,21
116,PLAYER_SLEEPBEFORE_END,1516292726758,21
116,WS_SEND_START,1516292726758,21
116,WS_SEND_END,1516292726758,21
116,PLAYER_SLEEPBEFORE_START,1516292726758,22
116,PLAYER_SLEEPBEFORE_END,1516292726759,22
116,WS_SEND_START,1516292726759,22
116,WS_SEND_END,1516292726759,22
116,WS_RECV_INIT_START,1516292726759,23
116,WS_RECV_INIT_END,1516292726774,23
116,WS_RECV_START,1516292726774,24
116,WS_RECV_END,1516292726821,24
116,PLAYER_SLEEPBEFORE_START,1516292726821,25
116,PLAYER_SLEEPBEFORE_END,1516292726828,25
116,REQ_START,1516292726828,25
116,REQ_END,1516292726858,25
116,PLAYER_SLEEPBEFORE_START,1516292726859,26
116,PLAYER_SLEEPBEFORE_END,1516292726860,26
116,REQ_START,1516292726860,26
116,REQ_END,1516292726890,26
116,PLAYER_SLEEPBEFORE_START,1516292726890,27
116,PLAYER_SLEEPBEFORE_END,1516292726893,27
116,REQ_START,1516292726893,27
116,REQ_END,1516292726925,27
116,PLAYER_SLEEPBEFORE_START,1516292726925,28
116,PLAYER_SLEEPBEFORE_END,1516292727210,28
116,REQ_START,1516292727210,28
116,REQ_END,1516292727239,28
116,PLAYER_SLEEPBEFORE_START,1516292727239,29
116,PLAYER_SLEEPBEFORE_END,1516292727415,29
116,WS_SEND_START,1516292727415,29
116,WS_SEND_END,1516292727415,29
116,WS_RECV_START,1516292727415,30
116,WS_RECV_END,1516292727528,30
116,PLAYER_SLEEPBEFORE_START,1516292727528,31
116,PLAYER_SLEEPBEFORE_END,1516292727539,31
116,REQ_START,1516292727539,31
116,REQ_END,1516292727570,31
116,PLAYER_SLEEPBEFORE_START,1516292727570,32
116,PLAYER_SLEEPBEFORE_END,1516292755715,32
116,WS_SEND_START,1516292755715,32
116,WS_SEND_END,1516292755715,32
116,WS_RECV_START,1516292755715,33
116,WS_RECV_END,1516292755796,33
116,PLAYER_SLEEPBEFORE_START,1516292755796,34
116,PLAYER_SLEEPBEFORE_END,1516292781707,34
116,WS_SEND_START,1516292781708,34
116,WS_SEND_END,1516292781708,34
116,WS_RECV_START,1516292781708,35
116,WS_RECV_END,1516292781733,35
116,PLAYER_SLEEPBEFORE_START,1516292781733,36
116,PLAYER_SLEEPBEFORE_END,1516292781742,36
116,WS_SEND_START,1516292781742,36
116,WS_SEND_END,1516292781742,36
116,WS_RECV_START,1516292781742,37
116,WS_RECV_END,1516292781784,37
116,PLAYER_SLEEPBEFORE_START,1516292781784,38
116,PLAYER_SLEEPBEFORE_END,1516292784979,38
116,WS_SEND_START,1516292784979,38
116,WS_SEND_END,1516292784979,38
116,WS_RECV_START,1516292784979,39
116,WS_RECV_END,1516292785086,39
116,PLAYER_SLEEPBEFORE_START,1516292785086,40
116,PLAYER_SLEEPBEFORE_END,1516292785132,40
116,WS_SEND_START,1516292785132,40
116,WS_SEND_END,1516292785132,40
116,WS_RECV_START,1516292785132,41
116,WS_RECV_END,1516292785233,41
116,PLAYER_SLEEPBEFORE_START,1516292785233,42
116,PLAYER_SLEEPBEFORE_END,1516292803369,42
116,WS_SEND_START,1516292803369,42
116,WS_SEND_END,1516292803369,42
116,WS_RECV_START,1516292803369,43
116,WS_RECV_END,1516292803394,43
116,PLAYER_SLEEPBEFORE_START,1516292803394,44
116,PLAYER_SLEEPBEFORE_END,1516292803406,44
116,WS_SEND_START,1516292803406,44
116,WS_SEND_END,1516292803406,44
116,WS_RECV_START,1516292803406,45
116,WS_RECV_END,1516292803448,45
116,PLAYER_SLEEPBEFORE_START,1516292803448,46
116,PLAYER_SLEEPBEFORE_END,1516292804708,46
116,WS_SEND_START,1516292804708,46
116,WS_SEND_END,1516292804708,46
116,WS_RECV_START,1516292804708,47
116,WS_RECV_END,1516292804733,47
116,PLAYER_SLEEPBEFORE_START,1516292804733,48
116,PLAYER_SLEEPBEFORE_END,1516292806053,48
116,WS_SEND_START,1516292806053,48
116,WS_SEND_END,1516292806053,48
116,WS_RECV_START,1516292806053,49
116,WS_RECV_END,1516292806192,49
116,PLAYER_SLEEPBEFORE_START,1516292806192,50
116,PLAYER_SLEEPBEFORE_END,1516292806216,50
116,WS_SEND_START,1516292806216,50
116,WS_SEND_END,1516292806216,50
116,WS_RECV_START,1516292806216,51
116,WS_RECV_END,1516292806319,51
116,PLAYER_SLEEPBEFORE_START,1516292806319,52
116,PLAYER_SLEEPBEFORE_END,1516292828883,52
116,WS_SEND_START,1516292828883,52
116,WS_SEND_END,1516292828883,52
116,WS_RECV_START,1516292828883,53
116,WS_RECV_END,1516292829012,53
116,PLAYER_SLEEPBEFORE_START,1516292829012,54
116,PLAYER_SLEEPBEFORE_END,1516292850315,54
116,WS_SEND_START,1516292850315,54
116,WS_SEND_END,1516292850315,54
116,PLAYER_SLEEPBEFORE_START,1516292850315,55
116,PLAYER_SLEEPBEFORE_END,1516292852256,55
116,WS_SEND_START,1516292852256,55
116,WS_SEND_END,1516292852256,55
116,WS_RECV_START,1516292852256,56
116,WS_RECV_END,1516292852394,56
116,PLAYER_SLEEPBEFORE_START,1516292852394,57
116,PLAYER_SLEEPBEFORE_END,1516292875266,57
116,WS_SEND_START,1516292875266,57
116,WS_SEND_END,1516292875266,57
116,WS_RECV_START,1516292875266,58
116,WS_RECV_END,1516292875313,58
116,PLAYER_SLEEPBEFORE_START,1516292875313,59
116,PLAYER_SLEEPBEFORE_END,1516292877640,59
116,WS_SEND_START,1516292877640,59
116,WS_SEND_END,1516292877640,59
116,WS_RECV_START,1516292877640,60
116,WS_RECV_END,1516292877756,60
116,PLAYER_SLEEPBEFORE_START,1516292877756,61
116,PLAYER_SLEEPBEFORE_END,1516292881347,61
116,WS_SEND_START,1516292881347,61
116,WS_SEND_END,1516292881347,61
116,WS_RECV_START,1516292881347,62
116,WS_RECV_END,1516292881457,62
116,PLAYER_SLEEPBEFORE_START,1516292881457,63
116,PLAYER_SLEEPBEFORE_END,1516292900719,63
116,WS_SEND_START,1516292900719,63
116,WS_SEND_END,1516292900719,63
116,WS_RECV_START,1516292900719,64
116,WS_RECV_END,1516292900777,64
116,PLAYER_SLEEPBEFORE_START,1516292900777,65
116,PLAYER_SLEEPBEFORE_END,1516292927594,65
116,WS_SEND_START,1516292927594,65
116,WS_SEND_END,1516292927594,65
116,WS_RECV_START,1516292927594,66
116,WS_RECV_END,1516292927725,66
116,PLAYER_SLEEPBEFORE_START,1516292927725,67
116,PLAYER_SLEEPBEFORE_END,1516292929232,67
116,WS_SEND_START,1516292929232,67
116,WS_SEND_END,1516292929232,67
116,WS_RECV_START,1516292929232,68
116,WS_RECV_END,1516292929394,68
116,PLAYER_SLEEPBEFORE_START,1516292929394,69
116,PLAYER_SLEEPBEFORE_END,1516292951392,69
116,WS_SEND_START,1516292951392,69
116,WS_SEND_END,1516292951392,69
116,WS_RECV_START,1516292951392,70
116,WS_RECV_END,1516292951507,70
116,PLAYER_SLEEPBEFORE_START,1516292951507,71
116,PLAYER_SLEEPBEFORE_END,1516292976282,71
116,WS_SEND_START,1516292976282,71
116,WS_SEND_END,1516292976283,71
116,PLAYER_SLEEPBEFORE_START,1516292976283,72
116,PLAYER_SLEEPBEFORE_END,1516292978890,72
116,WS_SEND_START,1516292978890,72
116,WS_SEND_END,1516292978890,72
116,WS_RECV_START,1516292978890,73
116,WS_RECV_END,1516292979035,73
116,PLAYER_SLEEPBEFORE_START,1516292979035,74
116,PLAYER_SLEEPBEFORE_END,1516292979044,74
116,WS_SEND_START,1516292979044,74
116,WS_SEND_END,1516292979044,74
116,WS_RECV_START,1516292979044,75
116,WS_RECV_END,1516292979112,75
116,PLAYER_SLEEPBEFORE_START,1516292979112,76
116,PLAYER_SLEEPBEFORE_END,1516292980618,76
116,WS_SEND_START,1516292980618,76
116,WS_SEND_END,1516292980618,76
116,WS_RECV_START,1516292980618,77
116,WS_RECV_END,1516292980661,77
116,PLAYER_SLEEPBEFORE_START,1516292980661,78
116,PLAYER_SLEEPBEFORE_END,1516292981529,78
116,WS_SEND_START,1516292981529,78
116,WS_SEND_END,1516292981529,78
116,WS_RECV_START,1516292981529,79
116,WS_RECV_END,1516292981591,79
116,PLAYER_SLEEPBEFORE_START,1516292981591,80
116,PLAYER_SLEEPBEFORE_END,1516292989257,80
116,WS_SEND_START,1516292989257,80
116,WS_SEND_END,1516292989257,80
116,WS_RECV_START,1516292989257,81
116,WS_RECV_END,1516292989294,81
116,PLAYER_SLEEPBEFORE_START,1516292989294,82
116,PLAYER_SLEEPBEFORE_END,1516292990397,82
116,WS_SEND_START,1516292990397,82
116,WS_SEND_END,1516292990397,82
116,WS_RECV_START,1516292990397,83
116,WS_RECV_END,1516292990526,83
116,PLAYER_SLEEPBEFORE_START,1516292990526,84
116,PLAYER_SLEEPBEFORE_END,1516292991474,84
116,WS_SEND_START,1516292991474,84
116,WS_SEND_END,1516292991474,84
116,WS_RECV_START,1516292991474,85
116,WS_RECV_END,1516292991783,85
116,PLAYER_SLEEPBEFORE_START,1516292991783,86
116,PLAYER_SLEEPBEFORE_END,1516292995955,86
116,WS_SEND_START,1516292995955,86
116,WS_SEND_END,1516292995955,86
116,WS_RECV_START,1516292995955,87
116,WS_RECV_END,1516292996091,87
116,PLAYER_SLEEPBEFORE_START,1516292996091,88
116,PLAYER_SLEEPBEFORE_END,1516292996100,88
116,WS_SEND_START,1516292996100,88
116,WS_SEND_END,1516292996100,88
116,WS_RECV_START,1516292996100,89
116,WS_RECV_END,1516292996282,89
116,PLAYER_SLEEPBEFORE_START,1516292996282,90
116,PLAYER_SLEEPBEFORE_END,1516293023479,90
116,REQ_START,1516293023479,90
116,REQ_END,1516293023486,90
116,PLAYER_SLEEPBEFORE_START,1516293023486,91
116,PLAYER_SLEEPBEFORE_END,1516293031375,91
116,WS_SEND_START,1516293031375,91
116,WS_SEND_END,1516293031375,91
116,WS_RECV_START,1516293031375,92
116,WS_RECV_END,1516293031990,92
116,PLAYER_SLEEPBEFORE_START,1516293031990,93
116,PLAYER_SLEEPBEFORE_END,1516293032005,93
116,WS_SEND_START,1516293032005,93
116,WS_SEND_END,1516293032005,93
116,WS_RECV_START,1516293032005,94
116,WS_RECV_END,1516293032508,94
116,PLAYER_SLEEPBEFORE_START,1516293032508,95
116,PLAYER_SLEEPBEFORE_END,1516293056063,95
116,WS_SEND_START,1516293056063,95
116,WS_SEND_END,1516293056063,95
116,WS_RECV_START,1516293056063,96
116,WS_RECV_END,1516293056247,96
116,PLAYER_SLEEPBEFORE_START,1516293056247,97
116,PLAYER_SLEEPBEFORE_END,1516293078687,97
116,WS_SEND_START,1516293078687,97
116,WS_SEND_END,1516293078687,97
116,WS_RECV_START,1516293078687,98
116,WS_RECV_END,1516293079485,98
116,PLAYER_SLEEPBEFORE_START,1516293079485,99
116,PLAYER_SLEEPBEFORE_END,1516293079506,99
116,WS_SEND_START,1516293079506,99
116,WS_SEND_END,1516293079506,99
116,WS_RECV_START,1516293079506,100
116,WS_RECV_END,1516293079886,100
116,PLAYER_SLEEPBEFORE_START,1516293079886,101
116,PLAYER_SLEEPBEFORE_END,1516293103445,101
116,WS_SEND_START,1516293103445,101
116,WS_SEND_END,1516293103445,101
116,WS_RECV_START,1516293103445,102
116,WS_RECV_END,1516293103959,102
116,PLAYER_SLEEPBEFORE_START,1516293103959,103
116,PLAYER_SLEEPBEFORE_END,1516293127584,103
116,WS_SEND_START,1516293127584,103
116,WS_SEND_END,1516293127584,103
116,WS_RECV_START,1516293127584,104
116,WS_RECV_END,1516293127928,104
116,PLAYER_SLEEPBEFORE_START,1516293127928,105
116,PLAYER_SLEEPBEFORE_END,1516293153305,105
116,WS_SEND_START,1516293153305,105
116,WS_SEND_END,1516293153306,105
116,WS_RECV_START,1516293153306,106
116,WS_RECV_END,1516293154376,106
116,PLAYER_SLEEPBEFORE_START,1516293154376,107
116,PLAYER_SLEEPBEFORE_END,1516293177799,107
116,WS_SEND_START,1516293177799,107
116,WS_SEND_END,1516293177799,107
116,WS_RECV_START,1516293177799,108
116,WS_RECV_END,1516293179182,108
116,PLAYER_SLEEPBEFORE_START,1516293179182,109
116,PLAYER_SLEEPBEFORE_END,1516293179191,109
116,WS_SEND_START,1516293179191,109
116,WS_SEND_END,1516293179191,109
116,WS_RECV_START,1516293179191,110
116,WS_RECV_END,1516293179424,110
116,PLAYER_SLEEPBEFORE_START,1516293179424,111
116,PLAYER_SLEEPBEFORE_END,1516293180383,111
116,WS_SEND_START,1516293180383,111
116,WS_SEND_END,1516293180383,111
116,WS_RECV_START,1516293180383,112
116,WS_RECV_END,1516293181374,112
116,PLAYER_SLEEPBEFORE_START,1516293181374,113
116,PLAYER_SLEEPBEFORE_END,1516293181937,113
116,WS_SEND_START,1516293181937,113
116,WS_SEND_END,1516293181937,113
116,WS_RECV_START,1516293181937,114
116,WS_RECV_END,1516293183017,114
116,PLAYER_SLEEPBEFORE_START,1516293183017,115
116,PLAYER_SLEEPBEFORE_END,1516293183027,115
116,WS_SEND_START,1516293183027,115
116,WS_SEND_END,1516293183027,115
116,WS_RECV_START,1516293183027,116
116,WS_RECV_END,1516293183466,116
116,PLAYER_SLEEPBEFORE_START,1516293183466,117
116,PLAYER_SLEEPBEFORE_END,1516293203826,117
116,WS_SEND_START,1516293203826,117
116,WS_SEND_END,1516293203826,117
116,PLAYER_SLEEPBEFORE_START,1516293203826,118
116,PLAYER_SLEEPBEFORE_END,1516293207578,118
116,WS_SEND_START,1516293207578,118
116,WS_SEND_END,1516293207578,118
116,WS_RECV_START,1516293207578,119
116,WS_RECV_END,1516293208752,119
116,PLAYER_SLEEPBEFORE_START,1516293208752,120
116,PLAYER_SLEEPBEFORE_END,1516293209740,120
116,WS_SEND_START,1516293209740,120
116,WS_SEND_END,1516293209740,120
116,WS_RECV_START,1516293209740,121
116,WS_RECV_END,1516293210721,121
116,PLAYER_SLEEPBEFORE_START,1516293210721,122
116,PLAYER_SLEEPBEFORE_END,1516293211907,122
116,WS_SEND_START,1516293211907,122
116,WS_SEND_END,1516293211907,122
116,WS_RECV_START,1516293211907,123
116,WS_RECV_END,1516293212561,123
116,PLAYER_SLEEPBEFORE_START,1516293212561,124
116,PLAYER_SLEEPBEFORE_END,1516293236966,124
116,WS_SEND_START,1516293236966,124
116,WS_SEND_END,1516293236966,124
116,WS_RECV_START,1516293236966,125
116,WS_RECV_END,1516293238388,125
116,PLAYER_SLEEPBEFORE_START,1516293238388,126
116,PLAYER_SLEEPBEFORE_END,1516293258900,126
116,WS_SEND_START,1516293258900,126
116,WS_SEND_END,1516293258900,126
116,PLAYER_SLEEPBEFORE_START,1516293258900,127
116,PLAYER_SLEEPBEFORE_END,1516293261954,127
116,WS_SEND_START,1516293261954,127
116,WS_SEND_END,1516293261954,127
116,WS_RECV_START,1516293261954,128
116,WS_RECV_END,1516293262701,128
116,PLAYER_SLEEPBEFORE_START,1516293262701,129
116,PLAYER_SLEEPBEFORE_END,1516293262721,129
116,WS_SEND_START,1516293262721,129
116,WS_SEND_END,1516293262721,129
116,WS_RECV_START,1516293262721,130
116,WS_RECV_END,1516293265034,130
116,PLAYER_SLEEPBEFORE_START,1516293265034,131
116,PLAYER_SLEEPBEFORE_END,1516293286658,131
116,WS_SEND_START,1516293286658,131
116,WS_SEND_END,1516293286658,131
116,PLAYER_SLEEPBEFORE_START,1516293286658,132
116,PLAYER_SLEEPBEFORE_END,1516293289738,132
116,WS_SEND_START,1516293289739,132
116,WS_SEND_END,1516293289739,132
116,WS_RECV_START,1516293289739,133
116,WS_RECV_END,1516293290642,133
116,PLAYER_SLEEPBEFORE_START,1516293290642,134
116,PLAYER_SLEEPBEFORE_END,1516293311859,134
116,WS_SEND_START,1516293311859,134
116,WS_SEND_END,1516293311859,134
116,PLAYER_SLEEPBEFORE_START,1516293311859,135
116,PLAYER_SLEEPBEFORE_END,1516293315049,135
116,WS_SEND_START,1516293315049,135
116,WS_SEND_END,1516293315049,135
116,WS_RECV_START,1516293315049,136
116,WS_RECV_END,1516293317492,136
116,PLAYER_SLEEPBEFORE_START,1516293317492,137
116,PLAYER_SLEEPBEFORE_END,1516293317499,137
116,WS_SEND_START,1516293317499,137
116,WS_SEND_END,1516293317499,137
116,WS_RECV_START,1516293317499,138
116,WS_RECV_END,1516293318265,138
116,PLAYER_SLEEPBEFORE_START,1516293318265,139
116,PLAYER_SLEEPBEFORE_END,1516293318955,139
116,WS_SEND_START,1516293318955,139
116,WS_SEND_END,1516293318955,139
116,WS_RECV_START,1516293318955,140
116,WS_RECV_END,1516293320048,140
116,PLAYER_SLEEPBEFORE_START,1516293320048,141
116,PLAYER_SLEEPBEFORE_END,1516293320703,141
116,WS_SEND_START,1516293320703,141
116,WS_SEND_END,1516293320703,141
116,WS_RECV_START,1516293320703,142
116,WS_RECV_END,1516293321090,142
116,PLAYER_SLEEPBEFORE_START,1516293321090,143
116,PLAYER_SLEEPBEFORE_END,1516293321147,143
116,WS_SEND_START,1516293321147,143
116,WS_SEND_END,1516293321147,143
116,WS_RECV_START,1516293321147,144
116,WS_RECV_END,1516293322448,144
116,PLAYER_SLEEPBEFORE_START,1516293322448,145
116,PLAYER_SLEEPBEFORE_END,1516293338511,145
116,REQ_START,1516293338511,145
116,REQ_END,1516293338518,145
116,PLAYER_SLEEPBEFORE_START,1516293338518,146
116,PLAYER_SLEEPBEFORE_END,1516293347395,146
116,WS_SEND_START,1516293347395,146
116,WS_SEND_END,1516293347395,146
116,WS_RECV_START,1516293347395,147
116,WS_RECV_END,1516293349382,147
116,PLAYER_SLEEPBEFORE_START,1516293349382,148
116,PLAYER_SLEEPBEFORE_END,1516293371304,148
116,WS_SEND_START,1516293371304,148
116,WS_SEND_END,1516293371304,148
116,PLAYER_SLEEPBEFORE_START,1516293371304,149
116,PLAYER_SLEEPBEFORE_END,1516293373732,149
116,WS_SEND_START,1516293373732,149
116,WS_SEND_END,1516293373732,149
116,WS_RECV_START,1516293373732,150
116,WS_RECV_END,1516293375168,150
116,PLAYER_SLEEPBEFORE_START,1516293375169,151
116,PLAYER_SLEEPBEFORE_END,1516293375379,151
116,WS_SEND_START,1516293375379,151
116,WS_SEND_END,1516293375379,151
116,WS_RECV_START,1516293375379,152
116,WS_RECV_END,1516293377030,152
116,PLAYER_SLEEPBEFORE_START,1516293377030,153
116,PLAYER_SLEEPBEFORE_END,1516293400957,153
116,WS_SEND_START,1516293400957,153
116,WS_SEND_END,1516293400957,153
116,WS_RECV_START,1516293400957,154
116,WS_RECV_END,1516293403736,154
116,PLAYER_SLEEPBEFORE_START,1516293403736,155
116,PLAYER_SLEEPBEFORE_END,1516293426294,155
116,WS_SEND_START,1516293426294,155
116,WS_SEND_END,1516293426294,155
116,PLAYER_SLEEPBEFORE_START,1516293426294,156
116,PLAYER_SLEEPBEFORE_END,1516293429568,156
116,WS_SEND_START,1516293429568,156
116,WS_SEND_END,1516293429569,156
116,WS_RECV_START,1516293429569,157
116,WS_RECV_END,1516293430763,157
116,PLAYER_SLEEPBEFORE_START,1516293430763,158
116,PLAYER_SLEEPBEFORE_END,1516293430773,158
116,WS_SEND_START,1516293430773,158
116,WS_SEND_END,1516293430773,158
116,WS_RECV_START,1516293430773,159
116,WS_RECV_END,1516293432701,159
116,PLAYER_SLEEPBEFORE_START,1516293432701,160
116,PLAYER_SLEEPBEFORE_END,1516293432876,160
116,WS_SEND_START,1516293432876,160
116,WS_SEND_END,1516293432876,160
116,WS_RECV_START,1516293432876,161
116,WS_RECV_END,1516293434411,161
116,PLAYER_SLEEPBEFORE_START,1516293434411,162
116,PLAYER_SLEEPBEFORE_END,1516293434436,162
116,WS_SEND_START,1516293434436,162
116,WS_SEND_END,1516293434436,162
116,WS_RECV_START,1516293434436,163
116,WS_RECV_END,1516293435837,163
116,PLAYER_SLEEPBEFORE_START,1516293435837,164
116,PLAYER_SLEEPBEFORE_END,1516293456649,164
116,WS_SEND_START,1516293456649,164
116,WS_SEND_END,1516293456649,164
116,WS_RECV_START,1516293456649,165
116,WS_RECV_END,1516293459119,165
116,PLAYER_SLEEPBEFORE_START,1516293459119,166
116,PLAYER_SLEEPBEFORE_END,1516293481574,166
116,WS_SEND_START,1516293481574,166
116,WS_SEND_END,1516293481574,166
116,WS_RECV_START,1516293481574,167
116,WS_RECV_END,1516293484412,167
116,PLAYER_SLEEPBEFORE_START,1516293484412,168
116,PLAYER_SLEEPBEFORE_END,1516293511769,168
116,WS_SEND_START,1516293511769,168
116,WS_SEND_END,1516293511769,168
116,WS_RECV_START,1516293511769,169
116,WS_RECV_END,1516293515203,169
116,PLAYER_SLEEPBEFORE_START,1516293515203,170
116,PLAYER_SLEEPBEFORE_END,1516293515212,170
116,WS_SEND_START,1516293515212,170
116,WS_SEND_END,1516293515212,170
116,WS_RECV_START,1516293515212,171
116,WS_RECV_END,1516293517050,171
116,PLAYER_SLEEPBEFORE_START,1516293517050,172
116,PLAYER_SLEEPBEFORE_END,1516293517419,172
116,WS_SEND_START,1516293517419,172
116,WS_SEND_END,1516293517419,172
116,WS_RECV_START,1516293517419,173
116,WS_RECV_END,1516293520917,173
116,PLAYER_SLEEPBEFORE_START,1516293520917,174
116,PLAYER_SLEEPBEFORE_END,1516293520958,174
116,WS_SEND_START,1516293520958,174
116,WS_SEND_END,1516293520958,174
116,WS_RECV_START,1516293520958,175
116,WS_RECV_END,1516293525080,175
116,PLAYER_SLEEPBEFORE_START,1516293525081,176
116,PLAYER_SLEEPBEFORE_END,1516293546842,176
116,WS_SEND_START,1516293546842,176
116,WS_SEND_END,1516293546842,176
116,PLAYER_SLEEPBEFORE_START,1516293546842,177
116,PLAYER_SLEEPBEFORE_END,1516293549360,177
116,WS_SEND_START,1516293549360,177
116,WS_SEND_END,1516293549360,177
116,WS_RECV_START,1516293549360,178
116,WS_RECV_END,1516293552489,178
116,PLAYER_SLEEPBEFORE_START,1516293552489,179
116,PLAYER_SLEEPBEFORE_END,1516293574830,179
116,WS_SEND_START,1516293574830,179
116,WS_SEND_END,1516293574830,179
116,WS_RECV_START,1516293574830,180
116,WS_RECV_END,1516293580094,180
116,PLAYER_SLEEPBEFORE_START,1516293580094,181
116,PLAYER_SLEEPBEFORE_END,1516293580538,181
116,WS_SEND_START,1516293580538,181
116,WS_SEND_END,1516293580538,181
116,WS_RECV_START,1516293580538,182
116,WS_RECV_END,1516293585857,182
116,PLAYER_SLEEPBEFORE_START,1516293585857,183
116,PLAYER_SLEEPBEFORE_END,1516293586380,183
116,WS_SEND_START,1516293586380,183
116,WS_SEND_END,1516293586380,183
116,WS_RECV_START,1516293586380,184
116,WS_RECV_END,1516293589256,184
116,PLAYER_SLEEPBEFORE_START,1516293589256,185
116,PLAYER_SLEEPBEFORE_END,1516293589524,185
116,WS_SEND_START,1516293589524,185
116,WS_SEND_END,1516293589524,185
116,WS_RECV_START,1516293589524,186
116,WS_RECV_END,1516293593744,186
116,PLAYER_SLEEPBEFORE_START,1516293593744,187
116,PLAYER_SLEEPBEFORE_END,1516293616244,187
116,WS_SEND_START,1516293616244,187
116,WS_SEND_END,1516293616244,187
116,WS_RECV_START,1516293616244,188
116,WS_RECV_END,1516293622060,188
116,PLAYER_SLEEPBEFORE_START,1516293622060,189
116,PLAYER_SLEEPBEFORE_END,1516293628299,189
116,WS_SEND_START,1516293628299,189
116,WS_SEND_END,1516293628299,189
116,WS_RECV_START,1516293628299,190
116,WS_RECV_END,1516293633301,190
116,PLAYER_SLEEPBEFORE_START,1516293633301,191
116,PLAYER_SLEEPBEFORE_END,1516293635216,191
116,WS_SEND_START,1516293635216,191
116,WS_SEND_END,1516293635216,191
116,WS_RECV_START,1516293635216,192
116,WS_RECV_END,1516293640554,192
116,PLAYER_SLEEPBEFORE_START,1516293640554,193
116,PLAYER_SLEEPBEFORE_END,1516293640682,193
116,WS_SEND_START,1516293640682,193
116,WS_SEND_END,1516293640682,193
116,WS_RECV_START,1516293640682,194
116,WS_RECV_END,1516293644173,194
116,PLAYER_SLEEPBEFORE_START,1516293644173,195
116,PLAYER_SLEEPBEFORE_END,1516293645928,195
116,WS_SEND_START,1516293645928,195
116,WS_SEND_END,1516293645928,195
116,WS_RECV_START,1516293645928,196
116,WS_RECV_END,1516293652353,196
116,PLAYER_SLEEPBEFORE_START,1516293652353,197
116,PLAYER_SLEEPBEFORE_END,1516293654157,197
116,WS_SEND_START,1516293654157,197
116,WS_SEND_END,1516293654157,197
116,WS_RECV_START,1516293654157,198
116,WS_RECV_END,1516293656386,198
116,PLAYER_SLEEPBEFORE_START,1516293656386,199
116,PLAYER_SLEEPBEFORE_END,1516293668240,199
116,WS_SEND_START,1516293668240,199
116,WS_SEND_END,1516293668240,199
116,PLAYER_SLEEPBEFORE_START,1516293668240,200
116,PLAYER_SLEEPBEFORE_END,1516293672328,200
116,WS_SEND_START,1516293672328,200
116,WS_SEND_END,1516293672328,200
116,WS_RECV_START,1516293672328,201
116,WS_RECV_END,1516293673906,201
116,PLAYER_SLEEPBEFORE_START,1516293673906,202
116,PLAYER_SLEEPBEFORE_END,1516293673920,202
116,WS_SEND_START,1516293673920,202
116,WS_SEND_END,1516293673920,202
116,WS_RECV_START,1516293673920,203
116,WS_RECV_END,1516293677674,203
116,PLAYER_SLEEPBEFORE_START,1516293677674,204
116,PLAYER_SLEEPBEFORE_END,1516293697323,204
116,WS_SEND_START,1516293697323,204
116,WS_SEND_END,1516293697323,204
116,PLAYER_SLEEPBEFORE_START,1516293697323,205
116,PLAYER_SLEEPBEFORE_END,1516293701221,205
116,WS_SEND_START,1516293701221,205
116,WS_SEND_END,1516293701221,205
116,WS_RECV_START,1516293701221,206
116,WS_RECV_END,1516293705472,206
116,PLAYER_SLEEPBEFORE_START,1516293705472,207
116,PLAYER_SLEEPBEFORE_END,1516293722403,207
116,REQ_START,1516293722403,207
116,REQ_END,1516293722410,207
116,PLAYER_SLEEPBEFORE_START,1516293722410,208
116,PLAYER_SLEEPBEFORE_END,1516293729262,208
116,WS_CLOSE_START,1516293729262,208
116,WS_CLOSE_END,1516293729262,208
116,PLAYER_DONE,1516293729263
