# --sessions 630 --app-url=http://shinyloadtest.rstudioservices.com/cran_explorer --output-dir test630 --overwrite-output --log-level warn --start-interval 800 15min.log
thread_id,event,timestamp,input_line_number,comment
143,PLAYER_SESSION_CREATE,1516292633501
143,PLAYER_START_INTERVAL_START,1516292633501
143,PLAYER_START_INTERVAL_END,1516292747901
143,REQ_HOME_START,1516292747901,2
143,REQ_HOME_END,1516292748009,2
143,REQ_START,1516292748009,3
143,REQ_END,1516292748040,3
143,REQ_START,1516292748040,4
143,REQ_END,1516292748070,4
143,REQ_START,1516292748070,5
143,REQ_END,1516292748100,5
143,REQ_START,1516292748100,6
143,REQ_END,1516292748134,6
143,REQ_START,1516292748134,7
143,REQ_END,1516292748166,7
143,REQ_START,1516292748166,8
143,REQ_END,1516292748199,8
143,REQ_START,1516292748199,9
143,REQ_END,1516292748231,9
143,REQ_START,1516292748231,10
143,REQ_END,1516292748239,10
143,REQ_START,1516292748239,11
143,REQ_END,1516292748270,11
143,REQ_START,1516292748270,12
143,REQ_END,1516292748280,12
143,REQ_START,1516292748280,13
143,REQ_END,1516292748310,13
143,REQ_START,1516292748310,14
143,REQ_END,1516292748323,14
143,REQ_START,1516292748323,15
143,REQ_END,1516292748359,15
143,REQ_TOK_START,1516292748359,16
143,REQ_TOK_END,1516292748367,16
143,REQ_SINF_START,1516292748367,17
143,REQ_SINF_END,1516292748374,17
143,WS_OPEN_START,1516292748374,18
143,WS_OPEN_END,1516292748380,18
143,REQ_START,1516292748380,19
143,REQ_END,1516292748406,19
143,WS_RECV_START,1516292748406,20
143,WS_RECV_END,1516292748406,20
143,PLAYER_SLEEPBEFORE_START,1516292748406,21
143,PLAYER_SLEEPBEFORE_END,1516292748411,21
143,WS_SEND_START,1516292748411,21
143,WS_SEND_END,1516292748411,21
143,PLAYER_SLEEPBEFORE_START,1516292748411,22
143,PLAYER_SLEEPBEFORE_END,1516292748412,22
143,WS_SEND_START,1516292748412,22
143,WS_SEND_END,1516292748412,22
143,WS_RECV_INIT_START,1516292748412,23
143,WS_RECV_INIT_END,1516292748429,23
143,WS_RECV_START,1516292748429,24
143,WS_RECV_END,1516292748478,24
143,PLAYER_SLEEPBEFORE_START,1516292748478,25
143,PLAYER_SLEEPBEFORE_END,1516292748486,25
143,REQ_START,1516292748486,25
143,REQ_END,1516292748516,25
143,PLAYER_SLEEPBEFORE_START,1516292748516,26
143,PLAYER_SLEEPBEFORE_END,1516292748517,26
143,REQ_START,1516292748517,26
143,REQ_END,1516292748550,26
143,PLAYER_SLEEPBEFORE_START,1516292748550,27
143,PLAYER_SLEEPBEFORE_END,1516292748553,27
143,REQ_START,1516292748553,27
143,REQ_END,1516292748583,27
143,PLAYER_SLEEPBEFORE_START,1516292748583,28
143,PLAYER_SLEEPBEFORE_END,1516292748868,28
143,REQ_START,1516292748868,28
143,REQ_END,1516292748901,28
143,PLAYER_SLEEPBEFORE_START,1516292748901,29
143,PLAYER_SLEEPBEFORE_END,1516292749076,29
143,WS_SEND_START,1516292749076,29
143,WS_SEND_END,1516292749076,29
143,WS_RECV_START,1516292749076,30
143,WS_RECV_END,1516292749187,30
143,PLAYER_SLEEPBEFORE_START,1516292749187,31
143,PLAYER_SLEEPBEFORE_END,1516292749199,31
143,REQ_START,1516292749199,31
143,REQ_END,1516292749258,31
143,PLAYER_SLEEPBEFORE_START,1516292749258,32
143,PLAYER_SLEEPBEFORE_END,1516292777403,32
143,WS_SEND_START,1516292777403,32
143,WS_SEND_END,1516292777403,32
143,WS_RECV_START,1516292777403,33
143,WS_RECV_END,1516292777494,33
143,PLAYER_SLEEPBEFORE_START,1516292777494,34
143,PLAYER_SLEEPBEFORE_END,1516292803405,34
143,WS_SEND_START,1516292803405,34
143,WS_SEND_END,1516292803405,34
143,WS_RECV_START,1516292803405,35
143,WS_RECV_END,1516292803456,35
143,PLAYER_SLEEPBEFORE_START,1516292803456,36
143,PLAYER_SLEEPBEFORE_END,1516292803466,36
143,WS_SEND_START,1516292803466,36
143,WS_SEND_END,1516292803466,36
143,WS_RECV_START,1516292803466,37
143,WS_RECV_END,1516292803528,37
143,PLAYER_SLEEPBEFORE_START,1516292803528,38
143,PLAYER_SLEEPBEFORE_END,1516292806723,38
143,WS_SEND_START,1516292806723,38
143,WS_SEND_END,1516292806723,38
143,WS_RECV_START,1516292806723,39
143,WS_RECV_END,1516292806837,39
143,PLAYER_SLEEPBEFORE_START,1516292806837,40
143,PLAYER_SLEEPBEFORE_END,1516292806884,40
143,WS_SEND_START,1516292806884,40
143,WS_SEND_END,1516292806884,40
143,WS_RECV_START,1516292806884,41
143,WS_RECV_END,1516292806987,41
143,PLAYER_SLEEPBEFORE_START,1516292806987,42
143,PLAYER_SLEEPBEFORE_END,1516292825122,42
143,WS_SEND_START,1516292825122,42
143,WS_SEND_END,1516292825122,42
143,WS_RECV_START,1516292825122,43
143,WS_RECV_END,1516292825179,43
143,PLAYER_SLEEPBEFORE_START,1516292825179,44
143,PLAYER_SLEEPBEFORE_END,1516292825191,44
143,WS_SEND_START,1516292825191,44
143,WS_SEND_END,1516292825191,44
143,WS_RECV_START,1516292825191,45
143,WS_RECV_END,1516292825232,45
143,PLAYER_SLEEPBEFORE_START,1516292825232,46
143,PLAYER_SLEEPBEFORE_END,1516292826492,46
143,WS_SEND_START,1516292826492,46
143,WS_SEND_END,1516292826492,46
143,WS_RECV_START,1516292826492,47
143,WS_RECV_END,1516292826545,47
143,PLAYER_SLEEPBEFORE_START,1516292826545,48
143,PLAYER_SLEEPBEFORE_END,1516292827866,48
143,WS_SEND_START,1516292827866,48
143,WS_SEND_END,1516292827866,48
143,WS_RECV_START,1516292827866,49
143,WS_RECV_END,1516292827960,49
143,PLAYER_SLEEPBEFORE_START,1516292827960,50
143,PLAYER_SLEEPBEFORE_END,1516292827984,50
143,WS_SEND_START,1516292827984,50
143,WS_SEND_END,1516292827984,50
143,WS_RECV_START,1516292827984,51
143,WS_RECV_END,1516292828131,51
143,PLAYER_SLEEPBEFORE_START,1516292828131,52
143,PLAYER_SLEEPBEFORE_END,1516292850695,52
143,WS_SEND_START,1516292850695,52
143,WS_SEND_END,1516292850695,52
143,WS_RECV_START,1516292850695,53
143,WS_RECV_END,1516292850826,53
143,PLAYER_SLEEPBEFORE_START,1516292850826,54
143,PLAYER_SLEEPBEFORE_END,1516292872130,54
143,WS_SEND_START,1516292872130,54
143,WS_SEND_END,1516292872130,54
143,PLAYER_SLEEPBEFORE_START,1516292872130,55
143,PLAYER_SLEEPBEFORE_END,1516292874071,55
143,WS_SEND_START,1516292874071,55
143,WS_SEND_END,1516292874071,55
143,WS_RECV_START,1516292874071,56
143,WS_RECV_END,1516292874148,56
143,PLAYER_SLEEPBEFORE_START,1516292874148,57
143,PLAYER_SLEEPBEFORE_END,1516292897020,57
143,WS_SEND_START,1516292897020,57
143,WS_SEND_END,1516292897020,57
143,WS_RECV_START,1516292897020,58
143,WS_RECV_END,1516292897182,58
143,PLAYER_SLEEPBEFORE_START,1516292897182,59
143,PLAYER_SLEEPBEFORE_END,1516292899509,59
143,WS_SEND_START,1516292899509,59
143,WS_SEND_END,1516292899509,59
143,WS_RECV_START,1516292899509,60
143,WS_RECV_END,1516292899616,60
143,PLAYER_SLEEPBEFORE_START,1516292899616,61
143,PLAYER_SLEEPBEFORE_END,1516292903207,61
143,WS_SEND_START,1516292903207,61
143,WS_SEND_END,1516292903207,61
143,WS_RECV_START,1516292903207,62
143,WS_RECV_END,1516292903350,62
143,PLAYER_SLEEPBEFORE_START,1516292903350,63
143,PLAYER_SLEEPBEFORE_END,1516292922612,63
143,WS_SEND_START,1516292922612,63
143,WS_SEND_END,1516292922612,63
143,WS_RECV_START,1516292922612,64
143,WS_RECV_END,1516292922659,64
143,PLAYER_SLEEPBEFORE_START,1516292922659,65
143,PLAYER_SLEEPBEFORE_END,1516292949476,65
143,WS_SEND_START,1516292949476,65
143,WS_SEND_END,1516292949476,65
143,WS_RECV_START,1516292949476,66
143,WS_RECV_END,1516292949618,66
143,PLAYER_SLEEPBEFORE_START,1516292949618,67
143,PLAYER_SLEEPBEFORE_END,1516292951125,67
143,WS_SEND_START,1516292951125,67
143,WS_SEND_END,1516292951125,67
143,WS_RECV_START,1516292951125,68
143,WS_RECV_END,1516292951260,68
143,PLAYER_SLEEPBEFORE_START,1516292951260,69
143,PLAYER_SLEEPBEFORE_END,1516292973258,69
143,WS_SEND_START,1516292973258,69
143,WS_SEND_END,1516292973258,69
143,WS_RECV_START,1516292973258,70
143,WS_RECV_END,1516292973468,70
143,PLAYER_SLEEPBEFORE_START,1516292973468,71
143,PLAYER_SLEEPBEFORE_END,1516292998243,71
143,WS_SEND_START,1516292998243,71
143,WS_SEND_END,1516292998243,71
143,PLAYER_SLEEPBEFORE_START,1516292998243,72
143,PLAYER_SLEEPBEFORE_END,1516293000850,72
143,WS_SEND_START,1516293000850,72
143,WS_SEND_END,1516293000850,72
143,WS_RECV_START,1516293000850,73
143,WS_RECV_END,1516293000938,73
143,PLAYER_SLEEPBEFORE_START,1516293000938,74
143,PLAYER_SLEEPBEFORE_END,1516293000947,74
143,WS_SEND_START,1516293000947,74
143,WS_SEND_END,1516293000947,74
143,WS_RECV_START,1516293000947,75
143,WS_RECV_END,1516293001012,75
143,PLAYER_SLEEPBEFORE_START,1516293001012,76
143,PLAYER_SLEEPBEFORE_END,1516293002518,76
143,WS_SEND_START,1516293002518,76
143,WS_SEND_END,1516293002518,76
143,WS_RECV_START,1516293002518,77
143,WS_RECV_END,1516293002566,77
143,PLAYER_SLEEPBEFORE_START,1516293002566,78
143,PLAYER_SLEEPBEFORE_END,1516293003434,78
143,WS_SEND_START,1516293003434,78
143,WS_SEND_END,1516293003434,78
143,WS_RECV_START,1516293003434,79
143,WS_RECV_END,1516293003476,79
143,PLAYER_SLEEPBEFORE_START,1516293003476,80
143,PLAYER_SLEEPBEFORE_END,1516293011143,80
143,WS_SEND_START,1516293011143,80
143,WS_SEND_END,1516293011143,80
143,WS_RECV_START,1516293011143,81
143,WS_RECV_END,1516293011303,81
143,PLAYER_SLEEPBEFORE_START,1516293011303,82
143,PLAYER_SLEEPBEFORE_END,1516293012405,82
143,WS_SEND_START,1516293012405,82
143,WS_SEND_END,1516293012405,82
143,WS_RECV_START,1516293012405,83
143,WS_RECV_END,1516293012486,83
143,PLAYER_SLEEPBEFORE_START,1516293012487,84
143,PLAYER_SLEEPBEFORE_END,1516293013434,84
143,WS_SEND_START,1516293013434,84
143,WS_SEND_END,1516293013434,84
143,WS_RECV_START,1516293013434,85
143,WS_RECV_END,1516293013620,85
143,PLAYER_SLEEPBEFORE_START,1516293013620,86
143,PLAYER_SLEEPBEFORE_END,1516293017792,86
143,WS_SEND_START,1516293017792,86
143,WS_SEND_END,1516293017792,86
143,WS_RECV_START,1516293017792,87
143,WS_RECV_END,1516293018115,87
143,PLAYER_SLEEPBEFORE_START,1516293018115,88
143,PLAYER_SLEEPBEFORE_END,1516293018123,88
143,WS_SEND_START,1516293018123,88
143,WS_SEND_END,1516293018123,88
143,WS_RECV_START,1516293018123,89
143,WS_RECV_END,1516293018327,89
143,PLAYER_SLEEPBEFORE_START,1516293018327,90
143,PLAYER_SLEEPBEFORE_END,1516293045524,90
143,REQ_START,1516293045524,90
143,REQ_END,1516293045532,90
143,PLAYER_SLEEPBEFORE_START,1516293045532,91
143,PLAYER_SLEEPBEFORE_END,1516293053421,91
143,WS_SEND_START,1516293053421,91
143,WS_SEND_END,1516293053421,91
143,WS_RECV_START,1516293053421,92
143,WS_RECV_END,1516293053689,92
143,PLAYER_SLEEPBEFORE_START,1516293053689,93
143,PLAYER_SLEEPBEFORE_END,1516293053706,93
143,WS_SEND_START,1516293053706,93
143,WS_SEND_END,1516293053706,93
143,WS_RECV_START,1516293053706,94
143,WS_RECV_END,1516293054109,94
143,PLAYER_SLEEPBEFORE_START,1516293054109,95
143,PLAYER_SLEEPBEFORE_END,1516293077664,95
143,WS_SEND_START,1516293077664,95
143,WS_SEND_END,1516293077664,95
143,WS_RECV_START,1516293077664,96
143,WS_RECV_END,1516293078196,96
143,PLAYER_SLEEPBEFORE_START,1516293078196,97
143,PLAYER_SLEEPBEFORE_END,1516293100636,97
143,WS_SEND_START,1516293100636,97
143,WS_SEND_END,1516293100636,97
143,WS_RECV_START,1516293100636,98
143,WS_RECV_END,1516293101354,98
143,PLAYER_SLEEPBEFORE_START,1516293101354,99
143,PLAYER_SLEEPBEFORE_END,1516293101375,99
143,WS_SEND_START,1516293101375,99
143,WS_SEND_END,1516293101375,99
143,WS_RECV_START,1516293101375,100
143,WS_RECV_END,1516293102729,100
143,PLAYER_SLEEPBEFORE_START,1516293102729,101
143,PLAYER_SLEEPBEFORE_END,1516293126288,101
143,WS_SEND_START,1516293126288,101
143,WS_SEND_END,1516293126288,101
143,WS_RECV_START,1516293126288,102
143,WS_RECV_END,1516293126987,102
143,PLAYER_SLEEPBEFORE_START,1516293126987,103
143,PLAYER_SLEEPBEFORE_END,1516293150612,103
143,WS_SEND_START,1516293150612,103
143,WS_SEND_END,1516293150612,103
143,WS_RECV_START,1516293150612,104
143,WS_RECV_END,1516293151644,104
143,PLAYER_SLEEPBEFORE_START,1516293151644,105
143,PLAYER_SLEEPBEFORE_END,1516293177021,105
143,WS_SEND_START,1516293177022,105
143,WS_SEND_END,1516293177022,105
143,WS_RECV_START,1516293177022,106
143,WS_RECV_END,1516293179273,106
143,PLAYER_SLEEPBEFORE_START,1516293179273,107
143,PLAYER_SLEEPBEFORE_END,1516293202696,107
143,WS_SEND_START,1516293202696,107
143,WS_SEND_END,1516293202696,107
143,WS_RECV_START,1516293202696,108
143,WS_RECV_END,1516293204233,108
143,PLAYER_SLEEPBEFORE_START,1516293204233,109
143,PLAYER_SLEEPBEFORE_END,1516293204242,109
143,WS_SEND_START,1516293204242,109
143,WS_SEND_END,1516293204242,109
143,WS_RECV_START,1516293204242,110
143,WS_RECV_END,1516293205004,110
143,PLAYER_SLEEPBEFORE_START,1516293205004,111
143,PLAYER_SLEEPBEFORE_END,1516293205963,111
143,WS_SEND_START,1516293205963,111
143,WS_SEND_END,1516293205963,111
143,WS_RECV_START,1516293205963,112
143,WS_RECV_END,1516293206665,112
143,PLAYER_SLEEPBEFORE_START,1516293206665,113
143,PLAYER_SLEEPBEFORE_END,1516293207227,113
143,WS_SEND_START,1516293207227,113
143,WS_SEND_END,1516293207227,113
143,WS_RECV_START,1516293207227,114
143,WS_RECV_END,1516293207758,114
143,PLAYER_SLEEPBEFORE_START,1516293207758,115
143,PLAYER_SLEEPBEFORE_END,1516293207767,115
143,WS_SEND_START,1516293207767,115
143,WS_SEND_END,1516293207767,115
143,WS_RECV_START,1516293207767,116
143,WS_RECV_END,1516293209463,116
143,PLAYER_SLEEPBEFORE_START,1516293209463,117
143,PLAYER_SLEEPBEFORE_END,1516293229823,117
143,WS_SEND_START,1516293229823,117
143,WS_SEND_END,1516293229823,117
143,PLAYER_SLEEPBEFORE_START,1516293229823,118
143,PLAYER_SLEEPBEFORE_END,1516293233575,118
143,WS_SEND_START,1516293233575,118
143,WS_SEND_END,1516293233575,118
143,WS_RECV_START,1516293233575,119
143,WS_RECV_END,1516293236212,119
143,PLAYER_SLEEPBEFORE_START,1516293236212,120
143,PLAYER_SLEEPBEFORE_END,1516293237200,120
143,WS_SEND_START,1516293237200,120
143,WS_SEND_END,1516293237200,120
143,WS_RECV_START,1516293237200,121
143,WS_RECV_END,1516293240436,121
143,PLAYER_SLEEPBEFORE_START,1516293240436,122
143,PLAYER_SLEEPBEFORE_END,1516293241621,122
143,WS_SEND_START,1516293241621,122
143,WS_SEND_END,1516293241621,122
143,WS_RECV_START,1516293241621,123
143,WS_RECV_END,1516293244360,123
143,PLAYER_SLEEPBEFORE_START,1516293244360,124
143,PLAYER_SLEEPBEFORE_END,1516293268765,124
143,WS_SEND_START,1516293268765,124
143,WS_SEND_END,1516293268765,124
143,WS_RECV_START,1516293268765,125
143,WS_RECV_END,1516293272855,125
143,PLAYER_SLEEPBEFORE_START,1516293272855,126
143,PLAYER_SLEEPBEFORE_END,1516293293367,126
143,WS_SEND_START,1516293293367,126
143,WS_SEND_END,1516293293367,126
143,PLAYER_SLEEPBEFORE_START,1516293293367,127
143,PLAYER_SLEEPBEFORE_END,1516293296421,127
143,WS_SEND_START,1516293296421,127
143,WS_SEND_END,1516293296421,127
143,WS_RECV_START,1516293296421,128
143,WS_RECV_END,1516293297773,128
143,PLAYER_SLEEPBEFORE_START,1516293297773,129
143,PLAYER_SLEEPBEFORE_END,1516293297793,129
143,WS_SEND_START,1516293297793,129
143,WS_SEND_END,1516293297793,129
143,WS_RECV_START,1516293297793,130
143,WS_RECV_END,1516293300424,130
143,PLAYER_SLEEPBEFORE_START,1516293300424,131
143,PLAYER_SLEEPBEFORE_END,1516293322048,131
143,WS_SEND_START,1516293322048,131
143,WS_SEND_END,1516293322048,131
143,PLAYER_SLEEPBEFORE_START,1516293322048,132
143,PLAYER_SLEEPBEFORE_END,1516293325129,132
143,WS_SEND_START,1516293325129,132
143,WS_SEND_END,1516293325129,132
143,WS_RECV_START,1516293325129,133
143,WS_RECV_END,1516293326332,133
143,PLAYER_SLEEPBEFORE_START,1516293326332,134
143,PLAYER_SLEEPBEFORE_END,1516293347549,134
143,WS_SEND_START,1516293347549,134
143,WS_SEND_END,1516293347549,134
143,PLAYER_SLEEPBEFORE_START,1516293347549,135
143,PLAYER_SLEEPBEFORE_END,1516293350740,135
143,WS_SEND_START,1516293350740,135
143,WS_SEND_END,1516293350740,135
143,WS_RECV_START,1516293350740,136
143,WS_RECV_END,1516293353565,136
143,PLAYER_SLEEPBEFORE_START,1516293353565,137
143,PLAYER_SLEEPBEFORE_END,1516293353572,137
143,WS_SEND_START,1516293353572,137
143,WS_SEND_END,1516293353572,137
143,WS_RECV_START,1516293353572,138
143,WS_RECV_END,1516293355869,138
143,PLAYER_SLEEPBEFORE_START,1516293355869,139
143,PLAYER_SLEEPBEFORE_END,1516293356559,139
143,WS_SEND_START,1516293356559,139
143,WS_SEND_END,1516293356559,139
143,WS_RECV_START,1516293356559,140
143,WS_RECV_END,1516293359219,140
143,PLAYER_SLEEPBEFORE_START,1516293359219,141
143,PLAYER_SLEEPBEFORE_END,1516293359874,141
143,WS_SEND_START,1516293359874,141
143,WS_SEND_END,1516293359874,141
143,WS_RECV_START,1516293359874,142
143,WS_RECV_END,1516293362193,142
143,PLAYER_SLEEPBEFORE_START,1516293362193,143
143,PLAYER_SLEEPBEFORE_END,1516293362250,143
143,WS_SEND_START,1516293362250,143
143,WS_SEND_END,1516293362250,143
143,WS_RECV_START,1516293362250,144
143,WS_RECV_END,1516293365693,144
143,PLAYER_SLEEPBEFORE_START,1516293365693,145
143,PLAYER_SLEEPBEFORE_END,1516293381756,145
143,REQ_START,1516293381756,145
143,REQ_END,1516293381769,145
143,PLAYER_SLEEPBEFORE_START,1516293381769,146
143,PLAYER_SLEEPBEFORE_END,1516293390647,146
143,WS_SEND_START,1516293390647,146
143,WS_SEND_END,1516293390647,146
143,WS_RECV_START,1516293390647,147
143,WS_RECV_END,1516293396423,147
143,PLAYER_SLEEPBEFORE_START,1516293396423,148
143,PLAYER_SLEEPBEFORE_END,1516293418345,148
143,WS_SEND_START,1516293418345,148
143,WS_SEND_END,1516293418345,148
143,PLAYER_SLEEPBEFORE_START,1516293418345,149
143,PLAYER_SLEEPBEFORE_END,1516293420773,149
143,WS_SEND_START,1516293420773,149
143,WS_SEND_END,1516293420773,149
143,WS_RECV_START,1516293420773,150
143,WS_RECV_END,1516293423335,150
143,PLAYER_SLEEPBEFORE_START,1516293423335,151
143,PLAYER_SLEEPBEFORE_END,1516293423545,151
143,WS_SEND_START,1516293423545,151
143,WS_SEND_END,1516293423545,151
143,WS_RECV_START,1516293423546,152
143,WS_RECV_END,1516293425217,152
143,PLAYER_SLEEPBEFORE_START,1516293425217,153
143,PLAYER_SLEEPBEFORE_END,1516293449144,153
143,WS_SEND_START,1516293449144,153
143,WS_SEND_END,1516293449144,153
143,WS_RECV_START,1516293449144,154
143,WS_RECV_END,1516293455105,154
143,PLAYER_SLEEPBEFORE_START,1516293455105,155
143,PLAYER_SLEEPBEFORE_END,1516293477663,155
143,WS_SEND_START,1516293477663,155
143,WS_SEND_END,1516293477663,155
143,PLAYER_SLEEPBEFORE_START,1516293477663,156
143,PLAYER_SLEEPBEFORE_END,1516293480938,156
143,WS_SEND_START,1516293480938,156
143,WS_SEND_END,1516293480938,156
143,WS_RECV_START,1516293480938,157
143,WS_RECV_END,1516293482894,157
143,PLAYER_SLEEPBEFORE_START,1516293482894,158
143,PLAYER_SLEEPBEFORE_END,1516293482905,158
143,WS_SEND_START,1516293482905,158
143,WS_SEND_END,1516293482905,158
143,WS_RECV_START,1516293482905,159
143,WS_RECV_END,1516293485081,159
143,PLAYER_SLEEPBEFORE_START,1516293485081,160
143,PLAYER_SLEEPBEFORE_END,1516293485256,160
143,WS_SEND_START,1516293485257,160
143,WS_SEND_END,1516293485257,160
143,WS_RECV_START,1516293485257,161
143,WS_RECV_END,1516293487670,161
143,PLAYER_SLEEPBEFORE_START,1516293487670,162
143,PLAYER_SLEEPBEFORE_END,1516293487695,162
143,WS_SEND_START,1516293487695,162
143,WS_SEND_END,1516293487695,162
143,WS_RECV_START,1516293487695,163
143,WS_RECV_END,1516293490724,163
143,PLAYER_SLEEPBEFORE_START,1516293490724,164
143,PLAYER_SLEEPBEFORE_END,1516293511536,164
143,WS_SEND_START,1516293511536,164
143,WS_SEND_END,1516293511536,164
143,WS_RECV_START,1516293511536,165
143,WS_RECV_END,1516293517751,165
143,PLAYER_SLEEPBEFORE_START,1516293517751,166
143,PLAYER_SLEEPBEFORE_END,1516293540206,166
143,WS_SEND_START,1516293540206,166
143,WS_SEND_END,1516293540206,166
143,WS_RECV_START,1516293540206,167
143,WS_RECV_END,1516293547612,167
143,PLAYER_SLEEPBEFORE_START,1516293547612,168
143,PLAYER_SLEEPBEFORE_END,1516293574969,168
143,WS_SEND_START,1516293574969,168
143,WS_SEND_END,1516293574969,168
143,WS_RECV_START,1516293574969,169
143,WS_RECV_END,1516293581748,169
143,PLAYER_SLEEPBEFORE_START,1516293581748,170
143,PLAYER_SLEEPBEFORE_END,1516293581757,170
143,WS_SEND_START,1516293581757,170
143,WS_SEND_END,1516293581757,170
143,WS_RECV_START,1516293581757,171
143,WS_RECV_END,1516293585602,171
143,PLAYER_SLEEPBEFORE_START,1516293585602,172
143,PLAYER_SLEEPBEFORE_END,1516293585971,172
143,WS_SEND_START,1516293585971,172
143,WS_SEND_END,1516293585971,172
143,WS_RECV_START,1516293585971,173
143,WS_RECV_END,1516293589778,173
143,PLAYER_SLEEPBEFORE_START,1516293589778,174
143,PLAYER_SLEEPBEFORE_END,1516293589819,174
143,WS_SEND_START,1516293589819,174
143,WS_SEND_END,1516293589819,174
143,WS_RECV_START,1516293589819,175
143,WS_RECV_END,1516293594117,175
143,PLAYER_SLEEPBEFORE_START,1516293594117,176
143,PLAYER_SLEEPBEFORE_END,1516293615878,176
143,WS_SEND_START,1516293615878,176
143,WS_SEND_END,1516293615878,176
143,PLAYER_SLEEPBEFORE_START,1516293615878,177
143,PLAYER_SLEEPBEFORE_END,1516293618396,177
143,WS_SEND_START,1516293618396,177
143,WS_SEND_END,1516293618396,177
143,WS_RECV_START,1516293618396,178
143,WS_RECV_END,1516293624486,178
143,PLAYER_SLEEPBEFORE_START,1516293624486,179
143,PLAYER_SLEEPBEFORE_END,1516293646826,179
143,WS_SEND_START,1516293646826,179
143,WS_SEND_END,1516293646826,179
143,WS_RECV_START,1516293646826,180
143,WS_RECV_END,1516293654642,180
143,PLAYER_SLEEPBEFORE_START,1516293654642,181
143,PLAYER_SLEEPBEFORE_END,1516293655086,181
143,WS_SEND_START,1516293655086,181
143,WS_SEND_END,1516293655086,181
143,WS_RECV_START,1516293655086,182
143,WS_RECV_END,1516293659168,182
143,PLAYER_SLEEPBEFORE_START,1516293659168,183
143,PLAYER_SLEEPBEFORE_END,1516293659691,183
143,WS_SEND_START,1516293659692,183
143,WS_SEND_END,1516293659692,183
143,WS_RECV_START,1516293659692,184
143,WS_RECV_END,1516293664966,184
143,PLAYER_SLEEPBEFORE_START,1516293664966,185
143,PLAYER_SLEEPBEFORE_END,1516293665234,185
143,WS_SEND_START,1516293665234,185
143,WS_SEND_END,1516293665234,185
143,WS_RECV_START,1516293665234,186
143,WS_RECV_END,1516293671347,186
143,PLAYER_SLEEPBEFORE_START,1516293671347,187
143,PLAYER_SLEEPBEFORE_END,1516293693847,187
143,WS_SEND_START,1516293693847,187
143,WS_SEND_END,1516293693847,187
143,WS_RECV_START,1516293693847,188
143,WS_RECV_END,1516293701231,188
143,PLAYER_SLEEPBEFORE_START,1516293701231,189
143,PLAYER_SLEEPBEFORE_END,1516293707471,189
143,WS_SEND_START,1516293707471,189
143,WS_SEND_END,1516293707471,189
143,WS_RECV_START,1516293707471,190
143,WS_RECV_END,1516293712796,190
143,PLAYER_SLEEPBEFORE_START,1516293712796,191
143,PLAYER_SLEEPBEFORE_END,1516293714711,191
143,WS_SEND_START,1516293714711,191
143,WS_SEND_END,1516293714711,191
143,WS_RECV_START,1516293714711,192
143,WS_RECV_END,1516293720419,192
143,PLAYER_SLEEPBEFORE_START,1516293720419,193
143,PLAYER_SLEEPBEFORE_END,1516293720547,193
143,WS_SEND_START,1516293720547,193
143,WS_SEND_END,1516293720547,193
143,WS_RECV_START,1516293720547,194
143,WS_RECV_END,1516293723422,194
143,PLAYER_SLEEPBEFORE_START,1516293723422,195
143,PLAYER_SLEEPBEFORE_END,1516293725182,195
143,WS_SEND_START,1516293725182,195
143,WS_SEND_END,1516293725182,195
143,WS_RECV_START,1516293725182,196
143,WS_RECV_END,1516293726014,196
143,PLAYER_SLEEPBEFORE_START,1516293726014,197
143,PLAYER_SLEEPBEFORE_END,1516293727818,197
143,WS_SEND_START,1516293727818,197
143,WS_SEND_END,1516293727818,197
143,WS_RECV_START,1516293727818,198
143,WS_RECV_END,1516293729543,198
143,PLAYER_SLEEPBEFORE_START,1516293729543,199
143,PLAYER_SLEEPBEFORE_END,1516293741397,199
143,WS_SEND_START,1516293741397,199
143,WS_SEND_END,1516293741397,199
143,PLAYER_SLEEPBEFORE_START,1516293741397,200
143,PLAYER_SLEEPBEFORE_END,1516293745485,200
143,WS_SEND_START,1516293745485,200
143,WS_SEND_END,1516293745485,200
143,WS_RECV_START,1516293745485,201
143,WS_RECV_END,1516293748093,201
143,PLAYER_SLEEPBEFORE_START,1516293748093,202
143,PLAYER_SLEEPBEFORE_END,1516293748107,202
143,WS_SEND_START,1516293748107,202
143,WS_SEND_END,1516293748107,202
143,WS_RECV_START,1516293748107,203
143,WS_RECV_END,1516293753238,203
143,PLAYER_SLEEPBEFORE_START,1516293753238,204
143,PLAYER_SLEEPBEFORE_END,1516293772888,204
143,WS_SEND_START,1516293772888,204
143,WS_SEND_END,1516293772888,204
143,PLAYER_SLEEPBEFORE_START,1516293772888,205
143,PLAYER_SLEEPBEFORE_END,1516293776786,205
143,WS_SEND_START,1516293776786,205
143,WS_SEND_END,1516293776786,205
143,WS_RECV_START,1516293776786,206
143,WS_RECV_END,1516293777745,206
143,PLAYER_SLEEPBEFORE_START,1516293777745,207
143,PLAYER_SLEEPBEFORE_END,1516293794676,207
143,REQ_START,1516293794676,207
143,REQ_END,1516293794684,207
143,PLAYER_SLEEPBEFORE_START,1516293794684,208
143,PLAYER_SLEEPBEFORE_END,1516293801536,208
143,WS_CLOSE_START,1516293801536,208
143,WS_CLOSE_END,1516293801536,208
143,PLAYER_DONE,1516293801536
