# --sessions 630 --app-url=http://shinyloadtest.rstudioservices.com/cran_explorer --output-dir test630 --overwrite-output --log-level warn --start-interval 800 15min.log
thread_id,event,timestamp,input_line_number,comment
169,PLAYER_SESSION_CREATE,1516292633494
169,PLAYER_START_INTERVAL_START,1516292633494
169,PLAYER_START_INTERVAL_END,1516292768694
169,REQ_HOME_START,1516292768694,2
169,REQ_HOME_END,1516292768775,2
169,REQ_START,1516292768775,3
169,REQ_END,1516292768805,3
169,REQ_START,1516292768805,4
169,REQ_END,1516292768835,4
169,REQ_START,1516292768835,5
169,REQ_END,1516292768866,5
169,REQ_START,1516292768866,6
169,REQ_END,1516292768897,6
169,REQ_START,1516292768897,7
169,REQ_END,1516292768928,7
169,REQ_START,1516292768928,8
169,REQ_END,1516292768959,8
169,REQ_START,1516292768959,9
169,REQ_END,1516292768993,9
169,REQ_START,1516292768993,10
169,REQ_END,1516292769000,10
169,REQ_START,1516292769000,11
169,REQ_END,1516292769030,11
169,REQ_START,1516292769030,12
169,REQ_END,1516292769039,12
169,REQ_START,1516292769039,13
169,REQ_END,1516292769111,13
169,REQ_START,1516292769111,14
169,REQ_END,1516292769125,14
169,REQ_START,1516292769125,15
169,REQ_END,1516292769157,15
169,REQ_TOK_START,1516292769158,16
169,REQ_TOK_END,1516292769165,16
169,REQ_SINF_START,1516292769165,17
169,REQ_SINF_END,1516292769172,17
169,WS_OPEN_START,1516292769172,18
169,WS_OPEN_END,1516292769179,18
169,REQ_START,1516292769179,19
169,REQ_END,1516292769235,19
169,WS_RECV_START,1516292769235,20
169,WS_RECV_END,1516292769235,20
169,PLAYER_SLEEPBEFORE_START,1516292769235,21
169,PLAYER_SLEEPBEFORE_END,1516292769240,21
169,WS_SEND_START,1516292769240,21
169,WS_SEND_END,1516292769240,21
169,PLAYER_SLEEPBEFORE_START,1516292769240,22
169,PLAYER_SLEEPBEFORE_END,1516292769241,22
169,WS_SEND_START,1516292769241,22
169,WS_SEND_END,1516292769241,22
169,WS_RECV_INIT_START,1516292769241,23
169,WS_RECV_INIT_END,1516292769257,23
169,WS_RECV_START,1516292769257,24
169,WS_RECV_END,1516292769305,24
169,PLAYER_SLEEPBEFORE_START,1516292769305,25
169,PLAYER_SLEEPBEFORE_END,1516292769312,25
169,REQ_START,1516292769312,25
169,REQ_END,1516292769399,25
169,PLAYER_SLEEPBEFORE_START,1516292769399,26
169,PLAYER_SLEEPBEFORE_END,1516292769400,26
169,REQ_START,1516292769400,26
169,REQ_END,1516292769582,26
169,PLAYER_SLEEPBEFORE_START,1516292769582,27
169,PLAYER_SLEEPBEFORE_END,1516292769585,27
169,REQ_START,1516292769585,27
169,REQ_END,1516292769618,27
169,PLAYER_SLEEPBEFORE_START,1516292769618,28
169,PLAYER_SLEEPBEFORE_END,1516292769903,28
169,REQ_START,1516292769903,28
169,REQ_END,1516292769935,28
169,PLAYER_SLEEPBEFORE_START,1516292769935,29
169,PLAYER_SLEEPBEFORE_END,1516292770110,29
169,WS_SEND_START,1516292770110,29
169,WS_SEND_END,1516292770110,29
169,WS_RECV_START,1516292770110,30
169,WS_RECV_END,1516292770211,30
169,PLAYER_SLEEPBEFORE_START,1516292770211,31
169,PLAYER_SLEEPBEFORE_END,1516292770222,31
169,REQ_START,1516292770222,31
169,REQ_END,1516292770255,31
169,PLAYER_SLEEPBEFORE_START,1516292770255,32
169,PLAYER_SLEEPBEFORE_END,1516292798400,32
169,WS_SEND_START,1516292798400,32
169,WS_SEND_END,1516292798400,32
169,WS_RECV_START,1516292798400,33
169,WS_RECV_END,1516292798509,33
169,PLAYER_SLEEPBEFORE_START,1516292798509,34
169,PLAYER_SLEEPBEFORE_END,1516292824420,34
169,WS_SEND_START,1516292824420,34
169,WS_SEND_END,1516292824420,34
169,WS_RECV_START,1516292824420,35
169,WS_RECV_END,1516292824447,35
169,PLAYER_SLEEPBEFORE_START,1516292824447,36
169,PLAYER_SLEEPBEFORE_END,1516292824456,36
169,WS_SEND_START,1516292824456,36
169,WS_SEND_END,1516292824456,36
169,WS_RECV_START,1516292824456,37
169,WS_RECV_END,1516292824496,37
169,PLAYER_SLEEPBEFORE_START,1516292824496,38
169,PLAYER_SLEEPBEFORE_END,1516292827691,38
169,WS_SEND_START,1516292827691,38
169,WS_SEND_END,1516292827691,38
169,WS_RECV_START,1516292827691,39
169,WS_RECV_END,1516292827822,39
169,PLAYER_SLEEPBEFORE_START,1516292827822,40
169,PLAYER_SLEEPBEFORE_END,1516292827868,40
169,WS_SEND_START,1516292827868,40
169,WS_SEND_END,1516292827868,40
169,WS_RECV_START,1516292827868,41
169,WS_RECV_END,1516292827974,41
169,PLAYER_SLEEPBEFORE_START,1516292827974,42
169,PLAYER_SLEEPBEFORE_END,1516292846109,42
169,WS_SEND_START,1516292846109,42
169,WS_SEND_END,1516292846109,42
169,WS_RECV_START,1516292846109,43
169,WS_RECV_END,1516292846139,43
169,PLAYER_SLEEPBEFORE_START,1516292846139,44
169,PLAYER_SLEEPBEFORE_END,1516292846151,44
169,WS_SEND_START,1516292846151,44
169,WS_SEND_END,1516292846151,44
169,WS_RECV_START,1516292846151,45
169,WS_RECV_END,1516292846192,45
169,PLAYER_SLEEPBEFORE_START,1516292846192,46
169,PLAYER_SLEEPBEFORE_END,1516292847452,46
169,WS_SEND_START,1516292847452,46
169,WS_SEND_END,1516292847452,46
169,WS_RECV_START,1516292847452,47
169,WS_RECV_END,1516292847481,47
169,PLAYER_SLEEPBEFORE_START,1516292847481,48
169,PLAYER_SLEEPBEFORE_END,1516292848801,48
169,WS_SEND_START,1516292848801,48
169,WS_SEND_END,1516292848801,48
169,WS_RECV_START,1516292848801,49
169,WS_RECV_END,1516292848892,49
169,PLAYER_SLEEPBEFORE_START,1516292848892,50
169,PLAYER_SLEEPBEFORE_END,1516292848916,50
169,WS_SEND_START,1516292848916,50
169,WS_SEND_END,1516292848916,50
169,WS_RECV_START,1516292848916,51
169,WS_RECV_END,1516292849049,51
169,PLAYER_SLEEPBEFORE_START,1516292849049,52
169,PLAYER_SLEEPBEFORE_END,1516292871613,52
169,WS_SEND_START,1516292871613,52
169,WS_SEND_END,1516292871613,52
169,WS_RECV_START,1516292871613,53
169,WS_RECV_END,1516292871758,53
169,PLAYER_SLEEPBEFORE_START,1516292871758,54
169,PLAYER_SLEEPBEFORE_END,1516292893061,54
169,WS_SEND_START,1516292893061,54
169,WS_SEND_END,1516292893061,54
169,PLAYER_SLEEPBEFORE_START,1516292893061,55
169,PLAYER_SLEEPBEFORE_END,1516292895002,55
169,WS_SEND_START,1516292895002,55
169,WS_SEND_END,1516292895002,55
169,WS_RECV_START,1516292895002,56
169,WS_RECV_END,1516292895083,56
169,PLAYER_SLEEPBEFORE_START,1516292895083,57
169,PLAYER_SLEEPBEFORE_END,1516292917955,57
169,WS_SEND_START,1516292917955,57
169,WS_SEND_END,1516292917955,57
169,WS_RECV_START,1516292917955,58
169,WS_RECV_END,1516292918004,58
169,PLAYER_SLEEPBEFORE_START,1516292918004,59
169,PLAYER_SLEEPBEFORE_END,1516292920331,59
169,WS_SEND_START,1516292920331,59
169,WS_SEND_END,1516292920331,59
169,WS_RECV_START,1516292920331,60
169,WS_RECV_END,1516292920449,60
169,PLAYER_SLEEPBEFORE_START,1516292920449,61
169,PLAYER_SLEEPBEFORE_END,1516292924040,61
169,WS_SEND_START,1516292924040,61
169,WS_SEND_END,1516292924040,61
169,WS_RECV_START,1516292924040,62
169,WS_RECV_END,1516292924231,62
169,PLAYER_SLEEPBEFORE_START,1516292924231,63
169,PLAYER_SLEEPBEFORE_END,1516292943493,63
169,WS_SEND_START,1516292943493,63
169,WS_SEND_END,1516292943493,63
169,WS_RECV_START,1516292943493,64
169,WS_RECV_END,1516292943583,64
169,PLAYER_SLEEPBEFORE_START,1516292943583,65
169,PLAYER_SLEEPBEFORE_END,1516292970400,65
169,WS_SEND_START,1516292970400,65
169,WS_SEND_END,1516292970400,65
169,WS_RECV_START,1516292970400,66
169,WS_RECV_END,1516292970658,66
169,PLAYER_SLEEPBEFORE_START,1516292970658,67
169,PLAYER_SLEEPBEFORE_END,1516292972165,67
169,WS_SEND_START,1516292972165,67
169,WS_SEND_END,1516292972165,67
169,WS_RECV_START,1516292972165,68
169,WS_RECV_END,1516292972297,68
169,PLAYER_SLEEPBEFORE_START,1516292972297,69
169,PLAYER_SLEEPBEFORE_END,1516292994295,69
169,WS_SEND_START,1516292994295,69
169,WS_SEND_END,1516292994295,69
169,WS_RECV_START,1516292994295,70
169,WS_RECV_END,1516292994842,70
169,PLAYER_SLEEPBEFORE_START,1516292994842,71
169,PLAYER_SLEEPBEFORE_END,1516293019617,71
169,WS_SEND_START,1516293019618,71
169,WS_SEND_END,1516293019618,71
169,PLAYER_SLEEPBEFORE_START,1516293019618,72
169,PLAYER_SLEEPBEFORE_END,1516293022225,72
169,WS_SEND_START,1516293022225,72
169,WS_SEND_END,1516293022225,72
169,WS_RECV_START,1516293022225,73
169,WS_RECV_END,1516293022300,73
169,PLAYER_SLEEPBEFORE_START,1516293022300,74
169,PLAYER_SLEEPBEFORE_END,1516293022309,74
169,WS_SEND_START,1516293022309,74
169,WS_SEND_END,1516293022309,74
169,WS_RECV_START,1516293022309,75
169,WS_RECV_END,1516293022368,75
169,PLAYER_SLEEPBEFORE_START,1516293022368,76
169,PLAYER_SLEEPBEFORE_END,1516293023874,76
169,WS_SEND_START,1516293023874,76
169,WS_SEND_END,1516293023874,76
169,WS_RECV_START,1516293023874,77
169,WS_RECV_END,1516293023932,77
169,PLAYER_SLEEPBEFORE_START,1516293023932,78
169,PLAYER_SLEEPBEFORE_END,1516293024800,78
169,WS_SEND_START,1516293024800,78
169,WS_SEND_END,1516293024800,78
169,WS_RECV_START,1516293024800,79
169,WS_RECV_END,1516293024854,79
169,PLAYER_SLEEPBEFORE_START,1516293024854,80
169,PLAYER_SLEEPBEFORE_END,1516293032520,80
169,WS_SEND_START,1516293032520,80
169,WS_SEND_END,1516293032520,80
169,WS_RECV_START,1516293032520,81
169,WS_RECV_END,1516293033330,81
169,PLAYER_SLEEPBEFORE_START,1516293033330,82
169,PLAYER_SLEEPBEFORE_END,1516293034432,82
169,WS_SEND_START,1516293034432,82
169,WS_SEND_END,1516293034432,82
169,WS_RECV_START,1516293034432,83
169,WS_RECV_END,1516293034521,83
169,PLAYER_SLEEPBEFORE_START,1516293034521,84
169,PLAYER_SLEEPBEFORE_END,1516293035468,84
169,WS_SEND_START,1516293035468,84
169,WS_SEND_END,1516293035468,84
169,WS_RECV_START,1516293035468,85
169,WS_RECV_END,1516293036244,85
169,PLAYER_SLEEPBEFORE_START,1516293036244,86
169,PLAYER_SLEEPBEFORE_END,1516293040416,86
169,WS_SEND_START,1516293040416,86
169,WS_SEND_END,1516293040416,86
169,WS_RECV_START,1516293040416,87
169,WS_RECV_END,1516293040557,87
169,PLAYER_SLEEPBEFORE_START,1516293040557,88
169,PLAYER_SLEEPBEFORE_END,1516293040565,88
169,WS_SEND_START,1516293040565,88
169,WS_SEND_END,1516293040565,88
169,WS_RECV_START,1516293040565,89
169,WS_RECV_END,1516293040844,89
169,PLAYER_SLEEPBEFORE_START,1516293040844,90
169,PLAYER_SLEEPBEFORE_END,1516293068041,90
169,REQ_START,1516293068042,90
169,REQ_END,1516293068049,90
169,PLAYER_SLEEPBEFORE_START,1516293068049,91
169,PLAYER_SLEEPBEFORE_END,1516293075938,91
169,WS_SEND_START,1516293075938,91
169,WS_SEND_END,1516293075938,91
169,WS_RECV_START,1516293075938,92
169,WS_RECV_END,1516293076076,92
169,PLAYER_SLEEPBEFORE_START,1516293076076,93
169,PLAYER_SLEEPBEFORE_END,1516293076091,93
169,WS_SEND_START,1516293076091,93
169,WS_SEND_END,1516293076091,93
169,WS_RECV_START,1516293076091,94
169,WS_RECV_END,1516293076327,94
169,PLAYER_SLEEPBEFORE_START,1516293076327,95
169,PLAYER_SLEEPBEFORE_END,1516293099882,95
169,WS_SEND_START,1516293099882,95
169,WS_SEND_END,1516293099882,95
169,WS_RECV_START,1516293099882,96
169,WS_RECV_END,1516293100280,96
169,PLAYER_SLEEPBEFORE_START,1516293100280,97
169,PLAYER_SLEEPBEFORE_END,1516293122720,97
169,WS_SEND_START,1516293122720,97
169,WS_SEND_END,1516293122720,97
169,WS_RECV_START,1516293122720,98
169,WS_RECV_END,1516293123976,98
169,PLAYER_SLEEPBEFORE_START,1516293123976,99
169,PLAYER_SLEEPBEFORE_END,1516293123997,99
169,WS_SEND_START,1516293123997,99
169,WS_SEND_END,1516293123997,99
169,WS_RECV_START,1516293123997,100
169,WS_RECV_END,1516293124573,100
169,PLAYER_SLEEPBEFORE_START,1516293124573,101
169,PLAYER_SLEEPBEFORE_END,1516293148132,101
169,WS_SEND_START,1516293148132,101
169,WS_SEND_END,1516293148132,101
169,WS_RECV_START,1516293148132,102
169,WS_RECV_END,1516293149355,102
169,PLAYER_SLEEPBEFORE_START,1516293149355,103
169,PLAYER_SLEEPBEFORE_END,1516293172980,103
169,WS_SEND_START,1516293172980,103
169,WS_SEND_END,1516293172980,103
169,WS_RECV_START,1516293172980,104
169,WS_RECV_END,1516293174936,104
169,PLAYER_SLEEPBEFORE_START,1516293174936,105
169,PLAYER_SLEEPBEFORE_END,1516293200313,105
169,WS_SEND_START,1516293200314,105
169,WS_SEND_END,1516293200314,105
169,WS_RECV_START,1516293200314,106
169,WS_RECV_END,1516293202173,106
169,PLAYER_SLEEPBEFORE_START,1516293202173,107
169,PLAYER_SLEEPBEFORE_END,1516293225597,107
169,WS_SEND_START,1516293225597,107
169,WS_SEND_END,1516293225597,107
169,WS_RECV_START,1516293225597,108
169,WS_RECV_END,1516293227794,108
169,PLAYER_SLEEPBEFORE_START,1516293227794,109
169,PLAYER_SLEEPBEFORE_END,1516293227803,109
169,WS_SEND_START,1516293227803,109
169,WS_SEND_END,1516293227803,109
169,WS_RECV_START,1516293227803,110
169,WS_RECV_END,1516293228372,110
169,PLAYER_SLEEPBEFORE_START,1516293228372,111
169,PLAYER_SLEEPBEFORE_END,1516293229331,111
169,WS_SEND_START,1516293229331,111
169,WS_SEND_END,1516293229332,111
169,WS_RECV_START,1516293229332,112
169,WS_RECV_END,1516293229992,112
169,PLAYER_SLEEPBEFORE_START,1516293229992,113
169,PLAYER_SLEEPBEFORE_END,1516293230554,113
169,WS_SEND_START,1516293230554,113
169,WS_SEND_END,1516293230554,113
169,WS_RECV_START,1516293230554,114
169,WS_RECV_END,1516293231359,114
169,PLAYER_SLEEPBEFORE_START,1516293231359,115
169,PLAYER_SLEEPBEFORE_END,1516293231368,115
169,WS_SEND_START,1516293231368,115
169,WS_SEND_END,1516293231368,115
169,WS_RECV_START,1516293231368,116
169,WS_RECV_END,1516293232863,116
169,PLAYER_SLEEPBEFORE_START,1516293232863,117
169,PLAYER_SLEEPBEFORE_END,1516293253223,117
169,WS_SEND_START,1516293253223,117
169,WS_SEND_END,1516293253223,117
169,PLAYER_SLEEPBEFORE_START,1516293253223,118
169,PLAYER_SLEEPBEFORE_END,1516293256976,118
169,WS_SEND_START,1516293256976,118
169,WS_SEND_END,1516293256976,118
169,WS_RECV_START,1516293256976,119
169,WS_RECV_END,1516293259234,119
169,PLAYER_SLEEPBEFORE_START,1516293259234,120
169,PLAYER_SLEEPBEFORE_END,1516293260222,120
169,WS_SEND_START,1516293260222,120
169,WS_SEND_END,1516293260222,120
169,WS_RECV_START,1516293260222,121
169,WS_RECV_END,1516293263021,121
169,PLAYER_SLEEPBEFORE_START,1516293263021,122
169,PLAYER_SLEEPBEFORE_END,1516293264206,122
169,WS_SEND_START,1516293264206,122
169,WS_SEND_END,1516293264206,122
169,WS_RECV_START,1516293264206,123
169,WS_RECV_END,1516293265227,123
169,PLAYER_SLEEPBEFORE_START,1516293265227,124
169,PLAYER_SLEEPBEFORE_END,1516293289633,124
169,WS_SEND_START,1516293289633,124
169,WS_SEND_END,1516293289633,124
169,WS_RECV_START,1516293289633,125
169,WS_RECV_END,1516293291918,125
169,PLAYER_SLEEPBEFORE_START,1516293291918,126
169,PLAYER_SLEEPBEFORE_END,1516293312430,126
169,WS_SEND_START,1516293312430,126
169,WS_SEND_END,1516293312430,126
169,PLAYER_SLEEPBEFORE_START,1516293312430,127
169,PLAYER_SLEEPBEFORE_END,1516293315484,127
169,WS_SEND_START,1516293315484,127
169,WS_SEND_END,1516293315484,127
169,WS_RECV_START,1516293315484,128
169,WS_RECV_END,1516293315805,128
169,PLAYER_SLEEPBEFORE_START,1516293315805,129
169,PLAYER_SLEEPBEFORE_END,1516293315825,129
169,WS_SEND_START,1516293315825,129
169,WS_SEND_END,1516293315825,129
169,WS_RECV_START,1516293315825,130
169,WS_RECV_END,1516293316788,130
169,PLAYER_SLEEPBEFORE_START,1516293316788,131
169,PLAYER_SLEEPBEFORE_END,1516293338412,131
169,WS_SEND_START,1516293338412,131
169,WS_SEND_END,1516293338412,131
169,PLAYER_SLEEPBEFORE_START,1516293338412,132
169,PLAYER_SLEEPBEFORE_END,1516293341492,132
169,WS_SEND_START,1516293341492,132
169,WS_SEND_END,1516293341493,132
169,WS_RECV_START,1516293341493,133
169,WS_RECV_END,1516293342156,133
169,PLAYER_SLEEPBEFORE_START,1516293342156,134
169,PLAYER_SLEEPBEFORE_END,1516293363373,134
169,WS_SEND_START,1516293363373,134
169,WS_SEND_END,1516293363373,134
169,PLAYER_SLEEPBEFORE_START,1516293363373,135
169,PLAYER_SLEEPBEFORE_END,1516293366563,135
169,WS_SEND_START,1516293366563,135
169,WS_SEND_END,1516293366563,135
169,WS_RECV_START,1516293366563,136
169,WS_RECV_END,1516293368645,136
169,PLAYER_SLEEPBEFORE_START,1516293368645,137
169,PLAYER_SLEEPBEFORE_END,1516293368652,137
169,WS_SEND_START,1516293368652,137
169,WS_SEND_END,1516293368652,137
169,WS_RECV_START,1516293368652,138
169,WS_RECV_END,1516293370957,138
169,PLAYER_SLEEPBEFORE_START,1516293370957,139
169,PLAYER_SLEEPBEFORE_END,1516293371647,139
169,WS_SEND_START,1516293371647,139
169,WS_SEND_END,1516293371647,139
169,WS_RECV_START,1516293371647,140
169,WS_RECV_END,1516293373654,140
169,PLAYER_SLEEPBEFORE_START,1516293373654,141
169,PLAYER_SLEEPBEFORE_END,1516293374309,141
169,WS_SEND_START,1516293374309,141
169,WS_SEND_END,1516293374309,141
169,WS_RECV_START,1516293374309,142
169,WS_RECV_END,1516293375969,142
169,PLAYER_SLEEPBEFORE_START,1516293375969,143
169,PLAYER_SLEEPBEFORE_END,1516293376026,143
169,WS_SEND_START,1516293376026,143
169,WS_SEND_END,1516293376026,143
169,WS_RECV_START,1516293376026,144
169,WS_RECV_END,1516293378963,144
169,PLAYER_SLEEPBEFORE_START,1516293378963,145
169,PLAYER_SLEEPBEFORE_END,1516293395026,145
169,REQ_START,1516293395026,145
169,REQ_END,1516293395035,145
169,PLAYER_SLEEPBEFORE_START,1516293395035,146
169,PLAYER_SLEEPBEFORE_END,1516293403912,146
169,WS_SEND_START,1516293403912,146
169,WS_SEND_END,1516293403912,146
169,WS_RECV_START,1516293403912,147
169,WS_RECV_END,1516293406420,147
169,PLAYER_SLEEPBEFORE_START,1516293406420,148
169,PLAYER_SLEEPBEFORE_END,1516293428342,148
169,WS_SEND_START,1516293428342,148
169,WS_SEND_END,1516293428342,148
169,PLAYER_SLEEPBEFORE_START,1516293428342,149
169,PLAYER_SLEEPBEFORE_END,1516293430770,149
169,WS_SEND_START,1516293430770,149
169,WS_SEND_END,1516293430770,149
169,WS_RECV_START,1516293430770,150
169,WS_RECV_END,1516293431532,150
169,PLAYER_SLEEPBEFORE_START,1516293431532,151
169,PLAYER_SLEEPBEFORE_END,1516293431742,151
169,WS_SEND_START,1516293431742,151
169,WS_SEND_END,1516293431742,151
169,WS_RECV_START,1516293431742,152
169,WS_RECV_END,1516293434669,152
169,PLAYER_SLEEPBEFORE_START,1516293434669,153
169,PLAYER_SLEEPBEFORE_END,1516293458596,153
169,WS_SEND_START,1516293458596,153
169,WS_SEND_END,1516293458596,153
169,WS_RECV_START,1516293458596,154
169,WS_RECV_END,1516293462200,154
169,PLAYER_SLEEPBEFORE_START,1516293462200,155
169,PLAYER_SLEEPBEFORE_END,1516293484758,155
169,WS_SEND_START,1516293484758,155
169,WS_SEND_END,1516293484758,155
169,PLAYER_SLEEPBEFORE_START,1516293484758,156
169,PLAYER_SLEEPBEFORE_END,1516293488033,156
169,WS_SEND_START,1516293488033,156
169,WS_SEND_END,1516293488033,156
169,WS_RECV_START,1516293488033,157
169,WS_RECV_END,1516293489554,157
169,PLAYER_SLEEPBEFORE_START,1516293489554,158
169,PLAYER_SLEEPBEFORE_END,1516293489564,158
169,WS_SEND_START,1516293489564,158
169,WS_SEND_END,1516293489564,158
169,WS_RECV_START,1516293489564,159
169,WS_RECV_END,1516293492289,159
169,PLAYER_SLEEPBEFORE_START,1516293492289,160
169,PLAYER_SLEEPBEFORE_END,1516293492465,160
169,WS_SEND_START,1516293492465,160
169,WS_SEND_END,1516293492465,160
169,WS_RECV_START,1516293492465,161
169,WS_RECV_END,1516293495943,161
169,PLAYER_SLEEPBEFORE_START,1516293495943,162
169,PLAYER_SLEEPBEFORE_END,1516293495968,162
169,WS_SEND_START,1516293495968,162
169,WS_SEND_END,1516293495968,162
169,WS_RECV_START,1516293495968,163
169,WS_RECV_END,1516293498184,163
169,PLAYER_SLEEPBEFORE_START,1516293498184,164
169,PLAYER_SLEEPBEFORE_END,1516293518997,164
169,WS_SEND_START,1516293518997,164
169,WS_SEND_END,1516293518997,164
169,WS_RECV_START,1516293518997,165
169,WS_RECV_END,1516293524015,165
169,PLAYER_SLEEPBEFORE_START,1516293524015,166
169,PLAYER_SLEEPBEFORE_END,1516293546470,166
169,WS_SEND_START,1516293546470,166
169,WS_SEND_END,1516293546470,166
169,WS_RECV_START,1516293546470,167
169,WS_RECV_END,1516293552254,167
169,PLAYER_SLEEPBEFORE_START,1516293552254,168
169,PLAYER_SLEEPBEFORE_END,1516293579611,168
169,WS_SEND_START,1516293579611,168
169,WS_SEND_END,1516293579611,168
169,WS_RECV_START,1516293579611,169
169,WS_RECV_END,1516293583178,169
169,PLAYER_SLEEPBEFORE_START,1516293583178,170
169,PLAYER_SLEEPBEFORE_END,1516293583187,170
169,WS_SEND_START,1516293583187,170
169,WS_SEND_END,1516293583187,170
169,WS_RECV_START,1516293583187,171
169,WS_RECV_END,1516293585318,171
169,PLAYER_SLEEPBEFORE_START,1516293585318,172
169,PLAYER_SLEEPBEFORE_END,1516293585687,172
169,WS_SEND_START,1516293585687,172
169,WS_SEND_END,1516293585687,172
169,WS_RECV_START,1516293585687,173
169,WS_RECV_END,1516293589008,173
169,PLAYER_SLEEPBEFORE_START,1516293589008,174
169,PLAYER_SLEEPBEFORE_END,1516293589049,174
169,WS_SEND_START,1516293589049,174
169,WS_SEND_END,1516293589049,174
169,WS_RECV_START,1516293589049,175
169,WS_RECV_END,1516293593352,175
169,PLAYER_SLEEPBEFORE_START,1516293593352,176
169,PLAYER_SLEEPBEFORE_END,1516293615114,176
169,WS_SEND_START,1516293615114,176
169,WS_SEND_END,1516293615114,176
169,PLAYER_SLEEPBEFORE_START,1516293615114,177
169,PLAYER_SLEEPBEFORE_END,1516293617632,177
169,WS_SEND_START,1516293617632,177
169,WS_SEND_END,1516293617632,177
169,WS_RECV_START,1516293617632,178
169,WS_RECV_END,1516293621982,178
169,PLAYER_SLEEPBEFORE_START,1516293621982,179
169,PLAYER_SLEEPBEFORE_END,1516293644322,179
169,WS_SEND_START,1516293644323,179
169,WS_SEND_END,1516293644323,179
169,WS_RECV_START,1516293644323,180
169,WS_RECV_END,1516293650080,180
169,PLAYER_SLEEPBEFORE_START,1516293650080,181
169,PLAYER_SLEEPBEFORE_END,1516293650524,181
169,WS_SEND_START,1516293650524,181
169,WS_SEND_END,1516293650524,181
169,WS_RECV_START,1516293650524,182
169,WS_RECV_END,1516293657372,182
169,PLAYER_SLEEPBEFORE_START,1516293657372,183
169,PLAYER_SLEEPBEFORE_END,1516293657895,183
169,WS_SEND_START,1516293657895,183
169,WS_SEND_END,1516293657895,183
169,WS_RECV_START,1516293657895,184
169,WS_RECV_END,1516293660895,184
169,PLAYER_SLEEPBEFORE_START,1516293660895,185
169,PLAYER_SLEEPBEFORE_END,1516293661163,185
169,WS_SEND_START,1516293661163,185
169,WS_SEND_END,1516293661163,185
169,WS_RECV_START,1516293661163,186
169,WS_RECV_END,1516293664543,186
169,PLAYER_SLEEPBEFORE_START,1516293664543,187
169,PLAYER_SLEEPBEFORE_END,1516293687043,187
169,WS_SEND_START,1516293687043,187
169,WS_SEND_END,1516293687043,187
169,WS_RECV_START,1516293687043,188
169,WS_RECV_END,1516293690857,188
169,PLAYER_SLEEPBEFORE_START,1516293690857,189
169,PLAYER_SLEEPBEFORE_END,1516293697096,189
169,WS_SEND_START,1516293697096,189
169,WS_SEND_END,1516293697096,189
169,WS_RECV_START,1516293697096,190
169,WS_RECV_END,1516293700577,190
169,PLAYER_SLEEPBEFORE_START,1516293700577,191
169,PLAYER_SLEEPBEFORE_END,1516293702493,191
169,WS_SEND_START,1516293702493,191
169,WS_SEND_END,1516293702493,191
169,WS_RECV_START,1516293702493,192
169,WS_RECV_END,1516293706205,192
169,PLAYER_SLEEPBEFORE_START,1516293706206,193
169,PLAYER_SLEEPBEFORE_END,1516293706334,193
169,WS_SEND_START,1516293706334,193
169,WS_SEND_END,1516293706334,193
169,WS_RECV_START,1516293706334,194
169,WS_RECV_END,1516293708515,194
169,PLAYER_SLEEPBEFORE_START,1516293708515,195
169,PLAYER_SLEEPBEFORE_END,1516293710271,195
169,WS_SEND_START,1516293710271,195
169,WS_SEND_END,1516293710271,195
169,WS_RECV_START,1516293710271,196
169,WS_RECV_END,1516293712135,196
169,PLAYER_SLEEPBEFORE_START,1516293712135,197
169,PLAYER_SLEEPBEFORE_END,1516293713939,197
169,WS_SEND_START,1516293713939,197
169,WS_SEND_END,1516293713939,197
169,WS_RECV_START,1516293713939,198
169,WS_RECV_END,1516293715676,198
169,PLAYER_SLEEPBEFORE_START,1516293715676,199
169,PLAYER_SLEEPBEFORE_END,1516293727531,199
169,WS_SEND_START,1516293727531,199
169,WS_SEND_END,1516293727531,199
169,PLAYER_SLEEPBEFORE_START,1516293727531,200
169,PLAYER_SLEEPBEFORE_END,1516293731619,200
169,WS_SEND_START,1516293731619,200
169,WS_SEND_END,1516293731619,200
169,WS_RECV_START,1516293731619,201
169,WS_RECV_END,1516293733301,201
169,PLAYER_SLEEPBEFORE_START,1516293733301,202
169,PLAYER_SLEEPBEFORE_END,1516293733315,202
169,WS_SEND_START,1516293733315,202
169,WS_SEND_END,1516293733315,202
169,WS_RECV_START,1516293733315,203
169,WS_RECV_END,1516293734838,203
169,PLAYER_SLEEPBEFORE_START,1516293734838,204
169,PLAYER_SLEEPBEFORE_END,1516293754487,204
169,WS_SEND_START,1516293754487,204
169,WS_SEND_END,1516293754487,204
169,PLAYER_SLEEPBEFORE_START,1516293754487,205
169,PLAYER_SLEEPBEFORE_END,1516293758385,205
169,WS_SEND_START,1516293758385,205
169,WS_SEND_END,1516293758385,205
169,WS_RECV_START,1516293758385,206
169,WS_RECV_END,1516293758923,206
169,PLAYER_SLEEPBEFORE_START,1516293758923,207
169,PLAYER_SLEEPBEFORE_END,1516293775854,207
169,REQ_START,1516293775854,207
169,REQ_END,1516293775862,207
169,PLAYER_SLEEPBEFORE_START,1516293775862,208
169,PLAYER_SLEEPBEFORE_END,1516293782714,208
169,WS_CLOSE_START,1516293782714,208
169,WS_CLOSE_END,1516293782714,208
169,PLAYER_DONE,1516293782714
