# --sessions 630 --app-url=http://shinyloadtest.rstudioservices.com/cran_explorer --output-dir test630 --overwrite-output --log-level warn --start-interval 800 15min.log
thread_id,event,timestamp,input_line_number,comment
435,PLAYER_SESSION_CREATE,1516292633593
435,PLAYER_START_INTERVAL_START,1516292633593
435,PLAYER_START_INTERVAL_END,1516292981593
435,REQ_HOME_START,1516292981593,2
435,REQ_HOME_END,1516292981686,2
435,REQ_START,1516292981686,3
435,REQ_END,1516292981944,3
435,REQ_START,1516292981944,4
435,REQ_END,1516292982143,4
435,REQ_START,1516292982143,5
435,REQ_END,1516292982179,5
435,REQ_START,1516292982179,6
435,REQ_END,1516292982212,6
435,REQ_START,1516292982212,7
435,REQ_END,1516292982245,7
435,REQ_START,1516292982245,8
435,REQ_END,1516292982282,8
435,REQ_START,1516292982282,9
435,REQ_END,1516292982326,9
435,REQ_START,1516292982326,10
435,REQ_END,1516292982334,10
435,REQ_START,1516292982334,11
435,REQ_END,1516292982367,11
435,REQ_START,1516292982367,12
435,REQ_END,1516292982377,12
435,REQ_START,1516292982377,13
435,REQ_END,1516292982410,13
435,REQ_START,1516292982410,14
435,REQ_END,1516292982426,14
435,REQ_START,1516292982426,15
435,REQ_END,1516292982467,15
435,REQ_TOK_START,1516292982467,16
435,REQ_TOK_END,1516292982475,16
435,REQ_SINF_START,1516292982475,17
435,REQ_SINF_END,1516292982483,17
435,WS_OPEN_START,1516292982483,18
435,WS_OPEN_END,1516292982490,18
435,REQ_START,1516292982490,19
435,REQ_END,1516292982520,19
435,WS_RECV_START,1516292982520,20
435,WS_RECV_END,1516292982520,20
435,PLAYER_SLEEPBEFORE_START,1516292982520,21
435,PLAYER_SLEEPBEFORE_END,1516292982525,21
435,WS_SEND_START,1516292982525,21
435,WS_SEND_END,1516292982525,21
435,PLAYER_SLEEPBEFORE_START,1516292982525,22
435,PLAYER_SLEEPBEFORE_END,1516292982526,22
435,WS_SEND_START,1516292982526,22
435,WS_SEND_END,1516292982526,22
435,WS_RECV_INIT_START,1516292982526,23
435,WS_RECV_INIT_END,1516292982547,23
435,WS_RECV_START,1516292982547,24
435,WS_RECV_END,1516292982628,24
435,PLAYER_SLEEPBEFORE_START,1516292982628,25
435,PLAYER_SLEEPBEFORE_END,1516292982636,25
435,REQ_START,1516292982636,25
435,REQ_END,1516292982670,25
435,PLAYER_SLEEPBEFORE_START,1516292982671,26
435,PLAYER_SLEEPBEFORE_END,1516292982672,26
435,REQ_START,1516292982672,26
435,REQ_END,1516292982715,26
435,PLAYER_SLEEPBEFORE_START,1516292982715,27
435,PLAYER_SLEEPBEFORE_END,1516292982718,27
435,REQ_START,1516292982718,27
435,REQ_END,1516292982755,27
435,PLAYER_SLEEPBEFORE_START,1516292982755,28
435,PLAYER_SLEEPBEFORE_END,1516292983041,28
435,REQ_START,1516292983041,28
435,REQ_END,1516292983080,28
435,PLAYER_SLEEPBEFORE_START,1516292983080,29
435,PLAYER_SLEEPBEFORE_END,1516292983255,29
435,WS_SEND_START,1516292983255,29
435,WS_SEND_END,1516292983255,29
435,WS_RECV_START,1516292983255,30
435,WS_RECV_END,1516292983389,30
435,PLAYER_SLEEPBEFORE_START,1516292983389,31
435,PLAYER_SLEEPBEFORE_END,1516292983400,31
435,REQ_START,1516292983400,31
435,REQ_END,1516292983982,31
435,PLAYER_SLEEPBEFORE_START,1516292983982,32
435,PLAYER_SLEEPBEFORE_END,1516293012127,32
435,WS_SEND_START,1516293012127,32
435,WS_SEND_END,1516293012127,32
435,WS_RECV_START,1516293012127,33
435,WS_RECV_END,1516293012379,33
435,PLAYER_SLEEPBEFORE_START,1516293012379,34
435,PLAYER_SLEEPBEFORE_END,1516293038290,34
435,WS_SEND_START,1516293038290,34
435,WS_SEND_END,1516293038290,34
435,WS_RECV_START,1516293038290,35
435,WS_RECV_END,1516293038554,35
435,PLAYER_SLEEPBEFORE_START,1516293038554,36
435,PLAYER_SLEEPBEFORE_END,1516293038563,36
435,WS_SEND_START,1516293038563,36
435,WS_SEND_END,1516293038563,36
435,WS_RECV_START,1516293038563,37
435,WS_RECV_END,1516293038704,37
435,PLAYER_SLEEPBEFORE_START,1516293038704,38
435,PLAYER_SLEEPBEFORE_END,1516293041899,38
435,WS_SEND_START,1516293041899,38
435,WS_SEND_END,1516293041899,38
435,WS_RECV_START,1516293041899,39
435,WS_RECV_END,1516293042173,39
435,PLAYER_SLEEPBEFORE_START,1516293042174,40
435,PLAYER_SLEEPBEFORE_END,1516293042220,40
435,WS_SEND_START,1516293042220,40
435,WS_SEND_END,1516293042220,40
435,WS_RECV_START,1516293042220,41
435,WS_RECV_END,1516293042430,41
435,PLAYER_SLEEPBEFORE_START,1516293042430,42
435,PLAYER_SLEEPBEFORE_END,1516293060566,42
435,WS_SEND_START,1516293060566,42
435,WS_SEND_END,1516293060566,42
435,WS_RECV_START,1516293060566,43
435,WS_RECV_END,1516293060627,43
435,PLAYER_SLEEPBEFORE_START,1516293060627,44
435,PLAYER_SLEEPBEFORE_END,1516293060639,44
435,WS_SEND_START,1516293060639,44
435,WS_SEND_END,1516293060639,44
435,WS_RECV_START,1516293060639,45
435,WS_RECV_END,1516293060848,45
435,PLAYER_SLEEPBEFORE_START,1516293060848,46
435,PLAYER_SLEEPBEFORE_END,1516293062108,46
435,WS_SEND_START,1516293062108,46
435,WS_SEND_END,1516293062108,46
435,WS_RECV_START,1516293062108,47
435,WS_RECV_END,1516293062428,47
435,PLAYER_SLEEPBEFORE_START,1516293062428,48
435,PLAYER_SLEEPBEFORE_END,1516293063748,48
435,WS_SEND_START,1516293063748,48
435,WS_SEND_END,1516293063748,48
435,WS_RECV_START,1516293063748,49
435,WS_RECV_END,1516293064351,49
435,PLAYER_SLEEPBEFORE_START,1516293064351,50
435,PLAYER_SLEEPBEFORE_END,1516293064375,50
435,WS_SEND_START,1516293064375,50
435,WS_SEND_END,1516293064375,50
435,WS_RECV_START,1516293064375,51
435,WS_RECV_END,1516293064697,51
435,PLAYER_SLEEPBEFORE_START,1516293064697,52
435,PLAYER_SLEEPBEFORE_END,1516293087261,52
435,WS_SEND_START,1516293087261,52
435,WS_SEND_END,1516293087261,52
435,WS_RECV_START,1516293087261,53
435,WS_RECV_END,1516293087824,53
435,PLAYER_SLEEPBEFORE_START,1516293087824,54
435,PLAYER_SLEEPBEFORE_END,1516293109128,54
435,WS_SEND_START,1516293109128,54
435,WS_SEND_END,1516293109128,54
435,PLAYER_SLEEPBEFORE_START,1516293109128,55
435,PLAYER_SLEEPBEFORE_END,1516293111069,55
435,WS_SEND_START,1516293111069,55
435,WS_SEND_END,1516293111069,55
435,WS_RECV_START,1516293111069,56
435,WS_RECV_END,1516293111597,56
435,PLAYER_SLEEPBEFORE_START,1516293111597,57
435,PLAYER_SLEEPBEFORE_END,1516293134469,57
435,WS_SEND_START,1516293134469,57
435,WS_SEND_END,1516293134469,57
435,WS_RECV_START,1516293134469,58
435,WS_RECV_END,1516293135461,58
435,PLAYER_SLEEPBEFORE_START,1516293135461,59
435,PLAYER_SLEEPBEFORE_END,1516293137788,59
435,WS_SEND_START,1516293137788,59
435,WS_SEND_END,1516293137788,59
435,WS_RECV_START,1516293137788,60
435,WS_RECV_END,1516293139051,60
435,PLAYER_SLEEPBEFORE_START,1516293139051,61
435,PLAYER_SLEEPBEFORE_END,1516293142643,61
435,WS_SEND_START,1516293142643,61
435,WS_SEND_END,1516293142643,61
435,WS_RECV_START,1516293142643,62
435,WS_RECV_END,1516293145113,62
435,PLAYER_SLEEPBEFORE_START,1516293145113,63
435,PLAYER_SLEEPBEFORE_END,1516293164375,63
435,WS_SEND_START,1516293164375,63
435,WS_SEND_END,1516293164375,63
435,WS_RECV_START,1516293164375,64
435,WS_RECV_END,1516293166918,64
435,PLAYER_SLEEPBEFORE_START,1516293166918,65
435,PLAYER_SLEEPBEFORE_END,1516293193735,65
435,WS_SEND_START,1516293193735,65
435,WS_SEND_END,1516293193735,65
435,WS_RECV_START,1516293193735,66
435,WS_RECV_END,1516293195688,66
435,PLAYER_SLEEPBEFORE_START,1516293195688,67
435,PLAYER_SLEEPBEFORE_END,1516293197195,67
435,WS_SEND_START,1516293197195,67
435,WS_SEND_END,1516293197195,67
435,WS_RECV_START,1516293197195,68
435,WS_RECV_END,1516293199743,68
435,PLAYER_SLEEPBEFORE_START,1516293199743,69
435,PLAYER_SLEEPBEFORE_END,1516293221741,69
435,WS_SEND_START,1516293221741,69
435,WS_SEND_END,1516293221741,69
435,WS_RECV_START,1516293221741,70
435,WS_RECV_END,1516293224212,70
435,PLAYER_SLEEPBEFORE_START,1516293224212,71
435,PLAYER_SLEEPBEFORE_END,1516293248988,71
435,WS_SEND_START,1516293248988,71
435,WS_SEND_END,1516293248988,71
435,PLAYER_SLEEPBEFORE_START,1516293248988,72
435,PLAYER_SLEEPBEFORE_END,1516293251595,72
435,WS_SEND_START,1516293251595,72
435,WS_SEND_END,1516293251595,72
435,WS_RECV_START,1516293251595,73
435,WS_RECV_END,1516293252751,73
435,PLAYER_SLEEPBEFORE_START,1516293252751,74
435,PLAYER_SLEEPBEFORE_END,1516293252760,74
435,WS_SEND_START,1516293252760,74
435,WS_SEND_END,1516293252760,74
435,WS_RECV_START,1516293252760,75
435,WS_RECV_END,1516293253765,75
435,PLAYER_SLEEPBEFORE_START,1516293253765,76
435,PLAYER_SLEEPBEFORE_END,1516293255271,76
435,WS_SEND_START,1516293255271,76
435,WS_SEND_END,1516293255271,76
435,WS_RECV_START,1516293255271,77
435,WS_RECV_END,1516293256267,77
435,PLAYER_SLEEPBEFORE_START,1516293256267,78
435,PLAYER_SLEEPBEFORE_END,1516293257135,78
435,WS_SEND_START,1516293257135,78
435,WS_SEND_END,1516293257135,78
435,WS_RECV_START,1516293257135,79
435,WS_RECV_END,1516293258829,79
435,PLAYER_SLEEPBEFORE_START,1516293258829,80
435,PLAYER_SLEEPBEFORE_END,1516293266495,80
435,WS_SEND_START,1516293266495,80
435,WS_SEND_END,1516293266495,80
435,WS_RECV_START,1516293266495,81
435,WS_RECV_END,1516293270030,81
435,PLAYER_SLEEPBEFORE_START,1516293270030,82
435,PLAYER_SLEEPBEFORE_END,1516293271132,82
435,WS_SEND_START,1516293271132,82
435,WS_SEND_END,1516293271132,82
435,WS_RECV_START,1516293271132,83
435,WS_RECV_END,1516293275932,83
435,PLAYER_SLEEPBEFORE_START,1516293275932,84
435,PLAYER_SLEEPBEFORE_END,1516293276879,84
435,WS_SEND_START,1516293276879,84
435,WS_SEND_END,1516293276879,84
435,WS_RECV_START,1516293276879,85
435,WS_RECV_END,1516293281392,85
435,PLAYER_SLEEPBEFORE_START,1516293281392,86
435,PLAYER_SLEEPBEFORE_END,1516293285564,86
435,WS_SEND_START,1516293285564,86
435,WS_SEND_END,1516293285564,86
435,WS_RECV_START,1516293285564,87
435,WS_RECV_END,1516293288514,87
435,PLAYER_SLEEPBEFORE_START,1516293288514,88
435,PLAYER_SLEEPBEFORE_END,1516293288522,88
435,WS_SEND_START,1516293288522,88
435,WS_SEND_END,1516293288522,88
435,WS_RECV_START,1516293288522,89
435,WS_RECV_END,1516293289853,89
435,PLAYER_SLEEPBEFORE_START,1516293289853,90
435,PLAYER_SLEEPBEFORE_END,1516293317051,90
435,REQ_START,1516293317051,90
435,REQ_END,1516293317058,90
435,PLAYER_SLEEPBEFORE_START,1516293317058,91
435,PLAYER_SLEEPBEFORE_END,1516293324948,91
435,WS_SEND_START,1516293324948,91
435,WS_SEND_END,1516293324948,91
435,WS_RECV_START,1516293324948,92
435,WS_RECV_END,1516293328378,92
435,PLAYER_SLEEPBEFORE_START,1516293328378,93
435,PLAYER_SLEEPBEFORE_END,1516293328393,93
435,WS_SEND_START,1516293328393,93
435,WS_SEND_END,1516293328393,93
435,WS_RECV_START,1516293328393,94
435,WS_RECV_END,1516293330424,94
435,PLAYER_SLEEPBEFORE_START,1516293330424,95
435,PLAYER_SLEEPBEFORE_END,1516293353979,95
435,WS_SEND_START,1516293353979,95
435,WS_SEND_END,1516293353979,95
435,WS_RECV_START,1516293353979,96
435,WS_RECV_END,1516293358213,96
435,PLAYER_SLEEPBEFORE_START,1516293358213,97
435,PLAYER_SLEEPBEFORE_END,1516293380654,97
435,WS_SEND_START,1516293380654,97
435,WS_SEND_END,1516293380654,97
435,WS_RECV_START,1516293380654,98
435,WS_RECV_END,1516293385242,98
435,PLAYER_SLEEPBEFORE_START,1516293385242,99
435,PLAYER_SLEEPBEFORE_END,1516293385263,99
435,WS_SEND_START,1516293385263,99
435,WS_SEND_END,1516293385263,99
435,WS_RECV_START,1516293385263,100
435,WS_RECV_END,1516293390445,100
435,PLAYER_SLEEPBEFORE_START,1516293390445,101
435,PLAYER_SLEEPBEFORE_END,1516293414004,101
435,WS_SEND_START,1516293414004,101
435,WS_SEND_END,1516293414004,101
435,WS_RECV_START,1516293414004,102
435,WS_RECV_END,1516293416875,102
435,PLAYER_SLEEPBEFORE_START,1516293416875,103
435,PLAYER_SLEEPBEFORE_END,1516293440500,103
435,WS_SEND_START,1516293440500,103
435,WS_SEND_END,1516293440500,103
435,WS_RECV_START,1516293440500,104
435,WS_RECV_END,1516293444071,104
435,PLAYER_SLEEPBEFORE_START,1516293444071,105
435,PLAYER_SLEEPBEFORE_END,1516293469448,105
435,WS_SEND_START,1516293469448,105
435,WS_SEND_END,1516293469448,105
435,WS_RECV_START,1516293469448,106
435,WS_RECV_END,1516293474170,106
435,PLAYER_SLEEPBEFORE_START,1516293474170,107
435,PLAYER_SLEEPBEFORE_END,1516293497593,107
435,WS_SEND_START,1516293497593,107
435,WS_SEND_END,1516293497593,107
435,WS_RECV_START,1516293497593,108
435,WS_RECV_END,1516293501488,108
435,PLAYER_SLEEPBEFORE_START,1516293501488,109
435,PLAYER_SLEEPBEFORE_END,1516293501497,109
435,WS_SEND_START,1516293501497,109
435,WS_SEND_END,1516293501497,109
435,WS_RECV_START,1516293501497,110
435,WS_RECV_END,1516293503590,110
435,PLAYER_SLEEPBEFORE_START,1516293503590,111
435,PLAYER_SLEEPBEFORE_END,1516293504549,111
435,WS_SEND_START,1516293504549,111
435,WS_SEND_END,1516293504549,111
435,WS_RECV_START,1516293504549,112
435,WS_RECV_END,1516293507927,112
435,PLAYER_SLEEPBEFORE_START,1516293507927,113
435,PLAYER_SLEEPBEFORE_END,1516293508489,113
435,WS_SEND_START,1516293508489,113
435,WS_SEND_END,1516293508489,113
435,WS_RECV_START,1516293508489,114
435,WS_RECV_END,1516293511573,114
435,PLAYER_SLEEPBEFORE_START,1516293511573,115
435,PLAYER_SLEEPBEFORE_END,1516293511582,115
435,WS_SEND_START,1516293511582,115
435,WS_SEND_END,1516293511582,115
435,WS_RECV_START,1516293511582,116
435,WS_RECV_END,1516293515702,116
435,PLAYER_SLEEPBEFORE_START,1516293515702,117
435,PLAYER_SLEEPBEFORE_END,1516293536062,117
435,WS_SEND_START,1516293536062,117
435,WS_SEND_END,1516293536062,117
435,PLAYER_SLEEPBEFORE_START,1516293536062,118
435,PLAYER_SLEEPBEFORE_END,1516293539814,118
435,WS_SEND_START,1516293539814,118
435,WS_SEND_END,1516293539814,118
435,WS_RECV_START,1516293539814,119
435,WS_RECV_END,1516293541080,119
435,PLAYER_SLEEPBEFORE_START,1516293541080,120
435,PLAYER_SLEEPBEFORE_END,1516293542069,120
435,WS_SEND_START,1516293542069,120
435,WS_SEND_END,1516293542069,120
435,WS_RECV_START,1516293542069,121
435,WS_RECV_END,1516293545459,121
435,PLAYER_SLEEPBEFORE_START,1516293545459,122
435,PLAYER_SLEEPBEFORE_END,1516293546644,122
435,WS_SEND_START,1516293546644,122
435,WS_SEND_END,1516293546644,122
435,WS_RECV_START,1516293546644,123
435,WS_RECV_END,1516293550035,123
435,PLAYER_SLEEPBEFORE_START,1516293550035,124
435,PLAYER_SLEEPBEFORE_END,1516293574440,124
435,WS_SEND_START,1516293574440,124
435,WS_SEND_END,1516293574440,124
435,WS_RECV_START,1516293574440,125
435,WS_RECV_END,1516293581426,125
435,PLAYER_SLEEPBEFORE_START,1516293581426,126
435,PLAYER_SLEEPBEFORE_END,1516293601938,126
435,WS_SEND_START,1516293601938,126
435,WS_SEND_END,1516293601938,126
435,PLAYER_SLEEPBEFORE_START,1516293601938,127
435,PLAYER_SLEEPBEFORE_END,1516293604992,127
435,WS_SEND_START,1516293604992,127
435,WS_SEND_END,1516293604992,127
435,WS_RECV_START,1516293604992,128
435,WS_RECV_END,1516293608480,128
435,PLAYER_SLEEPBEFORE_START,1516293608480,129
435,PLAYER_SLEEPBEFORE_END,1516293608500,129
435,WS_SEND_START,1516293608500,129
435,WS_SEND_END,1516293608501,129
435,WS_RECV_START,1516293608501,130
435,WS_RECV_END,1516293612376,130
435,PLAYER_SLEEPBEFORE_START,1516293612376,131
435,PLAYER_SLEEPBEFORE_END,1516293634000,131
435,WS_SEND_START,1516293634000,131
435,WS_SEND_END,1516293634001,131
435,PLAYER_SLEEPBEFORE_START,1516293634001,132
435,PLAYER_SLEEPBEFORE_END,1516293637081,132
435,WS_SEND_START,1516293637081,132
435,WS_SEND_END,1516293637081,132
435,WS_RECV_START,1516293637081,133
435,WS_RECV_END,1516293640389,133
435,PLAYER_SLEEPBEFORE_START,1516293640389,134
435,PLAYER_SLEEPBEFORE_END,1516293661606,134
435,WS_SEND_START,1516293661606,134
435,WS_SEND_END,1516293661606,134
435,PLAYER_SLEEPBEFORE_START,1516293661606,135
435,PLAYER_SLEEPBEFORE_END,1516293664796,135
435,WS_SEND_START,1516293664796,135
435,WS_SEND_END,1516293664796,135
435,WS_RECV_START,1516293664796,136
435,WS_RECV_END,1516293668936,136
435,PLAYER_SLEEPBEFORE_START,1516293668936,137
435,PLAYER_SLEEPBEFORE_END,1516293668943,137
435,WS_SEND_START,1516293668943,137
435,WS_SEND_END,1516293668943,137
435,WS_RECV_START,1516293668943,138
435,WS_RECV_END,1516293673734,138
435,PLAYER_SLEEPBEFORE_START,1516293673734,139
435,PLAYER_SLEEPBEFORE_END,1516293674431,139
435,WS_SEND_START,1516293674431,139
435,WS_SEND_END,1516293674431,139
435,WS_RECV_START,1516293674431,140
435,WS_RECV_END,1516293678285,140
435,PLAYER_SLEEPBEFORE_START,1516293678285,141
435,PLAYER_SLEEPBEFORE_END,1516293678940,141
435,WS_SEND_START,1516293678940,141
435,WS_SEND_END,1516293678940,141
435,WS_RECV_START,1516293678940,142
435,WS_RECV_END,1516293684340,142
435,PLAYER_SLEEPBEFORE_START,1516293684340,143
435,PLAYER_SLEEPBEFORE_END,1516293684398,143
435,WS_SEND_START,1516293684398,143
435,WS_SEND_END,1516293684398,143
435,WS_RECV_START,1516293684398,144
435,WS_RECV_END,1516293688081,144
435,PLAYER_SLEEPBEFORE_START,1516293688081,145
435,PLAYER_SLEEPBEFORE_END,1516293704143,145
435,REQ_START,1516293704143,145
435,REQ_END,1516293704150,145
435,PLAYER_SLEEPBEFORE_START,1516293704150,146
435,PLAYER_SLEEPBEFORE_END,1516293713028,146
435,WS_SEND_START,1516293713028,146
435,WS_SEND_END,1516293713028,146
435,WS_RECV_START,1516293713028,147
435,WS_RECV_END,1516293717605,147
435,PLAYER_SLEEPBEFORE_START,1516293717605,148
435,PLAYER_SLEEPBEFORE_END,1516293739527,148
435,WS_SEND_START,1516293739527,148
435,WS_SEND_END,1516293739527,148
435,PLAYER_SLEEPBEFORE_START,1516293739527,149
435,PLAYER_SLEEPBEFORE_END,1516293741955,149
435,WS_SEND_START,1516293741955,149
435,WS_SEND_END,1516293741955,149
435,WS_RECV_START,1516293741955,150
435,WS_RECV_END,1516293742640,150
435,PLAYER_SLEEPBEFORE_START,1516293742640,151
435,PLAYER_SLEEPBEFORE_END,1516293742850,151
435,WS_SEND_START,1516293742850,151
435,WS_SEND_END,1516293742850,151
435,WS_RECV_START,1516293742850,152
435,WS_RECV_END,1516293744770,152
435,PLAYER_SLEEPBEFORE_START,1516293744770,153
435,PLAYER_SLEEPBEFORE_END,1516293768697,153
435,WS_SEND_START,1516293768697,153
435,WS_SEND_END,1516293768697,153
435,WS_RECV_START,1516293768697,154
435,WS_RECV_END,1516293771043,154
435,PLAYER_SLEEPBEFORE_START,1516293771043,155
435,PLAYER_SLEEPBEFORE_END,1516293793601,155
435,WS_SEND_START,1516293793601,155
435,WS_SEND_END,1516293793601,155
435,PLAYER_SLEEPBEFORE_START,1516293793601,156
435,PLAYER_SLEEPBEFORE_END,1516293796875,156
435,WS_SEND_START,1516293796875,156
435,WS_SEND_END,1516293796875,156
435,WS_RECV_START,1516293796875,157
435,WS_RECV_END,1516293798465,157
435,PLAYER_SLEEPBEFORE_START,1516293798465,158
435,PLAYER_SLEEPBEFORE_END,1516293798475,158
435,WS_SEND_START,1516293798475,158
435,WS_SEND_END,1516293798475,158
435,WS_RECV_START,1516293798475,159
435,WS_RECV_END,1516293799166,159
435,PLAYER_SLEEPBEFORE_START,1516293799167,160
435,PLAYER_SLEEPBEFORE_END,1516293799342,160
435,WS_SEND_START,1516293799342,160
435,WS_SEND_END,1516293799342,160
435,WS_RECV_START,1516293799342,161
435,WS_RECV_END,1516293800106,161
435,PLAYER_SLEEPBEFORE_START,1516293800106,162
435,PLAYER_SLEEPBEFORE_END,1516293800131,162
435,WS_SEND_START,1516293800131,162
435,WS_SEND_END,1516293800131,162
435,WS_RECV_START,1516293800131,163
435,WS_RECV_END,1516293801718,163
435,PLAYER_SLEEPBEFORE_START,1516293801718,164
435,PLAYER_SLEEPBEFORE_END,1516293822530,164
435,WS_SEND_START,1516293822531,164
435,WS_SEND_END,1516293822531,164
435,WS_RECV_START,1516293822531,165
435,WS_RECV_END,1516293823067,165
435,PLAYER_SLEEPBEFORE_START,1516293823067,166
435,PLAYER_SLEEPBEFORE_END,1516293845522,166
435,WS_SEND_START,1516293845522,166
435,WS_SEND_END,1516293845522,166
435,WS_RECV_START,1516293845522,167
435,WS_RECV_END,1516293845772,167
435,PLAYER_SLEEPBEFORE_START,1516293845772,168
435,PLAYER_SLEEPBEFORE_END,1516293873129,168
435,WS_SEND_START,1516293873129,168
435,WS_SEND_END,1516293873129,168
435,WS_RECV_START,1516293873129,169
435,WS_RECV_END,1516293873191,169
435,PLAYER_SLEEPBEFORE_START,1516293873191,170
435,PLAYER_SLEEPBEFORE_END,1516293873200,170
435,WS_SEND_START,1516293873200,170
435,WS_SEND_END,1516293873200,170
435,WS_RECV_START,1516293873200,171
435,WS_RECV_END,1516293873243,171
435,PLAYER_SLEEPBEFORE_START,1516293873243,172
435,PLAYER_SLEEPBEFORE_END,1516293873612,172
435,WS_SEND_START,1516293873612,172
435,WS_SEND_END,1516293873612,172
435,WS_RECV_START,1516293873612,173
435,WS_RECV_END,1516293873937,173
435,PLAYER_SLEEPBEFORE_START,1516293873937,174
435,PLAYER_SLEEPBEFORE_END,1516293873978,174
435,WS_SEND_START,1516293873978,174
435,WS_SEND_END,1516293873978,174
435,WS_RECV_START,1516293873978,175
435,WS_RECV_END,1516293874176,175
435,PLAYER_SLEEPBEFORE_START,1516293874176,176
435,PLAYER_SLEEPBEFORE_END,1516293895937,176
435,WS_SEND_START,1516293895937,176
435,WS_SEND_END,1516293895937,176
435,PLAYER_SLEEPBEFORE_START,1516293895937,177
435,PLAYER_SLEEPBEFORE_END,1516293898455,177
435,WS_SEND_START,1516293898455,177
435,WS_SEND_END,1516293898455,177
435,WS_RECV_START,1516293898455,178
435,WS_RECV_END,1516293898986,178
435,PLAYER_SLEEPBEFORE_START,1516293898986,179
435,PLAYER_SLEEPBEFORE_END,1516293921326,179
435,WS_SEND_START,1516293921326,179
435,WS_SEND_END,1516293921326,179
435,WS_RECV_START,1516293921326,180
435,WS_RECV_END,1516293921612,180
435,PLAYER_SLEEPBEFORE_START,1516293921612,181
435,PLAYER_SLEEPBEFORE_END,1516293922056,181
435,WS_SEND_START,1516293922056,181
435,WS_SEND_END,1516293922056,181
435,WS_RECV_START,1516293922056,182
435,WS_RECV_END,1516293922202,182
435,PLAYER_SLEEPBEFORE_START,1516293922202,183
435,PLAYER_SLEEPBEFORE_END,1516293922725,183
435,WS_SEND_START,1516293922725,183
435,WS_SEND_END,1516293922725,183
435,WS_RECV_START,1516293922725,184
435,WS_RECV_END,1516293922851,184
435,PLAYER_SLEEPBEFORE_START,1516293922851,185
435,PLAYER_SLEEPBEFORE_END,1516293923121,185
435,WS_SEND_START,1516293923121,185
435,WS_SEND_END,1516293923121,185
435,WS_RECV_START,1516293923121,186
435,WS_RECV_END,1516293923315,186
435,PLAYER_SLEEPBEFORE_START,1516293923315,187
435,PLAYER_SLEEPBEFORE_END,1516293945815,187
435,WS_SEND_START,1516293945815,187
435,WS_SEND_END,1516293945815,187
435,WS_RECV_START,1516293945815,188
435,WS_RECV_END,1516293945859,188
435,PLAYER_SLEEPBEFORE_START,1516293945859,189
435,PLAYER_SLEEPBEFORE_END,1516293952099,189
435,WS_SEND_START,1516293952099,189
435,WS_SEND_END,1516293952099,189
435,WS_RECV_START,1516293952099,190
435,WS_RECV_END,1516293952211,190
435,PLAYER_SLEEPBEFORE_START,1516293952211,191
435,PLAYER_SLEEPBEFORE_END,1516293954126,191
435,WS_SEND_START,1516293954126,191
435,WS_SEND_END,1516293954126,191
435,WS_RECV_START,1516293954126,192
435,WS_RECV_END,1516293954399,192
435,PLAYER_SLEEPBEFORE_START,1516293954399,193
435,PLAYER_SLEEPBEFORE_END,1516293954527,193
435,WS_SEND_START,1516293954527,193
435,WS_SEND_END,1516293954527,193
435,WS_RECV_START,1516293954527,194
435,WS_RECV_END,1516293954884,194
435,PLAYER_SLEEPBEFORE_START,1516293954884,195
435,PLAYER_SLEEPBEFORE_END,1516293956639,195
435,WS_SEND_START,1516293956639,195
435,WS_SEND_END,1516293956639,195
435,WS_RECV_START,1516293956639,196
435,WS_RECV_END,1516293956933,196
435,PLAYER_SLEEPBEFORE_START,1516293956933,197
435,PLAYER_SLEEPBEFORE_END,1516293958737,197
435,WS_SEND_START,1516293958737,197
435,WS_SEND_END,1516293958737,197
435,WS_RECV_START,1516293958737,198
435,WS_RECV_END,1516293958886,198
435,PLAYER_SLEEPBEFORE_START,1516293958886,199
435,PLAYER_SLEEPBEFORE_END,1516293970740,199
435,WS_SEND_START,1516293970740,199
435,WS_SEND_END,1516293970740,199
435,PLAYER_SLEEPBEFORE_START,1516293970740,200
435,PLAYER_SLEEPBEFORE_END,1516293974829,200
435,WS_SEND_START,1516293974829,200
435,WS_SEND_END,1516293974829,200
435,WS_RECV_START,1516293974829,201
435,WS_RECV_END,1516293974937,201
435,PLAYER_SLEEPBEFORE_START,1516293974937,202
435,PLAYER_SLEEPBEFORE_END,1516293974951,202
435,WS_SEND_START,1516293974951,202
435,WS_SEND_END,1516293974952,202
435,WS_RECV_START,1516293974952,203
435,WS_RECV_END,1516293975230,203
435,PLAYER_SLEEPBEFORE_START,1516293975230,204
435,PLAYER_SLEEPBEFORE_END,1516293994879,204
435,WS_SEND_START,1516293994879,204
435,WS_SEND_END,1516293994879,204
435,PLAYER_SLEEPBEFORE_START,1516293994879,205
435,PLAYER_SLEEPBEFORE_END,1516293998777,205
435,WS_SEND_START,1516293998777,205
435,WS_SEND_END,1516293998777,205
435,WS_RECV_START,1516293998777,206
435,WS_RECV_END,1516293998996,206
435,PLAYER_SLEEPBEFORE_START,1516293998996,207
435,PLAYER_SLEEPBEFORE_END,1516294015927,207
435,REQ_START,1516294015927,207
435,REQ_END,1516294015934,207
435,PLAYER_SLEEPBEFORE_START,1516294015934,208
435,PLAYER_SLEEPBEFORE_END,1516294022786,208
435,WS_CLOSE_START,1516294022786,208
435,WS_CLOSE_END,1516294022786,208
435,PLAYER_DONE,1516294022786
