# --sessions 630 --app-url=http://shinyloadtest.rstudioservices.com/cran_explorer --output-dir test630 --overwrite-output --log-level warn --start-interval 800 15min.log
thread_id,event,timestamp,input_line_number,comment
469,PLAYER_SESSION_CREATE,1516292633605
469,PLAYER_START_INTERVAL_START,1516292633605
469,PLAYER_START_INTERVAL_END,1516293008806
469,REQ_HOME_START,1516293008806,2
469,REQ_HOME_END,1516293009593,2
469,REQ_START,1516293009593,3
469,REQ_END,1516293010144,3
469,REQ_START,1516293010144,4
469,REQ_END,1516293010192,4
469,REQ_START,1516293010192,5
469,REQ_END,1516293010320,5
469,REQ_START,1516293010320,6
469,REQ_END,1516293010927,6
469,REQ_START,1516293010927,7
469,REQ_END,1516293011241,7
469,REQ_START,1516293011241,8
469,REQ_END,1516293011289,8
469,REQ_START,1516293011289,9
469,REQ_END,1516293011326,9
469,REQ_START,1516293011326,10
469,REQ_END,1516293011333,10
469,REQ_START,1516293011333,11
469,REQ_END,1516293011666,11
469,REQ_START,1516293011666,12
469,REQ_END,1516293011677,12
469,REQ_START,1516293011677,13
469,REQ_END,1516293011886,13
469,REQ_START,1516293011886,14
469,REQ_END,1516293011903,14
469,REQ_START,1516293011903,15
469,REQ_END,1516293011938,15
469,REQ_TOK_START,1516293011938,16
469,REQ_TOK_END,1516293011945,16
469,REQ_SINF_START,1516293011945,17
469,REQ_SINF_END,1516293011952,17
469,WS_OPEN_START,1516293011952,18
469,WS_OPEN_END,1516293011959,18
469,REQ_START,1516293011959,19
469,REQ_END,1516293011998,19
469,WS_RECV_START,1516293011998,20
469,WS_RECV_END,1516293011998,20
469,PLAYER_SLEEPBEFORE_START,1516293011998,21
469,PLAYER_SLEEPBEFORE_END,1516293012003,21
469,WS_SEND_START,1516293012003,21
469,WS_SEND_END,1516293012003,21
469,PLAYER_SLEEPBEFORE_START,1516293012003,22
469,PLAYER_SLEEPBEFORE_END,1516293012005,22
469,WS_SEND_START,1516293012005,22
469,WS_SEND_END,1516293012005,22
469,WS_RECV_INIT_START,1516293012005,23
469,WS_RECV_INIT_END,1516293012108,23
469,WS_RECV_START,1516293012108,24
469,WS_RECV_END,1516293012228,24
469,PLAYER_SLEEPBEFORE_START,1516293012228,25
469,PLAYER_SLEEPBEFORE_END,1516293012236,25
469,REQ_START,1516293012236,25
469,REQ_END,1516293012320,25
469,PLAYER_SLEEPBEFORE_START,1516293012320,26
469,PLAYER_SLEEPBEFORE_END,1516293012322,26
469,REQ_START,1516293012322,26
469,REQ_END,1516293012365,26
469,PLAYER_SLEEPBEFORE_START,1516293012365,27
469,PLAYER_SLEEPBEFORE_END,1516293012368,27
469,REQ_START,1516293012368,27
469,REQ_END,1516293012447,27
469,PLAYER_SLEEPBEFORE_START,1516293012447,28
469,PLAYER_SLEEPBEFORE_END,1516293012732,28
469,REQ_START,1516293012733,28
469,REQ_END,1516293013105,28
469,PLAYER_SLEEPBEFORE_START,1516293013105,29
469,PLAYER_SLEEPBEFORE_END,1516293013280,29
469,WS_SEND_START,1516293013280,29
469,WS_SEND_END,1516293013280,29
469,WS_RECV_START,1516293013280,30
469,WS_RECV_END,1516293013516,30
469,PLAYER_SLEEPBEFORE_START,1516293013516,31
469,PLAYER_SLEEPBEFORE_END,1516293013527,31
469,REQ_START,1516293013527,31
469,REQ_END,1516293013820,31
469,PLAYER_SLEEPBEFORE_START,1516293013820,32
469,PLAYER_SLEEPBEFORE_END,1516293041965,32
469,WS_SEND_START,1516293041965,32
469,WS_SEND_END,1516293041965,32
469,WS_RECV_START,1516293041965,33
469,WS_RECV_END,1516293042133,33
469,PLAYER_SLEEPBEFORE_START,1516293042133,34
469,PLAYER_SLEEPBEFORE_END,1516293068044,34
469,WS_SEND_START,1516293068044,34
469,WS_SEND_END,1516293068044,34
469,WS_RECV_START,1516293068044,35
469,WS_RECV_END,1516293068386,35
469,PLAYER_SLEEPBEFORE_START,1516293068386,36
469,PLAYER_SLEEPBEFORE_END,1516293068395,36
469,WS_SEND_START,1516293068395,36
469,WS_SEND_END,1516293068395,36
469,WS_RECV_START,1516293068395,37
469,WS_RECV_END,1516293068680,37
469,PLAYER_SLEEPBEFORE_START,1516293068680,38
469,PLAYER_SLEEPBEFORE_END,1516293071875,38
469,WS_SEND_START,1516293071875,38
469,WS_SEND_END,1516293071875,38
469,WS_RECV_START,1516293071875,39
469,WS_RECV_END,1516293072191,39
469,PLAYER_SLEEPBEFORE_START,1516293072191,40
469,PLAYER_SLEEPBEFORE_END,1516293072237,40
469,WS_SEND_START,1516293072237,40
469,WS_SEND_END,1516293072237,40
469,WS_RECV_START,1516293072237,41
469,WS_RECV_END,1516293072518,41
469,PLAYER_SLEEPBEFORE_START,1516293072518,42
469,PLAYER_SLEEPBEFORE_END,1516293090653,42
469,WS_SEND_START,1516293090653,42
469,WS_SEND_END,1516293090653,42
469,WS_RECV_START,1516293090653,43
469,WS_RECV_END,1516293091023,43
469,PLAYER_SLEEPBEFORE_START,1516293091023,44
469,PLAYER_SLEEPBEFORE_END,1516293091035,44
469,WS_SEND_START,1516293091035,44
469,WS_SEND_END,1516293091035,44
469,WS_RECV_START,1516293091035,45
469,WS_RECV_END,1516293091304,45
469,PLAYER_SLEEPBEFORE_START,1516293091304,46
469,PLAYER_SLEEPBEFORE_END,1516293092564,46
469,WS_SEND_START,1516293092564,46
469,WS_SEND_END,1516293092564,46
469,WS_RECV_START,1516293092564,47
469,WS_RECV_END,1516293092892,47
469,PLAYER_SLEEPBEFORE_START,1516293092892,48
469,PLAYER_SLEEPBEFORE_END,1516293094212,48
469,WS_SEND_START,1516293094212,48
469,WS_SEND_END,1516293094212,48
469,WS_RECV_START,1516293094212,49
469,WS_RECV_END,1516293094596,49
469,PLAYER_SLEEPBEFORE_START,1516293094596,50
469,PLAYER_SLEEPBEFORE_END,1516293094620,50
469,WS_SEND_START,1516293094620,50
469,WS_SEND_END,1516293094620,50
469,WS_RECV_START,1516293094620,51
469,WS_RECV_END,1516293094864,51
469,PLAYER_SLEEPBEFORE_START,1516293094864,52
469,PLAYER_SLEEPBEFORE_END,1516293117428,52
469,WS_SEND_START,1516293117428,52
469,WS_SEND_END,1516293117428,52
469,WS_RECV_START,1516293117428,53
469,WS_RECV_END,1516293118240,53
469,PLAYER_SLEEPBEFORE_START,1516293118240,54
469,PLAYER_SLEEPBEFORE_END,1516293139543,54
469,WS_SEND_START,1516293139543,54
469,WS_SEND_END,1516293139543,54
469,PLAYER_SLEEPBEFORE_START,1516293139543,55
469,PLAYER_SLEEPBEFORE_END,1516293141484,55
469,WS_SEND_START,1516293141484,55
469,WS_SEND_END,1516293141484,55
469,WS_RECV_START,1516293141484,56
469,WS_RECV_END,1516293142650,56
469,PLAYER_SLEEPBEFORE_START,1516293142650,57
469,PLAYER_SLEEPBEFORE_END,1516293165522,57
469,WS_SEND_START,1516293165522,57
469,WS_SEND_END,1516293165522,57
469,WS_RECV_START,1516293165522,58
469,WS_RECV_END,1516293167291,58
469,PLAYER_SLEEPBEFORE_START,1516293167291,59
469,PLAYER_SLEEPBEFORE_END,1516293169618,59
469,WS_SEND_START,1516293169618,59
469,WS_SEND_END,1516293169618,59
469,WS_RECV_START,1516293169618,60
469,WS_RECV_END,1516293170989,60
469,PLAYER_SLEEPBEFORE_START,1516293170989,61
469,PLAYER_SLEEPBEFORE_END,1516293174580,61
469,WS_SEND_START,1516293174580,61
469,WS_SEND_END,1516293174580,61
469,WS_RECV_START,1516293174580,62
469,WS_RECV_END,1516293175851,62
469,PLAYER_SLEEPBEFORE_START,1516293175851,63
469,PLAYER_SLEEPBEFORE_END,1516293195113,63
469,WS_SEND_START,1516293195113,63
469,WS_SEND_END,1516293195113,63
469,WS_RECV_START,1516293195113,64
469,WS_RECV_END,1516293196368,64
469,PLAYER_SLEEPBEFORE_START,1516293196368,65
469,PLAYER_SLEEPBEFORE_END,1516293223185,65
469,WS_SEND_START,1516293223185,65
469,WS_SEND_END,1516293223185,65
469,WS_RECV_START,1516293223185,66
469,WS_RECV_END,1516293224460,66
469,PLAYER_SLEEPBEFORE_START,1516293224460,67
469,PLAYER_SLEEPBEFORE_END,1516293225968,67
469,WS_SEND_START,1516293225968,67
469,WS_SEND_END,1516293225968,67
469,WS_RECV_START,1516293225968,68
469,WS_RECV_END,1516293227963,68
469,PLAYER_SLEEPBEFORE_START,1516293227963,69
469,PLAYER_SLEEPBEFORE_END,1516293249961,69
469,WS_SEND_START,1516293249961,69
469,WS_SEND_END,1516293249961,69
469,WS_RECV_START,1516293249961,70
469,WS_RECV_END,1516293253012,70
469,PLAYER_SLEEPBEFORE_START,1516293253012,71
469,PLAYER_SLEEPBEFORE_END,1516293277787,71
469,WS_SEND_START,1516293277787,71
469,WS_SEND_END,1516293277787,71
469,PLAYER_SLEEPBEFORE_START,1516293277787,72
469,PLAYER_SLEEPBEFORE_END,1516293280394,72
469,WS_SEND_START,1516293280394,72
469,WS_SEND_END,1516293280394,72
469,WS_RECV_START,1516293280394,73
469,WS_RECV_END,1516293282602,73
469,PLAYER_SLEEPBEFORE_START,1516293282602,74
469,PLAYER_SLEEPBEFORE_END,1516293282611,74
469,WS_SEND_START,1516293282611,74
469,WS_SEND_END,1516293282611,74
469,WS_RECV_START,1516293282611,75
469,WS_RECV_END,1516293284341,75
469,PLAYER_SLEEPBEFORE_START,1516293284341,76
469,PLAYER_SLEEPBEFORE_END,1516293285847,76
469,WS_SEND_START,1516293285847,76
469,WS_SEND_END,1516293285847,76
469,WS_RECV_START,1516293285847,77
469,WS_RECV_END,1516293288154,77
469,PLAYER_SLEEPBEFORE_START,1516293288154,78
469,PLAYER_SLEEPBEFORE_END,1516293289022,78
469,WS_SEND_START,1516293289022,78
469,WS_SEND_END,1516293289022,78
469,WS_RECV_START,1516293289022,79
469,WS_RECV_END,1516293289864,79
469,PLAYER_SLEEPBEFORE_START,1516293289864,80
469,PLAYER_SLEEPBEFORE_END,1516293297530,80
469,WS_SEND_START,1516293297530,80
469,WS_SEND_END,1516293297530,80
469,WS_RECV_START,1516293297530,81
469,WS_RECV_END,1516293300454,81
469,PLAYER_SLEEPBEFORE_START,1516293300454,82
469,PLAYER_SLEEPBEFORE_END,1516293301556,82
469,WS_SEND_START,1516293301556,82
469,WS_SEND_END,1516293301556,82
469,WS_RECV_START,1516293301556,83
469,WS_RECV_END,1516293304365,83
469,PLAYER_SLEEPBEFORE_START,1516293304365,84
469,PLAYER_SLEEPBEFORE_END,1516293305312,84
469,WS_SEND_START,1516293305312,84
469,WS_SEND_END,1516293305312,84
469,WS_RECV_START,1516293305312,85
469,WS_RECV_END,1516293305661,85
469,PLAYER_SLEEPBEFORE_START,1516293305661,86
469,PLAYER_SLEEPBEFORE_END,1516293309833,86
469,WS_SEND_START,1516293309833,86
469,WS_SEND_END,1516293309833,86
469,WS_RECV_START,1516293309833,87
469,WS_RECV_END,1516293311899,87
469,PLAYER_SLEEPBEFORE_START,1516293311899,88
469,PLAYER_SLEEPBEFORE_END,1516293311907,88
469,WS_SEND_START,1516293311907,88
469,WS_SEND_END,1516293311907,88
469,WS_RECV_START,1516293311907,89
469,WS_RECV_END,1516293312851,89
469,PLAYER_SLEEPBEFORE_START,1516293312851,90
469,PLAYER_SLEEPBEFORE_END,1516293340049,90
469,REQ_START,1516293340049,90
469,REQ_END,1516293340056,90
469,PLAYER_SLEEPBEFORE_START,1516293340056,91
469,PLAYER_SLEEPBEFORE_END,1516293347945,91
469,WS_SEND_START,1516293347945,91
469,WS_SEND_END,1516293347945,91
469,WS_RECV_START,1516293347945,92
469,WS_RECV_END,1516293351111,92
469,PLAYER_SLEEPBEFORE_START,1516293351111,93
469,PLAYER_SLEEPBEFORE_END,1516293351126,93
469,WS_SEND_START,1516293351126,93
469,WS_SEND_END,1516293351126,93
469,WS_RECV_START,1516293351126,94
469,WS_RECV_END,1516293352963,94
469,PLAYER_SLEEPBEFORE_START,1516293352963,95
469,PLAYER_SLEEPBEFORE_END,1516293376518,95
469,WS_SEND_START,1516293376518,95
469,WS_SEND_END,1516293376518,95
469,WS_RECV_START,1516293376518,96
469,WS_RECV_END,1516293380470,96
469,PLAYER_SLEEPBEFORE_START,1516293380470,97
469,PLAYER_SLEEPBEFORE_END,1516293402910,97
469,WS_SEND_START,1516293402910,97
469,WS_SEND_END,1516293402910,97
469,WS_RECV_START,1516293402910,98
469,WS_RECV_END,1516293405523,98
469,PLAYER_SLEEPBEFORE_START,1516293405523,99
469,PLAYER_SLEEPBEFORE_END,1516293405544,99
469,WS_SEND_START,1516293405544,99
469,WS_SEND_END,1516293405544,99
469,WS_RECV_START,1516293405544,100
469,WS_RECV_END,1516293407276,100
469,PLAYER_SLEEPBEFORE_START,1516293407276,101
469,PLAYER_SLEEPBEFORE_END,1516293430835,101
469,WS_SEND_START,1516293430835,101
469,WS_SEND_END,1516293430835,101
469,WS_RECV_START,1516293430835,102
469,WS_RECV_END,1516293433469,102
469,PLAYER_SLEEPBEFORE_START,1516293433469,103
469,PLAYER_SLEEPBEFORE_END,1516293457094,103
469,WS_SEND_START,1516293457094,103
469,WS_SEND_END,1516293457094,103
469,WS_RECV_START,1516293457095,104
469,WS_RECV_END,1516293460671,104
469,PLAYER_SLEEPBEFORE_START,1516293460671,105
469,PLAYER_SLEEPBEFORE_END,1516293486048,105
469,WS_SEND_START,1516293486048,105
469,WS_SEND_END,1516293486048,105
469,WS_RECV_START,1516293486048,106
469,WS_RECV_END,1516293489804,106
469,PLAYER_SLEEPBEFORE_START,1516293489804,107
469,PLAYER_SLEEPBEFORE_END,1516293513228,107
469,WS_SEND_START,1516293513228,107
469,WS_SEND_END,1516293513228,107
469,WS_RECV_START,1516293513228,108
469,WS_RECV_END,1516293518049,108
469,PLAYER_SLEEPBEFORE_START,1516293518049,109
469,PLAYER_SLEEPBEFORE_END,1516293518058,109
469,WS_SEND_START,1516293518058,109
469,WS_SEND_END,1516293518058,109
469,WS_RECV_START,1516293518058,110
469,WS_RECV_END,1516293521162,110
469,PLAYER_SLEEPBEFORE_START,1516293521162,111
469,PLAYER_SLEEPBEFORE_END,1516293522121,111
469,WS_SEND_START,1516293522121,111
469,WS_SEND_END,1516293522121,111
469,WS_RECV_START,1516293522121,112
469,WS_RECV_END,1516293525362,112
469,PLAYER_SLEEPBEFORE_START,1516293525363,113
469,PLAYER_SLEEPBEFORE_END,1516293525925,113
469,WS_SEND_START,1516293525925,113
469,WS_SEND_END,1516293525925,113
469,WS_RECV_START,1516293525925,114
469,WS_RECV_END,1516293527978,114
469,PLAYER_SLEEPBEFORE_START,1516293527978,115
469,PLAYER_SLEEPBEFORE_END,1516293527988,115
469,WS_SEND_START,1516293527988,115
469,WS_SEND_END,1516293527988,115
469,WS_RECV_START,1516293527988,116
469,WS_RECV_END,1516293531534,116
469,PLAYER_SLEEPBEFORE_START,1516293531534,117
469,PLAYER_SLEEPBEFORE_END,1516293551894,117
469,WS_SEND_START,1516293551894,117
469,WS_SEND_END,1516293551894,117
469,PLAYER_SLEEPBEFORE_START,1516293551894,118
469,PLAYER_SLEEPBEFORE_END,1516293555647,118
469,WS_SEND_START,1516293555647,118
469,WS_SEND_END,1516293555647,118
469,WS_RECV_START,1516293555647,119
469,WS_RECV_END,1516293561906,119
469,PLAYER_SLEEPBEFORE_START,1516293561906,120
469,PLAYER_SLEEPBEFORE_END,1516293562894,120
469,WS_SEND_START,1516293562894,120
469,WS_SEND_END,1516293562894,120
469,WS_RECV_START,1516293562894,121
469,WS_RECV_END,1516293566513,121
469,PLAYER_SLEEPBEFORE_START,1516293566513,122
469,PLAYER_SLEEPBEFORE_END,1516293567698,122
469,WS_SEND_START,1516293567698,122
469,WS_SEND_END,1516293567698,122
469,WS_RECV_START,1516293567698,123
469,WS_RECV_END,1516293570898,123
469,PLAYER_SLEEPBEFORE_START,1516293570898,124
469,PLAYER_SLEEPBEFORE_END,1516293595303,124
469,WS_SEND_START,1516293595303,124
469,WS_SEND_END,1516293595303,124
469,WS_RECV_START,1516293595303,125
469,WS_RECV_END,1516293601300,125
469,PLAYER_SLEEPBEFORE_START,1516293601300,126
469,PLAYER_SLEEPBEFORE_END,1516293621812,126
469,WS_SEND_START,1516293621812,126
469,WS_SEND_END,1516293621812,126
469,PLAYER_SLEEPBEFORE_START,1516293621812,127
469,PLAYER_SLEEPBEFORE_END,1516293624866,127
469,WS_SEND_START,1516293624866,127
469,WS_SEND_END,1516293624866,127
469,WS_RECV_START,1516293624866,128
469,WS_RECV_END,1516293626444,128
469,PLAYER_SLEEPBEFORE_START,1516293626444,129
469,PLAYER_SLEEPBEFORE_END,1516293626464,129
469,WS_SEND_START,1516293626464,129
469,WS_SEND_END,1516293626464,129
469,WS_RECV_START,1516293626464,130
469,WS_RECV_END,1516293632432,130
469,PLAYER_SLEEPBEFORE_START,1516293632432,131
469,PLAYER_SLEEPBEFORE_END,1516293654056,131
469,WS_SEND_START,1516293654056,131
469,WS_SEND_END,1516293654056,131
469,PLAYER_SLEEPBEFORE_START,1516293654056,132
469,PLAYER_SLEEPBEFORE_END,1516293657136,132
469,WS_SEND_START,1516293657136,132
469,WS_SEND_END,1516293657136,132
469,WS_RECV_START,1516293657136,133
469,WS_RECV_END,1516293659136,133
469,PLAYER_SLEEPBEFORE_START,1516293659136,134
469,PLAYER_SLEEPBEFORE_END,1516293680353,134
469,WS_SEND_START,1516293680353,134
469,WS_SEND_END,1516293680353,134
469,PLAYER_SLEEPBEFORE_START,1516293680353,135
469,PLAYER_SLEEPBEFORE_END,1516293683544,135
469,WS_SEND_START,1516293683544,135
469,WS_SEND_END,1516293683544,135
469,WS_RECV_START,1516293683544,136
469,WS_RECV_END,1516293685725,136
469,PLAYER_SLEEPBEFORE_START,1516293685725,137
469,PLAYER_SLEEPBEFORE_END,1516293685732,137
469,WS_SEND_START,1516293685732,137
469,WS_SEND_END,1516293685732,137
469,WS_RECV_START,1516293685732,138
469,WS_RECV_END,1516293687958,138
469,PLAYER_SLEEPBEFORE_START,1516293687958,139
469,PLAYER_SLEEPBEFORE_END,1516293688648,139
469,WS_SEND_START,1516293688648,139
469,WS_SEND_END,1516293688648,139
469,WS_RECV_START,1516293688648,140
469,WS_RECV_END,1516293689619,140
469,PLAYER_SLEEPBEFORE_START,1516293689619,141
469,PLAYER_SLEEPBEFORE_END,1516293690274,141
469,WS_SEND_START,1516293690274,141
469,WS_SEND_END,1516293690274,141
469,WS_RECV_START,1516293690274,142
469,WS_RECV_END,1516293692511,142
469,PLAYER_SLEEPBEFORE_START,1516293692511,143
469,PLAYER_SLEEPBEFORE_END,1516293692568,143
469,WS_SEND_START,1516293692568,143
469,WS_SEND_END,1516293692568,143
469,WS_RECV_START,1516293692568,144
469,WS_RECV_END,1516293694891,144
469,PLAYER_SLEEPBEFORE_START,1516293694891,145
469,PLAYER_SLEEPBEFORE_END,1516293710953,145
469,REQ_START,1516293710953,145
469,REQ_END,1516293710960,145
469,PLAYER_SLEEPBEFORE_START,1516293710960,146
469,PLAYER_SLEEPBEFORE_END,1516293719837,146
469,WS_SEND_START,1516293719837,146
469,WS_SEND_END,1516293719837,146
469,WS_RECV_START,1516293719837,147
469,WS_RECV_END,1516293721159,147
469,PLAYER_SLEEPBEFORE_START,1516293721159,148
469,PLAYER_SLEEPBEFORE_END,1516293743082,148
469,WS_SEND_START,1516293743082,148
469,WS_SEND_END,1516293743082,148
469,PLAYER_SLEEPBEFORE_START,1516293743082,149
469,PLAYER_SLEEPBEFORE_END,1516293745510,149
469,WS_SEND_START,1516293745510,149
469,WS_SEND_END,1516293745510,149
469,WS_RECV_START,1516293745510,150
469,WS_RECV_END,1516293747309,150
469,PLAYER_SLEEPBEFORE_START,1516293747309,151
469,PLAYER_SLEEPBEFORE_END,1516293747519,151
469,WS_SEND_START,1516293747519,151
469,WS_SEND_END,1516293747519,151
469,WS_RECV_START,1516293747519,152
469,WS_RECV_END,1516293749698,152
469,PLAYER_SLEEPBEFORE_START,1516293749698,153
469,PLAYER_SLEEPBEFORE_END,1516293773625,153
469,WS_SEND_START,1516293773625,153
469,WS_SEND_END,1516293773625,153
469,WS_RECV_START,1516293773625,154
469,WS_RECV_END,1516293773819,154
469,PLAYER_SLEEPBEFORE_START,1516293773819,155
469,PLAYER_SLEEPBEFORE_END,1516293796377,155
469,WS_SEND_START,1516293796377,155
469,WS_SEND_END,1516293796377,155
469,PLAYER_SLEEPBEFORE_START,1516293796377,156
469,PLAYER_SLEEPBEFORE_END,1516293799651,156
469,WS_SEND_START,1516293799651,156
469,WS_SEND_END,1516293799651,156
469,WS_RECV_START,1516293799651,157
469,WS_RECV_END,1516293799979,157
469,PLAYER_SLEEPBEFORE_START,1516293799979,158
469,PLAYER_SLEEPBEFORE_END,1516293799989,158
469,WS_SEND_START,1516293799989,158
469,WS_SEND_END,1516293799989,158
469,WS_RECV_START,1516293799989,159
469,WS_RECV_END,1516293800065,159
469,PLAYER_SLEEPBEFORE_START,1516293800065,160
469,PLAYER_SLEEPBEFORE_END,1516293800240,160
469,WS_SEND_START,1516293800240,160
469,WS_SEND_END,1516293800240,160
469,WS_RECV_START,1516293800240,161
469,WS_RECV_END,1516293800420,161
469,PLAYER_SLEEPBEFORE_START,1516293800420,162
469,PLAYER_SLEEPBEFORE_END,1516293800446,162
469,WS_SEND_START,1516293800446,162
469,WS_SEND_END,1516293800446,162
469,WS_RECV_START,1516293800446,163
469,WS_RECV_END,1516293801049,163
469,PLAYER_SLEEPBEFORE_START,1516293801049,164
469,PLAYER_SLEEPBEFORE_END,1516293821861,164
469,WS_SEND_START,1516293821861,164
469,WS_SEND_END,1516293821861,164
469,WS_RECV_START,1516293821862,165
469,WS_RECV_END,1516293822391,165
469,PLAYER_SLEEPBEFORE_START,1516293822391,166
469,PLAYER_SLEEPBEFORE_END,1516293844846,166
469,WS_SEND_START,1516293844846,166
469,WS_SEND_END,1516293844846,166
469,WS_RECV_START,1516293844846,167
469,WS_RECV_END,1516293845007,167
469,PLAYER_SLEEPBEFORE_START,1516293845007,168
469,PLAYER_SLEEPBEFORE_END,1516293872364,168
469,WS_SEND_START,1516293872364,168
469,WS_SEND_END,1516293872364,168
469,WS_RECV_START,1516293872364,169
469,WS_RECV_END,1516293872396,169
469,PLAYER_SLEEPBEFORE_START,1516293872396,170
469,PLAYER_SLEEPBEFORE_END,1516293872405,170
469,WS_SEND_START,1516293872405,170
469,WS_SEND_END,1516293872405,170
469,WS_RECV_START,1516293872405,171
469,WS_RECV_END,1516293872631,171
469,PLAYER_SLEEPBEFORE_START,1516293872631,172
469,PLAYER_SLEEPBEFORE_END,1516293873000,172
469,WS_SEND_START,1516293873000,172
469,WS_SEND_END,1516293873000,172
469,WS_RECV_START,1516293873000,173
469,WS_RECV_END,1516293873162,173
469,PLAYER_SLEEPBEFORE_START,1516293873162,174
469,PLAYER_SLEEPBEFORE_END,1516293873203,174
469,WS_SEND_START,1516293873203,174
469,WS_SEND_END,1516293873203,174
469,WS_RECV_START,1516293873203,175
469,WS_RECV_END,1516293873357,175
469,PLAYER_SLEEPBEFORE_START,1516293873357,176
469,PLAYER_SLEEPBEFORE_END,1516293895118,176
469,WS_SEND_START,1516293895118,176
469,WS_SEND_END,1516293895118,176
469,PLAYER_SLEEPBEFORE_START,1516293895118,177
469,PLAYER_SLEEPBEFORE_END,1516293897636,177
469,WS_SEND_START,1516293897636,177
469,WS_SEND_END,1516293897636,177
469,WS_RECV_START,1516293897636,178
469,WS_RECV_END,1516293897805,178
469,PLAYER_SLEEPBEFORE_START,1516293897805,179
469,PLAYER_SLEEPBEFORE_END,1516293920145,179
469,WS_SEND_START,1516293920145,179
469,WS_SEND_END,1516293920145,179
469,WS_RECV_START,1516293920146,180
469,WS_RECV_END,1516293920247,180
469,PLAYER_SLEEPBEFORE_START,1516293920247,181
469,PLAYER_SLEEPBEFORE_END,1516293920691,181
469,WS_SEND_START,1516293920691,181
469,WS_SEND_END,1516293920691,181
469,WS_RECV_START,1516293920691,182
469,WS_RECV_END,1516293920850,182
469,PLAYER_SLEEPBEFORE_START,1516293920850,183
469,PLAYER_SLEEPBEFORE_END,1516293921373,183
469,WS_SEND_START,1516293921373,183
469,WS_SEND_END,1516293921373,183
469,WS_RECV_START,1516293921373,184
469,WS_RECV_END,1516293921538,184
469,PLAYER_SLEEPBEFORE_START,1516293921538,185
469,PLAYER_SLEEPBEFORE_END,1516293921806,185
469,WS_SEND_START,1516293921806,185
469,WS_SEND_END,1516293921806,185
469,WS_RECV_START,1516293921806,186
469,WS_RECV_END,1516293921981,186
469,PLAYER_SLEEPBEFORE_START,1516293921981,187
469,PLAYER_SLEEPBEFORE_END,1516293944481,187
469,WS_SEND_START,1516293944481,187
469,WS_SEND_END,1516293944481,187
469,WS_RECV_START,1516293944481,188
469,WS_RECV_END,1516293944519,188
469,PLAYER_SLEEPBEFORE_START,1516293944519,189
469,PLAYER_SLEEPBEFORE_END,1516293950758,189
469,WS_SEND_START,1516293950758,189
469,WS_SEND_END,1516293950758,189
469,WS_RECV_START,1516293950758,190
469,WS_RECV_END,1516293950917,190
469,PLAYER_SLEEPBEFORE_START,1516293950917,191
469,PLAYER_SLEEPBEFORE_END,1516293952832,191
469,WS_SEND_START,1516293952832,191
469,WS_SEND_END,1516293952832,191
469,WS_RECV_START,1516293952832,192
469,WS_RECV_END,1516293953018,192
469,PLAYER_SLEEPBEFORE_START,1516293953018,193
469,PLAYER_SLEEPBEFORE_END,1516293953146,193
469,WS_SEND_START,1516293953146,193
469,WS_SEND_END,1516293953146,193
469,WS_RECV_START,1516293953146,194
469,WS_RECV_END,1516293953487,194
469,PLAYER_SLEEPBEFORE_START,1516293953487,195
469,PLAYER_SLEEPBEFORE_END,1516293955242,195
469,WS_SEND_START,1516293955242,195
469,WS_SEND_END,1516293955242,195
469,WS_RECV_START,1516293955242,196
469,WS_RECV_END,1516293955364,196
469,PLAYER_SLEEPBEFORE_START,1516293955364,197
469,PLAYER_SLEEPBEFORE_END,1516293957168,197
469,WS_SEND_START,1516293957168,197
469,WS_SEND_END,1516293957168,197
469,WS_RECV_START,1516293957168,198
469,WS_RECV_END,1516293957298,198
469,PLAYER_SLEEPBEFORE_START,1516293957298,199
469,PLAYER_SLEEPBEFORE_END,1516293969152,199
469,WS_SEND_START,1516293969152,199
469,WS_SEND_END,1516293969152,199
469,PLAYER_SLEEPBEFORE_START,1516293969152,200
469,PLAYER_SLEEPBEFORE_END,1516293973241,200
469,WS_SEND_START,1516293973241,200
469,WS_SEND_END,1516293973241,200
469,WS_RECV_START,1516293973241,201
469,WS_RECV_END,1516293973363,201
469,PLAYER_SLEEPBEFORE_START,1516293973363,202
469,PLAYER_SLEEPBEFORE_END,1516293973378,202
469,WS_SEND_START,1516293973378,202
469,WS_SEND_END,1516293973378,202
469,WS_RECV_START,1516293973378,203
469,WS_RECV_END,1516293973493,203
469,PLAYER_SLEEPBEFORE_START,1516293973493,204
469,PLAYER_SLEEPBEFORE_END,1516293993142,204
469,WS_SEND_START,1516293993142,204
469,WS_SEND_END,1516293993142,204
469,PLAYER_SLEEPBEFORE_START,1516293993142,205
469,PLAYER_SLEEPBEFORE_END,1516293997041,205
469,WS_SEND_START,1516293997041,205
469,WS_SEND_END,1516293997041,205
469,WS_RECV_START,1516293997041,206
469,WS_RECV_END,1516293997172,206
469,PLAYER_SLEEPBEFORE_START,1516293997172,207
469,PLAYER_SLEEPBEFORE_END,1516294014103,207
469,REQ_START,1516294014103,207
469,REQ_END,1516294014111,207
469,PLAYER_SLEEPBEFORE_START,1516294014111,208
469,PLAYER_SLEEPBEFORE_END,1516294020963,208
469,WS_CLOSE_START,1516294020964,208
469,WS_CLOSE_END,1516294020964,208
469,PLAYER_DONE,1516294020964
