# --sessions 630 --app-url=http://shinyloadtest.rstudioservices.com/cran_explorer --output-dir test630 --overwrite-output --log-level warn --start-interval 800 15min.log
thread_id,event,timestamp,input_line_number,comment
495,PLAYER_SESSION_CREATE,1516292633627
495,PLAYER_START_INTERVAL_START,1516292633627
495,PLAYER_START_INTERVAL_END,1516293029627
495,REQ_HOME_START,1516293029627,2
495,REQ_HOME_END,1516293030079,2
495,REQ_START,1516293030079,3
495,REQ_END,1516293030886,3
495,REQ_START,1516293030886,4
495,REQ_END,1516293031087,4
495,REQ_START,1516293031087,5
495,REQ_END,1516293031125,5
495,REQ_START,1516293031125,6
495,REQ_END,1516293031162,6
495,REQ_START,1516293031162,7
495,REQ_END,1516293031197,7
495,REQ_START,1516293031197,8
495,REQ_END,1516293031235,8
495,REQ_START,1516293031235,9
495,REQ_END,1516293031276,9
495,REQ_START,1516293031276,10
495,REQ_END,1516293031284,10
495,REQ_START,1516293031284,11
495,REQ_END,1516293031332,11
495,REQ_START,1516293031332,12
495,REQ_END,1516293031342,12
495,REQ_START,1516293031342,13
495,REQ_END,1516293031373,13
495,REQ_START,1516293031373,14
495,REQ_END,1516293031422,14
495,REQ_START,1516293031422,15
495,REQ_END,1516293031470,15
495,REQ_TOK_START,1516293031470,16
495,REQ_TOK_END,1516293031478,16
495,REQ_SINF_START,1516293031478,17
495,REQ_SINF_END,1516293031487,17
495,WS_OPEN_START,1516293031487,18
495,WS_OPEN_END,1516293031495,18
495,REQ_START,1516293031495,19
495,REQ_END,1516293031572,19
495,WS_RECV_START,1516293031572,20
495,WS_RECV_END,1516293031572,20
495,PLAYER_SLEEPBEFORE_START,1516293031572,21
495,PLAYER_SLEEPBEFORE_END,1516293031577,21
495,WS_SEND_START,1516293031577,21
495,WS_SEND_END,1516293031577,21
495,PLAYER_SLEEPBEFORE_START,1516293031577,22
495,PLAYER_SLEEPBEFORE_END,1516293031578,22
495,WS_SEND_START,1516293031578,22
495,WS_SEND_END,1516293031579,22
495,WS_RECV_INIT_START,1516293031579,23
495,WS_RECV_INIT_END,1516293031603,23
495,WS_RECV_START,1516293031603,24
495,WS_RECV_END,1516293031913,24
495,PLAYER_SLEEPBEFORE_START,1516293031913,25
495,PLAYER_SLEEPBEFORE_END,1516293031920,25
495,REQ_START,1516293031920,25
495,REQ_END,1516293032049,25
495,PLAYER_SLEEPBEFORE_START,1516293032049,26
495,PLAYER_SLEEPBEFORE_END,1516293032050,26
495,REQ_START,1516293032050,26
495,REQ_END,1516293032089,26
495,PLAYER_SLEEPBEFORE_START,1516293032089,27
495,PLAYER_SLEEPBEFORE_END,1516293032092,27
495,REQ_START,1516293032092,27
495,REQ_END,1516293032560,27
495,PLAYER_SLEEPBEFORE_START,1516293032560,28
495,PLAYER_SLEEPBEFORE_END,1516293032845,28
495,REQ_START,1516293032845,28
495,REQ_END,1516293033148,28
495,PLAYER_SLEEPBEFORE_START,1516293033148,29
495,PLAYER_SLEEPBEFORE_END,1516293033323,29
495,WS_SEND_START,1516293033323,29
495,WS_SEND_END,1516293033323,29
495,WS_RECV_START,1516293033323,30
495,WS_RECV_END,1516293033451,30
495,PLAYER_SLEEPBEFORE_START,1516293033451,31
495,PLAYER_SLEEPBEFORE_END,1516293033462,31
495,REQ_START,1516293033462,31
495,REQ_END,1516293033523,31
495,PLAYER_SLEEPBEFORE_START,1516293033523,32
495,PLAYER_SLEEPBEFORE_END,1516293061668,32
495,WS_SEND_START,1516293061668,32
495,WS_SEND_END,1516293061668,32
495,WS_RECV_START,1516293061668,33
495,WS_RECV_END,1516293061912,33
495,PLAYER_SLEEPBEFORE_START,1516293061912,34
495,PLAYER_SLEEPBEFORE_END,1516293087823,34
495,WS_SEND_START,1516293087823,34
495,WS_SEND_END,1516293087823,34
495,WS_RECV_START,1516293087823,35
495,WS_RECV_END,1516293088115,35
495,PLAYER_SLEEPBEFORE_START,1516293088115,36
495,PLAYER_SLEEPBEFORE_END,1516293088125,36
495,WS_SEND_START,1516293088125,36
495,WS_SEND_END,1516293088125,36
495,WS_RECV_START,1516293088125,37
495,WS_RECV_END,1516293088584,37
495,PLAYER_SLEEPBEFORE_START,1516293088584,38
495,PLAYER_SLEEPBEFORE_END,1516293091779,38
495,WS_SEND_START,1516293091779,38
495,WS_SEND_END,1516293091779,38
495,WS_RECV_START,1516293091779,39
495,WS_RECV_END,1516293092545,39
495,PLAYER_SLEEPBEFORE_START,1516293092545,40
495,PLAYER_SLEEPBEFORE_END,1516293092592,40
495,WS_SEND_START,1516293092592,40
495,WS_SEND_END,1516293092592,40
495,WS_RECV_START,1516293092592,41
495,WS_RECV_END,1516293093009,41
495,PLAYER_SLEEPBEFORE_START,1516293093009,42
495,PLAYER_SLEEPBEFORE_END,1516293111144,42
495,WS_SEND_START,1516293111144,42
495,WS_SEND_END,1516293111144,42
495,WS_RECV_START,1516293111144,43
495,WS_RECV_END,1516293112044,43
495,PLAYER_SLEEPBEFORE_START,1516293112044,44
495,PLAYER_SLEEPBEFORE_END,1516293112056,44
495,WS_SEND_START,1516293112056,44
495,WS_SEND_END,1516293112056,44
495,WS_RECV_START,1516293112057,45
495,WS_RECV_END,1516293112336,45
495,PLAYER_SLEEPBEFORE_START,1516293112336,46
495,PLAYER_SLEEPBEFORE_END,1516293113596,46
495,WS_SEND_START,1516293113596,46
495,WS_SEND_END,1516293113596,46
495,WS_RECV_START,1516293113596,47
495,WS_RECV_END,1516293114482,47
495,PLAYER_SLEEPBEFORE_START,1516293114482,48
495,PLAYER_SLEEPBEFORE_END,1516293115802,48
495,WS_SEND_START,1516293115802,48
495,WS_SEND_END,1516293115802,48
495,WS_RECV_START,1516293115802,49
495,WS_RECV_END,1516293116227,49
495,PLAYER_SLEEPBEFORE_START,1516293116227,50
495,PLAYER_SLEEPBEFORE_END,1516293116251,50
495,WS_SEND_START,1516293116252,50
495,WS_SEND_END,1516293116252,50
495,WS_RECV_START,1516293116252,51
495,WS_RECV_END,1516293117486,51
495,PLAYER_SLEEPBEFORE_START,1516293117486,52
495,PLAYER_SLEEPBEFORE_END,1516293140050,52
495,WS_SEND_START,1516293140050,52
495,WS_SEND_END,1516293140050,52
495,WS_RECV_START,1516293140050,53
495,WS_RECV_END,1516293141791,53
495,PLAYER_SLEEPBEFORE_START,1516293141791,54
495,PLAYER_SLEEPBEFORE_END,1516293163094,54
495,WS_SEND_START,1516293163094,54
495,WS_SEND_END,1516293163094,54
495,PLAYER_SLEEPBEFORE_START,1516293163094,55
495,PLAYER_SLEEPBEFORE_END,1516293165035,55
495,WS_SEND_START,1516293165035,55
495,WS_SEND_END,1516293165035,55
495,WS_RECV_START,1516293165035,56
495,WS_RECV_END,1516293166192,56
495,PLAYER_SLEEPBEFORE_START,1516293166192,57
495,PLAYER_SLEEPBEFORE_END,1516293189065,57
495,WS_SEND_START,1516293189065,57
495,WS_SEND_END,1516293189065,57
495,WS_RECV_START,1516293189065,58
495,WS_RECV_END,1516293192487,58
495,PLAYER_SLEEPBEFORE_START,1516293192487,59
495,PLAYER_SLEEPBEFORE_END,1516293194815,59
495,WS_SEND_START,1516293194815,59
495,WS_SEND_END,1516293194815,59
495,WS_RECV_START,1516293194815,60
495,WS_RECV_END,1516293197687,60
495,PLAYER_SLEEPBEFORE_START,1516293197687,61
495,PLAYER_SLEEPBEFORE_END,1516293201278,61
495,WS_SEND_START,1516293201278,61
495,WS_SEND_END,1516293201278,61
495,WS_RECV_START,1516293201278,62
495,WS_RECV_END,1516293203100,62
495,PLAYER_SLEEPBEFORE_START,1516293203100,63
495,PLAYER_SLEEPBEFORE_END,1516293222362,63
495,WS_SEND_START,1516293222362,63
495,WS_SEND_END,1516293222362,63
495,WS_RECV_START,1516293222362,64
495,WS_RECV_END,1516293224329,64
495,PLAYER_SLEEPBEFORE_START,1516293224329,65
495,PLAYER_SLEEPBEFORE_END,1516293251146,65
495,WS_SEND_START,1516293251146,65
495,WS_SEND_END,1516293251146,65
495,WS_RECV_START,1516293251146,66
495,WS_RECV_END,1516293256823,66
495,PLAYER_SLEEPBEFORE_START,1516293256823,67
495,PLAYER_SLEEPBEFORE_END,1516293258330,67
495,WS_SEND_START,1516293258330,67
495,WS_SEND_END,1516293258330,67
495,WS_RECV_START,1516293258330,68
495,WS_RECV_END,1516293259722,68
495,PLAYER_SLEEPBEFORE_START,1516293259722,69
495,PLAYER_SLEEPBEFORE_END,1516293281720,69
495,WS_SEND_START,1516293281720,69
495,WS_SEND_END,1516293281720,69
495,WS_RECV_START,1516293281720,70
495,WS_RECV_END,1516293285180,70
495,PLAYER_SLEEPBEFORE_START,1516293285180,71
495,PLAYER_SLEEPBEFORE_END,1516293309955,71
495,WS_SEND_START,1516293309955,71
495,WS_SEND_END,1516293309955,71
495,PLAYER_SLEEPBEFORE_START,1516293309955,72
495,PLAYER_SLEEPBEFORE_END,1516293312562,72
495,WS_SEND_START,1516293312562,72
495,WS_SEND_END,1516293312562,72
495,WS_RECV_START,1516293312562,73
495,WS_RECV_END,1516293314304,73
495,PLAYER_SLEEPBEFORE_START,1516293314304,74
495,PLAYER_SLEEPBEFORE_END,1516293314313,74
495,WS_SEND_START,1516293314313,74
495,WS_SEND_END,1516293314313,74
495,WS_RECV_START,1516293314313,75
495,WS_RECV_END,1516293317021,75
495,PLAYER_SLEEPBEFORE_START,1516293317021,76
495,PLAYER_SLEEPBEFORE_END,1516293318527,76
495,WS_SEND_START,1516293318527,76
495,WS_SEND_END,1516293318527,76
495,WS_RECV_START,1516293318527,77
495,WS_RECV_END,1516293320789,77
495,PLAYER_SLEEPBEFORE_START,1516293320789,78
495,PLAYER_SLEEPBEFORE_END,1516293321657,78
495,WS_SEND_START,1516293321657,78
495,WS_SEND_END,1516293321657,78
495,WS_RECV_START,1516293321657,79
495,WS_RECV_END,1516293323992,79
495,PLAYER_SLEEPBEFORE_START,1516293323992,80
495,PLAYER_SLEEPBEFORE_END,1516293331658,80
495,WS_SEND_START,1516293331658,80
495,WS_SEND_END,1516293331658,80
495,WS_RECV_START,1516293331658,81
495,WS_RECV_END,1516293335421,81
495,PLAYER_SLEEPBEFORE_START,1516293335421,82
495,PLAYER_SLEEPBEFORE_END,1516293336524,82
495,WS_SEND_START,1516293336524,82
495,WS_SEND_END,1516293336524,82
495,WS_RECV_START,1516293336524,83
495,WS_RECV_END,1516293340668,83
495,PLAYER_SLEEPBEFORE_START,1516293340668,84
495,PLAYER_SLEEPBEFORE_END,1516293341615,84
495,WS_SEND_START,1516293341615,84
495,WS_SEND_END,1516293341615,84
495,WS_RECV_START,1516293341615,85
495,WS_RECV_END,1516293342699,85
495,PLAYER_SLEEPBEFORE_START,1516293342699,86
495,PLAYER_SLEEPBEFORE_END,1516293346871,86
495,WS_SEND_START,1516293346871,86
495,WS_SEND_END,1516293346871,86
495,WS_RECV_START,1516293346871,87
495,WS_RECV_END,1516293350717,87
495,PLAYER_SLEEPBEFORE_START,1516293350717,88
495,PLAYER_SLEEPBEFORE_END,1516293350725,88
495,WS_SEND_START,1516293350725,88
495,WS_SEND_END,1516293350725,88
495,WS_RECV_START,1516293350725,89
495,WS_RECV_END,1516293352684,89
495,PLAYER_SLEEPBEFORE_START,1516293352684,90
495,PLAYER_SLEEPBEFORE_END,1516293379882,90
495,REQ_START,1516293379882,90
495,REQ_END,1516293379889,90
495,PLAYER_SLEEPBEFORE_START,1516293379889,91
495,PLAYER_SLEEPBEFORE_END,1516293387779,91
495,WS_SEND_START,1516293387779,91
495,WS_SEND_END,1516293387779,91
495,WS_RECV_START,1516293387779,92
495,WS_RECV_END,1516293392487,92
495,PLAYER_SLEEPBEFORE_START,1516293392487,93
495,PLAYER_SLEEPBEFORE_END,1516293392502,93
495,WS_SEND_START,1516293392503,93
495,WS_SEND_END,1516293392503,93
495,WS_RECV_START,1516293392503,94
495,WS_RECV_END,1516293395988,94
495,PLAYER_SLEEPBEFORE_START,1516293395988,95
495,PLAYER_SLEEPBEFORE_END,1516293419543,95
495,WS_SEND_START,1516293419543,95
495,WS_SEND_END,1516293419543,95
495,WS_RECV_START,1516293419543,96
495,WS_RECV_END,1516293424102,96
495,PLAYER_SLEEPBEFORE_START,1516293424102,97
495,PLAYER_SLEEPBEFORE_END,1516293446542,97
495,WS_SEND_START,1516293446542,97
495,WS_SEND_END,1516293446542,97
495,WS_RECV_START,1516293446542,98
495,WS_RECV_END,1516293452856,98
495,PLAYER_SLEEPBEFORE_START,1516293452856,99
495,PLAYER_SLEEPBEFORE_END,1516293452877,99
495,WS_SEND_START,1516293452877,99
495,WS_SEND_END,1516293452877,99
495,WS_RECV_START,1516293452877,100
495,WS_RECV_END,1516293455190,100
495,PLAYER_SLEEPBEFORE_START,1516293455190,101
495,PLAYER_SLEEPBEFORE_END,1516293478749,101
495,WS_SEND_START,1516293478749,101
495,WS_SEND_END,1516293478749,101
495,WS_RECV_START,1516293478749,102
495,WS_RECV_END,1516293482806,102
495,PLAYER_SLEEPBEFORE_START,1516293482806,103
495,PLAYER_SLEEPBEFORE_END,1516293506431,103
495,WS_SEND_START,1516293506431,103
495,WS_SEND_END,1516293506431,103
495,WS_RECV_START,1516293506431,104
495,WS_RECV_END,1516293512180,104
495,PLAYER_SLEEPBEFORE_START,1516293512180,105
495,PLAYER_SLEEPBEFORE_END,1516293537557,105
495,WS_SEND_START,1516293537557,105
495,WS_SEND_END,1516293537557,105
495,WS_RECV_START,1516293537557,106
495,WS_RECV_END,1516293544076,106
495,PLAYER_SLEEPBEFORE_START,1516293544076,107
495,PLAYER_SLEEPBEFORE_END,1516293567499,107
495,WS_SEND_START,1516293567499,107
495,WS_SEND_END,1516293567499,107
495,WS_RECV_START,1516293567499,108
495,WS_RECV_END,1516293573435,108
495,PLAYER_SLEEPBEFORE_START,1516293573435,109
495,PLAYER_SLEEPBEFORE_END,1516293573444,109
495,WS_SEND_START,1516293573444,109
495,WS_SEND_END,1516293573445,109
495,WS_RECV_START,1516293573445,110
495,WS_RECV_END,1516293576098,110
495,PLAYER_SLEEPBEFORE_START,1516293576098,111
495,PLAYER_SLEEPBEFORE_END,1516293577057,111
495,WS_SEND_START,1516293577057,111
495,WS_SEND_END,1516293577057,111
495,WS_RECV_START,1516293577057,112
495,WS_RECV_END,1516293580597,112
495,PLAYER_SLEEPBEFORE_START,1516293580597,113
495,PLAYER_SLEEPBEFORE_END,1516293581159,113
495,WS_SEND_START,1516293581159,113
495,WS_SEND_END,1516293581159,113
495,WS_RECV_START,1516293581159,114
495,WS_RECV_END,1516293584792,114
495,PLAYER_SLEEPBEFORE_START,1516293584792,115
495,PLAYER_SLEEPBEFORE_END,1516293584801,115
495,WS_SEND_START,1516293584801,115
495,WS_SEND_END,1516293584802,115
495,WS_RECV_START,1516293584802,116
495,WS_RECV_END,1516293588958,116
495,PLAYER_SLEEPBEFORE_START,1516293588959,117
495,PLAYER_SLEEPBEFORE_END,1516293609319,117
495,WS_SEND_START,1516293609319,117
495,WS_SEND_END,1516293609319,117
495,PLAYER_SLEEPBEFORE_START,1516293609319,118
495,PLAYER_SLEEPBEFORE_END,1516293613071,118
495,WS_SEND_START,1516293613071,118
495,WS_SEND_END,1516293613071,118
495,WS_RECV_START,1516293613071,119
495,WS_RECV_END,1516293616944,119
495,PLAYER_SLEEPBEFORE_START,1516293616945,120
495,PLAYER_SLEEPBEFORE_END,1516293617933,120
495,WS_SEND_START,1516293617933,120
495,WS_SEND_END,1516293617933,120
495,WS_RECV_START,1516293617933,121
495,WS_RECV_END,1516293621812,121
495,PLAYER_SLEEPBEFORE_START,1516293621812,122
495,PLAYER_SLEEPBEFORE_END,1516293622997,122
495,WS_SEND_START,1516293622997,122
495,WS_SEND_END,1516293622997,122
495,WS_RECV_START,1516293622997,123
495,WS_RECV_END,1516293626570,123
495,PLAYER_SLEEPBEFORE_START,1516293626570,124
495,PLAYER_SLEEPBEFORE_END,1516293650975,124
495,WS_SEND_START,1516293650975,124
495,WS_SEND_END,1516293650975,124
495,WS_RECV_START,1516293650975,125
495,WS_RECV_END,1516293659779,125
495,PLAYER_SLEEPBEFORE_START,1516293659779,126
495,PLAYER_SLEEPBEFORE_END,1516293680291,126
495,WS_SEND_START,1516293680291,126
495,WS_SEND_END,1516293680292,126
495,PLAYER_SLEEPBEFORE_START,1516293680292,127
495,PLAYER_SLEEPBEFORE_END,1516293683346,127
495,WS_SEND_START,1516293683346,127
495,WS_SEND_END,1516293683346,127
495,WS_RECV_START,1516293683346,128
495,WS_RECV_END,1516293686103,128
495,PLAYER_SLEEPBEFORE_START,1516293686103,129
495,PLAYER_SLEEPBEFORE_END,1516293686123,129
495,WS_SEND_START,1516293686123,129
495,WS_SEND_END,1516293686123,129
495,WS_RECV_START,1516293686123,130
495,WS_RECV_END,1516293689285,130
495,PLAYER_SLEEPBEFORE_START,1516293689285,131
495,PLAYER_SLEEPBEFORE_END,1516293710910,131
495,WS_SEND_START,1516293710910,131
495,WS_SEND_END,1516293710910,131
495,PLAYER_SLEEPBEFORE_START,1516293710910,132
495,PLAYER_SLEEPBEFORE_END,1516293713990,132
495,WS_SEND_START,1516293713990,132
495,WS_SEND_END,1516293713990,132
495,WS_RECV_START,1516293713990,133
495,WS_RECV_END,1516293716301,133
495,PLAYER_SLEEPBEFORE_START,1516293716301,134
495,PLAYER_SLEEPBEFORE_END,1516293737518,134
495,WS_SEND_START,1516293737518,134
495,WS_SEND_END,1516293737518,134
495,PLAYER_SLEEPBEFORE_START,1516293737518,135
495,PLAYER_SLEEPBEFORE_END,1516293740708,135
495,WS_SEND_START,1516293740708,135
495,WS_SEND_END,1516293740708,135
495,WS_RECV_START,1516293740708,136
495,WS_RECV_END,1516293741064,136
495,PLAYER_SLEEPBEFORE_START,1516293741064,137
495,PLAYER_SLEEPBEFORE_END,1516293741071,137
495,WS_SEND_START,1516293741071,137
495,WS_SEND_END,1516293741071,137
495,WS_RECV_START,1516293741071,138
495,WS_RECV_END,1516293742566,138
495,PLAYER_SLEEPBEFORE_START,1516293742566,139
495,PLAYER_SLEEPBEFORE_END,1516293743256,139
495,WS_SEND_START,1516293743256,139
495,WS_SEND_END,1516293743256,139
495,WS_RECV_START,1516293743256,140
495,WS_RECV_END,1516293743864,140
495,PLAYER_SLEEPBEFORE_START,1516293743864,141
495,PLAYER_SLEEPBEFORE_END,1516293744520,141
495,WS_SEND_START,1516293744520,141
495,WS_SEND_END,1516293744520,141
495,WS_RECV_START,1516293744520,142
495,WS_RECV_END,1516293745433,142
495,PLAYER_SLEEPBEFORE_START,1516293745433,143
495,PLAYER_SLEEPBEFORE_END,1516293745490,143
495,WS_SEND_START,1516293745490,143
495,WS_SEND_END,1516293745490,143
495,WS_RECV_START,1516293745490,144
495,WS_RECV_END,1516293747147,144
495,PLAYER_SLEEPBEFORE_START,1516293747147,145
495,PLAYER_SLEEPBEFORE_END,1516293763209,145
495,REQ_START,1516293763209,145
495,REQ_END,1516293763217,145
495,PLAYER_SLEEPBEFORE_START,1516293763217,146
495,PLAYER_SLEEPBEFORE_END,1516293772094,146
495,WS_SEND_START,1516293772094,146
495,WS_SEND_END,1516293772094,146
495,WS_RECV_START,1516293772094,147
495,WS_RECV_END,1516293774022,147
495,PLAYER_SLEEPBEFORE_START,1516293774022,148
495,PLAYER_SLEEPBEFORE_END,1516293795944,148
495,WS_SEND_START,1516293795944,148
495,WS_SEND_END,1516293795944,148
495,PLAYER_SLEEPBEFORE_START,1516293795944,149
495,PLAYER_SLEEPBEFORE_END,1516293798372,149
495,WS_SEND_START,1516293798372,149
495,WS_SEND_END,1516293798372,149
495,WS_RECV_START,1516293798372,150
495,WS_RECV_END,1516293800359,150
495,PLAYER_SLEEPBEFORE_START,1516293800359,151
495,PLAYER_SLEEPBEFORE_END,1516293800570,151
495,WS_SEND_START,1516293800570,151
495,WS_SEND_END,1516293800570,151
495,WS_RECV_START,1516293800570,152
495,WS_RECV_END,1516293801744,152
495,PLAYER_SLEEPBEFORE_START,1516293801744,153
495,PLAYER_SLEEPBEFORE_END,1516293825671,153
495,WS_SEND_START,1516293825671,153
495,WS_SEND_END,1516293825671,153
495,WS_RECV_START,1516293825671,154
495,WS_RECV_END,1516293826097,154
495,PLAYER_SLEEPBEFORE_START,1516293826097,155
495,PLAYER_SLEEPBEFORE_END,1516293848655,155
495,WS_SEND_START,1516293848655,155
495,WS_SEND_END,1516293848655,155
495,PLAYER_SLEEPBEFORE_START,1516293848655,156
495,PLAYER_SLEEPBEFORE_END,1516293851929,156
495,WS_SEND_START,1516293851929,156
495,WS_SEND_END,1516293851929,156
495,WS_RECV_START,1516293851929,157
495,WS_RECV_END,1516293852267,157
495,PLAYER_SLEEPBEFORE_START,1516293852267,158
495,PLAYER_SLEEPBEFORE_END,1516293852277,158
495,WS_SEND_START,1516293852277,158
495,WS_SEND_END,1516293852277,158
495,WS_RECV_START,1516293852277,159
495,WS_RECV_END,1516293852327,159
495,PLAYER_SLEEPBEFORE_START,1516293852327,160
495,PLAYER_SLEEPBEFORE_END,1516293852502,160
495,WS_SEND_START,1516293852502,160
495,WS_SEND_END,1516293852502,160
495,WS_RECV_START,1516293852502,161
495,WS_RECV_END,1516293852739,161
495,PLAYER_SLEEPBEFORE_START,1516293852739,162
495,PLAYER_SLEEPBEFORE_END,1516293852764,162
495,WS_SEND_START,1516293852764,162
495,WS_SEND_END,1516293852764,162
495,WS_RECV_START,1516293852764,163
495,WS_RECV_END,1516293853095,163
495,PLAYER_SLEEPBEFORE_START,1516293853095,164
495,PLAYER_SLEEPBEFORE_END,1516293873907,164
495,WS_SEND_START,1516293873907,164
495,WS_SEND_END,1516293873907,164
495,WS_RECV_START,1516293873907,165
495,WS_RECV_END,1516293874102,165
495,PLAYER_SLEEPBEFORE_START,1516293874102,166
495,PLAYER_SLEEPBEFORE_END,1516293896557,166
495,WS_SEND_START,1516293896557,166
495,WS_SEND_END,1516293896557,166
495,WS_RECV_START,1516293896557,167
495,WS_RECV_END,1516293896801,167
495,PLAYER_SLEEPBEFORE_START,1516293896801,168
495,PLAYER_SLEEPBEFORE_END,1516293924158,168
495,WS_SEND_START,1516293924158,168
495,WS_SEND_END,1516293924158,168
495,WS_RECV_START,1516293924158,169
495,WS_RECV_END,1516293924205,169
495,PLAYER_SLEEPBEFORE_START,1516293924205,170
495,PLAYER_SLEEPBEFORE_END,1516293924214,170
495,WS_SEND_START,1516293924214,170
495,WS_SEND_END,1516293924214,170
495,WS_RECV_START,1516293924214,171
495,WS_RECV_END,1516293924255,171
495,PLAYER_SLEEPBEFORE_START,1516293924255,172
495,PLAYER_SLEEPBEFORE_END,1516293924624,172
495,WS_SEND_START,1516293924624,172
495,WS_SEND_END,1516293924624,172
495,WS_RECV_START,1516293924624,173
495,WS_RECV_END,1516293924799,173
495,PLAYER_SLEEPBEFORE_START,1516293924799,174
495,PLAYER_SLEEPBEFORE_END,1516293924840,174
495,WS_SEND_START,1516293924840,174
495,WS_SEND_END,1516293924840,174
495,WS_RECV_START,1516293924840,175
495,WS_RECV_END,1516293925006,175
495,PLAYER_SLEEPBEFORE_START,1516293925006,176
495,PLAYER_SLEEPBEFORE_END,1516293946767,176
495,WS_SEND_START,1516293946767,176
495,WS_SEND_END,1516293946767,176
495,PLAYER_SLEEPBEFORE_START,1516293946767,177
495,PLAYER_SLEEPBEFORE_END,1516293949285,177
495,WS_SEND_START,1516293949285,177
495,WS_SEND_END,1516293949285,177
495,WS_RECV_START,1516293949285,178
495,WS_RECV_END,1516293949586,178
495,PLAYER_SLEEPBEFORE_START,1516293949586,179
495,PLAYER_SLEEPBEFORE_END,1516293971926,179
495,WS_SEND_START,1516293971926,179
495,WS_SEND_END,1516293971926,179
495,WS_RECV_START,1516293971926,180
495,WS_RECV_END,1516293972040,180
495,PLAYER_SLEEPBEFORE_START,1516293972040,181
495,PLAYER_SLEEPBEFORE_END,1516293972484,181
495,WS_SEND_START,1516293972484,181
495,WS_SEND_END,1516293972484,181
495,WS_RECV_START,1516293972484,182
495,WS_RECV_END,1516293972599,182
495,PLAYER_SLEEPBEFORE_START,1516293972599,183
495,PLAYER_SLEEPBEFORE_END,1516293973122,183
495,WS_SEND_START,1516293973122,183
495,WS_SEND_END,1516293973122,183
495,WS_RECV_START,1516293973122,184
495,WS_RECV_END,1516293973292,184
495,PLAYER_SLEEPBEFORE_START,1516293973292,185
495,PLAYER_SLEEPBEFORE_END,1516293973560,185
495,WS_SEND_START,1516293973560,185
495,WS_SEND_END,1516293973560,185
495,WS_RECV_START,1516293973560,186
495,WS_RECV_END,1516293973689,186
495,PLAYER_SLEEPBEFORE_START,1516293973689,187
495,PLAYER_SLEEPBEFORE_END,1516293996189,187
495,WS_SEND_START,1516293996189,187
495,WS_SEND_END,1516293996189,187
495,WS_RECV_START,1516293996189,188
495,WS_RECV_END,1516293996246,188
495,PLAYER_SLEEPBEFORE_START,1516293996246,189
495,PLAYER_SLEEPBEFORE_END,1516294002486,189
495,WS_SEND_START,1516294002486,189
495,WS_SEND_END,1516294002486,189
495,WS_RECV_START,1516294002486,190
495,WS_RECV_END,1516294002696,190
495,PLAYER_SLEEPBEFORE_START,1516294002696,191
495,PLAYER_SLEEPBEFORE_END,1516294004611,191
495,WS_SEND_START,1516294004611,191
495,WS_SEND_END,1516294004611,191
495,WS_RECV_START,1516294004611,192
495,WS_RECV_END,1516294004720,192
495,PLAYER_SLEEPBEFORE_START,1516294004720,193
495,PLAYER_SLEEPBEFORE_END,1516294004848,193
495,WS_SEND_START,1516294004848,193
495,WS_SEND_END,1516294004848,193
495,WS_RECV_START,1516294004848,194
495,WS_RECV_END,1516294004975,194
495,PLAYER_SLEEPBEFORE_START,1516294004975,195
495,PLAYER_SLEEPBEFORE_END,1516294006731,195
495,WS_SEND_START,1516294006731,195
495,WS_SEND_END,1516294006731,195
495,WS_RECV_START,1516294006731,196
495,WS_RECV_END,1516294006848,196
495,PLAYER_SLEEPBEFORE_START,1516294006848,197
495,PLAYER_SLEEPBEFORE_END,1516294008652,197
495,WS_SEND_START,1516294008652,197
495,WS_SEND_END,1516294008652,197
495,WS_RECV_START,1516294008652,198
495,WS_RECV_END,1516294008847,198
495,PLAYER_SLEEPBEFORE_START,1516294008847,199
495,PLAYER_SLEEPBEFORE_END,1516294020701,199
495,WS_SEND_START,1516294020701,199
495,WS_SEND_END,1516294020701,199
495,PLAYER_SLEEPBEFORE_START,1516294020701,200
495,PLAYER_SLEEPBEFORE_END,1516294024789,200
495,WS_SEND_START,1516294024789,200
495,WS_SEND_END,1516294024789,200
495,WS_RECV_START,1516294024789,201
495,WS_RECV_END,1516294024897,201
495,PLAYER_SLEEPBEFORE_START,1516294024897,202
495,PLAYER_SLEEPBEFORE_END,1516294024911,202
495,WS_SEND_START,1516294024911,202
495,WS_SEND_END,1516294024911,202
495,WS_RECV_START,1516294024911,203
495,WS_RECV_END,1516294025208,203
495,PLAYER_SLEEPBEFORE_START,1516294025208,204
495,PLAYER_SLEEPBEFORE_END,1516294044857,204
495,WS_SEND_START,1516294044857,204
495,WS_SEND_END,1516294044857,204
495,PLAYER_SLEEPBEFORE_START,1516294044857,205
495,PLAYER_SLEEPBEFORE_END,1516294048755,205
495,WS_SEND_START,1516294048755,205
495,WS_SEND_END,1516294048755,205
495,WS_RECV_START,1516294048755,206
495,WS_RECV_END,1516294048901,206
495,PLAYER_SLEEPBEFORE_START,1516294048901,207
495,PLAYER_SLEEPBEFORE_END,1516294065832,207
495,REQ_START,1516294065832,207
495,REQ_END,1516294065839,207
495,PLAYER_SLEEPBEFORE_START,1516294065839,208
495,PLAYER_SLEEPBEFORE_END,1516294072691,208
495,WS_CLOSE_START,1516294072691,208
495,WS_CLOSE_END,1516294072691,208
495,PLAYER_DONE,1516294072691
