# --sessions 630 --app-url=http://shinyloadtest.rstudioservices.com/cran_explorer --output-dir test630 --overwrite-output --log-level warn --start-interval 800 15min.log
thread_id,event,timestamp,input_line_number,comment
505,PLAYER_SESSION_CREATE,1516292633626
505,PLAYER_START_INTERVAL_START,1516292633626
505,PLAYER_START_INTERVAL_END,1516293037626
505,REQ_HOME_START,1516293037626,2
505,REQ_HOME_END,1516293038010,2
505,REQ_START,1516293038010,3
505,REQ_END,1516293038695,3
505,REQ_START,1516293038695,4
505,REQ_END,1516293039009,4
505,REQ_START,1516293039009,5
505,REQ_END,1516293039059,5
505,REQ_START,1516293039059,6
505,REQ_END,1516293039096,6
505,REQ_START,1516293039096,7
505,REQ_END,1516293039142,7
505,REQ_START,1516293039142,8
505,REQ_END,1516293039180,8
505,REQ_START,1516293039180,9
505,REQ_END,1516293039240,9
505,REQ_START,1516293039240,10
505,REQ_END,1516293039248,10
505,REQ_START,1516293039248,11
505,REQ_END,1516293039278,11
505,REQ_START,1516293039278,12
505,REQ_END,1516293039289,12
505,REQ_START,1516293039289,13
505,REQ_END,1516293039318,13
505,REQ_START,1516293039318,14
505,REQ_END,1516293039333,14
505,REQ_START,1516293039333,15
505,REQ_END,1516293039367,15
505,REQ_TOK_START,1516293039367,16
505,REQ_TOK_END,1516293039380,16
505,REQ_SINF_START,1516293039380,17
505,REQ_SINF_END,1516293039387,17
505,WS_OPEN_START,1516293039387,18
505,WS_OPEN_END,1516293039394,18
505,REQ_START,1516293039394,19
505,REQ_END,1516293039419,19
505,WS_RECV_START,1516293039419,20
505,WS_RECV_END,1516293039419,20
505,PLAYER_SLEEPBEFORE_START,1516293039419,21
505,PLAYER_SLEEPBEFORE_END,1516293039424,21
505,WS_SEND_START,1516293039424,21
505,WS_SEND_END,1516293039424,21
505,PLAYER_SLEEPBEFORE_START,1516293039424,22
505,PLAYER_SLEEPBEFORE_END,1516293039426,22
505,WS_SEND_START,1516293039426,22
505,WS_SEND_END,1516293039426,22
505,WS_RECV_INIT_START,1516293039426,23
505,WS_RECV_INIT_END,1516293039443,23
505,WS_RECV_START,1516293039443,24
505,WS_RECV_END,1516293039515,24
505,PLAYER_SLEEPBEFORE_START,1516293039515,25
505,PLAYER_SLEEPBEFORE_END,1516293039522,25
505,REQ_START,1516293039522,25
505,REQ_END,1516293039554,25
505,PLAYER_SLEEPBEFORE_START,1516293039554,26
505,PLAYER_SLEEPBEFORE_END,1516293039555,26
505,REQ_START,1516293039555,26
505,REQ_END,1516293039588,26
505,PLAYER_SLEEPBEFORE_START,1516293039588,27
505,PLAYER_SLEEPBEFORE_END,1516293039591,27
505,REQ_START,1516293039591,27
505,REQ_END,1516293039626,27
505,PLAYER_SLEEPBEFORE_START,1516293039626,28
505,PLAYER_SLEEPBEFORE_END,1516293039911,28
505,REQ_START,1516293039911,28
505,REQ_END,1516293040242,28
505,PLAYER_SLEEPBEFORE_START,1516293040242,29
505,PLAYER_SLEEPBEFORE_END,1516293040417,29
505,WS_SEND_START,1516293040417,29
505,WS_SEND_END,1516293040417,29
505,WS_RECV_START,1516293040417,30
505,WS_RECV_END,1516293040694,30
505,PLAYER_SLEEPBEFORE_START,1516293040694,31
505,PLAYER_SLEEPBEFORE_END,1516293040705,31
505,REQ_START,1516293040705,31
505,REQ_END,1516293041919,31
505,PLAYER_SLEEPBEFORE_START,1516293041919,32
505,PLAYER_SLEEPBEFORE_END,1516293070064,32
505,WS_SEND_START,1516293070064,32
505,WS_SEND_END,1516293070064,32
505,WS_RECV_START,1516293070064,33
505,WS_RECV_END,1516293070195,33
505,PLAYER_SLEEPBEFORE_START,1516293070195,34
505,PLAYER_SLEEPBEFORE_END,1516293096107,34
505,WS_SEND_START,1516293096107,34
505,WS_SEND_END,1516293096107,34
505,WS_RECV_START,1516293096107,35
505,WS_RECV_END,1516293096547,35
505,PLAYER_SLEEPBEFORE_START,1516293096547,36
505,PLAYER_SLEEPBEFORE_END,1516293096556,36
505,WS_SEND_START,1516293096556,36
505,WS_SEND_END,1516293096556,36
505,WS_RECV_START,1516293096556,37
505,WS_RECV_END,1516293097008,37
505,PLAYER_SLEEPBEFORE_START,1516293097008,38
505,PLAYER_SLEEPBEFORE_END,1516293100203,38
505,WS_SEND_START,1516293100203,38
505,WS_SEND_END,1516293100203,38
505,WS_RECV_START,1516293100203,39
505,WS_RECV_END,1516293100657,39
505,PLAYER_SLEEPBEFORE_START,1516293100657,40
505,PLAYER_SLEEPBEFORE_END,1516293100703,40
505,WS_SEND_START,1516293100703,40
505,WS_SEND_END,1516293100703,40
505,WS_RECV_START,1516293100703,41
505,WS_RECV_END,1516293101182,41
505,PLAYER_SLEEPBEFORE_START,1516293101182,42
505,PLAYER_SLEEPBEFORE_END,1516293119317,42
505,WS_SEND_START,1516293119317,42
505,WS_SEND_END,1516293119317,42
505,WS_RECV_START,1516293119317,43
505,WS_RECV_END,1516293119356,43
505,PLAYER_SLEEPBEFORE_START,1516293119356,44
505,PLAYER_SLEEPBEFORE_END,1516293119368,44
505,WS_SEND_START,1516293119368,44
505,WS_SEND_END,1516293119368,44
505,WS_RECV_START,1516293119368,45
505,WS_RECV_END,1516293119448,45
505,PLAYER_SLEEPBEFORE_START,1516293119448,46
505,PLAYER_SLEEPBEFORE_END,1516293120708,46
505,WS_SEND_START,1516293120708,46
505,WS_SEND_END,1516293120708,46
505,WS_RECV_START,1516293120708,47
505,WS_RECV_END,1516293121519,47
505,PLAYER_SLEEPBEFORE_START,1516293121519,48
505,PLAYER_SLEEPBEFORE_END,1516293122839,48
505,WS_SEND_START,1516293122839,48
505,WS_SEND_END,1516293122839,48
505,WS_RECV_START,1516293122839,49
505,WS_RECV_END,1516293124815,49
505,PLAYER_SLEEPBEFORE_START,1516293124815,50
505,PLAYER_SLEEPBEFORE_END,1516293124839,50
505,WS_SEND_START,1516293124839,50
505,WS_SEND_END,1516293124839,50
505,WS_RECV_START,1516293124839,51
505,WS_RECV_END,1516293125984,51
505,PLAYER_SLEEPBEFORE_START,1516293125984,52
505,PLAYER_SLEEPBEFORE_END,1516293148548,52
505,WS_SEND_START,1516293148548,52
505,WS_SEND_END,1516293148548,52
505,WS_RECV_START,1516293148548,53
505,WS_RECV_END,1516293149803,53
505,PLAYER_SLEEPBEFORE_START,1516293149803,54
505,PLAYER_SLEEPBEFORE_END,1516293171107,54
505,WS_SEND_START,1516293171107,54
505,WS_SEND_END,1516293171107,54
505,PLAYER_SLEEPBEFORE_START,1516293171107,55
505,PLAYER_SLEEPBEFORE_END,1516293173048,55
505,WS_SEND_START,1516293173048,55
505,WS_SEND_END,1516293173048,55
505,WS_RECV_START,1516293173048,56
505,WS_RECV_END,1516293173533,56
505,PLAYER_SLEEPBEFORE_START,1516293173533,57
505,PLAYER_SLEEPBEFORE_END,1516293196405,57
505,WS_SEND_START,1516293196405,57
505,WS_SEND_END,1516293196405,57
505,WS_RECV_START,1516293196405,58
505,WS_RECV_END,1516293197554,58
505,PLAYER_SLEEPBEFORE_START,1516293197554,59
505,PLAYER_SLEEPBEFORE_END,1516293199881,59
505,WS_SEND_START,1516293199881,59
505,WS_SEND_END,1516293199881,59
505,WS_RECV_START,1516293199881,60
505,WS_RECV_END,1516293201750,60
505,PLAYER_SLEEPBEFORE_START,1516293201750,61
505,PLAYER_SLEEPBEFORE_END,1516293205341,61
505,WS_SEND_START,1516293205341,61
505,WS_SEND_END,1516293205341,61
505,WS_RECV_START,1516293205341,62
505,WS_RECV_END,1516293205657,62
505,PLAYER_SLEEPBEFORE_START,1516293205657,63
505,PLAYER_SLEEPBEFORE_END,1516293224924,63
505,WS_SEND_START,1516293224924,63
505,WS_SEND_END,1516293224924,63
505,WS_RECV_START,1516293224924,64
505,WS_RECV_END,1516293227322,64
505,PLAYER_SLEEPBEFORE_START,1516293227322,65
505,PLAYER_SLEEPBEFORE_END,1516293254139,65
505,WS_SEND_START,1516293254139,65
505,WS_SEND_END,1516293254139,65
505,WS_RECV_START,1516293254139,66
505,WS_RECV_END,1516293256219,66
505,PLAYER_SLEEPBEFORE_START,1516293256220,67
505,PLAYER_SLEEPBEFORE_END,1516293257727,67
505,WS_SEND_START,1516293257727,67
505,WS_SEND_END,1516293257727,67
505,WS_RECV_START,1516293257727,68
505,WS_RECV_END,1516293259480,68
505,PLAYER_SLEEPBEFORE_START,1516293259480,69
505,PLAYER_SLEEPBEFORE_END,1516293281478,69
505,WS_SEND_START,1516293281478,69
505,WS_SEND_END,1516293281478,69
505,WS_RECV_START,1516293281478,70
505,WS_RECV_END,1516293283281,70
505,PLAYER_SLEEPBEFORE_START,1516293283281,71
505,PLAYER_SLEEPBEFORE_END,1516293308056,71
505,WS_SEND_START,1516293308057,71
505,WS_SEND_END,1516293308057,71
505,PLAYER_SLEEPBEFORE_START,1516293308057,72
505,PLAYER_SLEEPBEFORE_END,1516293310664,72
505,WS_SEND_START,1516293310664,72
505,WS_SEND_END,1516293310664,72
505,WS_RECV_START,1516293310664,73
505,WS_RECV_END,1516293312280,73
505,PLAYER_SLEEPBEFORE_START,1516293312280,74
505,PLAYER_SLEEPBEFORE_END,1516293312289,74
505,WS_SEND_START,1516293312289,74
505,WS_SEND_END,1516293312289,74
505,WS_RECV_START,1516293312289,75
505,WS_RECV_END,1516293314517,75
505,PLAYER_SLEEPBEFORE_START,1516293314517,76
505,PLAYER_SLEEPBEFORE_END,1516293316023,76
505,WS_SEND_START,1516293316023,76
505,WS_SEND_END,1516293316023,76
505,WS_RECV_START,1516293316023,77
505,WS_RECV_END,1516293316304,77
505,PLAYER_SLEEPBEFORE_START,1516293316304,78
505,PLAYER_SLEEPBEFORE_END,1516293317172,78
505,WS_SEND_START,1516293317172,78
505,WS_SEND_END,1516293317172,78
505,WS_RECV_START,1516293317172,79
505,WS_RECV_END,1516293318169,79
505,PLAYER_SLEEPBEFORE_START,1516293318169,80
505,PLAYER_SLEEPBEFORE_END,1516293325836,80
505,WS_SEND_START,1516293325836,80
505,WS_SEND_END,1516293325836,80
505,WS_RECV_START,1516293325836,81
505,WS_RECV_END,1516293327754,81
505,PLAYER_SLEEPBEFORE_START,1516293327754,82
505,PLAYER_SLEEPBEFORE_END,1516293328856,82
505,WS_SEND_START,1516293328856,82
505,WS_SEND_END,1516293328856,82
505,WS_RECV_START,1516293328856,83
505,WS_RECV_END,1516293330813,83
505,PLAYER_SLEEPBEFORE_START,1516293330813,84
505,PLAYER_SLEEPBEFORE_END,1516293331760,84
505,WS_SEND_START,1516293331760,84
505,WS_SEND_END,1516293331760,84
505,WS_RECV_START,1516293331760,85
505,WS_RECV_END,1516293333233,85
505,PLAYER_SLEEPBEFORE_START,1516293333233,86
505,PLAYER_SLEEPBEFORE_END,1516293337405,86
505,WS_SEND_START,1516293337405,86
505,WS_SEND_END,1516293337405,86
505,WS_RECV_START,1516293337405,87
505,WS_RECV_END,1516293339736,87
505,PLAYER_SLEEPBEFORE_START,1516293339736,88
505,PLAYER_SLEEPBEFORE_END,1516293339744,88
505,WS_SEND_START,1516293339744,88
505,WS_SEND_END,1516293339744,88
505,WS_RECV_START,1516293339744,89
505,WS_RECV_END,1516293340478,89
505,PLAYER_SLEEPBEFORE_START,1516293340478,90
505,PLAYER_SLEEPBEFORE_END,1516293367675,90
505,REQ_START,1516293367675,90
505,REQ_END,1516293367682,90
505,PLAYER_SLEEPBEFORE_START,1516293367682,91
505,PLAYER_SLEEPBEFORE_END,1516293375572,91
505,WS_SEND_START,1516293375572,91
505,WS_SEND_END,1516293375572,91
505,WS_RECV_START,1516293375572,92
505,WS_RECV_END,1516293379739,92
505,PLAYER_SLEEPBEFORE_START,1516293379739,93
505,PLAYER_SLEEPBEFORE_END,1516293379754,93
505,WS_SEND_START,1516293379754,93
505,WS_SEND_END,1516293379754,93
505,WS_RECV_START,1516293379754,94
505,WS_RECV_END,1516293383045,94
505,PLAYER_SLEEPBEFORE_START,1516293383045,95
505,PLAYER_SLEEPBEFORE_END,1516293406600,95
505,WS_SEND_START,1516293406600,95
505,WS_SEND_END,1516293406600,95
505,WS_RECV_START,1516293406600,96
505,WS_RECV_END,1516293408777,96
505,PLAYER_SLEEPBEFORE_START,1516293408777,97
505,PLAYER_SLEEPBEFORE_END,1516293431218,97
505,WS_SEND_START,1516293431218,97
505,WS_SEND_END,1516293431218,97
505,WS_RECV_START,1516293431218,98
505,WS_RECV_END,1516293433827,98
505,PLAYER_SLEEPBEFORE_START,1516293433827,99
505,PLAYER_SLEEPBEFORE_END,1516293433848,99
505,WS_SEND_START,1516293433848,99
505,WS_SEND_END,1516293433848,99
505,WS_RECV_START,1516293433848,100
505,WS_RECV_END,1516293436251,100
505,PLAYER_SLEEPBEFORE_START,1516293436251,101
505,PLAYER_SLEEPBEFORE_END,1516293459810,101
505,WS_SEND_START,1516293459810,101
505,WS_SEND_END,1516293459810,101
505,WS_RECV_START,1516293459810,102
505,WS_RECV_END,1516293464230,102
505,PLAYER_SLEEPBEFORE_START,1516293464230,103
505,PLAYER_SLEEPBEFORE_END,1516293487855,103
505,WS_SEND_START,1516293487855,103
505,WS_SEND_END,1516293487855,103
505,WS_RECV_START,1516293487855,104
505,WS_RECV_END,1516293493209,104
505,PLAYER_SLEEPBEFORE_START,1516293493209,105
505,PLAYER_SLEEPBEFORE_END,1516293518586,105
505,WS_SEND_START,1516293518586,105
505,WS_SEND_END,1516293518586,105
505,WS_RECV_START,1516293518586,106
505,WS_RECV_END,1516293523676,106
505,PLAYER_SLEEPBEFORE_START,1516293523676,107
505,PLAYER_SLEEPBEFORE_END,1516293547099,107
505,WS_SEND_START,1516293547099,107
505,WS_SEND_END,1516293547099,107
505,WS_RECV_START,1516293547099,108
505,WS_RECV_END,1516293552552,108
505,PLAYER_SLEEPBEFORE_START,1516293552552,109
505,PLAYER_SLEEPBEFORE_END,1516293552562,109
505,WS_SEND_START,1516293552562,109
505,WS_SEND_END,1516293552562,109
505,WS_RECV_START,1516293552562,110
505,WS_RECV_END,1516293553822,110
505,PLAYER_SLEEPBEFORE_START,1516293553822,111
505,PLAYER_SLEEPBEFORE_END,1516293554781,111
505,WS_SEND_START,1516293554781,111
505,WS_SEND_END,1516293554781,111
505,WS_RECV_START,1516293554781,112
505,WS_RECV_END,1516293556753,112
505,PLAYER_SLEEPBEFORE_START,1516293556753,113
505,PLAYER_SLEEPBEFORE_END,1516293557315,113
505,WS_SEND_START,1516293557315,113
505,WS_SEND_END,1516293557315,113
505,WS_RECV_START,1516293557315,114
505,WS_RECV_END,1516293559949,114
505,PLAYER_SLEEPBEFORE_START,1516293559949,115
505,PLAYER_SLEEPBEFORE_END,1516293559959,115
505,WS_SEND_START,1516293559959,115
505,WS_SEND_END,1516293559959,115
505,WS_RECV_START,1516293559959,116
505,WS_RECV_END,1516293564415,116
505,PLAYER_SLEEPBEFORE_START,1516293564415,117
505,PLAYER_SLEEPBEFORE_END,1516293584775,117
505,WS_SEND_START,1516293584775,117
505,WS_SEND_END,1516293584775,117
505,PLAYER_SLEEPBEFORE_START,1516293584775,118
505,PLAYER_SLEEPBEFORE_END,1516293588527,118
505,WS_SEND_START,1516293588527,118
505,WS_SEND_END,1516293588527,118
505,WS_RECV_START,1516293588527,119
505,WS_RECV_END,1516293591263,119
505,PLAYER_SLEEPBEFORE_START,1516293591263,120
505,PLAYER_SLEEPBEFORE_END,1516293592251,120
505,WS_SEND_START,1516293592251,120
505,WS_SEND_END,1516293592251,120
505,WS_RECV_START,1516293592251,121
505,WS_RECV_END,1516293594688,121
505,PLAYER_SLEEPBEFORE_START,1516293594688,122
505,PLAYER_SLEEPBEFORE_END,1516293595873,122
505,WS_SEND_START,1516293595873,122
505,WS_SEND_END,1516293595873,122
505,WS_RECV_START,1516293595873,123
505,WS_RECV_END,1516293598847,123
505,PLAYER_SLEEPBEFORE_START,1516293598847,124
505,PLAYER_SLEEPBEFORE_END,1516293623252,124
505,WS_SEND_START,1516293623252,124
505,WS_SEND_END,1516293623252,124
505,WS_RECV_START,1516293623252,125
505,WS_RECV_END,1516293629493,125
505,PLAYER_SLEEPBEFORE_START,1516293629493,126
505,PLAYER_SLEEPBEFORE_END,1516293650006,126
505,WS_SEND_START,1516293650006,126
505,WS_SEND_END,1516293650006,126
505,PLAYER_SLEEPBEFORE_START,1516293650006,127
505,PLAYER_SLEEPBEFORE_END,1516293653060,127
505,WS_SEND_START,1516293653060,127
505,WS_SEND_END,1516293653060,127
505,WS_RECV_START,1516293653060,128
505,WS_RECV_END,1516293655117,128
505,PLAYER_SLEEPBEFORE_START,1516293655117,129
505,PLAYER_SLEEPBEFORE_END,1516293655137,129
505,WS_SEND_START,1516293655137,129
505,WS_SEND_END,1516293655137,129
505,WS_RECV_START,1516293655137,130
505,WS_RECV_END,1516293661555,130
505,PLAYER_SLEEPBEFORE_START,1516293661555,131
505,PLAYER_SLEEPBEFORE_END,1516293683180,131
505,WS_SEND_START,1516293683180,131
505,WS_SEND_END,1516293683180,131
505,PLAYER_SLEEPBEFORE_START,1516293683180,132
505,PLAYER_SLEEPBEFORE_END,1516293686260,132
505,WS_SEND_START,1516293686260,132
505,WS_SEND_END,1516293686260,132
505,WS_RECV_START,1516293686260,133
505,WS_RECV_END,1516293686751,133
505,PLAYER_SLEEPBEFORE_START,1516293686751,134
505,PLAYER_SLEEPBEFORE_END,1516293707968,134
505,WS_SEND_START,1516293707968,134
505,WS_SEND_END,1516293707968,134
505,PLAYER_SLEEPBEFORE_START,1516293707968,135
505,PLAYER_SLEEPBEFORE_END,1516293711159,135
505,WS_SEND_START,1516293711159,135
505,WS_SEND_END,1516293711159,135
505,WS_RECV_START,1516293711159,136
505,WS_RECV_END,1516293713433,136
505,PLAYER_SLEEPBEFORE_START,1516293713433,137
505,PLAYER_SLEEPBEFORE_END,1516293713440,137
505,WS_SEND_START,1516293713440,137
505,WS_SEND_END,1516293713440,137
505,WS_RECV_START,1516293713440,138
505,WS_RECV_END,1516293714618,138
505,PLAYER_SLEEPBEFORE_START,1516293714618,139
505,PLAYER_SLEEPBEFORE_END,1516293715309,139
505,WS_SEND_START,1516293715309,139
505,WS_SEND_END,1516293715309,139
505,WS_RECV_START,1516293715309,140
505,WS_RECV_END,1516293716147,140
505,PLAYER_SLEEPBEFORE_START,1516293716147,141
505,PLAYER_SLEEPBEFORE_END,1516293716802,141
505,WS_SEND_START,1516293716802,141
505,WS_SEND_END,1516293716802,141
505,WS_RECV_START,1516293716802,142
505,WS_RECV_END,1516293717673,142
505,PLAYER_SLEEPBEFORE_START,1516293717673,143
505,PLAYER_SLEEPBEFORE_END,1516293717730,143
505,WS_SEND_START,1516293717730,143
505,WS_SEND_END,1516293717730,143
505,WS_RECV_START,1516293717730,144
505,WS_RECV_END,1516293718688,144
505,PLAYER_SLEEPBEFORE_START,1516293718688,145
505,PLAYER_SLEEPBEFORE_END,1516293734750,145
505,REQ_START,1516293734750,145
505,REQ_END,1516293734758,145
505,PLAYER_SLEEPBEFORE_START,1516293734758,146
505,PLAYER_SLEEPBEFORE_END,1516293743635,146
505,WS_SEND_START,1516293743635,146
505,WS_SEND_END,1516293743635,146
505,WS_RECV_START,1516293743635,147
505,WS_RECV_END,1516293745488,147
505,PLAYER_SLEEPBEFORE_START,1516293745488,148
505,PLAYER_SLEEPBEFORE_END,1516293767410,148
505,WS_SEND_START,1516293767410,148
505,WS_SEND_END,1516293767410,148
505,PLAYER_SLEEPBEFORE_START,1516293767410,149
505,PLAYER_SLEEPBEFORE_END,1516293769838,149
505,WS_SEND_START,1516293769838,149
505,WS_SEND_END,1516293769839,149
505,WS_RECV_START,1516293769839,150
505,WS_RECV_END,1516293770441,150
505,PLAYER_SLEEPBEFORE_START,1516293770441,151
505,PLAYER_SLEEPBEFORE_END,1516293770651,151
505,WS_SEND_START,1516293770651,151
505,WS_SEND_END,1516293770651,151
505,WS_RECV_START,1516293770651,152
505,WS_RECV_END,1516293771483,152
505,PLAYER_SLEEPBEFORE_START,1516293771483,153
505,PLAYER_SLEEPBEFORE_END,1516293795410,153
505,WS_SEND_START,1516293795410,153
505,WS_SEND_END,1516293795410,153
505,WS_RECV_START,1516293795410,154
505,WS_RECV_END,1516293795907,154
505,PLAYER_SLEEPBEFORE_START,1516293795907,155
505,PLAYER_SLEEPBEFORE_END,1516293818465,155
505,WS_SEND_START,1516293818465,155
505,WS_SEND_END,1516293818465,155
505,PLAYER_SLEEPBEFORE_START,1516293818465,156
505,PLAYER_SLEEPBEFORE_END,1516293821739,156
505,WS_SEND_START,1516293821739,156
505,WS_SEND_END,1516293821739,156
505,WS_RECV_START,1516293821739,157
505,WS_RECV_END,1516293821892,157
505,PLAYER_SLEEPBEFORE_START,1516293821892,158
505,PLAYER_SLEEPBEFORE_END,1516293821902,158
505,WS_SEND_START,1516293821902,158
505,WS_SEND_END,1516293821902,158
505,WS_RECV_START,1516293821902,159
505,WS_RECV_END,1516293822439,159
505,PLAYER_SLEEPBEFORE_START,1516293822439,160
505,PLAYER_SLEEPBEFORE_END,1516293822614,160
505,WS_SEND_START,1516293822614,160
505,WS_SEND_END,1516293822614,160
505,WS_RECV_START,1516293822614,161
505,WS_RECV_END,1516293822833,161
505,PLAYER_SLEEPBEFORE_START,1516293822834,162
505,PLAYER_SLEEPBEFORE_END,1516293822859,162
505,WS_SEND_START,1516293822859,162
505,WS_SEND_END,1516293822859,162
505,WS_RECV_START,1516293822859,163
505,WS_RECV_END,1516293823054,163
505,PLAYER_SLEEPBEFORE_START,1516293823054,164
505,PLAYER_SLEEPBEFORE_END,1516293843866,164
505,WS_SEND_START,1516293843866,164
505,WS_SEND_END,1516293843866,164
505,WS_RECV_START,1516293843866,165
505,WS_RECV_END,1516293844048,165
505,PLAYER_SLEEPBEFORE_START,1516293844048,166
505,PLAYER_SLEEPBEFORE_END,1516293866503,166
505,WS_SEND_START,1516293866503,166
505,WS_SEND_END,1516293866504,166
505,WS_RECV_START,1516293866504,167
505,WS_RECV_END,1516293866964,167
505,PLAYER_SLEEPBEFORE_START,1516293866964,168
505,PLAYER_SLEEPBEFORE_END,1516293894321,168
505,WS_SEND_START,1516293894321,168
505,WS_SEND_END,1516293894321,168
505,WS_RECV_START,1516293894321,169
505,WS_RECV_END,1516293894350,169
505,PLAYER_SLEEPBEFORE_START,1516293894350,170
505,PLAYER_SLEEPBEFORE_END,1516293894359,170
505,WS_SEND_START,1516293894359,170
505,WS_SEND_END,1516293894359,170
505,WS_RECV_START,1516293894359,171
505,WS_RECV_END,1516293894399,171
505,PLAYER_SLEEPBEFORE_START,1516293894399,172
505,PLAYER_SLEEPBEFORE_END,1516293894768,172
505,WS_SEND_START,1516293894768,172
505,WS_SEND_END,1516293894768,172
505,WS_RECV_START,1516293894768,173
505,WS_RECV_END,1516293895000,173
505,PLAYER_SLEEPBEFORE_START,1516293895000,174
505,PLAYER_SLEEPBEFORE_END,1516293895041,174
505,WS_SEND_START,1516293895041,174
505,WS_SEND_END,1516293895041,174
505,WS_RECV_START,1516293895041,175
505,WS_RECV_END,1516293895428,175
505,PLAYER_SLEEPBEFORE_START,1516293895428,176
505,PLAYER_SLEEPBEFORE_END,1516293917189,176
505,WS_SEND_START,1516293917189,176
505,WS_SEND_END,1516293917189,176
505,PLAYER_SLEEPBEFORE_START,1516293917189,177
505,PLAYER_SLEEPBEFORE_END,1516293919708,177
505,WS_SEND_START,1516293919708,177
505,WS_SEND_END,1516293919708,177
505,WS_RECV_START,1516293919708,178
505,WS_RECV_END,1516293919902,178
505,PLAYER_SLEEPBEFORE_START,1516293919902,179
505,PLAYER_SLEEPBEFORE_END,1516293942242,179
505,WS_SEND_START,1516293942242,179
505,WS_SEND_END,1516293942242,179
505,WS_RECV_START,1516293942242,180
505,WS_RECV_END,1516293942436,180
505,PLAYER_SLEEPBEFORE_START,1516293942436,181
505,PLAYER_SLEEPBEFORE_END,1516293942880,181
505,WS_SEND_START,1516293942880,181
505,WS_SEND_END,1516293942880,181
505,WS_RECV_START,1516293942880,182
505,WS_RECV_END,1516293943044,182
505,PLAYER_SLEEPBEFORE_START,1516293943044,183
505,PLAYER_SLEEPBEFORE_END,1516293943567,183
505,WS_SEND_START,1516293943567,183
505,WS_SEND_END,1516293943567,183
505,WS_RECV_START,1516293943567,184
505,WS_RECV_END,1516293943754,184
505,PLAYER_SLEEPBEFORE_START,1516293943754,185
505,PLAYER_SLEEPBEFORE_END,1516293944022,185
505,WS_SEND_START,1516293944022,185
505,WS_SEND_END,1516293944022,185
505,WS_RECV_START,1516293944022,186
505,WS_RECV_END,1516293944153,186
505,PLAYER_SLEEPBEFORE_START,1516293944153,187
505,PLAYER_SLEEPBEFORE_END,1516293966653,187
505,WS_SEND_START,1516293966653,187
505,WS_SEND_END,1516293966653,187
505,WS_RECV_START,1516293966653,188
505,WS_RECV_END,1516293966693,188
505,PLAYER_SLEEPBEFORE_START,1516293966693,189
505,PLAYER_SLEEPBEFORE_END,1516293972933,189
505,WS_SEND_START,1516293972933,189
505,WS_SEND_END,1516293972933,189
505,WS_RECV_START,1516293972933,190
505,WS_RECV_END,1516293973037,190
505,PLAYER_SLEEPBEFORE_START,1516293973037,191
505,PLAYER_SLEEPBEFORE_END,1516293974952,191
505,WS_SEND_START,1516293974952,191
505,WS_SEND_END,1516293974952,191
505,WS_RECV_START,1516293974952,192
505,WS_RECV_END,1516293975057,192
505,PLAYER_SLEEPBEFORE_START,1516293975057,193
505,PLAYER_SLEEPBEFORE_END,1516293975185,193
505,WS_SEND_START,1516293975185,193
505,WS_SEND_END,1516293975185,193
505,WS_RECV_START,1516293975185,194
505,WS_RECV_END,1516293975413,194
505,PLAYER_SLEEPBEFORE_START,1516293975413,195
505,PLAYER_SLEEPBEFORE_END,1516293977168,195
505,WS_SEND_START,1516293977168,195
505,WS_SEND_END,1516293977168,195
505,WS_RECV_START,1516293977168,196
505,WS_RECV_END,1516293977275,196
505,PLAYER_SLEEPBEFORE_START,1516293977275,197
505,PLAYER_SLEEPBEFORE_END,1516293979079,197
505,WS_SEND_START,1516293979079,197
505,WS_SEND_END,1516293979079,197
505,WS_RECV_START,1516293979079,198
505,WS_RECV_END,1516293979208,198
505,PLAYER_SLEEPBEFORE_START,1516293979208,199
505,PLAYER_SLEEPBEFORE_END,1516293991062,199
505,WS_SEND_START,1516293991062,199
505,WS_SEND_END,1516293991062,199
505,PLAYER_SLEEPBEFORE_START,1516293991062,200
505,PLAYER_SLEEPBEFORE_END,1516293995150,200
505,WS_SEND_START,1516293995150,200
505,WS_SEND_END,1516293995150,200
505,WS_RECV_START,1516293995150,201
505,WS_RECV_END,1516293995278,201
505,PLAYER_SLEEPBEFORE_START,1516293995278,202
505,PLAYER_SLEEPBEFORE_END,1516293995292,202
505,WS_SEND_START,1516293995292,202
505,WS_SEND_END,1516293995292,202
505,WS_RECV_START,1516293995292,203
505,WS_RECV_END,1516293995431,203
505,PLAYER_SLEEPBEFORE_START,1516293995431,204
505,PLAYER_SLEEPBEFORE_END,1516294015080,204
505,WS_SEND_START,1516294015080,204
505,WS_SEND_END,1516294015080,204
505,PLAYER_SLEEPBEFORE_START,1516294015080,205
505,PLAYER_SLEEPBEFORE_END,1516294018978,205
505,WS_SEND_START,1516294018978,205
505,WS_SEND_END,1516294018978,205
505,WS_RECV_START,1516294018978,206
505,WS_RECV_END,1516294019080,206
505,PLAYER_SLEEPBEFORE_START,1516294019080,207
505,PLAYER_SLEEPBEFORE_END,1516294036011,207
505,REQ_START,1516294036011,207
505,REQ_END,1516294036020,207
505,PLAYER_SLEEPBEFORE_START,1516294036020,208
505,PLAYER_SLEEPBEFORE_END,1516294042872,208
505,WS_CLOSE_START,1516294042872,208
505,WS_CLOSE_END,1516294042872,208
505,PLAYER_DONE,1516294042872
