# --sessions 630 --app-url=http://shinyloadtest.rstudioservices.com/cran_explorer --output-dir test630 --overwrite-output --log-level warn --start-interval 800 15min.log
thread_id,event,timestamp,input_line_number,comment
593,PLAYER_SESSION_CREATE,1516292633641
593,PLAYER_START_INTERVAL_START,1516292633641
593,PLAYER_START_INTERVAL_END,1516293108042
593,REQ_HOME_START,1516293108042,2
593,REQ_HOME_END,1516293109318,2
593,REQ_START,1516293109318,3
593,REQ_END,1516293110594,3
593,REQ_START,1516293110594,4
593,REQ_END,1516293111403,4
593,REQ_START,1516293111403,5
593,REQ_END,1516293113114,5
593,REQ_START,1516293113114,6
593,REQ_END,1516293114231,6
593,REQ_START,1516293114231,7
593,REQ_END,1516293115701,7
593,REQ_START,1516293115701,8
593,REQ_END,1516293117678,8
593,REQ_START,1516293117678,9
593,REQ_END,1516293119130,9
593,REQ_START,1516293119130,10
593,REQ_END,1516293119138,10
593,REQ_START,1516293119138,11
593,REQ_END,1516293119304,11
593,REQ_START,1516293119304,12
593,REQ_END,1516293119319,12
593,REQ_START,1516293119319,13
593,REQ_END,1516293119609,13
593,REQ_START,1516293119609,14
593,REQ_END,1516293119624,14
593,REQ_START,1516293119624,15
593,REQ_END,1516293119854,15
593,REQ_TOK_START,1516293119854,16
593,REQ_TOK_END,1516293119861,16
593,REQ_SINF_START,1516293119861,17
593,REQ_SINF_END,1516293119868,17
593,WS_OPEN_START,1516293119868,18
593,WS_OPEN_END,1516293119875,18
593,REQ_START,1516293119875,19
593,REQ_END,1516293120942,19
593,WS_RECV_START,1516293120942,20
593,WS_RECV_END,1516293120942,20
593,PLAYER_SLEEPBEFORE_START,1516293120942,21
593,PLAYER_SLEEPBEFORE_END,1516293120947,21
593,WS_SEND_START,1516293120947,21
593,WS_SEND_END,1516293120947,21
593,PLAYER_SLEEPBEFORE_START,1516293120947,22
593,PLAYER_SLEEPBEFORE_END,1516293120948,22
593,WS_SEND_START,1516293120948,22
593,WS_SEND_END,1516293120948,22
593,WS_RECV_INIT_START,1516293120948,23
593,WS_RECV_INIT_END,1516293124005,23
593,WS_RECV_START,1516293124005,24
593,WS_RECV_END,1516293124676,24
593,PLAYER_SLEEPBEFORE_START,1516293124676,25
593,PLAYER_SLEEPBEFORE_END,1516293124684,25
593,REQ_START,1516293124684,25
593,REQ_END,1516293127119,25
593,PLAYER_SLEEPBEFORE_START,1516293127119,26
593,PLAYER_SLEEPBEFORE_END,1516293127121,26
593,REQ_START,1516293127121,26
593,REQ_END,1516293127437,26
593,PLAYER_SLEEPBEFORE_START,1516293127437,27
593,PLAYER_SLEEPBEFORE_END,1516293127440,27
593,REQ_START,1516293127440,27
593,REQ_END,1516293127510,27
593,PLAYER_SLEEPBEFORE_START,1516293127510,28
593,PLAYER_SLEEPBEFORE_END,1516293127795,28
593,REQ_START,1516293127795,28
593,REQ_END,1516293129296,28
593,PLAYER_SLEEPBEFORE_START,1516293129296,29
593,PLAYER_SLEEPBEFORE_END,1516293129471,29
593,WS_SEND_START,1516293129471,29
593,WS_SEND_END,1516293129471,29
593,WS_RECV_START,1516293129471,30
593,WS_RECV_END,1516293129971,30
593,PLAYER_SLEEPBEFORE_START,1516293129971,31
593,PLAYER_SLEEPBEFORE_END,1516293129982,31
593,REQ_START,1516293129982,31
593,REQ_END,1516293130640,31
593,PLAYER_SLEEPBEFORE_START,1516293130640,32
593,PLAYER_SLEEPBEFORE_END,1516293158785,32
593,WS_SEND_START,1516293158785,32
593,WS_SEND_END,1516293158785,32
593,WS_RECV_START,1516293158785,33
593,WS_RECV_END,1516293159397,33
593,PLAYER_SLEEPBEFORE_START,1516293159397,34
593,PLAYER_SLEEPBEFORE_END,1516293185309,34
593,WS_SEND_START,1516293185309,34
593,WS_SEND_END,1516293185309,34
593,WS_RECV_START,1516293185309,35
593,WS_RECV_END,1516293185656,35
593,PLAYER_SLEEPBEFORE_START,1516293185656,36
593,PLAYER_SLEEPBEFORE_END,1516293185665,36
593,WS_SEND_START,1516293185665,36
593,WS_SEND_END,1516293185665,36
593,WS_RECV_START,1516293185665,37
593,WS_RECV_END,1516293185708,37
593,PLAYER_SLEEPBEFORE_START,1516293185708,38
593,PLAYER_SLEEPBEFORE_END,1516293188904,38
593,WS_SEND_START,1516293188904,38
593,WS_SEND_END,1516293188904,38
593,WS_RECV_START,1516293188904,39
593,WS_RECV_END,1516293189929,39
593,PLAYER_SLEEPBEFORE_START,1516293189929,40
593,PLAYER_SLEEPBEFORE_END,1516293189975,40
593,WS_SEND_START,1516293189975,40
593,WS_SEND_END,1516293189975,40
593,WS_RECV_START,1516293189975,41
593,WS_RECV_END,1516293190270,41
593,PLAYER_SLEEPBEFORE_START,1516293190270,42
593,PLAYER_SLEEPBEFORE_END,1516293208405,42
593,WS_SEND_START,1516293208405,42
593,WS_SEND_END,1516293208405,42
593,WS_RECV_START,1516293208405,43
593,WS_RECV_END,1516293209398,43
593,PLAYER_SLEEPBEFORE_START,1516293209398,44
593,PLAYER_SLEEPBEFORE_END,1516293209410,44
593,WS_SEND_START,1516293209410,44
593,WS_SEND_END,1516293209410,44
593,WS_RECV_START,1516293209410,45
593,WS_RECV_END,1516293210048,45
593,PLAYER_SLEEPBEFORE_START,1516293210048,46
593,PLAYER_SLEEPBEFORE_END,1516293211308,46
593,WS_SEND_START,1516293211308,46
593,WS_SEND_END,1516293211308,46
593,WS_RECV_START,1516293211308,47
593,WS_RECV_END,1516293212095,47
593,PLAYER_SLEEPBEFORE_START,1516293212095,48
593,PLAYER_SLEEPBEFORE_END,1516293213415,48
593,WS_SEND_START,1516293213415,48
593,WS_SEND_END,1516293213415,48
593,WS_RECV_START,1516293213415,49
593,WS_RECV_END,1516293214200,49
593,PLAYER_SLEEPBEFORE_START,1516293214200,50
593,PLAYER_SLEEPBEFORE_END,1516293214224,50
593,WS_SEND_START,1516293214224,50
593,WS_SEND_END,1516293214224,50
593,WS_RECV_START,1516293214224,51
593,WS_RECV_END,1516293215126,51
593,PLAYER_SLEEPBEFORE_START,1516293215126,52
593,PLAYER_SLEEPBEFORE_END,1516293237690,52
593,WS_SEND_START,1516293237690,52
593,WS_SEND_END,1516293237690,52
593,WS_RECV_START,1516293237690,53
593,WS_RECV_END,1516293240015,53
593,PLAYER_SLEEPBEFORE_START,1516293240015,54
593,PLAYER_SLEEPBEFORE_END,1516293261318,54
593,WS_SEND_START,1516293261318,54
593,WS_SEND_END,1516293261318,54
593,PLAYER_SLEEPBEFORE_START,1516293261318,55
593,PLAYER_SLEEPBEFORE_END,1516293263260,55
593,WS_SEND_START,1516293263260,55
593,WS_SEND_END,1516293263260,55
593,WS_RECV_START,1516293263260,56
593,WS_RECV_END,1516293264368,56
593,PLAYER_SLEEPBEFORE_START,1516293264368,57
593,PLAYER_SLEEPBEFORE_END,1516293287240,57
593,WS_SEND_START,1516293287240,57
593,WS_SEND_END,1516293287240,57
593,WS_RECV_START,1516293287240,58
593,WS_RECV_END,1516293289667,58
593,PLAYER_SLEEPBEFORE_START,1516293289667,59
593,PLAYER_SLEEPBEFORE_END,1516293291994,59
593,WS_SEND_START,1516293291994,59
593,WS_SEND_END,1516293291994,59
593,WS_RECV_START,1516293291994,60
593,WS_RECV_END,1516293294536,60
593,PLAYER_SLEEPBEFORE_START,1516293294536,61
593,PLAYER_SLEEPBEFORE_END,1516293298128,61
593,WS_SEND_START,1516293298128,61
593,WS_SEND_END,1516293298128,61
593,WS_RECV_START,1516293298128,62
593,WS_RECV_END,1516293300837,62
593,PLAYER_SLEEPBEFORE_START,1516293300837,63
593,PLAYER_SLEEPBEFORE_END,1516293320100,63
593,WS_SEND_START,1516293320100,63
593,WS_SEND_END,1516293320100,63
593,WS_RECV_START,1516293320100,64
593,WS_RECV_END,1516293321396,64
593,PLAYER_SLEEPBEFORE_START,1516293321396,65
593,PLAYER_SLEEPBEFORE_END,1516293348213,65
593,WS_SEND_START,1516293348213,65
593,WS_SEND_END,1516293348213,65
593,WS_RECV_START,1516293348213,66
593,WS_RECV_END,1516293351306,66
593,PLAYER_SLEEPBEFORE_START,1516293351306,67
593,PLAYER_SLEEPBEFORE_END,1516293352813,67
593,WS_SEND_START,1516293352814,67
593,WS_SEND_END,1516293352814,67
593,WS_RECV_START,1516293352814,68
593,WS_RECV_END,1516293355315,68
593,PLAYER_SLEEPBEFORE_START,1516293355315,69
593,PLAYER_SLEEPBEFORE_END,1516293377313,69
593,WS_SEND_START,1516293377313,69
593,WS_SEND_END,1516293377313,69
593,WS_RECV_START,1516293377313,70
593,WS_RECV_END,1516293381460,70
593,PLAYER_SLEEPBEFORE_START,1516293381460,71
593,PLAYER_SLEEPBEFORE_END,1516293406235,71
593,WS_SEND_START,1516293406235,71
593,WS_SEND_END,1516293406235,71
593,PLAYER_SLEEPBEFORE_START,1516293406235,72
593,PLAYER_SLEEPBEFORE_END,1516293408842,72
593,WS_SEND_START,1516293408842,72
593,WS_SEND_END,1516293408842,72
593,WS_RECV_START,1516293408842,73
593,WS_RECV_END,1516293413095,73
593,PLAYER_SLEEPBEFORE_START,1516293413095,74
593,PLAYER_SLEEPBEFORE_END,1516293413104,74
593,WS_SEND_START,1516293413104,74
593,WS_SEND_END,1516293413104,74
593,WS_RECV_START,1516293413104,75
593,WS_RECV_END,1516293416501,75
593,PLAYER_SLEEPBEFORE_START,1516293416501,76
593,PLAYER_SLEEPBEFORE_END,1516293418007,76
593,WS_SEND_START,1516293418007,76
593,WS_SEND_END,1516293418007,76
593,WS_RECV_START,1516293418007,77
593,WS_RECV_END,1516293419182,77
593,PLAYER_SLEEPBEFORE_START,1516293419182,78
593,PLAYER_SLEEPBEFORE_END,1516293420050,78
593,WS_SEND_START,1516293420050,78
593,WS_SEND_END,1516293420050,78
593,WS_RECV_START,1516293420050,79
593,WS_RECV_END,1516293422410,79
593,PLAYER_SLEEPBEFORE_START,1516293422410,80
593,PLAYER_SLEEPBEFORE_END,1516293430076,80
593,WS_SEND_START,1516293430076,80
593,WS_SEND_END,1516293430076,80
593,WS_RECV_START,1516293430076,81
593,WS_RECV_END,1516293433228,81
593,PLAYER_SLEEPBEFORE_START,1516293433228,82
593,PLAYER_SLEEPBEFORE_END,1516293434330,82
593,WS_SEND_START,1516293434330,82
593,WS_SEND_END,1516293434330,82
593,WS_RECV_START,1516293434330,83
593,WS_RECV_END,1516293437084,83
593,PLAYER_SLEEPBEFORE_START,1516293437084,84
593,PLAYER_SLEEPBEFORE_END,1516293438031,84
593,WS_SEND_START,1516293438031,84
593,WS_SEND_END,1516293438031,84
593,WS_RECV_START,1516293438031,85
593,WS_RECV_END,1516293439992,85
593,PLAYER_SLEEPBEFORE_START,1516293439992,86
593,PLAYER_SLEEPBEFORE_END,1516293444164,86
593,WS_SEND_START,1516293444164,86
593,WS_SEND_END,1516293444164,86
593,WS_RECV_START,1516293444164,87
593,WS_RECV_END,1516293446989,87
593,PLAYER_SLEEPBEFORE_START,1516293446989,88
593,PLAYER_SLEEPBEFORE_END,1516293446997,88
593,WS_SEND_START,1516293446997,88
593,WS_SEND_END,1516293446997,88
593,WS_RECV_START,1516293446997,89
593,WS_RECV_END,1516293448106,89
593,PLAYER_SLEEPBEFORE_START,1516293448106,90
593,PLAYER_SLEEPBEFORE_END,1516293475303,90
593,REQ_START,1516293475303,90
593,REQ_END,1516293475311,90
593,PLAYER_SLEEPBEFORE_START,1516293475311,91
593,PLAYER_SLEEPBEFORE_END,1516293483200,91
593,WS_SEND_START,1516293483200,91
593,WS_SEND_END,1516293483201,91
593,WS_RECV_START,1516293483201,92
593,WS_RECV_END,1516293487474,92
593,PLAYER_SLEEPBEFORE_START,1516293487474,93
593,PLAYER_SLEEPBEFORE_END,1516293487494,93
593,WS_SEND_START,1516293487494,93
593,WS_SEND_END,1516293487494,93
593,WS_RECV_START,1516293487494,94
593,WS_RECV_END,1516293489232,94
593,PLAYER_SLEEPBEFORE_START,1516293489232,95
593,PLAYER_SLEEPBEFORE_END,1516293512787,95
593,WS_SEND_START,1516293512787,95
593,WS_SEND_END,1516293512787,95
593,WS_RECV_START,1516293512787,96
593,WS_RECV_END,1516293517781,96
593,PLAYER_SLEEPBEFORE_START,1516293517781,97
593,PLAYER_SLEEPBEFORE_END,1516293540221,97
593,WS_SEND_START,1516293540222,97
593,WS_SEND_END,1516293540222,97
593,WS_RECV_START,1516293540222,98
593,WS_RECV_END,1516293545902,98
593,PLAYER_SLEEPBEFORE_START,1516293545902,99
593,PLAYER_SLEEPBEFORE_END,1516293545923,99
593,WS_SEND_START,1516293545923,99
593,WS_SEND_END,1516293545923,99
593,WS_RECV_START,1516293545923,100
593,WS_RECV_END,1516293549150,100
593,PLAYER_SLEEPBEFORE_START,1516293549150,101
593,PLAYER_SLEEPBEFORE_END,1516293572709,101
593,WS_SEND_START,1516293572709,101
593,WS_SEND_END,1516293572709,101
593,WS_RECV_START,1516293572709,102
593,WS_RECV_END,1516293578475,102
593,PLAYER_SLEEPBEFORE_START,1516293578475,103
593,PLAYER_SLEEPBEFORE_END,1516293602100,103
593,WS_SEND_START,1516293602100,103
593,WS_SEND_END,1516293602100,103
593,WS_RECV_START,1516293602100,104
593,WS_RECV_END,1516293611290,104
593,PLAYER_SLEEPBEFORE_START,1516293611290,105
593,PLAYER_SLEEPBEFORE_END,1516293636667,105
593,WS_SEND_START,1516293636667,105
593,WS_SEND_END,1516293636667,105
593,WS_RECV_START,1516293636667,106
593,WS_RECV_END,1516293642196,106
593,PLAYER_SLEEPBEFORE_START,1516293642196,107
593,PLAYER_SLEEPBEFORE_END,1516293665619,107
593,WS_SEND_START,1516293665619,107
593,WS_SEND_END,1516293665619,107
593,WS_RECV_START,1516293665619,108
593,WS_RECV_END,1516293670380,108
593,PLAYER_SLEEPBEFORE_START,1516293670380,109
593,PLAYER_SLEEPBEFORE_END,1516293670389,109
593,WS_SEND_START,1516293670389,109
593,WS_SEND_END,1516293670389,109
593,WS_RECV_START,1516293670389,110
593,WS_RECV_END,1516293672982,110
593,PLAYER_SLEEPBEFORE_START,1516293672982,111
593,PLAYER_SLEEPBEFORE_END,1516293673941,111
593,WS_SEND_START,1516293673941,111
593,WS_SEND_END,1516293673941,111
593,WS_RECV_START,1516293673941,112
593,WS_RECV_END,1516293677372,112
593,PLAYER_SLEEPBEFORE_START,1516293677372,113
593,PLAYER_SLEEPBEFORE_END,1516293677934,113
593,WS_SEND_START,1516293677934,113
593,WS_SEND_END,1516293677934,113
593,WS_RECV_START,1516293677934,114
593,WS_RECV_END,1516293680583,114
593,PLAYER_SLEEPBEFORE_START,1516293680583,115
593,PLAYER_SLEEPBEFORE_END,1516293680592,115
593,WS_SEND_START,1516293680592,115
593,WS_SEND_END,1516293680592,115
593,WS_RECV_START,1516293680592,116
593,WS_RECV_END,1516293683565,116
593,PLAYER_SLEEPBEFORE_START,1516293683565,117
593,PLAYER_SLEEPBEFORE_END,1516293703925,117
593,WS_SEND_START,1516293703925,117
593,WS_SEND_END,1516293703925,117
593,PLAYER_SLEEPBEFORE_START,1516293703925,118
593,PLAYER_SLEEPBEFORE_END,1516293707677,118
593,WS_SEND_START,1516293707677,118
593,WS_SEND_END,1516293707677,118
593,WS_RECV_START,1516293707677,119
593,WS_RECV_END,1516293708244,119
593,PLAYER_SLEEPBEFORE_START,1516293708244,120
593,PLAYER_SLEEPBEFORE_END,1516293709232,120
593,WS_SEND_START,1516293709232,120
593,WS_SEND_END,1516293709232,120
593,WS_RECV_START,1516293709232,121
593,WS_RECV_END,1516293710738,121
593,PLAYER_SLEEPBEFORE_START,1516293710738,122
593,PLAYER_SLEEPBEFORE_END,1516293711923,122
593,WS_SEND_START,1516293711923,122
593,WS_SEND_END,1516293711923,122
593,WS_RECV_START,1516293711923,123
593,WS_RECV_END,1516293712537,123
593,PLAYER_SLEEPBEFORE_START,1516293712537,124
593,PLAYER_SLEEPBEFORE_END,1516293736942,124
593,WS_SEND_START,1516293736942,124
593,WS_SEND_END,1516293736942,124
593,WS_RECV_START,1516293736942,125
593,WS_RECV_END,1516293738167,125
593,PLAYER_SLEEPBEFORE_START,1516293738167,126
593,PLAYER_SLEEPBEFORE_END,1516293758679,126
593,WS_SEND_START,1516293758679,126
593,WS_SEND_END,1516293758679,126
593,PLAYER_SLEEPBEFORE_START,1516293758679,127
593,PLAYER_SLEEPBEFORE_END,1516293761733,127
593,WS_SEND_START,1516293761733,127
593,WS_SEND_END,1516293761733,127
593,WS_RECV_START,1516293761733,128
593,WS_RECV_END,1516293761940,128
593,PLAYER_SLEEPBEFORE_START,1516293761940,129
593,PLAYER_SLEEPBEFORE_END,1516293761960,129
593,WS_SEND_START,1516293761960,129
593,WS_SEND_END,1516293761960,129
593,WS_RECV_START,1516293761960,130
593,WS_RECV_END,1516293762728,130
593,PLAYER_SLEEPBEFORE_START,1516293762728,131
593,PLAYER_SLEEPBEFORE_END,1516293784352,131
593,WS_SEND_START,1516293784352,131
593,WS_SEND_END,1516293784352,131
593,PLAYER_SLEEPBEFORE_START,1516293784352,132
593,PLAYER_SLEEPBEFORE_END,1516293787432,132
593,WS_SEND_START,1516293787432,132
593,WS_SEND_END,1516293787432,132
593,WS_RECV_START,1516293787432,133
593,WS_RECV_END,1516293788454,133
593,PLAYER_SLEEPBEFORE_START,1516293788454,134
593,PLAYER_SLEEPBEFORE_END,1516293809671,134
593,WS_SEND_START,1516293809671,134
593,WS_SEND_END,1516293809671,134
593,PLAYER_SLEEPBEFORE_START,1516293809671,135
593,PLAYER_SLEEPBEFORE_END,1516293812861,135
593,WS_SEND_START,1516293812861,135
593,WS_SEND_END,1516293812861,135
593,WS_RECV_START,1516293812861,136
593,WS_RECV_END,1516293813375,136
593,PLAYER_SLEEPBEFORE_START,1516293813375,137
593,PLAYER_SLEEPBEFORE_END,1516293813384,137
593,WS_SEND_START,1516293813384,137
593,WS_SEND_END,1516293813385,137
593,WS_RECV_START,1516293813385,138
593,WS_RECV_END,1516293813443,138
593,PLAYER_SLEEPBEFORE_START,1516293813443,139
593,PLAYER_SLEEPBEFORE_END,1516293814133,139
593,WS_SEND_START,1516293814133,139
593,WS_SEND_END,1516293814133,139
593,WS_RECV_START,1516293814133,140
593,WS_RECV_END,1516293814442,140
593,PLAYER_SLEEPBEFORE_START,1516293814442,141
593,PLAYER_SLEEPBEFORE_END,1516293815097,141
593,WS_SEND_START,1516293815097,141
593,WS_SEND_END,1516293815097,141
593,WS_RECV_START,1516293815097,142
593,WS_RECV_END,1516293815535,142
593,PLAYER_SLEEPBEFORE_START,1516293815535,143
593,PLAYER_SLEEPBEFORE_END,1516293815592,143
593,WS_SEND_START,1516293815592,143
593,WS_SEND_END,1516293815592,143
593,WS_RECV_START,1516293815592,144
593,WS_RECV_END,1516293815801,144
593,PLAYER_SLEEPBEFORE_START,1516293815801,145
593,PLAYER_SLEEPBEFORE_END,1516293831863,145
593,REQ_START,1516293831863,145
593,REQ_END,1516293831871,145
593,PLAYER_SLEEPBEFORE_START,1516293831871,146
593,PLAYER_SLEEPBEFORE_END,1516293840748,146
593,WS_SEND_START,1516293840748,146
593,WS_SEND_END,1516293840748,146
593,WS_RECV_START,1516293840748,147
593,WS_RECV_END,1516293840896,147
593,PLAYER_SLEEPBEFORE_START,1516293840896,148
593,PLAYER_SLEEPBEFORE_END,1516293862819,148
593,WS_SEND_START,1516293862819,148
593,WS_SEND_END,1516293862819,148
593,PLAYER_SLEEPBEFORE_START,1516293862819,149
593,PLAYER_SLEEPBEFORE_END,1516293865247,149
593,WS_SEND_START,1516293865247,149
593,WS_SEND_END,1516293865247,149
593,WS_RECV_START,1516293865247,150
593,WS_RECV_END,1516293865362,150
593,PLAYER_SLEEPBEFORE_START,1516293865362,151
593,PLAYER_SLEEPBEFORE_END,1516293865572,151
593,WS_SEND_START,1516293865572,151
593,WS_SEND_END,1516293865572,151
593,WS_RECV_START,1516293865572,152
593,WS_RECV_END,1516293865710,152
593,PLAYER_SLEEPBEFORE_START,1516293865710,153
593,PLAYER_SLEEPBEFORE_END,1516293889638,153
593,WS_SEND_START,1516293889638,153
593,WS_SEND_END,1516293889638,153
593,WS_RECV_START,1516293889638,154
593,WS_RECV_END,1516293889818,154
593,PLAYER_SLEEPBEFORE_START,1516293889818,155
593,PLAYER_SLEEPBEFORE_END,1516293912376,155
593,WS_SEND_START,1516293912376,155
593,WS_SEND_END,1516293912376,155
593,PLAYER_SLEEPBEFORE_START,1516293912376,156
593,PLAYER_SLEEPBEFORE_END,1516293915650,156
593,WS_SEND_START,1516293915650,156
593,WS_SEND_END,1516293915650,156
593,WS_RECV_START,1516293915650,157
593,WS_RECV_END,1516293915701,157
593,PLAYER_SLEEPBEFORE_START,1516293915701,158
593,PLAYER_SLEEPBEFORE_END,1516293915711,158
593,WS_SEND_START,1516293915711,158
593,WS_SEND_END,1516293915711,158
593,WS_RECV_START,1516293915711,159
593,WS_RECV_END,1516293915755,159
593,PLAYER_SLEEPBEFORE_START,1516293915755,160
593,PLAYER_SLEEPBEFORE_END,1516293915930,160
593,WS_SEND_START,1516293915930,160
593,WS_SEND_END,1516293915930,160
593,WS_RECV_START,1516293915930,161
593,WS_RECV_END,1516293916102,161
593,PLAYER_SLEEPBEFORE_START,1516293916102,162
593,PLAYER_SLEEPBEFORE_END,1516293916127,162
593,WS_SEND_START,1516293916127,162
593,WS_SEND_END,1516293916127,162
593,WS_RECV_START,1516293916127,163
593,WS_RECV_END,1516293916359,163
593,PLAYER_SLEEPBEFORE_START,1516293916359,164
593,PLAYER_SLEEPBEFORE_END,1516293937171,164
593,WS_SEND_START,1516293937171,164
593,WS_SEND_END,1516293937171,164
593,WS_RECV_START,1516293937171,165
593,WS_RECV_END,1516293937356,165
593,PLAYER_SLEEPBEFORE_START,1516293937356,166
593,PLAYER_SLEEPBEFORE_END,1516293959811,166
593,WS_SEND_START,1516293959811,166
593,WS_SEND_END,1516293959811,166
593,WS_RECV_START,1516293959811,167
593,WS_RECV_END,1516293959994,167
593,PLAYER_SLEEPBEFORE_START,1516293959994,168
593,PLAYER_SLEEPBEFORE_END,1516293987351,168
593,WS_SEND_START,1516293987351,168
593,WS_SEND_END,1516293987351,168
593,WS_RECV_START,1516293987351,169
593,WS_RECV_END,1516293987398,169
593,PLAYER_SLEEPBEFORE_START,1516293987398,170
593,PLAYER_SLEEPBEFORE_END,1516293987407,170
593,WS_SEND_START,1516293987407,170
593,WS_SEND_END,1516293987407,170
593,WS_RECV_START,1516293987407,171
593,WS_RECV_END,1516293987451,171
593,PLAYER_SLEEPBEFORE_START,1516293987451,172
593,PLAYER_SLEEPBEFORE_END,1516293987820,172
593,WS_SEND_START,1516293987821,172
593,WS_SEND_END,1516293987821,172
593,WS_RECV_START,1516293987821,173
593,WS_RECV_END,1516293987970,173
593,PLAYER_SLEEPBEFORE_START,1516293987970,174
593,PLAYER_SLEEPBEFORE_END,1516293988011,174
593,WS_SEND_START,1516293988011,174
593,WS_SEND_END,1516293988011,174
593,WS_RECV_START,1516293988011,175
593,WS_RECV_END,1516293988138,175
593,PLAYER_SLEEPBEFORE_START,1516293988138,176
593,PLAYER_SLEEPBEFORE_END,1516294009899,176
593,WS_SEND_START,1516294009899,176
593,WS_SEND_END,1516294009899,176
593,PLAYER_SLEEPBEFORE_START,1516294009899,177
593,PLAYER_SLEEPBEFORE_END,1516294012417,177
593,WS_SEND_START,1516294012417,177
593,WS_SEND_END,1516294012417,177
593,WS_RECV_START,1516294012417,178
593,WS_RECV_END,1516294012527,178
593,PLAYER_SLEEPBEFORE_START,1516294012527,179
593,PLAYER_SLEEPBEFORE_END,1516294034867,179
593,WS_SEND_START,1516294034867,179
593,WS_SEND_END,1516294034867,179
593,WS_RECV_START,1516294034867,180
593,WS_RECV_END,1516294035001,180
593,PLAYER_SLEEPBEFORE_START,1516294035001,181
593,PLAYER_SLEEPBEFORE_END,1516294035445,181
593,WS_SEND_START,1516294035446,181
593,WS_SEND_END,1516294035446,181
593,WS_RECV_START,1516294035446,182
593,WS_RECV_END,1516294035551,182
593,PLAYER_SLEEPBEFORE_START,1516294035551,183
593,PLAYER_SLEEPBEFORE_END,1516294036074,183
593,WS_SEND_START,1516294036074,183
593,WS_SEND_END,1516294036074,183
593,WS_RECV_START,1516294036074,184
593,WS_RECV_END,1516294036207,184
593,PLAYER_SLEEPBEFORE_START,1516294036207,185
593,PLAYER_SLEEPBEFORE_END,1516294036475,185
593,WS_SEND_START,1516294036475,185
593,WS_SEND_END,1516294036475,185
593,WS_RECV_START,1516294036475,186
593,WS_RECV_END,1516294036583,186
593,PLAYER_SLEEPBEFORE_START,1516294036583,187
593,PLAYER_SLEEPBEFORE_END,1516294059083,187
593,WS_SEND_START,1516294059083,187
593,WS_SEND_END,1516294059083,187
593,WS_RECV_START,1516294059083,188
593,WS_RECV_END,1516294059120,188
593,PLAYER_SLEEPBEFORE_START,1516294059120,189
593,PLAYER_SLEEPBEFORE_END,1516294065359,189
593,WS_SEND_START,1516294065359,189
593,WS_SEND_END,1516294065359,189
593,WS_RECV_START,1516294065359,190
593,WS_RECV_END,1516294065545,190
593,PLAYER_SLEEPBEFORE_START,1516294065545,191
593,PLAYER_SLEEPBEFORE_END,1516294067460,191
593,WS_SEND_START,1516294067460,191
593,WS_SEND_END,1516294067460,191
593,WS_RECV_START,1516294067460,192
593,WS_RECV_END,1516294067670,192
593,PLAYER_SLEEPBEFORE_START,1516294067670,193
593,PLAYER_SLEEPBEFORE_END,1516294067798,193
593,WS_SEND_START,1516294067798,193
593,WS_SEND_END,1516294067798,193
593,WS_RECV_START,1516294067798,194
593,WS_RECV_END,1516294067903,194
593,PLAYER_SLEEPBEFORE_START,1516294067903,195
593,PLAYER_SLEEPBEFORE_END,1516294069658,195
593,WS_SEND_START,1516294069658,195
593,WS_SEND_END,1516294069658,195
593,WS_RECV_START,1516294069658,196
593,WS_RECV_END,1516294069757,196
593,PLAYER_SLEEPBEFORE_START,1516294069757,197
593,PLAYER_SLEEPBEFORE_END,1516294071561,197
593,WS_SEND_START,1516294071561,197
593,WS_SEND_END,1516294071562,197
593,WS_RECV_START,1516294071562,198
593,WS_RECV_END,1516294071661,198
593,PLAYER_SLEEPBEFORE_START,1516294071661,199
593,PLAYER_SLEEPBEFORE_END,1516294083515,199
593,WS_SEND_START,1516294083515,199
593,WS_SEND_END,1516294083515,199
593,PLAYER_SLEEPBEFORE_START,1516294083515,200
593,PLAYER_SLEEPBEFORE_END,1516294087603,200
593,WS_SEND_START,1516294087603,200
593,WS_SEND_END,1516294087603,200
593,WS_RECV_START,1516294087603,201
593,WS_RECV_END,1516294087784,201
593,PLAYER_SLEEPBEFORE_START,1516294087784,202
593,PLAYER_SLEEPBEFORE_END,1516294087799,202
593,WS_SEND_START,1516294087799,202
593,WS_SEND_END,1516294087799,202
593,WS_RECV_START,1516294087799,203
593,WS_RECV_END,1516294087928,203
593,PLAYER_SLEEPBEFORE_START,1516294087928,204
593,PLAYER_SLEEPBEFORE_END,1516294107577,204
593,WS_SEND_START,1516294107577,204
593,WS_SEND_END,1516294107577,204
593,PLAYER_SLEEPBEFORE_START,1516294107577,205
593,PLAYER_SLEEPBEFORE_END,1516294111475,205
593,WS_SEND_START,1516294111475,205
593,WS_SEND_END,1516294111475,205
593,WS_RECV_START,1516294111475,206
593,WS_RECV_END,1516294111591,206
593,PLAYER_SLEEPBEFORE_START,1516294111591,207
593,PLAYER_SLEEPBEFORE_END,1516294128522,207
593,REQ_START,1516294128522,207
593,REQ_END,1516294128530,207
593,PLAYER_SLEEPBEFORE_START,1516294128530,208
593,PLAYER_SLEEPBEFORE_END,1516294135382,208
593,WS_CLOSE_START,1516294135382,208
593,WS_CLOSE_END,1516294135382,208
593,PLAYER_DONE,1516294135382
