# --sessions 720 --app-url=http://shinyloadtest.rstudioservices.com/cran_explorer --output-dir test720 --overwrite-output --log-level warn --start-interval 500 15min.log
thread_id,event,timestamp,input_line_number,comment
100,PLAYER_SESSION_CREATE,1516289462002
100,PLAYER_START_INTERVAL_START,1516289462002
100,PLAYER_START_INTERVAL_END,1516289512002
100,REQ_HOME_START,1516289512002,2
100,REQ_HOME_END,1516289512094,2
100,REQ_START,1516289512094,3
100,REQ_END,1516289512126,3
100,REQ_START,1516289512126,4
100,REQ_END,1516289512165,4
100,REQ_START,1516289512165,5
100,REQ_END,1516289512204,5
100,REQ_START,1516289512204,6
100,REQ_END,1516289512243,6
100,REQ_START,1516289512243,7
100,REQ_END,1516289512282,7
100,REQ_START,1516289512282,8
100,REQ_END,1516289512322,8
100,REQ_START,1516289512322,9
100,REQ_END,1516289512364,9
100,REQ_START,1516289512364,10
100,REQ_END,1516289512373,10
100,REQ_START,1516289512373,11
100,REQ_END,1516289512406,11
100,REQ_START,1516289512406,12
100,REQ_END,1516289512416,12
100,REQ_START,1516289512416,13
100,REQ_END,1516289512450,13
100,REQ_START,1516289512450,14
100,REQ_END,1516289512465,14
100,REQ_START,1516289512465,15
100,REQ_END,1516289512498,15
100,REQ_TOK_START,1516289512498,16
100,REQ_TOK_END,1516289512505,16
100,REQ_SINF_START,1516289512505,17
100,REQ_SINF_END,1516289512512,17
100,WS_OPEN_START,1516289512512,18
100,WS_OPEN_END,1516289512519,18
100,REQ_START,1516289512519,19
100,REQ_END,1516289512548,19
100,WS_RECV_START,1516289512548,20
100,WS_RECV_END,1516289512548,20
100,PLAYER_SLEEPBEFORE_START,1516289512548,21
100,PLAYER_SLEEPBEFORE_END,1516289512553,21
100,WS_SEND_START,1516289512553,21
100,WS_SEND_END,1516289512553,21
100,PLAYER_SLEEPBEFORE_START,1516289512553,22
100,PLAYER_SLEEPBEFORE_END,1516289512554,22
100,WS_SEND_START,1516289512554,22
100,WS_SEND_END,1516289512554,22
100,WS_RECV_INIT_START,1516289512554,23
100,WS_RECV_INIT_END,1516289512576,23
100,WS_RECV_START,1516289512576,24
100,WS_RECV_END,1516289512623,24
100,PLAYER_SLEEPBEFORE_START,1516289512623,25
100,PLAYER_SLEEPBEFORE_END,1516289512630,25
100,REQ_START,1516289512630,25
100,REQ_END,1516289512666,25
100,PLAYER_SLEEPBEFORE_START,1516289512666,26
100,PLAYER_SLEEPBEFORE_END,1516289512667,26
100,REQ_START,1516289512667,26
100,REQ_END,1516289512699,26
100,PLAYER_SLEEPBEFORE_START,1516289512699,27
100,PLAYER_SLEEPBEFORE_END,1516289512704,27
100,REQ_START,1516289512704,27
100,REQ_END,1516289512739,27
100,PLAYER_SLEEPBEFORE_START,1516289512739,28
100,PLAYER_SLEEPBEFORE_END,1516289513024,28
100,REQ_START,1516289513024,28
100,REQ_END,1516289513059,28
100,PLAYER_SLEEPBEFORE_START,1516289513059,29
100,PLAYER_SLEEPBEFORE_END,1516289513234,29
100,WS_SEND_START,1516289513234,29
100,WS_SEND_END,1516289513234,29
100,WS_RECV_START,1516289513234,30
100,WS_RECV_END,1516289513340,30
100,PLAYER_SLEEPBEFORE_START,1516289513340,31
100,PLAYER_SLEEPBEFORE_END,1516289513351,31
100,REQ_START,1516289513351,31
100,REQ_END,1516289513387,31
100,PLAYER_SLEEPBEFORE_START,1516289513387,32
100,PLAYER_SLEEPBEFORE_END,1516289541532,32
100,WS_SEND_START,1516289541532,32
100,WS_SEND_END,1516289541532,32
100,WS_RECV_START,1516289541532,33
100,WS_RECV_END,1516289541622,33
100,PLAYER_SLEEPBEFORE_START,1516289541622,34
100,PLAYER_SLEEPBEFORE_END,1516289567533,34
100,WS_SEND_START,1516289567533,34
100,WS_SEND_END,1516289567533,34
100,WS_RECV_START,1516289567533,35
100,WS_RECV_END,1516289567560,35
100,PLAYER_SLEEPBEFORE_START,1516289567560,36
100,PLAYER_SLEEPBEFORE_END,1516289567569,36
100,WS_SEND_START,1516289567569,36
100,WS_SEND_END,1516289567569,36
100,WS_RECV_START,1516289567569,37
100,WS_RECV_END,1516289567681,37
100,PLAYER_SLEEPBEFORE_START,1516289567681,38
100,PLAYER_SLEEPBEFORE_END,1516289570877,38
100,WS_SEND_START,1516289570877,38
100,WS_SEND_END,1516289570877,38
100,WS_RECV_START,1516289570877,39
100,WS_RECV_END,1516289571000,39
100,PLAYER_SLEEPBEFORE_START,1516289571000,40
100,PLAYER_SLEEPBEFORE_END,1516289571046,40
100,WS_SEND_START,1516289571046,40
100,WS_SEND_END,1516289571046,40
100,WS_RECV_START,1516289571046,41
100,WS_RECV_END,1516289571163,41
100,PLAYER_SLEEPBEFORE_START,1516289571163,42
100,PLAYER_SLEEPBEFORE_END,1516289589298,42
100,WS_SEND_START,1516289589298,42
100,WS_SEND_END,1516289589298,42
100,WS_RECV_START,1516289589298,43
100,WS_RECV_END,1516289589344,43
100,PLAYER_SLEEPBEFORE_START,1516289589345,44
100,PLAYER_SLEEPBEFORE_END,1516289589357,44
100,WS_SEND_START,1516289589357,44
100,WS_SEND_END,1516289589357,44
100,WS_RECV_START,1516289589357,45
100,WS_RECV_END,1516289589525,45
100,PLAYER_SLEEPBEFORE_START,1516289589525,46
100,PLAYER_SLEEPBEFORE_END,1516289590786,46
100,WS_SEND_START,1516289590786,46
100,WS_SEND_END,1516289590786,46
100,WS_RECV_START,1516289590786,47
100,WS_RECV_END,1516289590854,47
100,PLAYER_SLEEPBEFORE_START,1516289590854,48
100,PLAYER_SLEEPBEFORE_END,1516289592174,48
100,WS_SEND_START,1516289592174,48
100,WS_SEND_END,1516289592174,48
100,WS_RECV_START,1516289592174,49
100,WS_RECV_END,1516289592367,49
100,PLAYER_SLEEPBEFORE_START,1516289592367,50
100,PLAYER_SLEEPBEFORE_END,1516289592391,50
100,WS_SEND_START,1516289592391,50
100,WS_SEND_END,1516289592391,50
100,WS_RECV_START,1516289592391,51
100,WS_RECV_END,1516289592496,51
100,PLAYER_SLEEPBEFORE_START,1516289592496,52
100,PLAYER_SLEEPBEFORE_END,1516289615060,52
100,WS_SEND_START,1516289615060,52
100,WS_SEND_END,1516289615061,52
100,WS_RECV_START,1516289615061,53
100,WS_RECV_END,1516289615211,53
100,PLAYER_SLEEPBEFORE_START,1516289615211,54
100,PLAYER_SLEEPBEFORE_END,1516289636514,54
100,WS_SEND_START,1516289636514,54
100,WS_SEND_END,1516289636514,54
100,PLAYER_SLEEPBEFORE_START,1516289636514,55
100,PLAYER_SLEEPBEFORE_END,1516289638455,55
100,WS_SEND_START,1516289638455,55
100,WS_SEND_END,1516289638455,55
100,WS_RECV_START,1516289638455,56
100,WS_RECV_END,1516289638522,56
100,PLAYER_SLEEPBEFORE_START,1516289638522,57
100,PLAYER_SLEEPBEFORE_END,1516289661394,57
100,WS_SEND_START,1516289661394,57
100,WS_SEND_END,1516289661394,57
100,WS_RECV_START,1516289661394,58
100,WS_RECV_END,1516289661559,58
100,PLAYER_SLEEPBEFORE_START,1516289661559,59
100,PLAYER_SLEEPBEFORE_END,1516289663887,59
100,WS_SEND_START,1516289663887,59
100,WS_SEND_END,1516289663887,59
100,WS_RECV_START,1516289663887,60
100,WS_RECV_END,1516289663987,60
100,PLAYER_SLEEPBEFORE_START,1516289663987,61
100,PLAYER_SLEEPBEFORE_END,1516289667578,61
100,WS_SEND_START,1516289667578,61
100,WS_SEND_END,1516289667578,61
100,WS_RECV_START,1516289667578,62
100,WS_RECV_END,1516289667676,62
100,PLAYER_SLEEPBEFORE_START,1516289667676,63
100,PLAYER_SLEEPBEFORE_END,1516289686938,63
100,WS_SEND_START,1516289686938,63
100,WS_SEND_END,1516289686938,63
100,WS_RECV_START,1516289686938,64
100,WS_RECV_END,1516289686990,64
100,PLAYER_SLEEPBEFORE_START,1516289686990,65
100,PLAYER_SLEEPBEFORE_END,1516289713807,65
100,WS_SEND_START,1516289713807,65
100,WS_SEND_END,1516289713807,65
100,WS_RECV_START,1516289713807,66
100,WS_RECV_END,1516289713918,66
100,PLAYER_SLEEPBEFORE_START,1516289713918,67
100,PLAYER_SLEEPBEFORE_END,1516289715425,67
100,WS_SEND_START,1516289715425,67
100,WS_SEND_END,1516289715425,67
100,WS_RECV_START,1516289715425,68
100,WS_RECV_END,1516289715627,68
100,PLAYER_SLEEPBEFORE_START,1516289715627,69
100,PLAYER_SLEEPBEFORE_END,1516289737625,69
100,WS_SEND_START,1516289737625,69
100,WS_SEND_END,1516289737625,69
100,WS_RECV_START,1516289737625,70
100,WS_RECV_END,1516289737882,70
100,PLAYER_SLEEPBEFORE_START,1516289737882,71
100,PLAYER_SLEEPBEFORE_END,1516289762657,71
100,WS_SEND_START,1516289762657,71
100,WS_SEND_END,1516289762657,71
100,PLAYER_SLEEPBEFORE_START,1516289762657,72
100,PLAYER_SLEEPBEFORE_END,1516289765264,72
100,WS_SEND_START,1516289765264,72
100,WS_SEND_END,1516289765265,72
100,WS_RECV_START,1516289765265,73
100,WS_RECV_END,1516289765425,73
100,PLAYER_SLEEPBEFORE_START,1516289765425,74
100,PLAYER_SLEEPBEFORE_END,1516289765434,74
100,WS_SEND_START,1516289765434,74
100,WS_SEND_END,1516289765434,74
100,WS_RECV_START,1516289765434,75
100,WS_RECV_END,1516289765582,75
100,PLAYER_SLEEPBEFORE_START,1516289765582,76
100,PLAYER_SLEEPBEFORE_END,1516289767088,76
100,WS_SEND_START,1516289767088,76
100,WS_SEND_END,1516289767088,76
100,WS_RECV_START,1516289767088,77
100,WS_RECV_END,1516289767216,77
100,PLAYER_SLEEPBEFORE_START,1516289767216,78
100,PLAYER_SLEEPBEFORE_END,1516289768085,78
100,WS_SEND_START,1516289768085,78
100,WS_SEND_END,1516289768085,78
100,WS_RECV_START,1516289768085,79
100,WS_RECV_END,1516289768641,79
100,PLAYER_SLEEPBEFORE_START,1516289768641,80
100,PLAYER_SLEEPBEFORE_END,1516289776307,80
100,WS_SEND_START,1516289776307,80
100,WS_SEND_END,1516289776307,80
100,WS_RECV_START,1516289776307,81
100,WS_RECV_END,1516289776970,81
100,PLAYER_SLEEPBEFORE_START,1516289776970,82
100,PLAYER_SLEEPBEFORE_END,1516289778072,82
100,WS_SEND_START,1516289778072,82
100,WS_SEND_END,1516289778072,82
100,WS_RECV_START,1516289778072,83
100,WS_RECV_END,1516289778445,83
100,PLAYER_SLEEPBEFORE_START,1516289778445,84
100,PLAYER_SLEEPBEFORE_END,1516289779392,84
100,WS_SEND_START,1516289779392,84
100,WS_SEND_END,1516289779393,84
100,WS_RECV_START,1516289779393,85
100,WS_RECV_END,1516289779940,85
100,PLAYER_SLEEPBEFORE_START,1516289779940,86
100,PLAYER_SLEEPBEFORE_END,1516289784112,86
100,WS_SEND_START,1516289784112,86
100,WS_SEND_END,1516289784112,86
100,WS_RECV_START,1516289784112,87
100,WS_RECV_END,1516289784536,87
100,PLAYER_SLEEPBEFORE_START,1516289784536,88
100,PLAYER_SLEEPBEFORE_END,1516289784544,88
100,WS_SEND_START,1516289784544,88
100,WS_SEND_END,1516289784544,88
100,WS_RECV_START,1516289784544,89
100,WS_RECV_END,1516289785105,89
100,PLAYER_SLEEPBEFORE_START,1516289785105,90
100,PLAYER_SLEEPBEFORE_END,1516289812302,90
100,REQ_START,1516289812302,90
100,REQ_END,1516289812310,90
100,PLAYER_SLEEPBEFORE_START,1516289812310,91
100,PLAYER_SLEEPBEFORE_END,1516289820199,91
100,WS_SEND_START,1516289820199,91
100,WS_SEND_END,1516289820199,91
100,WS_RECV_START,1516289820199,92
100,WS_RECV_END,1516289821441,92
100,PLAYER_SLEEPBEFORE_START,1516289821441,93
100,PLAYER_SLEEPBEFORE_END,1516289821456,93
100,WS_SEND_START,1516289821456,93
100,WS_SEND_END,1516289821456,93
100,WS_RECV_START,1516289821456,94
100,WS_RECV_END,1516289822527,94
100,PLAYER_SLEEPBEFORE_START,1516289822527,95
100,PLAYER_SLEEPBEFORE_END,1516289846082,95
100,WS_SEND_START,1516289846082,95
100,WS_SEND_END,1516289846082,95
100,WS_RECV_START,1516289846082,96
100,WS_RECV_END,1516289848272,96
100,PLAYER_SLEEPBEFORE_START,1516289848272,97
100,PLAYER_SLEEPBEFORE_END,1516289870712,97
100,WS_SEND_START,1516289870712,97
100,WS_SEND_END,1516289870712,97
100,WS_RECV_START,1516289870712,98
100,WS_RECV_END,1516289874009,98
100,PLAYER_SLEEPBEFORE_START,1516289874009,99
100,PLAYER_SLEEPBEFORE_END,1516289874030,99
100,WS_SEND_START,1516289874030,99
100,WS_SEND_END,1516289874030,99
100,WS_RECV_START,1516289874030,100
100,WS_RECV_END,1516289876492,100
100,PLAYER_SLEEPBEFORE_START,1516289876492,101
100,PLAYER_SLEEPBEFORE_END,1516289900051,101
100,WS_SEND_START,1516289900051,101
100,WS_SEND_END,1516289900051,101
100,WS_RECV_START,1516289900051,102
100,WS_RECV_END,1516289903781,102
100,PLAYER_SLEEPBEFORE_START,1516289903781,103
100,PLAYER_SLEEPBEFORE_END,1516289927406,103
100,WS_SEND_START,1516289927406,103
100,WS_SEND_END,1516289927406,103
100,WS_RECV_START,1516289927406,104
100,WS_RECV_END,1516289929397,104
100,PLAYER_SLEEPBEFORE_START,1516289929397,105
100,PLAYER_SLEEPBEFORE_END,1516289954774,105
100,WS_SEND_START,1516289954774,105
100,WS_SEND_END,1516289954774,105
100,WS_RECV_START,1516289954774,106
100,WS_RECV_END,1516289958937,106
100,PLAYER_SLEEPBEFORE_START,1516289958937,107
100,PLAYER_SLEEPBEFORE_END,1516289982360,107
100,WS_SEND_START,1516289982360,107
100,WS_SEND_END,1516289982360,107
100,WS_RECV_START,1516289982360,108
100,WS_RECV_END,1516289987504,108
100,PLAYER_SLEEPBEFORE_START,1516289987504,109
100,PLAYER_SLEEPBEFORE_END,1516289987514,109
100,WS_SEND_START,1516289987514,109
100,WS_SEND_END,1516289987514,109
100,WS_RECV_START,1516289987514,110
100,WS_RECV_END,1516289991258,110
100,PLAYER_SLEEPBEFORE_START,1516289991258,111
100,PLAYER_SLEEPBEFORE_END,1516289992217,111
100,WS_SEND_START,1516289992217,111
100,WS_SEND_END,1516289992217,111
100,WS_RECV_START,1516289992217,112
100,WS_RECV_END,1516289994521,112
100,PLAYER_SLEEPBEFORE_START,1516289994521,113
100,PLAYER_SLEEPBEFORE_END,1516289995083,113
100,WS_SEND_START,1516289995083,113
100,WS_SEND_END,1516289995083,113
100,WS_RECV_START,1516289995083,114
100,WS_RECV_END,1516289997905,114
100,PLAYER_SLEEPBEFORE_START,1516289997905,115
100,PLAYER_SLEEPBEFORE_END,1516289997914,115
100,WS_SEND_START,1516289997914,115
100,WS_SEND_END,1516289997914,115
100,WS_RECV_START,1516289997914,116
100,WS_RECV_END,1516290001920,116
100,PLAYER_SLEEPBEFORE_START,1516290001920,117
100,PLAYER_SLEEPBEFORE_END,1516290022281,117
100,WS_SEND_START,1516290022281,117
100,WS_SEND_END,1516290022281,117
100,PLAYER_SLEEPBEFORE_START,1516290022281,118
100,PLAYER_SLEEPBEFORE_END,1516290026033,118
100,WS_SEND_START,1516290026033,118
100,WS_SEND_END,1516290026033,118
100,WS_RECV_START,1516290026033,119
100,WS_RECV_END,1516290027352,119
100,PLAYER_SLEEPBEFORE_START,1516290027352,120
100,PLAYER_SLEEPBEFORE_END,1516290028340,120
100,WS_SEND_START,1516290028340,120
100,WS_SEND_END,1516290028340,120
100,WS_RECV_START,1516290028340,121
100,WS_RECV_END,1516290034054,121
100,PLAYER_SLEEPBEFORE_START,1516290034054,122
100,PLAYER_SLEEPBEFORE_END,1516290035239,122
100,WS_SEND_START,1516290035239,122
100,WS_SEND_END,1516290035239,122
100,WS_RECV_START,1516290035239,123
100,WS_RECV_END,1516290037389,123
100,PLAYER_SLEEPBEFORE_START,1516290037389,124
100,PLAYER_SLEEPBEFORE_END,1516290061794,124
100,WS_SEND_START,1516290061794,124
100,WS_SEND_END,1516290061795,124
100,WS_RECV_START,1516290061795,125
100,WS_RECV_END,1516290064923,125
100,PLAYER_SLEEPBEFORE_START,1516290064923,126
100,PLAYER_SLEEPBEFORE_END,1516290085435,126
100,WS_SEND_START,1516290085435,126
100,WS_SEND_END,1516290085435,126
100,PLAYER_SLEEPBEFORE_START,1516290085435,127
100,PLAYER_SLEEPBEFORE_END,1516290088489,127
100,WS_SEND_START,1516290088489,127
100,WS_SEND_END,1516290088489,127
100,WS_RECV_START,1516290088489,128
100,WS_RECV_END,1516290090899,128
100,PLAYER_SLEEPBEFORE_START,1516290090899,129
100,PLAYER_SLEEPBEFORE_END,1516290090919,129
100,WS_SEND_START,1516290090919,129
100,WS_SEND_END,1516290090919,129
100,WS_RECV_START,1516290090919,130
100,WS_RECV_END,1516290094443,130
100,PLAYER_SLEEPBEFORE_START,1516290094443,131
100,PLAYER_SLEEPBEFORE_END,1516290116067,131
100,WS_SEND_START,1516290116067,131
100,WS_SEND_END,1516290116067,131
100,PLAYER_SLEEPBEFORE_START,1516290116067,132
100,PLAYER_SLEEPBEFORE_END,1516290119147,132
100,WS_SEND_START,1516290119147,132
100,WS_SEND_END,1516290119147,132
100,WS_RECV_START,1516290119147,133
100,WS_RECV_END,1516290123183,133
100,PLAYER_SLEEPBEFORE_START,1516290123183,134
100,PLAYER_SLEEPBEFORE_END,1516290144400,134
100,WS_SEND_START,1516290144400,134
100,WS_SEND_END,1516290144400,134
100,PLAYER_SLEEPBEFORE_START,1516290144400,135
100,PLAYER_SLEEPBEFORE_END,1516290147590,135
100,WS_SEND_START,1516290147590,135
100,WS_SEND_END,1516290147590,135
100,WS_RECV_START,1516290147590,136
100,WS_RECV_END,1516290149764,136
100,PLAYER_SLEEPBEFORE_START,1516290149764,137
100,PLAYER_SLEEPBEFORE_END,1516290149771,137
100,WS_SEND_START,1516290149771,137
100,WS_SEND_END,1516290149771,137
100,WS_RECV_START,1516290149771,138
100,WS_RECV_END,1516290153082,138
100,PLAYER_SLEEPBEFORE_START,1516290153082,139
100,PLAYER_SLEEPBEFORE_END,1516290153780,139
100,WS_SEND_START,1516290153780,139
100,WS_SEND_END,1516290153780,139
100,WS_RECV_START,1516290153780,140
100,WS_RECV_END,1516290157307,140
100,PLAYER_SLEEPBEFORE_START,1516290157307,141
100,PLAYER_SLEEPBEFORE_END,1516290157962,141
100,WS_SEND_START,1516290157962,141
100,WS_SEND_END,1516290157962,141
100,WS_RECV_START,1516290157962,142
100,WS_RECV_END,1516290163170,142
100,PLAYER_SLEEPBEFORE_START,1516290163170,143
100,PLAYER_SLEEPBEFORE_END,1516290163227,143
100,WS_SEND_START,1516290163227,143
100,WS_SEND_END,1516290163227,143
100,WS_RECV_START,1516290163227,144
100,WS_RECV_END,1516290168141,144
100,PLAYER_SLEEPBEFORE_START,1516290168141,145
100,PLAYER_SLEEPBEFORE_END,1516290184207,145
100,REQ_START,1516290184207,145
100,REQ_END,1516290184215,145
100,PLAYER_SLEEPBEFORE_START,1516290184215,146
100,PLAYER_SLEEPBEFORE_END,1516290193092,146
100,WS_SEND_START,1516290193092,146
100,WS_SEND_END,1516290193092,146
100,WS_RECV_START,1516290193092,147
100,WS_RECV_END,1516290197220,147
100,PLAYER_SLEEPBEFORE_START,1516290197220,148
100,PLAYER_SLEEPBEFORE_END,1516290219142,148
100,WS_SEND_START,1516290219142,148
100,WS_SEND_END,1516290219142,148
100,PLAYER_SLEEPBEFORE_START,1516290219142,149
100,PLAYER_SLEEPBEFORE_END,1516290221570,149
100,WS_SEND_START,1516290221570,149
100,WS_SEND_END,1516290221570,149
100,WS_RECV_START,1516290221570,150
100,WS_RECV_END,1516290224244,150
100,PLAYER_SLEEPBEFORE_START,1516290224244,151
100,PLAYER_SLEEPBEFORE_END,1516290224454,151
100,WS_SEND_START,1516290224454,151
100,WS_SEND_END,1516290224454,151
100,WS_RECV_START,1516290224454,152
100,WS_RECV_END,1516290226560,152
100,PLAYER_SLEEPBEFORE_START,1516290226560,153
100,PLAYER_SLEEPBEFORE_END,1516290250487,153
100,WS_SEND_START,1516290250487,153
100,WS_SEND_END,1516290250487,153
100,WS_RECV_START,1516290250487,154
100,WS_RECV_END,1516290256981,154
100,PLAYER_SLEEPBEFORE_START,1516290256981,155
100,PLAYER_SLEEPBEFORE_END,1516290279539,155
100,WS_SEND_START,1516290279539,155
100,WS_SEND_END,1516290279539,155
100,PLAYER_SLEEPBEFORE_START,1516290279539,156
100,PLAYER_SLEEPBEFORE_END,1516290282817,156
100,WS_SEND_START,1516290282817,156
100,WS_SEND_END,1516290282817,156
100,WS_RECV_START,1516290282817,157
100,WS_RECV_END,1516290285682,157
100,PLAYER_SLEEPBEFORE_START,1516290285682,158
100,PLAYER_SLEEPBEFORE_END,1516290285692,158
100,WS_SEND_START,1516290285692,158
100,WS_SEND_END,1516290285692,158
100,WS_RECV_START,1516290285692,159
100,WS_RECV_END,1516290288422,159
100,PLAYER_SLEEPBEFORE_START,1516290288423,160
100,PLAYER_SLEEPBEFORE_END,1516290288598,160
100,WS_SEND_START,1516290288598,160
100,WS_SEND_END,1516290288598,160
100,WS_RECV_START,1516290288598,161
100,WS_RECV_END,1516290294147,161
100,PLAYER_SLEEPBEFORE_START,1516290294147,162
100,PLAYER_SLEEPBEFORE_END,1516290294172,162
100,WS_SEND_START,1516290294172,162
100,WS_SEND_END,1516290294172,162
100,WS_RECV_START,1516290294172,163
100,WS_RECV_END,1516290300235,163
100,PLAYER_SLEEPBEFORE_START,1516290300235,164
100,PLAYER_SLEEPBEFORE_END,1516290321047,164
100,WS_SEND_START,1516290321047,164
100,WS_SEND_END,1516290321047,164
100,WS_RECV_START,1516290321047,165
100,WS_RECV_END,1516290327494,165
100,PLAYER_SLEEPBEFORE_START,1516290327494,166
100,PLAYER_SLEEPBEFORE_END,1516290349950,166
100,WS_SEND_START,1516290349950,166
100,WS_SEND_END,1516290349950,166
100,WS_RECV_START,1516290349950,167
100,WS_RECV_END,1516290355172,167
100,PLAYER_SLEEPBEFORE_START,1516290355172,168
100,PLAYER_SLEEPBEFORE_END,1516290382529,168
100,WS_SEND_START,1516290382529,168
100,WS_SEND_END,1516290382529,168
100,WS_RECV_START,1516290382529,169
100,WS_RECV_END,1516290388455,169
100,PLAYER_SLEEPBEFORE_START,1516290388455,170
100,PLAYER_SLEEPBEFORE_END,1516290388464,170
100,WS_SEND_START,1516290388464,170
100,WS_SEND_END,1516290388464,170
100,WS_RECV_START,1516290388464,171
100,WS_RECV_END,1516290391631,171
100,PLAYER_SLEEPBEFORE_START,1516290391631,172
100,PLAYER_SLEEPBEFORE_END,1516290392000,172
100,WS_SEND_START,1516290392000,172
100,WS_SEND_END,1516290392000,172
100,WS_RECV_START,1516290392000,173
100,WS_RECV_END,1516290396600,173
100,PLAYER_SLEEPBEFORE_START,1516290396600,174
100,PLAYER_SLEEPBEFORE_END,1516290396642,174
100,WS_SEND_START,1516290396642,174
100,WS_SEND_END,1516290396642,174
100,WS_RECV_START,1516290396642,175
100,WS_RECV_END,1516290401249,175
100,PLAYER_SLEEPBEFORE_START,1516290401249,176
100,PLAYER_SLEEPBEFORE_END,1516290423010,176
100,WS_SEND_START,1516290423010,176
100,WS_SEND_END,1516290423010,176
100,PLAYER_SLEEPBEFORE_START,1516290423010,177
100,PLAYER_SLEEPBEFORE_END,1516290425528,177
100,WS_SEND_START,1516290425528,177
100,WS_SEND_END,1516290425528,177
100,WS_RECV_START,1516290425528,178
100,WS_RECV_END,1516290429757,178
100,PLAYER_SLEEPBEFORE_START,1516290429757,179
100,PLAYER_SLEEPBEFORE_END,1516290452097,179
100,WS_SEND_START,1516290452097,179
100,WS_SEND_END,1516290452097,179
100,WS_RECV_START,1516290452097,180
100,WS_RECV_END,1516290460329,180
100,PLAYER_SLEEPBEFORE_START,1516290460329,181
100,PLAYER_SLEEPBEFORE_END,1516290460773,181
100,WS_SEND_START,1516290460773,181
100,WS_SEND_END,1516290460773,181
100,WS_RECV_START,1516290460773,182
100,WS_RECV_END,1516290465412,182
100,PLAYER_SLEEPBEFORE_START,1516290465412,183
100,PLAYER_SLEEPBEFORE_END,1516290465935,183
100,WS_SEND_START,1516290465935,183
100,WS_SEND_END,1516290465935,183
100,WS_RECV_START,1516290465935,184
100,WS_RECV_END,1516290470368,184
100,PLAYER_SLEEPBEFORE_START,1516290470368,185
100,PLAYER_SLEEPBEFORE_END,1516290470636,185
100,WS_SEND_START,1516290470636,185
100,WS_SEND_END,1516290470636,185
100,WS_RECV_START,1516290470636,186
100,WS_RECV_END,1516290475505,186
100,PLAYER_SLEEPBEFORE_START,1516290475505,187
100,PLAYER_SLEEPBEFORE_END,1516290498005,187
100,WS_SEND_START,1516290498005,187
100,WS_SEND_END,1516290498005,187
100,WS_RECV_START,1516290498005,188
100,WS_RECV_END,1516290504934,188
100,PLAYER_SLEEPBEFORE_START,1516290504934,189
100,PLAYER_SLEEPBEFORE_END,1516290511173,189
100,WS_SEND_START,1516290511173,189
100,WS_SEND_END,1516290511173,189
100,WS_RECV_START,1516290511173,190
100,WS_RECV_END,1516290520580,190
100,PLAYER_SLEEPBEFORE_START,1516290520580,191
100,PLAYER_SLEEPBEFORE_END,1516290522496,191
100,WS_SEND_START,1516290522496,191
100,WS_SEND_END,1516290522496,191
100,WS_RECV_START,1516290522496,192
100,WS_RECV_END,1516290533650,192
100,PLAYER_SLEEPBEFORE_START,1516290533650,193
100,PLAYER_SLEEPBEFORE_END,1516290533778,193
100,WS_SEND_START,1516290533778,193
100,WS_SEND_END,1516290533778,193
100,WS_RECV_START,1516290533778,194
100,WS_RECV_END,1516290539368,194
100,PLAYER_SLEEPBEFORE_START,1516290539368,195
100,PLAYER_SLEEPBEFORE_END,1516290541123,195
100,WS_SEND_START,1516290541123,195
100,WS_SEND_END,1516290541123,195
100,WS_RECV_START,1516290541124,196
100,WS_RECV_END,1516290546103,196
100,PLAYER_SLEEPBEFORE_START,1516290546103,197
100,PLAYER_SLEEPBEFORE_END,1516290547907,197
100,WS_SEND_START,1516290547907,197
100,WS_SEND_END,1516290547907,197
100,WS_RECV_START,1516290547907,198
100,WS_RECV_END,1516290551855,198
100,PLAYER_SLEEPBEFORE_START,1516290551855,199
100,PLAYER_SLEEPBEFORE_END,1516290563709,199
100,WS_SEND_START,1516290563709,199
100,WS_SEND_END,1516290563709,199
100,PLAYER_SLEEPBEFORE_START,1516290563709,200
100,PLAYER_SLEEPBEFORE_END,1516290567797,200
100,WS_SEND_START,1516290567797,200
100,WS_SEND_END,1516290567797,200
100,WS_RECV_START,1516290567797,201
100,WS_RECV_END,1516290574086,201
100,PLAYER_SLEEPBEFORE_START,1516290574086,202
100,PLAYER_SLEEPBEFORE_END,1516290574101,202
100,WS_SEND_START,1516290574101,202
100,WS_SEND_END,1516290574101,202
100,WS_RECV_START,1516290574101,203
100,WS_RECV_END,1516290580325,203
100,PLAYER_SLEEPBEFORE_START,1516290580325,204
100,PLAYER_SLEEPBEFORE_END,1516290599974,204
100,WS_SEND_START,1516290599974,204
100,WS_SEND_END,1516290599974,204
100,PLAYER_SLEEPBEFORE_START,1516290599974,205
100,PLAYER_SLEEPBEFORE_END,1516290603873,205
100,WS_SEND_START,1516290603873,205
100,WS_SEND_END,1516290603873,205
100,WS_RECV_START,1516290603873,206
100,WS_RECV_END,1516290606757,206
100,PLAYER_SLEEPBEFORE_START,1516290606757,207
100,PLAYER_SLEEPBEFORE_END,1516290623688,207
100,REQ_START,1516290623688,207
100,REQ_END,1516290623696,207
100,PLAYER_SLEEPBEFORE_START,1516290623696,208
100,PLAYER_SLEEPBEFORE_END,1516290630548,208
100,WS_CLOSE_START,1516290630548,208
100,WS_CLOSE_END,1516290630548,208
100,PLAYER_DONE,1516290630548
