# --sessions 720 --app-url=http://shinyloadtest.rstudioservices.com/cran_explorer --output-dir test720 --overwrite-output --log-level warn --start-interval 500 15min.log
thread_id,event,timestamp,input_line_number,comment
198,PLAYER_SESSION_CREATE,1516289462045
198,PLAYER_START_INTERVAL_START,1516289462046
198,PLAYER_START_INTERVAL_END,1516289561046
198,REQ_HOME_START,1516289561046,2
198,REQ_HOME_END,1516289561166,2
198,REQ_START,1516289561166,3
198,REQ_END,1516289561206,3
198,REQ_START,1516289561206,4
198,REQ_END,1516289561248,4
198,REQ_START,1516289561248,5
198,REQ_END,1516289561286,5
198,REQ_START,1516289561286,6
198,REQ_END,1516289561322,6
198,REQ_START,1516289561322,7
198,REQ_END,1516289561364,7
198,REQ_START,1516289561364,8
198,REQ_END,1516289561404,8
198,REQ_START,1516289561404,9
198,REQ_END,1516289561457,9
198,REQ_START,1516289561457,10
198,REQ_END,1516289561465,10
198,REQ_START,1516289561465,11
198,REQ_END,1516289561505,11
198,REQ_START,1516289561505,12
198,REQ_END,1516289561514,12
198,REQ_START,1516289561514,13
198,REQ_END,1516289561556,13
198,REQ_START,1516289561556,14
198,REQ_END,1516289561572,14
198,REQ_START,1516289561572,15
198,REQ_END,1516289561605,15
198,REQ_TOK_START,1516289561605,16
198,REQ_TOK_END,1516289561613,16
198,REQ_SINF_START,1516289561613,17
198,REQ_SINF_END,1516289561619,17
198,WS_OPEN_START,1516289561619,18
198,WS_OPEN_END,1516289561626,18
198,REQ_START,1516289561626,19
198,REQ_END,1516289561654,19
198,WS_RECV_START,1516289561654,20
198,WS_RECV_END,1516289561654,20
198,PLAYER_SLEEPBEFORE_START,1516289561654,21
198,PLAYER_SLEEPBEFORE_END,1516289561659,21
198,WS_SEND_START,1516289561659,21
198,WS_SEND_END,1516289561659,21
198,PLAYER_SLEEPBEFORE_START,1516289561659,22
198,PLAYER_SLEEPBEFORE_END,1516289561660,22
198,WS_SEND_START,1516289561661,22
198,WS_SEND_END,1516289561661,22
198,WS_RECV_INIT_START,1516289561661,23
198,WS_RECV_INIT_END,1516289561682,23
198,WS_RECV_START,1516289561682,24
198,WS_RECV_END,1516289561731,24
198,PLAYER_SLEEPBEFORE_START,1516289561731,25
198,PLAYER_SLEEPBEFORE_END,1516289561739,25
198,REQ_START,1516289561739,25
198,REQ_END,1516289561774,25
198,PLAYER_SLEEPBEFORE_START,1516289561774,26
198,PLAYER_SLEEPBEFORE_END,1516289561775,26
198,REQ_START,1516289561775,26
198,REQ_END,1516289561826,26
198,PLAYER_SLEEPBEFORE_START,1516289561826,27
198,PLAYER_SLEEPBEFORE_END,1516289561829,27
198,REQ_START,1516289561829,27
198,REQ_END,1516289561866,27
198,PLAYER_SLEEPBEFORE_START,1516289561866,28
198,PLAYER_SLEEPBEFORE_END,1516289562151,28
198,REQ_START,1516289562151,28
198,REQ_END,1516289562213,28
198,PLAYER_SLEEPBEFORE_START,1516289562213,29
198,PLAYER_SLEEPBEFORE_END,1516289562388,29
198,WS_SEND_START,1516289562388,29
198,WS_SEND_END,1516289562389,29
198,WS_RECV_START,1516289562389,30
198,WS_RECV_END,1516289562518,30
198,PLAYER_SLEEPBEFORE_START,1516289562518,31
198,PLAYER_SLEEPBEFORE_END,1516289562529,31
198,REQ_START,1516289562529,31
198,REQ_END,1516289562564,31
198,PLAYER_SLEEPBEFORE_START,1516289562564,32
198,PLAYER_SLEEPBEFORE_END,1516289590709,32
198,WS_SEND_START,1516289590709,32
198,WS_SEND_END,1516289590709,32
198,WS_RECV_START,1516289590709,33
198,WS_RECV_END,1516289590822,33
198,PLAYER_SLEEPBEFORE_START,1516289590822,34
198,PLAYER_SLEEPBEFORE_END,1516289616733,34
198,WS_SEND_START,1516289616733,34
198,WS_SEND_END,1516289616733,34
198,WS_RECV_START,1516289616733,35
198,WS_RECV_END,1516289616795,35
198,PLAYER_SLEEPBEFORE_START,1516289616795,36
198,PLAYER_SLEEPBEFORE_END,1516289616804,36
198,WS_SEND_START,1516289616804,36
198,WS_SEND_END,1516289616804,36
198,WS_RECV_START,1516289616804,37
198,WS_RECV_END,1516289616845,37
198,PLAYER_SLEEPBEFORE_START,1516289616845,38
198,PLAYER_SLEEPBEFORE_END,1516289620040,38
198,WS_SEND_START,1516289620040,38
198,WS_SEND_END,1516289620040,38
198,WS_RECV_START,1516289620040,39
198,WS_RECV_END,1516289620202,39
198,PLAYER_SLEEPBEFORE_START,1516289620202,40
198,PLAYER_SLEEPBEFORE_END,1516289620248,40
198,WS_SEND_START,1516289620248,40
198,WS_SEND_END,1516289620248,40
198,WS_RECV_START,1516289620248,41
198,WS_RECV_END,1516289620436,41
198,PLAYER_SLEEPBEFORE_START,1516289620436,42
198,PLAYER_SLEEPBEFORE_END,1516289638571,42
198,WS_SEND_START,1516289638571,42
198,WS_SEND_END,1516289638571,42
198,WS_RECV_START,1516289638571,43
198,WS_RECV_END,1516289638770,43
198,PLAYER_SLEEPBEFORE_START,1516289638770,44
198,PLAYER_SLEEPBEFORE_END,1516289638783,44
198,WS_SEND_START,1516289638783,44
198,WS_SEND_END,1516289638783,44
198,WS_RECV_START,1516289638783,45
198,WS_RECV_END,1516289638969,45
198,PLAYER_SLEEPBEFORE_START,1516289638969,46
198,PLAYER_SLEEPBEFORE_END,1516289640230,46
198,WS_SEND_START,1516289640230,46
198,WS_SEND_END,1516289640230,46
198,WS_RECV_START,1516289640230,47
198,WS_RECV_END,1516289640362,47
198,PLAYER_SLEEPBEFORE_START,1516289640362,48
198,PLAYER_SLEEPBEFORE_END,1516289641682,48
198,WS_SEND_START,1516289641682,48
198,WS_SEND_END,1516289641682,48
198,WS_RECV_START,1516289641682,49
198,WS_RECV_END,1516289641942,49
198,PLAYER_SLEEPBEFORE_START,1516289641942,50
198,PLAYER_SLEEPBEFORE_END,1516289641966,50
198,WS_SEND_START,1516289641966,50
198,WS_SEND_END,1516289641966,50
198,WS_RECV_START,1516289641966,51
198,WS_RECV_END,1516289642083,51
198,PLAYER_SLEEPBEFORE_START,1516289642083,52
198,PLAYER_SLEEPBEFORE_END,1516289664647,52
198,WS_SEND_START,1516289664647,52
198,WS_SEND_END,1516289664647,52
198,WS_RECV_START,1516289664647,53
198,WS_RECV_END,1516289664806,53
198,PLAYER_SLEEPBEFORE_START,1516289664806,54
198,PLAYER_SLEEPBEFORE_END,1516289686110,54
198,WS_SEND_START,1516289686110,54
198,WS_SEND_END,1516289686110,54
198,PLAYER_SLEEPBEFORE_START,1516289686110,55
198,PLAYER_SLEEPBEFORE_END,1516289688051,55
198,WS_SEND_START,1516289688051,55
198,WS_SEND_END,1516289688051,55
198,WS_RECV_START,1516289688051,56
198,WS_RECV_END,1516289688239,56
198,PLAYER_SLEEPBEFORE_START,1516289688239,57
198,PLAYER_SLEEPBEFORE_END,1516289711111,57
198,WS_SEND_START,1516289711111,57
198,WS_SEND_END,1516289711111,57
198,WS_RECV_START,1516289711111,58
198,WS_RECV_END,1516289711182,58
198,PLAYER_SLEEPBEFORE_START,1516289711182,59
198,PLAYER_SLEEPBEFORE_END,1516289713510,59
198,WS_SEND_START,1516289713510,59
198,WS_SEND_END,1516289713510,59
198,WS_RECV_START,1516289713510,60
198,WS_RECV_END,1516289713694,60
198,PLAYER_SLEEPBEFORE_START,1516289713694,61
198,PLAYER_SLEEPBEFORE_END,1516289717285,61
198,WS_SEND_START,1516289717285,61
198,WS_SEND_END,1516289717285,61
198,WS_RECV_START,1516289717285,62
198,WS_RECV_END,1516289717482,62
198,PLAYER_SLEEPBEFORE_START,1516289717482,63
198,PLAYER_SLEEPBEFORE_END,1516289736744,63
198,WS_SEND_START,1516289736744,63
198,WS_SEND_END,1516289736744,63
198,WS_RECV_START,1516289736744,64
198,WS_RECV_END,1516289737071,64
198,PLAYER_SLEEPBEFORE_START,1516289737071,65
198,PLAYER_SLEEPBEFORE_END,1516289763888,65
198,WS_SEND_START,1516289763888,65
198,WS_SEND_END,1516289763888,65
198,WS_RECV_START,1516289763888,66
198,WS_RECV_END,1516289764723,66
198,PLAYER_SLEEPBEFORE_START,1516289764723,67
198,PLAYER_SLEEPBEFORE_END,1516289766231,67
198,WS_SEND_START,1516289766231,67
198,WS_SEND_END,1516289766231,67
198,WS_RECV_START,1516289766231,68
198,WS_RECV_END,1516289766430,68
198,PLAYER_SLEEPBEFORE_START,1516289766430,69
198,PLAYER_SLEEPBEFORE_END,1516289788428,69
198,WS_SEND_START,1516289788428,69
198,WS_SEND_END,1516289788428,69
198,WS_RECV_START,1516289788428,70
198,WS_RECV_END,1516289789000,70
198,PLAYER_SLEEPBEFORE_START,1516289789000,71
198,PLAYER_SLEEPBEFORE_END,1516289813776,71
198,WS_SEND_START,1516289813776,71
198,WS_SEND_END,1516289813776,71
198,PLAYER_SLEEPBEFORE_START,1516289813776,72
198,PLAYER_SLEEPBEFORE_END,1516289816383,72
198,WS_SEND_START,1516289816383,72
198,WS_SEND_END,1516289816383,72
198,WS_RECV_START,1516289816383,73
198,WS_RECV_END,1516289818147,73
198,PLAYER_SLEEPBEFORE_START,1516289818147,74
198,PLAYER_SLEEPBEFORE_END,1516289818156,74
198,WS_SEND_START,1516289818156,74
198,WS_SEND_END,1516289818156,74
198,WS_RECV_START,1516289818156,75
198,WS_RECV_END,1516289819498,75
198,PLAYER_SLEEPBEFORE_START,1516289819498,76
198,PLAYER_SLEEPBEFORE_END,1516289821004,76
198,WS_SEND_START,1516289821004,76
198,WS_SEND_END,1516289821004,76
198,WS_RECV_START,1516289821004,77
198,WS_RECV_END,1516289823007,77
198,PLAYER_SLEEPBEFORE_START,1516289823007,78
198,PLAYER_SLEEPBEFORE_END,1516289823875,78
198,WS_SEND_START,1516289823875,78
198,WS_SEND_END,1516289823875,78
198,WS_RECV_START,1516289823875,79
198,WS_RECV_END,1516289826071,79
198,PLAYER_SLEEPBEFORE_START,1516289826071,80
198,PLAYER_SLEEPBEFORE_END,1516289833737,80
198,WS_SEND_START,1516289833737,80
198,WS_SEND_END,1516289833737,80
198,WS_RECV_START,1516289833737,81
198,WS_RECV_END,1516289836612,81
198,PLAYER_SLEEPBEFORE_START,1516289836612,82
198,PLAYER_SLEEPBEFORE_END,1516289837715,82
198,WS_SEND_START,1516289837715,82
198,WS_SEND_END,1516289837715,82
198,WS_RECV_START,1516289837715,83
198,WS_RECV_END,1516289840614,83
198,PLAYER_SLEEPBEFORE_START,1516289840614,84
198,PLAYER_SLEEPBEFORE_END,1516289841561,84
198,WS_SEND_START,1516289841561,84
198,WS_SEND_END,1516289841561,84
198,WS_RECV_START,1516289841561,85
198,WS_RECV_END,1516289842920,85
198,PLAYER_SLEEPBEFORE_START,1516289842920,86
198,PLAYER_SLEEPBEFORE_END,1516289847092,86
198,WS_SEND_START,1516289847092,86
198,WS_SEND_END,1516289847092,86
198,WS_RECV_START,1516289847092,87
198,WS_RECV_END,1516289850078,87
198,PLAYER_SLEEPBEFORE_START,1516289850078,88
198,PLAYER_SLEEPBEFORE_END,1516289850086,88
198,WS_SEND_START,1516289850086,88
198,WS_SEND_END,1516289850086,88
198,WS_RECV_START,1516289850086,89
198,WS_RECV_END,1516289851166,89
198,PLAYER_SLEEPBEFORE_START,1516289851166,90
198,PLAYER_SLEEPBEFORE_END,1516289878363,90
198,REQ_START,1516289878363,90
198,REQ_END,1516289878371,90
198,PLAYER_SLEEPBEFORE_START,1516289878371,91
198,PLAYER_SLEEPBEFORE_END,1516289886261,91
198,WS_SEND_START,1516289886261,91
198,WS_SEND_END,1516289886261,91
198,WS_RECV_START,1516289886261,92
198,WS_RECV_END,1516289888755,92
198,PLAYER_SLEEPBEFORE_START,1516289888755,93
198,PLAYER_SLEEPBEFORE_END,1516289888770,93
198,WS_SEND_START,1516289888770,93
198,WS_SEND_END,1516289888770,93
198,WS_RECV_START,1516289888770,94
198,WS_RECV_END,1516289890618,94
198,PLAYER_SLEEPBEFORE_START,1516289890618,95
198,PLAYER_SLEEPBEFORE_END,1516289914174,95
198,WS_SEND_START,1516289914174,95
198,WS_SEND_END,1516289914174,95
198,WS_RECV_START,1516289914174,96
198,WS_RECV_END,1516289915511,96
198,PLAYER_SLEEPBEFORE_START,1516289915511,97
198,PLAYER_SLEEPBEFORE_END,1516289937951,97
198,WS_SEND_START,1516289937951,97
198,WS_SEND_END,1516289937951,97
198,WS_RECV_START,1516289937951,98
198,WS_RECV_END,1516289940938,98
198,PLAYER_SLEEPBEFORE_START,1516289940938,99
198,PLAYER_SLEEPBEFORE_END,1516289940959,99
198,WS_SEND_START,1516289940959,99
198,WS_SEND_END,1516289940959,99
198,WS_RECV_START,1516289940959,100
198,WS_RECV_END,1516289942448,100
198,PLAYER_SLEEPBEFORE_START,1516289942448,101
198,PLAYER_SLEEPBEFORE_END,1516289966007,101
198,WS_SEND_START,1516289966007,101
198,WS_SEND_END,1516289966007,101
198,WS_RECV_START,1516289966007,102
198,WS_RECV_END,1516289969606,102
198,PLAYER_SLEEPBEFORE_START,1516289969606,103
198,PLAYER_SLEEPBEFORE_END,1516289993231,103
198,WS_SEND_START,1516289993231,103
198,WS_SEND_END,1516289993231,103
198,WS_RECV_START,1516289993231,104
198,WS_RECV_END,1516289997254,104
198,PLAYER_SLEEPBEFORE_START,1516289997254,105
198,PLAYER_SLEEPBEFORE_END,1516290022631,105
198,WS_SEND_START,1516290022631,105
198,WS_SEND_END,1516290022631,105
198,WS_RECV_START,1516290022631,106
198,WS_RECV_END,1516290027780,106
198,PLAYER_SLEEPBEFORE_START,1516290027780,107
198,PLAYER_SLEEPBEFORE_END,1516290051204,107
198,WS_SEND_START,1516290051204,107
198,WS_SEND_END,1516290051204,107
198,WS_RECV_START,1516290051204,108
198,WS_RECV_END,1516290054204,108
198,PLAYER_SLEEPBEFORE_START,1516290054204,109
198,PLAYER_SLEEPBEFORE_END,1516290054213,109
198,WS_SEND_START,1516290054213,109
198,WS_SEND_END,1516290054213,109
198,WS_RECV_START,1516290054213,110
198,WS_RECV_END,1516290055738,110
198,PLAYER_SLEEPBEFORE_START,1516290055738,111
198,PLAYER_SLEEPBEFORE_END,1516290056697,111
198,WS_SEND_START,1516290056697,111
198,WS_SEND_END,1516290056697,111
198,WS_RECV_START,1516290056697,112
198,WS_RECV_END,1516290058608,112
198,PLAYER_SLEEPBEFORE_START,1516290058608,113
198,PLAYER_SLEEPBEFORE_END,1516290059170,113
198,WS_SEND_START,1516290059170,113
198,WS_SEND_END,1516290059171,113
198,WS_RECV_START,1516290059171,114
198,WS_RECV_END,1516290061943,114
198,PLAYER_SLEEPBEFORE_START,1516290061943,115
198,PLAYER_SLEEPBEFORE_END,1516290061952,115
198,WS_SEND_START,1516290061952,115
198,WS_SEND_END,1516290061952,115
198,WS_RECV_START,1516290061952,116
198,WS_RECV_END,1516290065121,116
198,PLAYER_SLEEPBEFORE_START,1516290065121,117
198,PLAYER_SLEEPBEFORE_END,1516290085481,117
198,WS_SEND_START,1516290085481,117
198,WS_SEND_END,1516290085481,117
198,PLAYER_SLEEPBEFORE_START,1516290085481,118
198,PLAYER_SLEEPBEFORE_END,1516290089234,118
198,WS_SEND_START,1516290089234,118
198,WS_SEND_END,1516290089234,118
198,WS_RECV_START,1516290089234,119
198,WS_RECV_END,1516290091251,119
198,PLAYER_SLEEPBEFORE_START,1516290091251,120
198,PLAYER_SLEEPBEFORE_END,1516290092239,120
198,WS_SEND_START,1516290092239,120
198,WS_SEND_END,1516290092239,120
198,WS_RECV_START,1516290092239,121
198,WS_RECV_END,1516290099724,121
198,PLAYER_SLEEPBEFORE_START,1516290099724,122
198,PLAYER_SLEEPBEFORE_END,1516290100910,122
198,WS_SEND_START,1516290100910,122
198,WS_SEND_END,1516290100910,122
198,WS_RECV_START,1516290100910,123
198,WS_RECV_END,1516290103249,123
198,PLAYER_SLEEPBEFORE_START,1516290103249,124
198,PLAYER_SLEEPBEFORE_END,1516290127654,124
198,WS_SEND_START,1516290127654,124
198,WS_SEND_END,1516290127654,124
198,WS_RECV_START,1516290127654,125
198,WS_RECV_END,1516290134128,125
198,PLAYER_SLEEPBEFORE_START,1516290134128,126
198,PLAYER_SLEEPBEFORE_END,1516290154640,126
198,WS_SEND_START,1516290154640,126
198,WS_SEND_END,1516290154640,126
198,PLAYER_SLEEPBEFORE_START,1516290154640,127
198,PLAYER_SLEEPBEFORE_END,1516290157694,127
198,WS_SEND_START,1516290157694,127
198,WS_SEND_END,1516290157694,127
198,WS_RECV_START,1516290157694,128
198,WS_RECV_END,1516290160503,128
198,PLAYER_SLEEPBEFORE_START,1516290160503,129
198,PLAYER_SLEEPBEFORE_END,1516290160523,129
198,WS_SEND_START,1516290160523,129
198,WS_SEND_END,1516290160523,129
198,WS_RECV_START,1516290160523,130
198,WS_RECV_END,1516290164471,130
198,PLAYER_SLEEPBEFORE_START,1516290164471,131
198,PLAYER_SLEEPBEFORE_END,1516290186095,131
198,WS_SEND_START,1516290186095,131
198,WS_SEND_END,1516290186095,131
198,PLAYER_SLEEPBEFORE_START,1516290186095,132
198,PLAYER_SLEEPBEFORE_END,1516290189175,132
198,WS_SEND_START,1516290189175,132
198,WS_SEND_END,1516290189175,132
198,WS_RECV_START,1516290189175,133
198,WS_RECV_END,1516290192164,133
198,PLAYER_SLEEPBEFORE_START,1516290192164,134
198,PLAYER_SLEEPBEFORE_END,1516290213381,134
198,WS_SEND_START,1516290213381,134
198,WS_SEND_END,1516290213381,134
198,PLAYER_SLEEPBEFORE_START,1516290213381,135
198,PLAYER_SLEEPBEFORE_END,1516290216571,135
198,WS_SEND_START,1516290216571,135
198,WS_SEND_END,1516290216571,135
198,WS_RECV_START,1516290216571,136
198,WS_RECV_END,1516290218431,136
198,PLAYER_SLEEPBEFORE_START,1516290218431,137
198,PLAYER_SLEEPBEFORE_END,1516290218438,137
198,WS_SEND_START,1516290218438,137
198,WS_SEND_END,1516290218438,137
198,WS_RECV_START,1516290218438,138
198,WS_RECV_END,1516290221306,138
198,PLAYER_SLEEPBEFORE_START,1516290221306,139
198,PLAYER_SLEEPBEFORE_END,1516290221997,139
198,WS_SEND_START,1516290221997,139
198,WS_SEND_END,1516290221997,139
198,WS_RECV_START,1516290221997,140
198,WS_RECV_END,1516290226038,140
198,PLAYER_SLEEPBEFORE_START,1516290226038,141
198,PLAYER_SLEEPBEFORE_END,1516290226693,141
198,WS_SEND_START,1516290226693,141
198,WS_SEND_END,1516290226693,141
198,WS_RECV_START,1516290226693,142
198,WS_RECV_END,1516290230843,142
198,PLAYER_SLEEPBEFORE_START,1516290230843,143
198,PLAYER_SLEEPBEFORE_END,1516290230900,143
198,WS_SEND_START,1516290230900,143
198,WS_SEND_END,1516290230900,143
198,WS_RECV_START,1516290230900,144
198,WS_RECV_END,1516290235428,144
198,PLAYER_SLEEPBEFORE_START,1516290235428,145
198,PLAYER_SLEEPBEFORE_END,1516290251491,145
198,REQ_START,1516290251491,145
198,REQ_END,1516290251519,145
198,PLAYER_SLEEPBEFORE_START,1516290251519,146
198,PLAYER_SLEEPBEFORE_END,1516290260396,146
198,WS_SEND_START,1516290260396,146
198,WS_SEND_END,1516290260396,146
198,WS_RECV_START,1516290260396,147
198,WS_RECV_END,1516290264200,147
198,PLAYER_SLEEPBEFORE_START,1516290264200,148
198,PLAYER_SLEEPBEFORE_END,1516290286122,148
198,WS_SEND_START,1516290286122,148
198,WS_SEND_END,1516290286122,148
198,PLAYER_SLEEPBEFORE_START,1516290286122,149
198,PLAYER_SLEEPBEFORE_END,1516290288550,149
198,WS_SEND_START,1516290288550,149
198,WS_SEND_END,1516290288550,149
198,WS_RECV_START,1516290288550,150
198,WS_RECV_END,1516290292249,150
198,PLAYER_SLEEPBEFORE_START,1516290292249,151
198,PLAYER_SLEEPBEFORE_END,1516290292460,151
198,WS_SEND_START,1516290292460,151
198,WS_SEND_END,1516290292460,151
198,WS_RECV_START,1516290292460,152
198,WS_RECV_END,1516290295848,152
198,PLAYER_SLEEPBEFORE_START,1516290295848,153
198,PLAYER_SLEEPBEFORE_END,1516290319775,153
198,WS_SEND_START,1516290319775,153
198,WS_SEND_END,1516290319775,153
198,WS_RECV_START,1516290319775,154
198,WS_RECV_END,1516290326559,154
198,PLAYER_SLEEPBEFORE_START,1516290326559,155
198,PLAYER_SLEEPBEFORE_END,1516290349117,155
198,WS_SEND_START,1516290349117,155
198,WS_SEND_END,1516290349117,155
198,PLAYER_SLEEPBEFORE_START,1516290349117,156
198,PLAYER_SLEEPBEFORE_END,1516290352391,156
198,WS_SEND_START,1516290352391,156
198,WS_SEND_END,1516290352391,156
198,WS_RECV_START,1516290352391,157
198,WS_RECV_END,1516290354295,157
198,PLAYER_SLEEPBEFORE_START,1516290354295,158
198,PLAYER_SLEEPBEFORE_END,1516290354306,158
198,WS_SEND_START,1516290354306,158
198,WS_SEND_END,1516290354306,158
198,WS_RECV_START,1516290354306,159
198,WS_RECV_END,1516290357455,159
198,PLAYER_SLEEPBEFORE_START,1516290357455,160
198,PLAYER_SLEEPBEFORE_END,1516290357630,160
198,WS_SEND_START,1516290357630,160
198,WS_SEND_END,1516290357630,160
198,WS_RECV_START,1516290357630,161
198,WS_RECV_END,1516290361537,161
198,PLAYER_SLEEPBEFORE_START,1516290361537,162
198,PLAYER_SLEEPBEFORE_END,1516290361562,162
198,WS_SEND_START,1516290361562,162
198,WS_SEND_END,1516290361562,162
198,WS_RECV_START,1516290361562,163
198,WS_RECV_END,1516290366852,163
198,PLAYER_SLEEPBEFORE_START,1516290366852,164
198,PLAYER_SLEEPBEFORE_END,1516290387671,164
198,WS_SEND_START,1516290387671,164
198,WS_SEND_END,1516290387671,164
198,WS_RECV_START,1516290387671,165
198,WS_RECV_END,1516290393803,165
198,PLAYER_SLEEPBEFORE_START,1516290393803,166
198,PLAYER_SLEEPBEFORE_END,1516290416258,166
198,WS_SEND_START,1516290416258,166
198,WS_SEND_END,1516290416258,166
198,WS_RECV_START,1516290416258,167
198,WS_RECV_END,1516290421391,167
198,PLAYER_SLEEPBEFORE_START,1516290421391,168
198,PLAYER_SLEEPBEFORE_END,1516290448748,168
198,WS_SEND_START,1516290448748,168
198,WS_SEND_END,1516290448748,168
198,WS_RECV_START,1516290448748,169
198,WS_RECV_END,1516290458689,169
198,PLAYER_SLEEPBEFORE_START,1516290458689,170
198,PLAYER_SLEEPBEFORE_END,1516290458698,170
198,WS_SEND_START,1516290458698,170
198,WS_SEND_END,1516290458698,170
198,WS_RECV_START,1516290458698,171
198,WS_RECV_END,1516290464970,171
198,PLAYER_SLEEPBEFORE_START,1516290464970,172
198,PLAYER_SLEEPBEFORE_END,1516290465339,172
198,WS_SEND_START,1516290465339,172
198,WS_SEND_END,1516290465339,172
198,WS_RECV_START,1516290465339,173
198,WS_RECV_END,1516290469874,173
198,PLAYER_SLEEPBEFORE_START,1516290469874,174
198,PLAYER_SLEEPBEFORE_END,1516290469915,174
198,WS_SEND_START,1516290469915,174
198,WS_SEND_END,1516290469915,174
198,WS_RECV_START,1516290469915,175
198,WS_RECV_END,1516290475074,175
198,PLAYER_SLEEPBEFORE_START,1516290475074,176
198,PLAYER_SLEEPBEFORE_END,1516290496835,176
198,WS_SEND_START,1516290496835,176
198,WS_SEND_END,1516290496835,176
198,PLAYER_SLEEPBEFORE_START,1516290496835,177
198,PLAYER_SLEEPBEFORE_END,1516290499353,177
198,WS_SEND_START,1516290499353,177
198,WS_SEND_END,1516290499353,177
198,WS_RECV_START,1516290499353,178
198,WS_RECV_END,1516290504827,178
198,PLAYER_SLEEPBEFORE_START,1516290504827,179
198,PLAYER_SLEEPBEFORE_END,1516290527167,179
198,WS_SEND_START,1516290527167,179
198,WS_SEND_END,1516290527167,179
198,WS_RECV_START,1516290527168,180
198,WS_RECV_END,1516290535303,180
198,PLAYER_SLEEPBEFORE_START,1516290535303,181
198,PLAYER_SLEEPBEFORE_END,1516290535747,181
198,WS_SEND_START,1516290535747,181
198,WS_SEND_END,1516290535747,181
198,WS_RECV_START,1516290535747,182
198,WS_RECV_END,1516290540210,182
198,PLAYER_SLEEPBEFORE_START,1516290540210,183
198,PLAYER_SLEEPBEFORE_END,1516290540733,183
198,WS_SEND_START,1516290540733,183
198,WS_SEND_END,1516290540733,183
198,WS_RECV_START,1516290540733,184
198,WS_RECV_END,1516290546692,184
198,PLAYER_SLEEPBEFORE_START,1516290546692,185
198,PLAYER_SLEEPBEFORE_END,1516290546960,185
198,WS_SEND_START,1516290546960,185
198,WS_SEND_END,1516290546960,185
198,WS_RECV_START,1516290546960,186
198,WS_RECV_END,1516290552267,186
198,PLAYER_SLEEPBEFORE_START,1516290552267,187
198,PLAYER_SLEEPBEFORE_END,1516290574767,187
198,WS_SEND_START,1516290574767,187
198,WS_SEND_END,1516290574767,187
198,WS_RECV_START,1516290574767,188
198,WS_RECV_END,1516290582776,188
198,PLAYER_SLEEPBEFORE_START,1516290582776,189
198,PLAYER_SLEEPBEFORE_END,1516290589015,189
198,WS_SEND_START,1516290589015,189
198,WS_SEND_END,1516290589015,189
198,WS_RECV_START,1516290589015,190
198,WS_RECV_END,1516290595557,190
198,PLAYER_SLEEPBEFORE_START,1516290595557,191
198,PLAYER_SLEEPBEFORE_END,1516290597478,191
198,WS_SEND_START,1516290597478,191
198,WS_SEND_END,1516290597478,191
198,WS_RECV_START,1516290597478,192
198,WS_RECV_END,1516290605136,192
198,PLAYER_SLEEPBEFORE_START,1516290605136,193
198,PLAYER_SLEEPBEFORE_END,1516290605264,193
198,WS_SEND_START,1516290605264,193
198,WS_SEND_END,1516290605264,193
198,WS_RECV_START,1516290605264,194
198,WS_RECV_END,1516290611797,194
198,PLAYER_SLEEPBEFORE_START,1516290611797,195
198,PLAYER_SLEEPBEFORE_END,1516290613552,195
198,WS_SEND_START,1516290613552,195
198,WS_SEND_END,1516290613552,195
198,WS_RECV_START,1516290613552,196
198,WS_RECV_END,1516290616353,196
198,PLAYER_SLEEPBEFORE_START,1516290616353,197
198,PLAYER_SLEEPBEFORE_END,1516290618157,197
198,WS_SEND_START,1516290618157,197
198,WS_SEND_END,1516290618157,197
198,WS_RECV_START,1516290618157,198
198,WS_RECV_END,1516290622042,198
198,PLAYER_SLEEPBEFORE_START,1516290622042,199
198,PLAYER_SLEEPBEFORE_END,1516290633896,199
198,WS_SEND_START,1516290633896,199
198,WS_SEND_END,1516290633896,199
198,PLAYER_SLEEPBEFORE_START,1516290633896,200
198,PLAYER_SLEEPBEFORE_END,1516290637985,200
198,WS_SEND_START,1516290637985,200
198,WS_SEND_END,1516290637985,200
198,WS_RECV_START,1516290637985,201
198,WS_RECV_END,1516290641231,201
198,PLAYER_SLEEPBEFORE_START,1516290641231,202
198,PLAYER_SLEEPBEFORE_END,1516290641245,202
198,WS_SEND_START,1516290641245,202
198,WS_SEND_END,1516290641245,202
198,WS_RECV_START,1516290641245,203
198,WS_RECV_END,1516290645143,203
198,PLAYER_SLEEPBEFORE_START,1516290645143,204
198,PLAYER_SLEEPBEFORE_END,1516290664792,204
198,WS_SEND_START,1516290664792,204
198,WS_SEND_END,1516290664792,204
198,PLAYER_SLEEPBEFORE_START,1516290664792,205
198,PLAYER_SLEEPBEFORE_END,1516290668690,205
198,WS_SEND_START,1516290668690,205
198,WS_SEND_END,1516290668690,205
198,WS_RECV_START,1516290668690,206
198,WS_RECV_END,1516290669122,206
198,PLAYER_SLEEPBEFORE_START,1516290669122,207
198,PLAYER_SLEEPBEFORE_END,1516290686053,207
198,REQ_START,1516290686053,207
198,REQ_END,1516290686061,207
198,PLAYER_SLEEPBEFORE_START,1516290686061,208
198,PLAYER_SLEEPBEFORE_END,1516290692913,208
198,WS_CLOSE_START,1516290692913,208
198,WS_CLOSE_END,1516290692913,208
198,PLAYER_DONE,1516290692913
