# --sessions 720 --app-url=http://shinyloadtest.rstudioservices.com/cran_explorer --output-dir test720 --overwrite-output --log-level warn --start-interval 500 15min.log
thread_id,event,timestamp,input_line_number,comment
265,PLAYER_SESSION_CREATE,1516289462070
265,PLAYER_START_INTERVAL_START,1516289462070
265,PLAYER_START_INTERVAL_END,1516289594570
265,REQ_HOME_START,1516289594570,2
265,REQ_HOME_END,1516289594684,2
265,REQ_START,1516289594685,3
265,REQ_END,1516289594718,3
265,REQ_START,1516289594718,4
265,REQ_END,1516289594750,4
265,REQ_START,1516289594750,5
265,REQ_END,1516289594785,5
265,REQ_START,1516289594785,6
265,REQ_END,1516289594819,6
265,REQ_START,1516289594819,7
265,REQ_END,1516289594853,7
265,REQ_START,1516289594853,8
265,REQ_END,1516289594892,8
265,REQ_START,1516289594892,9
265,REQ_END,1516289594930,9
265,REQ_START,1516289594930,10
265,REQ_END,1516289594938,10
265,REQ_START,1516289594938,11
265,REQ_END,1516289594971,11
265,REQ_START,1516289594971,12
265,REQ_END,1516289594982,12
265,REQ_START,1516289594982,13
265,REQ_END,1516289595014,13
265,REQ_START,1516289595014,14
265,REQ_END,1516289595038,14
265,REQ_START,1516289595038,15
265,REQ_END,1516289595078,15
265,REQ_TOK_START,1516289595078,16
265,REQ_TOK_END,1516289595085,16
265,REQ_SINF_START,1516289595085,17
265,REQ_SINF_END,1516289595092,17
265,WS_OPEN_START,1516289595092,18
265,WS_OPEN_END,1516289595099,18
265,REQ_START,1516289595099,19
265,REQ_END,1516289595127,19
265,WS_RECV_START,1516289595127,20
265,WS_RECV_END,1516289595127,20
265,PLAYER_SLEEPBEFORE_START,1516289595127,21
265,PLAYER_SLEEPBEFORE_END,1516289595133,21
265,WS_SEND_START,1516289595133,21
265,WS_SEND_END,1516289595133,21
265,PLAYER_SLEEPBEFORE_START,1516289595133,22
265,PLAYER_SLEEPBEFORE_END,1516289595134,22
265,WS_SEND_START,1516289595134,22
265,WS_SEND_END,1516289595134,22
265,WS_RECV_INIT_START,1516289595134,23
265,WS_RECV_INIT_END,1516289595153,23
265,WS_RECV_START,1516289595153,24
265,WS_RECV_END,1516289595203,24
265,PLAYER_SLEEPBEFORE_START,1516289595203,25
265,PLAYER_SLEEPBEFORE_END,1516289595210,25
265,REQ_START,1516289595210,25
265,REQ_END,1516289595242,25
265,PLAYER_SLEEPBEFORE_START,1516289595242,26
265,PLAYER_SLEEPBEFORE_END,1516289595243,26
265,REQ_START,1516289595243,26
265,REQ_END,1516289595277,26
265,PLAYER_SLEEPBEFORE_START,1516289595277,27
265,PLAYER_SLEEPBEFORE_END,1516289595280,27
265,REQ_START,1516289595280,27
265,REQ_END,1516289595314,27
265,PLAYER_SLEEPBEFORE_START,1516289595314,28
265,PLAYER_SLEEPBEFORE_END,1516289595600,28
265,REQ_START,1516289595600,28
265,REQ_END,1516289595638,28
265,PLAYER_SLEEPBEFORE_START,1516289595638,29
265,PLAYER_SLEEPBEFORE_END,1516289595813,29
265,WS_SEND_START,1516289595813,29
265,WS_SEND_END,1516289595813,29
265,WS_RECV_START,1516289595813,30
265,WS_RECV_END,1516289595975,30
265,PLAYER_SLEEPBEFORE_START,1516289595975,31
265,PLAYER_SLEEPBEFORE_END,1516289595986,31
265,REQ_START,1516289595986,31
265,REQ_END,1516289596020,31
265,PLAYER_SLEEPBEFORE_START,1516289596020,32
265,PLAYER_SLEEPBEFORE_END,1516289624165,32
265,WS_SEND_START,1516289624165,32
265,WS_SEND_END,1516289624165,32
265,WS_RECV_START,1516289624165,33
265,WS_RECV_END,1516289624258,33
265,PLAYER_SLEEPBEFORE_START,1516289624258,34
265,PLAYER_SLEEPBEFORE_END,1516289650169,34
265,WS_SEND_START,1516289650169,34
265,WS_SEND_END,1516289650169,34
265,WS_RECV_START,1516289650169,35
265,WS_RECV_END,1516289650298,35
265,PLAYER_SLEEPBEFORE_START,1516289650298,36
265,PLAYER_SLEEPBEFORE_END,1516289650307,36
265,WS_SEND_START,1516289650307,36
265,WS_SEND_END,1516289650307,36
265,WS_RECV_START,1516289650307,37
265,WS_RECV_END,1516289650354,37
265,PLAYER_SLEEPBEFORE_START,1516289650354,38
265,PLAYER_SLEEPBEFORE_END,1516289653549,38
265,WS_SEND_START,1516289653549,38
265,WS_SEND_END,1516289653549,38
265,WS_RECV_START,1516289653549,39
265,WS_RECV_END,1516289653697,39
265,PLAYER_SLEEPBEFORE_START,1516289653697,40
265,PLAYER_SLEEPBEFORE_END,1516289653743,40
265,WS_SEND_START,1516289653743,40
265,WS_SEND_END,1516289653743,40
265,WS_RECV_START,1516289653743,41
265,WS_RECV_END,1516289653878,41
265,PLAYER_SLEEPBEFORE_START,1516289653878,42
265,PLAYER_SLEEPBEFORE_END,1516289672013,42
265,WS_SEND_START,1516289672013,42
265,WS_SEND_END,1516289672013,42
265,WS_RECV_START,1516289672013,43
265,WS_RECV_END,1516289672110,43
265,PLAYER_SLEEPBEFORE_START,1516289672110,44
265,PLAYER_SLEEPBEFORE_END,1516289672122,44
265,WS_SEND_START,1516289672122,44
265,WS_SEND_END,1516289672122,44
265,WS_RECV_START,1516289672122,45
265,WS_RECV_END,1516289672166,45
265,PLAYER_SLEEPBEFORE_START,1516289672166,46
265,PLAYER_SLEEPBEFORE_END,1516289673426,46
265,WS_SEND_START,1516289673426,46
265,WS_SEND_END,1516289673426,46
265,WS_RECV_START,1516289673426,47
265,WS_RECV_END,1516289673724,47
265,PLAYER_SLEEPBEFORE_START,1516289673724,48
265,PLAYER_SLEEPBEFORE_END,1516289675044,48
265,WS_SEND_START,1516289675044,48
265,WS_SEND_END,1516289675044,48
265,WS_RECV_START,1516289675044,49
265,WS_RECV_END,1516289675306,49
265,PLAYER_SLEEPBEFORE_START,1516289675306,50
265,PLAYER_SLEEPBEFORE_END,1516289675330,50
265,WS_SEND_START,1516289675330,50
265,WS_SEND_END,1516289675330,50
265,WS_RECV_START,1516289675330,51
265,WS_RECV_END,1516289675519,51
265,PLAYER_SLEEPBEFORE_START,1516289675519,52
265,PLAYER_SLEEPBEFORE_END,1516289698083,52
265,WS_SEND_START,1516289698083,52
265,WS_SEND_END,1516289698083,52
265,WS_RECV_START,1516289698083,53
265,WS_RECV_END,1516289698272,53
265,PLAYER_SLEEPBEFORE_START,1516289698272,54
265,PLAYER_SLEEPBEFORE_END,1516289719576,54
265,WS_SEND_START,1516289719576,54
265,WS_SEND_END,1516289719576,54
265,PLAYER_SLEEPBEFORE_START,1516289719576,55
265,PLAYER_SLEEPBEFORE_END,1516289721517,55
265,WS_SEND_START,1516289721517,55
265,WS_SEND_END,1516289721517,55
265,WS_RECV_START,1516289721517,56
265,WS_RECV_END,1516289721653,56
265,PLAYER_SLEEPBEFORE_START,1516289721653,57
265,PLAYER_SLEEPBEFORE_END,1516289744525,57
265,WS_SEND_START,1516289744525,57
265,WS_SEND_END,1516289744525,57
265,WS_RECV_START,1516289744525,58
265,WS_RECV_END,1516289745199,58
265,PLAYER_SLEEPBEFORE_START,1516289745199,59
265,PLAYER_SLEEPBEFORE_END,1516289747526,59
265,WS_SEND_START,1516289747526,59
265,WS_SEND_END,1516289747526,59
265,WS_RECV_START,1516289747526,60
265,WS_RECV_END,1516289748017,60
265,PLAYER_SLEEPBEFORE_START,1516289748017,61
265,PLAYER_SLEEPBEFORE_END,1516289751608,61
265,WS_SEND_START,1516289751608,61
265,WS_SEND_END,1516289751608,61
265,WS_RECV_START,1516289751608,62
265,WS_RECV_END,1516289752246,62
265,PLAYER_SLEEPBEFORE_START,1516289752246,63
265,PLAYER_SLEEPBEFORE_END,1516289771508,63
265,WS_SEND_START,1516289771508,63
265,WS_SEND_END,1516289771508,63
265,WS_RECV_START,1516289771508,64
265,WS_RECV_END,1516289772007,64
265,PLAYER_SLEEPBEFORE_START,1516289772007,65
265,PLAYER_SLEEPBEFORE_END,1516289798824,65
265,WS_SEND_START,1516289798824,65
265,WS_SEND_END,1516289798824,65
265,WS_RECV_START,1516289798824,66
265,WS_RECV_END,1516289799901,66
265,PLAYER_SLEEPBEFORE_START,1516289799901,67
265,PLAYER_SLEEPBEFORE_END,1516289801408,67
265,WS_SEND_START,1516289801408,67
265,WS_SEND_END,1516289801408,67
265,WS_RECV_START,1516289801408,68
265,WS_RECV_END,1516289802750,68
265,PLAYER_SLEEPBEFORE_START,1516289802750,69
265,PLAYER_SLEEPBEFORE_END,1516289824748,69
265,WS_SEND_START,1516289824748,69
265,WS_SEND_END,1516289824748,69
265,WS_RECV_START,1516289824748,70
265,WS_RECV_END,1516289826298,70
265,PLAYER_SLEEPBEFORE_START,1516289826298,71
265,PLAYER_SLEEPBEFORE_END,1516289851073,71
265,WS_SEND_START,1516289851073,71
265,WS_SEND_END,1516289851073,71
265,PLAYER_SLEEPBEFORE_START,1516289851073,72
265,PLAYER_SLEEPBEFORE_END,1516289853680,72
265,WS_SEND_START,1516289853680,72
265,WS_SEND_END,1516289853680,72
265,WS_RECV_START,1516289853680,73
265,WS_RECV_END,1516289854438,73
265,PLAYER_SLEEPBEFORE_START,1516289854438,74
265,PLAYER_SLEEPBEFORE_END,1516289854448,74
265,WS_SEND_START,1516289854448,74
265,WS_SEND_END,1516289854448,74
265,WS_RECV_START,1516289854448,75
265,WS_RECV_END,1516289856966,75
265,PLAYER_SLEEPBEFORE_START,1516289856966,76
265,PLAYER_SLEEPBEFORE_END,1516289858472,76
265,WS_SEND_START,1516289858472,76
265,WS_SEND_END,1516289858472,76
265,WS_RECV_START,1516289858472,77
265,WS_RECV_END,1516289858802,77
265,PLAYER_SLEEPBEFORE_START,1516289858802,78
265,PLAYER_SLEEPBEFORE_END,1516289859670,78
265,WS_SEND_START,1516289859670,78
265,WS_SEND_END,1516289859670,78
265,WS_RECV_START,1516289859670,79
265,WS_RECV_END,1516289861132,79
265,PLAYER_SLEEPBEFORE_START,1516289861132,80
265,PLAYER_SLEEPBEFORE_END,1516289868798,80
265,WS_SEND_START,1516289868798,80
265,WS_SEND_END,1516289868798,80
265,WS_RECV_START,1516289868798,81
265,WS_RECV_END,1516289871319,81
265,PLAYER_SLEEPBEFORE_START,1516289871319,82
265,PLAYER_SLEEPBEFORE_END,1516289872421,82
265,WS_SEND_START,1516289872421,82
265,WS_SEND_END,1516289872421,82
265,WS_RECV_START,1516289872421,83
265,WS_RECV_END,1516289875706,83
265,PLAYER_SLEEPBEFORE_START,1516289875706,84
265,PLAYER_SLEEPBEFORE_END,1516289876653,84
265,WS_SEND_START,1516289876653,84
265,WS_SEND_END,1516289876653,84
265,WS_RECV_START,1516289876653,85
265,WS_RECV_END,1516289877747,85
265,PLAYER_SLEEPBEFORE_START,1516289877747,86
265,PLAYER_SLEEPBEFORE_END,1516289881919,86
265,WS_SEND_START,1516289881919,86
265,WS_SEND_END,1516289881919,86
265,WS_RECV_START,1516289881919,87
265,WS_RECV_END,1516289883962,87
265,PLAYER_SLEEPBEFORE_START,1516289883962,88
265,PLAYER_SLEEPBEFORE_END,1516289883971,88
265,WS_SEND_START,1516289883971,88
265,WS_SEND_END,1516289883971,88
265,WS_RECV_START,1516289883971,89
265,WS_RECV_END,1516289885254,89
265,PLAYER_SLEEPBEFORE_START,1516289885254,90
265,PLAYER_SLEEPBEFORE_END,1516289912451,90
265,REQ_START,1516289912451,90
265,REQ_END,1516289912459,90
265,PLAYER_SLEEPBEFORE_START,1516289912459,91
265,PLAYER_SLEEPBEFORE_END,1516289920348,91
265,WS_SEND_START,1516289920348,91
265,WS_SEND_END,1516289920348,91
265,WS_RECV_START,1516289920348,92
265,WS_RECV_END,1516289921981,92
265,PLAYER_SLEEPBEFORE_START,1516289921981,93
265,PLAYER_SLEEPBEFORE_END,1516289921996,93
265,WS_SEND_START,1516289921996,93
265,WS_SEND_END,1516289921996,93
265,WS_RECV_START,1516289921996,94
265,WS_RECV_END,1516289922883,94
265,PLAYER_SLEEPBEFORE_START,1516289922883,95
265,PLAYER_SLEEPBEFORE_END,1516289946439,95
265,WS_SEND_START,1516289946439,95
265,WS_SEND_END,1516289946439,95
265,WS_RECV_START,1516289946439,96
265,WS_RECV_END,1516289950897,96
265,PLAYER_SLEEPBEFORE_START,1516289950897,97
265,PLAYER_SLEEPBEFORE_END,1516289973337,97
265,WS_SEND_START,1516289973337,97
265,WS_SEND_END,1516289973337,97
265,WS_RECV_START,1516289973337,98
265,WS_RECV_END,1516289976630,98
265,PLAYER_SLEEPBEFORE_START,1516289976630,99
265,PLAYER_SLEEPBEFORE_END,1516289976651,99
265,WS_SEND_START,1516289976651,99
265,WS_SEND_END,1516289976651,99
265,WS_RECV_START,1516289976651,100
265,WS_RECV_END,1516289979019,100
265,PLAYER_SLEEPBEFORE_START,1516289979019,101
265,PLAYER_SLEEPBEFORE_END,1516290002579,101
265,WS_SEND_START,1516290002579,101
265,WS_SEND_END,1516290002579,101
265,WS_RECV_START,1516290002579,102
265,WS_RECV_END,1516290008975,102
265,PLAYER_SLEEPBEFORE_START,1516290008975,103
265,PLAYER_SLEEPBEFORE_END,1516290032600,103
265,WS_SEND_START,1516290032600,103
265,WS_SEND_END,1516290032600,103
265,WS_RECV_START,1516290032600,104
265,WS_RECV_END,1516290037909,104
265,PLAYER_SLEEPBEFORE_START,1516290037909,105
265,PLAYER_SLEEPBEFORE_END,1516290063286,105
265,WS_SEND_START,1516290063286,105
265,WS_SEND_END,1516290063286,105
265,WS_RECV_START,1516290063286,106
265,WS_RECV_END,1516290067774,106
265,PLAYER_SLEEPBEFORE_START,1516290067774,107
265,PLAYER_SLEEPBEFORE_END,1516290091197,107
265,WS_SEND_START,1516290091197,107
265,WS_SEND_END,1516290091197,107
265,WS_RECV_START,1516290091197,108
265,WS_RECV_END,1516290096280,108
265,PLAYER_SLEEPBEFORE_START,1516290096280,109
265,PLAYER_SLEEPBEFORE_END,1516290096289,109
265,WS_SEND_START,1516290096289,109
265,WS_SEND_END,1516290096289,109
265,WS_RECV_START,1516290096289,110
265,WS_RECV_END,1516290097706,110
265,PLAYER_SLEEPBEFORE_START,1516290097706,111
265,PLAYER_SLEEPBEFORE_END,1516290098665,111
265,WS_SEND_START,1516290098665,111
265,WS_SEND_END,1516290098665,111
265,WS_RECV_START,1516290098665,112
265,WS_RECV_END,1516290101807,112
265,PLAYER_SLEEPBEFORE_START,1516290101807,113
265,PLAYER_SLEEPBEFORE_END,1516290102369,113
265,WS_SEND_START,1516290102369,113
265,WS_SEND_END,1516290102369,113
265,WS_RECV_START,1516290102369,114
265,WS_RECV_END,1516290106294,114
265,PLAYER_SLEEPBEFORE_START,1516290106294,115
265,PLAYER_SLEEPBEFORE_END,1516290106303,115
265,WS_SEND_START,1516290106303,115
265,WS_SEND_END,1516290106303,115
265,WS_RECV_START,1516290106303,116
265,WS_RECV_END,1516290111028,116
265,PLAYER_SLEEPBEFORE_START,1516290111028,117
265,PLAYER_SLEEPBEFORE_END,1516290131388,117
265,WS_SEND_START,1516290131388,117
265,WS_SEND_END,1516290131388,117
265,PLAYER_SLEEPBEFORE_START,1516290131388,118
265,PLAYER_SLEEPBEFORE_END,1516290135140,118
265,WS_SEND_START,1516290135140,118
265,WS_SEND_END,1516290135140,118
265,WS_RECV_START,1516290135140,119
265,WS_RECV_END,1516290137683,119
265,PLAYER_SLEEPBEFORE_START,1516290137683,120
265,PLAYER_SLEEPBEFORE_END,1516290138671,120
265,WS_SEND_START,1516290138671,120
265,WS_SEND_END,1516290138671,120
265,WS_RECV_START,1516290138671,121
265,WS_RECV_END,1516290139817,121
265,PLAYER_SLEEPBEFORE_START,1516290139817,122
265,PLAYER_SLEEPBEFORE_END,1516290141002,122
265,WS_SEND_START,1516290141002,122
265,WS_SEND_END,1516290141002,122
265,WS_RECV_START,1516290141002,123
265,WS_RECV_END,1516290143389,123
265,PLAYER_SLEEPBEFORE_START,1516290143389,124
265,PLAYER_SLEEPBEFORE_END,1516290167794,124
265,WS_SEND_START,1516290167794,124
265,WS_SEND_END,1516290167794,124
265,WS_RECV_START,1516290167794,125
265,WS_RECV_END,1516290174746,125
265,PLAYER_SLEEPBEFORE_START,1516290174746,126
265,PLAYER_SLEEPBEFORE_END,1516290195258,126
265,WS_SEND_START,1516290195258,126
265,WS_SEND_END,1516290195258,126
265,PLAYER_SLEEPBEFORE_START,1516290195258,127
265,PLAYER_SLEEPBEFORE_END,1516290198312,127
265,WS_SEND_START,1516290198312,127
265,WS_SEND_END,1516290198312,127
265,WS_RECV_START,1516290198312,128
265,WS_RECV_END,1516290200211,128
265,PLAYER_SLEEPBEFORE_START,1516290200211,129
265,PLAYER_SLEEPBEFORE_END,1516290200237,129
265,WS_SEND_START,1516290200237,129
265,WS_SEND_END,1516290200237,129
265,WS_RECV_START,1516290200237,130
265,WS_RECV_END,1516290204283,130
265,PLAYER_SLEEPBEFORE_START,1516290204283,131
265,PLAYER_SLEEPBEFORE_END,1516290225908,131
265,WS_SEND_START,1516290225908,131
265,WS_SEND_END,1516290225908,131
265,PLAYER_SLEEPBEFORE_START,1516290225908,132
265,PLAYER_SLEEPBEFORE_END,1516290228988,132
265,WS_SEND_START,1516290228988,132
265,WS_SEND_END,1516290228988,132
265,WS_RECV_START,1516290228988,133
265,WS_RECV_END,1516290233080,133
265,PLAYER_SLEEPBEFORE_START,1516290233080,134
265,PLAYER_SLEEPBEFORE_END,1516290254297,134
265,WS_SEND_START,1516290254297,134
265,WS_SEND_END,1516290254297,134
265,PLAYER_SLEEPBEFORE_START,1516290254297,135
265,PLAYER_SLEEPBEFORE_END,1516290257488,135
265,WS_SEND_START,1516290257488,135
265,WS_SEND_END,1516290257488,135
265,WS_RECV_START,1516290257488,136
265,WS_RECV_END,1516290259322,136
265,PLAYER_SLEEPBEFORE_START,1516290259322,137
265,PLAYER_SLEEPBEFORE_END,1516290259329,137
265,WS_SEND_START,1516290259329,137
265,WS_SEND_END,1516290259329,137
265,WS_RECV_START,1516290259329,138
265,WS_RECV_END,1516290261690,138
265,PLAYER_SLEEPBEFORE_START,1516290261690,139
265,PLAYER_SLEEPBEFORE_END,1516290262381,139
265,WS_SEND_START,1516290262381,139
265,WS_SEND_END,1516290262381,139
265,WS_RECV_START,1516290262381,140
265,WS_RECV_END,1516290265476,140
265,PLAYER_SLEEPBEFORE_START,1516290265476,141
265,PLAYER_SLEEPBEFORE_END,1516290266132,141
265,WS_SEND_START,1516290266132,141
265,WS_SEND_END,1516290266132,141
265,WS_RECV_START,1516290266132,142
265,WS_RECV_END,1516290269418,142
265,PLAYER_SLEEPBEFORE_START,1516290269418,143
265,PLAYER_SLEEPBEFORE_END,1516290269475,143
265,WS_SEND_START,1516290269475,143
265,WS_SEND_END,1516290269475,143
265,WS_RECV_START,1516290269475,144
265,WS_RECV_END,1516290275025,144
265,PLAYER_SLEEPBEFORE_START,1516290275025,145
265,PLAYER_SLEEPBEFORE_END,1516290291087,145
265,REQ_START,1516290291087,145
265,REQ_END,1516290291095,145
265,PLAYER_SLEEPBEFORE_START,1516290291096,146
265,PLAYER_SLEEPBEFORE_END,1516290299973,146
265,WS_SEND_START,1516290299973,146
265,WS_SEND_END,1516290299973,146
265,WS_RECV_START,1516290299973,147
265,WS_RECV_END,1516290306287,147
265,PLAYER_SLEEPBEFORE_START,1516290306287,148
265,PLAYER_SLEEPBEFORE_END,1516290328209,148
265,WS_SEND_START,1516290328209,148
265,WS_SEND_END,1516290328209,148
265,PLAYER_SLEEPBEFORE_START,1516290328209,149
265,PLAYER_SLEEPBEFORE_END,1516290330637,149
265,WS_SEND_START,1516290330637,149
265,WS_SEND_END,1516290330637,149
265,WS_RECV_START,1516290330637,150
265,WS_RECV_END,1516290333285,150
265,PLAYER_SLEEPBEFORE_START,1516290333285,151
265,PLAYER_SLEEPBEFORE_END,1516290333495,151
265,WS_SEND_START,1516290333495,151
265,WS_SEND_END,1516290333495,151
265,WS_RECV_START,1516290333495,152
265,WS_RECV_END,1516290336160,152
265,PLAYER_SLEEPBEFORE_START,1516290336160,153
265,PLAYER_SLEEPBEFORE_END,1516290360087,153
265,WS_SEND_START,1516290360087,153
265,WS_SEND_END,1516290360087,153
265,WS_RECV_START,1516290360087,154
265,WS_RECV_END,1516290364868,154
265,PLAYER_SLEEPBEFORE_START,1516290364868,155
265,PLAYER_SLEEPBEFORE_END,1516290387426,155
265,WS_SEND_START,1516290387426,155
265,WS_SEND_END,1516290387426,155
265,PLAYER_SLEEPBEFORE_START,1516290387426,156
265,PLAYER_SLEEPBEFORE_END,1516290390700,156
265,WS_SEND_START,1516290390700,156
265,WS_SEND_END,1516290390700,156
265,WS_RECV_START,1516290390700,157
265,WS_RECV_END,1516290394306,157
265,PLAYER_SLEEPBEFORE_START,1516290394306,158
265,PLAYER_SLEEPBEFORE_END,1516290394316,158
265,WS_SEND_START,1516290394316,158
265,WS_SEND_END,1516290394316,158
265,WS_RECV_START,1516290394316,159
265,WS_RECV_END,1516290396795,159
265,PLAYER_SLEEPBEFORE_START,1516290396795,160
265,PLAYER_SLEEPBEFORE_END,1516290396970,160
265,WS_SEND_START,1516290396970,160
265,WS_SEND_END,1516290396970,160
265,WS_RECV_START,1516290396970,161
265,WS_RECV_END,1516290401668,161
265,PLAYER_SLEEPBEFORE_START,1516290401668,162
265,PLAYER_SLEEPBEFORE_END,1516290401693,162
265,WS_SEND_START,1516290401693,162
265,WS_SEND_END,1516290401693,162
265,WS_RECV_START,1516290401693,163
265,WS_RECV_END,1516290406665,163
265,PLAYER_SLEEPBEFORE_START,1516290406665,164
265,PLAYER_SLEEPBEFORE_END,1516290427477,164
265,WS_SEND_START,1516290427477,164
265,WS_SEND_END,1516290427477,164
265,WS_RECV_START,1516290427477,165
265,WS_RECV_END,1516290434407,165
265,PLAYER_SLEEPBEFORE_START,1516290434407,166
265,PLAYER_SLEEPBEFORE_END,1516290456862,166
265,WS_SEND_START,1516290456862,166
265,WS_SEND_END,1516290456862,166
265,WS_RECV_START,1516290456863,167
265,WS_RECV_END,1516290463468,167
265,PLAYER_SLEEPBEFORE_START,1516290463468,168
265,PLAYER_SLEEPBEFORE_END,1516290490825,168
265,WS_SEND_START,1516290490825,168
265,WS_SEND_END,1516290490825,168
265,WS_RECV_START,1516290490825,169
265,WS_RECV_END,1516290498230,169
265,PLAYER_SLEEPBEFORE_START,1516290498230,170
265,PLAYER_SLEEPBEFORE_END,1516290498239,170
265,WS_SEND_START,1516290498239,170
265,WS_SEND_END,1516290498239,170
265,WS_RECV_START,1516290498239,171
265,WS_RECV_END,1516290502906,171
265,PLAYER_SLEEPBEFORE_START,1516290502906,172
265,PLAYER_SLEEPBEFORE_END,1516290503275,172
265,WS_SEND_START,1516290503275,172
265,WS_SEND_END,1516290503275,172
265,WS_RECV_START,1516290503275,173
265,WS_RECV_END,1516290509657,173
265,PLAYER_SLEEPBEFORE_START,1516290509657,174
265,PLAYER_SLEEPBEFORE_END,1516290509698,174
265,WS_SEND_START,1516290509698,174
265,WS_SEND_END,1516290509698,174
265,WS_RECV_START,1516290509698,175
265,WS_RECV_END,1516290515931,175
265,PLAYER_SLEEPBEFORE_START,1516290515931,176
265,PLAYER_SLEEPBEFORE_END,1516290537692,176
265,WS_SEND_START,1516290537692,176
265,WS_SEND_END,1516290537692,176
265,PLAYER_SLEEPBEFORE_START,1516290537692,177
265,PLAYER_SLEEPBEFORE_END,1516290540210,177
265,WS_SEND_START,1516290540210,177
265,WS_SEND_END,1516290540210,177
265,WS_RECV_START,1516290540210,178
265,WS_RECV_END,1516290546437,178
265,PLAYER_SLEEPBEFORE_START,1516290546437,179
265,PLAYER_SLEEPBEFORE_END,1516290568777,179
265,WS_SEND_START,1516290568777,179
265,WS_SEND_END,1516290568777,179
265,WS_RECV_START,1516290568777,180
265,WS_RECV_END,1516290577092,180
265,PLAYER_SLEEPBEFORE_START,1516290577092,181
265,PLAYER_SLEEPBEFORE_END,1516290577536,181
265,WS_SEND_START,1516290577536,181
265,WS_SEND_END,1516290577536,181
265,WS_RECV_START,1516290577536,182
265,WS_RECV_END,1516290583604,182
265,PLAYER_SLEEPBEFORE_START,1516290583604,183
265,PLAYER_SLEEPBEFORE_END,1516290584127,183
265,WS_SEND_START,1516290584127,183
265,WS_SEND_END,1516290584127,183
265,WS_RECV_START,1516290584127,184
265,WS_RECV_END,1516290588779,184
265,PLAYER_SLEEPBEFORE_START,1516290588779,185
265,PLAYER_SLEEPBEFORE_END,1516290589047,185
265,WS_SEND_START,1516290589047,185
265,WS_SEND_END,1516290589047,185
265,WS_RECV_START,1516290589047,186
265,WS_RECV_END,1516290593613,186
265,PLAYER_SLEEPBEFORE_START,1516290593613,187
265,PLAYER_SLEEPBEFORE_END,1516290616113,187
265,WS_SEND_START,1516290616113,187
265,WS_SEND_END,1516290616113,187
265,WS_RECV_START,1516290616113,188
265,WS_RECV_END,1516290624798,188
265,PLAYER_SLEEPBEFORE_START,1516290624798,189
265,PLAYER_SLEEPBEFORE_END,1516290631037,189
265,WS_SEND_START,1516290631037,189
265,WS_SEND_END,1516290631037,189
265,WS_RECV_START,1516290631037,190
265,WS_RECV_END,1516290636724,190
265,PLAYER_SLEEPBEFORE_START,1516290636724,191
265,PLAYER_SLEEPBEFORE_END,1516290638639,191
265,WS_SEND_START,1516290638639,191
265,WS_SEND_END,1516290638639,191
265,WS_RECV_START,1516290638639,192
265,WS_RECV_END,1516290645582,192
265,PLAYER_SLEEPBEFORE_START,1516290645582,193
265,PLAYER_SLEEPBEFORE_END,1516290645710,193
265,WS_SEND_START,1516290645710,193
265,WS_SEND_END,1516290645710,193
265,WS_RECV_START,1516290645710,194
265,WS_RECV_END,1516290649593,194
265,PLAYER_SLEEPBEFORE_START,1516290649593,195
265,PLAYER_SLEEPBEFORE_END,1516290651348,195
265,WS_SEND_START,1516290651348,195
265,WS_SEND_END,1516290651348,195
265,WS_RECV_START,1516290651348,196
265,WS_RECV_END,1516290653355,196
265,PLAYER_SLEEPBEFORE_START,1516290653355,197
265,PLAYER_SLEEPBEFORE_END,1516290655159,197
265,WS_SEND_START,1516290655159,197
265,WS_SEND_END,1516290655159,197
265,WS_RECV_START,1516290655159,198
265,WS_RECV_END,1516290657452,198
265,PLAYER_SLEEPBEFORE_START,1516290657452,199
265,PLAYER_SLEEPBEFORE_END,1516290669306,199
265,WS_SEND_START,1516290669306,199
265,WS_SEND_END,1516290669306,199
265,PLAYER_SLEEPBEFORE_START,1516290669306,200
265,PLAYER_SLEEPBEFORE_END,1516290673394,200
265,WS_SEND_START,1516290673394,200
265,WS_SEND_END,1516290673394,200
265,WS_RECV_START,1516290673394,201
265,WS_RECV_END,1516290676854,201
265,PLAYER_SLEEPBEFORE_START,1516290676854,202
265,PLAYER_SLEEPBEFORE_END,1516290676869,202
265,WS_SEND_START,1516290676869,202
265,WS_SEND_END,1516290676869,202
265,WS_RECV_START,1516290676869,203
265,WS_RECV_END,1516290678801,203
265,PLAYER_SLEEPBEFORE_START,1516290678801,204
265,PLAYER_SLEEPBEFORE_END,1516290698450,204
265,WS_SEND_START,1516290698450,204
265,WS_SEND_END,1516290698450,204
265,PLAYER_SLEEPBEFORE_START,1516290698450,205
265,PLAYER_SLEEPBEFORE_END,1516290702349,205
265,WS_SEND_START,1516290702349,205
265,WS_SEND_END,1516290702349,205
265,WS_RECV_START,1516290702349,206
265,WS_RECV_END,1516290705270,206
265,PLAYER_SLEEPBEFORE_START,1516290705270,207
265,PLAYER_SLEEPBEFORE_END,1516290722201,207
265,REQ_START,1516290722201,207
265,REQ_END,1516290722209,207
265,PLAYER_SLEEPBEFORE_START,1516290722209,208
265,PLAYER_SLEEPBEFORE_END,1516290729061,208
265,WS_CLOSE_START,1516290729061,208
265,WS_CLOSE_END,1516290729061,208
265,PLAYER_DONE,1516290729061
