# --sessions 720 --app-url=http://shinyloadtest.rstudioservices.com/cran_explorer --output-dir test720 --overwrite-output --log-level warn --start-interval 500 15min.log
thread_id,event,timestamp,input_line_number,comment
294,PLAYER_SESSION_CREATE,1516289462082
294,PLAYER_START_INTERVAL_START,1516289462082
294,PLAYER_START_INTERVAL_END,1516289609082
294,REQ_HOME_START,1516289609082,2
294,REQ_HOME_END,1516289609285,2
294,REQ_START,1516289609285,3
294,REQ_END,1516289609316,3
294,REQ_START,1516289609316,4
294,REQ_END,1516289609476,4
294,REQ_START,1516289609476,5
294,REQ_END,1516289609513,5
294,REQ_START,1516289609513,6
294,REQ_END,1516289609553,6
294,REQ_START,1516289609553,7
294,REQ_END,1516289609591,7
294,REQ_START,1516289609591,8
294,REQ_END,1516289609631,8
294,REQ_START,1516289609631,9
294,REQ_END,1516289609669,9
294,REQ_START,1516289609669,10
294,REQ_END,1516289609677,10
294,REQ_START,1516289609677,11
294,REQ_END,1516289609711,11
294,REQ_START,1516289609711,12
294,REQ_END,1516289609720,12
294,REQ_START,1516289609720,13
294,REQ_END,1516289609754,13
294,REQ_START,1516289609754,14
294,REQ_END,1516289609768,14
294,REQ_START,1516289609768,15
294,REQ_END,1516289609804,15
294,REQ_TOK_START,1516289609804,16
294,REQ_TOK_END,1516289609811,16
294,REQ_SINF_START,1516289609811,17
294,REQ_SINF_END,1516289609818,17
294,WS_OPEN_START,1516289609818,18
294,WS_OPEN_END,1516289609825,18
294,REQ_START,1516289609825,19
294,REQ_END,1516289609856,19
294,WS_RECV_START,1516289609856,20
294,WS_RECV_END,1516289609856,20
294,PLAYER_SLEEPBEFORE_START,1516289609856,21
294,PLAYER_SLEEPBEFORE_END,1516289609862,21
294,WS_SEND_START,1516289609862,21
294,WS_SEND_END,1516289609862,21
294,PLAYER_SLEEPBEFORE_START,1516289609862,22
294,PLAYER_SLEEPBEFORE_END,1516289609863,22
294,WS_SEND_START,1516289609863,22
294,WS_SEND_END,1516289609863,22
294,WS_RECV_INIT_START,1516289609863,23
294,WS_RECV_INIT_END,1516289609880,23
294,WS_RECV_START,1516289609880,24
294,WS_RECV_END,1516289609926,24
294,PLAYER_SLEEPBEFORE_START,1516289609926,25
294,PLAYER_SLEEPBEFORE_END,1516289609933,25
294,REQ_START,1516289609933,25
294,REQ_END,1516289609969,25
294,PLAYER_SLEEPBEFORE_START,1516289609969,26
294,PLAYER_SLEEPBEFORE_END,1516289609970,26
294,REQ_START,1516289609970,26
294,REQ_END,1516289610007,26
294,PLAYER_SLEEPBEFORE_START,1516289610007,27
294,PLAYER_SLEEPBEFORE_END,1516289610010,27
294,REQ_START,1516289610010,27
294,REQ_END,1516289610062,27
294,PLAYER_SLEEPBEFORE_START,1516289610062,28
294,PLAYER_SLEEPBEFORE_END,1516289610347,28
294,REQ_START,1516289610347,28
294,REQ_END,1516289610376,28
294,PLAYER_SLEEPBEFORE_START,1516289610376,29
294,PLAYER_SLEEPBEFORE_END,1516289610552,29
294,WS_SEND_START,1516289610552,29
294,WS_SEND_END,1516289610552,29
294,WS_RECV_START,1516289610552,30
294,WS_RECV_END,1516289610674,30
294,PLAYER_SLEEPBEFORE_START,1516289610674,31
294,PLAYER_SLEEPBEFORE_END,1516289610685,31
294,REQ_START,1516289610685,31
294,REQ_END,1516289610721,31
294,PLAYER_SLEEPBEFORE_START,1516289610721,32
294,PLAYER_SLEEPBEFORE_END,1516289638866,32
294,WS_SEND_START,1516289638866,32
294,WS_SEND_END,1516289638866,32
294,WS_RECV_START,1516289638866,33
294,WS_RECV_END,1516289639041,33
294,PLAYER_SLEEPBEFORE_START,1516289639041,34
294,PLAYER_SLEEPBEFORE_END,1516289664952,34
294,WS_SEND_START,1516289664952,34
294,WS_SEND_END,1516289664952,34
294,WS_RECV_START,1516289664952,35
294,WS_RECV_END,1516289665232,35
294,PLAYER_SLEEPBEFORE_START,1516289665232,36
294,PLAYER_SLEEPBEFORE_END,1516289665241,36
294,WS_SEND_START,1516289665241,36
294,WS_SEND_END,1516289665241,36
294,WS_RECV_START,1516289665241,37
294,WS_RECV_END,1516289665337,37
294,PLAYER_SLEEPBEFORE_START,1516289665337,38
294,PLAYER_SLEEPBEFORE_END,1516289668533,38
294,WS_SEND_START,1516289668533,38
294,WS_SEND_END,1516289668533,38
294,WS_RECV_START,1516289668533,39
294,WS_RECV_END,1516289668788,39
294,PLAYER_SLEEPBEFORE_START,1516289668788,40
294,PLAYER_SLEEPBEFORE_END,1516289668834,40
294,WS_SEND_START,1516289668834,40
294,WS_SEND_END,1516289668834,40
294,WS_RECV_START,1516289668834,41
294,WS_RECV_END,1516289668990,41
294,PLAYER_SLEEPBEFORE_START,1516289668990,42
294,PLAYER_SLEEPBEFORE_END,1516289687125,42
294,WS_SEND_START,1516289687125,42
294,WS_SEND_END,1516289687125,42
294,WS_RECV_START,1516289687125,43
294,WS_RECV_END,1516289687407,43
294,PLAYER_SLEEPBEFORE_START,1516289687407,44
294,PLAYER_SLEEPBEFORE_END,1516289687419,44
294,WS_SEND_START,1516289687419,44
294,WS_SEND_END,1516289687419,44
294,WS_RECV_START,1516289687419,45
294,WS_RECV_END,1516289687481,45
294,PLAYER_SLEEPBEFORE_START,1516289687481,46
294,PLAYER_SLEEPBEFORE_END,1516289688742,46
294,WS_SEND_START,1516289688742,46
294,WS_SEND_END,1516289688742,46
294,WS_RECV_START,1516289688742,47
294,WS_RECV_END,1516289688911,47
294,PLAYER_SLEEPBEFORE_START,1516289688911,48
294,PLAYER_SLEEPBEFORE_END,1516289690231,48
294,WS_SEND_START,1516289690231,48
294,WS_SEND_END,1516289690231,48
294,WS_RECV_START,1516289690231,49
294,WS_RECV_END,1516289690382,49
294,PLAYER_SLEEPBEFORE_START,1516289690382,50
294,PLAYER_SLEEPBEFORE_END,1516289690406,50
294,WS_SEND_START,1516289690406,50
294,WS_SEND_END,1516289690406,50
294,WS_RECV_START,1516289690406,51
294,WS_RECV_END,1516289690659,51
294,PLAYER_SLEEPBEFORE_START,1516289690660,52
294,PLAYER_SLEEPBEFORE_END,1516289713224,52
294,WS_SEND_START,1516289713224,52
294,WS_SEND_END,1516289713224,52
294,WS_RECV_START,1516289713224,53
294,WS_RECV_END,1516289713388,53
294,PLAYER_SLEEPBEFORE_START,1516289713388,54
294,PLAYER_SLEEPBEFORE_END,1516289734691,54
294,WS_SEND_START,1516289734691,54
294,WS_SEND_END,1516289734691,54
294,PLAYER_SLEEPBEFORE_START,1516289734691,55
294,PLAYER_SLEEPBEFORE_END,1516289736632,55
294,WS_SEND_START,1516289736632,55
294,WS_SEND_END,1516289736632,55
294,WS_RECV_START,1516289736632,56
294,WS_RECV_END,1516289736882,56
294,PLAYER_SLEEPBEFORE_START,1516289736882,57
294,PLAYER_SLEEPBEFORE_END,1516289759754,57
294,WS_SEND_START,1516289759754,57
294,WS_SEND_END,1516289759755,57
294,WS_RECV_START,1516289759755,58
294,WS_RECV_END,1516289759944,58
294,PLAYER_SLEEPBEFORE_START,1516289759944,59
294,PLAYER_SLEEPBEFORE_END,1516289762271,59
294,WS_SEND_START,1516289762271,59
294,WS_SEND_END,1516289762271,59
294,WS_RECV_START,1516289762271,60
294,WS_RECV_END,1516289763272,60
294,PLAYER_SLEEPBEFORE_START,1516289763272,61
294,PLAYER_SLEEPBEFORE_END,1516289766863,61
294,WS_SEND_START,1516289766863,61
294,WS_SEND_END,1516289766863,61
294,WS_RECV_START,1516289766863,62
294,WS_RECV_END,1516289767153,62
294,PLAYER_SLEEPBEFORE_START,1516289767153,63
294,PLAYER_SLEEPBEFORE_END,1516289786415,63
294,WS_SEND_START,1516289786415,63
294,WS_SEND_END,1516289786415,63
294,WS_RECV_START,1516289786415,64
294,WS_RECV_END,1516289787145,64
294,PLAYER_SLEEPBEFORE_START,1516289787145,65
294,PLAYER_SLEEPBEFORE_END,1516289813962,65
294,WS_SEND_START,1516289813962,65
294,WS_SEND_END,1516289813962,65
294,WS_RECV_START,1516289813962,66
294,WS_RECV_END,1516289814887,66
294,PLAYER_SLEEPBEFORE_START,1516289814887,67
294,PLAYER_SLEEPBEFORE_END,1516289816394,67
294,WS_SEND_START,1516289816394,67
294,WS_SEND_END,1516289816394,67
294,WS_RECV_START,1516289816394,68
294,WS_RECV_END,1516289817110,68
294,PLAYER_SLEEPBEFORE_START,1516289817110,69
294,PLAYER_SLEEPBEFORE_END,1516289839108,69
294,WS_SEND_START,1516289839108,69
294,WS_SEND_END,1516289839108,69
294,WS_RECV_START,1516289839108,70
294,WS_RECV_END,1516289842558,70
294,PLAYER_SLEEPBEFORE_START,1516289842558,71
294,PLAYER_SLEEPBEFORE_END,1516289867333,71
294,WS_SEND_START,1516289867333,71
294,WS_SEND_END,1516289867333,71
294,PLAYER_SLEEPBEFORE_START,1516289867333,72
294,PLAYER_SLEEPBEFORE_END,1516289869940,72
294,WS_SEND_START,1516289869940,72
294,WS_SEND_END,1516289869940,72
294,WS_RECV_START,1516289869940,73
294,WS_RECV_END,1516289872085,73
294,PLAYER_SLEEPBEFORE_START,1516289872085,74
294,PLAYER_SLEEPBEFORE_END,1516289872094,74
294,WS_SEND_START,1516289872094,74
294,WS_SEND_END,1516289872094,74
294,WS_RECV_START,1516289872094,75
294,WS_RECV_END,1516289872924,75
294,PLAYER_SLEEPBEFORE_START,1516289872924,76
294,PLAYER_SLEEPBEFORE_END,1516289874430,76
294,WS_SEND_START,1516289874430,76
294,WS_SEND_END,1516289874430,76
294,WS_RECV_START,1516289874430,77
294,WS_RECV_END,1516289876496,77
294,PLAYER_SLEEPBEFORE_START,1516289876496,78
294,PLAYER_SLEEPBEFORE_END,1516289877365,78
294,WS_SEND_START,1516289877365,78
294,WS_SEND_END,1516289877365,78
294,WS_RECV_START,1516289877365,79
294,WS_RECV_END,1516289877860,79
294,PLAYER_SLEEPBEFORE_START,1516289877860,80
294,PLAYER_SLEEPBEFORE_END,1516289885526,80
294,WS_SEND_START,1516289885526,80
294,WS_SEND_END,1516289885526,80
294,WS_RECV_START,1516289885526,81
294,WS_RECV_END,1516289887524,81
294,PLAYER_SLEEPBEFORE_START,1516289887524,82
294,PLAYER_SLEEPBEFORE_END,1516289888626,82
294,WS_SEND_START,1516289888626,82
294,WS_SEND_END,1516289888626,82
294,WS_RECV_START,1516289888626,83
294,WS_RECV_END,1516289890705,83
294,PLAYER_SLEEPBEFORE_START,1516289890705,84
294,PLAYER_SLEEPBEFORE_END,1516289891652,84
294,WS_SEND_START,1516289891652,84
294,WS_SEND_END,1516289891652,84
294,WS_RECV_START,1516289891652,85
294,WS_RECV_END,1516289894315,85
294,PLAYER_SLEEPBEFORE_START,1516289894315,86
294,PLAYER_SLEEPBEFORE_END,1516289898487,86
294,WS_SEND_START,1516289898487,86
294,WS_SEND_END,1516289898487,86
294,WS_RECV_START,1516289898487,87
294,WS_RECV_END,1516289900427,87
294,PLAYER_SLEEPBEFORE_START,1516289900427,88
294,PLAYER_SLEEPBEFORE_END,1516289900435,88
294,WS_SEND_START,1516289900435,88
294,WS_SEND_END,1516289900435,88
294,WS_RECV_START,1516289900435,89
294,WS_RECV_END,1516289900909,89
294,PLAYER_SLEEPBEFORE_START,1516289900909,90
294,PLAYER_SLEEPBEFORE_END,1516289928106,90
294,REQ_START,1516289928106,90
294,REQ_END,1516289928118,90
294,PLAYER_SLEEPBEFORE_START,1516289928118,91
294,PLAYER_SLEEPBEFORE_END,1516289936007,91
294,WS_SEND_START,1516289936007,91
294,WS_SEND_END,1516289936007,91
294,WS_RECV_START,1516289936007,92
294,WS_RECV_END,1516289937431,92
294,PLAYER_SLEEPBEFORE_START,1516289937431,93
294,PLAYER_SLEEPBEFORE_END,1516289937446,93
294,WS_SEND_START,1516289937446,93
294,WS_SEND_END,1516289937447,93
294,WS_RECV_START,1516289937447,94
294,WS_RECV_END,1516289940341,94
294,PLAYER_SLEEPBEFORE_START,1516289940341,95
294,PLAYER_SLEEPBEFORE_END,1516289963897,95
294,WS_SEND_START,1516289963897,95
294,WS_SEND_END,1516289963897,95
294,WS_RECV_START,1516289963897,96
294,WS_RECV_END,1516289968119,96
294,PLAYER_SLEEPBEFORE_START,1516289968119,97
294,PLAYER_SLEEPBEFORE_END,1516289990560,97
294,WS_SEND_START,1516289990560,97
294,WS_SEND_END,1516289990560,97
294,WS_RECV_START,1516289990560,98
294,WS_RECV_END,1516289995041,98
294,PLAYER_SLEEPBEFORE_START,1516289995041,99
294,PLAYER_SLEEPBEFORE_END,1516289995062,99
294,WS_SEND_START,1516289995062,99
294,WS_SEND_END,1516289995062,99
294,WS_RECV_START,1516289995062,100
294,WS_RECV_END,1516289997083,100
294,PLAYER_SLEEPBEFORE_START,1516289997083,101
294,PLAYER_SLEEPBEFORE_END,1516290020643,101
294,WS_SEND_START,1516290020643,101
294,WS_SEND_END,1516290020643,101
294,WS_RECV_START,1516290020643,102
294,WS_RECV_END,1516290026015,102
294,PLAYER_SLEEPBEFORE_START,1516290026015,103
294,PLAYER_SLEEPBEFORE_END,1516290049640,103
294,WS_SEND_START,1516290049640,103
294,WS_SEND_END,1516290049640,103
294,WS_RECV_START,1516290049640,104
294,WS_RECV_END,1516290055012,104
294,PLAYER_SLEEPBEFORE_START,1516290055012,105
294,PLAYER_SLEEPBEFORE_END,1516290080389,105
294,WS_SEND_START,1516290080389,105
294,WS_SEND_END,1516290080389,105
294,WS_RECV_START,1516290080389,106
294,WS_RECV_END,1516290081363,106
294,PLAYER_SLEEPBEFORE_START,1516290081363,107
294,PLAYER_SLEEPBEFORE_END,1516290104786,107
294,WS_SEND_START,1516290104786,107
294,WS_SEND_END,1516290104786,107
294,WS_RECV_START,1516290104786,108
294,WS_RECV_END,1516290113727,108
294,PLAYER_SLEEPBEFORE_START,1516290113727,109
294,PLAYER_SLEEPBEFORE_END,1516290113736,109
294,WS_SEND_START,1516290113736,109
294,WS_SEND_END,1516290113736,109
294,WS_RECV_START,1516290113736,110
294,WS_RECV_END,1516290117966,110
294,PLAYER_SLEEPBEFORE_START,1516290117966,111
294,PLAYER_SLEEPBEFORE_END,1516290118925,111
294,WS_SEND_START,1516290118925,111
294,WS_SEND_END,1516290118925,111
294,WS_RECV_START,1516290118925,112
294,WS_RECV_END,1516290122395,112
294,PLAYER_SLEEPBEFORE_START,1516290122395,113
294,PLAYER_SLEEPBEFORE_END,1516290122957,113
294,WS_SEND_START,1516290122957,113
294,WS_SEND_END,1516290122957,113
294,WS_RECV_START,1516290122957,114
294,WS_RECV_END,1516290126646,114
294,PLAYER_SLEEPBEFORE_START,1516290126646,115
294,PLAYER_SLEEPBEFORE_END,1516290126655,115
294,WS_SEND_START,1516290126655,115
294,WS_SEND_END,1516290126655,115
294,WS_RECV_START,1516290126655,116
294,WS_RECV_END,1516290130415,116
294,PLAYER_SLEEPBEFORE_START,1516290130415,117
294,PLAYER_SLEEPBEFORE_END,1516290150775,117
294,WS_SEND_START,1516290150775,117
294,WS_SEND_END,1516290150775,117
294,PLAYER_SLEEPBEFORE_START,1516290150775,118
294,PLAYER_SLEEPBEFORE_END,1516290154527,118
294,WS_SEND_START,1516290154527,118
294,WS_SEND_END,1516290154527,118
294,WS_RECV_START,1516290154527,119
294,WS_RECV_END,1516290155398,119
294,PLAYER_SLEEPBEFORE_START,1516290155398,120
294,PLAYER_SLEEPBEFORE_END,1516290156386,120
294,WS_SEND_START,1516290156386,120
294,WS_SEND_END,1516290156386,120
294,WS_RECV_START,1516290156386,121
294,WS_RECV_END,1516290158249,121
294,PLAYER_SLEEPBEFORE_START,1516290158249,122
294,PLAYER_SLEEPBEFORE_END,1516290159434,122
294,WS_SEND_START,1516290159434,122
294,WS_SEND_END,1516290159434,122
294,WS_RECV_START,1516290159434,123
294,WS_RECV_END,1516290162265,123
294,PLAYER_SLEEPBEFORE_START,1516290162265,124
294,PLAYER_SLEEPBEFORE_END,1516290186670,124
294,WS_SEND_START,1516290186670,124
294,WS_SEND_END,1516290186670,124
294,WS_RECV_START,1516290186670,125
294,WS_RECV_END,1516290192353,125
294,PLAYER_SLEEPBEFORE_START,1516290192353,126
294,PLAYER_SLEEPBEFORE_END,1516290212865,126
294,WS_SEND_START,1516290212865,126
294,WS_SEND_END,1516290212865,126
294,PLAYER_SLEEPBEFORE_START,1516290212865,127
294,PLAYER_SLEEPBEFORE_END,1516290215919,127
294,WS_SEND_START,1516290215919,127
294,WS_SEND_END,1516290215919,127
294,WS_RECV_START,1516290215919,128
294,WS_RECV_END,1516290219180,128
294,PLAYER_SLEEPBEFORE_START,1516290219180,129
294,PLAYER_SLEEPBEFORE_END,1516290219200,129
294,WS_SEND_START,1516290219200,129
294,WS_SEND_END,1516290219200,129
294,WS_RECV_START,1516290219200,130
294,WS_RECV_END,1516290220455,130
294,PLAYER_SLEEPBEFORE_START,1516290220455,131
294,PLAYER_SLEEPBEFORE_END,1516290242079,131
294,WS_SEND_START,1516290242079,131
294,WS_SEND_END,1516290242079,131
294,PLAYER_SLEEPBEFORE_START,1516290242079,132
294,PLAYER_SLEEPBEFORE_END,1516290245159,132
294,WS_SEND_START,1516290245159,132
294,WS_SEND_END,1516290245159,132
294,WS_RECV_START,1516290245159,133
294,WS_RECV_END,1516290249740,133
294,PLAYER_SLEEPBEFORE_START,1516290249740,134
294,PLAYER_SLEEPBEFORE_END,1516290270957,134
294,WS_SEND_START,1516290270957,134
294,WS_SEND_END,1516290270957,134
294,PLAYER_SLEEPBEFORE_START,1516290270957,135
294,PLAYER_SLEEPBEFORE_END,1516290274147,135
294,WS_SEND_START,1516290274147,135
294,WS_SEND_END,1516290274147,135
294,WS_RECV_START,1516290274147,136
294,WS_RECV_END,1516290275794,136
294,PLAYER_SLEEPBEFORE_START,1516290275794,137
294,PLAYER_SLEEPBEFORE_END,1516290275801,137
294,WS_SEND_START,1516290275801,137
294,WS_SEND_END,1516290275801,137
294,WS_RECV_START,1516290275801,138
294,WS_RECV_END,1516290280891,138
294,PLAYER_SLEEPBEFORE_START,1516290280891,139
294,PLAYER_SLEEPBEFORE_END,1516290281581,139
294,WS_SEND_START,1516290281581,139
294,WS_SEND_END,1516290281581,139
294,WS_RECV_START,1516290281581,140
294,WS_RECV_END,1516290285086,140
294,PLAYER_SLEEPBEFORE_START,1516290285086,141
294,PLAYER_SLEEPBEFORE_END,1516290285741,141
294,WS_SEND_START,1516290285741,141
294,WS_SEND_END,1516290285741,141
294,WS_RECV_START,1516290285741,142
294,WS_RECV_END,1516290290202,142
294,PLAYER_SLEEPBEFORE_START,1516290290202,143
294,PLAYER_SLEEPBEFORE_END,1516290290259,143
294,WS_SEND_START,1516290290259,143
294,WS_SEND_END,1516290290259,143
294,WS_RECV_START,1516290290259,144
294,WS_RECV_END,1516290293401,144
294,PLAYER_SLEEPBEFORE_START,1516290293401,145
294,PLAYER_SLEEPBEFORE_END,1516290309464,145
294,REQ_START,1516290309464,145
294,REQ_END,1516290309472,145
294,PLAYER_SLEEPBEFORE_START,1516290309472,146
294,PLAYER_SLEEPBEFORE_END,1516290318349,146
294,WS_SEND_START,1516290318349,146
294,WS_SEND_END,1516290318349,146
294,WS_RECV_START,1516290318349,147
294,WS_RECV_END,1516290324579,147
294,PLAYER_SLEEPBEFORE_START,1516290324579,148
294,PLAYER_SLEEPBEFORE_END,1516290346501,148
294,WS_SEND_START,1516290346501,148
294,WS_SEND_END,1516290346501,148
294,PLAYER_SLEEPBEFORE_START,1516290346501,149
294,PLAYER_SLEEPBEFORE_END,1516290348929,149
294,WS_SEND_START,1516290348929,149
294,WS_SEND_END,1516290348929,149
294,WS_RECV_START,1516290348929,150
294,WS_RECV_END,1516290352528,150
294,PLAYER_SLEEPBEFORE_START,1516290352528,151
294,PLAYER_SLEEPBEFORE_END,1516290352738,151
294,WS_SEND_START,1516290352738,151
294,WS_SEND_END,1516290352738,151
294,WS_RECV_START,1516290352738,152
294,WS_RECV_END,1516290356831,152
294,PLAYER_SLEEPBEFORE_START,1516290356831,153
294,PLAYER_SLEEPBEFORE_END,1516290380758,153
294,WS_SEND_START,1516290380758,153
294,WS_SEND_END,1516290380758,153
294,WS_RECV_START,1516290380758,154
294,WS_RECV_END,1516290384676,154
294,PLAYER_SLEEPBEFORE_START,1516290384676,155
294,PLAYER_SLEEPBEFORE_END,1516290407234,155
294,WS_SEND_START,1516290407234,155
294,WS_SEND_END,1516290407234,155
294,PLAYER_SLEEPBEFORE_START,1516290407234,156
294,PLAYER_SLEEPBEFORE_END,1516290410508,156
294,WS_SEND_START,1516290410508,156
294,WS_SEND_END,1516290410508,156
294,WS_RECV_START,1516290410508,157
294,WS_RECV_END,1516290413386,157
294,PLAYER_SLEEPBEFORE_START,1516290413386,158
294,PLAYER_SLEEPBEFORE_END,1516290413396,158
294,WS_SEND_START,1516290413396,158
294,WS_SEND_END,1516290413396,158
294,WS_RECV_START,1516290413396,159
294,WS_RECV_END,1516290417127,159
294,PLAYER_SLEEPBEFORE_START,1516290417127,160
294,PLAYER_SLEEPBEFORE_END,1516290417302,160
294,WS_SEND_START,1516290417302,160
294,WS_SEND_END,1516290417302,160
294,WS_RECV_START,1516290417302,161
294,WS_RECV_END,1516290422063,161
294,PLAYER_SLEEPBEFORE_START,1516290422063,162
294,PLAYER_SLEEPBEFORE_END,1516290422088,162
294,WS_SEND_START,1516290422088,162
294,WS_SEND_END,1516290422088,162
294,WS_RECV_START,1516290422088,163
294,WS_RECV_END,1516290426991,163
294,PLAYER_SLEEPBEFORE_START,1516290426991,164
294,PLAYER_SLEEPBEFORE_END,1516290447803,164
294,WS_SEND_START,1516290447803,164
294,WS_SEND_END,1516290447803,164
294,WS_RECV_START,1516290447803,165
294,WS_RECV_END,1516290455475,165
294,PLAYER_SLEEPBEFORE_START,1516290455475,166
294,PLAYER_SLEEPBEFORE_END,1516290477930,166
294,WS_SEND_START,1516290477930,166
294,WS_SEND_END,1516290477930,166
294,WS_RECV_START,1516290477930,167
294,WS_RECV_END,1516290488864,167
294,PLAYER_SLEEPBEFORE_START,1516290488864,168
294,PLAYER_SLEEPBEFORE_END,1516290516221,168
294,WS_SEND_START,1516290516222,168
294,WS_SEND_END,1516290516222,168
294,WS_RECV_START,1516290516222,169
294,WS_RECV_END,1516290524251,169
294,PLAYER_SLEEPBEFORE_START,1516290524251,170
294,PLAYER_SLEEPBEFORE_END,1516290524265,170
294,WS_SEND_START,1516290524265,170
294,WS_SEND_END,1516290524265,170
294,WS_RECV_START,1516290524265,171
294,WS_RECV_END,1516290528646,171
294,PLAYER_SLEEPBEFORE_START,1516290528646,172
294,PLAYER_SLEEPBEFORE_END,1516290529015,172
294,WS_SEND_START,1516290529015,172
294,WS_SEND_END,1516290529015,172
294,WS_RECV_START,1516290529015,173
294,WS_RECV_END,1516290534573,173
294,PLAYER_SLEEPBEFORE_START,1516290534573,174
294,PLAYER_SLEEPBEFORE_END,1516290534614,174
294,WS_SEND_START,1516290534614,174
294,WS_SEND_END,1516290534614,174
294,WS_RECV_START,1516290534614,175
294,WS_RECV_END,1516290540100,175
294,PLAYER_SLEEPBEFORE_START,1516290540100,176
294,PLAYER_SLEEPBEFORE_END,1516290561861,176
294,WS_SEND_START,1516290561861,176
294,WS_SEND_END,1516290561861,176
294,PLAYER_SLEEPBEFORE_START,1516290561862,177
294,PLAYER_SLEEPBEFORE_END,1516290564380,177
294,WS_SEND_START,1516290564380,177
294,WS_SEND_END,1516290564380,177
294,WS_RECV_START,1516290564380,178
294,WS_RECV_END,1516290570147,178
294,PLAYER_SLEEPBEFORE_START,1516290570147,179
294,PLAYER_SLEEPBEFORE_END,1516290592487,179
294,WS_SEND_START,1516290592487,179
294,WS_SEND_END,1516290592487,179
294,WS_RECV_START,1516290592487,180
294,WS_RECV_END,1516290597301,180
294,PLAYER_SLEEPBEFORE_START,1516290597301,181
294,PLAYER_SLEEPBEFORE_END,1516290597745,181
294,WS_SEND_START,1516290597745,181
294,WS_SEND_END,1516290597745,181
294,WS_RECV_START,1516290597745,182
294,WS_RECV_END,1516290602367,182
294,PLAYER_SLEEPBEFORE_START,1516290602367,183
294,PLAYER_SLEEPBEFORE_END,1516290602890,183
294,WS_SEND_START,1516290602890,183
294,WS_SEND_END,1516290602890,183
294,WS_RECV_START,1516290602890,184
294,WS_RECV_END,1516290605833,184
294,PLAYER_SLEEPBEFORE_START,1516290605833,185
294,PLAYER_SLEEPBEFORE_END,1516290606101,185
294,WS_SEND_START,1516290606101,185
294,WS_SEND_END,1516290606101,185
294,WS_RECV_START,1516290606101,186
294,WS_RECV_END,1516290609145,186
294,PLAYER_SLEEPBEFORE_START,1516290609145,187
294,PLAYER_SLEEPBEFORE_END,1516290631645,187
294,WS_SEND_START,1516290631645,187
294,WS_SEND_END,1516290631645,187
294,WS_RECV_START,1516290631645,188
294,WS_RECV_END,1516290636722,188
294,PLAYER_SLEEPBEFORE_START,1516290636722,189
294,PLAYER_SLEEPBEFORE_END,1516290642961,189
294,WS_SEND_START,1516290642961,189
294,WS_SEND_END,1516290642961,189
294,WS_RECV_START,1516290642961,190
294,WS_RECV_END,1516290647363,190
294,PLAYER_SLEEPBEFORE_START,1516290647363,191
294,PLAYER_SLEEPBEFORE_END,1516290649278,191
294,WS_SEND_START,1516290649278,191
294,WS_SEND_END,1516290649278,191
294,WS_RECV_START,1516290649278,192
294,WS_RECV_END,1516290652856,192
294,PLAYER_SLEEPBEFORE_START,1516290652856,193
294,PLAYER_SLEEPBEFORE_END,1516290652984,193
294,WS_SEND_START,1516290652984,193
294,WS_SEND_END,1516290652984,193
294,WS_RECV_START,1516290652985,194
294,WS_RECV_END,1516290654078,194
294,PLAYER_SLEEPBEFORE_START,1516290654078,195
294,PLAYER_SLEEPBEFORE_END,1516290655833,195
294,WS_SEND_START,1516290655833,195
294,WS_SEND_END,1516290655833,195
294,WS_RECV_START,1516290655833,196
294,WS_RECV_END,1516290656539,196
294,PLAYER_SLEEPBEFORE_START,1516290656539,197
294,PLAYER_SLEEPBEFORE_END,1516290658343,197
294,WS_SEND_START,1516290658343,197
294,WS_SEND_END,1516290658343,197
294,WS_RECV_START,1516290658343,198
294,WS_RECV_END,1516290658913,198
294,PLAYER_SLEEPBEFORE_START,1516290658913,199
294,PLAYER_SLEEPBEFORE_END,1516290670767,199
294,WS_SEND_START,1516290670767,199
294,WS_SEND_END,1516290670767,199
294,PLAYER_SLEEPBEFORE_START,1516290670767,200
294,PLAYER_SLEEPBEFORE_END,1516290674855,200
294,WS_SEND_START,1516290674855,200
294,WS_SEND_END,1516290674855,200
294,WS_RECV_START,1516290674855,201
294,WS_RECV_END,1516290677716,201
294,PLAYER_SLEEPBEFORE_START,1516290677716,202
294,PLAYER_SLEEPBEFORE_END,1516290677730,202
294,WS_SEND_START,1516290677730,202
294,WS_SEND_END,1516290677731,202
294,WS_RECV_START,1516290677731,203
294,WS_RECV_END,1516290679863,203
294,PLAYER_SLEEPBEFORE_START,1516290679863,204
294,PLAYER_SLEEPBEFORE_END,1516290699512,204
294,WS_SEND_START,1516290699512,204
294,WS_SEND_END,1516290699512,204
294,PLAYER_SLEEPBEFORE_START,1516290699512,205
294,PLAYER_SLEEPBEFORE_END,1516290703410,205
294,WS_SEND_START,1516290703410,205
294,WS_SEND_END,1516290703410,205
294,WS_RECV_START,1516290703410,206
294,WS_RECV_END,1516290705231,206
294,PLAYER_SLEEPBEFORE_START,1516290705231,207
294,PLAYER_SLEEPBEFORE_END,1516290722162,207
294,REQ_START,1516290722162,207
294,REQ_END,1516290722189,207
294,PLAYER_SLEEPBEFORE_START,1516290722189,208
294,PLAYER_SLEEPBEFORE_END,1516290729041,208
294,WS_CLOSE_START,1516290729041,208
294,WS_CLOSE_END,1516290729041,208
294,PLAYER_DONE,1516290729041
