# --sessions 720 --app-url=http://shinyloadtest.rstudioservices.com/cran_explorer --output-dir test720 --overwrite-output --log-level warn --start-interval 500 15min.log
thread_id,event,timestamp,input_line_number,comment
302,PLAYER_SESSION_CREATE,1516289462084
302,PLAYER_START_INTERVAL_START,1516289462084
302,PLAYER_START_INTERVAL_END,1516289613084
302,REQ_HOME_START,1516289613084,2
302,REQ_HOME_END,1516289613236,2
302,REQ_START,1516289613236,3
302,REQ_END,1516289613270,3
302,REQ_START,1516289613270,4
302,REQ_END,1516289613302,4
302,REQ_START,1516289613302,5
302,REQ_END,1516289613333,5
302,REQ_START,1516289613333,6
302,REQ_END,1516289613367,6
302,REQ_START,1516289613367,7
302,REQ_END,1516289613400,7
302,REQ_START,1516289613400,8
302,REQ_END,1516289613440,8
302,REQ_START,1516289613440,9
302,REQ_END,1516289613474,9
302,REQ_START,1516289613474,10
302,REQ_END,1516289613482,10
302,REQ_START,1516289613482,11
302,REQ_END,1516289613513,11
302,REQ_START,1516289613513,12
302,REQ_END,1516289613522,12
302,REQ_START,1516289613522,13
302,REQ_END,1516289613557,13
302,REQ_START,1516289613557,14
302,REQ_END,1516289613571,14
302,REQ_START,1516289613571,15
302,REQ_END,1516289613607,15
302,REQ_TOK_START,1516289613607,16
302,REQ_TOK_END,1516289613614,16
302,REQ_SINF_START,1516289613614,17
302,REQ_SINF_END,1516289613621,17
302,WS_OPEN_START,1516289613621,18
302,WS_OPEN_END,1516289613627,18
302,REQ_START,1516289613627,19
302,REQ_END,1516289613786,19
302,WS_RECV_START,1516289613786,20
302,WS_RECV_END,1516289613786,20
302,PLAYER_SLEEPBEFORE_START,1516289613786,21
302,PLAYER_SLEEPBEFORE_END,1516289613791,21
302,WS_SEND_START,1516289613791,21
302,WS_SEND_END,1516289613791,21
302,PLAYER_SLEEPBEFORE_START,1516289613791,22
302,PLAYER_SLEEPBEFORE_END,1516289613792,22
302,WS_SEND_START,1516289613792,22
302,WS_SEND_END,1516289613792,22
302,WS_RECV_INIT_START,1516289613792,23
302,WS_RECV_INIT_END,1516289613883,23
302,WS_RECV_START,1516289613883,24
302,WS_RECV_END,1516289613968,24
302,PLAYER_SLEEPBEFORE_START,1516289613968,25
302,PLAYER_SLEEPBEFORE_END,1516289613975,25
302,REQ_START,1516289613975,25
302,REQ_END,1516289614014,25
302,PLAYER_SLEEPBEFORE_START,1516289614014,26
302,PLAYER_SLEEPBEFORE_END,1516289614015,26
302,REQ_START,1516289614015,26
302,REQ_END,1516289614050,26
302,PLAYER_SLEEPBEFORE_START,1516289614050,27
302,PLAYER_SLEEPBEFORE_END,1516289614053,27
302,REQ_START,1516289614053,27
302,REQ_END,1516289614086,27
302,PLAYER_SLEEPBEFORE_START,1516289614086,28
302,PLAYER_SLEEPBEFORE_END,1516289614371,28
302,REQ_START,1516289614371,28
302,REQ_END,1516289614470,28
302,PLAYER_SLEEPBEFORE_START,1516289614470,29
302,PLAYER_SLEEPBEFORE_END,1516289614645,29
302,WS_SEND_START,1516289614645,29
302,WS_SEND_END,1516289614645,29
302,WS_RECV_START,1516289614645,30
302,WS_RECV_END,1516289614803,30
302,PLAYER_SLEEPBEFORE_START,1516289614803,31
302,PLAYER_SLEEPBEFORE_END,1516289614814,31
302,REQ_START,1516289614815,31
302,REQ_END,1516289614901,31
302,PLAYER_SLEEPBEFORE_START,1516289614901,32
302,PLAYER_SLEEPBEFORE_END,1516289643047,32
302,WS_SEND_START,1516289643047,32
302,WS_SEND_END,1516289643047,32
302,WS_RECV_START,1516289643047,33
302,WS_RECV_END,1516289643165,33
302,PLAYER_SLEEPBEFORE_START,1516289643165,34
302,PLAYER_SLEEPBEFORE_END,1516289669076,34
302,WS_SEND_START,1516289669076,34
302,WS_SEND_END,1516289669076,34
302,WS_RECV_START,1516289669076,35
302,WS_RECV_END,1516289669150,35
302,PLAYER_SLEEPBEFORE_START,1516289669150,36
302,PLAYER_SLEEPBEFORE_END,1516289669160,36
302,WS_SEND_START,1516289669160,36
302,WS_SEND_END,1516289669160,36
302,WS_RECV_START,1516289669160,37
302,WS_RECV_END,1516289669273,37
302,PLAYER_SLEEPBEFORE_START,1516289669273,38
302,PLAYER_SLEEPBEFORE_END,1516289672469,38
302,WS_SEND_START,1516289672469,38
302,WS_SEND_END,1516289672469,38
302,WS_RECV_START,1516289672469,39
302,WS_RECV_END,1516289672770,39
302,PLAYER_SLEEPBEFORE_START,1516289672770,40
302,PLAYER_SLEEPBEFORE_END,1516289672817,40
302,WS_SEND_START,1516289672817,40
302,WS_SEND_END,1516289672817,40
302,WS_RECV_START,1516289672817,41
302,WS_RECV_END,1516289673121,41
302,PLAYER_SLEEPBEFORE_START,1516289673121,42
302,PLAYER_SLEEPBEFORE_END,1516289691257,42
302,WS_SEND_START,1516289691257,42
302,WS_SEND_END,1516289691257,42
302,WS_RECV_START,1516289691257,43
302,WS_RECV_END,1516289691310,43
302,PLAYER_SLEEPBEFORE_START,1516289691310,44
302,PLAYER_SLEEPBEFORE_END,1516289691322,44
302,WS_SEND_START,1516289691322,44
302,WS_SEND_END,1516289691322,44
302,WS_RECV_START,1516289691322,45
302,WS_RECV_END,1516289691382,45
302,PLAYER_SLEEPBEFORE_START,1516289691382,46
302,PLAYER_SLEEPBEFORE_END,1516289692642,46
302,WS_SEND_START,1516289692642,46
302,WS_SEND_END,1516289692642,46
302,WS_RECV_START,1516289692642,47
302,WS_RECV_END,1516289692703,47
302,PLAYER_SLEEPBEFORE_START,1516289692703,48
302,PLAYER_SLEEPBEFORE_END,1516289694023,48
302,WS_SEND_START,1516289694023,48
302,WS_SEND_END,1516289694023,48
302,WS_RECV_START,1516289694023,49
302,WS_RECV_END,1516289694162,49
302,PLAYER_SLEEPBEFORE_START,1516289694162,50
302,PLAYER_SLEEPBEFORE_END,1516289694186,50
302,WS_SEND_START,1516289694186,50
302,WS_SEND_END,1516289694186,50
302,WS_RECV_START,1516289694186,51
302,WS_RECV_END,1516289694365,51
302,PLAYER_SLEEPBEFORE_START,1516289694365,52
302,PLAYER_SLEEPBEFORE_END,1516289716929,52
302,WS_SEND_START,1516289716929,52
302,WS_SEND_END,1516289716929,52
302,WS_RECV_START,1516289716929,53
302,WS_RECV_END,1516289717121,53
302,PLAYER_SLEEPBEFORE_START,1516289717121,54
302,PLAYER_SLEEPBEFORE_END,1516289738425,54
302,WS_SEND_START,1516289738425,54
302,WS_SEND_END,1516289738425,54
302,PLAYER_SLEEPBEFORE_START,1516289738425,55
302,PLAYER_SLEEPBEFORE_END,1516289740366,55
302,WS_SEND_START,1516289740366,55
302,WS_SEND_END,1516289740366,55
302,WS_RECV_START,1516289740366,56
302,WS_RECV_END,1516289741030,56
302,PLAYER_SLEEPBEFORE_START,1516289741030,57
302,PLAYER_SLEEPBEFORE_END,1516289763902,57
302,WS_SEND_START,1516289763902,57
302,WS_SEND_END,1516289763902,57
302,WS_RECV_START,1516289763902,58
302,WS_RECV_END,1516289764014,58
302,PLAYER_SLEEPBEFORE_START,1516289764014,59
302,PLAYER_SLEEPBEFORE_END,1516289766341,59
302,WS_SEND_START,1516289766341,59
302,WS_SEND_END,1516289766341,59
302,WS_RECV_START,1516289766341,60
302,WS_RECV_END,1516289766624,60
302,PLAYER_SLEEPBEFORE_START,1516289766624,61
302,PLAYER_SLEEPBEFORE_END,1516289770215,61
302,WS_SEND_START,1516289770215,61
302,WS_SEND_END,1516289770215,61
302,WS_RECV_START,1516289770215,62
302,WS_RECV_END,1516289770637,62
302,PLAYER_SLEEPBEFORE_START,1516289770637,63
302,PLAYER_SLEEPBEFORE_END,1516289789899,63
302,WS_SEND_START,1516289789899,63
302,WS_SEND_END,1516289789899,63
302,WS_RECV_START,1516289789899,64
302,WS_RECV_END,1516289790436,64
302,PLAYER_SLEEPBEFORE_START,1516289790436,65
302,PLAYER_SLEEPBEFORE_END,1516289817253,65
302,WS_SEND_START,1516289817254,65
302,WS_SEND_END,1516289817254,65
302,WS_RECV_START,1516289817254,66
302,WS_RECV_END,1516289819385,66
302,PLAYER_SLEEPBEFORE_START,1516289819385,67
302,PLAYER_SLEEPBEFORE_END,1516289820892,67
302,WS_SEND_START,1516289820892,67
302,WS_SEND_END,1516289820892,67
302,WS_RECV_START,1516289820892,68
302,WS_RECV_END,1516289822453,68
302,PLAYER_SLEEPBEFORE_START,1516289822453,69
302,PLAYER_SLEEPBEFORE_END,1516289844451,69
302,WS_SEND_START,1516289844451,69
302,WS_SEND_END,1516289844451,69
302,WS_RECV_START,1516289844451,70
302,WS_RECV_END,1516289848228,70
302,PLAYER_SLEEPBEFORE_START,1516289848228,71
302,PLAYER_SLEEPBEFORE_END,1516289873003,71
302,WS_SEND_START,1516289873003,71
302,WS_SEND_END,1516289873003,71
302,PLAYER_SLEEPBEFORE_START,1516289873003,72
302,PLAYER_SLEEPBEFORE_END,1516289875611,72
302,WS_SEND_START,1516289875611,72
302,WS_SEND_END,1516289875611,72
302,WS_RECV_START,1516289875611,73
302,WS_RECV_END,1516289876119,73
302,PLAYER_SLEEPBEFORE_START,1516289876119,74
302,PLAYER_SLEEPBEFORE_END,1516289876128,74
302,WS_SEND_START,1516289876128,74
302,WS_SEND_END,1516289876128,74
302,WS_RECV_START,1516289876129,75
302,WS_RECV_END,1516289877520,75
302,PLAYER_SLEEPBEFORE_START,1516289877520,76
302,PLAYER_SLEEPBEFORE_END,1516289879026,76
302,WS_SEND_START,1516289879026,76
302,WS_SEND_END,1516289879026,76
302,WS_RECV_START,1516289879026,77
302,WS_RECV_END,1516289879458,77
302,PLAYER_SLEEPBEFORE_START,1516289879458,78
302,PLAYER_SLEEPBEFORE_END,1516289880326,78
302,WS_SEND_START,1516289880326,78
302,WS_SEND_END,1516289880326,78
302,WS_RECV_START,1516289880326,79
302,WS_RECV_END,1516289881392,79
302,PLAYER_SLEEPBEFORE_START,1516289881392,80
302,PLAYER_SLEEPBEFORE_END,1516289889058,80
302,WS_SEND_START,1516289889058,80
302,WS_SEND_END,1516289889058,80
302,WS_RECV_START,1516289889058,81
302,WS_RECV_END,1516289891916,81
302,PLAYER_SLEEPBEFORE_START,1516289891916,82
302,PLAYER_SLEEPBEFORE_END,1516289893019,82
302,WS_SEND_START,1516289893019,82
302,WS_SEND_END,1516289893019,82
302,WS_RECV_START,1516289893019,83
302,WS_RECV_END,1516289893496,83
302,PLAYER_SLEEPBEFORE_START,1516289893496,84
302,PLAYER_SLEEPBEFORE_END,1516289894443,84
302,WS_SEND_START,1516289894443,84
302,WS_SEND_END,1516289894443,84
302,WS_RECV_START,1516289894443,85
302,WS_RECV_END,1516289894945,85
302,PLAYER_SLEEPBEFORE_START,1516289894945,86
302,PLAYER_SLEEPBEFORE_END,1516289899117,86
302,WS_SEND_START,1516289899117,86
302,WS_SEND_END,1516289899117,86
302,WS_RECV_START,1516289899117,87
302,WS_RECV_END,1516289902023,87
302,PLAYER_SLEEPBEFORE_START,1516289902023,88
302,PLAYER_SLEEPBEFORE_END,1516289902032,88
302,WS_SEND_START,1516289902032,88
302,WS_SEND_END,1516289902032,88
302,WS_RECV_START,1516289902032,89
302,WS_RECV_END,1516289903286,89
302,PLAYER_SLEEPBEFORE_START,1516289903286,90
302,PLAYER_SLEEPBEFORE_END,1516289930483,90
302,REQ_START,1516289930483,90
302,REQ_END,1516289930493,90
302,PLAYER_SLEEPBEFORE_START,1516289930493,91
302,PLAYER_SLEEPBEFORE_END,1516289938382,91
302,WS_SEND_START,1516289938382,91
302,WS_SEND_END,1516289938382,91
302,WS_RECV_START,1516289938382,92
302,WS_RECV_END,1516289941460,92
302,PLAYER_SLEEPBEFORE_START,1516289941460,93
302,PLAYER_SLEEPBEFORE_END,1516289941475,93
302,WS_SEND_START,1516289941475,93
302,WS_SEND_END,1516289941475,93
302,WS_RECV_START,1516289941476,94
302,WS_RECV_END,1516289942692,94
302,PLAYER_SLEEPBEFORE_START,1516289942692,95
302,PLAYER_SLEEPBEFORE_END,1516289966247,95
302,WS_SEND_START,1516289966247,95
302,WS_SEND_END,1516289966247,95
302,WS_RECV_START,1516289966247,96
302,WS_RECV_END,1516289969934,96
302,PLAYER_SLEEPBEFORE_START,1516289969934,97
302,PLAYER_SLEEPBEFORE_END,1516289992375,97
302,WS_SEND_START,1516289992375,97
302,WS_SEND_END,1516289992375,97
302,WS_RECV_START,1516289992375,98
302,WS_RECV_END,1516289996774,98
302,PLAYER_SLEEPBEFORE_START,1516289996774,99
302,PLAYER_SLEEPBEFORE_END,1516289996795,99
302,WS_SEND_START,1516289996795,99
302,WS_SEND_END,1516289996795,99
302,WS_RECV_START,1516289996795,100
302,WS_RECV_END,1516290003605,100
302,PLAYER_SLEEPBEFORE_START,1516290003605,101
302,PLAYER_SLEEPBEFORE_END,1516290027164,101
302,WS_SEND_START,1516290027164,101
302,WS_SEND_END,1516290027164,101
302,WS_RECV_START,1516290027164,102
302,WS_RECV_END,1516290032419,102
302,PLAYER_SLEEPBEFORE_START,1516290032419,103
302,PLAYER_SLEEPBEFORE_END,1516290056044,103
302,WS_SEND_START,1516290056044,103
302,WS_SEND_END,1516290056044,103
302,WS_RECV_START,1516290056044,104
302,WS_RECV_END,1516290060664,104
302,PLAYER_SLEEPBEFORE_START,1516290060664,105
302,PLAYER_SLEEPBEFORE_END,1516290086041,105
302,WS_SEND_START,1516290086041,105
302,WS_SEND_END,1516290086041,105
302,WS_RECV_START,1516290086041,106
302,WS_RECV_END,1516290091407,106
302,PLAYER_SLEEPBEFORE_START,1516290091407,107
302,PLAYER_SLEEPBEFORE_END,1516290114830,107
302,WS_SEND_START,1516290114830,107
302,WS_SEND_END,1516290114830,107
302,WS_RECV_START,1516290114830,108
302,WS_RECV_END,1516290120513,108
302,PLAYER_SLEEPBEFORE_START,1516290120513,109
302,PLAYER_SLEEPBEFORE_END,1516290120522,109
302,WS_SEND_START,1516290120522,109
302,WS_SEND_END,1516290120522,109
302,WS_RECV_START,1516290120522,110
302,WS_RECV_END,1516290123925,110
302,PLAYER_SLEEPBEFORE_START,1516290123925,111
302,PLAYER_SLEEPBEFORE_END,1516290124884,111
302,WS_SEND_START,1516290124884,111
302,WS_SEND_END,1516290124884,111
302,WS_RECV_START,1516290124884,112
302,WS_RECV_END,1516290128700,112
302,PLAYER_SLEEPBEFORE_START,1516290128700,113
302,PLAYER_SLEEPBEFORE_END,1516290129262,113
302,WS_SEND_START,1516290129262,113
302,WS_SEND_END,1516290129262,113
302,WS_RECV_START,1516290129262,114
302,WS_RECV_END,1516290133459,114
302,PLAYER_SLEEPBEFORE_START,1516290133459,115
302,PLAYER_SLEEPBEFORE_END,1516290133468,115
302,WS_SEND_START,1516290133468,115
302,WS_SEND_END,1516290133468,115
302,WS_RECV_START,1516290133468,116
302,WS_RECV_END,1516290137715,116
302,PLAYER_SLEEPBEFORE_START,1516290137715,117
302,PLAYER_SLEEPBEFORE_END,1516290158075,117
302,WS_SEND_START,1516290158075,117
302,WS_SEND_END,1516290158075,117
302,PLAYER_SLEEPBEFORE_START,1516290158075,118
302,PLAYER_SLEEPBEFORE_END,1516290161828,118
302,WS_SEND_START,1516290161828,118
302,WS_SEND_END,1516290161828,118
302,WS_RECV_START,1516290161828,119
302,WS_RECV_END,1516290164344,119
302,PLAYER_SLEEPBEFORE_START,1516290164344,120
302,PLAYER_SLEEPBEFORE_END,1516290165332,120
302,WS_SEND_START,1516290165332,120
302,WS_SEND_END,1516290165332,120
302,WS_RECV_START,1516290165332,121
302,WS_RECV_END,1516290168280,121
302,PLAYER_SLEEPBEFORE_START,1516290168280,122
302,PLAYER_SLEEPBEFORE_END,1516290169466,122
302,WS_SEND_START,1516290169466,122
302,WS_SEND_END,1516290169466,122
302,WS_RECV_START,1516290169466,123
302,WS_RECV_END,1516290173195,123
302,PLAYER_SLEEPBEFORE_START,1516290173195,124
302,PLAYER_SLEEPBEFORE_END,1516290197600,124
302,WS_SEND_START,1516290197600,124
302,WS_SEND_END,1516290197600,124
302,WS_RECV_START,1516290197600,125
302,WS_RECV_END,1516290201306,125
302,PLAYER_SLEEPBEFORE_START,1516290201306,126
302,PLAYER_SLEEPBEFORE_END,1516290221818,126
302,WS_SEND_START,1516290221818,126
302,WS_SEND_END,1516290221818,126
302,PLAYER_SLEEPBEFORE_START,1516290221818,127
302,PLAYER_SLEEPBEFORE_END,1516290224873,127
302,WS_SEND_START,1516290224873,127
302,WS_SEND_END,1516290224873,127
302,WS_RECV_START,1516290224873,128
302,WS_RECV_END,1516290226922,128
302,PLAYER_SLEEPBEFORE_START,1516290226922,129
302,PLAYER_SLEEPBEFORE_END,1516290226942,129
302,WS_SEND_START,1516290226942,129
302,WS_SEND_END,1516290226942,129
302,WS_RECV_START,1516290226942,130
302,WS_RECV_END,1516290231991,130
302,PLAYER_SLEEPBEFORE_START,1516290231991,131
302,PLAYER_SLEEPBEFORE_END,1516290253615,131
302,WS_SEND_START,1516290253615,131
302,WS_SEND_END,1516290253615,131
302,PLAYER_SLEEPBEFORE_START,1516290253615,132
302,PLAYER_SLEEPBEFORE_END,1516290256695,132
302,WS_SEND_START,1516290256695,132
302,WS_SEND_END,1516290256695,132
302,WS_RECV_START,1516290256695,133
302,WS_RECV_END,1516290259415,133
302,PLAYER_SLEEPBEFORE_START,1516290259415,134
302,PLAYER_SLEEPBEFORE_END,1516290280632,134
302,WS_SEND_START,1516290280632,134
302,WS_SEND_END,1516290280632,134
302,PLAYER_SLEEPBEFORE_START,1516290280632,135
302,PLAYER_SLEEPBEFORE_END,1516290283822,135
302,WS_SEND_START,1516290283822,135
302,WS_SEND_END,1516290283822,135
302,WS_RECV_START,1516290283822,136
302,WS_RECV_END,1516290287122,136
302,PLAYER_SLEEPBEFORE_START,1516290287122,137
302,PLAYER_SLEEPBEFORE_END,1516290287130,137
302,WS_SEND_START,1516290287130,137
302,WS_SEND_END,1516290287130,137
302,WS_RECV_START,1516290287130,138
302,WS_RECV_END,1516290290391,138
302,PLAYER_SLEEPBEFORE_START,1516290290391,139
302,PLAYER_SLEEPBEFORE_END,1516290291081,139
302,WS_SEND_START,1516290291081,139
302,WS_SEND_END,1516290291081,139
302,WS_RECV_START,1516290291081,140
302,WS_RECV_END,1516290295481,140
302,PLAYER_SLEEPBEFORE_START,1516290295481,141
302,PLAYER_SLEEPBEFORE_END,1516290296136,141
302,WS_SEND_START,1516290296136,141
302,WS_SEND_END,1516290296136,141
302,WS_RECV_START,1516290296136,142
302,WS_RECV_END,1516290300258,142
302,PLAYER_SLEEPBEFORE_START,1516290300258,143
302,PLAYER_SLEEPBEFORE_END,1516290300315,143
302,WS_SEND_START,1516290300315,143
302,WS_SEND_END,1516290300315,143
302,WS_RECV_START,1516290300315,144
302,WS_RECV_END,1516290304488,144
302,PLAYER_SLEEPBEFORE_START,1516290304488,145
302,PLAYER_SLEEPBEFORE_END,1516290320551,145
302,REQ_START,1516290320551,145
302,REQ_END,1516290320558,145
302,PLAYER_SLEEPBEFORE_START,1516290320558,146
302,PLAYER_SLEEPBEFORE_END,1516290329435,146
302,WS_SEND_START,1516290329435,146
302,WS_SEND_END,1516290329435,146
302,WS_RECV_START,1516290329435,147
302,WS_RECV_END,1516290336855,147
302,PLAYER_SLEEPBEFORE_START,1516290336855,148
302,PLAYER_SLEEPBEFORE_END,1516290358778,148
302,WS_SEND_START,1516290358778,148
302,WS_SEND_END,1516290358778,148
302,PLAYER_SLEEPBEFORE_START,1516290358778,149
302,PLAYER_SLEEPBEFORE_END,1516290361211,149
302,WS_SEND_START,1516290361211,149
302,WS_SEND_END,1516290361211,149
302,WS_RECV_START,1516290361211,150
302,WS_RECV_END,1516290364814,150
302,PLAYER_SLEEPBEFORE_START,1516290364814,151
302,PLAYER_SLEEPBEFORE_END,1516290365024,151
302,WS_SEND_START,1516290365024,151
302,WS_SEND_END,1516290365024,151
302,WS_RECV_START,1516290365024,152
302,WS_RECV_END,1516290373266,152
302,PLAYER_SLEEPBEFORE_START,1516290373266,153
302,PLAYER_SLEEPBEFORE_END,1516290397193,153
302,WS_SEND_START,1516290397193,153
302,WS_SEND_END,1516290397193,153
302,WS_RECV_START,1516290397193,154
302,WS_RECV_END,1516290402791,154
302,PLAYER_SLEEPBEFORE_START,1516290402791,155
302,PLAYER_SLEEPBEFORE_END,1516290425349,155
302,WS_SEND_START,1516290425349,155
302,WS_SEND_END,1516290425349,155
302,PLAYER_SLEEPBEFORE_START,1516290425349,156
302,PLAYER_SLEEPBEFORE_END,1516290428624,156
302,WS_SEND_START,1516290428624,156
302,WS_SEND_END,1516290428624,156
302,WS_RECV_START,1516290428624,157
302,WS_RECV_END,1516290431769,157
302,PLAYER_SLEEPBEFORE_START,1516290431769,158
302,PLAYER_SLEEPBEFORE_END,1516290431780,158
302,WS_SEND_START,1516290431780,158
302,WS_SEND_END,1516290431780,158
302,WS_RECV_START,1516290431780,159
302,WS_RECV_END,1516290434666,159
302,PLAYER_SLEEPBEFORE_START,1516290434666,160
302,PLAYER_SLEEPBEFORE_END,1516290434842,160
302,WS_SEND_START,1516290434842,160
302,WS_SEND_END,1516290434842,160
302,WS_RECV_START,1516290434842,161
302,WS_RECV_END,1516290438611,161
302,PLAYER_SLEEPBEFORE_START,1516290438611,162
302,PLAYER_SLEEPBEFORE_END,1516290438636,162
302,WS_SEND_START,1516290438636,162
302,WS_SEND_END,1516290438636,162
302,WS_RECV_START,1516290438636,163
302,WS_RECV_END,1516290443398,163
302,PLAYER_SLEEPBEFORE_START,1516290443398,164
302,PLAYER_SLEEPBEFORE_END,1516290464210,164
302,WS_SEND_START,1516290464210,164
302,WS_SEND_END,1516290464210,164
302,WS_RECV_START,1516290464210,165
302,WS_RECV_END,1516290473658,165
302,PLAYER_SLEEPBEFORE_START,1516290473658,166
302,PLAYER_SLEEPBEFORE_END,1516290496113,166
302,WS_SEND_START,1516290496113,166
302,WS_SEND_END,1516290496113,166
302,WS_RECV_START,1516290496113,167
302,WS_RECV_END,1516290506257,167
302,PLAYER_SLEEPBEFORE_START,1516290506257,168
302,PLAYER_SLEEPBEFORE_END,1516290533615,168
302,WS_SEND_START,1516290533615,168
302,WS_SEND_END,1516290533615,168
302,WS_RECV_START,1516290533615,169
302,WS_RECV_END,1516290541993,169
302,PLAYER_SLEEPBEFORE_START,1516290541993,170
302,PLAYER_SLEEPBEFORE_END,1516290542002,170
302,WS_SEND_START,1516290542002,170
302,WS_SEND_END,1516290542002,170
302,WS_RECV_START,1516290542002,171
302,WS_RECV_END,1516290546850,171
302,PLAYER_SLEEPBEFORE_START,1516290546850,172
302,PLAYER_SLEEPBEFORE_END,1516290547219,172
302,WS_SEND_START,1516290547219,172
302,WS_SEND_END,1516290547219,172
302,WS_RECV_START,1516290547219,173
302,WS_RECV_END,1516290553977,173
302,PLAYER_SLEEPBEFORE_START,1516290553977,174
302,PLAYER_SLEEPBEFORE_END,1516290554018,174
302,WS_SEND_START,1516290554018,174
302,WS_SEND_END,1516290554018,174
302,WS_RECV_START,1516290554018,175
302,WS_RECV_END,1516290560842,175
302,PLAYER_SLEEPBEFORE_START,1516290560842,176
302,PLAYER_SLEEPBEFORE_END,1516290582604,176
302,WS_SEND_START,1516290582604,176
302,WS_SEND_END,1516290582604,176
302,PLAYER_SLEEPBEFORE_START,1516290582604,177
302,PLAYER_SLEEPBEFORE_END,1516290585122,177
302,WS_SEND_START,1516290585122,177
302,WS_SEND_END,1516290585122,177
302,WS_RECV_START,1516290585122,178
302,WS_RECV_END,1516290590480,178
302,PLAYER_SLEEPBEFORE_START,1516290590480,179
302,PLAYER_SLEEPBEFORE_END,1516290612820,179
302,WS_SEND_START,1516290612820,179
302,WS_SEND_END,1516290612820,179
302,WS_RECV_START,1516290612820,180
302,WS_RECV_END,1516290620244,180
302,PLAYER_SLEEPBEFORE_START,1516290620244,181
302,PLAYER_SLEEPBEFORE_END,1516290620688,181
302,WS_SEND_START,1516290620688,181
302,WS_SEND_END,1516290620688,181
302,WS_RECV_START,1516290620688,182
302,WS_RECV_END,1516290624587,182
302,PLAYER_SLEEPBEFORE_START,1516290624587,183
302,PLAYER_SLEEPBEFORE_END,1516290625110,183
302,WS_SEND_START,1516290625110,183
302,WS_SEND_END,1516290625110,183
302,WS_RECV_START,1516290625110,184
302,WS_RECV_END,1516290631357,184
302,PLAYER_SLEEPBEFORE_START,1516290631357,185
302,PLAYER_SLEEPBEFORE_END,1516290631625,185
302,WS_SEND_START,1516290631625,185
302,WS_SEND_END,1516290631625,185
302,WS_RECV_START,1516290631625,186
302,WS_RECV_END,1516290635779,186
302,PLAYER_SLEEPBEFORE_START,1516290635779,187
302,PLAYER_SLEEPBEFORE_END,1516290658279,187
302,WS_SEND_START,1516290658286,187
302,WS_SEND_END,1516290658286,187
302,WS_RECV_START,1516290658286,188
302,WS_RECV_END,1516290665197,188
302,PLAYER_SLEEPBEFORE_START,1516290665197,189
302,PLAYER_SLEEPBEFORE_END,1516290671436,189
302,WS_SEND_START,1516290671436,189
302,WS_SEND_END,1516290671436,189
302,WS_RECV_START,1516290671436,190
302,WS_RECV_END,1516290678564,190
302,PLAYER_SLEEPBEFORE_START,1516290678564,191
302,PLAYER_SLEEPBEFORE_END,1516290680479,191
302,WS_SEND_START,1516290680479,191
302,WS_SEND_END,1516290680479,191
302,WS_RECV_START,1516290680479,192
302,WS_RECV_END,1516290686859,192
302,PLAYER_SLEEPBEFORE_START,1516290686859,193
302,PLAYER_SLEEPBEFORE_END,1516290686987,193
302,WS_SEND_START,1516290686987,193
302,WS_SEND_END,1516290686987,193
302,WS_RECV_START,1516290686987,194
302,WS_RECV_END,1516290689437,194
302,PLAYER_SLEEPBEFORE_START,1516290689437,195
302,PLAYER_SLEEPBEFORE_END,1516290691192,195
302,WS_SEND_START,1516290691192,195
302,WS_SEND_END,1516290691192,195
302,WS_RECV_START,1516290691192,196
302,WS_RECV_END,1516290692473,196
302,PLAYER_SLEEPBEFORE_START,1516290692473,197
302,PLAYER_SLEEPBEFORE_END,1516290694277,197
302,WS_SEND_START,1516290694277,197
302,WS_SEND_END,1516290694277,197
302,WS_RECV_START,1516290694277,198
302,WS_RECV_END,1516290700493,198
302,PLAYER_SLEEPBEFORE_START,1516290700493,199
302,PLAYER_SLEEPBEFORE_END,1516290712347,199
302,WS_SEND_START,1516290712347,199
302,WS_SEND_END,1516290712347,199
302,PLAYER_SLEEPBEFORE_START,1516290712347,200
302,PLAYER_SLEEPBEFORE_END,1516290716435,200
302,WS_SEND_START,1516290716435,200
302,WS_SEND_END,1516290716435,200
302,WS_RECV_START,1516290716435,201
302,WS_RECV_END,1516290718055,201
302,PLAYER_SLEEPBEFORE_START,1516290718055,202
302,PLAYER_SLEEPBEFORE_END,1516290718070,202
302,WS_SEND_START,1516290718070,202
302,WS_SEND_END,1516290718070,202
302,WS_RECV_START,1516290718070,203
302,WS_RECV_END,1516290719946,203
302,PLAYER_SLEEPBEFORE_START,1516290719946,204
302,PLAYER_SLEEPBEFORE_END,1516290739595,204
302,WS_SEND_START,1516290739595,204
302,WS_SEND_END,1516290739595,204
302,PLAYER_SLEEPBEFORE_START,1516290739595,205
302,PLAYER_SLEEPBEFORE_END,1516290743494,205
302,WS_SEND_START,1516290743494,205
302,WS_SEND_END,1516290743494,205
302,WS_RECV_START,1516290743494,206
302,WS_RECV_END,1516290744538,206
302,PLAYER_SLEEPBEFORE_START,1516290744538,207
302,PLAYER_SLEEPBEFORE_END,1516290761469,207
302,REQ_START,1516290761469,207
302,REQ_END,1516290761477,207
302,PLAYER_SLEEPBEFORE_START,1516290761477,208
302,PLAYER_SLEEPBEFORE_END,1516290768330,208
302,WS_CLOSE_START,1516290768330,208
302,WS_CLOSE_END,1516290768330,208
302,PLAYER_DONE,1516290768330
