# --sessions 720 --app-url=http://shinyloadtest.rstudioservices.com/cran_explorer --output-dir test720 --overwrite-output --log-level warn --start-interval 500 15min.log
thread_id,event,timestamp,input_line_number,comment
462,PLAYER_SESSION_CREATE,1516289462125
462,PLAYER_START_INTERVAL_START,1516289462125
462,PLAYER_START_INTERVAL_END,1516289693125
462,REQ_HOME_START,1516289693125,2
462,REQ_HOME_END,1516289693283,2
462,REQ_START,1516289693283,3
462,REQ_END,1516289693397,3
462,REQ_START,1516289693397,4
462,REQ_END,1516289693432,4
462,REQ_START,1516289693432,5
462,REQ_END,1516289693475,5
462,REQ_START,1516289693475,6
462,REQ_END,1516289693566,6
462,REQ_START,1516289693566,7
462,REQ_END,1516289693917,7
462,REQ_START,1516289693917,8
462,REQ_END,1516289693959,8
462,REQ_START,1516289693959,9
462,REQ_END,1516289693998,9
462,REQ_START,1516289693998,10
462,REQ_END,1516289694008,10
462,REQ_START,1516289694008,11
462,REQ_END,1516289694041,11
462,REQ_START,1516289694041,12
462,REQ_END,1516289694051,12
462,REQ_START,1516289694051,13
462,REQ_END,1516289694493,13
462,REQ_START,1516289694493,14
462,REQ_END,1516289694510,14
462,REQ_START,1516289694510,15
462,REQ_END,1516289694547,15
462,REQ_TOK_START,1516289694547,16
462,REQ_TOK_END,1516289694555,16
462,REQ_SINF_START,1516289694555,17
462,REQ_SINF_END,1516289694562,17
462,WS_OPEN_START,1516289694562,18
462,WS_OPEN_END,1516289694569,18
462,REQ_START,1516289694569,19
462,REQ_END,1516289694738,19
462,WS_RECV_START,1516289694738,20
462,WS_RECV_END,1516289694738,20
462,PLAYER_SLEEPBEFORE_START,1516289694738,21
462,PLAYER_SLEEPBEFORE_END,1516289694743,21
462,WS_SEND_START,1516289694743,21
462,WS_SEND_END,1516289694743,21
462,PLAYER_SLEEPBEFORE_START,1516289694743,22
462,PLAYER_SLEEPBEFORE_END,1516289694744,22
462,WS_SEND_START,1516289694744,22
462,WS_SEND_END,1516289694744,22
462,WS_RECV_INIT_START,1516289694744,23
462,WS_RECV_INIT_END,1516289694766,23
462,WS_RECV_START,1516289694767,24
462,WS_RECV_END,1516289694848,24
462,PLAYER_SLEEPBEFORE_START,1516289694848,25
462,PLAYER_SLEEPBEFORE_END,1516289694855,25
462,REQ_START,1516289694855,25
462,REQ_END,1516289694907,25
462,PLAYER_SLEEPBEFORE_START,1516289694907,26
462,PLAYER_SLEEPBEFORE_END,1516289694908,26
462,REQ_START,1516289694908,26
462,REQ_END,1516289694947,26
462,PLAYER_SLEEPBEFORE_START,1516289694947,27
462,PLAYER_SLEEPBEFORE_END,1516289694950,27
462,REQ_START,1516289694950,27
462,REQ_END,1516289694988,27
462,PLAYER_SLEEPBEFORE_START,1516289694988,28
462,PLAYER_SLEEPBEFORE_END,1516289695274,28
462,REQ_START,1516289695274,28
462,REQ_END,1516289695327,28
462,PLAYER_SLEEPBEFORE_START,1516289695327,29
462,PLAYER_SLEEPBEFORE_END,1516289695502,29
462,WS_SEND_START,1516289695502,29
462,WS_SEND_END,1516289695502,29
462,WS_RECV_START,1516289695502,30
462,WS_RECV_END,1516289695877,30
462,PLAYER_SLEEPBEFORE_START,1516289695877,31
462,PLAYER_SLEEPBEFORE_END,1516289695888,31
462,REQ_START,1516289695888,31
462,REQ_END,1516289696138,31
462,PLAYER_SLEEPBEFORE_START,1516289696138,32
462,PLAYER_SLEEPBEFORE_END,1516289724284,32
462,WS_SEND_START,1516289724284,32
462,WS_SEND_END,1516289724284,32
462,WS_RECV_START,1516289724284,33
462,WS_RECV_END,1516289724551,33
462,PLAYER_SLEEPBEFORE_START,1516289724551,34
462,PLAYER_SLEEPBEFORE_END,1516289750463,34
462,WS_SEND_START,1516289750463,34
462,WS_SEND_END,1516289750463,34
462,WS_RECV_START,1516289750463,35
462,WS_RECV_END,1516289750751,35
462,PLAYER_SLEEPBEFORE_START,1516289750751,36
462,PLAYER_SLEEPBEFORE_END,1516289750760,36
462,WS_SEND_START,1516289750760,36
462,WS_SEND_END,1516289750760,36
462,WS_RECV_START,1516289750760,37
462,WS_RECV_END,1516289750831,37
462,PLAYER_SLEEPBEFORE_START,1516289750831,38
462,PLAYER_SLEEPBEFORE_END,1516289754026,38
462,WS_SEND_START,1516289754026,38
462,WS_SEND_END,1516289754026,38
462,WS_RECV_START,1516289754026,39
462,WS_RECV_END,1516289754525,39
462,PLAYER_SLEEPBEFORE_START,1516289754525,40
462,PLAYER_SLEEPBEFORE_END,1516289754572,40
462,WS_SEND_START,1516289754572,40
462,WS_SEND_END,1516289754572,40
462,WS_RECV_START,1516289754572,41
462,WS_RECV_END,1516289754951,41
462,PLAYER_SLEEPBEFORE_START,1516289754951,42
462,PLAYER_SLEEPBEFORE_END,1516289773086,42
462,WS_SEND_START,1516289773086,42
462,WS_SEND_END,1516289773086,42
462,WS_RECV_START,1516289773086,43
462,WS_RECV_END,1516289773647,43
462,PLAYER_SLEEPBEFORE_START,1516289773647,44
462,PLAYER_SLEEPBEFORE_END,1516289773659,44
462,WS_SEND_START,1516289773659,44
462,WS_SEND_END,1516289773659,44
462,WS_RECV_START,1516289773659,45
462,WS_RECV_END,1516289773794,45
462,PLAYER_SLEEPBEFORE_START,1516289773794,46
462,PLAYER_SLEEPBEFORE_END,1516289775054,46
462,WS_SEND_START,1516289775054,46
462,WS_SEND_END,1516289775054,46
462,WS_RECV_START,1516289775054,47
462,WS_RECV_END,1516289775783,47
462,PLAYER_SLEEPBEFORE_START,1516289775783,48
462,PLAYER_SLEEPBEFORE_END,1516289777103,48
462,WS_SEND_START,1516289777103,48
462,WS_SEND_END,1516289777103,48
462,WS_RECV_START,1516289777103,49
462,WS_RECV_END,1516289778238,49
462,PLAYER_SLEEPBEFORE_START,1516289778238,50
462,PLAYER_SLEEPBEFORE_END,1516289778263,50
462,WS_SEND_START,1516289778263,50
462,WS_SEND_END,1516289778263,50
462,WS_RECV_START,1516289778263,51
462,WS_RECV_END,1516289778690,51
462,PLAYER_SLEEPBEFORE_START,1516289778690,52
462,PLAYER_SLEEPBEFORE_END,1516289801254,52
462,WS_SEND_START,1516289801254,52
462,WS_SEND_END,1516289801254,52
462,WS_RECV_START,1516289801254,53
462,WS_RECV_END,1516289803273,53
462,PLAYER_SLEEPBEFORE_START,1516289803273,54
462,PLAYER_SLEEPBEFORE_END,1516289824576,54
462,WS_SEND_START,1516289824576,54
462,WS_SEND_END,1516289824576,54
462,PLAYER_SLEEPBEFORE_START,1516289824576,55
462,PLAYER_SLEEPBEFORE_END,1516289826517,55
462,WS_SEND_START,1516289826517,55
462,WS_SEND_END,1516289826517,55
462,WS_RECV_START,1516289826517,56
462,WS_RECV_END,1516289827172,56
462,PLAYER_SLEEPBEFORE_START,1516289827172,57
462,PLAYER_SLEEPBEFORE_END,1516289850044,57
462,WS_SEND_START,1516289850044,57
462,WS_SEND_END,1516289850044,57
462,WS_RECV_START,1516289850044,58
462,WS_RECV_END,1516289853408,58
462,PLAYER_SLEEPBEFORE_START,1516289853408,59
462,PLAYER_SLEEPBEFORE_END,1516289855735,59
462,WS_SEND_START,1516289855735,59
462,WS_SEND_END,1516289855735,59
462,WS_RECV_START,1516289855735,60
462,WS_RECV_END,1516289857533,60
462,PLAYER_SLEEPBEFORE_START,1516289857533,61
462,PLAYER_SLEEPBEFORE_END,1516289861124,61
462,WS_SEND_START,1516289861124,61
462,WS_SEND_END,1516289861124,61
462,WS_RECV_START,1516289861124,62
462,WS_RECV_END,1516289862921,62
462,PLAYER_SLEEPBEFORE_START,1516289862921,63
462,PLAYER_SLEEPBEFORE_END,1516289882183,63
462,WS_SEND_START,1516289882183,63
462,WS_SEND_END,1516289882183,63
462,WS_RECV_START,1516289882183,64
462,WS_RECV_END,1516289884684,64
462,PLAYER_SLEEPBEFORE_START,1516289884684,65
462,PLAYER_SLEEPBEFORE_END,1516289911501,65
462,WS_SEND_START,1516289911501,65
462,WS_SEND_END,1516289911501,65
462,WS_RECV_START,1516289911501,66
462,WS_RECV_END,1516289913408,66
462,PLAYER_SLEEPBEFORE_START,1516289913408,67
462,PLAYER_SLEEPBEFORE_END,1516289914915,67
462,WS_SEND_START,1516289914915,67
462,WS_SEND_END,1516289914915,67
462,WS_RECV_START,1516289914915,68
462,WS_RECV_END,1516289917236,68
462,PLAYER_SLEEPBEFORE_START,1516289917236,69
462,PLAYER_SLEEPBEFORE_END,1516289939234,69
462,WS_SEND_START,1516289939234,69
462,WS_SEND_END,1516289939234,69
462,WS_RECV_START,1516289939234,70
462,WS_RECV_END,1516289943301,70
462,PLAYER_SLEEPBEFORE_START,1516289943301,71
462,PLAYER_SLEEPBEFORE_END,1516289968076,71
462,WS_SEND_START,1516289968076,71
462,WS_SEND_END,1516289968076,71
462,PLAYER_SLEEPBEFORE_START,1516289968076,72
462,PLAYER_SLEEPBEFORE_END,1516289970684,72
462,WS_SEND_START,1516289970684,72
462,WS_SEND_END,1516289970684,72
462,WS_RECV_START,1516289970684,73
462,WS_RECV_END,1516289972462,73
462,PLAYER_SLEEPBEFORE_START,1516289972462,74
462,PLAYER_SLEEPBEFORE_END,1516289972471,74
462,WS_SEND_START,1516289972471,74
462,WS_SEND_END,1516289972471,74
462,WS_RECV_START,1516289972471,75
462,WS_RECV_END,1516289974746,75
462,PLAYER_SLEEPBEFORE_START,1516289974746,76
462,PLAYER_SLEEPBEFORE_END,1516289976252,76
462,WS_SEND_START,1516289976252,76
462,WS_SEND_END,1516289976252,76
462,WS_RECV_START,1516289976252,77
462,WS_RECV_END,1516289977972,77
462,PLAYER_SLEEPBEFORE_START,1516289977972,78
462,PLAYER_SLEEPBEFORE_END,1516289978840,78
462,WS_SEND_START,1516289978840,78
462,WS_SEND_END,1516289978840,78
462,WS_RECV_START,1516289978840,79
462,WS_RECV_END,1516289980634,79
462,PLAYER_SLEEPBEFORE_START,1516289980634,80
462,PLAYER_SLEEPBEFORE_END,1516289988300,80
462,WS_SEND_START,1516289988300,80
462,WS_SEND_END,1516289988300,80
462,WS_RECV_START,1516289988300,81
462,WS_RECV_END,1516289993193,81
462,PLAYER_SLEEPBEFORE_START,1516289993193,82
462,PLAYER_SLEEPBEFORE_END,1516289994295,82
462,WS_SEND_START,1516289994295,82
462,WS_SEND_END,1516289994295,82
462,WS_RECV_START,1516289994295,83
462,WS_RECV_END,1516289999634,83
462,PLAYER_SLEEPBEFORE_START,1516289999634,84
462,PLAYER_SLEEPBEFORE_END,1516290000581,84
462,WS_SEND_START,1516290000581,84
462,WS_SEND_END,1516290000581,84
462,WS_RECV_START,1516290000581,85
462,WS_RECV_END,1516290002783,85
462,PLAYER_SLEEPBEFORE_START,1516290002783,86
462,PLAYER_SLEEPBEFORE_END,1516290006955,86
462,WS_SEND_START,1516290006956,86
462,WS_SEND_END,1516290006956,86
462,WS_RECV_START,1516290006956,87
462,WS_RECV_END,1516290012583,87
462,PLAYER_SLEEPBEFORE_START,1516290012583,88
462,PLAYER_SLEEPBEFORE_END,1516290012591,88
462,WS_SEND_START,1516290012591,88
462,WS_SEND_END,1516290012591,88
462,WS_RECV_START,1516290012591,89
462,WS_RECV_END,1516290016180,89
462,PLAYER_SLEEPBEFORE_START,1516290016180,90
462,PLAYER_SLEEPBEFORE_END,1516290043377,90
462,REQ_START,1516290043377,90
462,REQ_END,1516290043391,90
462,PLAYER_SLEEPBEFORE_START,1516290043391,91
462,PLAYER_SLEEPBEFORE_END,1516290051281,91
462,WS_SEND_START,1516290051281,91
462,WS_SEND_END,1516290051281,91
462,WS_RECV_START,1516290051281,92
462,WS_RECV_END,1516290055228,92
462,PLAYER_SLEEPBEFORE_START,1516290055228,93
462,PLAYER_SLEEPBEFORE_END,1516290055243,93
462,WS_SEND_START,1516290055243,93
462,WS_SEND_END,1516290055243,93
462,WS_RECV_START,1516290055243,94
462,WS_RECV_END,1516290056102,94
462,PLAYER_SLEEPBEFORE_START,1516290056102,95
462,PLAYER_SLEEPBEFORE_END,1516290079657,95
462,WS_SEND_START,1516290079657,95
462,WS_SEND_END,1516290079657,95
462,WS_RECV_START,1516290079657,96
462,WS_RECV_END,1516290083518,96
462,PLAYER_SLEEPBEFORE_START,1516290083518,97
462,PLAYER_SLEEPBEFORE_END,1516290105958,97
462,WS_SEND_START,1516290105958,97
462,WS_SEND_END,1516290105958,97
462,WS_RECV_START,1516290105958,98
462,WS_RECV_END,1516290112070,98
462,PLAYER_SLEEPBEFORE_START,1516290112070,99
462,PLAYER_SLEEPBEFORE_END,1516290112091,99
462,WS_SEND_START,1516290112091,99
462,WS_SEND_END,1516290112091,99
462,WS_RECV_START,1516290112091,100
462,WS_RECV_END,1516290115639,100
462,PLAYER_SLEEPBEFORE_START,1516290115639,101
462,PLAYER_SLEEPBEFORE_END,1516290139198,101
462,WS_SEND_START,1516290139198,101
462,WS_SEND_END,1516290139198,101
462,WS_RECV_START,1516290139198,102
462,WS_RECV_END,1516290143289,102
462,PLAYER_SLEEPBEFORE_START,1516290143289,103
462,PLAYER_SLEEPBEFORE_END,1516290166914,103
462,WS_SEND_START,1516290166914,103
462,WS_SEND_END,1516290166914,103
462,WS_RECV_START,1516290166914,104
462,WS_RECV_END,1516290171813,104
462,PLAYER_SLEEPBEFORE_START,1516290171813,105
462,PLAYER_SLEEPBEFORE_END,1516290197190,105
462,WS_SEND_START,1516290197190,105
462,WS_SEND_END,1516290197190,105
462,WS_RECV_START,1516290197190,106
462,WS_RECV_END,1516290201061,106
462,PLAYER_SLEEPBEFORE_START,1516290201061,107
462,PLAYER_SLEEPBEFORE_END,1516290224489,107
462,WS_SEND_START,1516290224489,107
462,WS_SEND_END,1516290224489,107
462,WS_RECV_START,1516290224489,108
462,WS_RECV_END,1516290229880,108
462,PLAYER_SLEEPBEFORE_START,1516290229880,109
462,PLAYER_SLEEPBEFORE_END,1516290229890,109
462,WS_SEND_START,1516290229890,109
462,WS_SEND_END,1516290229890,109
462,WS_RECV_START,1516290229890,110
462,WS_RECV_END,1516290233050,110
462,PLAYER_SLEEPBEFORE_START,1516290233050,111
462,PLAYER_SLEEPBEFORE_END,1516290234010,111
462,WS_SEND_START,1516290234010,111
462,WS_SEND_END,1516290234010,111
462,WS_RECV_START,1516290234010,112
462,WS_RECV_END,1516290236708,112
462,PLAYER_SLEEPBEFORE_START,1516290236708,113
462,PLAYER_SLEEPBEFORE_END,1516290237270,113
462,WS_SEND_START,1516290237270,113
462,WS_SEND_END,1516290237270,113
462,WS_RECV_START,1516290237270,114
462,WS_RECV_END,1516290240953,114
462,PLAYER_SLEEPBEFORE_START,1516290240953,115
462,PLAYER_SLEEPBEFORE_END,1516290240962,115
462,WS_SEND_START,1516290240962,115
462,WS_SEND_END,1516290240962,115
462,WS_RECV_START,1516290240962,116
462,WS_RECV_END,1516290245066,116
462,PLAYER_SLEEPBEFORE_START,1516290245066,117
462,PLAYER_SLEEPBEFORE_END,1516290265426,117
462,WS_SEND_START,1516290265426,117
462,WS_SEND_END,1516290265426,117
462,PLAYER_SLEEPBEFORE_START,1516290265426,118
462,PLAYER_SLEEPBEFORE_END,1516290269178,118
462,WS_SEND_START,1516290269178,118
462,WS_SEND_END,1516290269178,118
462,WS_RECV_START,1516290269178,119
462,WS_RECV_END,1516290270832,119
462,PLAYER_SLEEPBEFORE_START,1516290270832,120
462,PLAYER_SLEEPBEFORE_END,1516290271820,120
462,WS_SEND_START,1516290271820,120
462,WS_SEND_END,1516290271820,120
462,WS_RECV_START,1516290271820,121
462,WS_RECV_END,1516290280556,121
462,PLAYER_SLEEPBEFORE_START,1516290280556,122
462,PLAYER_SLEEPBEFORE_END,1516290281741,122
462,WS_SEND_START,1516290281741,122
462,WS_SEND_END,1516290281741,122
462,WS_RECV_START,1516290281741,123
462,WS_RECV_END,1516290285463,123
462,PLAYER_SLEEPBEFORE_START,1516290285463,124
462,PLAYER_SLEEPBEFORE_END,1516290309868,124
462,WS_SEND_START,1516290309868,124
462,WS_SEND_END,1516290309868,124
462,WS_RECV_START,1516290309868,125
462,WS_RECV_END,1516290316387,125
462,PLAYER_SLEEPBEFORE_START,1516290316387,126
462,PLAYER_SLEEPBEFORE_END,1516290336899,126
462,WS_SEND_START,1516290336899,126
462,WS_SEND_END,1516290336899,126
462,PLAYER_SLEEPBEFORE_START,1516290336899,127
462,PLAYER_SLEEPBEFORE_END,1516290339953,127
462,WS_SEND_START,1516290339953,127
462,WS_SEND_END,1516290339953,127
462,WS_RECV_START,1516290339953,128
462,WS_RECV_END,1516290342579,128
462,PLAYER_SLEEPBEFORE_START,1516290342579,129
462,PLAYER_SLEEPBEFORE_END,1516290342599,129
462,WS_SEND_START,1516290342599,129
462,WS_SEND_END,1516290342599,129
462,WS_RECV_START,1516290342599,130
462,WS_RECV_END,1516290345965,130
462,PLAYER_SLEEPBEFORE_START,1516290345965,131
462,PLAYER_SLEEPBEFORE_END,1516290367590,131
462,WS_SEND_START,1516290367590,131
462,WS_SEND_END,1516290367591,131
462,PLAYER_SLEEPBEFORE_START,1516290367591,132
462,PLAYER_SLEEPBEFORE_END,1516290370671,132
462,WS_SEND_START,1516290370671,132
462,WS_SEND_END,1516290370671,132
462,WS_RECV_START,1516290370671,133
462,WS_RECV_END,1516290374522,133
462,PLAYER_SLEEPBEFORE_START,1516290374522,134
462,PLAYER_SLEEPBEFORE_END,1516290395739,134
462,WS_SEND_START,1516290395739,134
462,WS_SEND_END,1516290395739,134
462,PLAYER_SLEEPBEFORE_START,1516290395739,135
462,PLAYER_SLEEPBEFORE_END,1516290398929,135
462,WS_SEND_START,1516290398930,135
462,WS_SEND_END,1516290398930,135
462,WS_RECV_START,1516290398930,136
462,WS_RECV_END,1516290401370,136
462,PLAYER_SLEEPBEFORE_START,1516290401370,137
462,PLAYER_SLEEPBEFORE_END,1516290401378,137
462,WS_SEND_START,1516290401378,137
462,WS_SEND_END,1516290401378,137
462,WS_RECV_START,1516290401378,138
462,WS_RECV_END,1516290405467,138
462,PLAYER_SLEEPBEFORE_START,1516290405467,139
462,PLAYER_SLEEPBEFORE_END,1516290406157,139
462,WS_SEND_START,1516290406157,139
462,WS_SEND_END,1516290406157,139
462,WS_RECV_START,1516290406157,140
462,WS_RECV_END,1516290410064,140
462,PLAYER_SLEEPBEFORE_START,1516290410064,141
462,PLAYER_SLEEPBEFORE_END,1516290410719,141
462,WS_SEND_START,1516290410719,141
462,WS_SEND_END,1516290410719,141
462,WS_RECV_START,1516290410719,142
462,WS_RECV_END,1516290415785,142
462,PLAYER_SLEEPBEFORE_START,1516290415785,143
462,PLAYER_SLEEPBEFORE_END,1516290415842,143
462,WS_SEND_START,1516290415842,143
462,WS_SEND_END,1516290415842,143
462,WS_RECV_START,1516290415842,144
462,WS_RECV_END,1516290422321,144
462,PLAYER_SLEEPBEFORE_START,1516290422321,145
462,PLAYER_SLEEPBEFORE_END,1516290438383,145
462,REQ_START,1516290438383,145
462,REQ_END,1516290438391,145
462,PLAYER_SLEEPBEFORE_START,1516290438391,146
462,PLAYER_SLEEPBEFORE_END,1516290447269,146
462,WS_SEND_START,1516290447269,146
462,WS_SEND_END,1516290447269,146
462,WS_RECV_START,1516290447269,147
462,WS_RECV_END,1516290455400,147
462,PLAYER_SLEEPBEFORE_START,1516290455400,148
462,PLAYER_SLEEPBEFORE_END,1516290477322,148
462,WS_SEND_START,1516290477322,148
462,WS_SEND_END,1516290477322,148
462,PLAYER_SLEEPBEFORE_START,1516290477322,149
462,PLAYER_SLEEPBEFORE_END,1516290479751,149
462,WS_SEND_START,1516290479751,149
462,WS_SEND_END,1516290479751,149
462,WS_RECV_START,1516290479751,150
462,WS_RECV_END,1516290486005,150
462,PLAYER_SLEEPBEFORE_START,1516290486005,151
462,PLAYER_SLEEPBEFORE_END,1516290486215,151
462,WS_SEND_START,1516290486215,151
462,WS_SEND_END,1516290486215,151
462,WS_RECV_START,1516290486215,152
462,WS_RECV_END,1516290490545,152
462,PLAYER_SLEEPBEFORE_START,1516290490545,153
462,PLAYER_SLEEPBEFORE_END,1516290514472,153
462,WS_SEND_START,1516290514472,153
462,WS_SEND_END,1516290514472,153
462,WS_RECV_START,1516290514472,154
462,WS_RECV_END,1516290522552,154
462,PLAYER_SLEEPBEFORE_START,1516290522552,155
462,PLAYER_SLEEPBEFORE_END,1516290545110,155
462,WS_SEND_START,1516290545110,155
462,WS_SEND_END,1516290545110,155
462,PLAYER_SLEEPBEFORE_START,1516290545110,156
462,PLAYER_SLEEPBEFORE_END,1516290548384,156
462,WS_SEND_START,1516290548384,156
462,WS_SEND_END,1516290548384,156
462,WS_RECV_START,1516290548384,157
462,WS_RECV_END,1516290556059,157
462,PLAYER_SLEEPBEFORE_START,1516290556059,158
462,PLAYER_SLEEPBEFORE_END,1516290556070,158
462,WS_SEND_START,1516290556070,158
462,WS_SEND_END,1516290556070,158
462,WS_RECV_START,1516290556070,159
462,WS_RECV_END,1516290562361,159
462,PLAYER_SLEEPBEFORE_START,1516290562361,160
462,PLAYER_SLEEPBEFORE_END,1516290562537,160
462,WS_SEND_START,1516290562537,160
462,WS_SEND_END,1516290562537,160
462,WS_RECV_START,1516290562537,161
462,WS_RECV_END,1516290568668,161
462,PLAYER_SLEEPBEFORE_START,1516290568668,162
462,PLAYER_SLEEPBEFORE_END,1516290568693,162
462,WS_SEND_START,1516290568693,162
462,WS_SEND_END,1516290568693,162
462,WS_RECV_START,1516290568693,163
462,WS_RECV_END,1516290576234,163
462,PLAYER_SLEEPBEFORE_START,1516290576234,164
462,PLAYER_SLEEPBEFORE_END,1516290597046,164
462,WS_SEND_START,1516290597046,164
462,WS_SEND_END,1516290597046,164
462,WS_RECV_START,1516290597046,165
462,WS_RECV_END,1516290603165,165
462,PLAYER_SLEEPBEFORE_START,1516290603165,166
462,PLAYER_SLEEPBEFORE_END,1516290625620,166
462,WS_SEND_START,1516290625620,166
462,WS_SEND_END,1516290625620,166
462,WS_RECV_START,1516290625620,167
462,WS_RECV_END,1516290633810,167
462,PLAYER_SLEEPBEFORE_START,1516290633810,168
462,PLAYER_SLEEPBEFORE_END,1516290661167,168
462,WS_SEND_START,1516290661167,168
462,WS_SEND_END,1516290661167,168
462,WS_RECV_START,1516290661167,169
462,WS_RECV_END,1516290665441,169
462,PLAYER_SLEEPBEFORE_START,1516290665441,170
462,PLAYER_SLEEPBEFORE_END,1516290665450,170
462,WS_SEND_START,1516290665450,170
462,WS_SEND_END,1516290665450,170
462,WS_RECV_START,1516290665450,171
462,WS_RECV_END,1516290667753,171
462,PLAYER_SLEEPBEFORE_START,1516290667753,172
462,PLAYER_SLEEPBEFORE_END,1516290668122,172
462,WS_SEND_START,1516290668122,172
462,WS_SEND_END,1516290668122,172
462,WS_RECV_START,1516290668122,173
462,WS_RECV_END,1516290671707,173
462,PLAYER_SLEEPBEFORE_START,1516290671707,174
462,PLAYER_SLEEPBEFORE_END,1516290671748,174
462,WS_SEND_START,1516290671748,174
462,WS_SEND_END,1516290671748,174
462,WS_RECV_START,1516290671748,175
462,WS_RECV_END,1516290676423,175
462,PLAYER_SLEEPBEFORE_START,1516290676423,176
462,PLAYER_SLEEPBEFORE_END,1516290698184,176
462,WS_SEND_START,1516290698184,176
462,WS_SEND_END,1516290698184,176
462,PLAYER_SLEEPBEFORE_START,1516290698184,177
462,PLAYER_SLEEPBEFORE_END,1516290700702,177
462,WS_SEND_START,1516290700703,177
462,WS_SEND_END,1516290700703,177
462,WS_RECV_START,1516290700703,178
462,WS_RECV_END,1516290702200,178
462,PLAYER_SLEEPBEFORE_START,1516290702200,179
462,PLAYER_SLEEPBEFORE_END,1516290724540,179
462,WS_SEND_START,1516290724540,179
462,WS_SEND_END,1516290724540,179
462,WS_RECV_START,1516290724540,180
462,WS_RECV_END,1516290728634,180
462,PLAYER_SLEEPBEFORE_START,1516290728634,181
462,PLAYER_SLEEPBEFORE_END,1516290729079,181
462,WS_SEND_START,1516290729079,181
462,WS_SEND_END,1516290729079,181
462,WS_RECV_START,1516290729079,182
462,WS_RECV_END,1516290730415,182
462,PLAYER_SLEEPBEFORE_START,1516290730415,183
462,PLAYER_SLEEPBEFORE_END,1516290730938,183
462,WS_SEND_START,1516290730938,183
462,WS_SEND_END,1516290730938,183
462,WS_RECV_START,1516290730938,184
462,WS_RECV_END,1516290731927,184
462,PLAYER_SLEEPBEFORE_START,1516290731927,185
462,PLAYER_SLEEPBEFORE_END,1516290732195,185
462,WS_SEND_START,1516290732195,185
462,WS_SEND_END,1516290732195,185
462,WS_RECV_START,1516290732195,186
462,WS_RECV_END,1516290732867,186
462,PLAYER_SLEEPBEFORE_START,1516290732867,187
462,PLAYER_SLEEPBEFORE_END,1516290755368,187
462,WS_SEND_START,1516290755368,187
462,WS_SEND_END,1516290755368,187
462,WS_RECV_START,1516290755368,188
462,WS_RECV_END,1516290755435,188
462,PLAYER_SLEEPBEFORE_START,1516290755435,189
462,PLAYER_SLEEPBEFORE_END,1516290761675,189
462,WS_SEND_START,1516290761675,189
462,WS_SEND_END,1516290761675,189
462,WS_RECV_START,1516290761675,190
462,WS_RECV_END,1516290762599,190
462,PLAYER_SLEEPBEFORE_START,1516290762599,191
462,PLAYER_SLEEPBEFORE_END,1516290764514,191
462,WS_SEND_START,1516290764514,191
462,WS_SEND_END,1516290764514,191
462,WS_RECV_START,1516290764514,192
462,WS_RECV_END,1516290766204,192
462,PLAYER_SLEEPBEFORE_START,1516290766204,193
462,PLAYER_SLEEPBEFORE_END,1516290766333,193
462,WS_SEND_START,1516290766333,193
462,WS_SEND_END,1516290766333,193
462,WS_RECV_START,1516290766333,194
462,WS_RECV_END,1516290766881,194
462,PLAYER_SLEEPBEFORE_START,1516290766881,195
462,PLAYER_SLEEPBEFORE_END,1516290768636,195
462,WS_SEND_START,1516290768636,195
462,WS_SEND_END,1516290768636,195
462,WS_RECV_START,1516290768636,196
462,WS_RECV_END,1516290769416,196
462,PLAYER_SLEEPBEFORE_START,1516290769416,197
462,PLAYER_SLEEPBEFORE_END,1516290771220,197
462,WS_SEND_START,1516290771220,197
462,WS_SEND_END,1516290771220,197
462,WS_RECV_START,1516290771220,198
462,WS_RECV_END,1516290771681,198
462,PLAYER_SLEEPBEFORE_START,1516290771681,199
462,PLAYER_SLEEPBEFORE_END,1516290783535,199
462,WS_SEND_START,1516290783535,199
462,WS_SEND_END,1516290783535,199
462,PLAYER_SLEEPBEFORE_START,1516290783535,200
462,PLAYER_SLEEPBEFORE_END,1516290787623,200
462,WS_SEND_START,1516290787623,200
462,WS_SEND_END,1516290787623,200
462,WS_RECV_START,1516290787623,201
462,WS_RECV_END,1516290787729,201
462,PLAYER_SLEEPBEFORE_START,1516290787729,202
462,PLAYER_SLEEPBEFORE_END,1516290787743,202
462,WS_SEND_START,1516290787743,202
462,WS_SEND_END,1516290787743,202
462,WS_RECV_START,1516290787743,203
462,WS_RECV_END,1516290787887,203
462,PLAYER_SLEEPBEFORE_START,1516290787887,204
462,PLAYER_SLEEPBEFORE_END,1516290807536,204
462,WS_SEND_START,1516290807537,204
462,WS_SEND_END,1516290807537,204
462,PLAYER_SLEEPBEFORE_START,1516290807537,205
462,PLAYER_SLEEPBEFORE_END,1516290811435,205
462,WS_SEND_START,1516290811435,205
462,WS_SEND_END,1516290811435,205
462,WS_RECV_START,1516290811435,206
462,WS_RECV_END,1516290811575,206
462,PLAYER_SLEEPBEFORE_START,1516290811575,207
462,PLAYER_SLEEPBEFORE_END,1516290828507,207
462,REQ_START,1516290828507,207
462,REQ_END,1516290828515,207
462,PLAYER_SLEEPBEFORE_START,1516290828515,208
462,PLAYER_SLEEPBEFORE_END,1516290835367,208
462,WS_CLOSE_START,1516290835367,208
462,WS_CLOSE_END,1516290835367,208
462,PLAYER_DONE,1516290835367
