# --sessions 720 --app-url=http://shinyloadtest.rstudioservices.com/cran_explorer --output-dir test720 --overwrite-output --log-level warn --start-interval 500 15min.log
thread_id,event,timestamp,input_line_number,comment
576,PLAYER_SESSION_CREATE,1516289462167
576,PLAYER_START_INTERVAL_START,1516289462167
576,PLAYER_START_INTERVAL_END,1516289750167
576,REQ_HOME_START,1516289750167,2
576,REQ_HOME_END,1516289750752,2
576,REQ_START,1516289750752,3
576,REQ_END,1516289750839,3
576,REQ_START,1516289750839,4
576,REQ_END,1516289750893,4
576,REQ_START,1516289750893,5
576,REQ_END,1516289751274,5
576,REQ_START,1516289751274,6
576,REQ_END,1516289752769,6
576,REQ_START,1516289752769,7
576,REQ_END,1516289754458,7
576,REQ_START,1516289754458,8
576,REQ_END,1516289755523,8
576,REQ_START,1516289755523,9
576,REQ_END,1516289756383,9
576,REQ_START,1516289756383,10
576,REQ_END,1516289756391,10
576,REQ_START,1516289756391,11
576,REQ_END,1516289756467,11
576,REQ_START,1516289756467,12
576,REQ_END,1516289756478,12
576,REQ_START,1516289756478,13
576,REQ_END,1516289757003,13
576,REQ_START,1516289757003,14
576,REQ_END,1516289757023,14
576,REQ_START,1516289757023,15
576,REQ_END,1516289758014,15
576,REQ_TOK_START,1516289758014,16
576,REQ_TOK_END,1516289758031,16
576,REQ_SINF_START,1516289758031,17
576,REQ_SINF_END,1516289758039,17
576,WS_OPEN_START,1516289758039,18
576,WS_OPEN_END,1516289758046,18
576,REQ_START,1516289758046,19
576,REQ_END,1516289758359,19
576,WS_RECV_START,1516289758359,20
576,WS_RECV_END,1516289758359,20
576,PLAYER_SLEEPBEFORE_START,1516289758359,21
576,PLAYER_SLEEPBEFORE_END,1516289758368,21
576,WS_SEND_START,1516289758368,21
576,WS_SEND_END,1516289758368,21
576,PLAYER_SLEEPBEFORE_START,1516289758368,22
576,PLAYER_SLEEPBEFORE_END,1516289758369,22
576,WS_SEND_START,1516289758369,22
576,WS_SEND_END,1516289758369,22
576,WS_RECV_INIT_START,1516289758369,23
576,WS_RECV_INIT_END,1516289760532,23
576,WS_RECV_START,1516289760532,24
576,WS_RECV_END,1516289760908,24
576,PLAYER_SLEEPBEFORE_START,1516289760908,25
576,PLAYER_SLEEPBEFORE_END,1516289760915,25
576,REQ_START,1516289760915,25
576,REQ_END,1516289762022,25
576,PLAYER_SLEEPBEFORE_START,1516289762022,26
576,PLAYER_SLEEPBEFORE_END,1516289762023,26
576,REQ_START,1516289762023,26
576,REQ_END,1516289762318,26
576,PLAYER_SLEEPBEFORE_START,1516289762318,27
576,PLAYER_SLEEPBEFORE_END,1516289762321,27
576,REQ_START,1516289762321,27
576,REQ_END,1516289762650,27
576,PLAYER_SLEEPBEFORE_START,1516289762650,28
576,PLAYER_SLEEPBEFORE_END,1516289762935,28
576,REQ_START,1516289762935,28
576,REQ_END,1516289763298,28
576,PLAYER_SLEEPBEFORE_START,1516289763298,29
576,PLAYER_SLEEPBEFORE_END,1516289763473,29
576,WS_SEND_START,1516289763473,29
576,WS_SEND_END,1516289763473,29
576,WS_RECV_START,1516289763473,30
576,WS_RECV_END,1516289763678,30
576,PLAYER_SLEEPBEFORE_START,1516289763678,31
576,PLAYER_SLEEPBEFORE_END,1516289763690,31
576,REQ_START,1516289763690,31
576,REQ_END,1516289764134,31
576,PLAYER_SLEEPBEFORE_START,1516289764134,32
576,PLAYER_SLEEPBEFORE_END,1516289792279,32
576,WS_SEND_START,1516289792279,32
576,WS_SEND_END,1516289792280,32
576,WS_RECV_START,1516289792280,33
576,WS_RECV_END,1516289793530,33
576,PLAYER_SLEEPBEFORE_START,1516289793530,34
576,PLAYER_SLEEPBEFORE_END,1516289819441,34
576,WS_SEND_START,1516289819441,34
576,WS_SEND_END,1516289819442,34
576,WS_RECV_START,1516289819442,35
576,WS_RECV_END,1516289821178,35
576,PLAYER_SLEEPBEFORE_START,1516289821178,36
576,PLAYER_SLEEPBEFORE_END,1516289821187,36
576,WS_SEND_START,1516289821187,36
576,WS_SEND_END,1516289821187,36
576,WS_RECV_START,1516289821187,37
576,WS_RECV_END,1516289822150,37
576,PLAYER_SLEEPBEFORE_START,1516289822150,38
576,PLAYER_SLEEPBEFORE_END,1516289825345,38
576,WS_SEND_START,1516289825345,38
576,WS_SEND_END,1516289825345,38
576,WS_RECV_START,1516289825345,39
576,WS_RECV_END,1516289826789,39
576,PLAYER_SLEEPBEFORE_START,1516289826789,40
576,PLAYER_SLEEPBEFORE_END,1516289826835,40
576,WS_SEND_START,1516289826835,40
576,WS_SEND_END,1516289826835,40
576,WS_RECV_START,1516289826835,41
576,WS_RECV_END,1516289827136,41
576,PLAYER_SLEEPBEFORE_START,1516289827137,42
576,PLAYER_SLEEPBEFORE_END,1516289845272,42
576,WS_SEND_START,1516289845272,42
576,WS_SEND_END,1516289845272,42
576,WS_RECV_START,1516289845272,43
576,WS_RECV_END,1516289848342,43
576,PLAYER_SLEEPBEFORE_START,1516289848342,44
576,PLAYER_SLEEPBEFORE_END,1516289848354,44
576,WS_SEND_START,1516289848354,44
576,WS_SEND_END,1516289848354,44
576,WS_RECV_START,1516289848354,45
576,WS_RECV_END,1516289850138,45
576,PLAYER_SLEEPBEFORE_START,1516289850138,46
576,PLAYER_SLEEPBEFORE_END,1516289851398,46
576,WS_SEND_START,1516289851398,46
576,WS_SEND_END,1516289851398,46
576,WS_RECV_START,1516289851398,47
576,WS_RECV_END,1516289852012,47
576,PLAYER_SLEEPBEFORE_START,1516289852012,48
576,PLAYER_SLEEPBEFORE_END,1516289853332,48
576,WS_SEND_START,1516289853332,48
576,WS_SEND_END,1516289853332,48
576,WS_RECV_START,1516289853332,49
576,WS_RECV_END,1516289854160,49
576,PLAYER_SLEEPBEFORE_START,1516289854160,50
576,PLAYER_SLEEPBEFORE_END,1516289854184,50
576,WS_SEND_START,1516289854184,50
576,WS_SEND_END,1516289854184,50
576,WS_RECV_START,1516289854184,51
576,WS_RECV_END,1516289856852,51
576,PLAYER_SLEEPBEFORE_START,1516289856852,52
576,PLAYER_SLEEPBEFORE_END,1516289879417,52
576,WS_SEND_START,1516289879417,52
576,WS_SEND_END,1516289879417,52
576,WS_RECV_START,1516289879417,53
576,WS_RECV_END,1516289882177,53
576,PLAYER_SLEEPBEFORE_START,1516289882177,54
576,PLAYER_SLEEPBEFORE_END,1516289903480,54
576,WS_SEND_START,1516289903480,54
576,WS_SEND_END,1516289903480,54
576,PLAYER_SLEEPBEFORE_START,1516289903480,55
576,PLAYER_SLEEPBEFORE_END,1516289905421,55
576,WS_SEND_START,1516289905421,55
576,WS_SEND_END,1516289905421,55
576,WS_RECV_START,1516289905421,56
576,WS_RECV_END,1516289905874,56
576,PLAYER_SLEEPBEFORE_START,1516289905874,57
576,PLAYER_SLEEPBEFORE_END,1516289928746,57
576,WS_SEND_START,1516289928746,57
576,WS_SEND_END,1516289928746,57
576,WS_RECV_START,1516289928746,58
576,WS_RECV_END,1516289931638,58
576,PLAYER_SLEEPBEFORE_START,1516289931638,59
576,PLAYER_SLEEPBEFORE_END,1516289933965,59
576,WS_SEND_START,1516289933965,59
576,WS_SEND_END,1516289933965,59
576,WS_RECV_START,1516289933965,60
576,WS_RECV_END,1516289936565,60
576,PLAYER_SLEEPBEFORE_START,1516289936565,61
576,PLAYER_SLEEPBEFORE_END,1516289940156,61
576,WS_SEND_START,1516289940156,61
576,WS_SEND_END,1516289940156,61
576,WS_RECV_START,1516289940156,62
576,WS_RECV_END,1516289944581,62
576,PLAYER_SLEEPBEFORE_START,1516289944581,63
576,PLAYER_SLEEPBEFORE_END,1516289963843,63
576,WS_SEND_START,1516289963843,63
576,WS_SEND_END,1516289963843,63
576,WS_RECV_START,1516289963843,64
576,WS_RECV_END,1516289968097,64
576,PLAYER_SLEEPBEFORE_START,1516289968097,65
576,PLAYER_SLEEPBEFORE_END,1516289994914,65
576,WS_SEND_START,1516289994915,65
576,WS_SEND_END,1516289994915,65
576,WS_RECV_START,1516289994915,66
576,WS_RECV_END,1516290000352,66
576,PLAYER_SLEEPBEFORE_START,1516290000352,67
576,PLAYER_SLEEPBEFORE_END,1516290001859,67
576,WS_SEND_START,1516290001859,67
576,WS_SEND_END,1516290001859,67
576,WS_RECV_START,1516290001859,68
576,WS_RECV_END,1516290008443,68
576,PLAYER_SLEEPBEFORE_START,1516290008443,69
576,PLAYER_SLEEPBEFORE_END,1516290030441,69
576,WS_SEND_START,1516290030441,69
576,WS_SEND_END,1516290030441,69
576,WS_RECV_START,1516290030441,70
576,WS_RECV_END,1516290034907,70
576,PLAYER_SLEEPBEFORE_START,1516290034907,71
576,PLAYER_SLEEPBEFORE_END,1516290059682,71
576,WS_SEND_START,1516290059682,71
576,WS_SEND_END,1516290059682,71
576,PLAYER_SLEEPBEFORE_START,1516290059682,72
576,PLAYER_SLEEPBEFORE_END,1516290062289,72
576,WS_SEND_START,1516290062289,72
576,WS_SEND_END,1516290062289,72
576,WS_RECV_START,1516290062289,73
576,WS_RECV_END,1516290064803,73
576,PLAYER_SLEEPBEFORE_START,1516290064803,74
576,PLAYER_SLEEPBEFORE_END,1516290064812,74
576,WS_SEND_START,1516290064812,74
576,WS_SEND_END,1516290064812,74
576,WS_RECV_START,1516290064812,75
576,WS_RECV_END,1516290066830,75
576,PLAYER_SLEEPBEFORE_START,1516290066830,76
576,PLAYER_SLEEPBEFORE_END,1516290068336,76
576,WS_SEND_START,1516290068336,76
576,WS_SEND_END,1516290068336,76
576,WS_RECV_START,1516290068336,77
576,WS_RECV_END,1516290069692,77
576,PLAYER_SLEEPBEFORE_START,1516290069692,78
576,PLAYER_SLEEPBEFORE_END,1516290070560,78
576,WS_SEND_START,1516290070560,78
576,WS_SEND_END,1516290070560,78
576,WS_RECV_START,1516290070560,79
576,WS_RECV_END,1516290072628,79
576,PLAYER_SLEEPBEFORE_START,1516290072628,80
576,PLAYER_SLEEPBEFORE_END,1516290080294,80
576,WS_SEND_START,1516290080294,80
576,WS_SEND_END,1516290080294,80
576,WS_RECV_START,1516290080294,81
576,WS_RECV_END,1516290083910,81
576,PLAYER_SLEEPBEFORE_START,1516290083910,82
576,PLAYER_SLEEPBEFORE_END,1516290085012,82
576,WS_SEND_START,1516290085012,82
576,WS_SEND_END,1516290085012,82
576,WS_RECV_START,1516290085012,83
576,WS_RECV_END,1516290090386,83
576,PLAYER_SLEEPBEFORE_START,1516290090386,84
576,PLAYER_SLEEPBEFORE_END,1516290091333,84
576,WS_SEND_START,1516290091333,84
576,WS_SEND_END,1516290091333,84
576,WS_RECV_START,1516290091333,85
576,WS_RECV_END,1516290093590,85
576,PLAYER_SLEEPBEFORE_START,1516290093590,86
576,PLAYER_SLEEPBEFORE_END,1516290097762,86
576,WS_SEND_START,1516290097762,86
576,WS_SEND_END,1516290097762,86
576,WS_RECV_START,1516290097762,87
576,WS_RECV_END,1516290104281,87
576,PLAYER_SLEEPBEFORE_START,1516290104281,88
576,PLAYER_SLEEPBEFORE_END,1516290104289,88
576,WS_SEND_START,1516290104289,88
576,WS_SEND_END,1516290104289,88
576,WS_RECV_START,1516290104289,89
576,WS_RECV_END,1516290107507,89
576,PLAYER_SLEEPBEFORE_START,1516290107507,90
576,PLAYER_SLEEPBEFORE_END,1516290134704,90
576,REQ_START,1516290134704,90
576,REQ_END,1516290134712,90
576,PLAYER_SLEEPBEFORE_START,1516290134713,91
576,PLAYER_SLEEPBEFORE_END,1516290142602,91
576,WS_SEND_START,1516290142602,91
576,WS_SEND_END,1516290142602,91
576,WS_RECV_START,1516290142602,92
576,WS_RECV_END,1516290147149,92
576,PLAYER_SLEEPBEFORE_START,1516290147149,93
576,PLAYER_SLEEPBEFORE_END,1516290147164,93
576,WS_SEND_START,1516290147164,93
576,WS_SEND_END,1516290147164,93
576,WS_RECV_START,1516290147164,94
576,WS_RECV_END,1516290150702,94
576,PLAYER_SLEEPBEFORE_START,1516290150702,95
576,PLAYER_SLEEPBEFORE_END,1516290174257,95
576,WS_SEND_START,1516290174257,95
576,WS_SEND_END,1516290174257,95
576,WS_RECV_START,1516290174257,96
576,WS_RECV_END,1516290179823,96
576,PLAYER_SLEEPBEFORE_START,1516290179823,97
576,PLAYER_SLEEPBEFORE_END,1516290202263,97
576,WS_SEND_START,1516290202263,97
576,WS_SEND_END,1516290202263,97
576,WS_RECV_START,1516290202263,98
576,WS_RECV_END,1516290207802,98
576,PLAYER_SLEEPBEFORE_START,1516290207802,99
576,PLAYER_SLEEPBEFORE_END,1516290207823,99
576,WS_SEND_START,1516290207823,99
576,WS_SEND_END,1516290207823,99
576,WS_RECV_START,1516290207823,100
576,WS_RECV_END,1516290210547,100
576,PLAYER_SLEEPBEFORE_START,1516290210547,101
576,PLAYER_SLEEPBEFORE_END,1516290234106,101
576,WS_SEND_START,1516290234106,101
576,WS_SEND_END,1516290234106,101
576,WS_RECV_START,1516290234106,102
576,WS_RECV_END,1516290239452,102
576,PLAYER_SLEEPBEFORE_START,1516290239452,103
576,PLAYER_SLEEPBEFORE_END,1516290263078,103
576,WS_SEND_START,1516290263078,103
576,WS_SEND_END,1516290263078,103
576,WS_RECV_START,1516290263078,104
576,WS_RECV_END,1516290268768,104
576,PLAYER_SLEEPBEFORE_START,1516290268769,105
576,PLAYER_SLEEPBEFORE_END,1516290294146,105
576,WS_SEND_START,1516290294146,105
576,WS_SEND_END,1516290294146,105
576,WS_RECV_START,1516290294146,106
576,WS_RECV_END,1516290299904,106
576,PLAYER_SLEEPBEFORE_START,1516290299904,107
576,PLAYER_SLEEPBEFORE_END,1516290323327,107
576,WS_SEND_START,1516290323327,107
576,WS_SEND_END,1516290323327,107
576,WS_RECV_START,1516290323327,108
576,WS_RECV_END,1516290328513,108
576,PLAYER_SLEEPBEFORE_START,1516290328513,109
576,PLAYER_SLEEPBEFORE_END,1516290328522,109
576,WS_SEND_START,1516290328522,109
576,WS_SEND_END,1516290328522,109
576,WS_RECV_START,1516290328522,110
576,WS_RECV_END,1516290330389,110
576,PLAYER_SLEEPBEFORE_START,1516290330389,111
576,PLAYER_SLEEPBEFORE_END,1516290331348,111
576,WS_SEND_START,1516290331348,111
576,WS_SEND_END,1516290331348,111
576,WS_RECV_START,1516290331348,112
576,WS_RECV_END,1516290335394,112
576,PLAYER_SLEEPBEFORE_START,1516290335394,113
576,PLAYER_SLEEPBEFORE_END,1516290335962,113
576,WS_SEND_START,1516290335962,113
576,WS_SEND_END,1516290335962,113
576,WS_RECV_START,1516290335962,114
576,WS_RECV_END,1516290341166,114
576,PLAYER_SLEEPBEFORE_START,1516290341166,115
576,PLAYER_SLEEPBEFORE_END,1516290341175,115
576,WS_SEND_START,1516290341175,115
576,WS_SEND_END,1516290341175,115
576,WS_RECV_START,1516290341175,116
576,WS_RECV_END,1516290344954,116
576,PLAYER_SLEEPBEFORE_START,1516290344954,117
576,PLAYER_SLEEPBEFORE_END,1516290365314,117
576,WS_SEND_START,1516290365314,117
576,WS_SEND_END,1516290365314,117
576,PLAYER_SLEEPBEFORE_START,1516290365314,118
576,PLAYER_SLEEPBEFORE_END,1516290369066,118
576,WS_SEND_START,1516290369066,118
576,WS_SEND_END,1516290369066,118
576,WS_RECV_START,1516290369066,119
576,WS_RECV_END,1516290371869,119
576,PLAYER_SLEEPBEFORE_START,1516290371869,120
576,PLAYER_SLEEPBEFORE_END,1516290372857,120
576,WS_SEND_START,1516290372857,120
576,WS_SEND_END,1516290372857,120
576,WS_RECV_START,1516290372857,121
576,WS_RECV_END,1516290376070,121
576,PLAYER_SLEEPBEFORE_START,1516290376070,122
576,PLAYER_SLEEPBEFORE_END,1516290377255,122
576,WS_SEND_START,1516290377255,122
576,WS_SEND_END,1516290377255,122
576,WS_RECV_START,1516290377255,123
576,WS_RECV_END,1516290379433,123
576,PLAYER_SLEEPBEFORE_START,1516290379433,124
576,PLAYER_SLEEPBEFORE_END,1516290403838,124
576,WS_SEND_START,1516290403838,124
576,WS_SEND_END,1516290403838,124
576,WS_RECV_START,1516290403838,125
576,WS_RECV_END,1516290409789,125
576,PLAYER_SLEEPBEFORE_START,1516290409789,126
576,PLAYER_SLEEPBEFORE_END,1516290430301,126
576,WS_SEND_START,1516290430301,126
576,WS_SEND_END,1516290430301,126
576,PLAYER_SLEEPBEFORE_START,1516290430301,127
576,PLAYER_SLEEPBEFORE_END,1516290433356,127
576,WS_SEND_START,1516290433356,127
576,WS_SEND_END,1516290433356,127
576,WS_RECV_START,1516290433356,128
576,WS_RECV_END,1516290438033,128
576,PLAYER_SLEEPBEFORE_START,1516290438033,129
576,PLAYER_SLEEPBEFORE_END,1516290438053,129
576,WS_SEND_START,1516290438053,129
576,WS_SEND_END,1516290438053,129
576,WS_RECV_START,1516290438053,130
576,WS_RECV_END,1516290442365,130
576,PLAYER_SLEEPBEFORE_START,1516290442365,131
576,PLAYER_SLEEPBEFORE_END,1516290463989,131
576,WS_SEND_START,1516290463989,131
576,WS_SEND_END,1516290463989,131
576,PLAYER_SLEEPBEFORE_START,1516290463989,132
576,PLAYER_SLEEPBEFORE_END,1516290467070,132
576,WS_SEND_START,1516290467070,132
576,WS_SEND_END,1516290467070,132
576,WS_RECV_START,1516290467070,133
576,WS_RECV_END,1516290473397,133
576,PLAYER_SLEEPBEFORE_START,1516290473397,134
576,PLAYER_SLEEPBEFORE_END,1516290494614,134
576,WS_SEND_START,1516290494614,134
576,WS_SEND_END,1516290494614,134
576,PLAYER_SLEEPBEFORE_START,1516290494614,135
576,PLAYER_SLEEPBEFORE_END,1516290497804,135
576,WS_SEND_START,1516290497804,135
576,WS_SEND_END,1516290497804,135
576,WS_RECV_START,1516290497804,136
576,WS_RECV_END,1516290504399,136
576,PLAYER_SLEEPBEFORE_START,1516290504399,137
576,PLAYER_SLEEPBEFORE_END,1516290504406,137
576,WS_SEND_START,1516290504406,137
576,WS_SEND_END,1516290504406,137
576,WS_RECV_START,1516290504406,138
576,WS_RECV_END,1516290509729,138
576,PLAYER_SLEEPBEFORE_START,1516290509729,139
576,PLAYER_SLEEPBEFORE_END,1516290510419,139
576,WS_SEND_START,1516290510419,139
576,WS_SEND_END,1516290510419,139
576,WS_RECV_START,1516290510419,140
576,WS_RECV_END,1516290516013,140
576,PLAYER_SLEEPBEFORE_START,1516290516013,141
576,PLAYER_SLEEPBEFORE_END,1516290516668,141
576,WS_SEND_START,1516290516668,141
576,WS_SEND_END,1516290516668,141
576,WS_RECV_START,1516290516668,142
576,WS_RECV_END,1516290522676,142
576,PLAYER_SLEEPBEFORE_START,1516290522676,143
576,PLAYER_SLEEPBEFORE_END,1516290522733,143
576,WS_SEND_START,1516290522733,143
576,WS_SEND_END,1516290522733,143
576,WS_RECV_START,1516290522733,144
576,WS_RECV_END,1516290528929,144
576,PLAYER_SLEEPBEFORE_START,1516290528929,145
576,PLAYER_SLEEPBEFORE_END,1516290544991,145
576,REQ_START,1516290544991,145
576,REQ_END,1516290544999,145
576,PLAYER_SLEEPBEFORE_START,1516290544999,146
576,PLAYER_SLEEPBEFORE_END,1516290553876,146
576,WS_SEND_START,1516290553876,146
576,WS_SEND_END,1516290553876,146
576,WS_RECV_START,1516290553876,147
576,WS_RECV_END,1516290563910,147
576,PLAYER_SLEEPBEFORE_START,1516290563910,148
576,PLAYER_SLEEPBEFORE_END,1516290585833,148
576,WS_SEND_START,1516290585833,148
576,WS_SEND_END,1516290585833,148
576,PLAYER_SLEEPBEFORE_START,1516290585833,149
576,PLAYER_SLEEPBEFORE_END,1516290588261,149
576,WS_SEND_START,1516290588261,149
576,WS_SEND_END,1516290588261,149
576,WS_RECV_START,1516290588261,150
576,WS_RECV_END,1516290592963,150
576,PLAYER_SLEEPBEFORE_START,1516290592963,151
576,PLAYER_SLEEPBEFORE_END,1516290593173,151
576,WS_SEND_START,1516290593173,151
576,WS_SEND_END,1516290593173,151
576,WS_RECV_START,1516290593173,152
576,WS_RECV_END,1516290600438,152
576,PLAYER_SLEEPBEFORE_START,1516290600438,153
576,PLAYER_SLEEPBEFORE_END,1516290624365,153
576,WS_SEND_START,1516290624365,153
576,WS_SEND_END,1516290624365,153
576,WS_RECV_START,1516290624365,154
576,WS_RECV_END,1516290631272,154
576,PLAYER_SLEEPBEFORE_START,1516290631272,155
576,PLAYER_SLEEPBEFORE_END,1516290653831,155
576,WS_SEND_START,1516290653831,155
576,WS_SEND_END,1516290653831,155
576,PLAYER_SLEEPBEFORE_START,1516290653831,156
576,PLAYER_SLEEPBEFORE_END,1516290657105,156
576,WS_SEND_START,1516290657105,156
576,WS_SEND_END,1516290657105,156
576,WS_RECV_START,1516290657105,157
576,WS_RECV_END,1516290659602,157
576,PLAYER_SLEEPBEFORE_START,1516290659602,158
576,PLAYER_SLEEPBEFORE_END,1516290659612,158
576,WS_SEND_START,1516290659612,158
576,WS_SEND_END,1516290659612,158
576,WS_RECV_START,1516290659612,159
576,WS_RECV_END,1516290662545,159
576,PLAYER_SLEEPBEFORE_START,1516290662545,160
576,PLAYER_SLEEPBEFORE_END,1516290662720,160
576,WS_SEND_START,1516290662720,160
576,WS_SEND_END,1516290662720,160
576,WS_RECV_START,1516290662720,161
576,WS_RECV_END,1516290665637,161
576,PLAYER_SLEEPBEFORE_START,1516290665637,162
576,PLAYER_SLEEPBEFORE_END,1516290665662,162
576,WS_SEND_START,1516290665662,162
576,WS_SEND_END,1516290665662,162
576,WS_RECV_START,1516290665662,163
576,WS_RECV_END,1516290669573,163
576,PLAYER_SLEEPBEFORE_START,1516290669573,164
576,PLAYER_SLEEPBEFORE_END,1516290690385,164
576,WS_SEND_START,1516290690385,164
576,WS_SEND_END,1516290690385,164
576,WS_RECV_START,1516290690385,165
576,WS_RECV_END,1516290693563,165
576,PLAYER_SLEEPBEFORE_START,1516290693563,166
576,PLAYER_SLEEPBEFORE_END,1516290716018,166
576,WS_SEND_START,1516290716018,166
576,WS_SEND_END,1516290716018,166
576,WS_RECV_START,1516290716018,167
576,WS_RECV_END,1516290716693,167
576,PLAYER_SLEEPBEFORE_START,1516290716693,168
576,PLAYER_SLEEPBEFORE_END,1516290744050,168
576,WS_SEND_START,1516290744050,168
576,WS_SEND_END,1516290744050,168
576,WS_RECV_START,1516290744050,169
576,WS_RECV_END,1516290744302,169
576,PLAYER_SLEEPBEFORE_START,1516290744302,170
576,PLAYER_SLEEPBEFORE_END,1516290744311,170
576,WS_SEND_START,1516290744311,170
576,WS_SEND_END,1516290744311,170
576,WS_RECV_START,1516290744311,171
576,WS_RECV_END,1516290744549,171
576,PLAYER_SLEEPBEFORE_START,1516290744549,172
576,PLAYER_SLEEPBEFORE_END,1516290744918,172
576,WS_SEND_START,1516290744918,172
576,WS_SEND_END,1516290744918,172
576,WS_RECV_START,1516290744918,173
576,WS_RECV_END,1516290745587,173
576,PLAYER_SLEEPBEFORE_START,1516290745587,174
576,PLAYER_SLEEPBEFORE_END,1516290745628,174
576,WS_SEND_START,1516290745628,174
576,WS_SEND_END,1516290745628,174
576,WS_RECV_START,1516290745628,175
576,WS_RECV_END,1516290746107,175
576,PLAYER_SLEEPBEFORE_START,1516290746107,176
576,PLAYER_SLEEPBEFORE_END,1516290767868,176
576,WS_SEND_START,1516290767868,176
576,WS_SEND_END,1516290767868,176
576,PLAYER_SLEEPBEFORE_START,1516290767868,177
576,PLAYER_SLEEPBEFORE_END,1516290770386,177
576,WS_SEND_START,1516290770386,177
576,WS_SEND_END,1516290770386,177
576,WS_RECV_START,1516290770386,178
576,WS_RECV_END,1516290770585,178
576,PLAYER_SLEEPBEFORE_START,1516290770585,179
576,PLAYER_SLEEPBEFORE_END,1516290792925,179
576,WS_SEND_START,1516290792925,179
576,WS_SEND_END,1516290792925,179
576,WS_RECV_START,1516290792925,180
576,WS_RECV_END,1516290793249,180
576,PLAYER_SLEEPBEFORE_START,1516290793249,181
576,PLAYER_SLEEPBEFORE_END,1516290793693,181
576,WS_SEND_START,1516290793693,181
576,WS_SEND_END,1516290793693,181
576,WS_RECV_START,1516290793693,182
576,WS_RECV_END,1516290793978,182
576,PLAYER_SLEEPBEFORE_START,1516290793978,183
576,PLAYER_SLEEPBEFORE_END,1516290794501,183
576,WS_SEND_START,1516290794501,183
576,WS_SEND_END,1516290794501,183
576,WS_RECV_START,1516290794501,184
576,WS_RECV_END,1516290794621,184
576,PLAYER_SLEEPBEFORE_START,1516290794621,185
576,PLAYER_SLEEPBEFORE_END,1516290794889,185
576,WS_SEND_START,1516290794889,185
576,WS_SEND_END,1516290794889,185
576,WS_RECV_START,1516290794889,186
576,WS_RECV_END,1516290795026,186
576,PLAYER_SLEEPBEFORE_START,1516290795026,187
576,PLAYER_SLEEPBEFORE_END,1516290817526,187
576,WS_SEND_START,1516290817526,187
576,WS_SEND_END,1516290817526,187
576,WS_RECV_START,1516290817526,188
576,WS_RECV_END,1516290817595,188
576,PLAYER_SLEEPBEFORE_START,1516290817595,189
576,PLAYER_SLEEPBEFORE_END,1516290823834,189
576,WS_SEND_START,1516290823834,189
576,WS_SEND_END,1516290823834,189
576,WS_RECV_START,1516290823834,190
576,WS_RECV_END,1516290823963,190
576,PLAYER_SLEEPBEFORE_START,1516290823963,191
576,PLAYER_SLEEPBEFORE_END,1516290825879,191
576,WS_SEND_START,1516290825879,191
576,WS_SEND_END,1516290825879,191
576,WS_RECV_START,1516290825879,192
576,WS_RECV_END,1516290826018,192
576,PLAYER_SLEEPBEFORE_START,1516290826018,193
576,PLAYER_SLEEPBEFORE_END,1516290826146,193
576,WS_SEND_START,1516290826146,193
576,WS_SEND_END,1516290826146,193
576,WS_RECV_START,1516290826146,194
576,WS_RECV_END,1516290826314,194
576,PLAYER_SLEEPBEFORE_START,1516290826314,195
576,PLAYER_SLEEPBEFORE_END,1516290828069,195
576,WS_SEND_START,1516290828069,195
576,WS_SEND_END,1516290828069,195
576,WS_RECV_START,1516290828069,196
576,WS_RECV_END,1516290828185,196
576,PLAYER_SLEEPBEFORE_START,1516290828185,197
576,PLAYER_SLEEPBEFORE_END,1516290829989,197
576,WS_SEND_START,1516290829989,197
576,WS_SEND_END,1516290829989,197
576,WS_RECV_START,1516290829989,198
576,WS_RECV_END,1516290830180,198
576,PLAYER_SLEEPBEFORE_START,1516290830180,199
576,PLAYER_SLEEPBEFORE_END,1516290842034,199
576,WS_SEND_START,1516290842034,199
576,WS_SEND_END,1516290842034,199
576,PLAYER_SLEEPBEFORE_START,1516290842034,200
576,PLAYER_SLEEPBEFORE_END,1516290846122,200
576,WS_SEND_START,1516290846122,200
576,WS_SEND_END,1516290846122,200
576,WS_RECV_START,1516290846122,201
576,WS_RECV_END,1516290846267,201
576,PLAYER_SLEEPBEFORE_START,1516290846267,202
576,PLAYER_SLEEPBEFORE_END,1516290846281,202
576,WS_SEND_START,1516290846281,202
576,WS_SEND_END,1516290846281,202
576,WS_RECV_START,1516290846281,203
576,WS_RECV_END,1516290846494,203
576,PLAYER_SLEEPBEFORE_START,1516290846494,204
576,PLAYER_SLEEPBEFORE_END,1516290866143,204
576,WS_SEND_START,1516290866143,204
576,WS_SEND_END,1516290866144,204
576,PLAYER_SLEEPBEFORE_START,1516290866144,205
576,PLAYER_SLEEPBEFORE_END,1516290870042,205
576,WS_SEND_START,1516290870042,205
576,WS_SEND_END,1516290870042,205
576,WS_RECV_START,1516290870042,206
576,WS_RECV_END,1516290870151,206
576,PLAYER_SLEEPBEFORE_START,1516290870151,207
576,PLAYER_SLEEPBEFORE_END,1516290887082,207
576,REQ_START,1516290887082,207
576,REQ_END,1516290887092,207
576,PLAYER_SLEEPBEFORE_START,1516290887092,208
576,PLAYER_SLEEPBEFORE_END,1516290893944,208
576,WS_CLOSE_START,1516290893944,208
576,WS_CLOSE_END,1516290893944,208
576,PLAYER_DONE,1516290893944
