# --sessions 540 --app-url=http://shinyloadtest.rstudioservices.com/cran_explorer --output-dir test540-2 --overwrite-output --log-level warn --start-interval 500 15min.log
thread_id,event,timestamp,input_line_number,comment
255,PLAYER_SESSION_CREATE,1516230348017
255,PLAYER_START_INTERVAL_START,1516230348017
255,PLAYER_START_INTERVAL_END,1516230475518
255,REQ_HOME_START,1516230475518,2
255,REQ_HOME_END,1516230475614,2
255,REQ_START,1516230475614,3
255,REQ_END,1516230475647,3
255,REQ_START,1516230475647,4
255,REQ_END,1516230475679,4
255,REQ_START,1516230475679,5
255,REQ_END,1516230475721,5
255,REQ_START,1516230475721,6
255,REQ_END,1516230475758,6
255,REQ_START,1516230475758,7
255,REQ_END,1516230475794,7
255,REQ_START,1516230475794,8
255,REQ_END,1516230475830,8
255,REQ_START,1516230475830,9
255,REQ_END,1516230475867,9
255,REQ_START,1516230475867,10
255,REQ_END,1516230475875,10
255,REQ_START,1516230475875,11
255,REQ_END,1516230475905,11
255,REQ_START,1516230475905,12
255,REQ_END,1516230475915,12
255,REQ_START,1516230475915,13
255,REQ_END,1516230475946,13
255,REQ_START,1516230475946,14
255,REQ_END,1516230475960,14
255,REQ_START,1516230475960,15
255,REQ_END,1516230476081,15
255,REQ_TOK_START,1516230476081,16
255,REQ_TOK_END,1516230476089,16
255,REQ_SINF_START,1516230476089,17
255,REQ_SINF_END,1516230476095,17
255,WS_OPEN_START,1516230476095,18
255,WS_OPEN_END,1516230476102,18
255,REQ_START,1516230476102,19
255,REQ_END,1516230476130,19
255,WS_RECV_START,1516230476130,20
255,WS_RECV_END,1516230476130,20
255,PLAYER_SLEEPBEFORE_START,1516230476130,21
255,PLAYER_SLEEPBEFORE_END,1516230476135,21
255,WS_SEND_START,1516230476135,21
255,WS_SEND_END,1516230476135,21
255,PLAYER_SLEEPBEFORE_START,1516230476135,22
255,PLAYER_SLEEPBEFORE_END,1516230476136,22
255,WS_SEND_START,1516230476136,22
255,WS_SEND_END,1516230476136,22
255,WS_RECV_INIT_START,1516230476136,23
255,WS_RECV_INIT_END,1516230476364,23
255,WS_RECV_START,1516230476364,24
255,WS_RECV_END,1516230476433,24
255,PLAYER_SLEEPBEFORE_START,1516230476433,25
255,PLAYER_SLEEPBEFORE_END,1516230476440,25
255,REQ_START,1516230476440,25
255,REQ_END,1516230476473,25
255,PLAYER_SLEEPBEFORE_START,1516230476473,26
255,PLAYER_SLEEPBEFORE_END,1516230476474,26
255,REQ_START,1516230476474,26
255,REQ_END,1516230476506,26
255,PLAYER_SLEEPBEFORE_START,1516230476506,27
255,PLAYER_SLEEPBEFORE_END,1516230476509,27
255,REQ_START,1516230476509,27
255,REQ_END,1516230476540,27
255,PLAYER_SLEEPBEFORE_START,1516230476540,28
255,PLAYER_SLEEPBEFORE_END,1516230476826,28
255,REQ_START,1516230476826,28
255,REQ_END,1516230476858,28
255,PLAYER_SLEEPBEFORE_START,1516230476858,29
255,PLAYER_SLEEPBEFORE_END,1516230477033,29
255,WS_SEND_START,1516230477033,29
255,WS_SEND_END,1516230477033,29
255,WS_RECV_START,1516230477033,30
255,WS_RECV_END,1516230477276,30
255,PLAYER_SLEEPBEFORE_START,1516230477276,31
255,PLAYER_SLEEPBEFORE_END,1516230477287,31
255,REQ_START,1516230477287,31
255,REQ_END,1516230477328,31
255,PLAYER_SLEEPBEFORE_START,1516230477328,32
255,PLAYER_SLEEPBEFORE_END,1516230505473,32
255,WS_SEND_START,1516230505473,32
255,WS_SEND_END,1516230505473,32
255,WS_RECV_START,1516230505473,33
255,WS_RECV_END,1516230505632,33
255,PLAYER_SLEEPBEFORE_START,1516230505632,34
255,PLAYER_SLEEPBEFORE_END,1516230531543,34
255,WS_SEND_START,1516230531543,34
255,WS_SEND_END,1516230531543,34
255,WS_RECV_START,1516230531543,35
255,WS_RECV_END,1516230531597,35
255,PLAYER_SLEEPBEFORE_START,1516230531597,36
255,PLAYER_SLEEPBEFORE_END,1516230531606,36
255,WS_SEND_START,1516230531606,36
255,WS_SEND_END,1516230531606,36
255,WS_RECV_START,1516230531606,37
255,WS_RECV_END,1516230531648,37
255,PLAYER_SLEEPBEFORE_START,1516230531648,38
255,PLAYER_SLEEPBEFORE_END,1516230534843,38
255,WS_SEND_START,1516230534843,38
255,WS_SEND_END,1516230534843,38
255,WS_RECV_START,1516230534843,39
255,WS_RECV_END,1516230535051,39
255,PLAYER_SLEEPBEFORE_START,1516230535051,40
255,PLAYER_SLEEPBEFORE_END,1516230535097,40
255,WS_SEND_START,1516230535097,40
255,WS_SEND_END,1516230535097,40
255,WS_RECV_START,1516230535097,41
255,WS_RECV_END,1516230535323,41
255,PLAYER_SLEEPBEFORE_START,1516230535323,42
255,PLAYER_SLEEPBEFORE_END,1516230553458,42
255,WS_SEND_START,1516230553458,42
255,WS_SEND_END,1516230553458,42
255,WS_RECV_START,1516230553458,43
255,WS_RECV_END,1516230553829,43
255,PLAYER_SLEEPBEFORE_START,1516230553829,44
255,PLAYER_SLEEPBEFORE_END,1516230553841,44
255,WS_SEND_START,1516230553841,44
255,WS_SEND_END,1516230553841,44
255,WS_RECV_START,1516230553841,45
255,WS_RECV_END,1516230553896,45
255,PLAYER_SLEEPBEFORE_START,1516230553896,46
255,PLAYER_SLEEPBEFORE_END,1516230555156,46
255,WS_SEND_START,1516230555156,46
255,WS_SEND_END,1516230555156,46
255,WS_RECV_START,1516230555156,47
255,WS_RECV_END,1516230555263,47
255,PLAYER_SLEEPBEFORE_START,1516230555263,48
255,PLAYER_SLEEPBEFORE_END,1516230556583,48
255,WS_SEND_START,1516230556583,48
255,WS_SEND_END,1516230556583,48
255,WS_RECV_START,1516230556583,49
255,WS_RECV_END,1516230556918,49
255,PLAYER_SLEEPBEFORE_START,1516230556918,50
255,PLAYER_SLEEPBEFORE_END,1516230556943,50
255,WS_SEND_START,1516230556943,50
255,WS_SEND_END,1516230556943,50
255,WS_RECV_START,1516230556943,51
255,WS_RECV_END,1516230557232,51
255,PLAYER_SLEEPBEFORE_START,1516230557232,52
255,PLAYER_SLEEPBEFORE_END,1516230579796,52
255,WS_SEND_START,1516230579796,52
255,WS_SEND_END,1516230579796,52
255,WS_RECV_START,1516230579796,53
255,WS_RECV_END,1516230580068,53
255,PLAYER_SLEEPBEFORE_START,1516230580069,54
255,PLAYER_SLEEPBEFORE_END,1516230601372,54
255,WS_SEND_START,1516230601372,54
255,WS_SEND_END,1516230601372,54
255,PLAYER_SLEEPBEFORE_START,1516230601372,55
255,PLAYER_SLEEPBEFORE_END,1516230603313,55
255,WS_SEND_START,1516230603313,55
255,WS_SEND_END,1516230603313,55
255,WS_RECV_START,1516230603313,56
255,WS_RECV_END,1516230603724,56
255,PLAYER_SLEEPBEFORE_START,1516230603724,57
255,PLAYER_SLEEPBEFORE_END,1516230626596,57
255,WS_SEND_START,1516230626596,57
255,WS_SEND_END,1516230626596,57
255,WS_RECV_START,1516230626596,58
255,WS_RECV_END,1516230627814,58
255,PLAYER_SLEEPBEFORE_START,1516230627814,59
255,PLAYER_SLEEPBEFORE_END,1516230630141,59
255,WS_SEND_START,1516230630141,59
255,WS_SEND_END,1516230630141,59
255,WS_RECV_START,1516230630141,60
255,WS_RECV_END,1516230630574,60
255,PLAYER_SLEEPBEFORE_START,1516230630574,61
255,PLAYER_SLEEPBEFORE_END,1516230634166,61
255,WS_SEND_START,1516230634166,61
255,WS_SEND_END,1516230634166,61
255,WS_RECV_START,1516230634166,62
255,WS_RECV_END,1516230635758,62
255,PLAYER_SLEEPBEFORE_START,1516230635758,63
255,PLAYER_SLEEPBEFORE_END,1516230655021,63
255,WS_SEND_START,1516230655021,63
255,WS_SEND_END,1516230655021,63
255,WS_RECV_START,1516230655021,64
255,WS_RECV_END,1516230655336,64
255,PLAYER_SLEEPBEFORE_START,1516230655336,65
255,PLAYER_SLEEPBEFORE_END,1516230682153,65
255,WS_SEND_START,1516230682153,65
255,WS_SEND_END,1516230682153,65
255,WS_RECV_START,1516230682153,66
255,WS_RECV_END,1516230683118,66
255,PLAYER_SLEEPBEFORE_START,1516230683118,67
255,PLAYER_SLEEPBEFORE_END,1516230684625,67
255,WS_SEND_START,1516230684625,67
255,WS_SEND_END,1516230684625,67
255,WS_RECV_START,1516230684625,68
255,WS_RECV_END,1516230684777,68
255,PLAYER_SLEEPBEFORE_START,1516230684777,69
255,PLAYER_SLEEPBEFORE_END,1516230706775,69
255,WS_SEND_START,1516230706775,69
255,WS_SEND_END,1516230706775,69
255,WS_RECV_START,1516230706775,70
255,WS_RECV_END,1516230707047,70
255,PLAYER_SLEEPBEFORE_START,1516230707047,71
255,PLAYER_SLEEPBEFORE_END,1516230731822,71
255,WS_SEND_START,1516230731822,71
255,WS_SEND_END,1516230731822,71
255,PLAYER_SLEEPBEFORE_START,1516230731822,72
255,PLAYER_SLEEPBEFORE_END,1516230734429,72
255,WS_SEND_START,1516230734429,72
255,WS_SEND_END,1516230734429,72
255,WS_RECV_START,1516230734429,73
255,WS_RECV_END,1516230734863,73
255,PLAYER_SLEEPBEFORE_START,1516230734863,74
255,PLAYER_SLEEPBEFORE_END,1516230734872,74
255,WS_SEND_START,1516230734872,74
255,WS_SEND_END,1516230734872,74
255,WS_RECV_START,1516230734872,75
255,WS_RECV_END,1516230735483,75
255,PLAYER_SLEEPBEFORE_START,1516230735483,76
255,PLAYER_SLEEPBEFORE_END,1516230736989,76
255,WS_SEND_START,1516230736989,76
255,WS_SEND_END,1516230736989,76
255,WS_RECV_START,1516230736989,77
255,WS_RECV_END,1516230738170,77
255,PLAYER_SLEEPBEFORE_START,1516230738170,78
255,PLAYER_SLEEPBEFORE_END,1516230739038,78
255,WS_SEND_START,1516230739038,78
255,WS_SEND_END,1516230739039,78
255,WS_RECV_START,1516230739039,79
255,WS_RECV_END,1516230739849,79
255,PLAYER_SLEEPBEFORE_START,1516230739849,80
255,PLAYER_SLEEPBEFORE_END,1516230747515,80
255,WS_SEND_START,1516230747515,80
255,WS_SEND_END,1516230747515,80
255,WS_RECV_START,1516230747515,81
255,WS_RECV_END,1516230747896,81
255,PLAYER_SLEEPBEFORE_START,1516230747896,82
255,PLAYER_SLEEPBEFORE_END,1516230748998,82
255,WS_SEND_START,1516230748998,82
255,WS_SEND_END,1516230748998,82
255,WS_RECV_START,1516230748998,83
255,WS_RECV_END,1516230750369,83
255,PLAYER_SLEEPBEFORE_START,1516230750369,84
255,PLAYER_SLEEPBEFORE_END,1516230751316,84
255,WS_SEND_START,1516230751316,84
255,WS_SEND_END,1516230751316,84
255,WS_RECV_START,1516230751316,85
255,WS_RECV_END,1516230751688,85
255,PLAYER_SLEEPBEFORE_START,1516230751688,86
255,PLAYER_SLEEPBEFORE_END,1516230755860,86
255,WS_SEND_START,1516230755860,86
255,WS_SEND_END,1516230755860,86
255,WS_RECV_START,1516230755860,87
255,WS_RECV_END,1516230756056,87
255,PLAYER_SLEEPBEFORE_START,1516230756056,88
255,PLAYER_SLEEPBEFORE_END,1516230756064,88
255,WS_SEND_START,1516230756064,88
255,WS_SEND_END,1516230756064,88
255,WS_RECV_START,1516230756064,89
255,WS_RECV_END,1516230756290,89
255,PLAYER_SLEEPBEFORE_START,1516230756290,90
255,PLAYER_SLEEPBEFORE_END,1516230783487,90
255,REQ_START,1516230783487,90
255,REQ_END,1516230783495,90
255,PLAYER_SLEEPBEFORE_START,1516230783495,91
255,PLAYER_SLEEPBEFORE_END,1516230791384,91
255,WS_SEND_START,1516230791384,91
255,WS_SEND_END,1516230791384,91
255,WS_RECV_START,1516230791384,92
255,WS_RECV_END,1516230791588,92
255,PLAYER_SLEEPBEFORE_START,1516230791588,93
255,PLAYER_SLEEPBEFORE_END,1516230791604,93
255,WS_SEND_START,1516230791604,93
255,WS_SEND_END,1516230791604,93
255,WS_RECV_START,1516230791604,94
255,WS_RECV_END,1516230791885,94
255,PLAYER_SLEEPBEFORE_START,1516230791885,95
255,PLAYER_SLEEPBEFORE_END,1516230815440,95
255,WS_SEND_START,1516230815440,95
255,WS_SEND_END,1516230815440,95
255,WS_RECV_START,1516230815440,96
255,WS_RECV_END,1516230816113,96
255,PLAYER_SLEEPBEFORE_START,1516230816113,97
255,PLAYER_SLEEPBEFORE_END,1516230838553,97
255,WS_SEND_START,1516230838553,97
255,WS_SEND_END,1516230838553,97
255,WS_RECV_START,1516230838553,98
255,WS_RECV_END,1516230840257,98
255,PLAYER_SLEEPBEFORE_START,1516230840257,99
255,PLAYER_SLEEPBEFORE_END,1516230840278,99
255,WS_SEND_START,1516230840278,99
255,WS_SEND_END,1516230840278,99
255,WS_RECV_START,1516230840278,100
255,WS_RECV_END,1516230841086,100
255,PLAYER_SLEEPBEFORE_START,1516230841086,101
255,PLAYER_SLEEPBEFORE_END,1516230864645,101
255,WS_SEND_START,1516230864645,101
255,WS_SEND_END,1516230864645,101
255,WS_RECV_START,1516230864645,102
255,WS_RECV_END,1516230868322,102
255,PLAYER_SLEEPBEFORE_START,1516230868322,103
255,PLAYER_SLEEPBEFORE_END,1516230891947,103
255,WS_SEND_START,1516230891947,103
255,WS_SEND_END,1516230891947,103
255,WS_RECV_START,1516230891947,104
255,WS_RECV_END,1516230896312,104
255,PLAYER_SLEEPBEFORE_START,1516230896312,105
255,PLAYER_SLEEPBEFORE_END,1516230921689,105
255,WS_SEND_START,1516230921689,105
255,WS_SEND_END,1516230921689,105
255,WS_RECV_START,1516230921689,106
255,WS_RECV_END,1516230924795,106
255,PLAYER_SLEEPBEFORE_START,1516230924795,107
255,PLAYER_SLEEPBEFORE_END,1516230948218,107
255,WS_SEND_START,1516230948218,107
255,WS_SEND_END,1516230948218,107
255,WS_RECV_START,1516230948218,108
255,WS_RECV_END,1516230950435,108
255,PLAYER_SLEEPBEFORE_START,1516230950435,109
255,PLAYER_SLEEPBEFORE_END,1516230950444,109
255,WS_SEND_START,1516230950444,109
255,WS_SEND_END,1516230950444,109
255,WS_RECV_START,1516230950444,110
255,WS_RECV_END,1516230951107,110
255,PLAYER_SLEEPBEFORE_START,1516230951107,111
255,PLAYER_SLEEPBEFORE_END,1516230952066,111
255,WS_SEND_START,1516230952066,111
255,WS_SEND_END,1516230952066,111
255,WS_RECV_START,1516230952066,112
255,WS_RECV_END,1516230952402,112
255,PLAYER_SLEEPBEFORE_START,1516230952402,113
255,PLAYER_SLEEPBEFORE_END,1516230952964,113
255,WS_SEND_START,1516230952964,113
255,WS_SEND_END,1516230952964,113
255,WS_RECV_START,1516230952964,114
255,WS_RECV_END,1516230953495,114
255,PLAYER_SLEEPBEFORE_START,1516230953495,115
255,PLAYER_SLEEPBEFORE_END,1516230953504,115
255,WS_SEND_START,1516230953504,115
255,WS_SEND_END,1516230953504,115
255,WS_RECV_START,1516230953504,116
255,WS_RECV_END,1516230955936,116
255,PLAYER_SLEEPBEFORE_START,1516230955936,117
255,PLAYER_SLEEPBEFORE_END,1516230976296,117
255,WS_SEND_START,1516230976296,117
255,WS_SEND_END,1516230976296,117
255,PLAYER_SLEEPBEFORE_START,1516230976296,118
255,PLAYER_SLEEPBEFORE_END,1516230980048,118
255,WS_SEND_START,1516230980048,118
255,WS_SEND_END,1516230980048,118
255,WS_RECV_START,1516230980048,119
255,WS_RECV_END,1516230981080,119
255,PLAYER_SLEEPBEFORE_START,1516230981080,120
255,PLAYER_SLEEPBEFORE_END,1516230982068,120
255,WS_SEND_START,1516230982068,120
255,WS_SEND_END,1516230982068,120
255,WS_RECV_START,1516230982068,121
255,WS_RECV_END,1516230987523,121
255,PLAYER_SLEEPBEFORE_START,1516230987523,122
255,PLAYER_SLEEPBEFORE_END,1516230988708,122
255,WS_SEND_START,1516230988708,122
255,WS_SEND_END,1516230988708,122
255,WS_RECV_START,1516230988708,123
255,WS_RECV_END,1516230990340,123
255,PLAYER_SLEEPBEFORE_START,1516230990340,124
255,PLAYER_SLEEPBEFORE_END,1516231014746,124
255,WS_SEND_START,1516231014746,124
255,WS_SEND_END,1516231014746,124
255,WS_RECV_START,1516231014746,125
255,WS_RECV_END,1516231018443,125
255,PLAYER_SLEEPBEFORE_START,1516231018443,126
255,PLAYER_SLEEPBEFORE_END,1516231038955,126
255,WS_SEND_START,1516231038955,126
255,WS_SEND_END,1516231038955,126
255,PLAYER_SLEEPBEFORE_START,1516231038955,127
255,PLAYER_SLEEPBEFORE_END,1516231042009,127
255,WS_SEND_START,1516231042009,127
255,WS_SEND_END,1516231042009,127
255,WS_RECV_START,1516231042009,128
255,WS_RECV_END,1516231043247,128
255,PLAYER_SLEEPBEFORE_START,1516231043247,129
255,PLAYER_SLEEPBEFORE_END,1516231043267,129
255,WS_SEND_START,1516231043267,129
255,WS_SEND_END,1516231043267,129
255,WS_RECV_START,1516231043267,130
255,WS_RECV_END,1516231046007,130
255,PLAYER_SLEEPBEFORE_START,1516231046007,131
255,PLAYER_SLEEPBEFORE_END,1516231067631,131
255,WS_SEND_START,1516231067631,131
255,WS_SEND_END,1516231067631,131
255,PLAYER_SLEEPBEFORE_START,1516231067631,132
255,PLAYER_SLEEPBEFORE_END,1516231070711,132
255,WS_SEND_START,1516231070711,132
255,WS_SEND_END,1516231070711,132
255,WS_RECV_START,1516231070711,133
255,WS_RECV_END,1516231072886,133
255,PLAYER_SLEEPBEFORE_START,1516231072886,134
255,PLAYER_SLEEPBEFORE_END,1516231094103,134
255,WS_SEND_START,1516231094103,134
255,WS_SEND_END,1516231094104,134
255,PLAYER_SLEEPBEFORE_START,1516231094104,135
255,PLAYER_SLEEPBEFORE_END,1516231097294,135
255,WS_SEND_START,1516231097294,135
255,WS_SEND_END,1516231097294,135
255,WS_RECV_START,1516231097294,136
255,WS_RECV_END,1516231098520,136
255,PLAYER_SLEEPBEFORE_START,1516231098520,137
255,PLAYER_SLEEPBEFORE_END,1516231098527,137
255,WS_SEND_START,1516231098527,137
255,WS_SEND_END,1516231098527,137
255,WS_RECV_START,1516231098527,138
255,WS_RECV_END,1516231101024,138
255,PLAYER_SLEEPBEFORE_START,1516231101024,139
255,PLAYER_SLEEPBEFORE_END,1516231101714,139
255,WS_SEND_START,1516231101714,139
255,WS_SEND_END,1516231101714,139
255,WS_RECV_START,1516231101714,140
255,WS_RECV_END,1516231103583,140
255,PLAYER_SLEEPBEFORE_START,1516231103583,141
255,PLAYER_SLEEPBEFORE_END,1516231104238,141
255,WS_SEND_START,1516231104238,141
255,WS_SEND_END,1516231104238,141
255,WS_RECV_START,1516231104238,142
255,WS_RECV_END,1516231106408,142
255,PLAYER_SLEEPBEFORE_START,1516231106408,143
255,PLAYER_SLEEPBEFORE_END,1516231106465,143
255,WS_SEND_START,1516231106465,143
255,WS_SEND_END,1516231106465,143
255,WS_RECV_START,1516231106465,144
255,WS_RECV_END,1516231109531,144
255,PLAYER_SLEEPBEFORE_START,1516231109531,145
255,PLAYER_SLEEPBEFORE_END,1516231125593,145
255,REQ_START,1516231125593,145
255,REQ_END,1516231125602,145
255,PLAYER_SLEEPBEFORE_START,1516231125602,146
255,PLAYER_SLEEPBEFORE_END,1516231134479,146
255,WS_SEND_START,1516231134479,146
255,WS_SEND_END,1516231134479,146
255,WS_RECV_START,1516231134479,147
255,WS_RECV_END,1516231138848,147
255,PLAYER_SLEEPBEFORE_START,1516231138848,148
255,PLAYER_SLEEPBEFORE_END,1516231160770,148
255,WS_SEND_START,1516231160770,148
255,WS_SEND_END,1516231160770,148
255,PLAYER_SLEEPBEFORE_START,1516231160770,149
255,PLAYER_SLEEPBEFORE_END,1516231163198,149
255,WS_SEND_START,1516231163199,149
255,WS_SEND_END,1516231163199,149
255,WS_RECV_START,1516231163199,150
255,WS_RECV_END,1516231164108,150
255,PLAYER_SLEEPBEFORE_START,1516231164108,151
255,PLAYER_SLEEPBEFORE_END,1516231164318,151
255,WS_SEND_START,1516231164318,151
255,WS_SEND_END,1516231164318,151
255,WS_RECV_START,1516231164318,152
255,WS_RECV_END,1516231166946,152
255,PLAYER_SLEEPBEFORE_START,1516231166946,153
255,PLAYER_SLEEPBEFORE_END,1516231190873,153
255,WS_SEND_START,1516231190873,153
255,WS_SEND_END,1516231190873,153
255,WS_RECV_START,1516231190873,154
255,WS_RECV_END,1516231192473,154
255,PLAYER_SLEEPBEFORE_START,1516231192473,155
255,PLAYER_SLEEPBEFORE_END,1516231215031,155
255,WS_SEND_START,1516231215031,155
255,WS_SEND_END,1516231215031,155
255,PLAYER_SLEEPBEFORE_START,1516231215031,156
255,PLAYER_SLEEPBEFORE_END,1516231218305,156
255,WS_SEND_START,1516231218305,156
255,WS_SEND_END,1516231218305,156
255,WS_RECV_START,1516231218305,157
255,WS_RECV_END,1516231221504,157
255,PLAYER_SLEEPBEFORE_START,1516231221504,158
255,PLAYER_SLEEPBEFORE_END,1516231221514,158
255,WS_SEND_START,1516231221514,158
255,WS_SEND_END,1516231221514,158
255,WS_RECV_START,1516231221514,159
255,WS_RECV_END,1516231224156,159
255,PLAYER_SLEEPBEFORE_START,1516231224156,160
255,PLAYER_SLEEPBEFORE_END,1516231224332,160
255,WS_SEND_START,1516231224332,160
255,WS_SEND_END,1516231224332,160
255,WS_RECV_START,1516231224332,161
255,WS_RECV_END,1516231226877,161
255,PLAYER_SLEEPBEFORE_START,1516231226877,162
255,PLAYER_SLEEPBEFORE_END,1516231226902,162
255,WS_SEND_START,1516231226902,162
255,WS_SEND_END,1516231226902,162
255,WS_RECV_START,1516231226902,163
255,WS_RECV_END,1516231229468,163
255,PLAYER_SLEEPBEFORE_START,1516231229468,164
255,PLAYER_SLEEPBEFORE_END,1516231250280,164
255,WS_SEND_START,1516231250280,164
255,WS_SEND_END,1516231250280,164
255,WS_RECV_START,1516231250280,165
255,WS_RECV_END,1516231255638,165
255,PLAYER_SLEEPBEFORE_START,1516231255638,166
255,PLAYER_SLEEPBEFORE_END,1516231278094,166
255,WS_SEND_START,1516231278094,166
255,WS_SEND_END,1516231278094,166
255,WS_RECV_START,1516231278094,167
255,WS_RECV_END,1516231283801,167
255,PLAYER_SLEEPBEFORE_START,1516231283801,168
255,PLAYER_SLEEPBEFORE_END,1516231311158,168
255,WS_SEND_START,1516231311158,168
255,WS_SEND_END,1516231311158,168
255,WS_RECV_START,1516231311158,169
255,WS_RECV_END,1516231316777,169
255,PLAYER_SLEEPBEFORE_START,1516231316777,170
255,PLAYER_SLEEPBEFORE_END,1516231316786,170
255,WS_SEND_START,1516231316786,170
255,WS_SEND_END,1516231316786,170
255,WS_RECV_START,1516231316786,171
255,WS_RECV_END,1516231323902,171
255,PLAYER_SLEEPBEFORE_START,1516231323902,172
255,PLAYER_SLEEPBEFORE_END,1516231324271,172
255,WS_SEND_START,1516231324271,172
255,WS_SEND_END,1516231324271,172
255,WS_RECV_START,1516231324271,173
255,WS_RECV_END,1516231327965,173
255,PLAYER_SLEEPBEFORE_START,1516231327965,174
255,PLAYER_SLEEPBEFORE_END,1516231328006,174
255,WS_SEND_START,1516231328006,174
255,WS_SEND_END,1516231328006,174
255,WS_RECV_START,1516231328006,175
255,WS_RECV_END,1516231332669,175
255,PLAYER_SLEEPBEFORE_START,1516231332669,176
255,PLAYER_SLEEPBEFORE_END,1516231354431,176
255,WS_SEND_START,1516231354431,176
255,WS_SEND_END,1516231354431,176
255,PLAYER_SLEEPBEFORE_START,1516231354431,177
255,PLAYER_SLEEPBEFORE_END,1516231356955,177
255,WS_SEND_START,1516231356955,177
255,WS_SEND_END,1516231356955,177
255,WS_RECV_START,1516231356955,178
255,WS_RECV_END,1516231364656,178
255,PLAYER_SLEEPBEFORE_START,1516231364656,179
255,PLAYER_SLEEPBEFORE_END,1516231386996,179
255,WS_SEND_START,1516231386996,179
255,WS_SEND_END,1516231386996,179
255,WS_RECV_START,1516231386996,180
255,WS_RECV_END,1516231392600,180
255,PLAYER_SLEEPBEFORE_START,1516231392600,181
255,PLAYER_SLEEPBEFORE_END,1516231393044,181
255,WS_SEND_START,1516231393044,181
255,WS_SEND_END,1516231393044,181
255,WS_RECV_START,1516231393044,182
255,WS_RECV_END,1516231396958,182
255,PLAYER_SLEEPBEFORE_START,1516231396958,183
255,PLAYER_SLEEPBEFORE_END,1516231397481,183
255,WS_SEND_START,1516231397481,183
255,WS_SEND_END,1516231397481,183
255,WS_RECV_START,1516231397481,184
255,WS_RECV_END,1516231401019,184
255,PLAYER_SLEEPBEFORE_START,1516231401019,185
255,PLAYER_SLEEPBEFORE_END,1516231401287,185
255,WS_SEND_START,1516231401287,185
255,WS_SEND_END,1516231401287,185
255,WS_RECV_START,1516231401287,186
255,WS_RECV_END,1516231403790,186
255,PLAYER_SLEEPBEFORE_START,1516231403790,187
255,PLAYER_SLEEPBEFORE_END,1516231426290,187
255,WS_SEND_START,1516231426290,187
255,WS_SEND_END,1516231426290,187
255,WS_RECV_START,1516231426290,188
255,WS_RECV_END,1516231430244,188
255,PLAYER_SLEEPBEFORE_START,1516231430244,189
255,PLAYER_SLEEPBEFORE_END,1516231436483,189
255,WS_SEND_START,1516231436483,189
255,WS_SEND_END,1516231436483,189
255,WS_RECV_START,1516231436483,190
255,WS_RECV_END,1516231437813,190
255,PLAYER_SLEEPBEFORE_START,1516231437813,191
255,PLAYER_SLEEPBEFORE_END,1516231439728,191
255,WS_SEND_START,1516231439728,191
255,WS_SEND_END,1516231439729,191
255,WS_RECV_START,1516231439729,192
255,WS_RECV_END,1516231442531,192
255,PLAYER_SLEEPBEFORE_START,1516231442531,193
255,PLAYER_SLEEPBEFORE_END,1516231442659,193
255,WS_SEND_START,1516231442659,193
255,WS_SEND_END,1516231442659,193
255,WS_RECV_START,1516231442659,194
255,WS_RECV_END,1516231445817,194
255,PLAYER_SLEEPBEFORE_START,1516231445817,195
255,PLAYER_SLEEPBEFORE_END,1516231447572,195
255,WS_SEND_START,1516231447572,195
255,WS_SEND_END,1516231447572,195
255,WS_RECV_START,1516231447572,196
255,WS_RECV_END,1516231448736,196
255,PLAYER_SLEEPBEFORE_START,1516231448736,197
255,PLAYER_SLEEPBEFORE_END,1516231450541,197
255,WS_SEND_START,1516231450541,197
255,WS_SEND_END,1516231450541,197
255,WS_RECV_START,1516231450541,198
255,WS_RECV_END,1516231453202,198
255,PLAYER_SLEEPBEFORE_START,1516231453202,199
255,PLAYER_SLEEPBEFORE_END,1516231465056,199
255,WS_SEND_START,1516231465056,199
255,WS_SEND_END,1516231465056,199
255,PLAYER_SLEEPBEFORE_START,1516231465056,200
255,PLAYER_SLEEPBEFORE_END,1516231469144,200
255,WS_SEND_START,1516231469144,200
255,WS_SEND_END,1516231469144,200
255,WS_RECV_START,1516231469144,201
255,WS_RECV_END,1516231469342,201
255,PLAYER_SLEEPBEFORE_START,1516231469342,202
255,PLAYER_SLEEPBEFORE_END,1516231469356,202
255,WS_SEND_START,1516231469356,202
255,WS_SEND_END,1516231469356,202
255,WS_RECV_START,1516231469356,203
255,WS_RECV_END,1516231469515,203
255,PLAYER_SLEEPBEFORE_START,1516231469515,204
255,PLAYER_SLEEPBEFORE_END,1516231489164,204
255,WS_SEND_START,1516231489164,204
255,WS_SEND_END,1516231489164,204
255,PLAYER_SLEEPBEFORE_START,1516231489164,205
255,PLAYER_SLEEPBEFORE_END,1516231493062,205
255,WS_SEND_START,1516231493062,205
255,WS_SEND_END,1516231493062,205
255,WS_RECV_START,1516231493062,206
255,WS_RECV_END,1516231493323,206
255,PLAYER_SLEEPBEFORE_START,1516231493323,207
255,PLAYER_SLEEPBEFORE_END,1516231510254,207
255,REQ_START,1516231510254,207
255,REQ_END,1516231510264,207
255,PLAYER_SLEEPBEFORE_START,1516231510264,208
255,PLAYER_SLEEPBEFORE_END,1516231517116,208
255,WS_CLOSE_START,1516231517116,208
255,WS_CLOSE_END,1516231517117,208
255,PLAYER_DONE,1516231517117
