# --sessions 540 --app-url=http://shinyloadtest.rstudioservices.com/cran_explorer --output-dir test540-2 --overwrite-output --log-level warn --start-interval 500 15min.log
thread_id,event,timestamp,input_line_number,comment
343,PLAYER_SESSION_CREATE,1516230348042
343,PLAYER_START_INTERVAL_START,1516230348042
343,PLAYER_START_INTERVAL_END,1516230519542
343,REQ_HOME_START,1516230519542,2
343,REQ_HOME_END,1516230519698,2
343,REQ_START,1516230519698,3
343,REQ_END,1516230519750,3
343,REQ_START,1516230519750,4
343,REQ_END,1516230519783,4
343,REQ_START,1516230519783,5
343,REQ_END,1516230519824,5
343,REQ_START,1516230519824,6
343,REQ_END,1516230519861,6
343,REQ_START,1516230519861,7
343,REQ_END,1516230519895,7
343,REQ_START,1516230519895,8
343,REQ_END,1516230519929,8
343,REQ_START,1516230519929,9
343,REQ_END,1516230519972,9
343,REQ_START,1516230519972,10
343,REQ_END,1516230519980,10
343,REQ_START,1516230519980,11
343,REQ_END,1516230520013,11
343,REQ_START,1516230520013,12
343,REQ_END,1516230520050,12
343,REQ_START,1516230520050,13
343,REQ_END,1516230520094,13
343,REQ_START,1516230520094,14
343,REQ_END,1516230520109,14
343,REQ_START,1516230520109,15
343,REQ_END,1516230520146,15
343,REQ_TOK_START,1516230520146,16
343,REQ_TOK_END,1516230520155,16
343,REQ_SINF_START,1516230520155,17
343,REQ_SINF_END,1516230520162,17
343,WS_OPEN_START,1516230520162,18
343,WS_OPEN_END,1516230520168,18
343,REQ_START,1516230520168,19
343,REQ_END,1516230520451,19
343,WS_RECV_START,1516230520451,20
343,WS_RECV_END,1516230520451,20
343,PLAYER_SLEEPBEFORE_START,1516230520451,21
343,PLAYER_SLEEPBEFORE_END,1516230520456,21
343,WS_SEND_START,1516230520456,21
343,WS_SEND_END,1516230520456,21
343,PLAYER_SLEEPBEFORE_START,1516230520456,22
343,PLAYER_SLEEPBEFORE_END,1516230520457,22
343,WS_SEND_START,1516230520457,22
343,WS_SEND_END,1516230520457,22
343,WS_RECV_INIT_START,1516230520457,23
343,WS_RECV_INIT_END,1516230520553,23
343,WS_RECV_START,1516230520553,24
343,WS_RECV_END,1516230520672,24
343,PLAYER_SLEEPBEFORE_START,1516230520673,25
343,PLAYER_SLEEPBEFORE_END,1516230520680,25
343,REQ_START,1516230520680,25
343,REQ_END,1516230520722,25
343,PLAYER_SLEEPBEFORE_START,1516230520722,26
343,PLAYER_SLEEPBEFORE_END,1516230520723,26
343,REQ_START,1516230520723,26
343,REQ_END,1516230520759,26
343,PLAYER_SLEEPBEFORE_START,1516230520759,27
343,PLAYER_SLEEPBEFORE_END,1516230520762,27
343,REQ_START,1516230520762,27
343,REQ_END,1516230520798,27
343,PLAYER_SLEEPBEFORE_START,1516230520798,28
343,PLAYER_SLEEPBEFORE_END,1516230521083,28
343,REQ_START,1516230521083,28
343,REQ_END,1516230521183,28
343,PLAYER_SLEEPBEFORE_START,1516230521183,29
343,PLAYER_SLEEPBEFORE_END,1516230521359,29
343,WS_SEND_START,1516230521359,29
343,WS_SEND_END,1516230521359,29
343,WS_RECV_START,1516230521359,30
343,WS_RECV_END,1516230521577,30
343,PLAYER_SLEEPBEFORE_START,1516230521577,31
343,PLAYER_SLEEPBEFORE_END,1516230521589,31
343,REQ_START,1516230521589,31
343,REQ_END,1516230521981,31
343,PLAYER_SLEEPBEFORE_START,1516230521981,32
343,PLAYER_SLEEPBEFORE_END,1516230550126,32
343,WS_SEND_START,1516230550126,32
343,WS_SEND_END,1516230550126,32
343,WS_RECV_START,1516230550126,33
343,WS_RECV_END,1516230550263,33
343,PLAYER_SLEEPBEFORE_START,1516230550263,34
343,PLAYER_SLEEPBEFORE_END,1516230576175,34
343,WS_SEND_START,1516230576175,34
343,WS_SEND_END,1516230576175,34
343,WS_RECV_START,1516230576175,35
343,WS_RECV_END,1516230576775,35
343,PLAYER_SLEEPBEFORE_START,1516230576775,36
343,PLAYER_SLEEPBEFORE_END,1516230576784,36
343,WS_SEND_START,1516230576784,36
343,WS_SEND_END,1516230576784,36
343,WS_RECV_START,1516230576784,37
343,WS_RECV_END,1516230576832,37
343,PLAYER_SLEEPBEFORE_START,1516230576832,38
343,PLAYER_SLEEPBEFORE_END,1516230580027,38
343,WS_SEND_START,1516230580027,38
343,WS_SEND_END,1516230580027,38
343,WS_RECV_START,1516230580027,39
343,WS_RECV_END,1516230580839,39
343,PLAYER_SLEEPBEFORE_START,1516230580839,40
343,PLAYER_SLEEPBEFORE_END,1516230580885,40
343,WS_SEND_START,1516230580885,40
343,WS_SEND_END,1516230580885,40
343,WS_RECV_START,1516230580885,41
343,WS_RECV_END,1516230581148,41
343,PLAYER_SLEEPBEFORE_START,1516230581148,42
343,PLAYER_SLEEPBEFORE_END,1516230599284,42
343,WS_SEND_START,1516230599284,42
343,WS_SEND_END,1516230599284,42
343,WS_RECV_START,1516230599284,43
343,WS_RECV_END,1516230599419,43
343,PLAYER_SLEEPBEFORE_START,1516230599419,44
343,PLAYER_SLEEPBEFORE_END,1516230599431,44
343,WS_SEND_START,1516230599431,44
343,WS_SEND_END,1516230599431,44
343,WS_RECV_START,1516230599431,45
343,WS_RECV_END,1516230599504,45
343,PLAYER_SLEEPBEFORE_START,1516230599504,46
343,PLAYER_SLEEPBEFORE_END,1516230600764,46
343,WS_SEND_START,1516230600764,46
343,WS_SEND_END,1516230600764,46
343,WS_RECV_START,1516230600764,47
343,WS_RECV_END,1516230600997,47
343,PLAYER_SLEEPBEFORE_START,1516230600997,48
343,PLAYER_SLEEPBEFORE_END,1516230602317,48
343,WS_SEND_START,1516230602317,48
343,WS_SEND_END,1516230602317,48
343,WS_RECV_START,1516230602317,49
343,WS_RECV_END,1516230602522,49
343,PLAYER_SLEEPBEFORE_START,1516230602522,50
343,PLAYER_SLEEPBEFORE_END,1516230602546,50
343,WS_SEND_START,1516230602546,50
343,WS_SEND_END,1516230602546,50
343,WS_RECV_START,1516230602546,51
343,WS_RECV_END,1516230603208,51
343,PLAYER_SLEEPBEFORE_START,1516230603208,52
343,PLAYER_SLEEPBEFORE_END,1516230625772,52
343,WS_SEND_START,1516230625772,52
343,WS_SEND_END,1516230625772,52
343,WS_RECV_START,1516230625772,53
343,WS_RECV_END,1516230626864,53
343,PLAYER_SLEEPBEFORE_START,1516230626864,54
343,PLAYER_SLEEPBEFORE_END,1516230648168,54
343,WS_SEND_START,1516230648168,54
343,WS_SEND_END,1516230648168,54
343,PLAYER_SLEEPBEFORE_START,1516230648168,55
343,PLAYER_SLEEPBEFORE_END,1516230650109,55
343,WS_SEND_START,1516230650109,55
343,WS_SEND_END,1516230650109,55
343,WS_RECV_START,1516230650109,56
343,WS_RECV_END,1516230650962,56
343,PLAYER_SLEEPBEFORE_START,1516230650962,57
343,PLAYER_SLEEPBEFORE_END,1516230673834,57
343,WS_SEND_START,1516230673834,57
343,WS_SEND_END,1516230673835,57
343,WS_RECV_START,1516230673835,58
343,WS_RECV_END,1516230674117,58
343,PLAYER_SLEEPBEFORE_START,1516230674117,59
343,PLAYER_SLEEPBEFORE_END,1516230676444,59
343,WS_SEND_START,1516230676444,59
343,WS_SEND_END,1516230676444,59
343,WS_RECV_START,1516230676444,60
343,WS_RECV_END,1516230676651,60
343,PLAYER_SLEEPBEFORE_START,1516230676651,61
343,PLAYER_SLEEPBEFORE_END,1516230680242,61
343,WS_SEND_START,1516230680242,61
343,WS_SEND_END,1516230680242,61
343,WS_RECV_START,1516230680242,62
343,WS_RECV_END,1516230681334,62
343,PLAYER_SLEEPBEFORE_START,1516230681334,63
343,PLAYER_SLEEPBEFORE_END,1516230700596,63
343,WS_SEND_START,1516230700596,63
343,WS_SEND_END,1516230700596,63
343,WS_RECV_START,1516230700596,64
343,WS_RECV_END,1516230700790,64
343,PLAYER_SLEEPBEFORE_START,1516230700790,65
343,PLAYER_SLEEPBEFORE_END,1516230727607,65
343,WS_SEND_START,1516230727607,65
343,WS_SEND_END,1516230727607,65
343,WS_RECV_START,1516230727607,66
343,WS_RECV_END,1516230728127,66
343,PLAYER_SLEEPBEFORE_START,1516230728127,67
343,PLAYER_SLEEPBEFORE_END,1516230729634,67
343,WS_SEND_START,1516230729634,67
343,WS_SEND_END,1516230729634,67
343,WS_RECV_START,1516230729634,68
343,WS_RECV_END,1516230729863,68
343,PLAYER_SLEEPBEFORE_START,1516230729863,69
343,PLAYER_SLEEPBEFORE_END,1516230751861,69
343,WS_SEND_START,1516230751861,69
343,WS_SEND_END,1516230751861,69
343,WS_RECV_START,1516230751861,70
343,WS_RECV_END,1516230752191,70
343,PLAYER_SLEEPBEFORE_START,1516230752191,71
343,PLAYER_SLEEPBEFORE_END,1516230776967,71
343,WS_SEND_START,1516230776967,71
343,WS_SEND_END,1516230776967,71
343,PLAYER_SLEEPBEFORE_START,1516230776967,72
343,PLAYER_SLEEPBEFORE_END,1516230779574,72
343,WS_SEND_START,1516230779574,72
343,WS_SEND_END,1516230779574,72
343,WS_RECV_START,1516230779574,73
343,WS_RECV_END,1516230779660,73
343,PLAYER_SLEEPBEFORE_START,1516230779660,74
343,PLAYER_SLEEPBEFORE_END,1516230779669,74
343,WS_SEND_START,1516230779669,74
343,WS_SEND_END,1516230779669,74
343,WS_RECV_START,1516230779669,75
343,WS_RECV_END,1516230779724,75
343,PLAYER_SLEEPBEFORE_START,1516230779724,76
343,PLAYER_SLEEPBEFORE_END,1516230781233,76
343,WS_SEND_START,1516230781233,76
343,WS_SEND_END,1516230781233,76
343,WS_RECV_START,1516230781233,77
343,WS_RECV_END,1516230782150,77
343,PLAYER_SLEEPBEFORE_START,1516230782150,78
343,PLAYER_SLEEPBEFORE_END,1516230783018,78
343,WS_SEND_START,1516230783018,78
343,WS_SEND_END,1516230783018,78
343,WS_RECV_START,1516230783018,79
343,WS_RECV_END,1516230784152,79
343,PLAYER_SLEEPBEFORE_START,1516230784152,80
343,PLAYER_SLEEPBEFORE_END,1516230791818,80
343,WS_SEND_START,1516230791818,80
343,WS_SEND_END,1516230791818,80
343,WS_RECV_START,1516230791818,81
343,WS_RECV_END,1516230792065,81
343,PLAYER_SLEEPBEFORE_START,1516230792065,82
343,PLAYER_SLEEPBEFORE_END,1516230793167,82
343,WS_SEND_START,1516230793167,82
343,WS_SEND_END,1516230793167,82
343,WS_RECV_START,1516230793167,83
343,WS_RECV_END,1516230794000,83
343,PLAYER_SLEEPBEFORE_START,1516230794000,84
343,PLAYER_SLEEPBEFORE_END,1516230794947,84
343,WS_SEND_START,1516230794947,84
343,WS_SEND_END,1516230794947,84
343,WS_RECV_START,1516230794947,85
343,WS_RECV_END,1516230795326,85
343,PLAYER_SLEEPBEFORE_START,1516230795326,86
343,PLAYER_SLEEPBEFORE_END,1516230799499,86
343,WS_SEND_START,1516230799499,86
343,WS_SEND_END,1516230799499,86
343,WS_RECV_START,1516230799499,87
343,WS_RECV_END,1516230799608,87
343,PLAYER_SLEEPBEFORE_START,1516230799608,88
343,PLAYER_SLEEPBEFORE_END,1516230799616,88
343,WS_SEND_START,1516230799616,88
343,WS_SEND_END,1516230799616,88
343,WS_RECV_START,1516230799616,89
343,WS_RECV_END,1516230799832,89
343,PLAYER_SLEEPBEFORE_START,1516230799832,90
343,PLAYER_SLEEPBEFORE_END,1516230827029,90
343,REQ_START,1516230827029,90
343,REQ_END,1516230827042,90
343,PLAYER_SLEEPBEFORE_START,1516230827042,91
343,PLAYER_SLEEPBEFORE_END,1516230834931,91
343,WS_SEND_START,1516230834932,91
343,WS_SEND_END,1516230834932,91
343,WS_RECV_START,1516230834932,92
343,WS_RECV_END,1516230835978,92
343,PLAYER_SLEEPBEFORE_START,1516230835978,93
343,PLAYER_SLEEPBEFORE_END,1516230835993,93
343,WS_SEND_START,1516230835993,93
343,WS_SEND_END,1516230835993,93
343,WS_RECV_START,1516230835993,94
343,WS_RECV_END,1516230836307,94
343,PLAYER_SLEEPBEFORE_START,1516230836307,95
343,PLAYER_SLEEPBEFORE_END,1516230859862,95
343,WS_SEND_START,1516230859862,95
343,WS_SEND_END,1516230859862,95
343,WS_RECV_START,1516230859862,96
343,WS_RECV_END,1516230861736,96
343,PLAYER_SLEEPBEFORE_START,1516230861736,97
343,PLAYER_SLEEPBEFORE_END,1516230884176,97
343,WS_SEND_START,1516230884176,97
343,WS_SEND_END,1516230884176,97
343,WS_RECV_START,1516230884176,98
343,WS_RECV_END,1516230886649,98
343,PLAYER_SLEEPBEFORE_START,1516230886649,99
343,PLAYER_SLEEPBEFORE_END,1516230886671,99
343,WS_SEND_START,1516230886671,99
343,WS_SEND_END,1516230886671,99
343,WS_RECV_START,1516230886671,100
343,WS_RECV_END,1516230888056,100
343,PLAYER_SLEEPBEFORE_START,1516230888056,101
343,PLAYER_SLEEPBEFORE_END,1516230911619,101
343,WS_SEND_START,1516230911619,101
343,WS_SEND_END,1516230911619,101
343,WS_RECV_START,1516230911619,102
343,WS_RECV_END,1516230914621,102
343,PLAYER_SLEEPBEFORE_START,1516230914621,103
343,PLAYER_SLEEPBEFORE_END,1516230938246,103
343,WS_SEND_START,1516230938246,103
343,WS_SEND_END,1516230938246,103
343,WS_RECV_START,1516230938246,104
343,WS_RECV_END,1516230941063,104
343,PLAYER_SLEEPBEFORE_START,1516230941063,105
343,PLAYER_SLEEPBEFORE_END,1516230966440,105
343,WS_SEND_START,1516230966440,105
343,WS_SEND_END,1516230966440,105
343,WS_RECV_START,1516230966440,106
343,WS_RECV_END,1516230968575,106
343,PLAYER_SLEEPBEFORE_START,1516230968575,107
343,PLAYER_SLEEPBEFORE_END,1516230991998,107
343,WS_SEND_START,1516230991998,107
343,WS_SEND_END,1516230991998,107
343,WS_RECV_START,1516230991999,108
343,WS_RECV_END,1516230994839,108
343,PLAYER_SLEEPBEFORE_START,1516230994839,109
343,PLAYER_SLEEPBEFORE_END,1516230994848,109
343,WS_SEND_START,1516230994848,109
343,WS_SEND_END,1516230994848,109
343,WS_RECV_START,1516230994848,110
343,WS_RECV_END,1516230995692,110
343,PLAYER_SLEEPBEFORE_START,1516230995692,111
343,PLAYER_SLEEPBEFORE_END,1516230996651,111
343,WS_SEND_START,1516230996651,111
343,WS_SEND_END,1516230996651,111
343,WS_RECV_START,1516230996651,112
343,WS_RECV_END,1516230997752,112
343,PLAYER_SLEEPBEFORE_START,1516230997752,113
343,PLAYER_SLEEPBEFORE_END,1516230998314,113
343,WS_SEND_START,1516230998314,113
343,WS_SEND_END,1516230998314,113
343,WS_RECV_START,1516230998314,114
343,WS_RECV_END,1516230999862,114
343,PLAYER_SLEEPBEFORE_START,1516230999862,115
343,PLAYER_SLEEPBEFORE_END,1516230999871,115
343,WS_SEND_START,1516230999871,115
343,WS_SEND_END,1516230999871,115
343,WS_RECV_START,1516230999871,116
343,WS_RECV_END,1516231001807,116
343,PLAYER_SLEEPBEFORE_START,1516231001807,117
343,PLAYER_SLEEPBEFORE_END,1516231022167,117
343,WS_SEND_START,1516231022167,117
343,WS_SEND_END,1516231022167,117
343,PLAYER_SLEEPBEFORE_START,1516231022167,118
343,PLAYER_SLEEPBEFORE_END,1516231025919,118
343,WS_SEND_START,1516231025919,118
343,WS_SEND_END,1516231025919,118
343,WS_RECV_START,1516231025919,119
343,WS_RECV_END,1516231027691,119
343,PLAYER_SLEEPBEFORE_START,1516231027691,120
343,PLAYER_SLEEPBEFORE_END,1516231028679,120
343,WS_SEND_START,1516231028679,120
343,WS_SEND_END,1516231028679,120
343,WS_RECV_START,1516231028679,121
343,WS_RECV_END,1516231033722,121
343,PLAYER_SLEEPBEFORE_START,1516231033722,122
343,PLAYER_SLEEPBEFORE_END,1516231034908,122
343,WS_SEND_START,1516231034908,122
343,WS_SEND_END,1516231034908,122
343,WS_RECV_START,1516231034908,123
343,WS_RECV_END,1516231038508,123
343,PLAYER_SLEEPBEFORE_START,1516231038508,124
343,PLAYER_SLEEPBEFORE_END,1516231062913,124
343,WS_SEND_START,1516231062913,124
343,WS_SEND_END,1516231062913,124
343,WS_RECV_START,1516231062913,125
343,WS_RECV_END,1516231064876,125
343,PLAYER_SLEEPBEFORE_START,1516231064876,126
343,PLAYER_SLEEPBEFORE_END,1516231085388,126
343,WS_SEND_START,1516231085388,126
343,WS_SEND_END,1516231085388,126
343,PLAYER_SLEEPBEFORE_START,1516231085388,127
343,PLAYER_SLEEPBEFORE_END,1516231088443,127
343,WS_SEND_START,1516231088443,127
343,WS_SEND_END,1516231088443,127
343,WS_RECV_START,1516231088443,128
343,WS_RECV_END,1516231090736,128
343,PLAYER_SLEEPBEFORE_START,1516231090736,129
343,PLAYER_SLEEPBEFORE_END,1516231090756,129
343,WS_SEND_START,1516231090756,129
343,WS_SEND_END,1516231090756,129
343,WS_RECV_START,1516231090756,130
343,WS_RECV_END,1516231092183,130
343,PLAYER_SLEEPBEFORE_START,1516231092183,131
343,PLAYER_SLEEPBEFORE_END,1516231113808,131
343,WS_SEND_START,1516231113808,131
343,WS_SEND_END,1516231113808,131
343,PLAYER_SLEEPBEFORE_START,1516231113808,132
343,PLAYER_SLEEPBEFORE_END,1516231116888,132
343,WS_SEND_START,1516231116888,132
343,WS_SEND_END,1516231116888,132
343,WS_RECV_START,1516231116888,133
343,WS_RECV_END,1516231117603,133
343,PLAYER_SLEEPBEFORE_START,1516231117603,134
343,PLAYER_SLEEPBEFORE_END,1516231138820,134
343,WS_SEND_START,1516231138820,134
343,WS_SEND_END,1516231138820,134
343,PLAYER_SLEEPBEFORE_START,1516231138820,135
343,PLAYER_SLEEPBEFORE_END,1516231142010,135
343,WS_SEND_START,1516231142010,135
343,WS_SEND_END,1516231142010,135
343,WS_RECV_START,1516231142010,136
343,WS_RECV_END,1516231142786,136
343,PLAYER_SLEEPBEFORE_START,1516231142786,137
343,PLAYER_SLEEPBEFORE_END,1516231142794,137
343,WS_SEND_START,1516231142794,137
343,WS_SEND_END,1516231142794,137
343,WS_RECV_START,1516231142794,138
343,WS_RECV_END,1516231143652,138
343,PLAYER_SLEEPBEFORE_START,1516231143652,139
343,PLAYER_SLEEPBEFORE_END,1516231144343,139
343,WS_SEND_START,1516231144343,139
343,WS_SEND_END,1516231144343,139
343,WS_RECV_START,1516231144343,140
343,WS_RECV_END,1516231144711,140
343,PLAYER_SLEEPBEFORE_START,1516231144711,141
343,PLAYER_SLEEPBEFORE_END,1516231145366,141
343,WS_SEND_START,1516231145366,141
343,WS_SEND_END,1516231145366,141
343,WS_RECV_START,1516231145366,142
343,WS_RECV_END,1516231145961,142
343,PLAYER_SLEEPBEFORE_START,1516231145961,143
343,PLAYER_SLEEPBEFORE_END,1516231146018,143
343,WS_SEND_START,1516231146018,143
343,WS_SEND_END,1516231146018,143
343,WS_RECV_START,1516231146018,144
343,WS_RECV_END,1516231147737,144
343,PLAYER_SLEEPBEFORE_START,1516231147737,145
343,PLAYER_SLEEPBEFORE_END,1516231163799,145
343,REQ_START,1516231163799,145
343,REQ_END,1516231163807,145
343,PLAYER_SLEEPBEFORE_START,1516231163807,146
343,PLAYER_SLEEPBEFORE_END,1516231172684,146
343,WS_SEND_START,1516231172684,146
343,WS_SEND_END,1516231172684,146
343,WS_RECV_START,1516231172684,147
343,WS_RECV_END,1516231174625,147
343,PLAYER_SLEEPBEFORE_START,1516231174625,148
343,PLAYER_SLEEPBEFORE_END,1516231196547,148
343,WS_SEND_START,1516231196547,148
343,WS_SEND_END,1516231196547,148
343,PLAYER_SLEEPBEFORE_START,1516231196547,149
343,PLAYER_SLEEPBEFORE_END,1516231198975,149
343,WS_SEND_START,1516231198975,149
343,WS_SEND_END,1516231198975,149
343,WS_RECV_START,1516231198975,150
343,WS_RECV_END,1516231200376,150
343,PLAYER_SLEEPBEFORE_START,1516231200376,151
343,PLAYER_SLEEPBEFORE_END,1516231200586,151
343,WS_SEND_START,1516231200586,151
343,WS_SEND_END,1516231200586,151
343,WS_RECV_START,1516231200586,152
343,WS_RECV_END,1516231201480,152
343,PLAYER_SLEEPBEFORE_START,1516231201480,153
343,PLAYER_SLEEPBEFORE_END,1516231225407,153
343,WS_SEND_START,1516231225407,153
343,WS_SEND_END,1516231225407,153
343,WS_RECV_START,1516231225407,154
343,WS_RECV_END,1516231228409,154
343,PLAYER_SLEEPBEFORE_START,1516231228409,155
343,PLAYER_SLEEPBEFORE_END,1516231250967,155
343,WS_SEND_START,1516231250967,155
343,WS_SEND_END,1516231250967,155
343,PLAYER_SLEEPBEFORE_START,1516231250967,156
343,PLAYER_SLEEPBEFORE_END,1516231254241,156
343,WS_SEND_START,1516231254241,156
343,WS_SEND_END,1516231254241,156
343,WS_RECV_START,1516231254241,157
343,WS_RECV_END,1516231257736,157
343,PLAYER_SLEEPBEFORE_START,1516231257736,158
343,PLAYER_SLEEPBEFORE_END,1516231257746,158
343,WS_SEND_START,1516231257746,158
343,WS_SEND_END,1516231257746,158
343,WS_RECV_START,1516231257746,159
343,WS_RECV_END,1516231261844,159
343,PLAYER_SLEEPBEFORE_START,1516231261844,160
343,PLAYER_SLEEPBEFORE_END,1516231262020,160
343,WS_SEND_START,1516231262020,160
343,WS_SEND_END,1516231262020,160
343,WS_RECV_START,1516231262020,161
343,WS_RECV_END,1516231265108,161
343,PLAYER_SLEEPBEFORE_START,1516231265108,162
343,PLAYER_SLEEPBEFORE_END,1516231265133,162
343,WS_SEND_START,1516231265133,162
343,WS_SEND_END,1516231265133,162
343,WS_RECV_START,1516231265133,163
343,WS_RECV_END,1516231268787,163
343,PLAYER_SLEEPBEFORE_START,1516231268787,164
343,PLAYER_SLEEPBEFORE_END,1516231289599,164
343,WS_SEND_START,1516231289599,164
343,WS_SEND_END,1516231289599,164
343,WS_RECV_START,1516231289599,165
343,WS_RECV_END,1516231296837,165
343,PLAYER_SLEEPBEFORE_START,1516231296837,166
343,PLAYER_SLEEPBEFORE_END,1516231319292,166
343,WS_SEND_START,1516231319292,166
343,WS_SEND_END,1516231319292,166
343,WS_RECV_START,1516231319292,167
343,WS_RECV_END,1516231325523,167
343,PLAYER_SLEEPBEFORE_START,1516231325523,168
343,PLAYER_SLEEPBEFORE_END,1516231352880,168
343,WS_SEND_START,1516231352880,168
343,WS_SEND_END,1516231352880,168
343,WS_RECV_START,1516231352880,169
343,WS_RECV_END,1516231358229,169
343,PLAYER_SLEEPBEFORE_START,1516231358229,170
343,PLAYER_SLEEPBEFORE_END,1516231358238,170
343,WS_SEND_START,1516231358238,170
343,WS_SEND_END,1516231358238,170
343,WS_RECV_START,1516231358238,171
343,WS_RECV_END,1516231362737,171
343,PLAYER_SLEEPBEFORE_START,1516231362737,172
343,PLAYER_SLEEPBEFORE_END,1516231363106,172
343,WS_SEND_START,1516231363106,172
343,WS_SEND_END,1516231363106,172
343,WS_RECV_START,1516231363106,173
343,WS_RECV_END,1516231365108,173
343,PLAYER_SLEEPBEFORE_START,1516231365108,174
343,PLAYER_SLEEPBEFORE_END,1516231365149,174
343,WS_SEND_START,1516231365149,174
343,WS_SEND_END,1516231365149,174
343,WS_RECV_START,1516231365149,175
343,WS_RECV_END,1516231367197,175
343,PLAYER_SLEEPBEFORE_START,1516231367197,176
343,PLAYER_SLEEPBEFORE_END,1516231388958,176
343,WS_SEND_START,1516231388958,176
343,WS_SEND_END,1516231388958,176
343,PLAYER_SLEEPBEFORE_START,1516231388958,177
343,PLAYER_SLEEPBEFORE_END,1516231391477,177
343,WS_SEND_START,1516231391477,177
343,WS_SEND_END,1516231391477,177
343,WS_RECV_START,1516231391477,178
343,WS_RECV_END,1516231392937,178
343,PLAYER_SLEEPBEFORE_START,1516231392937,179
343,PLAYER_SLEEPBEFORE_END,1516231415277,179
343,WS_SEND_START,1516231415277,179
343,WS_SEND_END,1516231415277,179
343,WS_RECV_START,1516231415277,180
343,WS_RECV_END,1516231418675,180
343,PLAYER_SLEEPBEFORE_START,1516231418675,181
343,PLAYER_SLEEPBEFORE_END,1516231419119,181
343,WS_SEND_START,1516231419119,181
343,WS_SEND_END,1516231419119,181
343,WS_RECV_START,1516231419119,182
343,WS_RECV_END,1516231423162,182
343,PLAYER_SLEEPBEFORE_START,1516231423162,183
343,PLAYER_SLEEPBEFORE_END,1516231423686,183
343,WS_SEND_START,1516231423686,183
343,WS_SEND_END,1516231423686,183
343,WS_RECV_START,1516231423686,184
343,WS_RECV_END,1516231424754,184
343,PLAYER_SLEEPBEFORE_START,1516231424754,185
343,PLAYER_SLEEPBEFORE_END,1516231425022,185
343,WS_SEND_START,1516231425022,185
343,WS_SEND_END,1516231425022,185
343,WS_RECV_START,1516231425022,186
343,WS_RECV_END,1516231425879,186
343,PLAYER_SLEEPBEFORE_START,1516231425879,187
343,PLAYER_SLEEPBEFORE_END,1516231448379,187
343,WS_SEND_START,1516231448379,187
343,WS_SEND_END,1516231448379,187
343,WS_RECV_START,1516231448379,188
343,WS_RECV_END,1516231449011,188
343,PLAYER_SLEEPBEFORE_START,1516231449011,189
343,PLAYER_SLEEPBEFORE_END,1516231455250,189
343,WS_SEND_START,1516231455250,189
343,WS_SEND_END,1516231455250,189
343,WS_RECV_START,1516231455250,190
343,WS_RECV_END,1516231455491,190
343,PLAYER_SLEEPBEFORE_START,1516231455491,191
343,PLAYER_SLEEPBEFORE_END,1516231457407,191
343,WS_SEND_START,1516231457407,191
343,WS_SEND_END,1516231457407,191
343,WS_RECV_START,1516231457407,192
343,WS_RECV_END,1516231457792,192
343,PLAYER_SLEEPBEFORE_START,1516231457792,193
343,PLAYER_SLEEPBEFORE_END,1516231457920,193
343,WS_SEND_START,1516231457920,193
343,WS_SEND_END,1516231457920,193
343,WS_RECV_START,1516231457920,194
343,WS_RECV_END,1516231458709,194
343,PLAYER_SLEEPBEFORE_START,1516231458709,195
343,PLAYER_SLEEPBEFORE_END,1516231460464,195
343,WS_SEND_START,1516231460464,195
343,WS_SEND_END,1516231460464,195
343,WS_RECV_START,1516231460464,196
343,WS_RECV_END,1516231460650,196
343,PLAYER_SLEEPBEFORE_START,1516231460650,197
343,PLAYER_SLEEPBEFORE_END,1516231462454,197
343,WS_SEND_START,1516231462454,197
343,WS_SEND_END,1516231462454,197
343,WS_RECV_START,1516231462454,198
343,WS_RECV_END,1516231462667,198
343,PLAYER_SLEEPBEFORE_START,1516231462667,199
343,PLAYER_SLEEPBEFORE_END,1516231474521,199
343,WS_SEND_START,1516231474521,199
343,WS_SEND_END,1516231474521,199
343,PLAYER_SLEEPBEFORE_START,1516231474521,200
343,PLAYER_SLEEPBEFORE_END,1516231478609,200
343,WS_SEND_START,1516231478609,200
343,WS_SEND_END,1516231478609,200
343,WS_RECV_START,1516231478609,201
343,WS_RECV_END,1516231478771,201
343,PLAYER_SLEEPBEFORE_START,1516231478771,202
343,PLAYER_SLEEPBEFORE_END,1516231478785,202
343,WS_SEND_START,1516231478785,202
343,WS_SEND_END,1516231478785,202
343,WS_RECV_START,1516231478785,203
343,WS_RECV_END,1516231478944,203
343,PLAYER_SLEEPBEFORE_START,1516231478944,204
343,PLAYER_SLEEPBEFORE_END,1516231498593,204
343,WS_SEND_START,1516231498593,204
343,WS_SEND_END,1516231498593,204
343,PLAYER_SLEEPBEFORE_START,1516231498593,205
343,PLAYER_SLEEPBEFORE_END,1516231502491,205
343,WS_SEND_START,1516231502491,205
343,WS_SEND_END,1516231502491,205
343,WS_RECV_START,1516231502491,206
343,WS_RECV_END,1516231502666,206
343,PLAYER_SLEEPBEFORE_START,1516231502666,207
343,PLAYER_SLEEPBEFORE_END,1516231519597,207
343,REQ_START,1516231519597,207
343,REQ_END,1516231519605,207
343,PLAYER_SLEEPBEFORE_START,1516231519605,208
343,PLAYER_SLEEPBEFORE_END,1516231526457,208
343,WS_CLOSE_START,1516231526457,208
343,WS_CLOSE_END,1516231526457,208
343,PLAYER_DONE,1516231526457
