# --sessions 540 --app-url=http://shinyloadtest.rstudioservices.com/cran_explorer --output-dir test540-2 --overwrite-output --log-level warn --start-interval 500 15min.log
thread_id,event,timestamp,input_line_number,comment
467,PLAYER_SESSION_CREATE,1516230348085
467,PLAYER_START_INTERVAL_START,1516230348085
467,PLAYER_START_INTERVAL_END,1516230581585
467,REQ_HOME_START,1516230581585,2
467,REQ_HOME_END,1516230582435,2
467,REQ_START,1516230582435,3
467,REQ_END,1516230582853,3
467,REQ_START,1516230582853,4
467,REQ_END,1516230583429,4
467,REQ_START,1516230583429,5
467,REQ_END,1516230583471,5
467,REQ_START,1516230583471,6
467,REQ_END,1516230583716,6
467,REQ_START,1516230583716,7
467,REQ_END,1516230583755,7
467,REQ_START,1516230583755,8
467,REQ_END,1516230583792,8
467,REQ_START,1516230583792,9
467,REQ_END,1516230583835,9
467,REQ_START,1516230583835,10
467,REQ_END,1516230583842,10
467,REQ_START,1516230583842,11
467,REQ_END,1516230583884,11
467,REQ_START,1516230583884,12
467,REQ_END,1516230583894,12
467,REQ_START,1516230583894,13
467,REQ_END,1516230584564,13
467,REQ_START,1516230584564,14
467,REQ_END,1516230584582,14
467,REQ_START,1516230584582,15
467,REQ_END,1516230585545,15
467,REQ_TOK_START,1516230585545,16
467,REQ_TOK_END,1516230585577,16
467,REQ_SINF_START,1516230585577,17
467,REQ_SINF_END,1516230585585,17
467,WS_OPEN_START,1516230585585,18
467,WS_OPEN_END,1516230585592,18
467,REQ_START,1516230585592,19
467,REQ_END,1516230585622,19
467,WS_RECV_START,1516230585622,20
467,WS_RECV_END,1516230585622,20
467,PLAYER_SLEEPBEFORE_START,1516230585622,21
467,PLAYER_SLEEPBEFORE_END,1516230585627,21
467,WS_SEND_START,1516230585627,21
467,WS_SEND_END,1516230585627,21
467,PLAYER_SLEEPBEFORE_START,1516230585627,22
467,PLAYER_SLEEPBEFORE_END,1516230585628,22
467,WS_SEND_START,1516230585628,22
467,WS_SEND_END,1516230585628,22
467,WS_RECV_INIT_START,1516230585628,23
467,WS_RECV_INIT_END,1516230585787,23
467,WS_RECV_START,1516230585787,24
467,WS_RECV_END,1516230585896,24
467,PLAYER_SLEEPBEFORE_START,1516230585896,25
467,PLAYER_SLEEPBEFORE_END,1516230585903,25
467,REQ_START,1516230585903,25
467,REQ_END,1516230585993,25
467,PLAYER_SLEEPBEFORE_START,1516230585993,26
467,PLAYER_SLEEPBEFORE_END,1516230585994,26
467,REQ_START,1516230585994,26
467,REQ_END,1516230586054,26
467,PLAYER_SLEEPBEFORE_START,1516230586054,27
467,PLAYER_SLEEPBEFORE_END,1516230586057,27
467,REQ_START,1516230586057,27
467,REQ_END,1516230586114,27
467,PLAYER_SLEEPBEFORE_START,1516230586114,28
467,PLAYER_SLEEPBEFORE_END,1516230586399,28
467,REQ_START,1516230586399,28
467,REQ_END,1516230586548,28
467,PLAYER_SLEEPBEFORE_START,1516230586548,29
467,PLAYER_SLEEPBEFORE_END,1516230586723,29
467,WS_SEND_START,1516230586723,29
467,WS_SEND_END,1516230586723,29
467,WS_RECV_START,1516230586723,30
467,WS_RECV_END,1516230586956,30
467,PLAYER_SLEEPBEFORE_START,1516230586956,31
467,PLAYER_SLEEPBEFORE_END,1516230586968,31
467,REQ_START,1516230586968,31
467,REQ_END,1516230587373,31
467,PLAYER_SLEEPBEFORE_START,1516230587373,32
467,PLAYER_SLEEPBEFORE_END,1516230615518,32
467,WS_SEND_START,1516230615518,32
467,WS_SEND_END,1516230615518,32
467,WS_RECV_START,1516230615518,33
467,WS_RECV_END,1516230617108,33
467,PLAYER_SLEEPBEFORE_START,1516230617108,34
467,PLAYER_SLEEPBEFORE_END,1516230643019,34
467,WS_SEND_START,1516230643019,34
467,WS_SEND_END,1516230643019,34
467,WS_RECV_START,1516230643019,35
467,WS_RECV_END,1516230645337,35
467,PLAYER_SLEEPBEFORE_START,1516230645337,36
467,PLAYER_SLEEPBEFORE_END,1516230645346,36
467,WS_SEND_START,1516230645346,36
467,WS_SEND_END,1516230645346,36
467,WS_RECV_START,1516230645346,37
467,WS_RECV_END,1516230646424,37
467,PLAYER_SLEEPBEFORE_START,1516230646424,38
467,PLAYER_SLEEPBEFORE_END,1516230649619,38
467,WS_SEND_START,1516230649619,38
467,WS_SEND_END,1516230649619,38
467,WS_RECV_START,1516230649619,39
467,WS_RECV_END,1516230652075,39
467,PLAYER_SLEEPBEFORE_START,1516230652075,40
467,PLAYER_SLEEPBEFORE_END,1516230652122,40
467,WS_SEND_START,1516230652122,40
467,WS_SEND_END,1516230652122,40
467,WS_RECV_START,1516230652122,41
467,WS_RECV_END,1516230653445,41
467,PLAYER_SLEEPBEFORE_START,1516230653445,42
467,PLAYER_SLEEPBEFORE_END,1516230671580,42
467,WS_SEND_START,1516230671580,42
467,WS_SEND_END,1516230671580,42
467,WS_RECV_START,1516230671580,43
467,WS_RECV_END,1516230673434,43
467,PLAYER_SLEEPBEFORE_START,1516230673435,44
467,PLAYER_SLEEPBEFORE_END,1516230673447,44
467,WS_SEND_START,1516230673447,44
467,WS_SEND_END,1516230673447,44
467,WS_RECV_START,1516230673447,45
467,WS_RECV_END,1516230674888,45
467,PLAYER_SLEEPBEFORE_START,1516230674888,46
467,PLAYER_SLEEPBEFORE_END,1516230676148,46
467,WS_SEND_START,1516230676148,46
467,WS_SEND_END,1516230676148,46
467,WS_RECV_START,1516230676148,47
467,WS_RECV_END,1516230676819,47
467,PLAYER_SLEEPBEFORE_START,1516230676819,48
467,PLAYER_SLEEPBEFORE_END,1516230678139,48
467,WS_SEND_START,1516230678139,48
467,WS_SEND_END,1516230678139,48
467,WS_RECV_START,1516230678139,49
467,WS_RECV_END,1516230679727,49
467,PLAYER_SLEEPBEFORE_START,1516230679727,50
467,PLAYER_SLEEPBEFORE_END,1516230679751,50
467,WS_SEND_START,1516230679751,50
467,WS_SEND_END,1516230679751,50
467,WS_RECV_START,1516230679751,51
467,WS_RECV_END,1516230682566,51
467,PLAYER_SLEEPBEFORE_START,1516230682566,52
467,PLAYER_SLEEPBEFORE_END,1516230705130,52
467,WS_SEND_START,1516230705130,52
467,WS_SEND_END,1516230705130,52
467,WS_RECV_START,1516230705130,53
467,WS_RECV_END,1516230706101,53
467,PLAYER_SLEEPBEFORE_START,1516230706101,54
467,PLAYER_SLEEPBEFORE_END,1516230727404,54
467,WS_SEND_START,1516230727404,54
467,WS_SEND_END,1516230727404,54
467,PLAYER_SLEEPBEFORE_START,1516230727404,55
467,PLAYER_SLEEPBEFORE_END,1516230729345,55
467,WS_SEND_START,1516230729345,55
467,WS_SEND_END,1516230729345,55
467,WS_RECV_START,1516230729345,56
467,WS_RECV_END,1516230730741,56
467,PLAYER_SLEEPBEFORE_START,1516230730741,57
467,PLAYER_SLEEPBEFORE_END,1516230753613,57
467,WS_SEND_START,1516230753613,57
467,WS_SEND_END,1516230753613,57
467,WS_RECV_START,1516230753613,58
467,WS_RECV_END,1516230756603,58
467,PLAYER_SLEEPBEFORE_START,1516230756603,59
467,PLAYER_SLEEPBEFORE_END,1516230758930,59
467,WS_SEND_START,1516230758930,59
467,WS_SEND_END,1516230758930,59
467,WS_RECV_START,1516230758930,60
467,WS_RECV_END,1516230761611,60
467,PLAYER_SLEEPBEFORE_START,1516230761611,61
467,PLAYER_SLEEPBEFORE_END,1516230765202,61
467,WS_SEND_START,1516230765202,61
467,WS_SEND_END,1516230765202,61
467,WS_RECV_START,1516230765202,62
467,WS_RECV_END,1516230769664,62
467,PLAYER_SLEEPBEFORE_START,1516230769664,63
467,PLAYER_SLEEPBEFORE_END,1516230788926,63
467,WS_SEND_START,1516230788926,63
467,WS_SEND_END,1516230788926,63
467,WS_RECV_START,1516230788926,64
467,WS_RECV_END,1516230790490,64
467,PLAYER_SLEEPBEFORE_START,1516230790490,65
467,PLAYER_SLEEPBEFORE_END,1516230817307,65
467,WS_SEND_START,1516230817307,65
467,WS_SEND_END,1516230817307,65
467,WS_RECV_START,1516230817307,66
467,WS_RECV_END,1516230818402,66
467,PLAYER_SLEEPBEFORE_START,1516230818402,67
467,PLAYER_SLEEPBEFORE_END,1516230819910,67
467,WS_SEND_START,1516230819910,67
467,WS_SEND_END,1516230819910,67
467,WS_RECV_START,1516230819910,68
467,WS_RECV_END,1516230820573,68
467,PLAYER_SLEEPBEFORE_START,1516230820573,69
467,PLAYER_SLEEPBEFORE_END,1516230842571,69
467,WS_SEND_START,1516230842571,69
467,WS_SEND_END,1516230842571,69
467,WS_RECV_START,1516230842571,70
467,WS_RECV_END,1516230845265,70
467,PLAYER_SLEEPBEFORE_START,1516230845265,71
467,PLAYER_SLEEPBEFORE_END,1516230870041,71
467,WS_SEND_START,1516230870041,71
467,WS_SEND_END,1516230870041,71
467,PLAYER_SLEEPBEFORE_START,1516230870041,72
467,PLAYER_SLEEPBEFORE_END,1516230872648,72
467,WS_SEND_START,1516230872648,72
467,WS_SEND_END,1516230872648,72
467,WS_RECV_START,1516230872648,73
467,WS_RECV_END,1516230873805,73
467,PLAYER_SLEEPBEFORE_START,1516230873805,74
467,PLAYER_SLEEPBEFORE_END,1516230873814,74
467,WS_SEND_START,1516230873814,74
467,WS_SEND_END,1516230873814,74
467,WS_RECV_START,1516230873814,75
467,WS_RECV_END,1516230876124,75
467,PLAYER_SLEEPBEFORE_START,1516230876124,76
467,PLAYER_SLEEPBEFORE_END,1516230877630,76
467,WS_SEND_START,1516230877630,76
467,WS_SEND_END,1516230877630,76
467,WS_RECV_START,1516230877630,77
467,WS_RECV_END,1516230878768,77
467,PLAYER_SLEEPBEFORE_START,1516230878768,78
467,PLAYER_SLEEPBEFORE_END,1516230879637,78
467,WS_SEND_START,1516230879637,78
467,WS_SEND_END,1516230879637,78
467,WS_RECV_START,1516230879637,79
467,WS_RECV_END,1516230881792,79
467,PLAYER_SLEEPBEFORE_START,1516230881792,80
467,PLAYER_SLEEPBEFORE_END,1516230889458,80
467,WS_SEND_START,1516230889458,80
467,WS_SEND_END,1516230889458,80
467,WS_RECV_START,1516230889458,81
467,WS_RECV_END,1516230895439,81
467,PLAYER_SLEEPBEFORE_START,1516230895439,82
467,PLAYER_SLEEPBEFORE_END,1516230896541,82
467,WS_SEND_START,1516230896541,82
467,WS_SEND_END,1516230896541,82
467,WS_RECV_START,1516230896541,83
467,WS_RECV_END,1516230902630,83
467,PLAYER_SLEEPBEFORE_START,1516230902630,84
467,PLAYER_SLEEPBEFORE_END,1516230903577,84
467,WS_SEND_START,1516230903577,84
467,WS_SEND_END,1516230903577,84
467,WS_RECV_START,1516230903577,85
467,WS_RECV_END,1516230905102,85
467,PLAYER_SLEEPBEFORE_START,1516230905102,86
467,PLAYER_SLEEPBEFORE_END,1516230909274,86
467,WS_SEND_START,1516230909274,86
467,WS_SEND_END,1516230909274,86
467,WS_RECV_START,1516230909274,87
467,WS_RECV_END,1516230913987,87
467,PLAYER_SLEEPBEFORE_START,1516230913987,88
467,PLAYER_SLEEPBEFORE_END,1516230913995,88
467,WS_SEND_START,1516230913995,88
467,WS_SEND_END,1516230913995,88
467,WS_RECV_START,1516230913995,89
467,WS_RECV_END,1516230915490,89
467,PLAYER_SLEEPBEFORE_START,1516230915490,90
467,PLAYER_SLEEPBEFORE_END,1516230942687,90
467,REQ_START,1516230942687,90
467,REQ_END,1516230942695,90
467,PLAYER_SLEEPBEFORE_START,1516230942695,91
467,PLAYER_SLEEPBEFORE_END,1516230950584,91
467,WS_SEND_START,1516230950584,91
467,WS_SEND_END,1516230950584,91
467,WS_RECV_START,1516230950584,92
467,WS_RECV_END,1516230956282,92
467,PLAYER_SLEEPBEFORE_START,1516230956282,93
467,PLAYER_SLEEPBEFORE_END,1516230956297,93
467,WS_SEND_START,1516230956297,93
467,WS_SEND_END,1516230956297,93
467,WS_RECV_START,1516230956297,94
467,WS_RECV_END,1516230959558,94
467,PLAYER_SLEEPBEFORE_START,1516230959558,95
467,PLAYER_SLEEPBEFORE_END,1516230983114,95
467,WS_SEND_START,1516230983114,95
467,WS_SEND_END,1516230983114,95
467,WS_RECV_START,1516230983114,96
467,WS_RECV_END,1516230987067,96
467,PLAYER_SLEEPBEFORE_START,1516230987067,97
467,PLAYER_SLEEPBEFORE_END,1516231009507,97
467,WS_SEND_START,1516231009507,97
467,WS_SEND_END,1516231009507,97
467,WS_RECV_START,1516231009507,98
467,WS_RECV_END,1516231016800,98
467,PLAYER_SLEEPBEFORE_START,1516231016800,99
467,PLAYER_SLEEPBEFORE_END,1516231016822,99
467,WS_SEND_START,1516231016822,99
467,WS_SEND_END,1516231016822,99
467,WS_RECV_START,1516231016822,100
467,WS_RECV_END,1516231021188,100
467,PLAYER_SLEEPBEFORE_START,1516231021188,101
467,PLAYER_SLEEPBEFORE_END,1516231044748,101
467,WS_SEND_START,1516231044748,101
467,WS_SEND_END,1516231044748,101
467,WS_RECV_START,1516231044748,102
467,WS_RECV_END,1516231050358,102
467,PLAYER_SLEEPBEFORE_START,1516231050358,103
467,PLAYER_SLEEPBEFORE_END,1516231073983,103
467,WS_SEND_START,1516231073983,103
467,WS_SEND_END,1516231073983,103
467,WS_RECV_START,1516231073983,104
467,WS_RECV_END,1516231079053,104
467,PLAYER_SLEEPBEFORE_START,1516231079053,105
467,PLAYER_SLEEPBEFORE_END,1516231104430,105
467,WS_SEND_START,1516231104430,105
467,WS_SEND_END,1516231104430,105
467,WS_RECV_START,1516231104430,106
467,WS_RECV_END,1516231109083,106
467,PLAYER_SLEEPBEFORE_START,1516231109083,107
467,PLAYER_SLEEPBEFORE_END,1516231132506,107
467,WS_SEND_START,1516231132506,107
467,WS_SEND_END,1516231132506,107
467,WS_RECV_START,1516231132506,108
467,WS_RECV_END,1516231137900,108
467,PLAYER_SLEEPBEFORE_START,1516231137900,109
467,PLAYER_SLEEPBEFORE_END,1516231137909,109
467,WS_SEND_START,1516231137909,109
467,WS_SEND_END,1516231137909,109
467,WS_RECV_START,1516231137909,110
467,WS_RECV_END,1516231140060,110
467,PLAYER_SLEEPBEFORE_START,1516231140060,111
467,PLAYER_SLEEPBEFORE_END,1516231141019,111
467,WS_SEND_START,1516231141019,111
467,WS_SEND_END,1516231141019,111
467,WS_RECV_START,1516231141019,112
467,WS_RECV_END,1516231144745,112
467,PLAYER_SLEEPBEFORE_START,1516231144745,113
467,PLAYER_SLEEPBEFORE_END,1516231145307,113
467,WS_SEND_START,1516231145307,113
467,WS_SEND_END,1516231145307,113
467,WS_RECV_START,1516231145307,114
467,WS_RECV_END,1516231150413,114
467,PLAYER_SLEEPBEFORE_START,1516231150413,115
467,PLAYER_SLEEPBEFORE_END,1516231150422,115
467,WS_SEND_START,1516231150422,115
467,WS_SEND_END,1516231150422,115
467,WS_RECV_START,1516231150422,116
467,WS_RECV_END,1516231155709,116
467,PLAYER_SLEEPBEFORE_START,1516231155709,117
467,PLAYER_SLEEPBEFORE_END,1516231176069,117
467,WS_SEND_START,1516231176069,117
467,WS_SEND_END,1516231176070,117
467,PLAYER_SLEEPBEFORE_START,1516231176070,118
467,PLAYER_SLEEPBEFORE_END,1516231179822,118
467,WS_SEND_START,1516231179822,118
467,WS_SEND_END,1516231179822,118
467,WS_RECV_START,1516231179822,119
467,WS_RECV_END,1516231181649,119
467,PLAYER_SLEEPBEFORE_START,1516231181649,120
467,PLAYER_SLEEPBEFORE_END,1516231182637,120
467,WS_SEND_START,1516231182637,120
467,WS_SEND_END,1516231182637,120
467,WS_RECV_START,1516231182637,121
467,WS_RECV_END,1516231189852,121
467,PLAYER_SLEEPBEFORE_START,1516231189852,122
467,PLAYER_SLEEPBEFORE_END,1516231191037,122
467,WS_SEND_START,1516231191037,122
467,WS_SEND_END,1516231191037,122
467,WS_RECV_START,1516231191037,123
467,WS_RECV_END,1516231193307,123
467,PLAYER_SLEEPBEFORE_START,1516231193307,124
467,PLAYER_SLEEPBEFORE_END,1516231217712,124
467,WS_SEND_START,1516231217712,124
467,WS_SEND_END,1516231217712,124
467,WS_RECV_START,1516231217712,125
467,WS_RECV_END,1516231221273,125
467,PLAYER_SLEEPBEFORE_START,1516231221273,126
467,PLAYER_SLEEPBEFORE_END,1516231241785,126
467,WS_SEND_START,1516231241785,126
467,WS_SEND_END,1516231241785,126
467,PLAYER_SLEEPBEFORE_START,1516231241785,127
467,PLAYER_SLEEPBEFORE_END,1516231244839,127
467,WS_SEND_START,1516231244839,127
467,WS_SEND_END,1516231244839,127
467,WS_RECV_START,1516231244839,128
467,WS_RECV_END,1516231247704,128
467,PLAYER_SLEEPBEFORE_START,1516231247704,129
467,PLAYER_SLEEPBEFORE_END,1516231247725,129
467,WS_SEND_START,1516231247725,129
467,WS_SEND_END,1516231247725,129
467,WS_RECV_START,1516231247725,130
467,WS_RECV_END,1516231250743,130
467,PLAYER_SLEEPBEFORE_START,1516231250743,131
467,PLAYER_SLEEPBEFORE_END,1516231272367,131
467,WS_SEND_START,1516231272367,131
467,WS_SEND_END,1516231272367,131
467,PLAYER_SLEEPBEFORE_START,1516231272367,132
467,PLAYER_SLEEPBEFORE_END,1516231275447,132
467,WS_SEND_START,1516231275447,132
467,WS_SEND_END,1516231275447,132
467,WS_RECV_START,1516231275447,133
467,WS_RECV_END,1516231277281,133
467,PLAYER_SLEEPBEFORE_START,1516231277281,134
467,PLAYER_SLEEPBEFORE_END,1516231298499,134
467,WS_SEND_START,1516231298499,134
467,WS_SEND_END,1516231298499,134
467,PLAYER_SLEEPBEFORE_START,1516231298499,135
467,PLAYER_SLEEPBEFORE_END,1516231301689,135
467,WS_SEND_START,1516231301689,135
467,WS_SEND_END,1516231301689,135
467,WS_RECV_START,1516231301689,136
467,WS_RECV_END,1516231303993,136
467,PLAYER_SLEEPBEFORE_START,1516231303993,137
467,PLAYER_SLEEPBEFORE_END,1516231304000,137
467,WS_SEND_START,1516231304000,137
467,WS_SEND_END,1516231304000,137
467,WS_RECV_START,1516231304000,138
467,WS_RECV_END,1516231308673,138
467,PLAYER_SLEEPBEFORE_START,1516231308673,139
467,PLAYER_SLEEPBEFORE_END,1516231309363,139
467,WS_SEND_START,1516231309363,139
467,WS_SEND_END,1516231309363,139
467,WS_RECV_START,1516231309363,140
467,WS_RECV_END,1516231312579,140
467,PLAYER_SLEEPBEFORE_START,1516231312579,141
467,PLAYER_SLEEPBEFORE_END,1516231313234,141
467,WS_SEND_START,1516231313234,141
467,WS_SEND_END,1516231313234,141
467,WS_RECV_START,1516231313234,142
467,WS_RECV_END,1516231317230,142
467,PLAYER_SLEEPBEFORE_START,1516231317230,143
467,PLAYER_SLEEPBEFORE_END,1516231317287,143
467,WS_SEND_START,1516231317287,143
467,WS_SEND_END,1516231317287,143
467,WS_RECV_START,1516231317287,144
467,WS_RECV_END,1516231322038,144
467,PLAYER_SLEEPBEFORE_START,1516231322038,145
467,PLAYER_SLEEPBEFORE_END,1516231338100,145
467,REQ_START,1516231338100,145
467,REQ_END,1516231338137,145
467,PLAYER_SLEEPBEFORE_START,1516231338137,146
467,PLAYER_SLEEPBEFORE_END,1516231347014,146
467,WS_SEND_START,1516231347014,146
467,WS_SEND_END,1516231347014,146
467,WS_RECV_START,1516231347014,147
467,WS_RECV_END,1516231354999,147
467,PLAYER_SLEEPBEFORE_START,1516231354999,148
467,PLAYER_SLEEPBEFORE_END,1516231376921,148
467,WS_SEND_START,1516231376921,148
467,WS_SEND_END,1516231376921,148
467,PLAYER_SLEEPBEFORE_START,1516231376921,149
467,PLAYER_SLEEPBEFORE_END,1516231379349,149
467,WS_SEND_START,1516231379349,149
467,WS_SEND_END,1516231379349,149
467,WS_RECV_START,1516231379349,150
467,WS_RECV_END,1516231385089,150
467,PLAYER_SLEEPBEFORE_START,1516231385089,151
467,PLAYER_SLEEPBEFORE_END,1516231385299,151
467,WS_SEND_START,1516231385299,151
467,WS_SEND_END,1516231385299,151
467,WS_RECV_START,1516231385299,152
467,WS_RECV_END,1516231390242,152
467,PLAYER_SLEEPBEFORE_START,1516231390242,153
467,PLAYER_SLEEPBEFORE_END,1516231414169,153
467,WS_SEND_START,1516231414169,153
467,WS_SEND_END,1516231414169,153
467,WS_RECV_START,1516231414169,154
467,WS_RECV_END,1516231422746,154
467,PLAYER_SLEEPBEFORE_START,1516231422746,155
467,PLAYER_SLEEPBEFORE_END,1516231445304,155
467,WS_SEND_START,1516231445304,155
467,WS_SEND_END,1516231445304,155
467,PLAYER_SLEEPBEFORE_START,1516231445304,156
467,PLAYER_SLEEPBEFORE_END,1516231448579,156
467,WS_SEND_START,1516231448579,156
467,WS_SEND_END,1516231448579,156
467,WS_RECV_START,1516231448579,157
467,WS_RECV_END,1516231455102,157
467,PLAYER_SLEEPBEFORE_START,1516231455102,158
467,PLAYER_SLEEPBEFORE_END,1516231455113,158
467,WS_SEND_START,1516231455113,158
467,WS_SEND_END,1516231455113,158
467,WS_RECV_START,1516231455113,159
467,WS_RECV_END,1516231460461,159
467,PLAYER_SLEEPBEFORE_START,1516231460461,160
467,PLAYER_SLEEPBEFORE_END,1516231460636,160
467,WS_SEND_START,1516231460636,160
467,WS_SEND_END,1516231460636,160
467,WS_RECV_START,1516231460636,161
467,WS_RECV_END,1516231464752,161
467,PLAYER_SLEEPBEFORE_START,1516231464752,162
467,PLAYER_SLEEPBEFORE_END,1516231464777,162
467,WS_SEND_START,1516231464777,162
467,WS_SEND_END,1516231464777,162
467,WS_RECV_START,1516231464777,163
467,WS_RECV_END,1516231470082,163
467,PLAYER_SLEEPBEFORE_START,1516231470082,164
467,PLAYER_SLEEPBEFORE_END,1516231490894,164
467,WS_SEND_START,1516231490894,164
467,WS_SEND_END,1516231490894,164
467,WS_RECV_START,1516231490894,165
467,WS_RECV_END,1516231495946,165
467,PLAYER_SLEEPBEFORE_START,1516231495946,166
467,PLAYER_SLEEPBEFORE_END,1516231518401,166
467,WS_SEND_START,1516231518401,166
467,WS_SEND_END,1516231518401,166
467,WS_RECV_START,1516231518401,167
467,WS_RECV_END,1516231519824,167
467,PLAYER_SLEEPBEFORE_START,1516231519824,168
467,PLAYER_SLEEPBEFORE_END,1516231547181,168
467,WS_SEND_START,1516231547181,168
467,WS_SEND_END,1516231547181,168
467,WS_RECV_START,1516231547181,169
467,WS_RECV_END,1516231547737,169
467,PLAYER_SLEEPBEFORE_START,1516231547737,170
467,PLAYER_SLEEPBEFORE_END,1516231547746,170
467,WS_SEND_START,1516231547747,170
467,WS_SEND_END,1516231547747,170
467,WS_RECV_START,1516231547747,171
467,WS_RECV_END,1516231547805,171
467,PLAYER_SLEEPBEFORE_START,1516231547805,172
467,PLAYER_SLEEPBEFORE_END,1516231548174,172
467,WS_SEND_START,1516231548174,172
467,WS_SEND_END,1516231548174,172
467,WS_RECV_START,1516231548174,173
467,WS_RECV_END,1516231548551,173
467,PLAYER_SLEEPBEFORE_START,1516231548551,174
467,PLAYER_SLEEPBEFORE_END,1516231548592,174
467,WS_SEND_START,1516231548592,174
467,WS_SEND_END,1516231548592,174
467,WS_RECV_START,1516231548592,175
467,WS_RECV_END,1516231549147,175
467,PLAYER_SLEEPBEFORE_START,1516231549147,176
467,PLAYER_SLEEPBEFORE_END,1516231570909,176
467,WS_SEND_START,1516231570909,176
467,WS_SEND_END,1516231570909,176
467,PLAYER_SLEEPBEFORE_START,1516231570909,177
467,PLAYER_SLEEPBEFORE_END,1516231573427,177
467,WS_SEND_START,1516231573427,177
467,WS_SEND_END,1516231573427,177
467,WS_RECV_START,1516231573427,178
467,WS_RECV_END,1516231573568,178
467,PLAYER_SLEEPBEFORE_START,1516231573568,179
467,PLAYER_SLEEPBEFORE_END,1516231595909,179
467,WS_SEND_START,1516231595909,179
467,WS_SEND_END,1516231595909,179
467,WS_RECV_START,1516231595909,180
467,WS_RECV_END,1516231596046,180
467,PLAYER_SLEEPBEFORE_START,1516231596046,181
467,PLAYER_SLEEPBEFORE_END,1516231596490,181
467,WS_SEND_START,1516231596490,181
467,WS_SEND_END,1516231596490,181
467,WS_RECV_START,1516231596490,182
467,WS_RECV_END,1516231596639,182
467,PLAYER_SLEEPBEFORE_START,1516231596639,183
467,PLAYER_SLEEPBEFORE_END,1516231597162,183
467,WS_SEND_START,1516231597162,183
467,WS_SEND_END,1516231597162,183
467,WS_RECV_START,1516231597162,184
467,WS_RECV_END,1516231597323,184
467,PLAYER_SLEEPBEFORE_START,1516231597323,185
467,PLAYER_SLEEPBEFORE_END,1516231597591,185
467,WS_SEND_START,1516231597591,185
467,WS_SEND_END,1516231597591,185
467,WS_RECV_START,1516231597591,186
467,WS_RECV_END,1516231597787,186
467,PLAYER_SLEEPBEFORE_START,1516231597787,187
467,PLAYER_SLEEPBEFORE_END,1516231620287,187
467,WS_SEND_START,1516231620288,187
467,WS_SEND_END,1516231620288,187
467,WS_RECV_START,1516231620288,188
467,WS_RECV_END,1516231620335,188
467,PLAYER_SLEEPBEFORE_START,1516231620335,189
467,PLAYER_SLEEPBEFORE_END,1516231626574,189
467,WS_SEND_START,1516231626574,189
467,WS_SEND_END,1516231626574,189
467,WS_RECV_START,1516231626575,190
467,WS_RECV_END,1516231626717,190
467,PLAYER_SLEEPBEFORE_START,1516231626717,191
467,PLAYER_SLEEPBEFORE_END,1516231628632,191
467,WS_SEND_START,1516231628632,191
467,WS_SEND_END,1516231628632,191
467,WS_RECV_START,1516231628632,192
467,WS_RECV_END,1516231628781,192
467,PLAYER_SLEEPBEFORE_START,1516231628781,193
467,PLAYER_SLEEPBEFORE_END,1516231628909,193
467,WS_SEND_START,1516231628909,193
467,WS_SEND_END,1516231628909,193
467,WS_RECV_START,1516231628909,194
467,WS_RECV_END,1516231629096,194
467,PLAYER_SLEEPBEFORE_START,1516231629096,195
467,PLAYER_SLEEPBEFORE_END,1516231630851,195
467,WS_SEND_START,1516231630851,195
467,WS_SEND_END,1516231630851,195
467,WS_RECV_START,1516231630851,196
467,WS_RECV_END,1516231630989,196
467,PLAYER_SLEEPBEFORE_START,1516231630989,197
467,PLAYER_SLEEPBEFORE_END,1516231632793,197
467,WS_SEND_START,1516231632793,197
467,WS_SEND_END,1516231632793,197
467,WS_RECV_START,1516231632793,198
467,WS_RECV_END,1516231632933,198
467,PLAYER_SLEEPBEFORE_START,1516231632933,199
467,PLAYER_SLEEPBEFORE_END,1516231644787,199
467,WS_SEND_START,1516231644787,199
467,WS_SEND_END,1516231644787,199
467,PLAYER_SLEEPBEFORE_START,1516231644787,200
467,PLAYER_SLEEPBEFORE_END,1516231648875,200
467,WS_SEND_START,1516231648875,200
467,WS_SEND_END,1516231648875,200
467,WS_RECV_START,1516231648875,201
467,WS_RECV_END,1516231648994,201
467,PLAYER_SLEEPBEFORE_START,1516231648994,202
467,PLAYER_SLEEPBEFORE_END,1516231649008,202
467,WS_SEND_START,1516231649008,202
467,WS_SEND_END,1516231649008,202
467,WS_RECV_START,1516231649008,203
467,WS_RECV_END,1516231649131,203
467,PLAYER_SLEEPBEFORE_START,1516231649131,204
467,PLAYER_SLEEPBEFORE_END,1516231668780,204
467,WS_SEND_START,1516231668780,204
467,WS_SEND_END,1516231668780,204
467,PLAYER_SLEEPBEFORE_START,1516231668780,205
467,PLAYER_SLEEPBEFORE_END,1516231672678,205
467,WS_SEND_START,1516231672678,205
467,WS_SEND_END,1516231672678,205
467,WS_RECV_START,1516231672679,206
467,WS_RECV_END,1516231672811,206
467,PLAYER_SLEEPBEFORE_START,1516231672811,207
467,PLAYER_SLEEPBEFORE_END,1516231689742,207
467,REQ_START,1516231689742,207
467,REQ_END,1516231689773,207
467,PLAYER_SLEEPBEFORE_START,1516231689773,208
467,PLAYER_SLEEPBEFORE_END,1516231696625,208
467,WS_CLOSE_START,1516231696625,208
467,WS_CLOSE_END,1516231696625,208
467,PLAYER_DONE,1516231696625
