# --sessions 540 --app-url=http://shinyloadtest.rstudioservices.com/cran_explorer --output-dir test540-2 --overwrite-output --log-level warn --start-interval 500 15min.log
thread_id,event,timestamp,input_line_number,comment
509,PLAYER_SESSION_CREATE,1516230348122
509,PLAYER_START_INTERVAL_START,1516230348122
509,PLAYER_START_INTERVAL_END,1516230602623
509,REQ_HOME_START,1516230602623,2
509,REQ_HOME_END,1516230603959,2
509,REQ_START,1516230603959,3
509,REQ_END,1516230604641,3
509,REQ_START,1516230604641,4
509,REQ_END,1516230604746,4
509,REQ_START,1516230604746,5
509,REQ_END,1516230604836,5
509,REQ_START,1516230604836,6
509,REQ_END,1516230607584,6
509,REQ_START,1516230607584,7
509,REQ_END,1516230611562,7
509,REQ_START,1516230611562,8
509,REQ_END,1516230615053,8
509,REQ_START,1516230615053,9
509,REQ_END,1516230618018,9
509,REQ_START,1516230618018,10
509,REQ_END,1516230618026,10
509,REQ_START,1516230618026,11
509,REQ_END,1516230621713,11
509,REQ_START,1516230621713,12
509,REQ_END,1516230621732,12
509,REQ_START,1516230621732,13
509,REQ_END,1516230624604,13
509,REQ_START,1516230624604,14
509,REQ_END,1516230624627,14
509,REQ_START,1516230624627,15
509,REQ_END,1516230627724,15
509,REQ_TOK_START,1516230627724,16
509,REQ_TOK_END,1516230627740,16
509,REQ_SINF_START,1516230627740,17
509,REQ_SINF_END,1516230627747,17
509,WS_OPEN_START,1516230627747,18
509,WS_OPEN_END,1516230627755,18
509,REQ_START,1516230627755,19
509,REQ_END,1516230628919,19
509,WS_RECV_START,1516230628919,20
509,WS_RECV_END,1516230628919,20
509,PLAYER_SLEEPBEFORE_START,1516230628919,21
509,PLAYER_SLEEPBEFORE_END,1516230628924,21
509,WS_SEND_START,1516230628924,21
509,WS_SEND_END,1516230628924,21
509,PLAYER_SLEEPBEFORE_START,1516230628924,22
509,PLAYER_SLEEPBEFORE_END,1516230628925,22
509,WS_SEND_START,1516230628925,22
509,WS_SEND_END,1516230628925,22
509,WS_RECV_INIT_START,1516230628925,23
509,WS_RECV_INIT_END,1516230631882,23
509,WS_RECV_START,1516230631882,24
509,WS_RECV_END,1516230632099,24
509,PLAYER_SLEEPBEFORE_START,1516230632099,25
509,PLAYER_SLEEPBEFORE_END,1516230632106,25
509,REQ_START,1516230632106,25
509,REQ_END,1516230637487,25
509,PLAYER_SLEEPBEFORE_START,1516230637487,26
509,PLAYER_SLEEPBEFORE_END,1516230637494,26
509,REQ_START,1516230637494,26
509,REQ_END,1516230640621,26
509,PLAYER_SLEEPBEFORE_START,1516230640621,27
509,PLAYER_SLEEPBEFORE_END,1516230640624,27
509,REQ_START,1516230640624,27
509,REQ_END,1516230645514,27
509,PLAYER_SLEEPBEFORE_START,1516230645514,28
509,PLAYER_SLEEPBEFORE_END,1516230645799,28
509,REQ_START,1516230645799,28
509,REQ_END,1516230651013,28
509,PLAYER_SLEEPBEFORE_START,1516230651013,29
509,PLAYER_SLEEPBEFORE_END,1516230651188,29
509,WS_SEND_START,1516230651188,29
509,WS_SEND_END,1516230651188,29
509,WS_RECV_START,1516230651188,30
509,WS_RECV_END,1516230653685,30
509,PLAYER_SLEEPBEFORE_START,1516230653685,31
509,PLAYER_SLEEPBEFORE_END,1516230653696,31
509,REQ_START,1516230653696,31
509,REQ_END,1516230656010,31
509,PLAYER_SLEEPBEFORE_START,1516230656010,32
509,PLAYER_SLEEPBEFORE_END,1516230684155,32
509,WS_SEND_START,1516230684155,32
509,WS_SEND_END,1516230684155,32
509,WS_RECV_START,1516230684155,33
509,WS_RECV_END,1516230686895,33
509,PLAYER_SLEEPBEFORE_START,1516230686895,34
509,PLAYER_SLEEPBEFORE_END,1516230712806,34
509,WS_SEND_START,1516230712806,34
509,WS_SEND_END,1516230712806,34
509,WS_RECV_START,1516230712806,35
509,WS_RECV_END,1516230713935,35
509,PLAYER_SLEEPBEFORE_START,1516230713935,36
509,PLAYER_SLEEPBEFORE_END,1516230713944,36
509,WS_SEND_START,1516230713944,36
509,WS_SEND_END,1516230713944,36
509,WS_RECV_START,1516230713944,37
509,WS_RECV_END,1516230714367,37
509,PLAYER_SLEEPBEFORE_START,1516230714367,38
509,PLAYER_SLEEPBEFORE_END,1516230717562,38
509,WS_SEND_START,1516230717562,38
509,WS_SEND_END,1516230717562,38
509,WS_RECV_START,1516230717562,39
509,WS_RECV_END,1516230719342,39
509,PLAYER_SLEEPBEFORE_START,1516230719342,40
509,PLAYER_SLEEPBEFORE_END,1516230719389,40
509,WS_SEND_START,1516230719389,40
509,WS_SEND_END,1516230719389,40
509,WS_RECV_START,1516230719389,41
509,WS_RECV_END,1516230719860,41
509,PLAYER_SLEEPBEFORE_START,1516230719860,42
509,PLAYER_SLEEPBEFORE_END,1516230737995,42
509,WS_SEND_START,1516230737995,42
509,WS_SEND_END,1516230737995,42
509,WS_RECV_START,1516230737995,43
509,WS_RECV_END,1516230740937,43
509,PLAYER_SLEEPBEFORE_START,1516230740937,44
509,PLAYER_SLEEPBEFORE_END,1516230740949,44
509,WS_SEND_START,1516230740949,44
509,WS_SEND_END,1516230740949,44
509,WS_RECV_START,1516230740949,45
509,WS_RECV_END,1516230741668,45
509,PLAYER_SLEEPBEFORE_START,1516230741668,46
509,PLAYER_SLEEPBEFORE_END,1516230742928,46
509,WS_SEND_START,1516230742928,46
509,WS_SEND_END,1516230742928,46
509,WS_RECV_START,1516230742928,47
509,WS_RECV_END,1516230743390,47
509,PLAYER_SLEEPBEFORE_START,1516230743390,48
509,PLAYER_SLEEPBEFORE_END,1516230744711,48
509,WS_SEND_START,1516230744711,48
509,WS_SEND_END,1516230744711,48
509,WS_RECV_START,1516230744711,49
509,WS_RECV_END,1516230745777,49
509,PLAYER_SLEEPBEFORE_START,1516230745777,50
509,PLAYER_SLEEPBEFORE_END,1516230745802,50
509,WS_SEND_START,1516230745802,50
509,WS_SEND_END,1516230745802,50
509,WS_RECV_START,1516230745802,51
509,WS_RECV_END,1516230748889,51
509,PLAYER_SLEEPBEFORE_START,1516230748889,52
509,PLAYER_SLEEPBEFORE_END,1516230771453,52
509,WS_SEND_START,1516230771453,52
509,WS_SEND_END,1516230771453,52
509,WS_RECV_START,1516230771453,53
509,WS_RECV_END,1516230774154,53
509,PLAYER_SLEEPBEFORE_START,1516230774154,54
509,PLAYER_SLEEPBEFORE_END,1516230795457,54
509,WS_SEND_START,1516230795457,54
509,WS_SEND_END,1516230795457,54
509,PLAYER_SLEEPBEFORE_START,1516230795457,55
509,PLAYER_SLEEPBEFORE_END,1516230797398,55
509,WS_SEND_START,1516230797398,55
509,WS_SEND_END,1516230797398,55
509,WS_RECV_START,1516230797398,56
509,WS_RECV_END,1516230798745,56
509,PLAYER_SLEEPBEFORE_START,1516230798745,57
509,PLAYER_SLEEPBEFORE_END,1516230821617,57
509,WS_SEND_START,1516230821617,57
509,WS_SEND_END,1516230821617,57
509,WS_RECV_START,1516230821617,58
509,WS_RECV_END,1516230822090,58
509,PLAYER_SLEEPBEFORE_START,1516230822090,59
509,PLAYER_SLEEPBEFORE_END,1516230824417,59
509,WS_SEND_START,1516230824417,59
509,WS_SEND_END,1516230824417,59
509,WS_RECV_START,1516230824417,60
509,WS_RECV_END,1516230825606,60
509,PLAYER_SLEEPBEFORE_START,1516230825606,61
509,PLAYER_SLEEPBEFORE_END,1516230829197,61
509,WS_SEND_START,1516230829197,61
509,WS_SEND_END,1516230829197,61
509,WS_RECV_START,1516230829197,62
509,WS_RECV_END,1516230831003,62
509,PLAYER_SLEEPBEFORE_START,1516230831003,63
509,PLAYER_SLEEPBEFORE_END,1516230850265,63
509,WS_SEND_START,1516230850265,63
509,WS_SEND_END,1516230850265,63
509,WS_RECV_START,1516230850265,64
509,WS_RECV_END,1516230854343,64
509,PLAYER_SLEEPBEFORE_START,1516230854343,65
509,PLAYER_SLEEPBEFORE_END,1516230881160,65
509,WS_SEND_START,1516230881160,65
509,WS_SEND_END,1516230881160,65
509,WS_RECV_START,1516230881160,66
509,WS_RECV_END,1516230885697,66
509,PLAYER_SLEEPBEFORE_START,1516230885697,67
509,PLAYER_SLEEPBEFORE_END,1516230887204,67
509,WS_SEND_START,1516230887204,67
509,WS_SEND_END,1516230887204,67
509,WS_RECV_START,1516230887204,68
509,WS_RECV_END,1516230894091,68
509,PLAYER_SLEEPBEFORE_START,1516230894091,69
509,PLAYER_SLEEPBEFORE_END,1516230916089,69
509,WS_SEND_START,1516230916089,69
509,WS_SEND_END,1516230916089,69
509,WS_RECV_START,1516230916089,70
509,WS_RECV_END,1516230920856,70
509,PLAYER_SLEEPBEFORE_START,1516230920856,71
509,PLAYER_SLEEPBEFORE_END,1516230945631,71
509,WS_SEND_START,1516230945631,71
509,WS_SEND_END,1516230945631,71
509,PLAYER_SLEEPBEFORE_START,1516230945631,72
509,PLAYER_SLEEPBEFORE_END,1516230948238,72
509,WS_SEND_START,1516230948238,72
509,WS_SEND_END,1516230948238,72
509,WS_RECV_START,1516230948238,73
509,WS_RECV_END,1516230951287,73
509,PLAYER_SLEEPBEFORE_START,1516230951287,74
509,PLAYER_SLEEPBEFORE_END,1516230951296,74
509,WS_SEND_START,1516230951296,74
509,WS_SEND_END,1516230951296,74
509,WS_RECV_START,1516230951296,75
509,WS_RECV_END,1516230954440,75
509,PLAYER_SLEEPBEFORE_START,1516230954440,76
509,PLAYER_SLEEPBEFORE_END,1516230955946,76
509,WS_SEND_START,1516230955946,76
509,WS_SEND_END,1516230955946,76
509,WS_RECV_START,1516230955946,77
509,WS_RECV_END,1516230959011,77
509,PLAYER_SLEEPBEFORE_START,1516230959011,78
509,PLAYER_SLEEPBEFORE_END,1516230959879,78
509,WS_SEND_START,1516230959879,78
509,WS_SEND_END,1516230959879,78
509,WS_RECV_START,1516230959879,79
509,WS_RECV_END,1516230962406,79
509,PLAYER_SLEEPBEFORE_START,1516230962406,80
509,PLAYER_SLEEPBEFORE_END,1516230970072,80
509,WS_SEND_START,1516230970072,80
509,WS_SEND_END,1516230970072,80
509,WS_RECV_START,1516230970072,81
509,WS_RECV_END,1516230971567,81
509,PLAYER_SLEEPBEFORE_START,1516230971567,82
509,PLAYER_SLEEPBEFORE_END,1516230972669,82
509,WS_SEND_START,1516230972669,82
509,WS_SEND_END,1516230972669,82
509,WS_RECV_START,1516230972669,83
509,WS_RECV_END,1516230974267,83
509,PLAYER_SLEEPBEFORE_START,1516230974267,84
509,PLAYER_SLEEPBEFORE_END,1516230975214,84
509,WS_SEND_START,1516230975214,84
509,WS_SEND_END,1516230975214,84
509,WS_RECV_START,1516230975214,85
509,WS_RECV_END,1516230977529,85
509,PLAYER_SLEEPBEFORE_START,1516230977529,86
509,PLAYER_SLEEPBEFORE_END,1516230981701,86
509,WS_SEND_START,1516230981701,86
509,WS_SEND_END,1516230981701,86
509,WS_RECV_START,1516230981701,87
509,WS_RECV_END,1516230985954,87
509,PLAYER_SLEEPBEFORE_START,1516230985954,88
509,PLAYER_SLEEPBEFORE_END,1516230985962,88
509,WS_SEND_START,1516230985962,88
509,WS_SEND_END,1516230985962,88
509,WS_RECV_START,1516230985962,89
509,WS_RECV_END,1516230988310,89
509,PLAYER_SLEEPBEFORE_START,1516230988310,90
509,PLAYER_SLEEPBEFORE_END,1516231015507,90
509,REQ_START,1516231015507,90
509,REQ_END,1516231015546,90
509,PLAYER_SLEEPBEFORE_START,1516231015546,91
509,PLAYER_SLEEPBEFORE_END,1516231023436,91
509,WS_SEND_START,1516231023436,91
509,WS_SEND_END,1516231023436,91
509,WS_RECV_START,1516231023436,92
509,WS_RECV_END,1516231030006,92
509,PLAYER_SLEEPBEFORE_START,1516231030006,93
509,PLAYER_SLEEPBEFORE_END,1516231030021,93
509,WS_SEND_START,1516231030021,93
509,WS_SEND_END,1516231030021,93
509,WS_RECV_START,1516231030022,94
509,WS_RECV_END,1516231033718,94
509,PLAYER_SLEEPBEFORE_START,1516231033718,95
509,PLAYER_SLEEPBEFORE_END,1516231057273,95
509,WS_SEND_START,1516231057273,95
509,WS_SEND_END,1516231057273,95
509,WS_RECV_START,1516231057273,96
509,WS_RECV_END,1516231063674,96
509,PLAYER_SLEEPBEFORE_START,1516231063674,97
509,PLAYER_SLEEPBEFORE_END,1516231086114,97
509,WS_SEND_START,1516231086114,97
509,WS_SEND_END,1516231086114,97
509,WS_RECV_START,1516231086114,98
509,WS_RECV_END,1516231093250,98
509,PLAYER_SLEEPBEFORE_START,1516231093250,99
509,PLAYER_SLEEPBEFORE_END,1516231093272,99
509,WS_SEND_START,1516231093272,99
509,WS_SEND_END,1516231093272,99
509,WS_RECV_START,1516231093272,100
509,WS_RECV_END,1516231095959,100
509,PLAYER_SLEEPBEFORE_START,1516231095959,101
509,PLAYER_SLEEPBEFORE_END,1516231119518,101
509,WS_SEND_START,1516231119518,101
509,WS_SEND_END,1516231119518,101
509,WS_RECV_START,1516231119518,102
509,WS_RECV_END,1516231126305,102
509,PLAYER_SLEEPBEFORE_START,1516231126305,103
509,PLAYER_SLEEPBEFORE_END,1516231149930,103
509,WS_SEND_START,1516231149930,103
509,WS_SEND_END,1516231149930,103
509,WS_RECV_START,1516231149930,104
509,WS_RECV_END,1516231158935,104
509,PLAYER_SLEEPBEFORE_START,1516231158935,105
509,PLAYER_SLEEPBEFORE_END,1516231184312,105
509,WS_SEND_START,1516231184312,105
509,WS_SEND_END,1516231184312,105
509,WS_RECV_START,1516231184312,106
509,WS_RECV_END,1516231190423,106
509,PLAYER_SLEEPBEFORE_START,1516231190423,107
509,PLAYER_SLEEPBEFORE_END,1516231213846,107
509,WS_SEND_START,1516231213846,107
509,WS_SEND_END,1516231213846,107
509,WS_RECV_START,1516231213846,108
509,WS_RECV_END,1516231219802,108
509,PLAYER_SLEEPBEFORE_START,1516231219802,109
509,PLAYER_SLEEPBEFORE_END,1516231219814,109
509,WS_SEND_START,1516231219814,109
509,WS_SEND_END,1516231219814,109
509,WS_RECV_START,1516231219814,110
509,WS_RECV_END,1516231222612,110
509,PLAYER_SLEEPBEFORE_START,1516231222612,111
509,PLAYER_SLEEPBEFORE_END,1516231223572,111
509,WS_SEND_START,1516231223572,111
509,WS_SEND_END,1516231223572,111
509,WS_RECV_START,1516231223572,112
509,WS_RECV_END,1516231226500,112
509,PLAYER_SLEEPBEFORE_START,1516231226500,113
509,PLAYER_SLEEPBEFORE_END,1516231227062,113
509,WS_SEND_START,1516231227062,113
509,WS_SEND_END,1516231227062,113
509,WS_RECV_START,1516231227062,114
509,WS_RECV_END,1516231230274,114
509,PLAYER_SLEEPBEFORE_START,1516231230274,115
509,PLAYER_SLEEPBEFORE_END,1516231230283,115
509,WS_SEND_START,1516231230283,115
509,WS_SEND_END,1516231230283,115
509,WS_RECV_START,1516231230283,116
509,WS_RECV_END,1516231232399,116
509,PLAYER_SLEEPBEFORE_START,1516231232399,117
509,PLAYER_SLEEPBEFORE_END,1516231252759,117
509,WS_SEND_START,1516231252759,117
509,WS_SEND_END,1516231252759,117
509,PLAYER_SLEEPBEFORE_START,1516231252759,118
509,PLAYER_SLEEPBEFORE_END,1516231256511,118
509,WS_SEND_START,1516231256511,118
509,WS_SEND_END,1516231256511,118
509,WS_RECV_START,1516231256511,119
509,WS_RECV_END,1516231262391,119
509,PLAYER_SLEEPBEFORE_START,1516231262391,120
509,PLAYER_SLEEPBEFORE_END,1516231263379,120
509,WS_SEND_START,1516231263379,120
509,WS_SEND_END,1516231263379,120
509,WS_RECV_START,1516231263379,121
509,WS_RECV_END,1516231266652,121
509,PLAYER_SLEEPBEFORE_START,1516231266652,122
509,PLAYER_SLEEPBEFORE_END,1516231267837,122
509,WS_SEND_START,1516231267837,122
509,WS_SEND_END,1516231267837,122
509,WS_RECV_START,1516231267837,123
509,WS_RECV_END,1516231269246,123
509,PLAYER_SLEEPBEFORE_START,1516231269246,124
509,PLAYER_SLEEPBEFORE_END,1516231293651,124
509,WS_SEND_START,1516231293651,124
509,WS_SEND_END,1516231293651,124
509,WS_RECV_START,1516231293651,125
509,WS_RECV_END,1516231298820,125
509,PLAYER_SLEEPBEFORE_START,1516231298820,126
509,PLAYER_SLEEPBEFORE_END,1516231319332,126
509,WS_SEND_START,1516231319333,126
509,WS_SEND_END,1516231319333,126
509,PLAYER_SLEEPBEFORE_START,1516231319333,127
509,PLAYER_SLEEPBEFORE_END,1516231322387,127
509,WS_SEND_START,1516231322387,127
509,WS_SEND_END,1516231322387,127
509,WS_RECV_START,1516231322387,128
509,WS_RECV_END,1516231328096,128
509,PLAYER_SLEEPBEFORE_START,1516231328096,129
509,PLAYER_SLEEPBEFORE_END,1516231328116,129
509,WS_SEND_START,1516231328116,129
509,WS_SEND_END,1516231328116,129
509,WS_RECV_START,1516231328116,130
509,WS_RECV_END,1516231332655,130
509,PLAYER_SLEEPBEFORE_START,1516231332655,131
509,PLAYER_SLEEPBEFORE_END,1516231354279,131
509,WS_SEND_START,1516231354279,131
509,WS_SEND_END,1516231354279,131
509,PLAYER_SLEEPBEFORE_START,1516231354279,132
509,PLAYER_SLEEPBEFORE_END,1516231357359,132
509,WS_SEND_START,1516231357359,132
509,WS_SEND_END,1516231357359,132
509,WS_RECV_START,1516231357359,133
509,WS_RECV_END,1516231362257,133
509,PLAYER_SLEEPBEFORE_START,1516231362257,134
509,PLAYER_SLEEPBEFORE_END,1516231383475,134
509,WS_SEND_START,1516231383475,134
509,WS_SEND_END,1516231383475,134
509,PLAYER_SLEEPBEFORE_START,1516231383475,135
509,PLAYER_SLEEPBEFORE_END,1516231386665,135
509,WS_SEND_START,1516231386665,135
509,WS_SEND_END,1516231386665,135
509,WS_RECV_START,1516231386665,136
509,WS_RECV_END,1516231392847,136
509,PLAYER_SLEEPBEFORE_START,1516231392847,137
509,PLAYER_SLEEPBEFORE_END,1516231392854,137
509,WS_SEND_START,1516231392854,137
509,WS_SEND_END,1516231392855,137
509,WS_RECV_START,1516231392855,138
509,WS_RECV_END,1516231395989,138
509,PLAYER_SLEEPBEFORE_START,1516231395989,139
509,PLAYER_SLEEPBEFORE_END,1516231396679,139
509,WS_SEND_START,1516231396679,139
509,WS_SEND_END,1516231396679,139
509,WS_RECV_START,1516231396679,140
509,WS_RECV_END,1516231402772,140
509,PLAYER_SLEEPBEFORE_START,1516231402772,141
509,PLAYER_SLEEPBEFORE_END,1516231403427,141
509,WS_SEND_START,1516231403427,141
509,WS_SEND_END,1516231403427,141
509,WS_RECV_START,1516231403427,142
509,WS_RECV_END,1516231407976,142
509,PLAYER_SLEEPBEFORE_START,1516231407976,143
509,PLAYER_SLEEPBEFORE_END,1516231408033,143
509,WS_SEND_START,1516231408033,143
509,WS_SEND_END,1516231408033,143
509,WS_RECV_START,1516231408033,144
509,WS_RECV_END,1516231414862,144
509,PLAYER_SLEEPBEFORE_START,1516231414862,145
509,PLAYER_SLEEPBEFORE_END,1516231430924,145
509,REQ_START,1516231430924,145
509,REQ_END,1516231430932,145
509,PLAYER_SLEEPBEFORE_START,1516231430932,146
509,PLAYER_SLEEPBEFORE_END,1516231439809,146
509,WS_SEND_START,1516231439809,146
509,WS_SEND_END,1516231439809,146
509,WS_RECV_START,1516231439809,147
509,WS_RECV_END,1516231450603,147
509,PLAYER_SLEEPBEFORE_START,1516231450603,148
509,PLAYER_SLEEPBEFORE_END,1516231472525,148
509,WS_SEND_START,1516231472525,148
509,WS_SEND_END,1516231472525,148
509,PLAYER_SLEEPBEFORE_START,1516231472525,149
509,PLAYER_SLEEPBEFORE_END,1516231474953,149
509,WS_SEND_START,1516231474953,149
509,WS_SEND_END,1516231474953,149
509,WS_RECV_START,1516231474953,150
509,WS_RECV_END,1516231479434,150
509,PLAYER_SLEEPBEFORE_START,1516231479434,151
509,PLAYER_SLEEPBEFORE_END,1516231479644,151
509,WS_SEND_START,1516231479644,151
509,WS_SEND_END,1516231479644,151
509,WS_RECV_START,1516231479644,152
509,WS_RECV_END,1516231483534,152
509,PLAYER_SLEEPBEFORE_START,1516231483534,153
509,PLAYER_SLEEPBEFORE_END,1516231507461,153
509,WS_SEND_START,1516231507462,153
509,WS_SEND_END,1516231507462,153
509,WS_RECV_START,1516231507462,154
509,WS_RECV_END,1516231511461,154
509,PLAYER_SLEEPBEFORE_START,1516231511461,155
509,PLAYER_SLEEPBEFORE_END,1516231534019,155
509,WS_SEND_START,1516231534019,155
509,WS_SEND_END,1516231534019,155
509,PLAYER_SLEEPBEFORE_START,1516231534019,156
509,PLAYER_SLEEPBEFORE_END,1516231537294,156
509,WS_SEND_START,1516231537294,156
509,WS_SEND_END,1516231537294,156
509,WS_RECV_START,1516231537294,157
509,WS_RECV_END,1516231537351,157
509,PLAYER_SLEEPBEFORE_START,1516231537351,158
509,PLAYER_SLEEPBEFORE_END,1516231537361,158
509,WS_SEND_START,1516231537361,158
509,WS_SEND_END,1516231537361,158
509,WS_RECV_START,1516231537361,159
509,WS_RECV_END,1516231537409,159
509,PLAYER_SLEEPBEFORE_START,1516231537409,160
509,PLAYER_SLEEPBEFORE_END,1516231537584,160
509,WS_SEND_START,1516231537584,160
509,WS_SEND_END,1516231537584,160
509,WS_RECV_START,1516231537584,161
509,WS_RECV_END,1516231537727,161
509,PLAYER_SLEEPBEFORE_START,1516231537727,162
509,PLAYER_SLEEPBEFORE_END,1516231537752,162
509,WS_SEND_START,1516231537752,162
509,WS_SEND_END,1516231537752,162
509,WS_RECV_START,1516231537752,163
509,WS_RECV_END,1516231537907,163
509,PLAYER_SLEEPBEFORE_START,1516231537908,164
509,PLAYER_SLEEPBEFORE_END,1516231558720,164
509,WS_SEND_START,1516231558720,164
509,WS_SEND_END,1516231558720,164
509,WS_RECV_START,1516231558720,165
509,WS_RECV_END,1516231558870,165
509,PLAYER_SLEEPBEFORE_START,1516231558870,166
509,PLAYER_SLEEPBEFORE_END,1516231581325,166
509,WS_SEND_START,1516231581325,166
509,WS_SEND_END,1516231581325,166
509,WS_RECV_START,1516231581325,167
509,WS_RECV_END,1516231581465,167
509,PLAYER_SLEEPBEFORE_START,1516231581465,168
509,PLAYER_SLEEPBEFORE_END,1516231608822,168
509,WS_SEND_START,1516231608822,168
509,WS_SEND_END,1516231608822,168
509,WS_RECV_START,1516231608822,169
509,WS_RECV_END,1516231609081,169
509,PLAYER_SLEEPBEFORE_START,1516231609081,170
509,PLAYER_SLEEPBEFORE_END,1516231609090,170
509,WS_SEND_START,1516231609090,170
509,WS_SEND_END,1516231609090,170
509,WS_RECV_START,1516231609090,171
509,WS_RECV_END,1516231609133,171
509,PLAYER_SLEEPBEFORE_START,1516231609133,172
509,PLAYER_SLEEPBEFORE_END,1516231609502,172
509,WS_SEND_START,1516231609502,172
509,WS_SEND_END,1516231609502,172
509,WS_RECV_START,1516231609502,173
509,WS_RECV_END,1516231610037,173
509,PLAYER_SLEEPBEFORE_START,1516231610037,174
509,PLAYER_SLEEPBEFORE_END,1516231610078,174
509,WS_SEND_START,1516231610078,174
509,WS_SEND_END,1516231610078,174
509,WS_RECV_START,1516231610078,175
509,WS_RECV_END,1516231610310,175
509,PLAYER_SLEEPBEFORE_START,1516231610310,176
509,PLAYER_SLEEPBEFORE_END,1516231632071,176
509,WS_SEND_START,1516231632071,176
509,WS_SEND_END,1516231632071,176
509,PLAYER_SLEEPBEFORE_START,1516231632071,177
509,PLAYER_SLEEPBEFORE_END,1516231634589,177
509,WS_SEND_START,1516231634589,177
509,WS_SEND_END,1516231634589,177
509,WS_RECV_START,1516231634589,178
509,WS_RECV_END,1516231634740,178
509,PLAYER_SLEEPBEFORE_START,1516231634740,179
509,PLAYER_SLEEPBEFORE_END,1516231657080,179
509,WS_SEND_START,1516231657080,179
509,WS_SEND_END,1516231657080,179
509,WS_RECV_START,1516231657080,180
509,WS_RECV_END,1516231657306,180
509,PLAYER_SLEEPBEFORE_START,1516231657306,181
509,PLAYER_SLEEPBEFORE_END,1516231657750,181
509,WS_SEND_START,1516231657750,181
509,WS_SEND_END,1516231657750,181
509,WS_RECV_START,1516231657750,182
509,WS_RECV_END,1516231657894,182
509,PLAYER_SLEEPBEFORE_START,1516231657894,183
509,PLAYER_SLEEPBEFORE_END,1516231658417,183
509,WS_SEND_START,1516231658417,183
509,WS_SEND_END,1516231658417,183
509,WS_RECV_START,1516231658417,184
509,WS_RECV_END,1516231658572,184
509,PLAYER_SLEEPBEFORE_START,1516231658572,185
509,PLAYER_SLEEPBEFORE_END,1516231658840,185
509,WS_SEND_START,1516231658840,185
509,WS_SEND_END,1516231658841,185
509,WS_RECV_START,1516231658841,186
509,WS_RECV_END,1516231658987,186
509,PLAYER_SLEEPBEFORE_START,1516231658987,187
509,PLAYER_SLEEPBEFORE_END,1516231681488,187
509,WS_SEND_START,1516231681488,187
509,WS_SEND_END,1516231681488,187
509,WS_RECV_START,1516231681488,188
509,WS_RECV_END,1516231681540,188
509,PLAYER_SLEEPBEFORE_START,1516231681540,189
509,PLAYER_SLEEPBEFORE_END,1516231687779,189
509,WS_SEND_START,1516231687779,189
509,WS_SEND_END,1516231687779,189
509,WS_RECV_START,1516231687779,190
509,WS_RECV_END,1516231687918,190
509,PLAYER_SLEEPBEFORE_START,1516231687918,191
509,PLAYER_SLEEPBEFORE_END,1516231689833,191
509,WS_SEND_START,1516231689833,191
509,WS_SEND_END,1516231689833,191
509,WS_RECV_START,1516231689833,192
509,WS_RECV_END,1516231690120,192
509,PLAYER_SLEEPBEFORE_START,1516231690120,193
509,PLAYER_SLEEPBEFORE_END,1516231690248,193
509,WS_SEND_START,1516231690248,193
509,WS_SEND_END,1516231690248,193
509,WS_RECV_START,1516231690248,194
509,WS_RECV_END,1516231690382,194
509,PLAYER_SLEEPBEFORE_START,1516231690382,195
509,PLAYER_SLEEPBEFORE_END,1516231692137,195
509,WS_SEND_START,1516231692137,195
509,WS_SEND_END,1516231692137,195
509,WS_RECV_START,1516231692137,196
509,WS_RECV_END,1516231692324,196
509,PLAYER_SLEEPBEFORE_START,1516231692324,197
509,PLAYER_SLEEPBEFORE_END,1516231694129,197
509,WS_SEND_START,1516231694129,197
509,WS_SEND_END,1516231694129,197
509,WS_RECV_START,1516231694129,198
509,WS_RECV_END,1516231694263,198
509,PLAYER_SLEEPBEFORE_START,1516231694263,199
509,PLAYER_SLEEPBEFORE_END,1516231706117,199
509,WS_SEND_START,1516231706117,199
509,WS_SEND_END,1516231706117,199
509,PLAYER_SLEEPBEFORE_START,1516231706117,200
509,PLAYER_SLEEPBEFORE_END,1516231710205,200
509,WS_SEND_START,1516231710205,200
509,WS_SEND_END,1516231710205,200
509,WS_RECV_START,1516231710205,201
509,WS_RECV_END,1516231710329,201
509,PLAYER_SLEEPBEFORE_START,1516231710329,202
509,PLAYER_SLEEPBEFORE_END,1516231710343,202
509,WS_SEND_START,1516231710343,202
509,WS_SEND_END,1516231710343,202
509,WS_RECV_START,1516231710343,203
509,WS_RECV_END,1516231710478,203
509,PLAYER_SLEEPBEFORE_START,1516231710478,204
509,PLAYER_SLEEPBEFORE_END,1516231730127,204
509,WS_SEND_START,1516231730127,204
509,WS_SEND_END,1516231730127,204
509,PLAYER_SLEEPBEFORE_START,1516231730127,205
509,PLAYER_SLEEPBEFORE_END,1516231734025,205
509,WS_SEND_START,1516231734025,205
509,WS_SEND_END,1516231734025,205
509,WS_RECV_START,1516231734025,206
509,WS_RECV_END,1516231734162,206
509,PLAYER_SLEEPBEFORE_START,1516231734162,207
509,PLAYER_SLEEPBEFORE_END,1516231751093,207
509,REQ_START,1516231751093,207
509,REQ_END,1516231751113,207
509,PLAYER_SLEEPBEFORE_START,1516231751113,208
509,PLAYER_SLEEPBEFORE_END,1516231757966,208
509,WS_CLOSE_START,1516231757966,208
509,WS_CLOSE_END,1516231757966,208
509,PLAYER_DONE,1516231757966
