# --sessions 2700 --app-url=http://shinyloadtest.rstudioservices.com/cran_explorer --output-dir test2700 --overwrite-output --log-level warn --start-interval 100 15min.log
thread_id,event,timestamp,input_line_number,comment
1098,PLAYER_SESSION_CREATE,1516299245874
1098,PLAYER_START_INTERVAL_START,1516299245874
1098,PLAYER_START_INTERVAL_END,1516299355674
1098,REQ_HOME_START,1516299355674,2
1098,REQ_HOME_END,1516299355769,2
1098,REQ_START,1516299355769,3
1098,REQ_END,1516299355804,3
1098,REQ_START,1516299355804,4
1098,REQ_END,1516299355840,4
1098,REQ_START,1516299355840,5
1098,REQ_END,1516299355876,5
1098,REQ_START,1516299355876,6
1098,REQ_END,1516299355914,6
1098,REQ_START,1516299355914,7
1098,REQ_END,1516299355952,7
1098,REQ_START,1516299355952,8
1098,REQ_END,1516299355991,8
1098,REQ_START,1516299355991,9
1098,REQ_END,1516299356152,9
1098,REQ_START,1516299356152,10
1098,REQ_END,1516299356156,10
1098,REQ_START,1516299356156,11
1098,REQ_END,1516299356191,11
1098,REQ_START,1516299356191,12
1098,REQ_END,1516299356197,12
1098,REQ_START,1516299356197,13
1098,REQ_END,1516299356316,13
1098,REQ_START,1516299356316,14
1098,REQ_END,1516299356327,14
1098,REQ_START,1516299356327,15
1098,REQ_END,1516299356368,15
1098,REQ_TOK_START,1516299356368,16
1098,REQ_TOK_END,1516299356372,16
1098,REQ_SINF_START,1516299356372,17
1098,REQ_SINF_END,1516299356375,17
1098,WS_OPEN_START,1516299356375,18
1098,WS_OPEN_END,1516299356379,18
1098,REQ_START,1516299356379,19
1098,REQ_END,1516299356445,19
1098,WS_RECV_START,1516299356445,20
1098,WS_RECV_END,1516299356446,20
1098,PLAYER_SLEEPBEFORE_START,1516299356446,21
1098,PLAYER_SLEEPBEFORE_END,1516299356451,21
1098,WS_SEND_START,1516299356451,21
1098,WS_SEND_END,1516299356451,21
1098,PLAYER_SLEEPBEFORE_START,1516299356451,22
1098,PLAYER_SLEEPBEFORE_END,1516299356452,22
1098,WS_SEND_START,1516299356452,22
1098,WS_SEND_END,1516299356452,22
1098,WS_RECV_INIT_START,1516299356452,23
1098,WS_RECV_INIT_END,1516299356497,23
1098,WS_RECV_START,1516299356497,24
1098,WS_RECV_END,1516299356548,24
1098,PLAYER_SLEEPBEFORE_START,1516299356548,25
1098,PLAYER_SLEEPBEFORE_END,1516299356555,25
1098,REQ_START,1516299356555,25
1098,REQ_END,1516299356591,25
1098,PLAYER_SLEEPBEFORE_START,1516299356591,26
1098,PLAYER_SLEEPBEFORE_END,1516299356592,26
1098,REQ_START,1516299356592,26
1098,REQ_END,1516299356627,26
1098,PLAYER_SLEEPBEFORE_START,1516299356627,27
1098,PLAYER_SLEEPBEFORE_END,1516299356630,27
1098,REQ_START,1516299356630,27
1098,REQ_END,1516299356668,27
1098,PLAYER_SLEEPBEFORE_START,1516299356668,28
1098,PLAYER_SLEEPBEFORE_END,1516299356953,28
1098,REQ_START,1516299356953,28
1098,REQ_END,1516299356989,28
1098,PLAYER_SLEEPBEFORE_START,1516299356989,29
1098,PLAYER_SLEEPBEFORE_END,1516299357164,29
1098,WS_SEND_START,1516299357164,29
1098,WS_SEND_END,1516299357164,29
1098,WS_RECV_START,1516299357164,30
1098,WS_RECV_END,1516299357327,30
1098,PLAYER_SLEEPBEFORE_START,1516299357327,31
1098,PLAYER_SLEEPBEFORE_END,1516299357338,31
1098,REQ_START,1516299357338,31
1098,REQ_END,1516299357380,31
1098,PLAYER_SLEEPBEFORE_START,1516299357380,32
1098,PLAYER_SLEEPBEFORE_END,1516299385525,32
1098,WS_SEND_START,1516299385525,32
1098,WS_SEND_END,1516299385525,32
1098,WS_RECV_START,1516299385525,33
1098,WS_RECV_END,1516299385653,33
1098,PLAYER_SLEEPBEFORE_START,1516299385653,34
1098,PLAYER_SLEEPBEFORE_END,1516299411564,34
1098,WS_SEND_START,1516299411564,34
1098,WS_SEND_END,1516299411564,34
1098,WS_RECV_START,1516299411564,35
1098,WS_RECV_END,1516299411668,35
1098,PLAYER_SLEEPBEFORE_START,1516299411668,36
1098,PLAYER_SLEEPBEFORE_END,1516299411677,36
1098,WS_SEND_START,1516299411677,36
1098,WS_SEND_END,1516299411677,36
1098,WS_RECV_START,1516299411677,37
1098,WS_RECV_END,1516299411861,37
1098,PLAYER_SLEEPBEFORE_START,1516299411861,38
1098,PLAYER_SLEEPBEFORE_END,1516299415056,38
1098,WS_SEND_START,1516299415056,38
1098,WS_SEND_END,1516299415056,38
1098,WS_RECV_START,1516299415056,39
1098,WS_RECV_END,1516299415338,39
1098,PLAYER_SLEEPBEFORE_START,1516299415338,40
1098,PLAYER_SLEEPBEFORE_END,1516299415384,40
1098,WS_SEND_START,1516299415384,40
1098,WS_SEND_END,1516299415384,40
1098,WS_RECV_START,1516299415384,41
1098,WS_RECV_END,1516299415726,41
1098,PLAYER_SLEEPBEFORE_START,1516299415726,42
1098,PLAYER_SLEEPBEFORE_END,1516299433861,42
1098,WS_SEND_START,1516299433861,42
1098,WS_SEND_END,1516299433861,42
1098,WS_RECV_START,1516299433861,43
1098,WS_RECV_END,1516299433974,43
1098,PLAYER_SLEEPBEFORE_START,1516299433974,44
1098,PLAYER_SLEEPBEFORE_END,1516299433987,44
1098,WS_SEND_START,1516299433987,44
1098,WS_SEND_END,1516299433987,44
1098,WS_RECV_START,1516299433987,45
1098,WS_RECV_END,1516299434025,45
1098,PLAYER_SLEEPBEFORE_START,1516299434025,46
1098,PLAYER_SLEEPBEFORE_END,1516299435286,46
1098,WS_SEND_START,1516299435286,46
1098,WS_SEND_END,1516299435286,46
1098,WS_RECV_START,1516299435286,47
1098,WS_RECV_END,1516299435352,47
1098,PLAYER_SLEEPBEFORE_START,1516299435352,48
1098,PLAYER_SLEEPBEFORE_END,1516299436673,48
1098,WS_SEND_START,1516299436673,48
1098,WS_SEND_END,1516299436673,48
1098,WS_RECV_START,1516299436673,49
1098,WS_RECV_END,1516299436942,49
1098,PLAYER_SLEEPBEFORE_START,1516299436942,50
1098,PLAYER_SLEEPBEFORE_END,1516299436966,50
1098,WS_SEND_START,1516299436966,50
1098,WS_SEND_END,1516299436966,50
1098,WS_RECV_START,1516299436966,51
1098,WS_RECV_END,1516299437216,51
1098,PLAYER_SLEEPBEFORE_START,1516299437216,52
1098,PLAYER_SLEEPBEFORE_END,1516299459839,52
1098,WS_SEND_START,1516299459839,52
1098,WS_SEND_END,1516299459839,52
1098,WS_RECV_START,1516299459839,53
1098,WS_RECV_END,1516299460087,53
1098,PLAYER_SLEEPBEFORE_START,1516299460087,54
1098,PLAYER_SLEEPBEFORE_END,1516299481390,54
1098,WS_SEND_START,1516299481390,54
1098,WS_SEND_END,1516299481390,54
1098,PLAYER_SLEEPBEFORE_START,1516299481390,55
1098,PLAYER_SLEEPBEFORE_END,1516299483331,55
1098,WS_SEND_START,1516299483331,55
1098,WS_SEND_END,1516299483331,55
1098,WS_RECV_START,1516299483331,56
1098,WS_RECV_END,1516299483664,56
1098,PLAYER_SLEEPBEFORE_START,1516299483664,57
1098,PLAYER_SLEEPBEFORE_END,1516299506536,57
1098,WS_SEND_START,1516299506536,57
1098,WS_SEND_END,1516299506536,57
1098,WS_RECV_START,1516299506536,58
1098,WS_RECV_END,1516299506916,58
1098,PLAYER_SLEEPBEFORE_START,1516299506916,59
1098,PLAYER_SLEEPBEFORE_END,1516299509243,59
1098,WS_SEND_START,1516299509243,59
1098,WS_SEND_END,1516299509243,59
1098,WS_RECV_START,1516299509243,60
1098,WS_RECV_END,1516299509330,60
1098,PLAYER_SLEEPBEFORE_START,1516299509330,61
1098,PLAYER_SLEEPBEFORE_END,1516299512921,61
1098,WS_SEND_START,1516299512921,61
1098,WS_SEND_END,1516299512921,61
1098,WS_RECV_START,1516299512921,62
1098,WS_RECV_END,1516299513404,62
1098,PLAYER_SLEEPBEFORE_START,1516299513404,63
1098,PLAYER_SLEEPBEFORE_END,1516299532666,63
1098,WS_SEND_START,1516299532666,63
1098,WS_SEND_END,1516299532666,63
1098,WS_RECV_START,1516299532666,64
1098,WS_RECV_END,1516299533186,64
1098,PLAYER_SLEEPBEFORE_START,1516299533186,65
1098,PLAYER_SLEEPBEFORE_END,1516299560004,65
1098,WS_SEND_START,1516299560004,65
1098,WS_SEND_END,1516299560004,65
1098,WS_RECV_START,1516299560004,66
1098,WS_RECV_END,1516299560351,66
1098,PLAYER_SLEEPBEFORE_START,1516299560351,67
1098,PLAYER_SLEEPBEFORE_END,1516299561858,67
1098,WS_SEND_START,1516299561858,67
1098,WS_SEND_END,1516299561858,67
1098,WS_RECV_START,1516299561858,68
1098,WS_RECV_END,1516299562311,68
1098,PLAYER_SLEEPBEFORE_START,1516299562311,69
1098,PLAYER_SLEEPBEFORE_END,1516299584309,69
1098,WS_SEND_START,1516299584309,69
1098,WS_SEND_END,1516299584309,69
1098,WS_RECV_START,1516299584309,70
1098,WS_RECV_END,1516299584610,70
1098,PLAYER_SLEEPBEFORE_START,1516299584610,71
1098,PLAYER_SLEEPBEFORE_END,1516299609385,71
1098,WS_SEND_START,1516299609385,71
1098,WS_SEND_END,1516299609385,71
1098,PLAYER_SLEEPBEFORE_START,1516299609385,72
1098,PLAYER_SLEEPBEFORE_END,1516299611993,72
1098,WS_SEND_START,1516299611993,72
1098,WS_SEND_END,1516299611993,72
1098,WS_RECV_START,1516299611993,73
1098,WS_RECV_END,1516299612039,73
1098,PLAYER_SLEEPBEFORE_START,1516299612039,74
1098,PLAYER_SLEEPBEFORE_END,1516299612048,74
1098,WS_SEND_START,1516299612048,74
1098,WS_SEND_END,1516299612048,74
1098,WS_RECV_START,1516299612048,75
1098,WS_RECV_END,1516299612101,75
1098,PLAYER_SLEEPBEFORE_START,1516299612101,76
1098,PLAYER_SLEEPBEFORE_END,1516299613607,76
1098,WS_SEND_START,1516299613607,76
1098,WS_SEND_END,1516299613607,76
1098,WS_RECV_START,1516299613607,77
1098,WS_RECV_END,1516299614082,77
1098,PLAYER_SLEEPBEFORE_START,1516299614082,78
1098,PLAYER_SLEEPBEFORE_END,1516299614951,78
1098,WS_SEND_START,1516299614951,78
1098,WS_SEND_END,1516299614951,78
1098,WS_RECV_START,1516299614951,79
1098,WS_RECV_END,1516299615269,79
1098,PLAYER_SLEEPBEFORE_START,1516299615269,80
1098,PLAYER_SLEEPBEFORE_END,1516299622935,80
1098,WS_SEND_START,1516299622935,80
1098,WS_SEND_END,1516299622935,80
1098,WS_RECV_START,1516299622935,81
1098,WS_RECV_END,1516299623496,81
1098,PLAYER_SLEEPBEFORE_START,1516299623496,82
1098,PLAYER_SLEEPBEFORE_END,1516299624598,82
1098,WS_SEND_START,1516299624598,82
1098,WS_SEND_END,1516299624598,82
1098,WS_RECV_START,1516299624598,83
1098,WS_RECV_END,1516299625653,83
1098,PLAYER_SLEEPBEFORE_START,1516299625653,84
1098,PLAYER_SLEEPBEFORE_END,1516299626600,84
1098,WS_SEND_START,1516299626600,84
1098,WS_SEND_END,1516299626600,84
1098,WS_RECV_START,1516299626600,85
1098,WS_RECV_END,1516299627646,85
1098,PLAYER_SLEEPBEFORE_START,1516299627646,86
1098,PLAYER_SLEEPBEFORE_END,1516299631818,86
1098,WS_SEND_START,1516299631818,86
1098,WS_SEND_END,1516299631818,86
1098,WS_RECV_START,1516299631818,87
1098,WS_RECV_END,1516299631970,87
1098,PLAYER_SLEEPBEFORE_START,1516299631970,88
1098,PLAYER_SLEEPBEFORE_END,1516299631978,88
1098,WS_SEND_START,1516299631978,88
1098,WS_SEND_END,1516299631978,88
1098,WS_RECV_START,1516299631978,89
1098,WS_RECV_END,1516299632439,89
1098,PLAYER_SLEEPBEFORE_START,1516299632439,90
1098,PLAYER_SLEEPBEFORE_END,1516299659636,90
1098,REQ_START,1516299659636,90
1098,REQ_END,1516299659641,90
1098,PLAYER_SLEEPBEFORE_START,1516299659641,91
1098,PLAYER_SLEEPBEFORE_END,1516299667530,91
1098,WS_SEND_START,1516299667530,91
1098,WS_SEND_END,1516299667530,91
1098,WS_RECV_START,1516299667530,92
1098,WS_RECV_END,1516299667663,92
1098,PLAYER_SLEEPBEFORE_START,1516299667663,93
1098,PLAYER_SLEEPBEFORE_END,1516299667678,93
1098,WS_SEND_START,1516299667678,93
1098,WS_SEND_END,1516299667678,93
1098,WS_RECV_START,1516299667678,94
1098,WS_RECV_END,1516299667985,94
1098,PLAYER_SLEEPBEFORE_START,1516299667985,95
1098,PLAYER_SLEEPBEFORE_END,1516299691541,95
1098,WS_SEND_START,1516299691541,95
1098,WS_SEND_END,1516299691541,95
1098,WS_RECV_START,1516299691541,96
1098,WS_RECV_END,1516299691879,96
1098,PLAYER_SLEEPBEFORE_START,1516299691879,97
1098,PLAYER_SLEEPBEFORE_END,1516299714319,97
1098,WS_SEND_START,1516299714319,97
1098,WS_SEND_END,1516299714319,97
1098,WS_RECV_START,1516299714319,98
1098,WS_RECV_END,1516299714846,98
1098,PLAYER_SLEEPBEFORE_START,1516299714846,99
1098,PLAYER_SLEEPBEFORE_END,1516299714867,99
1098,WS_SEND_START,1516299714867,99
1098,WS_SEND_END,1516299714867,99
1098,WS_RECV_START,1516299714867,100
1098,WS_RECV_END,1516299715156,100
1098,PLAYER_SLEEPBEFORE_START,1516299715156,101
1098,PLAYER_SLEEPBEFORE_END,1516299738715,101
1098,WS_SEND_START,1516299738715,101
1098,WS_SEND_END,1516299738715,101
1098,WS_RECV_START,1516299738715,102
1098,WS_RECV_END,1516299739599,102
1098,PLAYER_SLEEPBEFORE_START,1516299739599,103
1098,PLAYER_SLEEPBEFORE_END,1516299763224,103
1098,WS_SEND_START,1516299763224,103
1098,WS_SEND_END,1516299763224,103
1098,WS_RECV_START,1516299763224,104
1098,WS_RECV_END,1516299764481,104
1098,PLAYER_SLEEPBEFORE_START,1516299764481,105
1098,PLAYER_SLEEPBEFORE_END,1516299789858,105
1098,WS_SEND_START,1516299789858,105
1098,WS_SEND_END,1516299789858,105
1098,WS_RECV_START,1516299789858,106
1098,WS_RECV_END,1516299791438,106
1098,PLAYER_SLEEPBEFORE_START,1516299791438,107
1098,PLAYER_SLEEPBEFORE_END,1516299814861,107
1098,WS_SEND_START,1516299814861,107
1098,WS_SEND_END,1516299814861,107
1098,WS_RECV_START,1516299814861,108
1098,WS_RECV_END,1516299816334,108
1098,PLAYER_SLEEPBEFORE_START,1516299816334,109
1098,PLAYER_SLEEPBEFORE_END,1516299816343,109
1098,WS_SEND_START,1516299816343,109
1098,WS_SEND_END,1516299816343,109
1098,WS_RECV_START,1516299816343,110
1098,WS_RECV_END,1516299816933,110
1098,PLAYER_SLEEPBEFORE_START,1516299816933,111
1098,PLAYER_SLEEPBEFORE_END,1516299817892,111
1098,WS_SEND_START,1516299817892,111
1098,WS_SEND_END,1516299817892,111
1098,WS_RECV_START,1516299817892,112
1098,WS_RECV_END,1516299818749,112
1098,PLAYER_SLEEPBEFORE_START,1516299818749,113
1098,PLAYER_SLEEPBEFORE_END,1516299819311,113
1098,WS_SEND_START,1516299819311,113
1098,WS_SEND_END,1516299819311,113
1098,WS_RECV_START,1516299819311,114
1098,WS_RECV_END,1516299819835,114
1098,PLAYER_SLEEPBEFORE_START,1516299819835,115
1098,PLAYER_SLEEPBEFORE_END,1516299819844,115
1098,WS_SEND_START,1516299819844,115
1098,WS_SEND_END,1516299819844,115
1098,WS_RECV_START,1516299819844,116
1098,WS_RECV_END,1516299820056,116
1098,PLAYER_SLEEPBEFORE_START,1516299820056,117
1098,PLAYER_SLEEPBEFORE_END,1516299840416,117
1098,WS_SEND_START,1516299840416,117
1098,WS_SEND_END,1516299840416,117
1098,PLAYER_SLEEPBEFORE_START,1516299840416,118
1098,PLAYER_SLEEPBEFORE_END,1516299844168,118
1098,WS_SEND_START,1516299844168,118
1098,WS_SEND_END,1516299844168,118
1098,WS_RECV_START,1516299844168,119
1098,WS_RECV_END,1516299844890,119
1098,PLAYER_SLEEPBEFORE_START,1516299844890,120
1098,PLAYER_SLEEPBEFORE_END,1516299845879,120
1098,WS_SEND_START,1516299845879,120
1098,WS_SEND_END,1516299845879,120
1098,WS_RECV_START,1516299845879,121
1098,WS_RECV_END,1516299846838,121
1098,PLAYER_SLEEPBEFORE_START,1516299846838,122
1098,PLAYER_SLEEPBEFORE_END,1516299848023,122
1098,WS_SEND_START,1516299848023,122
1098,WS_SEND_END,1516299848023,122
1098,WS_RECV_START,1516299848023,123
1098,WS_RECV_END,1516299848398,123
1098,PLAYER_SLEEPBEFORE_START,1516299848398,124
1098,PLAYER_SLEEPBEFORE_END,1516299872804,124
1098,WS_SEND_START,1516299872804,124
1098,WS_SEND_END,1516299872804,124
1098,WS_RECV_START,1516299872804,125
1098,WS_RECV_END,1516299876799,125
1098,PLAYER_SLEEPBEFORE_START,1516299876799,126
1098,PLAYER_SLEEPBEFORE_END,1516299897311,126
1098,WS_SEND_START,1516299897311,126
1098,WS_SEND_END,1516299897311,126
1098,PLAYER_SLEEPBEFORE_START,1516299897311,127
1098,PLAYER_SLEEPBEFORE_END,1516299900365,127
1098,WS_SEND_START,1516299900365,127
1098,WS_SEND_END,1516299900365,127
1098,WS_RECV_START,1516299900365,128
1098,WS_RECV_END,1516299900556,128
1098,PLAYER_SLEEPBEFORE_START,1516299900556,129
1098,PLAYER_SLEEPBEFORE_END,1516299900576,129
1098,WS_SEND_START,1516299900576,129
1098,WS_SEND_END,1516299900576,129
1098,WS_RECV_START,1516299900576,130
1098,WS_RECV_END,1516299900916,130
1098,PLAYER_SLEEPBEFORE_START,1516299900916,131
1098,PLAYER_SLEEPBEFORE_END,1516299922540,131
1098,WS_SEND_START,1516299922540,131
1098,WS_SEND_END,1516299922540,131
1098,PLAYER_SLEEPBEFORE_START,1516299922540,132
1098,PLAYER_SLEEPBEFORE_END,1516299925620,132
1098,WS_SEND_START,1516299925620,132
1098,WS_SEND_END,1516299925620,132
1098,WS_RECV_START,1516299925620,133
1098,WS_RECV_END,1516299927339,133
1098,PLAYER_SLEEPBEFORE_START,1516299927339,134
1098,PLAYER_SLEEPBEFORE_END,1516299948556,134
1098,WS_SEND_START,1516299948556,134
1098,WS_SEND_END,1516299948556,134
1098,PLAYER_SLEEPBEFORE_START,1516299948556,135
1098,PLAYER_SLEEPBEFORE_END,1516299951746,135
1098,WS_SEND_START,1516299951746,135
1098,WS_SEND_END,1516299951746,135
1098,WS_RECV_START,1516299951746,136
1098,WS_RECV_END,1516299952244,136
1098,PLAYER_SLEEPBEFORE_START,1516299952244,137
1098,PLAYER_SLEEPBEFORE_END,1516299952251,137
1098,WS_SEND_START,1516299952251,137
1098,WS_SEND_END,1516299952251,137
1098,WS_RECV_START,1516299952251,138
1098,WS_RECV_END,1516299952448,138
1098,PLAYER_SLEEPBEFORE_START,1516299952448,139
1098,PLAYER_SLEEPBEFORE_END,1516299953138,139
1098,WS_SEND_START,1516299953139,139
1098,WS_SEND_END,1516299953139,139
1098,WS_RECV_START,1516299953139,140
1098,WS_RECV_END,1516299954186,140
1098,PLAYER_SLEEPBEFORE_START,1516299954186,141
1098,PLAYER_SLEEPBEFORE_END,1516299954841,141
1098,WS_SEND_START,1516299954841,141
1098,WS_SEND_END,1516299954841,141
1098,WS_RECV_START,1516299954841,142
1098,WS_RECV_END,1516299955122,142
1098,PLAYER_SLEEPBEFORE_START,1516299955122,143
1098,PLAYER_SLEEPBEFORE_END,1516299955179,143
1098,WS_SEND_START,1516299955179,143
1098,WS_SEND_END,1516299955179,143
1098,WS_RECV_START,1516299955179,144
1098,WS_RECV_END,1516299956020,144
1098,PLAYER_SLEEPBEFORE_START,1516299956020,145
1098,PLAYER_SLEEPBEFORE_END,1516299972082,145
1098,REQ_START,1516299972082,145
1098,REQ_END,1516299972089,145
1098,PLAYER_SLEEPBEFORE_START,1516299972089,146
1098,PLAYER_SLEEPBEFORE_END,1516299980966,146
1098,WS_SEND_START,1516299980966,146
1098,WS_SEND_END,1516299980966,146
1098,WS_RECV_START,1516299980966,147
1098,WS_RECV_END,1516299982143,147
1098,PLAYER_SLEEPBEFORE_START,1516299982143,148
1098,PLAYER_SLEEPBEFORE_END,1516300004065,148
1098,WS_SEND_START,1516300004065,148
1098,WS_SEND_END,1516300004065,148
1098,PLAYER_SLEEPBEFORE_START,1516300004065,149
1098,PLAYER_SLEEPBEFORE_END,1516300006493,149
1098,WS_SEND_START,1516300006493,149
1098,WS_SEND_END,1516300006493,149
1098,WS_RECV_START,1516300006493,150
1098,WS_RECV_END,1516300007560,150
1098,PLAYER_SLEEPBEFORE_START,1516300007560,151
1098,PLAYER_SLEEPBEFORE_END,1516300007770,151
1098,WS_SEND_START,1516300007770,151
1098,WS_SEND_END,1516300007770,151
1098,WS_RECV_START,1516300007770,152
1098,WS_RECV_END,1516300008101,152
1098,PLAYER_SLEEPBEFORE_START,1516300008101,153
1098,PLAYER_SLEEPBEFORE_END,1516300032028,153
1098,WS_SEND_START,1516300032028,153
1098,WS_SEND_END,1516300032028,153
1098,WS_RECV_START,1516300032028,154
1098,WS_RECV_END,1516300032251,154
1098,PLAYER_SLEEPBEFORE_START,1516300032251,155
1098,PLAYER_SLEEPBEFORE_END,1516300054809,155
1098,WS_SEND_START,1516300054809,155
1098,WS_SEND_END,1516300054809,155
1098,PLAYER_SLEEPBEFORE_START,1516300054809,156
1098,PLAYER_SLEEPBEFORE_END,1516300058083,156
1098,WS_SEND_START,1516300058083,156
1098,WS_SEND_END,1516300058083,156
1098,WS_RECV_START,1516300058083,157
1098,WS_RECV_END,1516300058176,157
1098,PLAYER_SLEEPBEFORE_START,1516300058176,158
1098,PLAYER_SLEEPBEFORE_END,1516300058186,158
1098,WS_SEND_START,1516300058186,158
1098,WS_SEND_END,1516300058186,158
1098,WS_RECV_START,1516300058186,159
1098,WS_RECV_END,1516300058253,159
1098,PLAYER_SLEEPBEFORE_START,1516300058253,160
1098,PLAYER_SLEEPBEFORE_END,1516300058428,160
1098,WS_SEND_START,1516300058428,160
1098,WS_SEND_END,1516300058428,160
1098,WS_RECV_START,1516300058428,161
1098,WS_RECV_END,1516300058629,161
1098,PLAYER_SLEEPBEFORE_START,1516300058629,162
1098,PLAYER_SLEEPBEFORE_END,1516300058654,162
1098,WS_SEND_START,1516300058654,162
1098,WS_SEND_END,1516300058654,162
1098,WS_RECV_START,1516300058654,163
1098,WS_RECV_END,1516300059043,163
1098,PLAYER_SLEEPBEFORE_START,1516300059043,164
1098,PLAYER_SLEEPBEFORE_END,1516300079855,164
1098,WS_SEND_START,1516300079855,164
1098,WS_SEND_END,1516300079855,164
1098,WS_RECV_START,1516300079855,165
1098,WS_RECV_END,1516300080505,165
1098,PLAYER_SLEEPBEFORE_START,1516300080505,166
1098,PLAYER_SLEEPBEFORE_END,1516300102960,166
1098,WS_SEND_START,1516300102960,166
1098,WS_SEND_END,1516300102960,166
1098,WS_RECV_START,1516300102960,167
1098,WS_RECV_END,1516300104161,167
1098,PLAYER_SLEEPBEFORE_START,1516300104161,168
1098,PLAYER_SLEEPBEFORE_END,1516300131518,168
1098,WS_SEND_START,1516300131518,168
1098,WS_SEND_END,1516300131518,168
1098,WS_RECV_START,1516300131518,169
1098,WS_RECV_END,1516300136102,169
1098,PLAYER_SLEEPBEFORE_START,1516300136102,170
1098,PLAYER_SLEEPBEFORE_END,1516300136111,170
1098,WS_SEND_START,1516300136111,170
1098,WS_SEND_END,1516300136111,170
1098,WS_RECV_START,1516300136111,171
1098,WS_RECV_END,1516300138489,171
1098,PLAYER_SLEEPBEFORE_START,1516300138489,172
1098,PLAYER_SLEEPBEFORE_END,1516300138858,172
1098,WS_SEND_START,1516300138858,172
1098,WS_SEND_END,1516300138858,172
1098,WS_RECV_START,1516300138858,173
1098,WS_RECV_END,1516300141679,173
1098,PLAYER_SLEEPBEFORE_START,1516300141679,174
1098,PLAYER_SLEEPBEFORE_END,1516300141720,174
1098,WS_SEND_START,1516300141720,174
1098,WS_SEND_END,1516300141720,174
1098,WS_RECV_START,1516300141720,175
1098,WS_RECV_END,1516300145094,175
1098,PLAYER_SLEEPBEFORE_START,1516300145094,176
1098,PLAYER_SLEEPBEFORE_END,1516300166855,176
1098,WS_SEND_START,1516300166855,176
1098,WS_SEND_END,1516300166855,176
1098,PLAYER_SLEEPBEFORE_START,1516300166855,177
1098,PLAYER_SLEEPBEFORE_END,1516300169374,177
1098,WS_SEND_START,1516300169374,177
1098,WS_SEND_END,1516300169374,177
1098,WS_RECV_START,1516300169374,178
1098,WS_RECV_END,1516300174532,178
1098,PLAYER_SLEEPBEFORE_START,1516300174532,179
1098,PLAYER_SLEEPBEFORE_END,1516300196872,179
1098,WS_SEND_START,1516300196872,179
1098,WS_SEND_END,1516300196872,179
1098,WS_RECV_START,1516300196872,180
1098,WS_RECV_END,1516300202048,180
1098,PLAYER_SLEEPBEFORE_START,1516300202048,181
1098,PLAYER_SLEEPBEFORE_END,1516300202492,181
1098,WS_SEND_START,1516300202492,181
1098,WS_SEND_END,1516300202492,181
1098,WS_RECV_START,1516300202492,182
1098,WS_RECV_END,1516300203865,182
1098,PLAYER_SLEEPBEFORE_START,1516300203865,183
1098,PLAYER_SLEEPBEFORE_END,1516300204388,183
1098,WS_SEND_START,1516300204388,183
1098,WS_SEND_END,1516300204388,183
1098,WS_RECV_START,1516300204388,184
1098,WS_RECV_END,1516300207258,184
1098,PLAYER_SLEEPBEFORE_START,1516300207258,185
1098,PLAYER_SLEEPBEFORE_END,1516300207526,185
1098,WS_SEND_START,1516300207526,185
1098,WS_SEND_END,1516300207526,185
1098,WS_RECV_START,1516300207526,186
1098,WS_RECV_END,1516300209696,186
1098,PLAYER_SLEEPBEFORE_START,1516300209696,187
1098,PLAYER_SLEEPBEFORE_END,1516300232196,187
1098,WS_SEND_START,1516300232196,187
1098,WS_SEND_END,1516300232196,187
1098,WS_RECV_START,1516300232196,188
1098,WS_RECV_END,1516300235792,188
1098,PLAYER_SLEEPBEFORE_START,1516300235792,189
1098,PLAYER_SLEEPBEFORE_END,1516300242031,189
1098,WS_SEND_START,1516300242031,189
1098,WS_SEND_END,1516300242031,189
1098,WS_RECV_START,1516300242031,190
1098,WS_RECV_END,1516300244014,190
1098,PLAYER_SLEEPBEFORE_START,1516300244014,191
1098,PLAYER_SLEEPBEFORE_END,1516300245929,191
1098,WS_SEND_START,1516300245929,191
1098,WS_SEND_END,1516300245929,191
1098,WS_RECV_START,1516300245929,192
1098,WS_RECV_END,1516300247826,192
1098,PLAYER_SLEEPBEFORE_START,1516300247826,193
1098,PLAYER_SLEEPBEFORE_END,1516300247954,193
1098,WS_SEND_START,1516300247954,193
1098,WS_SEND_END,1516300247954,193
1098,WS_RECV_START,1516300247954,194
1098,WS_RECV_END,1516300248815,194
1098,PLAYER_SLEEPBEFORE_START,1516300248815,195
1098,PLAYER_SLEEPBEFORE_END,1516300250570,195
1098,WS_SEND_START,1516300250570,195
1098,WS_SEND_END,1516300250570,195
1098,WS_RECV_START,1516300250570,196
1098,WS_RECV_END,1516300251813,196
1098,PLAYER_SLEEPBEFORE_START,1516300251813,197
1098,PLAYER_SLEEPBEFORE_END,1516300253617,197
1098,WS_SEND_START,1516300253617,197
1098,WS_SEND_END,1516300253617,197
1098,WS_RECV_START,1516300253617,198
1098,WS_RECV_END,1516300255490,198
1098,PLAYER_SLEEPBEFORE_START,1516300255490,199
1098,PLAYER_SLEEPBEFORE_END,1516300267344,199
1098,WS_SEND_START,1516300267344,199
1098,WS_SEND_END,1516300267344,199
1098,PLAYER_SLEEPBEFORE_START,1516300267344,200
1098,PLAYER_SLEEPBEFORE_END,1516300271432,200
1098,WS_SEND_START,1516300271432,200
1098,WS_SEND_END,1516300271432,200
1098,WS_RECV_START,1516300271432,201
1098,WS_RECV_END,1516300272235,201
1098,PLAYER_SLEEPBEFORE_START,1516300272236,202
1098,PLAYER_SLEEPBEFORE_END,1516300272250,202
1098,WS_SEND_START,1516300272250,202
1098,WS_SEND_END,1516300272250,202
1098,WS_RECV_START,1516300272250,203
1098,WS_RECV_END,1516300273571,203
1098,PLAYER_SLEEPBEFORE_START,1516300273571,204
1098,PLAYER_SLEEPBEFORE_END,1516300293220,204
1098,WS_SEND_START,1516300293220,204
1098,WS_SEND_END,1516300293220,204
1098,PLAYER_SLEEPBEFORE_START,1516300293220,205
1098,PLAYER_SLEEPBEFORE_END,1516300297118,205
1098,WS_SEND_START,1516300297118,205
1098,WS_SEND_END,1516300297118,205
1098,WS_RECV_START,1516300297118,206
1098,WS_RECV_END,1516300298224,206
1098,PLAYER_SLEEPBEFORE_START,1516300298224,207
1098,PLAYER_SLEEPBEFORE_END,1516300315156,207
1098,REQ_START,1516300315156,207
1098,REQ_END,1516300315162,207
1098,PLAYER_SLEEPBEFORE_START,1516300315162,208
1098,PLAYER_SLEEPBEFORE_END,1516300322014,208
1098,WS_CLOSE_START,1516300322014,208
1098,WS_CLOSE_END,1516300322014,208
1098,PLAYER_DONE,1516300322014
