# --sessions 2700 --app-url=http://shinyloadtest.rstudioservices.com/cran_explorer --output-dir test2700 --overwrite-output --log-level warn --start-interval 100 15min.log
thread_id,event,timestamp,input_line_number,comment
1131,PLAYER_SESSION_CREATE,1516299245881
1131,PLAYER_START_INTERVAL_START,1516299245881
1131,PLAYER_START_INTERVAL_END,1516299358981
1131,REQ_HOME_START,1516299358981,2
1131,REQ_HOME_END,1516299359075,2
1131,REQ_START,1516299359075,3
1131,REQ_END,1516299359110,3
1131,REQ_START,1516299359110,4
1131,REQ_END,1516299359152,4
1131,REQ_START,1516299359152,5
1131,REQ_END,1516299359186,5
1131,REQ_START,1516299359186,6
1131,REQ_END,1516299359231,6
1131,REQ_START,1516299359231,7
1131,REQ_END,1516299359276,7
1131,REQ_START,1516299359276,8
1131,REQ_END,1516299359314,8
1131,REQ_START,1516299359314,9
1131,REQ_END,1516299359353,9
1131,REQ_START,1516299359353,10
1131,REQ_END,1516299359357,10
1131,REQ_START,1516299359357,11
1131,REQ_END,1516299359395,11
1131,REQ_START,1516299359395,12
1131,REQ_END,1516299359402,12
1131,REQ_START,1516299359402,13
1131,REQ_END,1516299359440,13
1131,REQ_START,1516299359440,14
1131,REQ_END,1516299359453,14
1131,REQ_START,1516299359453,15
1131,REQ_END,1516299359650,15
1131,REQ_TOK_START,1516299359650,16
1131,REQ_TOK_END,1516299359654,16
1131,REQ_SINF_START,1516299359654,17
1131,REQ_SINF_END,1516299359658,17
1131,WS_OPEN_START,1516299359658,18
1131,WS_OPEN_END,1516299359664,18
1131,REQ_START,1516299359664,19
1131,REQ_END,1516299359692,19
1131,WS_RECV_START,1516299359692,20
1131,WS_RECV_END,1516299359692,20
1131,PLAYER_SLEEPBEFORE_START,1516299359692,21
1131,PLAYER_SLEEPBEFORE_END,1516299359697,21
1131,WS_SEND_START,1516299359697,21
1131,WS_SEND_END,1516299359697,21
1131,PLAYER_SLEEPBEFORE_START,1516299359697,22
1131,PLAYER_SLEEPBEFORE_END,1516299359699,22
1131,WS_SEND_START,1516299359699,22
1131,WS_SEND_END,1516299359699,22
1131,WS_RECV_INIT_START,1516299359699,23
1131,WS_RECV_INIT_END,1516299359826,23
1131,WS_RECV_START,1516299359826,24
1131,WS_RECV_END,1516299359878,24
1131,PLAYER_SLEEPBEFORE_START,1516299359878,25
1131,PLAYER_SLEEPBEFORE_END,1516299359885,25
1131,REQ_START,1516299359885,25
1131,REQ_END,1516299360068,25
1131,PLAYER_SLEEPBEFORE_START,1516299360068,26
1131,PLAYER_SLEEPBEFORE_END,1516299360069,26
1131,REQ_START,1516299360069,26
1131,REQ_END,1516299360250,26
1131,PLAYER_SLEEPBEFORE_START,1516299360250,27
1131,PLAYER_SLEEPBEFORE_END,1516299360253,27
1131,REQ_START,1516299360253,27
1131,REQ_END,1516299360293,27
1131,PLAYER_SLEEPBEFORE_START,1516299360293,28
1131,PLAYER_SLEEPBEFORE_END,1516299360578,28
1131,REQ_START,1516299360578,28
1131,REQ_END,1516299360620,28
1131,PLAYER_SLEEPBEFORE_START,1516299360620,29
1131,PLAYER_SLEEPBEFORE_END,1516299360795,29
1131,WS_SEND_START,1516299360795,29
1131,WS_SEND_END,1516299360795,29
1131,WS_RECV_START,1516299360795,30
1131,WS_RECV_END,1516299360967,30
1131,PLAYER_SLEEPBEFORE_START,1516299360967,31
1131,PLAYER_SLEEPBEFORE_END,1516299360979,31
1131,REQ_START,1516299360979,31
1131,REQ_END,1516299361017,31
1131,PLAYER_SLEEPBEFORE_START,1516299361017,32
1131,PLAYER_SLEEPBEFORE_END,1516299389162,32
1131,WS_SEND_START,1516299389162,32
1131,WS_SEND_END,1516299389162,32
1131,WS_RECV_START,1516299389162,33
1131,WS_RECV_END,1516299389346,33
1131,PLAYER_SLEEPBEFORE_START,1516299389346,34
1131,PLAYER_SLEEPBEFORE_END,1516299415274,34
1131,WS_SEND_START,1516299415274,34
1131,WS_SEND_END,1516299415274,34
1131,WS_RECV_START,1516299415274,35
1131,WS_RECV_END,1516299415339,35
1131,PLAYER_SLEEPBEFORE_START,1516299415339,36
1131,PLAYER_SLEEPBEFORE_END,1516299415348,36
1131,WS_SEND_START,1516299415348,36
1131,WS_SEND_END,1516299415348,36
1131,WS_RECV_START,1516299415348,37
1131,WS_RECV_END,1516299415496,37
1131,PLAYER_SLEEPBEFORE_START,1516299415496,38
1131,PLAYER_SLEEPBEFORE_END,1516299418691,38
1131,WS_SEND_START,1516299418691,38
1131,WS_SEND_END,1516299418691,38
1131,WS_RECV_START,1516299418691,39
1131,WS_RECV_END,1516299418828,39
1131,PLAYER_SLEEPBEFORE_START,1516299418828,40
1131,PLAYER_SLEEPBEFORE_END,1516299418875,40
1131,WS_SEND_START,1516299418875,40
1131,WS_SEND_END,1516299418875,40
1131,WS_RECV_START,1516299418875,41
1131,WS_RECV_END,1516299419296,41
1131,PLAYER_SLEEPBEFORE_START,1516299419296,42
1131,PLAYER_SLEEPBEFORE_END,1516299437431,42
1131,WS_SEND_START,1516299437431,42
1131,WS_SEND_END,1516299437431,42
1131,WS_RECV_START,1516299437431,43
1131,WS_RECV_END,1516299437540,43
1131,PLAYER_SLEEPBEFORE_START,1516299437540,44
1131,PLAYER_SLEEPBEFORE_END,1516299437553,44
1131,WS_SEND_START,1516299437553,44
1131,WS_SEND_END,1516299437553,44
1131,WS_RECV_START,1516299437553,45
1131,WS_RECV_END,1516299437629,45
1131,PLAYER_SLEEPBEFORE_START,1516299437629,46
1131,PLAYER_SLEEPBEFORE_END,1516299438890,46
1131,WS_SEND_START,1516299438890,46
1131,WS_SEND_END,1516299438890,46
1131,WS_RECV_START,1516299438890,47
1131,WS_RECV_END,1516299439001,47
1131,PLAYER_SLEEPBEFORE_START,1516299439001,48
1131,PLAYER_SLEEPBEFORE_END,1516299440321,48
1131,WS_SEND_START,1516299440321,48
1131,WS_SEND_END,1516299440321,48
1131,WS_RECV_START,1516299440321,49
1131,WS_RECV_END,1516299440656,49
1131,PLAYER_SLEEPBEFORE_START,1516299440656,50
1131,PLAYER_SLEEPBEFORE_END,1516299440726,50
1131,WS_SEND_START,1516299440726,50
1131,WS_SEND_END,1516299440726,50
1131,WS_RECV_START,1516299440726,51
1131,WS_RECV_END,1516299440904,51
1131,PLAYER_SLEEPBEFORE_START,1516299440904,52
1131,PLAYER_SLEEPBEFORE_END,1516299463468,52
1131,WS_SEND_START,1516299463468,52
1131,WS_SEND_END,1516299463468,52
1131,WS_RECV_START,1516299463468,53
1131,WS_RECV_END,1516299463739,53
1131,PLAYER_SLEEPBEFORE_START,1516299463739,54
1131,PLAYER_SLEEPBEFORE_END,1516299485042,54
1131,WS_SEND_START,1516299485042,54
1131,WS_SEND_END,1516299485042,54
1131,PLAYER_SLEEPBEFORE_START,1516299485042,55
1131,PLAYER_SLEEPBEFORE_END,1516299486983,55
1131,WS_SEND_START,1516299486983,55
1131,WS_SEND_END,1516299486983,55
1131,WS_RECV_START,1516299486983,56
1131,WS_RECV_END,1516299487405,56
1131,PLAYER_SLEEPBEFORE_START,1516299487405,57
1131,PLAYER_SLEEPBEFORE_END,1516299510281,57
1131,WS_SEND_START,1516299510281,57
1131,WS_SEND_END,1516299510281,57
1131,WS_RECV_START,1516299510281,58
1131,WS_RECV_END,1516299510656,58
1131,PLAYER_SLEEPBEFORE_START,1516299510656,59
1131,PLAYER_SLEEPBEFORE_END,1516299512983,59
1131,WS_SEND_START,1516299512983,59
1131,WS_SEND_END,1516299512983,59
1131,WS_RECV_START,1516299512983,60
1131,WS_RECV_END,1516299513456,60
1131,PLAYER_SLEEPBEFORE_START,1516299513456,61
1131,PLAYER_SLEEPBEFORE_END,1516299517047,61
1131,WS_SEND_START,1516299517047,61
1131,WS_SEND_END,1516299517047,61
1131,WS_RECV_START,1516299517047,62
1131,WS_RECV_END,1516299518417,62
1131,PLAYER_SLEEPBEFORE_START,1516299518417,63
1131,PLAYER_SLEEPBEFORE_END,1516299537680,63
1131,WS_SEND_START,1516299537680,63
1131,WS_SEND_END,1516299537680,63
1131,WS_RECV_START,1516299537680,64
1131,WS_RECV_END,1516299541308,64
1131,PLAYER_SLEEPBEFORE_START,1516299541308,65
1131,PLAYER_SLEEPBEFORE_END,1516299568126,65
1131,WS_SEND_START,1516299568126,65
1131,WS_SEND_END,1516299568126,65
1131,WS_RECV_START,1516299568126,66
1131,WS_RECV_END,1516299569461,66
1131,PLAYER_SLEEPBEFORE_START,1516299569461,67
1131,PLAYER_SLEEPBEFORE_END,1516299570969,67
1131,WS_SEND_START,1516299570969,67
1131,WS_SEND_END,1516299570969,67
1131,WS_RECV_START,1516299570969,68
1131,WS_RECV_END,1516299572535,68
1131,PLAYER_SLEEPBEFORE_START,1516299572535,69
1131,PLAYER_SLEEPBEFORE_END,1516299594533,69
1131,WS_SEND_START,1516299594533,69
1131,WS_SEND_END,1516299594533,69
1131,WS_RECV_START,1516299594533,70
1131,WS_RECV_END,1516299595939,70
1131,PLAYER_SLEEPBEFORE_START,1516299595939,71
1131,PLAYER_SLEEPBEFORE_END,1516299620714,71
1131,WS_SEND_START,1516299620714,71
1131,WS_SEND_END,1516299620714,71
1131,PLAYER_SLEEPBEFORE_START,1516299620714,72
1131,PLAYER_SLEEPBEFORE_END,1516299623322,72
1131,WS_SEND_START,1516299623322,72
1131,WS_SEND_END,1516299623322,72
1131,WS_RECV_START,1516299623322,73
1131,WS_RECV_END,1516299623647,73
1131,PLAYER_SLEEPBEFORE_START,1516299623647,74
1131,PLAYER_SLEEPBEFORE_END,1516299623656,74
1131,WS_SEND_START,1516299623656,74
1131,WS_SEND_END,1516299623656,74
1131,WS_RECV_START,1516299623656,75
1131,WS_RECV_END,1516299624257,75
1131,PLAYER_SLEEPBEFORE_START,1516299624257,76
1131,PLAYER_SLEEPBEFORE_END,1516299625763,76
1131,WS_SEND_START,1516299625763,76
1131,WS_SEND_END,1516299625763,76
1131,WS_RECV_START,1516299625763,77
1131,WS_RECV_END,1516299626808,77
1131,PLAYER_SLEEPBEFORE_START,1516299626808,78
1131,PLAYER_SLEEPBEFORE_END,1516299627676,78
1131,WS_SEND_START,1516299627676,78
1131,WS_SEND_END,1516299627676,78
1131,WS_RECV_START,1516299627676,79
1131,WS_RECV_END,1516299628312,79
1131,PLAYER_SLEEPBEFORE_START,1516299628312,80
1131,PLAYER_SLEEPBEFORE_END,1516299635978,80
1131,WS_SEND_START,1516299635978,80
1131,WS_SEND_END,1516299635978,80
1131,WS_RECV_START,1516299635978,81
1131,WS_RECV_END,1516299637047,81
1131,PLAYER_SLEEPBEFORE_START,1516299637047,82
1131,PLAYER_SLEEPBEFORE_END,1516299638149,82
1131,WS_SEND_START,1516299638149,82
1131,WS_SEND_END,1516299638149,82
1131,WS_RECV_START,1516299638149,83
1131,WS_RECV_END,1516299638998,83
1131,PLAYER_SLEEPBEFORE_START,1516299638998,84
1131,PLAYER_SLEEPBEFORE_END,1516299639946,84
1131,WS_SEND_START,1516299639946,84
1131,WS_SEND_END,1516299639946,84
1131,WS_RECV_START,1516299639946,85
1131,WS_RECV_END,1516299641618,85
1131,PLAYER_SLEEPBEFORE_START,1516299641618,86
1131,PLAYER_SLEEPBEFORE_END,1516299645791,86
1131,WS_SEND_START,1516299645791,86
1131,WS_SEND_END,1516299645791,86
1131,WS_RECV_START,1516299645791,87
1131,WS_RECV_END,1516299647919,87
1131,PLAYER_SLEEPBEFORE_START,1516299647919,88
1131,PLAYER_SLEEPBEFORE_END,1516299647927,88
1131,WS_SEND_START,1516299647927,88
1131,WS_SEND_END,1516299647927,88
1131,WS_RECV_START,1516299647927,89
1131,WS_RECV_END,1516299648633,89
1131,PLAYER_SLEEPBEFORE_START,1516299648633,90
1131,PLAYER_SLEEPBEFORE_END,1516299675830,90
1131,REQ_START,1516299675830,90
1131,REQ_END,1516299675836,90
1131,PLAYER_SLEEPBEFORE_START,1516299675836,91
1131,PLAYER_SLEEPBEFORE_END,1516299683725,91
1131,WS_SEND_START,1516299683725,91
1131,WS_SEND_END,1516299683725,91
1131,WS_RECV_START,1516299683725,92
1131,WS_RECV_END,1516299684055,92
1131,PLAYER_SLEEPBEFORE_START,1516299684055,93
1131,PLAYER_SLEEPBEFORE_END,1516299684071,93
1131,WS_SEND_START,1516299684071,93
1131,WS_SEND_END,1516299684071,93
1131,WS_RECV_START,1516299684071,94
1131,WS_RECV_END,1516299684308,94
1131,PLAYER_SLEEPBEFORE_START,1516299684308,95
1131,PLAYER_SLEEPBEFORE_END,1516299707864,95
1131,WS_SEND_START,1516299707864,95
1131,WS_SEND_END,1516299707864,95
1131,WS_RECV_START,1516299707864,96
1131,WS_RECV_END,1516299708550,96
1131,PLAYER_SLEEPBEFORE_START,1516299708550,97
1131,PLAYER_SLEEPBEFORE_END,1516299730990,97
1131,WS_SEND_START,1516299730990,97
1131,WS_SEND_END,1516299730990,97
1131,WS_RECV_START,1516299730990,98
1131,WS_RECV_END,1516299732832,98
1131,PLAYER_SLEEPBEFORE_START,1516299732832,99
1131,PLAYER_SLEEPBEFORE_END,1516299732853,99
1131,WS_SEND_START,1516299732853,99
1131,WS_SEND_END,1516299732853,99
1131,WS_RECV_START,1516299732853,100
1131,WS_RECV_END,1516299733565,100
1131,PLAYER_SLEEPBEFORE_START,1516299733565,101
1131,PLAYER_SLEEPBEFORE_END,1516299757124,101
1131,WS_SEND_START,1516299757124,101
1131,WS_SEND_END,1516299757124,101
1131,WS_RECV_START,1516299757124,102
1131,WS_RECV_END,1516299758621,102
1131,PLAYER_SLEEPBEFORE_START,1516299758621,103
1131,PLAYER_SLEEPBEFORE_END,1516299782246,103
1131,WS_SEND_START,1516299782246,103
1131,WS_SEND_END,1516299782246,103
1131,WS_RECV_START,1516299782246,104
1131,WS_RECV_END,1516299783402,104
1131,PLAYER_SLEEPBEFORE_START,1516299783402,105
1131,PLAYER_SLEEPBEFORE_END,1516299808779,105
1131,WS_SEND_START,1516299808779,105
1131,WS_SEND_END,1516299808779,105
1131,WS_RECV_START,1516299808779,106
1131,WS_RECV_END,1516299809911,106
1131,PLAYER_SLEEPBEFORE_START,1516299809911,107
1131,PLAYER_SLEEPBEFORE_END,1516299833334,107
1131,WS_SEND_START,1516299833334,107
1131,WS_SEND_END,1516299833334,107
1131,WS_RECV_START,1516299833334,108
1131,WS_RECV_END,1516299835426,108
1131,PLAYER_SLEEPBEFORE_START,1516299835426,109
1131,PLAYER_SLEEPBEFORE_END,1516299835435,109
1131,WS_SEND_START,1516299835435,109
1131,WS_SEND_END,1516299835435,109
1131,WS_RECV_START,1516299835435,110
1131,WS_RECV_END,1516299836178,110
1131,PLAYER_SLEEPBEFORE_START,1516299836178,111
1131,PLAYER_SLEEPBEFORE_END,1516299837138,111
1131,WS_SEND_START,1516299837138,111
1131,WS_SEND_END,1516299837138,111
1131,WS_RECV_START,1516299837138,112
1131,WS_RECV_END,1516299837304,112
1131,PLAYER_SLEEPBEFORE_START,1516299837304,113
1131,PLAYER_SLEEPBEFORE_END,1516299837866,113
1131,WS_SEND_START,1516299837866,113
1131,WS_SEND_END,1516299837867,113
1131,WS_RECV_START,1516299837867,114
1131,WS_RECV_END,1516299839298,114
1131,PLAYER_SLEEPBEFORE_START,1516299839298,115
1131,PLAYER_SLEEPBEFORE_END,1516299839308,115
1131,WS_SEND_START,1516299839308,115
1131,WS_SEND_END,1516299839308,115
1131,WS_RECV_START,1516299839308,116
1131,WS_RECV_END,1516299840170,116
1131,PLAYER_SLEEPBEFORE_START,1516299840170,117
1131,PLAYER_SLEEPBEFORE_END,1516299860530,117
1131,WS_SEND_START,1516299860530,117
1131,WS_SEND_END,1516299860530,117
1131,PLAYER_SLEEPBEFORE_START,1516299860530,118
1131,PLAYER_SLEEPBEFORE_END,1516299864282,118
1131,WS_SEND_START,1516299864282,118
1131,WS_SEND_END,1516299864282,118
1131,WS_RECV_START,1516299864282,119
1131,WS_RECV_END,1516299865534,119
1131,PLAYER_SLEEPBEFORE_START,1516299865535,120
1131,PLAYER_SLEEPBEFORE_END,1516299866523,120
1131,WS_SEND_START,1516299866523,120
1131,WS_SEND_END,1516299866523,120
1131,WS_RECV_START,1516299866523,121
1131,WS_RECV_END,1516299869974,121
1131,PLAYER_SLEEPBEFORE_START,1516299869974,122
1131,PLAYER_SLEEPBEFORE_END,1516299871159,122
1131,WS_SEND_START,1516299871159,122
1131,WS_SEND_END,1516299871159,122
1131,WS_RECV_START,1516299871159,123
1131,WS_RECV_END,1516299873141,123
1131,PLAYER_SLEEPBEFORE_START,1516299873141,124
1131,PLAYER_SLEEPBEFORE_END,1516299897547,124
1131,WS_SEND_START,1516299897547,124
1131,WS_SEND_END,1516299897547,124
1131,WS_RECV_START,1516299897547,125
1131,WS_RECV_END,1516299900867,125
1131,PLAYER_SLEEPBEFORE_START,1516299900867,126
1131,PLAYER_SLEEPBEFORE_END,1516299921380,126
1131,WS_SEND_START,1516299921380,126
1131,WS_SEND_END,1516299921380,126
1131,PLAYER_SLEEPBEFORE_START,1516299921380,127
1131,PLAYER_SLEEPBEFORE_END,1516299924434,127
1131,WS_SEND_START,1516299924434,127
1131,WS_SEND_END,1516299924434,127
1131,WS_RECV_START,1516299924434,128
1131,WS_RECV_END,1516299924913,128
1131,PLAYER_SLEEPBEFORE_START,1516299924913,129
1131,PLAYER_SLEEPBEFORE_END,1516299924933,129
1131,WS_SEND_START,1516299924933,129
1131,WS_SEND_END,1516299924933,129
1131,WS_RECV_START,1516299924933,130
1131,WS_RECV_END,1516299925197,130
1131,PLAYER_SLEEPBEFORE_START,1516299925197,131
1131,PLAYER_SLEEPBEFORE_END,1516299946821,131
1131,WS_SEND_START,1516299946821,131
1131,WS_SEND_END,1516299946821,131
1131,PLAYER_SLEEPBEFORE_START,1516299946821,132
1131,PLAYER_SLEEPBEFORE_END,1516299949902,132
1131,WS_SEND_START,1516299949902,132
1131,WS_SEND_END,1516299949902,132
1131,WS_RECV_START,1516299949902,133
1131,WS_RECV_END,1516299951515,133
1131,PLAYER_SLEEPBEFORE_START,1516299951515,134
1131,PLAYER_SLEEPBEFORE_END,1516299972732,134
1131,WS_SEND_START,1516299972732,134
1131,WS_SEND_END,1516299972732,134
1131,PLAYER_SLEEPBEFORE_START,1516299972732,135
1131,PLAYER_SLEEPBEFORE_END,1516299975923,135
1131,WS_SEND_START,1516299975923,135
1131,WS_SEND_END,1516299975923,135
1131,WS_RECV_START,1516299975923,136
1131,WS_RECV_END,1516299977259,136
1131,PLAYER_SLEEPBEFORE_START,1516299977259,137
1131,PLAYER_SLEEPBEFORE_END,1516299977267,137
1131,WS_SEND_START,1516299977267,137
1131,WS_SEND_END,1516299977267,137
1131,WS_RECV_START,1516299977267,138
1131,WS_RECV_END,1516299977671,138
1131,PLAYER_SLEEPBEFORE_START,1516299977671,139
1131,PLAYER_SLEEPBEFORE_END,1516299978361,139
1131,WS_SEND_START,1516299978361,139
1131,WS_SEND_END,1516299978361,139
1131,WS_RECV_START,1516299978361,140
1131,WS_RECV_END,1516299979281,140
1131,PLAYER_SLEEPBEFORE_START,1516299979281,141
1131,PLAYER_SLEEPBEFORE_END,1516299979936,141
1131,WS_SEND_START,1516299979936,141
1131,WS_SEND_END,1516299979936,141
1131,WS_RECV_START,1516299979936,142
1131,WS_RECV_END,1516299980727,142
1131,PLAYER_SLEEPBEFORE_START,1516299980727,143
1131,PLAYER_SLEEPBEFORE_END,1516299980784,143
1131,WS_SEND_START,1516299980784,143
1131,WS_SEND_END,1516299980784,143
1131,WS_RECV_START,1516299980784,144
1131,WS_RECV_END,1516299981068,144
1131,PLAYER_SLEEPBEFORE_START,1516299981068,145
1131,PLAYER_SLEEPBEFORE_END,1516299997130,145
1131,REQ_START,1516299997130,145
1131,REQ_END,1516299997136,145
1131,PLAYER_SLEEPBEFORE_START,1516299997136,146
1131,PLAYER_SLEEPBEFORE_END,1516300006014,146
1131,WS_SEND_START,1516300006014,146
1131,WS_SEND_END,1516300006014,146
1131,WS_RECV_START,1516300006014,147
1131,WS_RECV_END,1516300007816,147
1131,PLAYER_SLEEPBEFORE_START,1516300007816,148
1131,PLAYER_SLEEPBEFORE_END,1516300029738,148
1131,WS_SEND_START,1516300029738,148
1131,WS_SEND_END,1516300029738,148
1131,PLAYER_SLEEPBEFORE_START,1516300029738,149
1131,PLAYER_SLEEPBEFORE_END,1516300032166,149
1131,WS_SEND_START,1516300032166,149
1131,WS_SEND_END,1516300032166,149
1131,WS_RECV_START,1516300032166,150
1131,WS_RECV_END,1516300033050,150
1131,PLAYER_SLEEPBEFORE_START,1516300033050,151
1131,PLAYER_SLEEPBEFORE_END,1516300033260,151
1131,WS_SEND_START,1516300033260,151
1131,WS_SEND_END,1516300033260,151
1131,WS_RECV_START,1516300033260,152
1131,WS_RECV_END,1516300033983,152
1131,PLAYER_SLEEPBEFORE_START,1516300033983,153
1131,PLAYER_SLEEPBEFORE_END,1516300057910,153
1131,WS_SEND_START,1516300057910,153
1131,WS_SEND_END,1516300057910,153
1131,WS_RECV_START,1516300057910,154
1131,WS_RECV_END,1516300059114,154
1131,PLAYER_SLEEPBEFORE_START,1516300059114,155
1131,PLAYER_SLEEPBEFORE_END,1516300081672,155
1131,WS_SEND_START,1516300081672,155
1131,WS_SEND_END,1516300081672,155
1131,PLAYER_SLEEPBEFORE_START,1516300081672,156
1131,PLAYER_SLEEPBEFORE_END,1516300084947,156
1131,WS_SEND_START,1516300084947,156
1131,WS_SEND_END,1516300084947,156
1131,WS_RECV_START,1516300084947,157
1131,WS_RECV_END,1516300086682,157
1131,PLAYER_SLEEPBEFORE_START,1516300086682,158
1131,PLAYER_SLEEPBEFORE_END,1516300086692,158
1131,WS_SEND_START,1516300086692,158
1131,WS_SEND_END,1516300086692,158
1131,WS_RECV_START,1516300086693,159
1131,WS_RECV_END,1516300087360,159
1131,PLAYER_SLEEPBEFORE_START,1516300087360,160
1131,PLAYER_SLEEPBEFORE_END,1516300087535,160
1131,WS_SEND_START,1516300087535,160
1131,WS_SEND_END,1516300087535,160
1131,WS_RECV_START,1516300087535,161
1131,WS_RECV_END,1516300088112,161
1131,PLAYER_SLEEPBEFORE_START,1516300088112,162
1131,PLAYER_SLEEPBEFORE_END,1516300088137,162
1131,WS_SEND_START,1516300088137,162
1131,WS_SEND_END,1516300088137,162
1131,WS_RECV_START,1516300088137,163
1131,WS_RECV_END,1516300088759,163
1131,PLAYER_SLEEPBEFORE_START,1516300088759,164
1131,PLAYER_SLEEPBEFORE_END,1516300109571,164
1131,WS_SEND_START,1516300109571,164
1131,WS_SEND_END,1516300109571,164
1131,WS_RECV_START,1516300109571,165
1131,WS_RECV_END,1516300110708,165
1131,PLAYER_SLEEPBEFORE_START,1516300110708,166
1131,PLAYER_SLEEPBEFORE_END,1516300133164,166
1131,WS_SEND_START,1516300133164,166
1131,WS_SEND_END,1516300133164,166
1131,WS_RECV_START,1516300133164,167
1131,WS_RECV_END,1516300136407,167
1131,PLAYER_SLEEPBEFORE_START,1516300136407,168
1131,PLAYER_SLEEPBEFORE_END,1516300163764,168
1131,WS_SEND_START,1516300163764,168
1131,WS_SEND_END,1516300163764,168
1131,WS_RECV_START,1516300163764,169
1131,WS_RECV_END,1516300167820,169
1131,PLAYER_SLEEPBEFORE_START,1516300167820,170
1131,PLAYER_SLEEPBEFORE_END,1516300167829,170
1131,WS_SEND_START,1516300167829,170
1131,WS_SEND_END,1516300167829,170
1131,WS_RECV_START,1516300167829,171
1131,WS_RECV_END,1516300170223,171
1131,PLAYER_SLEEPBEFORE_START,1516300170223,172
1131,PLAYER_SLEEPBEFORE_END,1516300170592,172
1131,WS_SEND_START,1516300170592,172
1131,WS_SEND_END,1516300170592,172
1131,WS_RECV_START,1516300170592,173
1131,WS_RECV_END,1516300172838,173
1131,PLAYER_SLEEPBEFORE_START,1516300172838,174
1131,PLAYER_SLEEPBEFORE_END,1516300172879,174
1131,WS_SEND_START,1516300172879,174
1131,WS_SEND_END,1516300172879,174
1131,WS_RECV_START,1516300172879,175
1131,WS_RECV_END,1516300175622,175
1131,PLAYER_SLEEPBEFORE_START,1516300175622,176
1131,PLAYER_SLEEPBEFORE_END,1516300197383,176
1131,WS_SEND_START,1516300197383,176
1131,WS_SEND_END,1516300197383,176
1131,PLAYER_SLEEPBEFORE_START,1516300197383,177
1131,PLAYER_SLEEPBEFORE_END,1516300199901,177
1131,WS_SEND_START,1516300199901,177
1131,WS_SEND_END,1516300199901,177
1131,WS_RECV_START,1516300199901,178
1131,WS_RECV_END,1516300203417,178
1131,PLAYER_SLEEPBEFORE_START,1516300203417,179
1131,PLAYER_SLEEPBEFORE_END,1516300225757,179
1131,WS_SEND_START,1516300225757,179
1131,WS_SEND_END,1516300225757,179
1131,WS_RECV_START,1516300225757,180
1131,WS_RECV_END,1516300233504,180
1131,PLAYER_SLEEPBEFORE_START,1516300233504,181
1131,PLAYER_SLEEPBEFORE_END,1516300233948,181
1131,WS_SEND_START,1516300233948,181
1131,WS_SEND_END,1516300233948,181
1131,WS_RECV_START,1516300233948,182
1131,WS_RECV_END,1516300240262,182
1131,PLAYER_SLEEPBEFORE_START,1516300240262,183
1131,PLAYER_SLEEPBEFORE_END,1516300240785,183
1131,WS_SEND_START,1516300240785,183
1131,WS_SEND_END,1516300240785,183
1131,WS_RECV_START,1516300240785,184
1131,WS_RECV_END,1516300243071,184
1131,PLAYER_SLEEPBEFORE_START,1516300243071,185
1131,PLAYER_SLEEPBEFORE_END,1516300243339,185
1131,WS_SEND_START,1516300243339,185
1131,WS_SEND_END,1516300243339,185
1131,WS_RECV_START,1516300243339,186
1131,WS_RECV_END,1516300246121,186
1131,PLAYER_SLEEPBEFORE_START,1516300246121,187
1131,PLAYER_SLEEPBEFORE_END,1516300268621,187
1131,WS_SEND_START,1516300268621,187
1131,WS_SEND_END,1516300268621,187
1131,WS_RECV_START,1516300268621,188
1131,WS_RECV_END,1516300272589,188
1131,PLAYER_SLEEPBEFORE_START,1516300272589,189
1131,PLAYER_SLEEPBEFORE_END,1516300278828,189
1131,WS_SEND_START,1516300278828,189
1131,WS_SEND_END,1516300278828,189
1131,WS_RECV_START,1516300278828,190
1131,WS_RECV_END,1516300281573,190
1131,PLAYER_SLEEPBEFORE_START,1516300281573,191
1131,PLAYER_SLEEPBEFORE_END,1516300283489,191
1131,WS_SEND_START,1516300283489,191
1131,WS_SEND_END,1516300283489,191
1131,WS_RECV_START,1516300283489,192
1131,WS_RECV_END,1516300285317,192
1131,PLAYER_SLEEPBEFORE_START,1516300285317,193
1131,PLAYER_SLEEPBEFORE_END,1516300285446,193
1131,WS_SEND_START,1516300285446,193
1131,WS_SEND_END,1516300285446,193
1131,WS_RECV_START,1516300285446,194
1131,WS_RECV_END,1516300288442,194
1131,PLAYER_SLEEPBEFORE_START,1516300288442,195
1131,PLAYER_SLEEPBEFORE_END,1516300290197,195
1131,WS_SEND_START,1516300290197,195
1131,WS_SEND_END,1516300290197,195
1131,WS_RECV_START,1516300290197,196
1131,WS_RECV_END,1516300292534,196
1131,PLAYER_SLEEPBEFORE_START,1516300292535,197
1131,PLAYER_SLEEPBEFORE_END,1516300294339,197
1131,WS_SEND_START,1516300294339,197
1131,WS_SEND_END,1516300294339,197
1131,WS_RECV_START,1516300294339,198
1131,WS_RECV_END,1516300297204,198
1131,PLAYER_SLEEPBEFORE_START,1516300297204,199
1131,PLAYER_SLEEPBEFORE_END,1516300309058,199
1131,WS_SEND_START,1516300309058,199
1131,WS_SEND_END,1516300309058,199
1131,PLAYER_SLEEPBEFORE_START,1516300309058,200
1131,PLAYER_SLEEPBEFORE_END,1516300313146,200
1131,WS_SEND_START,1516300313146,200
1131,WS_SEND_END,1516300313147,200
1131,WS_RECV_START,1516300313147,201
1131,WS_RECV_END,1516300314471,201
1131,PLAYER_SLEEPBEFORE_START,1516300314471,202
1131,PLAYER_SLEEPBEFORE_END,1516300314485,202
1131,WS_SEND_START,1516300314485,202
1131,WS_SEND_END,1516300314485,202
1131,WS_RECV_START,1516300314485,203
1131,WS_RECV_END,1516300315877,203
1131,PLAYER_SLEEPBEFORE_START,1516300315877,204
1131,PLAYER_SLEEPBEFORE_END,1516300335526,204
1131,WS_SEND_START,1516300335526,204
1131,WS_SEND_END,1516300335526,204
1131,PLAYER_SLEEPBEFORE_START,1516300335526,205
1131,PLAYER_SLEEPBEFORE_END,1516300339424,205
1131,WS_SEND_START,1516300339424,205
1131,WS_SEND_END,1516300339424,205
1131,WS_RECV_START,1516300339424,206
1131,WS_RECV_END,1516300339595,206
1131,PLAYER_SLEEPBEFORE_START,1516300339595,207
1131,PLAYER_SLEEPBEFORE_END,1516300356526,207
1131,REQ_START,1516300356526,207
1131,REQ_END,1516300356531,207
1131,PLAYER_SLEEPBEFORE_START,1516300356532,208
1131,PLAYER_SLEEPBEFORE_END,1516300363384,208
1131,WS_CLOSE_START,1516300363384,208
1131,WS_CLOSE_END,1516300363384,208
1131,PLAYER_DONE,1516300363384
