# --sessions 2700 --app-url=http://shinyloadtest.rstudioservices.com/cran_explorer --output-dir test2700 --overwrite-output --log-level warn --start-interval 100 15min.log
thread_id,event,timestamp,input_line_number,comment
1180,PLAYER_SESSION_CREATE,1516299245895
1180,PLAYER_START_INTERVAL_START,1516299245895
1180,PLAYER_START_INTERVAL_END,1516299363895
1180,REQ_HOME_START,1516299363896,2
1180,REQ_HOME_END,1516299364068,2
1180,REQ_START,1516299364068,3
1180,REQ_END,1516299364248,3
1180,REQ_START,1516299364248,4
1180,REQ_END,1516299364284,4
1180,REQ_START,1516299364284,5
1180,REQ_END,1516299364321,5
1180,REQ_START,1516299364321,6
1180,REQ_END,1516299364358,6
1180,REQ_START,1516299364358,7
1180,REQ_END,1516299364394,7
1180,REQ_START,1516299364394,8
1180,REQ_END,1516299364428,8
1180,REQ_START,1516299364428,9
1180,REQ_END,1516299364465,9
1180,REQ_START,1516299364465,10
1180,REQ_END,1516299364473,10
1180,REQ_START,1516299364474,11
1180,REQ_END,1516299364508,11
1180,REQ_START,1516299364508,12
1180,REQ_END,1516299364518,12
1180,REQ_START,1516299364518,13
1180,REQ_END,1516299364553,13
1180,REQ_START,1516299364553,14
1180,REQ_END,1516299364569,14
1180,REQ_START,1516299364569,15
1180,REQ_END,1516299364607,15
1180,REQ_TOK_START,1516299364607,16
1180,REQ_TOK_END,1516299364614,16
1180,REQ_SINF_START,1516299364614,17
1180,REQ_SINF_END,1516299364621,17
1180,WS_OPEN_START,1516299364621,18
1180,WS_OPEN_END,1516299364627,18
1180,REQ_START,1516299364627,19
1180,REQ_END,1516299364655,19
1180,WS_RECV_START,1516299364655,20
1180,WS_RECV_END,1516299364655,20
1180,PLAYER_SLEEPBEFORE_START,1516299364655,21
1180,PLAYER_SLEEPBEFORE_END,1516299364661,21
1180,WS_SEND_START,1516299364661,21
1180,WS_SEND_END,1516299364661,21
1180,PLAYER_SLEEPBEFORE_START,1516299364661,22
1180,PLAYER_SLEEPBEFORE_END,1516299364662,22
1180,WS_SEND_START,1516299364662,22
1180,WS_SEND_END,1516299364662,22
1180,WS_RECV_INIT_START,1516299364662,23
1180,WS_RECV_INIT_END,1516299364679,23
1180,WS_RECV_START,1516299364679,24
1180,WS_RECV_END,1516299364742,24
1180,PLAYER_SLEEPBEFORE_START,1516299364742,25
1180,PLAYER_SLEEPBEFORE_END,1516299364750,25
1180,REQ_START,1516299364750,25
1180,REQ_END,1516299364799,25
1180,PLAYER_SLEEPBEFORE_START,1516299364800,26
1180,PLAYER_SLEEPBEFORE_END,1516299364801,26
1180,REQ_START,1516299364801,26
1180,REQ_END,1516299364836,26
1180,PLAYER_SLEEPBEFORE_START,1516299364836,27
1180,PLAYER_SLEEPBEFORE_END,1516299364840,27
1180,REQ_START,1516299364840,27
1180,REQ_END,1516299364878,27
1180,PLAYER_SLEEPBEFORE_START,1516299364878,28
1180,PLAYER_SLEEPBEFORE_END,1516299365163,28
1180,REQ_START,1516299365163,28
1180,REQ_END,1516299365198,28
1180,PLAYER_SLEEPBEFORE_START,1516299365198,29
1180,PLAYER_SLEEPBEFORE_END,1516299365373,29
1180,WS_SEND_START,1516299365373,29
1180,WS_SEND_END,1516299365373,29
1180,WS_RECV_START,1516299365373,30
1180,WS_RECV_END,1516299365502,30
1180,PLAYER_SLEEPBEFORE_START,1516299365502,31
1180,PLAYER_SLEEPBEFORE_END,1516299365514,31
1180,REQ_START,1516299365514,31
1180,REQ_END,1516299365611,31
1180,PLAYER_SLEEPBEFORE_START,1516299365611,32
1180,PLAYER_SLEEPBEFORE_END,1516299393757,32
1180,WS_SEND_START,1516299393757,32
1180,WS_SEND_END,1516299393757,32
1180,WS_RECV_START,1516299393757,33
1180,WS_RECV_END,1516299393912,33
1180,PLAYER_SLEEPBEFORE_START,1516299393912,34
1180,PLAYER_SLEEPBEFORE_END,1516299419823,34
1180,WS_SEND_START,1516299419823,34
1180,WS_SEND_END,1516299419823,34
1180,WS_RECV_START,1516299419823,35
1180,WS_RECV_END,1516299419979,35
1180,PLAYER_SLEEPBEFORE_START,1516299419979,36
1180,PLAYER_SLEEPBEFORE_END,1516299419988,36
1180,WS_SEND_START,1516299419988,36
1180,WS_SEND_END,1516299419988,36
1180,WS_RECV_START,1516299419988,37
1180,WS_RECV_END,1516299420109,37
1180,PLAYER_SLEEPBEFORE_START,1516299420109,38
1180,PLAYER_SLEEPBEFORE_END,1516299423304,38
1180,WS_SEND_START,1516299423304,38
1180,WS_SEND_END,1516299423304,38
1180,WS_RECV_START,1516299423304,39
1180,WS_RECV_END,1516299423536,39
1180,PLAYER_SLEEPBEFORE_START,1516299423536,40
1180,PLAYER_SLEEPBEFORE_END,1516299423582,40
1180,WS_SEND_START,1516299423582,40
1180,WS_SEND_END,1516299423582,40
1180,WS_RECV_START,1516299423582,41
1180,WS_RECV_END,1516299423746,41
1180,PLAYER_SLEEPBEFORE_START,1516299423746,42
1180,PLAYER_SLEEPBEFORE_END,1516299441881,42
1180,WS_SEND_START,1516299441881,42
1180,WS_SEND_END,1516299441881,42
1180,WS_RECV_START,1516299441881,43
1180,WS_RECV_END,1516299441982,43
1180,PLAYER_SLEEPBEFORE_START,1516299441982,44
1180,PLAYER_SLEEPBEFORE_END,1516299441994,44
1180,WS_SEND_START,1516299441994,44
1180,WS_SEND_END,1516299441994,44
1180,WS_RECV_START,1516299441994,45
1180,WS_RECV_END,1516299442037,45
1180,PLAYER_SLEEPBEFORE_START,1516299442037,46
1180,PLAYER_SLEEPBEFORE_END,1516299443297,46
1180,WS_SEND_START,1516299443297,46
1180,WS_SEND_END,1516299443297,46
1180,WS_RECV_START,1516299443297,47
1180,WS_RECV_END,1516299443424,47
1180,PLAYER_SLEEPBEFORE_START,1516299443424,48
1180,PLAYER_SLEEPBEFORE_END,1516299444744,48
1180,WS_SEND_START,1516299444744,48
1180,WS_SEND_END,1516299444744,48
1180,WS_RECV_START,1516299444744,49
1180,WS_RECV_END,1516299444845,49
1180,PLAYER_SLEEPBEFORE_START,1516299444845,50
1180,PLAYER_SLEEPBEFORE_END,1516299444869,50
1180,WS_SEND_START,1516299444869,50
1180,WS_SEND_END,1516299444870,50
1180,WS_RECV_START,1516299444870,51
1180,WS_RECV_END,1516299445061,51
1180,PLAYER_SLEEPBEFORE_START,1516299445061,52
1180,PLAYER_SLEEPBEFORE_END,1516299467625,52
1180,WS_SEND_START,1516299467625,52
1180,WS_SEND_END,1516299467625,52
1180,WS_RECV_START,1516299467625,53
1180,WS_RECV_END,1516299468094,53
1180,PLAYER_SLEEPBEFORE_START,1516299468094,54
1180,PLAYER_SLEEPBEFORE_END,1516299489397,54
1180,WS_SEND_START,1516299489397,54
1180,WS_SEND_END,1516299489397,54
1180,PLAYER_SLEEPBEFORE_START,1516299489397,55
1180,PLAYER_SLEEPBEFORE_END,1516299491338,55
1180,WS_SEND_START,1516299491338,55
1180,WS_SEND_END,1516299491338,55
1180,WS_RECV_START,1516299491338,56
1180,WS_RECV_END,1516299491925,56
1180,PLAYER_SLEEPBEFORE_START,1516299491925,57
1180,PLAYER_SLEEPBEFORE_END,1516299514797,57
1180,WS_SEND_START,1516299514797,57
1180,WS_SEND_END,1516299514797,57
1180,WS_RECV_START,1516299514797,58
1180,WS_RECV_END,1516299515375,58
1180,PLAYER_SLEEPBEFORE_START,1516299515375,59
1180,PLAYER_SLEEPBEFORE_END,1516299517702,59
1180,WS_SEND_START,1516299517702,59
1180,WS_SEND_END,1516299517702,59
1180,WS_RECV_START,1516299517702,60
1180,WS_RECV_END,1516299518078,60
1180,PLAYER_SLEEPBEFORE_START,1516299518078,61
1180,PLAYER_SLEEPBEFORE_END,1516299521669,61
1180,WS_SEND_START,1516299521669,61
1180,WS_SEND_END,1516299521669,61
1180,WS_RECV_START,1516299521669,62
1180,WS_RECV_END,1516299521961,62
1180,PLAYER_SLEEPBEFORE_START,1516299521961,63
1180,PLAYER_SLEEPBEFORE_END,1516299541223,63
1180,WS_SEND_START,1516299541223,63
1180,WS_SEND_END,1516299541223,63
1180,WS_RECV_START,1516299541223,64
1180,WS_RECV_END,1516299542605,64
1180,PLAYER_SLEEPBEFORE_START,1516299542605,65
1180,PLAYER_SLEEPBEFORE_END,1516299569422,65
1180,WS_SEND_START,1516299569422,65
1180,WS_SEND_END,1516299569422,65
1180,WS_RECV_START,1516299569422,66
1180,WS_RECV_END,1516299571916,66
1180,PLAYER_SLEEPBEFORE_START,1516299571916,67
1180,PLAYER_SLEEPBEFORE_END,1516299573423,67
1180,WS_SEND_START,1516299573423,67
1180,WS_SEND_END,1516299573423,67
1180,WS_RECV_START,1516299573423,68
1180,WS_RECV_END,1516299575302,68
1180,PLAYER_SLEEPBEFORE_START,1516299575302,69
1180,PLAYER_SLEEPBEFORE_END,1516299597301,69
1180,WS_SEND_START,1516299597301,69
1180,WS_SEND_END,1516299597301,69
1180,WS_RECV_START,1516299597301,70
1180,WS_RECV_END,1516299597924,70
1180,PLAYER_SLEEPBEFORE_START,1516299597924,71
1180,PLAYER_SLEEPBEFORE_END,1516299622699,71
1180,WS_SEND_START,1516299622699,71
1180,WS_SEND_END,1516299622699,71
1180,PLAYER_SLEEPBEFORE_START,1516299622699,72
1180,PLAYER_SLEEPBEFORE_END,1516299625306,72
1180,WS_SEND_START,1516299625306,72
1180,WS_SEND_END,1516299625306,72
1180,WS_RECV_START,1516299625306,73
1180,WS_RECV_END,1516299625866,73
1180,PLAYER_SLEEPBEFORE_START,1516299625866,74
1180,PLAYER_SLEEPBEFORE_END,1516299625875,74
1180,WS_SEND_START,1516299625875,74
1180,WS_SEND_END,1516299625875,74
1180,WS_RECV_START,1516299625875,75
1180,WS_RECV_END,1516299626405,75
1180,PLAYER_SLEEPBEFORE_START,1516299626405,76
1180,PLAYER_SLEEPBEFORE_END,1516299627911,76
1180,WS_SEND_START,1516299627912,76
1180,WS_SEND_END,1516299627912,76
1180,WS_RECV_START,1516299627912,77
1180,WS_RECV_END,1516299629205,77
1180,PLAYER_SLEEPBEFORE_START,1516299629205,78
1180,PLAYER_SLEEPBEFORE_END,1516299630073,78
1180,WS_SEND_START,1516299630073,78
1180,WS_SEND_END,1516299630073,78
1180,WS_RECV_START,1516299630073,79
1180,WS_RECV_END,1516299631514,79
1180,PLAYER_SLEEPBEFORE_START,1516299631514,80
1180,PLAYER_SLEEPBEFORE_END,1516299639180,80
1180,WS_SEND_START,1516299639180,80
1180,WS_SEND_END,1516299639180,80
1180,WS_RECV_START,1516299639180,81
1180,WS_RECV_END,1516299639773,81
1180,PLAYER_SLEEPBEFORE_START,1516299639773,82
1180,PLAYER_SLEEPBEFORE_END,1516299640875,82
1180,WS_SEND_START,1516299640875,82
1180,WS_SEND_END,1516299640875,82
1180,WS_RECV_START,1516299640875,83
1180,WS_RECV_END,1516299641351,83
1180,PLAYER_SLEEPBEFORE_START,1516299641351,84
1180,PLAYER_SLEEPBEFORE_END,1516299642298,84
1180,WS_SEND_START,1516299642298,84
1180,WS_SEND_END,1516299642298,84
1180,WS_RECV_START,1516299642298,85
1180,WS_RECV_END,1516299642510,85
1180,PLAYER_SLEEPBEFORE_START,1516299642510,86
1180,PLAYER_SLEEPBEFORE_END,1516299646682,86
1180,WS_SEND_START,1516299646682,86
1180,WS_SEND_END,1516299646682,86
1180,WS_RECV_START,1516299646682,87
1180,WS_RECV_END,1516299647669,87
1180,PLAYER_SLEEPBEFORE_START,1516299647669,88
1180,PLAYER_SLEEPBEFORE_END,1516299647677,88
1180,WS_SEND_START,1516299647677,88
1180,WS_SEND_END,1516299647677,88
1180,WS_RECV_START,1516299647677,89
1180,WS_RECV_END,1516299648112,89
1180,PLAYER_SLEEPBEFORE_START,1516299648112,90
1180,PLAYER_SLEEPBEFORE_END,1516299675309,90
1180,REQ_START,1516299675309,90
1180,REQ_END,1516299675317,90
1180,PLAYER_SLEEPBEFORE_START,1516299675317,91
1180,PLAYER_SLEEPBEFORE_END,1516299683206,91
1180,WS_SEND_START,1516299683206,91
1180,WS_SEND_END,1516299683206,91
1180,WS_RECV_START,1516299683206,92
1180,WS_RECV_END,1516299683497,92
1180,PLAYER_SLEEPBEFORE_START,1516299683497,93
1180,PLAYER_SLEEPBEFORE_END,1516299683512,93
1180,WS_SEND_START,1516299683512,93
1180,WS_SEND_END,1516299683512,93
1180,WS_RECV_START,1516299683512,94
1180,WS_RECV_END,1516299684049,94
1180,PLAYER_SLEEPBEFORE_START,1516299684049,95
1180,PLAYER_SLEEPBEFORE_END,1516299707604,95
1180,WS_SEND_START,1516299707604,95
1180,WS_SEND_END,1516299707604,95
1180,WS_RECV_START,1516299707604,96
1180,WS_RECV_END,1516299708132,96
1180,PLAYER_SLEEPBEFORE_START,1516299708132,97
1180,PLAYER_SLEEPBEFORE_END,1516299730572,97
1180,WS_SEND_START,1516299730572,97
1180,WS_SEND_END,1516299730572,97
1180,WS_RECV_START,1516299730572,98
1180,WS_RECV_END,1516299731651,98
1180,PLAYER_SLEEPBEFORE_START,1516299731651,99
1180,PLAYER_SLEEPBEFORE_END,1516299731672,99
1180,WS_SEND_START,1516299731672,99
1180,WS_SEND_END,1516299731672,99
1180,WS_RECV_START,1516299731672,100
1180,WS_RECV_END,1516299732171,100
1180,PLAYER_SLEEPBEFORE_START,1516299732171,101
1180,PLAYER_SLEEPBEFORE_END,1516299755730,101
1180,WS_SEND_START,1516299755730,101
1180,WS_SEND_END,1516299755730,101
1180,WS_RECV_START,1516299755730,102
1180,WS_RECV_END,1516299758669,102
1180,PLAYER_SLEEPBEFORE_START,1516299758669,103
1180,PLAYER_SLEEPBEFORE_END,1516299782294,103
1180,WS_SEND_START,1516299782294,103
1180,WS_SEND_END,1516299782294,103
1180,WS_RECV_START,1516299782294,104
1180,WS_RECV_END,1516299785832,104
1180,PLAYER_SLEEPBEFORE_START,1516299785832,105
1180,PLAYER_SLEEPBEFORE_END,1516299811209,105
1180,WS_SEND_START,1516299811209,105
1180,WS_SEND_END,1516299811209,105
1180,WS_RECV_START,1516299811209,106
1180,WS_RECV_END,1516299813583,106
1180,PLAYER_SLEEPBEFORE_START,1516299813583,107
1180,PLAYER_SLEEPBEFORE_END,1516299837006,107
1180,WS_SEND_START,1516299837006,107
1180,WS_SEND_END,1516299837006,107
1180,WS_RECV_START,1516299837006,108
1180,WS_RECV_END,1516299841559,108
1180,PLAYER_SLEEPBEFORE_START,1516299841559,109
1180,PLAYER_SLEEPBEFORE_END,1516299841568,109
1180,WS_SEND_START,1516299841568,109
1180,WS_SEND_END,1516299841568,109
1180,WS_RECV_START,1516299841568,110
1180,WS_RECV_END,1516299843114,110
1180,PLAYER_SLEEPBEFORE_START,1516299843114,111
1180,PLAYER_SLEEPBEFORE_END,1516299844073,111
1180,WS_SEND_START,1516299844073,111
1180,WS_SEND_END,1516299844073,111
1180,WS_RECV_START,1516299844073,112
1180,WS_RECV_END,1516299844527,112
1180,PLAYER_SLEEPBEFORE_START,1516299844527,113
1180,PLAYER_SLEEPBEFORE_END,1516299845089,113
1180,WS_SEND_START,1516299845089,113
1180,WS_SEND_END,1516299845089,113
1180,WS_RECV_START,1516299845089,114
1180,WS_RECV_END,1516299846106,114
1180,PLAYER_SLEEPBEFORE_START,1516299846106,115
1180,PLAYER_SLEEPBEFORE_END,1516299846115,115
1180,WS_SEND_START,1516299846115,115
1180,WS_SEND_END,1516299846115,115
1180,WS_RECV_START,1516299846115,116
1180,WS_RECV_END,1516299847943,116
1180,PLAYER_SLEEPBEFORE_START,1516299847943,117
1180,PLAYER_SLEEPBEFORE_END,1516299868303,117
1180,WS_SEND_START,1516299868303,117
1180,WS_SEND_END,1516299868303,117
1180,PLAYER_SLEEPBEFORE_START,1516299868303,118
1180,PLAYER_SLEEPBEFORE_END,1516299872056,118
1180,WS_SEND_START,1516299872056,118
1180,WS_SEND_END,1516299872056,118
1180,WS_RECV_START,1516299872056,119
1180,WS_RECV_END,1516299873582,119
1180,PLAYER_SLEEPBEFORE_START,1516299873582,120
1180,PLAYER_SLEEPBEFORE_END,1516299874570,120
1180,WS_SEND_START,1516299874570,120
1180,WS_SEND_END,1516299874570,120
1180,WS_RECV_START,1516299874570,121
1180,WS_RECV_END,1516299876132,121
1180,PLAYER_SLEEPBEFORE_START,1516299876132,122
1180,PLAYER_SLEEPBEFORE_END,1516299877317,122
1180,WS_SEND_START,1516299877317,122
1180,WS_SEND_END,1516299877317,122
1180,WS_RECV_START,1516299877317,123
1180,WS_RECV_END,1516299879671,123
1180,PLAYER_SLEEPBEFORE_START,1516299879671,124
1180,PLAYER_SLEEPBEFORE_END,1516299904076,124
1180,WS_SEND_START,1516299904076,124
1180,WS_SEND_END,1516299904076,124
1180,WS_RECV_START,1516299904076,125
1180,WS_RECV_END,1516299907326,125
1180,PLAYER_SLEEPBEFORE_START,1516299907326,126
1180,PLAYER_SLEEPBEFORE_END,1516299927838,126
1180,WS_SEND_START,1516299927838,126
1180,WS_SEND_END,1516299927838,126
1180,PLAYER_SLEEPBEFORE_START,1516299927838,127
1180,PLAYER_SLEEPBEFORE_END,1516299930892,127
1180,WS_SEND_START,1516299930892,127
1180,WS_SEND_END,1516299930892,127
1180,WS_RECV_START,1516299930892,128
1180,WS_RECV_END,1516299933290,128
1180,PLAYER_SLEEPBEFORE_START,1516299933290,129
1180,PLAYER_SLEEPBEFORE_END,1516299933312,129
1180,WS_SEND_START,1516299933312,129
1180,WS_SEND_END,1516299933312,129
1180,WS_RECV_START,1516299933312,130
1180,WS_RECV_END,1516299934523,130
1180,PLAYER_SLEEPBEFORE_START,1516299934523,131
1180,PLAYER_SLEEPBEFORE_END,1516299956147,131
1180,WS_SEND_START,1516299956147,131
1180,WS_SEND_END,1516299956147,131
1180,PLAYER_SLEEPBEFORE_START,1516299956147,132
1180,PLAYER_SLEEPBEFORE_END,1516299959228,132
1180,WS_SEND_START,1516299959228,132
1180,WS_SEND_END,1516299959228,132
1180,WS_RECV_START,1516299959228,133
1180,WS_RECV_END,1516299961543,133
1180,PLAYER_SLEEPBEFORE_START,1516299961543,134
1180,PLAYER_SLEEPBEFORE_END,1516299982760,134
1180,WS_SEND_START,1516299982760,134
1180,WS_SEND_END,1516299982760,134
1180,PLAYER_SLEEPBEFORE_START,1516299982760,135
1180,PLAYER_SLEEPBEFORE_END,1516299985950,135
1180,WS_SEND_START,1516299985950,135
1180,WS_SEND_END,1516299985950,135
1180,WS_RECV_START,1516299985950,136
1180,WS_RECV_END,1516299987136,136
1180,PLAYER_SLEEPBEFORE_START,1516299987136,137
1180,PLAYER_SLEEPBEFORE_END,1516299987143,137
1180,WS_SEND_START,1516299987143,137
1180,WS_SEND_END,1516299987143,137
1180,WS_RECV_START,1516299987143,138
1180,WS_RECV_END,1516299987710,138
1180,PLAYER_SLEEPBEFORE_START,1516299987710,139
1180,PLAYER_SLEEPBEFORE_END,1516299988401,139
1180,WS_SEND_START,1516299988401,139
1180,WS_SEND_END,1516299988401,139
1180,WS_RECV_START,1516299988401,140
1180,WS_RECV_END,1516299988733,140
1180,PLAYER_SLEEPBEFORE_START,1516299988733,141
1180,PLAYER_SLEEPBEFORE_END,1516299989388,141
1180,WS_SEND_START,1516299989388,141
1180,WS_SEND_END,1516299989388,141
1180,WS_RECV_START,1516299989388,142
1180,WS_RECV_END,1516299990730,142
1180,PLAYER_SLEEPBEFORE_START,1516299990730,143
1180,PLAYER_SLEEPBEFORE_END,1516299990787,143
1180,WS_SEND_START,1516299990787,143
1180,WS_SEND_END,1516299990787,143
1180,WS_RECV_START,1516299990787,144
1180,WS_RECV_END,1516299992235,144
1180,PLAYER_SLEEPBEFORE_START,1516299992235,145
1180,PLAYER_SLEEPBEFORE_END,1516300008298,145
1180,REQ_START,1516300008298,145
1180,REQ_END,1516300008305,145
1180,PLAYER_SLEEPBEFORE_START,1516300008305,146
1180,PLAYER_SLEEPBEFORE_END,1516300017182,146
1180,WS_SEND_START,1516300017182,146
1180,WS_SEND_END,1516300017182,146
1180,WS_RECV_START,1516300017182,147
1180,WS_RECV_END,1516300022390,147
1180,PLAYER_SLEEPBEFORE_START,1516300022390,148
1180,PLAYER_SLEEPBEFORE_END,1516300044312,148
1180,WS_SEND_START,1516300044312,148
1180,WS_SEND_END,1516300044312,148
1180,PLAYER_SLEEPBEFORE_START,1516300044312,149
1180,PLAYER_SLEEPBEFORE_END,1516300046740,149
1180,WS_SEND_START,1516300046740,149
1180,WS_SEND_END,1516300046740,149
1180,WS_RECV_START,1516300046740,150
1180,WS_RECV_END,1516300048267,150
1180,PLAYER_SLEEPBEFORE_START,1516300048267,151
1180,PLAYER_SLEEPBEFORE_END,1516300048477,151
1180,WS_SEND_START,1516300048477,151
1180,WS_SEND_END,1516300048477,151
1180,WS_RECV_START,1516300048477,152
1180,WS_RECV_END,1516300049375,152
1180,PLAYER_SLEEPBEFORE_START,1516300049375,153
1180,PLAYER_SLEEPBEFORE_END,1516300073302,153
1180,WS_SEND_START,1516300073302,153
1180,WS_SEND_END,1516300073302,153
1180,WS_RECV_START,1516300073302,154
1180,WS_RECV_END,1516300077627,154
1180,PLAYER_SLEEPBEFORE_START,1516300077627,155
1180,PLAYER_SLEEPBEFORE_END,1516300100185,155
1180,WS_SEND_START,1516300100185,155
1180,WS_SEND_END,1516300100185,155
1180,PLAYER_SLEEPBEFORE_START,1516300100185,156
1180,PLAYER_SLEEPBEFORE_END,1516300103459,156
1180,WS_SEND_START,1516300103459,156
1180,WS_SEND_END,1516300103459,156
1180,WS_RECV_START,1516300103459,157
1180,WS_RECV_END,1516300104873,157
1180,PLAYER_SLEEPBEFORE_START,1516300104873,158
1180,PLAYER_SLEEPBEFORE_END,1516300104883,158
1180,WS_SEND_START,1516300104883,158
1180,WS_SEND_END,1516300104883,158
1180,WS_RECV_START,1516300104883,159
1180,WS_RECV_END,1516300105514,159
1180,PLAYER_SLEEPBEFORE_START,1516300105514,160
1180,PLAYER_SLEEPBEFORE_END,1516300105689,160
1180,WS_SEND_START,1516300105689,160
1180,WS_SEND_END,1516300105689,160
1180,WS_RECV_START,1516300105689,161
1180,WS_RECV_END,1516300106631,161
1180,PLAYER_SLEEPBEFORE_START,1516300106631,162
1180,PLAYER_SLEEPBEFORE_END,1516300106656,162
1180,WS_SEND_START,1516300106656,162
1180,WS_SEND_END,1516300106656,162
1180,WS_RECV_START,1516300106656,163
1180,WS_RECV_END,1516300107024,163
1180,PLAYER_SLEEPBEFORE_START,1516300107024,164
1180,PLAYER_SLEEPBEFORE_END,1516300127836,164
1180,WS_SEND_START,1516300127836,164
1180,WS_SEND_END,1516300127836,164
1180,WS_RECV_START,1516300127836,165
1180,WS_RECV_END,1516300129397,165
1180,PLAYER_SLEEPBEFORE_START,1516300129397,166
1180,PLAYER_SLEEPBEFORE_END,1516300151852,166
1180,WS_SEND_START,1516300151852,166
1180,WS_SEND_END,1516300151852,166
1180,WS_RECV_START,1516300151852,167
1180,WS_RECV_END,1516300154749,167
1180,PLAYER_SLEEPBEFORE_START,1516300154749,168
1180,PLAYER_SLEEPBEFORE_END,1516300182107,168
1180,WS_SEND_START,1516300182107,168
1180,WS_SEND_END,1516300182107,168
1180,WS_RECV_START,1516300182107,169
1180,WS_RECV_END,1516300188793,169
1180,PLAYER_SLEEPBEFORE_START,1516300188793,170
1180,PLAYER_SLEEPBEFORE_END,1516300188802,170
1180,WS_SEND_START,1516300188802,170
1180,WS_SEND_END,1516300188802,170
1180,WS_RECV_START,1516300188802,171
1180,WS_RECV_END,1516300192426,171
1180,PLAYER_SLEEPBEFORE_START,1516300192426,172
1180,PLAYER_SLEEPBEFORE_END,1516300192795,172
1180,WS_SEND_START,1516300192795,172
1180,WS_SEND_END,1516300192795,172
1180,WS_RECV_START,1516300192795,173
1180,WS_RECV_END,1516300197723,173
1180,PLAYER_SLEEPBEFORE_START,1516300197723,174
1180,PLAYER_SLEEPBEFORE_END,1516300197764,174
1180,WS_SEND_START,1516300197764,174
1180,WS_SEND_END,1516300197764,174
1180,WS_RECV_START,1516300197764,175
1180,WS_RECV_END,1516300201959,175
1180,PLAYER_SLEEPBEFORE_START,1516300201959,176
1180,PLAYER_SLEEPBEFORE_END,1516300223720,176
1180,WS_SEND_START,1516300223720,176
1180,WS_SEND_END,1516300223720,176
1180,PLAYER_SLEEPBEFORE_START,1516300223720,177
1180,PLAYER_SLEEPBEFORE_END,1516300226239,177
1180,WS_SEND_START,1516300226239,177
1180,WS_SEND_END,1516300226239,177
1180,WS_RECV_START,1516300226239,178
1180,WS_RECV_END,1516300232105,178
1180,PLAYER_SLEEPBEFORE_START,1516300232105,179
1180,PLAYER_SLEEPBEFORE_END,1516300254445,179
1180,WS_SEND_START,1516300254445,179
1180,WS_SEND_END,1516300254445,179
1180,WS_RECV_START,1516300254445,180
1180,WS_RECV_END,1516300263137,180
1180,PLAYER_SLEEPBEFORE_START,1516300263137,181
1180,PLAYER_SLEEPBEFORE_END,1516300263581,181
1180,WS_SEND_START,1516300263581,181
1180,WS_SEND_END,1516300263581,181
1180,WS_RECV_START,1516300263581,182
1180,WS_RECV_END,1516300267278,182
1180,PLAYER_SLEEPBEFORE_START,1516300267278,183
1180,PLAYER_SLEEPBEFORE_END,1516300267802,183
1180,WS_SEND_START,1516300267802,183
1180,WS_SEND_END,1516300267802,183
1180,WS_RECV_START,1516300267802,184
1180,WS_RECV_END,1516300271216,184
1180,PLAYER_SLEEPBEFORE_START,1516300271216,185
1180,PLAYER_SLEEPBEFORE_END,1516300271484,185
1180,WS_SEND_START,1516300271484,185
1180,WS_SEND_END,1516300271484,185
1180,WS_RECV_START,1516300271484,186
1180,WS_RECV_END,1516300273826,186
1180,PLAYER_SLEEPBEFORE_START,1516300273826,187
1180,PLAYER_SLEEPBEFORE_END,1516300296326,187
1180,WS_SEND_START,1516300296326,187
1180,WS_SEND_END,1516300296326,187
1180,WS_RECV_START,1516300296326,188
1180,WS_RECV_END,1516300300038,188
1180,PLAYER_SLEEPBEFORE_START,1516300300038,189
1180,PLAYER_SLEEPBEFORE_END,1516300306277,189
1180,WS_SEND_START,1516300306277,189
1180,WS_SEND_END,1516300306277,189
1180,WS_RECV_START,1516300306277,190
1180,WS_RECV_END,1516300309412,190
1180,PLAYER_SLEEPBEFORE_START,1516300309412,191
1180,PLAYER_SLEEPBEFORE_END,1516300311327,191
1180,WS_SEND_START,1516300311327,191
1180,WS_SEND_END,1516300311327,191
1180,WS_RECV_START,1516300311327,192
1180,WS_RECV_END,1516300316745,192
1180,PLAYER_SLEEPBEFORE_START,1516300316745,193
1180,PLAYER_SLEEPBEFORE_END,1516300316873,193
1180,WS_SEND_START,1516300316873,193
1180,WS_SEND_END,1516300316873,193
1180,WS_RECV_START,1516300316873,194
1180,WS_RECV_END,1516300319111,194
1180,PLAYER_SLEEPBEFORE_START,1516300319111,195
1180,PLAYER_SLEEPBEFORE_END,1516300320866,195
1180,WS_SEND_START,1516300320866,195
1180,WS_SEND_END,1516300320866,195
1180,WS_RECV_START,1516300320866,196
1180,WS_RECV_END,1516300322187,196
1180,PLAYER_SLEEPBEFORE_START,1516300322187,197
1180,PLAYER_SLEEPBEFORE_END,1516300323991,197
1180,WS_SEND_START,1516300323991,197
1180,WS_SEND_END,1516300323991,197
1180,WS_RECV_START,1516300323991,198
1180,WS_RECV_END,1516300327072,198
1180,PLAYER_SLEEPBEFORE_START,1516300327072,199
1180,PLAYER_SLEEPBEFORE_END,1516300338927,199
1180,WS_SEND_START,1516300338927,199
1180,WS_SEND_END,1516300338927,199
1180,PLAYER_SLEEPBEFORE_START,1516300338927,200
1180,PLAYER_SLEEPBEFORE_END,1516300343015,200
1180,WS_SEND_START,1516300343015,200
1180,WS_SEND_END,1516300343015,200
1180,WS_RECV_START,1516300343015,201
1180,WS_RECV_END,1516300344895,201
1180,PLAYER_SLEEPBEFORE_START,1516300344895,202
1180,PLAYER_SLEEPBEFORE_END,1516300344909,202
1180,WS_SEND_START,1516300344909,202
1180,WS_SEND_END,1516300344909,202
1180,WS_RECV_START,1516300344909,203
1180,WS_RECV_END,1516300346132,203
1180,PLAYER_SLEEPBEFORE_START,1516300346132,204
1180,PLAYER_SLEEPBEFORE_END,1516300365781,204
1180,WS_SEND_START,1516300365781,204
1180,WS_SEND_END,1516300365781,204
1180,PLAYER_SLEEPBEFORE_START,1516300365781,205
1180,PLAYER_SLEEPBEFORE_END,1516300369679,205
1180,WS_SEND_START,1516300369679,205
1180,WS_SEND_END,1516300369679,205
1180,WS_RECV_START,1516300369679,206
1180,WS_RECV_END,1516300369830,206
1180,PLAYER_SLEEPBEFORE_START,1516300369830,207
1180,PLAYER_SLEEPBEFORE_END,1516300386761,207
1180,REQ_START,1516300386761,207
1180,REQ_END,1516300386782,207
1180,PLAYER_SLEEPBEFORE_START,1516300386782,208
1180,PLAYER_SLEEPBEFORE_END,1516300393634,208
1180,WS_CLOSE_START,1516300393634,208
1180,WS_CLOSE_END,1516300393634,208
1180,PLAYER_DONE,1516300393634
