# --sessions 2700 --app-url=http://shinyloadtest.rstudioservices.com/cran_explorer --output-dir test2700 --overwrite-output --log-level warn --start-interval 100 15min.log
thread_id,event,timestamp,input_line_number,comment
1259,PLAYER_SESSION_CREATE,1516299245911
1259,PLAYER_START_INTERVAL_START,1516299245911
1259,PLAYER_START_INTERVAL_END,1516299371811
1259,REQ_HOME_START,1516299371811,2
1259,REQ_HOME_END,1516299371913,2
1259,REQ_START,1516299371913,3
1259,REQ_END,1516299371953,3
1259,REQ_START,1516299371953,4
1259,REQ_END,1516299371992,4
1259,REQ_START,1516299371992,5
1259,REQ_END,1516299372032,5
1259,REQ_START,1516299372032,6
1259,REQ_END,1516299372073,6
1259,REQ_START,1516299372073,7
1259,REQ_END,1516299372111,7
1259,REQ_START,1516299372111,8
1259,REQ_END,1516299372294,8
1259,REQ_START,1516299372294,9
1259,REQ_END,1516299372346,9
1259,REQ_START,1516299372346,10
1259,REQ_END,1516299372352,10
1259,REQ_START,1516299372352,11
1259,REQ_END,1516299372590,11
1259,REQ_START,1516299372590,12
1259,REQ_END,1516299372603,12
1259,REQ_START,1516299372603,13
1259,REQ_END,1516299372701,13
1259,REQ_START,1516299372701,14
1259,REQ_END,1516299372715,14
1259,REQ_START,1516299372715,15
1259,REQ_END,1516299372764,15
1259,REQ_TOK_START,1516299372764,16
1259,REQ_TOK_END,1516299372769,16
1259,REQ_SINF_START,1516299372769,17
1259,REQ_SINF_END,1516299372775,17
1259,WS_OPEN_START,1516299372775,18
1259,WS_OPEN_END,1516299372781,18
1259,REQ_START,1516299372781,19
1259,REQ_END,1516299372814,19
1259,WS_RECV_START,1516299372814,20
1259,WS_RECV_END,1516299372814,20
1259,PLAYER_SLEEPBEFORE_START,1516299372814,21
1259,PLAYER_SLEEPBEFORE_END,1516299372819,21
1259,WS_SEND_START,1516299372819,21
1259,WS_SEND_END,1516299372819,21
1259,PLAYER_SLEEPBEFORE_START,1516299372819,22
1259,PLAYER_SLEEPBEFORE_END,1516299372820,22
1259,WS_SEND_START,1516299372820,22
1259,WS_SEND_END,1516299372821,22
1259,WS_RECV_INIT_START,1516299372821,23
1259,WS_RECV_INIT_END,1516299373131,23
1259,WS_RECV_START,1516299373131,24
1259,WS_RECV_END,1516299373179,24
1259,PLAYER_SLEEPBEFORE_START,1516299373179,25
1259,PLAYER_SLEEPBEFORE_END,1516299373186,25
1259,REQ_START,1516299373186,25
1259,REQ_END,1516299373238,25
1259,PLAYER_SLEEPBEFORE_START,1516299373238,26
1259,PLAYER_SLEEPBEFORE_END,1516299373239,26
1259,REQ_START,1516299373239,26
1259,REQ_END,1516299373277,26
1259,PLAYER_SLEEPBEFORE_START,1516299373277,27
1259,PLAYER_SLEEPBEFORE_END,1516299373280,27
1259,REQ_START,1516299373280,27
1259,REQ_END,1516299373474,27
1259,PLAYER_SLEEPBEFORE_START,1516299373474,28
1259,PLAYER_SLEEPBEFORE_END,1516299373759,28
1259,REQ_START,1516299373759,28
1259,REQ_END,1516299373909,28
1259,PLAYER_SLEEPBEFORE_START,1516299373909,29
1259,PLAYER_SLEEPBEFORE_END,1516299374084,29
1259,WS_SEND_START,1516299374084,29
1259,WS_SEND_END,1516299374084,29
1259,WS_RECV_START,1516299374084,30
1259,WS_RECV_END,1516299374195,30
1259,PLAYER_SLEEPBEFORE_START,1516299374195,31
1259,PLAYER_SLEEPBEFORE_END,1516299374206,31
1259,REQ_START,1516299374206,31
1259,REQ_END,1516299374312,31
1259,PLAYER_SLEEPBEFORE_START,1516299374312,32
1259,PLAYER_SLEEPBEFORE_END,1516299402457,32
1259,WS_SEND_START,1516299402457,32
1259,WS_SEND_END,1516299402457,32
1259,WS_RECV_START,1516299402457,33
1259,WS_RECV_END,1516299402583,33
1259,PLAYER_SLEEPBEFORE_START,1516299402583,34
1259,PLAYER_SLEEPBEFORE_END,1516299428494,34
1259,WS_SEND_START,1516299428494,34
1259,WS_SEND_END,1516299428494,34
1259,WS_RECV_START,1516299428494,35
1259,WS_RECV_END,1516299428565,35
1259,PLAYER_SLEEPBEFORE_START,1516299428565,36
1259,PLAYER_SLEEPBEFORE_END,1516299428574,36
1259,WS_SEND_START,1516299428574,36
1259,WS_SEND_END,1516299428574,36
1259,WS_RECV_START,1516299428575,37
1259,WS_RECV_END,1516299428641,37
1259,PLAYER_SLEEPBEFORE_START,1516299428641,38
1259,PLAYER_SLEEPBEFORE_END,1516299431837,38
1259,WS_SEND_START,1516299431837,38
1259,WS_SEND_END,1516299431837,38
1259,WS_RECV_START,1516299431837,39
1259,WS_RECV_END,1516299432106,39
1259,PLAYER_SLEEPBEFORE_START,1516299432106,40
1259,PLAYER_SLEEPBEFORE_END,1516299432152,40
1259,WS_SEND_START,1516299432152,40
1259,WS_SEND_END,1516299432152,40
1259,WS_RECV_START,1516299432152,41
1259,WS_RECV_END,1516299432365,41
1259,PLAYER_SLEEPBEFORE_START,1516299432365,42
1259,PLAYER_SLEEPBEFORE_END,1516299450500,42
1259,WS_SEND_START,1516299450500,42
1259,WS_SEND_END,1516299450500,42
1259,WS_RECV_START,1516299450500,43
1259,WS_RECV_END,1516299450902,43
1259,PLAYER_SLEEPBEFORE_START,1516299450902,44
1259,PLAYER_SLEEPBEFORE_END,1516299450914,44
1259,WS_SEND_START,1516299450914,44
1259,WS_SEND_END,1516299450914,44
1259,WS_RECV_START,1516299450914,45
1259,WS_RECV_END,1516299451044,45
1259,PLAYER_SLEEPBEFORE_START,1516299451044,46
1259,PLAYER_SLEEPBEFORE_END,1516299452304,46
1259,WS_SEND_START,1516299452304,46
1259,WS_SEND_END,1516299452304,46
1259,WS_RECV_START,1516299452304,47
1259,WS_RECV_END,1516299452480,47
1259,PLAYER_SLEEPBEFORE_START,1516299452480,48
1259,PLAYER_SLEEPBEFORE_END,1516299453800,48
1259,WS_SEND_START,1516299453800,48
1259,WS_SEND_END,1516299453800,48
1259,WS_RECV_START,1516299453800,49
1259,WS_RECV_END,1516299453923,49
1259,PLAYER_SLEEPBEFORE_START,1516299453924,50
1259,PLAYER_SLEEPBEFORE_END,1516299453948,50
1259,WS_SEND_START,1516299453948,50
1259,WS_SEND_END,1516299453948,50
1259,WS_RECV_START,1516299453948,51
1259,WS_RECV_END,1516299454150,51
1259,PLAYER_SLEEPBEFORE_START,1516299454150,52
1259,PLAYER_SLEEPBEFORE_END,1516299476714,52
1259,WS_SEND_START,1516299476714,52
1259,WS_SEND_END,1516299476714,52
1259,WS_RECV_START,1516299476714,53
1259,WS_RECV_END,1516299477177,53
1259,PLAYER_SLEEPBEFORE_START,1516299477177,54
1259,PLAYER_SLEEPBEFORE_END,1516299498480,54
1259,WS_SEND_START,1516299498480,54
1259,WS_SEND_END,1516299498480,54
1259,PLAYER_SLEEPBEFORE_START,1516299498480,55
1259,PLAYER_SLEEPBEFORE_END,1516299500421,55
1259,WS_SEND_START,1516299500421,55
1259,WS_SEND_END,1516299500421,55
1259,WS_RECV_START,1516299500421,56
1259,WS_RECV_END,1516299501115,56
1259,PLAYER_SLEEPBEFORE_START,1516299501115,57
1259,PLAYER_SLEEPBEFORE_END,1516299523987,57
1259,WS_SEND_START,1516299523987,57
1259,WS_SEND_END,1516299523987,57
1259,WS_RECV_START,1516299523987,58
1259,WS_RECV_END,1516299525353,58
1259,PLAYER_SLEEPBEFORE_START,1516299525353,59
1259,PLAYER_SLEEPBEFORE_END,1516299527680,59
1259,WS_SEND_START,1516299527680,59
1259,WS_SEND_END,1516299527680,59
1259,WS_RECV_START,1516299527680,60
1259,WS_RECV_END,1516299528397,60
1259,PLAYER_SLEEPBEFORE_START,1516299528397,61
1259,PLAYER_SLEEPBEFORE_END,1516299531988,61
1259,WS_SEND_START,1516299531988,61
1259,WS_SEND_END,1516299531988,61
1259,WS_RECV_START,1516299531988,62
1259,WS_RECV_END,1516299533475,62
1259,PLAYER_SLEEPBEFORE_START,1516299533475,63
1259,PLAYER_SLEEPBEFORE_END,1516299552737,63
1259,WS_SEND_START,1516299552737,63
1259,WS_SEND_END,1516299552737,63
1259,WS_RECV_START,1516299552737,64
1259,WS_RECV_END,1516299555185,64
1259,PLAYER_SLEEPBEFORE_START,1516299555185,65
1259,PLAYER_SLEEPBEFORE_END,1516299582002,65
1259,WS_SEND_START,1516299582002,65
1259,WS_SEND_END,1516299582002,65
1259,WS_RECV_START,1516299582002,66
1259,WS_RECV_END,1516299585970,66
1259,PLAYER_SLEEPBEFORE_START,1516299585970,67
1259,PLAYER_SLEEPBEFORE_END,1516299587478,67
1259,WS_SEND_START,1516299587478,67
1259,WS_SEND_END,1516299587478,67
1259,WS_RECV_START,1516299587478,68
1259,WS_RECV_END,1516299588045,68
1259,PLAYER_SLEEPBEFORE_START,1516299588045,69
1259,PLAYER_SLEEPBEFORE_END,1516299610043,69
1259,WS_SEND_START,1516299610043,69
1259,WS_SEND_END,1516299610043,69
1259,WS_RECV_START,1516299610043,70
1259,WS_RECV_END,1516299613028,70
1259,PLAYER_SLEEPBEFORE_START,1516299613028,71
1259,PLAYER_SLEEPBEFORE_END,1516299637803,71
1259,WS_SEND_START,1516299637803,71
1259,WS_SEND_END,1516299637803,71
1259,PLAYER_SLEEPBEFORE_START,1516299637803,72
1259,PLAYER_SLEEPBEFORE_END,1516299640410,72
1259,WS_SEND_START,1516299640410,72
1259,WS_SEND_END,1516299640410,72
1259,WS_RECV_START,1516299640411,73
1259,WS_RECV_END,1516299640582,73
1259,PLAYER_SLEEPBEFORE_START,1516299640582,74
1259,PLAYER_SLEEPBEFORE_END,1516299640591,74
1259,WS_SEND_START,1516299640591,74
1259,WS_SEND_END,1516299640591,74
1259,WS_RECV_START,1516299640591,75
1259,WS_RECV_END,1516299641853,75
1259,PLAYER_SLEEPBEFORE_START,1516299641853,76
1259,PLAYER_SLEEPBEFORE_END,1516299643360,76
1259,WS_SEND_START,1516299643360,76
1259,WS_SEND_END,1516299643360,76
1259,WS_RECV_START,1516299643360,77
1259,WS_RECV_END,1516299643976,77
1259,PLAYER_SLEEPBEFORE_START,1516299643976,78
1259,PLAYER_SLEEPBEFORE_END,1516299644844,78
1259,WS_SEND_START,1516299644844,78
1259,WS_SEND_END,1516299644844,78
1259,WS_RECV_START,1516299644844,79
1259,WS_RECV_END,1516299647726,79
1259,PLAYER_SLEEPBEFORE_START,1516299647726,80
1259,PLAYER_SLEEPBEFORE_END,1516299655392,80
1259,WS_SEND_START,1516299655392,80
1259,WS_SEND_END,1516299655392,80
1259,WS_RECV_START,1516299655392,81
1259,WS_RECV_END,1516299659014,81
1259,PLAYER_SLEEPBEFORE_START,1516299659014,82
1259,PLAYER_SLEEPBEFORE_END,1516299660116,82
1259,WS_SEND_START,1516299660116,82
1259,WS_SEND_END,1516299660116,82
1259,WS_RECV_START,1516299660116,83
1259,WS_RECV_END,1516299661147,83
1259,PLAYER_SLEEPBEFORE_START,1516299661147,84
1259,PLAYER_SLEEPBEFORE_END,1516299662094,84
1259,WS_SEND_START,1516299662094,84
1259,WS_SEND_END,1516299662094,84
1259,WS_RECV_START,1516299662094,85
1259,WS_RECV_END,1516299663263,85
1259,PLAYER_SLEEPBEFORE_START,1516299663263,86
1259,PLAYER_SLEEPBEFORE_END,1516299667435,86
1259,WS_SEND_START,1516299667435,86
1259,WS_SEND_END,1516299667435,86
1259,WS_RECV_START,1516299667435,87
1259,WS_RECV_END,1516299669215,87
1259,PLAYER_SLEEPBEFORE_START,1516299669215,88
1259,PLAYER_SLEEPBEFORE_END,1516299669223,88
1259,WS_SEND_START,1516299669223,88
1259,WS_SEND_END,1516299669223,88
1259,WS_RECV_START,1516299669223,89
1259,WS_RECV_END,1516299669430,89
1259,PLAYER_SLEEPBEFORE_START,1516299669430,90
1259,PLAYER_SLEEPBEFORE_END,1516299696627,90
1259,REQ_START,1516299696627,90
1259,REQ_END,1516299696658,90
1259,PLAYER_SLEEPBEFORE_START,1516299696658,91
1259,PLAYER_SLEEPBEFORE_END,1516299704547,91
1259,WS_SEND_START,1516299704547,91
1259,WS_SEND_END,1516299704547,91
1259,WS_RECV_START,1516299704547,92
1259,WS_RECV_END,1516299705895,92
1259,PLAYER_SLEEPBEFORE_START,1516299705895,93
1259,PLAYER_SLEEPBEFORE_END,1516299705910,93
1259,WS_SEND_START,1516299705910,93
1259,WS_SEND_END,1516299705910,93
1259,WS_RECV_START,1516299705910,94
1259,WS_RECV_END,1516299706744,94
1259,PLAYER_SLEEPBEFORE_START,1516299706744,95
1259,PLAYER_SLEEPBEFORE_END,1516299730300,95
1259,WS_SEND_START,1516299730300,95
1259,WS_SEND_END,1516299730300,95
1259,WS_RECV_START,1516299730300,96
1259,WS_RECV_END,1516299732540,96
1259,PLAYER_SLEEPBEFORE_START,1516299732540,97
1259,PLAYER_SLEEPBEFORE_END,1516299754980,97
1259,WS_SEND_START,1516299754980,97
1259,WS_SEND_END,1516299754980,97
1259,WS_RECV_START,1516299754980,98
1259,WS_RECV_END,1516299759578,98
1259,PLAYER_SLEEPBEFORE_START,1516299759578,99
1259,PLAYER_SLEEPBEFORE_END,1516299759599,99
1259,WS_SEND_START,1516299759599,99
1259,WS_SEND_END,1516299759599,99
1259,WS_RECV_START,1516299759599,100
1259,WS_RECV_END,1516299761392,100
1259,PLAYER_SLEEPBEFORE_START,1516299761392,101
1259,PLAYER_SLEEPBEFORE_END,1516299784952,101
1259,WS_SEND_START,1516299784952,101
1259,WS_SEND_END,1516299784952,101
1259,WS_RECV_START,1516299784952,102
1259,WS_RECV_END,1516299789989,102
1259,PLAYER_SLEEPBEFORE_START,1516299789989,103
1259,PLAYER_SLEEPBEFORE_END,1516299813614,103
1259,WS_SEND_START,1516299813614,103
1259,WS_SEND_END,1516299813614,103
1259,WS_RECV_START,1516299813614,104
1259,WS_RECV_END,1516299818779,104
1259,PLAYER_SLEEPBEFORE_START,1516299818779,105
1259,PLAYER_SLEEPBEFORE_END,1516299844156,105
1259,WS_SEND_START,1516299844156,105
1259,WS_SEND_END,1516299844156,105
1259,WS_RECV_START,1516299844156,106
1259,WS_RECV_END,1516299850289,106
1259,PLAYER_SLEEPBEFORE_START,1516299850289,107
1259,PLAYER_SLEEPBEFORE_END,1516299873713,107
1259,WS_SEND_START,1516299873713,107
1259,WS_SEND_END,1516299873713,107
1259,WS_RECV_START,1516299873713,108
1259,WS_RECV_END,1516299881225,108
1259,PLAYER_SLEEPBEFORE_START,1516299881225,109
1259,PLAYER_SLEEPBEFORE_END,1516299881234,109
1259,WS_SEND_START,1516299881234,109
1259,WS_SEND_END,1516299881234,109
1259,WS_RECV_START,1516299881234,110
1259,WS_RECV_END,1516299884210,110
1259,PLAYER_SLEEPBEFORE_START,1516299884210,111
1259,PLAYER_SLEEPBEFORE_END,1516299885169,111
1259,WS_SEND_START,1516299885169,111
1259,WS_SEND_END,1516299885169,111
1259,WS_RECV_START,1516299885169,112
1259,WS_RECV_END,1516299886418,112
1259,PLAYER_SLEEPBEFORE_START,1516299886418,113
1259,PLAYER_SLEEPBEFORE_END,1516299886980,113
1259,WS_SEND_START,1516299886980,113
1259,WS_SEND_END,1516299886980,113
1259,WS_RECV_START,1516299886980,114
1259,WS_RECV_END,1516299888829,114
1259,PLAYER_SLEEPBEFORE_START,1516299888829,115
1259,PLAYER_SLEEPBEFORE_END,1516299888838,115
1259,WS_SEND_START,1516299888838,115
1259,WS_SEND_END,1516299888838,115
1259,WS_RECV_START,1516299888838,116
1259,WS_RECV_END,1516299891093,116
1259,PLAYER_SLEEPBEFORE_START,1516299891093,117
1259,PLAYER_SLEEPBEFORE_END,1516299911454,117
1259,WS_SEND_START,1516299911454,117
1259,WS_SEND_END,1516299911454,117
1259,PLAYER_SLEEPBEFORE_START,1516299911454,118
1259,PLAYER_SLEEPBEFORE_END,1516299915206,118
1259,WS_SEND_START,1516299915206,118
1259,WS_SEND_END,1516299915206,118
1259,WS_RECV_START,1516299915206,119
1259,WS_RECV_END,1516299916738,119
1259,PLAYER_SLEEPBEFORE_START,1516299916738,120
1259,PLAYER_SLEEPBEFORE_END,1516299917726,120
1259,WS_SEND_START,1516299917726,120
1259,WS_SEND_END,1516299917726,120
1259,WS_RECV_START,1516299917726,121
1259,WS_RECV_END,1516299922993,121
1259,PLAYER_SLEEPBEFORE_START,1516299922993,122
1259,PLAYER_SLEEPBEFORE_END,1516299924179,122
1259,WS_SEND_START,1516299924179,122
1259,WS_SEND_END,1516299924179,122
1259,WS_RECV_START,1516299924179,123
1259,WS_RECV_END,1516299930046,123
1259,PLAYER_SLEEPBEFORE_START,1516299930046,124
1259,PLAYER_SLEEPBEFORE_END,1516299954452,124
1259,WS_SEND_START,1516299954452,124
1259,WS_SEND_END,1516299954452,124
1259,WS_RECV_START,1516299954452,125
1259,WS_RECV_END,1516299959706,125
1259,PLAYER_SLEEPBEFORE_START,1516299959706,126
1259,PLAYER_SLEEPBEFORE_END,1516299980218,126
1259,WS_SEND_START,1516299980218,126
1259,WS_SEND_END,1516299980218,126
1259,PLAYER_SLEEPBEFORE_START,1516299980218,127
1259,PLAYER_SLEEPBEFORE_END,1516299983272,127
1259,WS_SEND_START,1516299983272,127
1259,WS_SEND_END,1516299983272,127
1259,WS_RECV_START,1516299983272,128
1259,WS_RECV_END,1516299984593,128
1259,PLAYER_SLEEPBEFORE_START,1516299984593,129
1259,PLAYER_SLEEPBEFORE_END,1516299984613,129
1259,WS_SEND_START,1516299984613,129
1259,WS_SEND_END,1516299984613,129
1259,WS_RECV_START,1516299984613,130
1259,WS_RECV_END,1516299984949,130
1259,PLAYER_SLEEPBEFORE_START,1516299984949,131
1259,PLAYER_SLEEPBEFORE_END,1516300006573,131
1259,WS_SEND_START,1516300006573,131
1259,WS_SEND_END,1516300006573,131
1259,PLAYER_SLEEPBEFORE_START,1516300006573,132
1259,PLAYER_SLEEPBEFORE_END,1516300009655,132
1259,WS_SEND_START,1516300009655,132
1259,WS_SEND_END,1516300009655,132
1259,WS_RECV_START,1516300009655,133
1259,WS_RECV_END,1516300012378,133
1259,PLAYER_SLEEPBEFORE_START,1516300012378,134
1259,PLAYER_SLEEPBEFORE_END,1516300033595,134
1259,WS_SEND_START,1516300033595,134
1259,WS_SEND_END,1516300033595,134
1259,PLAYER_SLEEPBEFORE_START,1516300033595,135
1259,PLAYER_SLEEPBEFORE_END,1516300036785,135
1259,WS_SEND_START,1516300036785,135
1259,WS_SEND_END,1516300036785,135
1259,WS_RECV_START,1516300036785,136
1259,WS_RECV_END,1516300037413,136
1259,PLAYER_SLEEPBEFORE_START,1516300037413,137
1259,PLAYER_SLEEPBEFORE_END,1516300037420,137
1259,WS_SEND_START,1516300037420,137
1259,WS_SEND_END,1516300037420,137
1259,WS_RECV_START,1516300037420,138
1259,WS_RECV_END,1516300037473,138
1259,PLAYER_SLEEPBEFORE_START,1516300037473,139
1259,PLAYER_SLEEPBEFORE_END,1516300038163,139
1259,WS_SEND_START,1516300038163,139
1259,WS_SEND_END,1516300038163,139
1259,WS_RECV_START,1516300038163,140
1259,WS_RECV_END,1516300039068,140
1259,PLAYER_SLEEPBEFORE_START,1516300039068,141
1259,PLAYER_SLEEPBEFORE_END,1516300039723,141
1259,WS_SEND_START,1516300039723,141
1259,WS_SEND_END,1516300039723,141
1259,WS_RECV_START,1516300039723,142
1259,WS_RECV_END,1516300040190,142
1259,PLAYER_SLEEPBEFORE_START,1516300040190,143
1259,PLAYER_SLEEPBEFORE_END,1516300040269,143
1259,WS_SEND_START,1516300040269,143
1259,WS_SEND_END,1516300040269,143
1259,WS_RECV_START,1516300040269,144
1259,WS_RECV_END,1516300041117,144
1259,PLAYER_SLEEPBEFORE_START,1516300041117,145
1259,PLAYER_SLEEPBEFORE_END,1516300057179,145
1259,REQ_START,1516300057179,145
1259,REQ_END,1516300057184,145
1259,PLAYER_SLEEPBEFORE_START,1516300057184,146
1259,PLAYER_SLEEPBEFORE_END,1516300066061,146
1259,WS_SEND_START,1516300066061,146
1259,WS_SEND_END,1516300066061,146
1259,WS_RECV_START,1516300066061,147
1259,WS_RECV_END,1516300066655,147
1259,PLAYER_SLEEPBEFORE_START,1516300066655,148
1259,PLAYER_SLEEPBEFORE_END,1516300088577,148
1259,WS_SEND_START,1516300088577,148
1259,WS_SEND_END,1516300088577,148
1259,PLAYER_SLEEPBEFORE_START,1516300088577,149
1259,PLAYER_SLEEPBEFORE_END,1516300091006,149
1259,WS_SEND_START,1516300091006,149
1259,WS_SEND_END,1516300091006,149
1259,WS_RECV_START,1516300091006,150
1259,WS_RECV_END,1516300091717,150
1259,PLAYER_SLEEPBEFORE_START,1516300091717,151
1259,PLAYER_SLEEPBEFORE_END,1516300091927,151
1259,WS_SEND_START,1516300091927,151
1259,WS_SEND_END,1516300091927,151
1259,WS_RECV_START,1516300091927,152
1259,WS_RECV_END,1516300093460,152
1259,PLAYER_SLEEPBEFORE_START,1516300093460,153
1259,PLAYER_SLEEPBEFORE_END,1516300117387,153
1259,WS_SEND_START,1516300117387,153
1259,WS_SEND_END,1516300117387,153
1259,WS_RECV_START,1516300117387,154
1259,WS_RECV_END,1516300117712,154
1259,PLAYER_SLEEPBEFORE_START,1516300117712,155
1259,PLAYER_SLEEPBEFORE_END,1516300140270,155
1259,WS_SEND_START,1516300140270,155
1259,WS_SEND_END,1516300140270,155
1259,PLAYER_SLEEPBEFORE_START,1516300140270,156
1259,PLAYER_SLEEPBEFORE_END,1516300143544,156
1259,WS_SEND_START,1516300143544,156
1259,WS_SEND_END,1516300143544,156
1259,WS_RECV_START,1516300143544,157
1259,WS_RECV_END,1516300144154,157
1259,PLAYER_SLEEPBEFORE_START,1516300144154,158
1259,PLAYER_SLEEPBEFORE_END,1516300144165,158
1259,WS_SEND_START,1516300144165,158
1259,WS_SEND_END,1516300144165,158
1259,WS_RECV_START,1516300144165,159
1259,WS_RECV_END,1516300144436,159
1259,PLAYER_SLEEPBEFORE_START,1516300144436,160
1259,PLAYER_SLEEPBEFORE_END,1516300144611,160
1259,WS_SEND_START,1516300144611,160
1259,WS_SEND_END,1516300144611,160
1259,WS_RECV_START,1516300144611,161
1259,WS_RECV_END,1516300144738,161
1259,PLAYER_SLEEPBEFORE_START,1516300144738,162
1259,PLAYER_SLEEPBEFORE_END,1516300144763,162
1259,WS_SEND_START,1516300144763,162
1259,WS_SEND_END,1516300144763,162
1259,WS_RECV_START,1516300144763,163
1259,WS_RECV_END,1516300144916,163
1259,PLAYER_SLEEPBEFORE_START,1516300144916,164
1259,PLAYER_SLEEPBEFORE_END,1516300165728,164
1259,WS_SEND_START,1516300165728,164
1259,WS_SEND_END,1516300165728,164
1259,WS_RECV_START,1516300165728,165
1259,WS_RECV_END,1516300166373,165
1259,PLAYER_SLEEPBEFORE_START,1516300166373,166
1259,PLAYER_SLEEPBEFORE_END,1516300188828,166
1259,WS_SEND_START,1516300188828,166
1259,WS_SEND_END,1516300188828,166
1259,WS_RECV_START,1516300188828,167
1259,WS_RECV_END,1516300191472,167
1259,PLAYER_SLEEPBEFORE_START,1516300191472,168
1259,PLAYER_SLEEPBEFORE_END,1516300218829,168
1259,WS_SEND_START,1516300218829,168
1259,WS_SEND_END,1516300218829,168
1259,WS_RECV_START,1516300218829,169
1259,WS_RECV_END,1516300222447,169
1259,PLAYER_SLEEPBEFORE_START,1516300222447,170
1259,PLAYER_SLEEPBEFORE_END,1516300222487,170
1259,WS_SEND_START,1516300222487,170
1259,WS_SEND_END,1516300222487,170
1259,WS_RECV_START,1516300222487,171
1259,WS_RECV_END,1516300224694,171
1259,PLAYER_SLEEPBEFORE_START,1516300224694,172
1259,PLAYER_SLEEPBEFORE_END,1516300225063,172
1259,WS_SEND_START,1516300225063,172
1259,WS_SEND_END,1516300225063,172
1259,WS_RECV_START,1516300225063,173
1259,WS_RECV_END,1516300227636,173
1259,PLAYER_SLEEPBEFORE_START,1516300227636,174
1259,PLAYER_SLEEPBEFORE_END,1516300227678,174
1259,WS_SEND_START,1516300227678,174
1259,WS_SEND_END,1516300227678,174
1259,WS_RECV_START,1516300227678,175
1259,WS_RECV_END,1516300231865,175
1259,PLAYER_SLEEPBEFORE_START,1516300231865,176
1259,PLAYER_SLEEPBEFORE_END,1516300253626,176
1259,WS_SEND_START,1516300253626,176
1259,WS_SEND_END,1516300253626,176
1259,PLAYER_SLEEPBEFORE_START,1516300253626,177
1259,PLAYER_SLEEPBEFORE_END,1516300256144,177
1259,WS_SEND_START,1516300256144,177
1259,WS_SEND_END,1516300256144,177
1259,WS_RECV_START,1516300256144,178
1259,WS_RECV_END,1516300257909,178
1259,PLAYER_SLEEPBEFORE_START,1516300257909,179
1259,PLAYER_SLEEPBEFORE_END,1516300280249,179
1259,WS_SEND_START,1516300280249,179
1259,WS_SEND_END,1516300280249,179
1259,WS_RECV_START,1516300280249,180
1259,WS_RECV_END,1516300285548,180
1259,PLAYER_SLEEPBEFORE_START,1516300285548,181
1259,PLAYER_SLEEPBEFORE_END,1516300285992,181
1259,WS_SEND_START,1516300285992,181
1259,WS_SEND_END,1516300285992,181
1259,WS_RECV_START,1516300285992,182
1259,WS_RECV_END,1516300288341,182
1259,PLAYER_SLEEPBEFORE_START,1516300288341,183
1259,PLAYER_SLEEPBEFORE_END,1516300288865,183
1259,WS_SEND_START,1516300288865,183
1259,WS_SEND_END,1516300288865,183
1259,WS_RECV_START,1516300288865,184
1259,WS_RECV_END,1516300290475,184
1259,PLAYER_SLEEPBEFORE_START,1516300290475,185
1259,PLAYER_SLEEPBEFORE_END,1516300290743,185
1259,WS_SEND_START,1516300290743,185
1259,WS_SEND_END,1516300290743,185
1259,WS_RECV_START,1516300290743,186
1259,WS_RECV_END,1516300292781,186
1259,PLAYER_SLEEPBEFORE_START,1516300292781,187
1259,PLAYER_SLEEPBEFORE_END,1516300315281,187
1259,WS_SEND_START,1516300315281,187
1259,WS_SEND_END,1516300315281,187
1259,WS_RECV_START,1516300315281,188
1259,WS_RECV_END,1516300316730,188
1259,PLAYER_SLEEPBEFORE_START,1516300316730,189
1259,PLAYER_SLEEPBEFORE_END,1516300322969,189
1259,WS_SEND_START,1516300322969,189
1259,WS_SEND_END,1516300322969,189
1259,WS_RECV_START,1516300322969,190
1259,WS_RECV_END,1516300323702,190
1259,PLAYER_SLEEPBEFORE_START,1516300323702,191
1259,PLAYER_SLEEPBEFORE_END,1516300325617,191
1259,WS_SEND_START,1516300325617,191
1259,WS_SEND_END,1516300325617,191
1259,WS_RECV_START,1516300325617,192
1259,WS_RECV_END,1516300327542,192
1259,PLAYER_SLEEPBEFORE_START,1516300327542,193
1259,PLAYER_SLEEPBEFORE_END,1516300327670,193
1259,WS_SEND_START,1516300327670,193
1259,WS_SEND_END,1516300327670,193
1259,WS_RECV_START,1516300327670,194
1259,WS_RECV_END,1516300328492,194
1259,PLAYER_SLEEPBEFORE_START,1516300328492,195
1259,PLAYER_SLEEPBEFORE_END,1516300330247,195
1259,WS_SEND_START,1516300330247,195
1259,WS_SEND_END,1516300330247,195
1259,WS_RECV_START,1516300330247,196
1259,WS_RECV_END,1516300332673,196
1259,PLAYER_SLEEPBEFORE_START,1516300332673,197
1259,PLAYER_SLEEPBEFORE_END,1516300334477,197
1259,WS_SEND_START,1516300334477,197
1259,WS_SEND_END,1516300334477,197
1259,WS_RECV_START,1516300334477,198
1259,WS_RECV_END,1516300337057,198
1259,PLAYER_SLEEPBEFORE_START,1516300337057,199
1259,PLAYER_SLEEPBEFORE_END,1516300348911,199
1259,WS_SEND_START,1516300348911,199
1259,WS_SEND_END,1516300348911,199
1259,PLAYER_SLEEPBEFORE_START,1516300348911,200
1259,PLAYER_SLEEPBEFORE_END,1516300352999,200
1259,WS_SEND_START,1516300352999,200
1259,WS_SEND_END,1516300352999,200
1259,WS_RECV_START,1516300352999,201
1259,WS_RECV_END,1516300353575,201
1259,PLAYER_SLEEPBEFORE_START,1516300353575,202
1259,PLAYER_SLEEPBEFORE_END,1516300353589,202
1259,WS_SEND_START,1516300353589,202
1259,WS_SEND_END,1516300353590,202
1259,WS_RECV_START,1516300353590,203
1259,WS_RECV_END,1516300354184,203
1259,PLAYER_SLEEPBEFORE_START,1516300354184,204
1259,PLAYER_SLEEPBEFORE_END,1516300373833,204
1259,WS_SEND_START,1516300373833,204
1259,WS_SEND_END,1516300373833,204
1259,PLAYER_SLEEPBEFORE_START,1516300373833,205
1259,PLAYER_SLEEPBEFORE_END,1516300377731,205
1259,WS_SEND_START,1516300377731,205
1259,WS_SEND_END,1516300377731,205
1259,WS_RECV_START,1516300377731,206
1259,WS_RECV_END,1516300378058,206
1259,PLAYER_SLEEPBEFORE_START,1516300378058,207
1259,PLAYER_SLEEPBEFORE_END,1516300394989,207
1259,REQ_START,1516300394989,207
1259,REQ_END,1516300394996,207
1259,PLAYER_SLEEPBEFORE_START,1516300394996,208
1259,PLAYER_SLEEPBEFORE_END,1516300401848,208
1259,WS_CLOSE_START,1516300401848,208
1259,WS_CLOSE_END,1516300401848,208
1259,PLAYER_DONE,1516300401848
