# --sessions 2700 --app-url=http://shinyloadtest.rstudioservices.com/cran_explorer --output-dir test2700 --overwrite-output --log-level warn --start-interval 100 15min.log
thread_id,event,timestamp,input_line_number,comment
1278,PLAYER_SESSION_CREATE,1516299245914
1278,PLAYER_START_INTERVAL_START,1516299245914
1278,PLAYER_START_INTERVAL_END,1516299373714
1278,REQ_HOME_START,1516299373714,2
1278,REQ_HOME_END,1516299373813,2
1278,REQ_START,1516299373813,3
1278,REQ_END,1516299373874,3
1278,REQ_START,1516299373874,4
1278,REQ_END,1516299374041,4
1278,REQ_START,1516299374041,5
1278,REQ_END,1516299374084,5
1278,REQ_START,1516299374084,6
1278,REQ_END,1516299374241,6
1278,REQ_START,1516299374241,7
1278,REQ_END,1516299374418,7
1278,REQ_START,1516299374418,8
1278,REQ_END,1516299374459,8
1278,REQ_START,1516299374459,9
1278,REQ_END,1516299374501,9
1278,REQ_START,1516299374501,10
1278,REQ_END,1516299374508,10
1278,REQ_START,1516299374508,11
1278,REQ_END,1516299374549,11
1278,REQ_START,1516299374549,12
1278,REQ_END,1516299374557,12
1278,REQ_START,1516299374557,13
1278,REQ_END,1516299374594,13
1278,REQ_START,1516299374594,14
1278,REQ_END,1516299374608,14
1278,REQ_START,1516299374608,15
1278,REQ_END,1516299374659,15
1278,REQ_TOK_START,1516299374659,16
1278,REQ_TOK_END,1516299374665,16
1278,REQ_SINF_START,1516299374665,17
1278,REQ_SINF_END,1516299374670,17
1278,WS_OPEN_START,1516299374670,18
1278,WS_OPEN_END,1516299374675,18
1278,REQ_START,1516299374675,19
1278,REQ_END,1516299374769,19
1278,WS_RECV_START,1516299374769,20
1278,WS_RECV_END,1516299374769,20
1278,PLAYER_SLEEPBEFORE_START,1516299374769,21
1278,PLAYER_SLEEPBEFORE_END,1516299374774,21
1278,WS_SEND_START,1516299374774,21
1278,WS_SEND_END,1516299374774,21
1278,PLAYER_SLEEPBEFORE_START,1516299374774,22
1278,PLAYER_SLEEPBEFORE_END,1516299374775,22
1278,WS_SEND_START,1516299374775,22
1278,WS_SEND_END,1516299374775,22
1278,WS_RECV_INIT_START,1516299374775,23
1278,WS_RECV_INIT_END,1516299374795,23
1278,WS_RECV_START,1516299374795,24
1278,WS_RECV_END,1516299374848,24
1278,PLAYER_SLEEPBEFORE_START,1516299374848,25
1278,PLAYER_SLEEPBEFORE_END,1516299374855,25
1278,REQ_START,1516299374855,25
1278,REQ_END,1516299374896,25
1278,PLAYER_SLEEPBEFORE_START,1516299374896,26
1278,PLAYER_SLEEPBEFORE_END,1516299374897,26
1278,REQ_START,1516299374897,26
1278,REQ_END,1516299374934,26
1278,PLAYER_SLEEPBEFORE_START,1516299374934,27
1278,PLAYER_SLEEPBEFORE_END,1516299374937,27
1278,REQ_START,1516299374937,27
1278,REQ_END,1516299374974,27
1278,PLAYER_SLEEPBEFORE_START,1516299374974,28
1278,PLAYER_SLEEPBEFORE_END,1516299375259,28
1278,REQ_START,1516299375259,28
1278,REQ_END,1516299375300,28
1278,PLAYER_SLEEPBEFORE_START,1516299375300,29
1278,PLAYER_SLEEPBEFORE_END,1516299375475,29
1278,WS_SEND_START,1516299375475,29
1278,WS_SEND_END,1516299375475,29
1278,WS_RECV_START,1516299375475,30
1278,WS_RECV_END,1516299375593,30
1278,PLAYER_SLEEPBEFORE_START,1516299375593,31
1278,PLAYER_SLEEPBEFORE_END,1516299375604,31
1278,REQ_START,1516299375604,31
1278,REQ_END,1516299375648,31
1278,PLAYER_SLEEPBEFORE_START,1516299375648,32
1278,PLAYER_SLEEPBEFORE_END,1516299403793,32
1278,WS_SEND_START,1516299403793,32
1278,WS_SEND_END,1516299403793,32
1278,WS_RECV_START,1516299403793,33
1278,WS_RECV_END,1516299403969,33
1278,PLAYER_SLEEPBEFORE_START,1516299403969,34
1278,PLAYER_SLEEPBEFORE_END,1516299429880,34
1278,WS_SEND_START,1516299429880,34
1278,WS_SEND_END,1516299429880,34
1278,WS_RECV_START,1516299429880,35
1278,WS_RECV_END,1516299429940,35
1278,PLAYER_SLEEPBEFORE_START,1516299429940,36
1278,PLAYER_SLEEPBEFORE_END,1516299429949,36
1278,WS_SEND_START,1516299429949,36
1278,WS_SEND_END,1516299429949,36
1278,WS_RECV_START,1516299429949,37
1278,WS_RECV_END,1516299430017,37
1278,PLAYER_SLEEPBEFORE_START,1516299430017,38
1278,PLAYER_SLEEPBEFORE_END,1516299433212,38
1278,WS_SEND_START,1516299433212,38
1278,WS_SEND_END,1516299433212,38
1278,WS_RECV_START,1516299433212,39
1278,WS_RECV_END,1516299433408,39
1278,PLAYER_SLEEPBEFORE_START,1516299433408,40
1278,PLAYER_SLEEPBEFORE_END,1516299433454,40
1278,WS_SEND_START,1516299433454,40
1278,WS_SEND_END,1516299433454,40
1278,WS_RECV_START,1516299433454,41
1278,WS_RECV_END,1516299433622,41
1278,PLAYER_SLEEPBEFORE_START,1516299433622,42
1278,PLAYER_SLEEPBEFORE_END,1516299451758,42
1278,WS_SEND_START,1516299451758,42
1278,WS_SEND_END,1516299451758,42
1278,WS_RECV_START,1516299451758,43
1278,WS_RECV_END,1516299451813,43
1278,PLAYER_SLEEPBEFORE_START,1516299451813,44
1278,PLAYER_SLEEPBEFORE_END,1516299451825,44
1278,WS_SEND_START,1516299451825,44
1278,WS_SEND_END,1516299451825,44
1278,WS_RECV_START,1516299451825,45
1278,WS_RECV_END,1516299451893,45
1278,PLAYER_SLEEPBEFORE_START,1516299451893,46
1278,PLAYER_SLEEPBEFORE_END,1516299453153,46
1278,WS_SEND_START,1516299453153,46
1278,WS_SEND_END,1516299453153,46
1278,WS_RECV_START,1516299453153,47
1278,WS_RECV_END,1516299453215,47
1278,PLAYER_SLEEPBEFORE_START,1516299453215,48
1278,PLAYER_SLEEPBEFORE_END,1516299454535,48
1278,WS_SEND_START,1516299454535,48
1278,WS_SEND_END,1516299454535,48
1278,WS_RECV_START,1516299454535,49
1278,WS_RECV_END,1516299454689,49
1278,PLAYER_SLEEPBEFORE_START,1516299454689,50
1278,PLAYER_SLEEPBEFORE_END,1516299454714,50
1278,WS_SEND_START,1516299454714,50
1278,WS_SEND_END,1516299454714,50
1278,WS_RECV_START,1516299454714,51
1278,WS_RECV_END,1516299454889,51
1278,PLAYER_SLEEPBEFORE_START,1516299454889,52
1278,PLAYER_SLEEPBEFORE_END,1516299477453,52
1278,WS_SEND_START,1516299477453,52
1278,WS_SEND_END,1516299477453,52
1278,WS_RECV_START,1516299477453,53
1278,WS_RECV_END,1516299477600,53
1278,PLAYER_SLEEPBEFORE_START,1516299477600,54
1278,PLAYER_SLEEPBEFORE_END,1516299498903,54
1278,WS_SEND_START,1516299498903,54
1278,WS_SEND_END,1516299498903,54
1278,PLAYER_SLEEPBEFORE_START,1516299498903,55
1278,PLAYER_SLEEPBEFORE_END,1516299500844,55
1278,WS_SEND_START,1516299500844,55
1278,WS_SEND_END,1516299500844,55
1278,WS_RECV_START,1516299500844,56
1278,WS_RECV_END,1516299501339,56
1278,PLAYER_SLEEPBEFORE_START,1516299501339,57
1278,PLAYER_SLEEPBEFORE_END,1516299524211,57
1278,WS_SEND_START,1516299524211,57
1278,WS_SEND_END,1516299524211,57
1278,WS_RECV_START,1516299524211,58
1278,WS_RECV_END,1516299524454,58
1278,PLAYER_SLEEPBEFORE_START,1516299524454,59
1278,PLAYER_SLEEPBEFORE_END,1516299526795,59
1278,WS_SEND_START,1516299526795,59
1278,WS_SEND_END,1516299526795,59
1278,WS_RECV_START,1516299526795,60
1278,WS_RECV_END,1516299527166,60
1278,PLAYER_SLEEPBEFORE_START,1516299527166,61
1278,PLAYER_SLEEPBEFORE_END,1516299530757,61
1278,WS_SEND_START,1516299530757,61
1278,WS_SEND_END,1516299530757,61
1278,WS_RECV_START,1516299530757,62
1278,WS_RECV_END,1516299532655,62
1278,PLAYER_SLEEPBEFORE_START,1516299532655,63
1278,PLAYER_SLEEPBEFORE_END,1516299551917,63
1278,WS_SEND_START,1516299551917,63
1278,WS_SEND_END,1516299551918,63
1278,WS_RECV_START,1516299551918,64
1278,WS_RECV_END,1516299552616,64
1278,PLAYER_SLEEPBEFORE_START,1516299552616,65
1278,PLAYER_SLEEPBEFORE_END,1516299579433,65
1278,WS_SEND_START,1516299579433,65
1278,WS_SEND_END,1516299579433,65
1278,WS_RECV_START,1516299579433,66
1278,WS_RECV_END,1516299580779,66
1278,PLAYER_SLEEPBEFORE_START,1516299580779,67
1278,PLAYER_SLEEPBEFORE_END,1516299582287,67
1278,WS_SEND_START,1516299582287,67
1278,WS_SEND_END,1516299582287,67
1278,WS_RECV_START,1516299582287,68
1278,WS_RECV_END,1516299582952,68
1278,PLAYER_SLEEPBEFORE_START,1516299582952,69
1278,PLAYER_SLEEPBEFORE_END,1516299604950,69
1278,WS_SEND_START,1516299604950,69
1278,WS_SEND_END,1516299604950,69
1278,WS_RECV_START,1516299604950,70
1278,WS_RECV_END,1516299606075,70
1278,PLAYER_SLEEPBEFORE_START,1516299606075,71
1278,PLAYER_SLEEPBEFORE_END,1516299630850,71
1278,WS_SEND_START,1516299630850,71
1278,WS_SEND_END,1516299630850,71
1278,PLAYER_SLEEPBEFORE_START,1516299630850,72
1278,PLAYER_SLEEPBEFORE_END,1516299633457,72
1278,WS_SEND_START,1516299633457,72
1278,WS_SEND_END,1516299633457,72
1278,WS_RECV_START,1516299633457,73
1278,WS_RECV_END,1516299634666,73
1278,PLAYER_SLEEPBEFORE_START,1516299634666,74
1278,PLAYER_SLEEPBEFORE_END,1516299634675,74
1278,WS_SEND_START,1516299634675,74
1278,WS_SEND_END,1516299634675,74
1278,WS_RECV_START,1516299634675,75
1278,WS_RECV_END,1516299635158,75
1278,PLAYER_SLEEPBEFORE_START,1516299635158,76
1278,PLAYER_SLEEPBEFORE_END,1516299636664,76
1278,WS_SEND_START,1516299636664,76
1278,WS_SEND_END,1516299636664,76
1278,WS_RECV_START,1516299636664,77
1278,WS_RECV_END,1516299637598,77
1278,PLAYER_SLEEPBEFORE_START,1516299637598,78
1278,PLAYER_SLEEPBEFORE_END,1516299638466,78
1278,WS_SEND_START,1516299638466,78
1278,WS_SEND_END,1516299638466,78
1278,WS_RECV_START,1516299638466,79
1278,WS_RECV_END,1516299639015,79
1278,PLAYER_SLEEPBEFORE_START,1516299639015,80
1278,PLAYER_SLEEPBEFORE_END,1516299646681,80
1278,WS_SEND_START,1516299646681,80
1278,WS_SEND_END,1516299646681,80
1278,WS_RECV_START,1516299646681,81
1278,WS_RECV_END,1516299646727,81
1278,PLAYER_SLEEPBEFORE_START,1516299646727,82
1278,PLAYER_SLEEPBEFORE_END,1516299647829,82
1278,WS_SEND_START,1516299647829,82
1278,WS_SEND_END,1516299647829,82
1278,WS_RECV_START,1516299647829,83
1278,WS_RECV_END,1516299647894,83
1278,PLAYER_SLEEPBEFORE_START,1516299647894,84
1278,PLAYER_SLEEPBEFORE_END,1516299648841,84
1278,WS_SEND_START,1516299648841,84
1278,WS_SEND_END,1516299648841,84
1278,WS_RECV_START,1516299648841,85
1278,WS_RECV_END,1516299649452,85
1278,PLAYER_SLEEPBEFORE_START,1516299649452,86
1278,PLAYER_SLEEPBEFORE_END,1516299653624,86
1278,WS_SEND_START,1516299653624,86
1278,WS_SEND_END,1516299653624,86
1278,WS_RECV_START,1516299653624,87
1278,WS_RECV_END,1516299654645,87
1278,PLAYER_SLEEPBEFORE_START,1516299654645,88
1278,PLAYER_SLEEPBEFORE_END,1516299654653,88
1278,WS_SEND_START,1516299654653,88
1278,WS_SEND_END,1516299654653,88
1278,WS_RECV_START,1516299654653,89
1278,WS_RECV_END,1516299654956,89
1278,PLAYER_SLEEPBEFORE_START,1516299654956,90
1278,PLAYER_SLEEPBEFORE_END,1516299682153,90
1278,REQ_START,1516299682153,90
1278,REQ_END,1516299682158,90
1278,PLAYER_SLEEPBEFORE_START,1516299682158,91
1278,PLAYER_SLEEPBEFORE_END,1516299690047,91
1278,WS_SEND_START,1516299690047,91
1278,WS_SEND_END,1516299690047,91
1278,WS_RECV_START,1516299690047,92
1278,WS_RECV_END,1516299691280,92
1278,PLAYER_SLEEPBEFORE_START,1516299691280,93
1278,PLAYER_SLEEPBEFORE_END,1516299691295,93
1278,WS_SEND_START,1516299691295,93
1278,WS_SEND_END,1516299691295,93
1278,WS_RECV_START,1516299691295,94
1278,WS_RECV_END,1516299691798,94
1278,PLAYER_SLEEPBEFORE_START,1516299691798,95
1278,PLAYER_SLEEPBEFORE_END,1516299715353,95
1278,WS_SEND_START,1516299715353,95
1278,WS_SEND_END,1516299715353,95
1278,WS_RECV_START,1516299715353,96
1278,WS_RECV_END,1516299716033,96
1278,PLAYER_SLEEPBEFORE_START,1516299716033,97
1278,PLAYER_SLEEPBEFORE_END,1516299738473,97
1278,WS_SEND_START,1516299738473,97
1278,WS_SEND_END,1516299738473,97
1278,WS_RECV_START,1516299738473,98
1278,WS_RECV_END,1516299740258,98
1278,PLAYER_SLEEPBEFORE_START,1516299740258,99
1278,PLAYER_SLEEPBEFORE_END,1516299740279,99
1278,WS_SEND_START,1516299740279,99
1278,WS_SEND_END,1516299740279,99
1278,WS_RECV_START,1516299740279,100
1278,WS_RECV_END,1516299741071,100
1278,PLAYER_SLEEPBEFORE_START,1516299741071,101
1278,PLAYER_SLEEPBEFORE_END,1516299764630,101
1278,WS_SEND_START,1516299764630,101
1278,WS_SEND_END,1516299764630,101
1278,WS_RECV_START,1516299764630,102
1278,WS_RECV_END,1516299767348,102
1278,PLAYER_SLEEPBEFORE_START,1516299767348,103
1278,PLAYER_SLEEPBEFORE_END,1516299790973,103
1278,WS_SEND_START,1516299790973,103
1278,WS_SEND_END,1516299790973,103
1278,WS_RECV_START,1516299790973,104
1278,WS_RECV_END,1516299793672,104
1278,PLAYER_SLEEPBEFORE_START,1516299793672,105
1278,PLAYER_SLEEPBEFORE_END,1516299819049,105
1278,WS_SEND_START,1516299819049,105
1278,WS_SEND_END,1516299819049,105
1278,WS_RECV_START,1516299819049,106
1278,WS_RECV_END,1516299822801,106
1278,PLAYER_SLEEPBEFORE_START,1516299822801,107
1278,PLAYER_SLEEPBEFORE_END,1516299846224,107
1278,WS_SEND_START,1516299846224,107
1278,WS_SEND_END,1516299846224,107
1278,WS_RECV_START,1516299846224,108
1278,WS_RECV_END,1516299848299,108
1278,PLAYER_SLEEPBEFORE_START,1516299848300,109
1278,PLAYER_SLEEPBEFORE_END,1516299848309,109
1278,WS_SEND_START,1516299848309,109
1278,WS_SEND_END,1516299848309,109
1278,WS_RECV_START,1516299848309,110
1278,WS_RECV_END,1516299850943,110
1278,PLAYER_SLEEPBEFORE_START,1516299850943,111
1278,PLAYER_SLEEPBEFORE_END,1516299851902,111
1278,WS_SEND_START,1516299851902,111
1278,WS_SEND_END,1516299851902,111
1278,WS_RECV_START,1516299851902,112
1278,WS_RECV_END,1516299853298,112
1278,PLAYER_SLEEPBEFORE_START,1516299853298,113
1278,PLAYER_SLEEPBEFORE_END,1516299853860,113
1278,WS_SEND_START,1516299853860,113
1278,WS_SEND_END,1516299853860,113
1278,WS_RECV_START,1516299853860,114
1278,WS_RECV_END,1516299854787,114
1278,PLAYER_SLEEPBEFORE_START,1516299854787,115
1278,PLAYER_SLEEPBEFORE_END,1516299854796,115
1278,WS_SEND_START,1516299854796,115
1278,WS_SEND_END,1516299854796,115
1278,WS_RECV_START,1516299854796,116
1278,WS_RECV_END,1516299855242,116
1278,PLAYER_SLEEPBEFORE_START,1516299855242,117
1278,PLAYER_SLEEPBEFORE_END,1516299875602,117
1278,WS_SEND_START,1516299875602,117
1278,WS_SEND_END,1516299875602,117
1278,PLAYER_SLEEPBEFORE_START,1516299875602,118
1278,PLAYER_SLEEPBEFORE_END,1516299879354,118
1278,WS_SEND_START,1516299879354,118
1278,WS_SEND_END,1516299879354,118
1278,WS_RECV_START,1516299879354,119
1278,WS_RECV_END,1516299879926,119
1278,PLAYER_SLEEPBEFORE_START,1516299879926,120
1278,PLAYER_SLEEPBEFORE_END,1516299880914,120
1278,WS_SEND_START,1516299880914,120
1278,WS_SEND_END,1516299880914,120
1278,WS_RECV_START,1516299880914,121
1278,WS_RECV_END,1516299888070,121
1278,PLAYER_SLEEPBEFORE_START,1516299888070,122
1278,PLAYER_SLEEPBEFORE_END,1516299889255,122
1278,WS_SEND_START,1516299889255,122
1278,WS_SEND_END,1516299889255,122
1278,WS_RECV_START,1516299889255,123
1278,WS_RECV_END,1516299891367,123
1278,PLAYER_SLEEPBEFORE_START,1516299891367,124
1278,PLAYER_SLEEPBEFORE_END,1516299915772,124
1278,WS_SEND_START,1516299915772,124
1278,WS_SEND_END,1516299915772,124
1278,WS_RECV_START,1516299915772,125
1278,WS_RECV_END,1516299916770,125
1278,PLAYER_SLEEPBEFORE_START,1516299916770,126
1278,PLAYER_SLEEPBEFORE_END,1516299937282,126
1278,WS_SEND_START,1516299937282,126
1278,WS_SEND_END,1516299937282,126
1278,PLAYER_SLEEPBEFORE_START,1516299937282,127
1278,PLAYER_SLEEPBEFORE_END,1516299940336,127
1278,WS_SEND_START,1516299940336,127
1278,WS_SEND_END,1516299940336,127
1278,WS_RECV_START,1516299940336,128
1278,WS_RECV_END,1516299943860,128
1278,PLAYER_SLEEPBEFORE_START,1516299943860,129
1278,PLAYER_SLEEPBEFORE_END,1516299943880,129
1278,WS_SEND_START,1516299943880,129
1278,WS_SEND_END,1516299943880,129
1278,WS_RECV_START,1516299943880,130
1278,WS_RECV_END,1516299945288,130
1278,PLAYER_SLEEPBEFORE_START,1516299945288,131
1278,PLAYER_SLEEPBEFORE_END,1516299966912,131
1278,WS_SEND_START,1516299966912,131
1278,WS_SEND_END,1516299966912,131
1278,PLAYER_SLEEPBEFORE_START,1516299966912,132
1278,PLAYER_SLEEPBEFORE_END,1516299969992,132
1278,WS_SEND_START,1516299969992,132
1278,WS_SEND_END,1516299969992,132
1278,WS_RECV_START,1516299969992,133
1278,WS_RECV_END,1516299970268,133
1278,PLAYER_SLEEPBEFORE_START,1516299970268,134
1278,PLAYER_SLEEPBEFORE_END,1516299991485,134
1278,WS_SEND_START,1516299991486,134
1278,WS_SEND_END,1516299991486,134
1278,PLAYER_SLEEPBEFORE_START,1516299991486,135
1278,PLAYER_SLEEPBEFORE_END,1516299994676,135
1278,WS_SEND_START,1516299994676,135
1278,WS_SEND_END,1516299994676,135
1278,WS_RECV_START,1516299994676,136
1278,WS_RECV_END,1516299995883,136
1278,PLAYER_SLEEPBEFORE_START,1516299995883,137
1278,PLAYER_SLEEPBEFORE_END,1516299995890,137
1278,WS_SEND_START,1516299995890,137
1278,WS_SEND_END,1516299995890,137
1278,WS_RECV_START,1516299995890,138
1278,WS_RECV_END,1516299998487,138
1278,PLAYER_SLEEPBEFORE_START,1516299998487,139
1278,PLAYER_SLEEPBEFORE_END,1516299999177,139
1278,WS_SEND_START,1516299999177,139
1278,WS_SEND_END,1516299999177,139
1278,WS_RECV_START,1516299999177,140
1278,WS_RECV_END,1516300002027,140
1278,PLAYER_SLEEPBEFORE_START,1516300002027,141
1278,PLAYER_SLEEPBEFORE_END,1516300002682,141
1278,WS_SEND_START,1516300002682,141
1278,WS_SEND_END,1516300002682,141
1278,WS_RECV_START,1516300002682,142
1278,WS_RECV_END,1516300005850,142
1278,PLAYER_SLEEPBEFORE_START,1516300005850,143
1278,PLAYER_SLEEPBEFORE_END,1516300005907,143
1278,WS_SEND_START,1516300005907,143
1278,WS_SEND_END,1516300005907,143
1278,WS_RECV_START,1516300005907,144
1278,WS_RECV_END,1516300008644,144
1278,PLAYER_SLEEPBEFORE_START,1516300008644,145
1278,PLAYER_SLEEPBEFORE_END,1516300024706,145
1278,REQ_START,1516300024706,145
1278,REQ_END,1516300024711,145
1278,PLAYER_SLEEPBEFORE_START,1516300024711,146
1278,PLAYER_SLEEPBEFORE_END,1516300033588,146
1278,WS_SEND_START,1516300033588,146
1278,WS_SEND_END,1516300033588,146
1278,WS_RECV_START,1516300033588,147
1278,WS_RECV_END,1516300034859,147
1278,PLAYER_SLEEPBEFORE_START,1516300034859,148
1278,PLAYER_SLEEPBEFORE_END,1516300056781,148
1278,WS_SEND_START,1516300056781,148
1278,WS_SEND_END,1516300056781,148
1278,PLAYER_SLEEPBEFORE_START,1516300056781,149
1278,PLAYER_SLEEPBEFORE_END,1516300059209,149
1278,WS_SEND_START,1516300059209,149
1278,WS_SEND_END,1516300059209,149
1278,WS_RECV_START,1516300059209,150
1278,WS_RECV_END,1516300061354,150
1278,PLAYER_SLEEPBEFORE_START,1516300061354,151
1278,PLAYER_SLEEPBEFORE_END,1516300061564,151
1278,WS_SEND_START,1516300061564,151
1278,WS_SEND_END,1516300061564,151
1278,WS_RECV_START,1516300061564,152
1278,WS_RECV_END,1516300063962,152
1278,PLAYER_SLEEPBEFORE_START,1516300063962,153
1278,PLAYER_SLEEPBEFORE_END,1516300087889,153
1278,WS_SEND_START,1516300087889,153
1278,WS_SEND_END,1516300087889,153
1278,WS_RECV_START,1516300087889,154
1278,WS_RECV_END,1516300088735,154
1278,PLAYER_SLEEPBEFORE_START,1516300088735,155
1278,PLAYER_SLEEPBEFORE_END,1516300111293,155
1278,WS_SEND_START,1516300111293,155
1278,WS_SEND_END,1516300111293,155
1278,PLAYER_SLEEPBEFORE_START,1516300111293,156
1278,PLAYER_SLEEPBEFORE_END,1516300114567,156
1278,WS_SEND_START,1516300114567,156
1278,WS_SEND_END,1516300114567,156
1278,WS_RECV_START,1516300114567,157
1278,WS_RECV_END,1516300115909,157
1278,PLAYER_SLEEPBEFORE_START,1516300115909,158
1278,PLAYER_SLEEPBEFORE_END,1516300115919,158
1278,WS_SEND_START,1516300115919,158
1278,WS_SEND_END,1516300115919,158
1278,WS_RECV_START,1516300115919,159
1278,WS_RECV_END,1516300116323,159
1278,PLAYER_SLEEPBEFORE_START,1516300116323,160
1278,PLAYER_SLEEPBEFORE_END,1516300116498,160
1278,WS_SEND_START,1516300116498,160
1278,WS_SEND_END,1516300116498,160
1278,WS_RECV_START,1516300116498,161
1278,WS_RECV_END,1516300117203,161
1278,PLAYER_SLEEPBEFORE_START,1516300117203,162
1278,PLAYER_SLEEPBEFORE_END,1516300117228,162
1278,WS_SEND_START,1516300117228,162
1278,WS_SEND_END,1516300117228,162
1278,WS_RECV_START,1516300117228,163
1278,WS_RECV_END,1516300118092,163
1278,PLAYER_SLEEPBEFORE_START,1516300118092,164
1278,PLAYER_SLEEPBEFORE_END,1516300138904,164
1278,WS_SEND_START,1516300138904,164
1278,WS_SEND_END,1516300138904,164
1278,WS_RECV_START,1516300138904,165
1278,WS_RECV_END,1516300139803,165
1278,PLAYER_SLEEPBEFORE_START,1516300139803,166
1278,PLAYER_SLEEPBEFORE_END,1516300162258,166
1278,WS_SEND_START,1516300162258,166
1278,WS_SEND_END,1516300162259,166
1278,WS_RECV_START,1516300162259,167
1278,WS_RECV_END,1516300166331,167
1278,PLAYER_SLEEPBEFORE_START,1516300166331,168
1278,PLAYER_SLEEPBEFORE_END,1516300193688,168
1278,WS_SEND_START,1516300193688,168
1278,WS_SEND_END,1516300193688,168
1278,WS_RECV_START,1516300193688,169
1278,WS_RECV_END,1516300199241,169
1278,PLAYER_SLEEPBEFORE_START,1516300199241,170
1278,PLAYER_SLEEPBEFORE_END,1516300199251,170
1278,WS_SEND_START,1516300199251,170
1278,WS_SEND_END,1516300199251,170
1278,WS_RECV_START,1516300199251,171
1278,WS_RECV_END,1516300202826,171
1278,PLAYER_SLEEPBEFORE_START,1516300202826,172
1278,PLAYER_SLEEPBEFORE_END,1516300203196,172
1278,WS_SEND_START,1516300203196,172
1278,WS_SEND_END,1516300203196,172
1278,WS_RECV_START,1516300203196,173
1278,WS_RECV_END,1516300205705,173
1278,PLAYER_SLEEPBEFORE_START,1516300205705,174
1278,PLAYER_SLEEPBEFORE_END,1516300205746,174
1278,WS_SEND_START,1516300205746,174
1278,WS_SEND_END,1516300205746,174
1278,WS_RECV_START,1516300205746,175
1278,WS_RECV_END,1516300209417,175
1278,PLAYER_SLEEPBEFORE_START,1516300209417,176
1278,PLAYER_SLEEPBEFORE_END,1516300231178,176
1278,WS_SEND_START,1516300231178,176
1278,WS_SEND_END,1516300231178,176
1278,PLAYER_SLEEPBEFORE_START,1516300231178,177
1278,PLAYER_SLEEPBEFORE_END,1516300233696,177
1278,WS_SEND_START,1516300233696,177
1278,WS_SEND_END,1516300233696,177
1278,WS_RECV_START,1516300233696,178
1278,WS_RECV_END,1516300235820,178
1278,PLAYER_SLEEPBEFORE_START,1516300235820,179
1278,PLAYER_SLEEPBEFORE_END,1516300258160,179
1278,WS_SEND_START,1516300258160,179
1278,WS_SEND_END,1516300258160,179
1278,WS_RECV_START,1516300258160,180
1278,WS_RECV_END,1516300261394,180
1278,PLAYER_SLEEPBEFORE_START,1516300261394,181
1278,PLAYER_SLEEPBEFORE_END,1516300261838,181
1278,WS_SEND_START,1516300261838,181
1278,WS_SEND_END,1516300261838,181
1278,WS_RECV_START,1516300261838,182
1278,WS_RECV_END,1516300263673,182
1278,PLAYER_SLEEPBEFORE_START,1516300263673,183
1278,PLAYER_SLEEPBEFORE_END,1516300264196,183
1278,WS_SEND_START,1516300264196,183
1278,WS_SEND_END,1516300264196,183
1278,WS_RECV_START,1516300264196,184
1278,WS_RECV_END,1516300266613,184
1278,PLAYER_SLEEPBEFORE_START,1516300266613,185
1278,PLAYER_SLEEPBEFORE_END,1516300266881,185
1278,WS_SEND_START,1516300266881,185
1278,WS_SEND_END,1516300266881,185
1278,WS_RECV_START,1516300266881,186
1278,WS_RECV_END,1516300269355,186
1278,PLAYER_SLEEPBEFORE_START,1516300269355,187
1278,PLAYER_SLEEPBEFORE_END,1516300291856,187
1278,WS_SEND_START,1516300291856,187
1278,WS_SEND_END,1516300291856,187
1278,WS_RECV_START,1516300291856,188
1278,WS_RECV_END,1516300293227,188
1278,PLAYER_SLEEPBEFORE_START,1516300293227,189
1278,PLAYER_SLEEPBEFORE_END,1516300299466,189
1278,WS_SEND_START,1516300299466,189
1278,WS_SEND_END,1516300299466,189
1278,WS_RECV_START,1516300299466,190
1278,WS_RECV_END,1516300299842,190
1278,PLAYER_SLEEPBEFORE_START,1516300299842,191
1278,PLAYER_SLEEPBEFORE_END,1516300301757,191
1278,WS_SEND_START,1516300301757,191
1278,WS_SEND_END,1516300301757,191
1278,WS_RECV_START,1516300301757,192
1278,WS_RECV_END,1516300302086,192
1278,PLAYER_SLEEPBEFORE_START,1516300302086,193
1278,PLAYER_SLEEPBEFORE_END,1516300302215,193
1278,WS_SEND_START,1516300302215,193
1278,WS_SEND_END,1516300302215,193
1278,WS_RECV_START,1516300302215,194
1278,WS_RECV_END,1516300302851,194
1278,PLAYER_SLEEPBEFORE_START,1516300302851,195
1278,PLAYER_SLEEPBEFORE_END,1516300304606,195
1278,WS_SEND_START,1516300304606,195
1278,WS_SEND_END,1516300304606,195
1278,WS_RECV_START,1516300304606,196
1278,WS_RECV_END,1516300305371,196
1278,PLAYER_SLEEPBEFORE_START,1516300305371,197
1278,PLAYER_SLEEPBEFORE_END,1516300307175,197
1278,WS_SEND_START,1516300307175,197
1278,WS_SEND_END,1516300307175,197
1278,WS_RECV_START,1516300307175,198
1278,WS_RECV_END,1516300308805,198
1278,PLAYER_SLEEPBEFORE_START,1516300308805,199
1278,PLAYER_SLEEPBEFORE_END,1516300320659,199
1278,WS_SEND_START,1516300320659,199
1278,WS_SEND_END,1516300320659,199
1278,PLAYER_SLEEPBEFORE_START,1516300320659,200
1278,PLAYER_SLEEPBEFORE_END,1516300324747,200
1278,WS_SEND_START,1516300324747,200
1278,WS_SEND_END,1516300324747,200
1278,WS_RECV_START,1516300324747,201
1278,WS_RECV_END,1516300325586,201
1278,PLAYER_SLEEPBEFORE_START,1516300325586,202
1278,PLAYER_SLEEPBEFORE_END,1516300325600,202
1278,WS_SEND_START,1516300325600,202
1278,WS_SEND_END,1516300325600,202
1278,WS_RECV_START,1516300325600,203
1278,WS_RECV_END,1516300326025,203
1278,PLAYER_SLEEPBEFORE_START,1516300326025,204
1278,PLAYER_SLEEPBEFORE_END,1516300345674,204
1278,WS_SEND_START,1516300345674,204
1278,WS_SEND_END,1516300345674,204
1278,PLAYER_SLEEPBEFORE_START,1516300345674,205
1278,PLAYER_SLEEPBEFORE_END,1516300349572,205
1278,WS_SEND_START,1516300349572,205
1278,WS_SEND_END,1516300349572,205
1278,WS_RECV_START,1516300349572,206
1278,WS_RECV_END,1516300349681,206
1278,PLAYER_SLEEPBEFORE_START,1516300349681,207
1278,PLAYER_SLEEPBEFORE_END,1516300366613,207
1278,REQ_START,1516300366613,207
1278,REQ_END,1516300366619,207
1278,PLAYER_SLEEPBEFORE_START,1516300366619,208
1278,PLAYER_SLEEPBEFORE_END,1516300373471,208
1278,WS_CLOSE_START,1516300373471,208
1278,WS_CLOSE_END,1516300373471,208
1278,PLAYER_DONE,1516300373471
