# --sessions 2700 --app-url=http://shinyloadtest.rstudioservices.com/cran_explorer --output-dir test2700 --overwrite-output --log-level warn --start-interval 100 15min.log
thread_id,event,timestamp,input_line_number,comment
1338,PLAYER_SESSION_CREATE,1516299245925
1338,PLAYER_START_INTERVAL_START,1516299245925
1338,PLAYER_START_INTERVAL_END,1516299379725
1338,REQ_HOME_START,1516299379725,2
1338,REQ_HOME_END,1516299379817,2
1338,REQ_START,1516299379817,3
1338,REQ_END,1516299379849,3
1338,REQ_START,1516299379849,4
1338,REQ_END,1516299379881,4
1338,REQ_START,1516299379881,5
1338,REQ_END,1516299379920,5
1338,REQ_START,1516299379920,6
1338,REQ_END,1516299380067,6
1338,REQ_START,1516299380067,7
1338,REQ_END,1516299380120,7
1338,REQ_START,1516299380120,8
1338,REQ_END,1516299380171,8
1338,REQ_START,1516299380172,9
1338,REQ_END,1516299380255,9
1338,REQ_START,1516299380255,10
1338,REQ_END,1516299380273,10
1338,REQ_START,1516299380273,11
1338,REQ_END,1516299380318,11
1338,REQ_START,1516299380318,12
1338,REQ_END,1516299380327,12
1338,REQ_START,1516299380327,13
1338,REQ_END,1516299380368,13
1338,REQ_START,1516299380368,14
1338,REQ_END,1516299380385,14
1338,REQ_START,1516299380385,15
1338,REQ_END,1516299380417,15
1338,REQ_TOK_START,1516299380417,16
1338,REQ_TOK_END,1516299380424,16
1338,REQ_SINF_START,1516299380424,17
1338,REQ_SINF_END,1516299380431,17
1338,WS_OPEN_START,1516299380431,18
1338,WS_OPEN_END,1516299380438,18
1338,REQ_START,1516299380438,19
1338,REQ_END,1516299380467,19
1338,WS_RECV_START,1516299380467,20
1338,WS_RECV_END,1516299380467,20
1338,PLAYER_SLEEPBEFORE_START,1516299380467,21
1338,PLAYER_SLEEPBEFORE_END,1516299380472,21
1338,WS_SEND_START,1516299380472,21
1338,WS_SEND_END,1516299380472,21
1338,PLAYER_SLEEPBEFORE_START,1516299380472,22
1338,PLAYER_SLEEPBEFORE_END,1516299380473,22
1338,WS_SEND_START,1516299380473,22
1338,WS_SEND_END,1516299380473,22
1338,WS_RECV_INIT_START,1516299380473,23
1338,WS_RECV_INIT_END,1516299380489,23
1338,WS_RECV_START,1516299380489,24
1338,WS_RECV_END,1516299380537,24
1338,PLAYER_SLEEPBEFORE_START,1516299380537,25
1338,PLAYER_SLEEPBEFORE_END,1516299380545,25
1338,REQ_START,1516299380545,25
1338,REQ_END,1516299380578,25
1338,PLAYER_SLEEPBEFORE_START,1516299380578,26
1338,PLAYER_SLEEPBEFORE_END,1516299380579,26
1338,REQ_START,1516299380579,26
1338,REQ_END,1516299380627,26
1338,PLAYER_SLEEPBEFORE_START,1516299380627,27
1338,PLAYER_SLEEPBEFORE_END,1516299380630,27
1338,REQ_START,1516299380630,27
1338,REQ_END,1516299380664,27
1338,PLAYER_SLEEPBEFORE_START,1516299380664,28
1338,PLAYER_SLEEPBEFORE_END,1516299380949,28
1338,REQ_START,1516299380949,28
1338,REQ_END,1516299380991,28
1338,PLAYER_SLEEPBEFORE_START,1516299380991,29
1338,PLAYER_SLEEPBEFORE_END,1516299381166,29
1338,WS_SEND_START,1516299381166,29
1338,WS_SEND_END,1516299381166,29
1338,WS_RECV_START,1516299381166,30
1338,WS_RECV_END,1516299381278,30
1338,PLAYER_SLEEPBEFORE_START,1516299381278,31
1338,PLAYER_SLEEPBEFORE_END,1516299381290,31
1338,REQ_START,1516299381290,31
1338,REQ_END,1516299381335,31
1338,PLAYER_SLEEPBEFORE_START,1516299381335,32
1338,PLAYER_SLEEPBEFORE_END,1516299409480,32
1338,WS_SEND_START,1516299409480,32
1338,WS_SEND_END,1516299409480,32
1338,WS_RECV_START,1516299409480,33
1338,WS_RECV_END,1516299409630,33
1338,PLAYER_SLEEPBEFORE_START,1516299409630,34
1338,PLAYER_SLEEPBEFORE_END,1516299435541,34
1338,WS_SEND_START,1516299435541,34
1338,WS_SEND_END,1516299435541,34
1338,WS_RECV_START,1516299435541,35
1338,WS_RECV_END,1516299435577,35
1338,PLAYER_SLEEPBEFORE_START,1516299435577,36
1338,PLAYER_SLEEPBEFORE_END,1516299435586,36
1338,WS_SEND_START,1516299435586,36
1338,WS_SEND_END,1516299435586,36
1338,WS_RECV_START,1516299435586,37
1338,WS_RECV_END,1516299435641,37
1338,PLAYER_SLEEPBEFORE_START,1516299435641,38
1338,PLAYER_SLEEPBEFORE_END,1516299438836,38
1338,WS_SEND_START,1516299438836,38
1338,WS_SEND_END,1516299438836,38
1338,WS_RECV_START,1516299438836,39
1338,WS_RECV_END,1516299438957,39
1338,PLAYER_SLEEPBEFORE_START,1516299438957,40
1338,PLAYER_SLEEPBEFORE_END,1516299439004,40
1338,WS_SEND_START,1516299439004,40
1338,WS_SEND_END,1516299439004,40
1338,WS_RECV_START,1516299439004,41
1338,WS_RECV_END,1516299439171,41
1338,PLAYER_SLEEPBEFORE_START,1516299439171,42
1338,PLAYER_SLEEPBEFORE_END,1516299457306,42
1338,WS_SEND_START,1516299457306,42
1338,WS_SEND_END,1516299457306,42
1338,WS_RECV_START,1516299457306,43
1338,WS_RECV_END,1516299457367,43
1338,PLAYER_SLEEPBEFORE_START,1516299457367,44
1338,PLAYER_SLEEPBEFORE_END,1516299457379,44
1338,WS_SEND_START,1516299457379,44
1338,WS_SEND_END,1516299457379,44
1338,WS_RECV_START,1516299457379,45
1338,WS_RECV_END,1516299457421,45
1338,PLAYER_SLEEPBEFORE_START,1516299457421,46
1338,PLAYER_SLEEPBEFORE_END,1516299458681,46
1338,WS_SEND_START,1516299458681,46
1338,WS_SEND_END,1516299458681,46
1338,WS_RECV_START,1516299458681,47
1338,WS_RECV_END,1516299458790,47
1338,PLAYER_SLEEPBEFORE_START,1516299458790,48
1338,PLAYER_SLEEPBEFORE_END,1516299460110,48
1338,WS_SEND_START,1516299460110,48
1338,WS_SEND_END,1516299460110,48
1338,WS_RECV_START,1516299460110,49
1338,WS_RECV_END,1516299460386,49
1338,PLAYER_SLEEPBEFORE_START,1516299460386,50
1338,PLAYER_SLEEPBEFORE_END,1516299460410,50
1338,WS_SEND_START,1516299460410,50
1338,WS_SEND_END,1516299460410,50
1338,WS_RECV_START,1516299460410,51
1338,WS_RECV_END,1516299460568,51
1338,PLAYER_SLEEPBEFORE_START,1516299460568,52
1338,PLAYER_SLEEPBEFORE_END,1516299483133,52
1338,WS_SEND_START,1516299483133,52
1338,WS_SEND_END,1516299483133,52
1338,WS_RECV_START,1516299483133,53
1338,WS_RECV_END,1516299483415,53
1338,PLAYER_SLEEPBEFORE_START,1516299483415,54
1338,PLAYER_SLEEPBEFORE_END,1516299504718,54
1338,WS_SEND_START,1516299504718,54
1338,WS_SEND_END,1516299504718,54
1338,PLAYER_SLEEPBEFORE_START,1516299504718,55
1338,PLAYER_SLEEPBEFORE_END,1516299506659,55
1338,WS_SEND_START,1516299506659,55
1338,WS_SEND_END,1516299506659,55
1338,WS_RECV_START,1516299506659,56
1338,WS_RECV_END,1516299506866,56
1338,PLAYER_SLEEPBEFORE_START,1516299506866,57
1338,PLAYER_SLEEPBEFORE_END,1516299529739,57
1338,WS_SEND_START,1516299529739,57
1338,WS_SEND_END,1516299529739,57
1338,WS_RECV_START,1516299529739,58
1338,WS_RECV_END,1516299530842,58
1338,PLAYER_SLEEPBEFORE_START,1516299530842,59
1338,PLAYER_SLEEPBEFORE_END,1516299533169,59
1338,WS_SEND_START,1516299533169,59
1338,WS_SEND_END,1516299533169,59
1338,WS_RECV_START,1516299533169,60
1338,WS_RECV_END,1516299533694,60
1338,PLAYER_SLEEPBEFORE_START,1516299533694,61
1338,PLAYER_SLEEPBEFORE_END,1516299537285,61
1338,WS_SEND_START,1516299537285,61
1338,WS_SEND_END,1516299537286,61
1338,WS_RECV_START,1516299537286,62
1338,WS_RECV_END,1516299537688,62
1338,PLAYER_SLEEPBEFORE_START,1516299537688,63
1338,PLAYER_SLEEPBEFORE_END,1516299556950,63
1338,WS_SEND_START,1516299556950,63
1338,WS_SEND_END,1516299556950,63
1338,WS_RECV_START,1516299556950,64
1338,WS_RECV_END,1516299557346,64
1338,PLAYER_SLEEPBEFORE_START,1516299557346,65
1338,PLAYER_SLEEPBEFORE_END,1516299584163,65
1338,WS_SEND_START,1516299584163,65
1338,WS_SEND_END,1516299584163,65
1338,WS_RECV_START,1516299584163,66
1338,WS_RECV_END,1516299584994,66
1338,PLAYER_SLEEPBEFORE_START,1516299584994,67
1338,PLAYER_SLEEPBEFORE_END,1516299586501,67
1338,WS_SEND_START,1516299586501,67
1338,WS_SEND_END,1516299586501,67
1338,WS_RECV_START,1516299586501,68
1338,WS_RECV_END,1516299586704,68
1338,PLAYER_SLEEPBEFORE_START,1516299586704,69
1338,PLAYER_SLEEPBEFORE_END,1516299608702,69
1338,WS_SEND_START,1516299608702,69
1338,WS_SEND_END,1516299608702,69
1338,WS_RECV_START,1516299608702,70
1338,WS_RECV_END,1516299609007,70
1338,PLAYER_SLEEPBEFORE_START,1516299609007,71
1338,PLAYER_SLEEPBEFORE_END,1516299633782,71
1338,WS_SEND_START,1516299633782,71
1338,WS_SEND_END,1516299633782,71
1338,PLAYER_SLEEPBEFORE_START,1516299633782,72
1338,PLAYER_SLEEPBEFORE_END,1516299636389,72
1338,WS_SEND_START,1516299636389,72
1338,WS_SEND_END,1516299636389,72
1338,WS_RECV_START,1516299636389,73
1338,WS_RECV_END,1516299637369,73
1338,PLAYER_SLEEPBEFORE_START,1516299637369,74
1338,PLAYER_SLEEPBEFORE_END,1516299637379,74
1338,WS_SEND_START,1516299637379,74
1338,WS_SEND_END,1516299637379,74
1338,WS_RECV_START,1516299637379,75
1338,WS_RECV_END,1516299638186,75
1338,PLAYER_SLEEPBEFORE_START,1516299638186,76
1338,PLAYER_SLEEPBEFORE_END,1516299639692,76
1338,WS_SEND_START,1516299639692,76
1338,WS_SEND_END,1516299639692,76
1338,WS_RECV_START,1516299639692,77
1338,WS_RECV_END,1516299640708,77
1338,PLAYER_SLEEPBEFORE_START,1516299640708,78
1338,PLAYER_SLEEPBEFORE_END,1516299641576,78
1338,WS_SEND_START,1516299641576,78
1338,WS_SEND_END,1516299641576,78
1338,WS_RECV_START,1516299641576,79
1338,WS_RECV_END,1516299642694,79
1338,PLAYER_SLEEPBEFORE_START,1516299642694,80
1338,PLAYER_SLEEPBEFORE_END,1516299650360,80
1338,WS_SEND_START,1516299650360,80
1338,WS_SEND_END,1516299650360,80
1338,WS_RECV_START,1516299650360,81
1338,WS_RECV_END,1516299650739,81
1338,PLAYER_SLEEPBEFORE_START,1516299650739,82
1338,PLAYER_SLEEPBEFORE_END,1516299651841,82
1338,WS_SEND_START,1516299651841,82
1338,WS_SEND_END,1516299651841,82
1338,WS_RECV_START,1516299651841,83
1338,WS_RECV_END,1516299652623,83
1338,PLAYER_SLEEPBEFORE_START,1516299652623,84
1338,PLAYER_SLEEPBEFORE_END,1516299653570,84
1338,WS_SEND_START,1516299653570,84
1338,WS_SEND_END,1516299653570,84
1338,WS_RECV_START,1516299653570,85
1338,WS_RECV_END,1516299653932,85
1338,PLAYER_SLEEPBEFORE_START,1516299653932,86
1338,PLAYER_SLEEPBEFORE_END,1516299658104,86
1338,WS_SEND_START,1516299658104,86
1338,WS_SEND_END,1516299658104,86
1338,WS_RECV_START,1516299658104,87
1338,WS_RECV_END,1516299658902,87
1338,PLAYER_SLEEPBEFORE_START,1516299658902,88
1338,PLAYER_SLEEPBEFORE_END,1516299658910,88
1338,WS_SEND_START,1516299658910,88
1338,WS_SEND_END,1516299658910,88
1338,WS_RECV_START,1516299658910,89
1338,WS_RECV_END,1516299659556,89
1338,PLAYER_SLEEPBEFORE_START,1516299659556,90
1338,PLAYER_SLEEPBEFORE_END,1516299686753,90
1338,REQ_START,1516299686753,90
1338,REQ_END,1516299686761,90
1338,PLAYER_SLEEPBEFORE_START,1516299686761,91
1338,PLAYER_SLEEPBEFORE_END,1516299694650,91
1338,WS_SEND_START,1516299694650,91
1338,WS_SEND_END,1516299694650,91
1338,WS_RECV_START,1516299694650,92
1338,WS_RECV_END,1516299694819,92
1338,PLAYER_SLEEPBEFORE_START,1516299694819,93
1338,PLAYER_SLEEPBEFORE_END,1516299694834,93
1338,WS_SEND_START,1516299694834,93
1338,WS_SEND_END,1516299694834,93
1338,WS_RECV_START,1516299694834,94
1338,WS_RECV_END,1516299695022,94
1338,PLAYER_SLEEPBEFORE_START,1516299695022,95
1338,PLAYER_SLEEPBEFORE_END,1516299718577,95
1338,WS_SEND_START,1516299718577,95
1338,WS_SEND_END,1516299718577,95
1338,WS_RECV_START,1516299718577,96
1338,WS_RECV_END,1516299719452,96
1338,PLAYER_SLEEPBEFORE_START,1516299719452,97
1338,PLAYER_SLEEPBEFORE_END,1516299741892,97
1338,WS_SEND_START,1516299741892,97
1338,WS_SEND_END,1516299741893,97
1338,WS_RECV_START,1516299741893,98
1338,WS_RECV_END,1516299742722,98
1338,PLAYER_SLEEPBEFORE_START,1516299742722,99
1338,PLAYER_SLEEPBEFORE_END,1516299742743,99
1338,WS_SEND_START,1516299742743,99
1338,WS_SEND_END,1516299742743,99
1338,WS_RECV_START,1516299742743,100
1338,WS_RECV_END,1516299742968,100
1338,PLAYER_SLEEPBEFORE_START,1516299742969,101
1338,PLAYER_SLEEPBEFORE_END,1516299766528,101
1338,WS_SEND_START,1516299766528,101
1338,WS_SEND_END,1516299766528,101
1338,WS_RECV_START,1516299766528,102
1338,WS_RECV_END,1516299770653,102
1338,PLAYER_SLEEPBEFORE_START,1516299770653,103
1338,PLAYER_SLEEPBEFORE_END,1516299794278,103
1338,WS_SEND_START,1516299794278,103
1338,WS_SEND_END,1516299794278,103
1338,WS_RECV_START,1516299794278,104
1338,WS_RECV_END,1516299796304,104
1338,PLAYER_SLEEPBEFORE_START,1516299796304,105
1338,PLAYER_SLEEPBEFORE_END,1516299821682,105
1338,WS_SEND_START,1516299821682,105
1338,WS_SEND_END,1516299821682,105
1338,WS_RECV_START,1516299821682,106
1338,WS_RECV_END,1516299823327,106
1338,PLAYER_SLEEPBEFORE_START,1516299823327,107
1338,PLAYER_SLEEPBEFORE_END,1516299846750,107
1338,WS_SEND_START,1516299846750,107
1338,WS_SEND_END,1516299846750,107
1338,WS_RECV_START,1516299846750,108
1338,WS_RECV_END,1516299847624,108
1338,PLAYER_SLEEPBEFORE_START,1516299847624,109
1338,PLAYER_SLEEPBEFORE_END,1516299847633,109
1338,WS_SEND_START,1516299847633,109
1338,WS_SEND_END,1516299847633,109
1338,WS_RECV_START,1516299847633,110
1338,WS_RECV_END,1516299847846,110
1338,PLAYER_SLEEPBEFORE_START,1516299847846,111
1338,PLAYER_SLEEPBEFORE_END,1516299848805,111
1338,WS_SEND_START,1516299848805,111
1338,WS_SEND_END,1516299848805,111
1338,WS_RECV_START,1516299848805,112
1338,WS_RECV_END,1516299849175,112
1338,PLAYER_SLEEPBEFORE_START,1516299849175,113
1338,PLAYER_SLEEPBEFORE_END,1516299849737,113
1338,WS_SEND_START,1516299849737,113
1338,WS_SEND_END,1516299849737,113
1338,WS_RECV_START,1516299849737,114
1338,WS_RECV_END,1516299850413,114
1338,PLAYER_SLEEPBEFORE_START,1516299850413,115
1338,PLAYER_SLEEPBEFORE_END,1516299850422,115
1338,WS_SEND_START,1516299850422,115
1338,WS_SEND_END,1516299850422,115
1338,WS_RECV_START,1516299850422,116
1338,WS_RECV_END,1516299850765,116
1338,PLAYER_SLEEPBEFORE_START,1516299850765,117
1338,PLAYER_SLEEPBEFORE_END,1516299871125,117
1338,WS_SEND_START,1516299871125,117
1338,WS_SEND_END,1516299871125,117
1338,PLAYER_SLEEPBEFORE_START,1516299871125,118
1338,PLAYER_SLEEPBEFORE_END,1516299874877,118
1338,WS_SEND_START,1516299874877,118
1338,WS_SEND_END,1516299874877,118
1338,WS_RECV_START,1516299874877,119
1338,WS_RECV_END,1516299875663,119
1338,PLAYER_SLEEPBEFORE_START,1516299875663,120
1338,PLAYER_SLEEPBEFORE_END,1516299876651,120
1338,WS_SEND_START,1516299876651,120
1338,WS_SEND_END,1516299876651,120
1338,WS_RECV_START,1516299876651,121
1338,WS_RECV_END,1516299878791,121
1338,PLAYER_SLEEPBEFORE_START,1516299878791,122
1338,PLAYER_SLEEPBEFORE_END,1516299879976,122
1338,WS_SEND_START,1516299879976,122
1338,WS_SEND_END,1516299879976,122
1338,WS_RECV_START,1516299879976,123
1338,WS_RECV_END,1516299881871,123
1338,PLAYER_SLEEPBEFORE_START,1516299881871,124
1338,PLAYER_SLEEPBEFORE_END,1516299906276,124
1338,WS_SEND_START,1516299906276,124
1338,WS_SEND_END,1516299906276,124
1338,WS_RECV_START,1516299906276,125
1338,WS_RECV_END,1516299907130,125
1338,PLAYER_SLEEPBEFORE_START,1516299907130,126
1338,PLAYER_SLEEPBEFORE_END,1516299927642,126
1338,WS_SEND_START,1516299927642,126
1338,WS_SEND_END,1516299927642,126
1338,PLAYER_SLEEPBEFORE_START,1516299927642,127
1338,PLAYER_SLEEPBEFORE_END,1516299930696,127
1338,WS_SEND_START,1516299930697,127
1338,WS_SEND_END,1516299930697,127
1338,WS_RECV_START,1516299930697,128
1338,WS_RECV_END,1516299932681,128
1338,PLAYER_SLEEPBEFORE_START,1516299932681,129
1338,PLAYER_SLEEPBEFORE_END,1516299932701,129
1338,WS_SEND_START,1516299932701,129
1338,WS_SEND_END,1516299932701,129
1338,WS_RECV_START,1516299932701,130
1338,WS_RECV_END,1516299935304,130
1338,PLAYER_SLEEPBEFORE_START,1516299935304,131
1338,PLAYER_SLEEPBEFORE_END,1516299956928,131
1338,WS_SEND_START,1516299956928,131
1338,WS_SEND_END,1516299956928,131
1338,PLAYER_SLEEPBEFORE_START,1516299956928,132
1338,PLAYER_SLEEPBEFORE_END,1516299960008,132
1338,WS_SEND_START,1516299960008,132
1338,WS_SEND_END,1516299960008,132
1338,WS_RECV_START,1516299960008,133
1338,WS_RECV_END,1516299960385,133
1338,PLAYER_SLEEPBEFORE_START,1516299960385,134
1338,PLAYER_SLEEPBEFORE_END,1516299981602,134
1338,WS_SEND_START,1516299981602,134
1338,WS_SEND_END,1516299981602,134
1338,PLAYER_SLEEPBEFORE_START,1516299981602,135
1338,PLAYER_SLEEPBEFORE_END,1516299984793,135
1338,WS_SEND_START,1516299984793,135
1338,WS_SEND_END,1516299984793,135
1338,WS_RECV_START,1516299984793,136
1338,WS_RECV_END,1516299985817,136
1338,PLAYER_SLEEPBEFORE_START,1516299985817,137
1338,PLAYER_SLEEPBEFORE_END,1516299985825,137
1338,WS_SEND_START,1516299985825,137
1338,WS_SEND_END,1516299985825,137
1338,WS_RECV_START,1516299985825,138
1338,WS_RECV_END,1516299988234,138
1338,PLAYER_SLEEPBEFORE_START,1516299988234,139
1338,PLAYER_SLEEPBEFORE_END,1516299988924,139
1338,WS_SEND_START,1516299988924,139
1338,WS_SEND_END,1516299988924,139
1338,WS_RECV_START,1516299988924,140
1338,WS_RECV_END,1516299989501,140
1338,PLAYER_SLEEPBEFORE_START,1516299989501,141
1338,PLAYER_SLEEPBEFORE_END,1516299990156,141
1338,WS_SEND_START,1516299990156,141
1338,WS_SEND_END,1516299990156,141
1338,WS_RECV_START,1516299990156,142
1338,WS_RECV_END,1516299991750,142
1338,PLAYER_SLEEPBEFORE_START,1516299991750,143
1338,PLAYER_SLEEPBEFORE_END,1516299991807,143
1338,WS_SEND_START,1516299991807,143
1338,WS_SEND_END,1516299991807,143
1338,WS_RECV_START,1516299991807,144
1338,WS_RECV_END,1516299994272,144
1338,PLAYER_SLEEPBEFORE_START,1516299994272,145
1338,PLAYER_SLEEPBEFORE_END,1516300010334,145
1338,REQ_START,1516300010334,145
1338,REQ_END,1516300010341,145
1338,PLAYER_SLEEPBEFORE_START,1516300010341,146
1338,PLAYER_SLEEPBEFORE_END,1516300019218,146
1338,WS_SEND_START,1516300019218,146
1338,WS_SEND_END,1516300019218,146
1338,WS_RECV_START,1516300019218,147
1338,WS_RECV_END,1516300020264,147
1338,PLAYER_SLEEPBEFORE_START,1516300020264,148
1338,PLAYER_SLEEPBEFORE_END,1516300042186,148
1338,WS_SEND_START,1516300042186,148
1338,WS_SEND_END,1516300042186,148
1338,PLAYER_SLEEPBEFORE_START,1516300042186,149
1338,PLAYER_SLEEPBEFORE_END,1516300044614,149
1338,WS_SEND_START,1516300044614,149
1338,WS_SEND_END,1516300044615,149
1338,WS_RECV_START,1516300044615,150
1338,WS_RECV_END,1516300045349,150
1338,PLAYER_SLEEPBEFORE_START,1516300045349,151
1338,PLAYER_SLEEPBEFORE_END,1516300045559,151
1338,WS_SEND_START,1516300045559,151
1338,WS_SEND_END,1516300045559,151
1338,WS_RECV_START,1516300045559,152
1338,WS_RECV_END,1516300046249,152
1338,PLAYER_SLEEPBEFORE_START,1516300046249,153
1338,PLAYER_SLEEPBEFORE_END,1516300070176,153
1338,WS_SEND_START,1516300070176,153
1338,WS_SEND_END,1516300070176,153
1338,WS_RECV_START,1516300070176,154
1338,WS_RECV_END,1516300070740,154
1338,PLAYER_SLEEPBEFORE_START,1516300070740,155
1338,PLAYER_SLEEPBEFORE_END,1516300093329,155
1338,WS_SEND_START,1516300093329,155
1338,WS_SEND_END,1516300093329,155
1338,PLAYER_SLEEPBEFORE_START,1516300093330,156
1338,PLAYER_SLEEPBEFORE_END,1516300096604,156
1338,WS_SEND_START,1516300096604,156
1338,WS_SEND_END,1516300096604,156
1338,WS_RECV_START,1516300096604,157
1338,WS_RECV_END,1516300097647,157
1338,PLAYER_SLEEPBEFORE_START,1516300097647,158
1338,PLAYER_SLEEPBEFORE_END,1516300097657,158
1338,WS_SEND_START,1516300097657,158
1338,WS_SEND_END,1516300097657,158
1338,WS_RECV_START,1516300097657,159
1338,WS_RECV_END,1516300098382,159
1338,PLAYER_SLEEPBEFORE_START,1516300098382,160
1338,PLAYER_SLEEPBEFORE_END,1516300098558,160
1338,WS_SEND_START,1516300098558,160
1338,WS_SEND_END,1516300098558,160
1338,WS_RECV_START,1516300098558,161
1338,WS_RECV_END,1516300099168,161
1338,PLAYER_SLEEPBEFORE_START,1516300099168,162
1338,PLAYER_SLEEPBEFORE_END,1516300099193,162
1338,WS_SEND_START,1516300099193,162
1338,WS_SEND_END,1516300099193,162
1338,WS_RECV_START,1516300099193,163
1338,WS_RECV_END,1516300099888,163
1338,PLAYER_SLEEPBEFORE_START,1516300099888,164
1338,PLAYER_SLEEPBEFORE_END,1516300120700,164
1338,WS_SEND_START,1516300120700,164
1338,WS_SEND_END,1516300120700,164
1338,WS_RECV_START,1516300120700,165
1338,WS_RECV_END,1516300124512,165
1338,PLAYER_SLEEPBEFORE_START,1516300124512,166
1338,PLAYER_SLEEPBEFORE_END,1516300146967,166
1338,WS_SEND_START,1516300146967,166
1338,WS_SEND_END,1516300146967,166
1338,WS_RECV_START,1516300146967,167
1338,WS_RECV_END,1516300153078,167
1338,PLAYER_SLEEPBEFORE_START,1516300153078,168
1338,PLAYER_SLEEPBEFORE_END,1516300180435,168
1338,WS_SEND_START,1516300180435,168
1338,WS_SEND_END,1516300180435,168
1338,WS_RECV_START,1516300180435,169
1338,WS_RECV_END,1516300185838,169
1338,PLAYER_SLEEPBEFORE_START,1516300185838,170
1338,PLAYER_SLEEPBEFORE_END,1516300185847,170
1338,WS_SEND_START,1516300185847,170
1338,WS_SEND_END,1516300185847,170
1338,WS_RECV_START,1516300185847,171
1338,WS_RECV_END,1516300189319,171
1338,PLAYER_SLEEPBEFORE_START,1516300189319,172
1338,PLAYER_SLEEPBEFORE_END,1516300189688,172
1338,WS_SEND_START,1516300189688,172
1338,WS_SEND_END,1516300189688,172
1338,WS_RECV_START,1516300189688,173
1338,WS_RECV_END,1516300194751,173
1338,PLAYER_SLEEPBEFORE_START,1516300194751,174
1338,PLAYER_SLEEPBEFORE_END,1516300194792,174
1338,WS_SEND_START,1516300194792,174
1338,WS_SEND_END,1516300194792,174
1338,WS_RECV_START,1516300194792,175
1338,WS_RECV_END,1516300200297,175
1338,PLAYER_SLEEPBEFORE_START,1516300200297,176
1338,PLAYER_SLEEPBEFORE_END,1516300222058,176
1338,WS_SEND_START,1516300222058,176
1338,WS_SEND_END,1516300222058,176
1338,PLAYER_SLEEPBEFORE_START,1516300222058,177
1338,PLAYER_SLEEPBEFORE_END,1516300224577,177
1338,WS_SEND_START,1516300224577,177
1338,WS_SEND_END,1516300224577,177
1338,WS_RECV_START,1516300224577,178
1338,WS_RECV_END,1516300228177,178
1338,PLAYER_SLEEPBEFORE_START,1516300228177,179
1338,PLAYER_SLEEPBEFORE_END,1516300250517,179
1338,WS_SEND_START,1516300250517,179
1338,WS_SEND_END,1516300250517,179
1338,WS_RECV_START,1516300250517,180
1338,WS_RECV_END,1516300253981,180
1338,PLAYER_SLEEPBEFORE_START,1516300253981,181
1338,PLAYER_SLEEPBEFORE_END,1516300254425,181
1338,WS_SEND_START,1516300254425,181
1338,WS_SEND_END,1516300254425,181
1338,WS_RECV_START,1516300254425,182
1338,WS_RECV_END,1516300255767,182
1338,PLAYER_SLEEPBEFORE_START,1516300255767,183
1338,PLAYER_SLEEPBEFORE_END,1516300256290,183
1338,WS_SEND_START,1516300256290,183
1338,WS_SEND_END,1516300256290,183
1338,WS_RECV_START,1516300256290,184
1338,WS_RECV_END,1516300257814,184
1338,PLAYER_SLEEPBEFORE_START,1516300257814,185
1338,PLAYER_SLEEPBEFORE_END,1516300258088,185
1338,WS_SEND_START,1516300258088,185
1338,WS_SEND_END,1516300258088,185
1338,WS_RECV_START,1516300258088,186
1338,WS_RECV_END,1516300260579,186
1338,PLAYER_SLEEPBEFORE_START,1516300260579,187
1338,PLAYER_SLEEPBEFORE_END,1516300283079,187
1338,WS_SEND_START,1516300283079,187
1338,WS_SEND_END,1516300283079,187
1338,WS_RECV_START,1516300283079,188
1338,WS_RECV_END,1516300285375,188
1338,PLAYER_SLEEPBEFORE_START,1516300285375,189
1338,PLAYER_SLEEPBEFORE_END,1516300291614,189
1338,WS_SEND_START,1516300291614,189
1338,WS_SEND_END,1516300291614,189
1338,WS_RECV_START,1516300291614,190
1338,WS_RECV_END,1516300293593,190
1338,PLAYER_SLEEPBEFORE_START,1516300293593,191
1338,PLAYER_SLEEPBEFORE_END,1516300295508,191
1338,WS_SEND_START,1516300295508,191
1338,WS_SEND_END,1516300295508,191
1338,WS_RECV_START,1516300295508,192
1338,WS_RECV_END,1516300298045,192
1338,PLAYER_SLEEPBEFORE_START,1516300298045,193
1338,PLAYER_SLEEPBEFORE_END,1516300298173,193
1338,WS_SEND_START,1516300298173,193
1338,WS_SEND_END,1516300298173,193
1338,WS_RECV_START,1516300298173,194
1338,WS_RECV_END,1516300301812,194
1338,PLAYER_SLEEPBEFORE_START,1516300301812,195
1338,PLAYER_SLEEPBEFORE_END,1516300303567,195
1338,WS_SEND_START,1516300303567,195
1338,WS_SEND_END,1516300303567,195
1338,WS_RECV_START,1516300303567,196
1338,WS_RECV_END,1516300306035,196
1338,PLAYER_SLEEPBEFORE_START,1516300306035,197
1338,PLAYER_SLEEPBEFORE_END,1516300307839,197
1338,WS_SEND_START,1516300307839,197
1338,WS_SEND_END,1516300307839,197
1338,WS_RECV_START,1516300307839,198
1338,WS_RECV_END,1516300309932,198
1338,PLAYER_SLEEPBEFORE_START,1516300309932,199
1338,PLAYER_SLEEPBEFORE_END,1516300321786,199
1338,WS_SEND_START,1516300321786,199
1338,WS_SEND_END,1516300321786,199
1338,PLAYER_SLEEPBEFORE_START,1516300321786,200
1338,PLAYER_SLEEPBEFORE_END,1516300325874,200
1338,WS_SEND_START,1516300325874,200
1338,WS_SEND_END,1516300325874,200
1338,WS_RECV_START,1516300325874,201
1338,WS_RECV_END,1516300326366,201
1338,PLAYER_SLEEPBEFORE_START,1516300326366,202
1338,PLAYER_SLEEPBEFORE_END,1516300326380,202
1338,WS_SEND_START,1516300326380,202
1338,WS_SEND_END,1516300326380,202
1338,WS_RECV_START,1516300326380,203
1338,WS_RECV_END,1516300327011,203
1338,PLAYER_SLEEPBEFORE_START,1516300327011,204
1338,PLAYER_SLEEPBEFORE_END,1516300346660,204
1338,WS_SEND_START,1516300346660,204
1338,WS_SEND_END,1516300346660,204
1338,PLAYER_SLEEPBEFORE_START,1516300346660,205
1338,PLAYER_SLEEPBEFORE_END,1516300350558,205
1338,WS_SEND_START,1516300350558,205
1338,WS_SEND_END,1516300350558,205
1338,WS_RECV_START,1516300350558,206
1338,WS_RECV_END,1516300350833,206
1338,PLAYER_SLEEPBEFORE_START,1516300350833,207
1338,PLAYER_SLEEPBEFORE_END,1516300367765,207
1338,REQ_START,1516300367765,207
1338,REQ_END,1516300367780,207
1338,PLAYER_SLEEPBEFORE_START,1516300367780,208
1338,PLAYER_SLEEPBEFORE_END,1516300374632,208
1338,WS_CLOSE_START,1516300374632,208
1338,WS_CLOSE_END,1516300374632,208
1338,PLAYER_DONE,1516300374632
