# --sessions 2700 --app-url=http://shinyloadtest.rstudioservices.com/cran_explorer --output-dir test2700 --overwrite-output --log-level warn --start-interval 100 15min.log
thread_id,event,timestamp,input_line_number,comment
1461,PLAYER_SESSION_CREATE,1516299245953
1461,PLAYER_START_INTERVAL_START,1516299245953
1461,PLAYER_START_INTERVAL_END,1516299392053
1461,REQ_HOME_START,1516299392053,2
1461,REQ_HOME_END,1516299392148,2
1461,REQ_START,1516299392148,3
1461,REQ_END,1516299392188,3
1461,REQ_START,1516299392188,4
1461,REQ_END,1516299392226,4
1461,REQ_START,1516299392226,5
1461,REQ_END,1516299392268,5
1461,REQ_START,1516299392268,6
1461,REQ_END,1516299392440,6
1461,REQ_START,1516299392440,7
1461,REQ_END,1516299392832,7
1461,REQ_START,1516299392832,8
1461,REQ_END,1516299392875,8
1461,REQ_START,1516299392875,9
1461,REQ_END,1516299392922,9
1461,REQ_START,1516299392922,10
1461,REQ_END,1516299392928,10
1461,REQ_START,1516299392928,11
1461,REQ_END,1516299392966,11
1461,REQ_START,1516299392966,12
1461,REQ_END,1516299392975,12
1461,REQ_START,1516299392975,13
1461,REQ_END,1516299393041,13
1461,REQ_START,1516299393042,14
1461,REQ_END,1516299393057,14
1461,REQ_START,1516299393057,15
1461,REQ_END,1516299393107,15
1461,REQ_TOK_START,1516299393107,16
1461,REQ_TOK_END,1516299393112,16
1461,REQ_SINF_START,1516299393112,17
1461,REQ_SINF_END,1516299393118,17
1461,WS_OPEN_START,1516299393118,18
1461,WS_OPEN_END,1516299393123,18
1461,REQ_START,1516299393123,19
1461,REQ_END,1516299393153,19
1461,WS_RECV_START,1516299393153,20
1461,WS_RECV_END,1516299393153,20
1461,PLAYER_SLEEPBEFORE_START,1516299393153,21
1461,PLAYER_SLEEPBEFORE_END,1516299393158,21
1461,WS_SEND_START,1516299393158,21
1461,WS_SEND_END,1516299393158,21
1461,PLAYER_SLEEPBEFORE_START,1516299393158,22
1461,PLAYER_SLEEPBEFORE_END,1516299393159,22
1461,WS_SEND_START,1516299393159,22
1461,WS_SEND_END,1516299393159,22
1461,WS_RECV_INIT_START,1516299393159,23
1461,WS_RECV_INIT_END,1516299393256,23
1461,WS_RECV_START,1516299393256,24
1461,WS_RECV_END,1516299393300,24
1461,PLAYER_SLEEPBEFORE_START,1516299393300,25
1461,PLAYER_SLEEPBEFORE_END,1516299393308,25
1461,REQ_START,1516299393308,25
1461,REQ_END,1516299393523,25
1461,PLAYER_SLEEPBEFORE_START,1516299393523,26
1461,PLAYER_SLEEPBEFORE_END,1516299393524,26
1461,REQ_START,1516299393524,26
1461,REQ_END,1516299393560,26
1461,PLAYER_SLEEPBEFORE_START,1516299393560,27
1461,PLAYER_SLEEPBEFORE_END,1516299393563,27
1461,REQ_START,1516299393563,27
1461,REQ_END,1516299393602,27
1461,PLAYER_SLEEPBEFORE_START,1516299393602,28
1461,PLAYER_SLEEPBEFORE_END,1516299393887,28
1461,REQ_START,1516299393887,28
1461,REQ_END,1516299393934,28
1461,PLAYER_SLEEPBEFORE_START,1516299393934,29
1461,PLAYER_SLEEPBEFORE_END,1516299394109,29
1461,WS_SEND_START,1516299394109,29
1461,WS_SEND_END,1516299394109,29
1461,WS_RECV_START,1516299394109,30
1461,WS_RECV_END,1516299394218,30
1461,PLAYER_SLEEPBEFORE_START,1516299394218,31
1461,PLAYER_SLEEPBEFORE_END,1516299394229,31
1461,REQ_START,1516299394229,31
1461,REQ_END,1516299394566,31
1461,PLAYER_SLEEPBEFORE_START,1516299394566,32
1461,PLAYER_SLEEPBEFORE_END,1516299422711,32
1461,WS_SEND_START,1516299422711,32
1461,WS_SEND_END,1516299422711,32
1461,WS_RECV_START,1516299422711,33
1461,WS_RECV_END,1516299422837,33
1461,PLAYER_SLEEPBEFORE_START,1516299422837,34
1461,PLAYER_SLEEPBEFORE_END,1516299448748,34
1461,WS_SEND_START,1516299448748,34
1461,WS_SEND_END,1516299448748,34
1461,WS_RECV_START,1516299448748,35
1461,WS_RECV_END,1516299448775,35
1461,PLAYER_SLEEPBEFORE_START,1516299448775,36
1461,PLAYER_SLEEPBEFORE_END,1516299448784,36
1461,WS_SEND_START,1516299448784,36
1461,WS_SEND_END,1516299448785,36
1461,WS_RECV_START,1516299448785,37
1461,WS_RECV_END,1516299448913,37
1461,PLAYER_SLEEPBEFORE_START,1516299448913,38
1461,PLAYER_SLEEPBEFORE_END,1516299452108,38
1461,WS_SEND_START,1516299452108,38
1461,WS_SEND_END,1516299452108,38
1461,WS_RECV_START,1516299452108,39
1461,WS_RECV_END,1516299452266,39
1461,PLAYER_SLEEPBEFORE_START,1516299452266,40
1461,PLAYER_SLEEPBEFORE_END,1516299452312,40
1461,WS_SEND_START,1516299452312,40
1461,WS_SEND_END,1516299452312,40
1461,WS_RECV_START,1516299452312,41
1461,WS_RECV_END,1516299452475,41
1461,PLAYER_SLEEPBEFORE_START,1516299452475,42
1461,PLAYER_SLEEPBEFORE_END,1516299470610,42
1461,WS_SEND_START,1516299470610,42
1461,WS_SEND_END,1516299470610,42
1461,WS_RECV_START,1516299470610,43
1461,WS_RECV_END,1516299470673,43
1461,PLAYER_SLEEPBEFORE_START,1516299470673,44
1461,PLAYER_SLEEPBEFORE_END,1516299470685,44
1461,WS_SEND_START,1516299470685,44
1461,WS_SEND_END,1516299470685,44
1461,WS_RECV_START,1516299470685,45
1461,WS_RECV_END,1516299470729,45
1461,PLAYER_SLEEPBEFORE_START,1516299470729,46
1461,PLAYER_SLEEPBEFORE_END,1516299471989,46
1461,WS_SEND_START,1516299471989,46
1461,WS_SEND_END,1516299471989,46
1461,WS_RECV_START,1516299471989,47
1461,WS_RECV_END,1516299472266,47
1461,PLAYER_SLEEPBEFORE_START,1516299472266,48
1461,PLAYER_SLEEPBEFORE_END,1516299473586,48
1461,WS_SEND_START,1516299473586,48
1461,WS_SEND_END,1516299473586,48
1461,WS_RECV_START,1516299473586,49
1461,WS_RECV_END,1516299473769,49
1461,PLAYER_SLEEPBEFORE_START,1516299473769,50
1461,PLAYER_SLEEPBEFORE_END,1516299473793,50
1461,WS_SEND_START,1516299473793,50
1461,WS_SEND_END,1516299473793,50
1461,WS_RECV_START,1516299473793,51
1461,WS_RECV_END,1516299473920,51
1461,PLAYER_SLEEPBEFORE_START,1516299473920,52
1461,PLAYER_SLEEPBEFORE_END,1516299496484,52
1461,WS_SEND_START,1516299496484,52
1461,WS_SEND_END,1516299496484,52
1461,WS_RECV_START,1516299496484,53
1461,WS_RECV_END,1516299496761,53
1461,PLAYER_SLEEPBEFORE_START,1516299496761,54
1461,PLAYER_SLEEPBEFORE_END,1516299518064,54
1461,WS_SEND_START,1516299518064,54
1461,WS_SEND_END,1516299518064,54
1461,PLAYER_SLEEPBEFORE_START,1516299518064,55
1461,PLAYER_SLEEPBEFORE_END,1516299520005,55
1461,WS_SEND_START,1516299520005,55
1461,WS_SEND_END,1516299520005,55
1461,WS_RECV_START,1516299520005,56
1461,WS_RECV_END,1516299520460,56
1461,PLAYER_SLEEPBEFORE_START,1516299520460,57
1461,PLAYER_SLEEPBEFORE_END,1516299543332,57
1461,WS_SEND_START,1516299543332,57
1461,WS_SEND_END,1516299543332,57
1461,WS_RECV_START,1516299543332,58
1461,WS_RECV_END,1516299543427,58
1461,PLAYER_SLEEPBEFORE_START,1516299543427,59
1461,PLAYER_SLEEPBEFORE_END,1516299545754,59
1461,WS_SEND_START,1516299545754,59
1461,WS_SEND_END,1516299545754,59
1461,WS_RECV_START,1516299545754,60
1461,WS_RECV_END,1516299545887,60
1461,PLAYER_SLEEPBEFORE_START,1516299545887,61
1461,PLAYER_SLEEPBEFORE_END,1516299549478,61
1461,WS_SEND_START,1516299549478,61
1461,WS_SEND_END,1516299549478,61
1461,WS_RECV_START,1516299549478,62
1461,WS_RECV_END,1516299549970,62
1461,PLAYER_SLEEPBEFORE_START,1516299549970,63
1461,PLAYER_SLEEPBEFORE_END,1516299569232,63
1461,WS_SEND_START,1516299569232,63
1461,WS_SEND_END,1516299569232,63
1461,WS_RECV_START,1516299569232,64
1461,WS_RECV_END,1516299570358,64
1461,PLAYER_SLEEPBEFORE_START,1516299570358,65
1461,PLAYER_SLEEPBEFORE_END,1516299597175,65
1461,WS_SEND_START,1516299597175,65
1461,WS_SEND_END,1516299597175,65
1461,WS_RECV_START,1516299597175,66
1461,WS_RECV_END,1516299597528,66
1461,PLAYER_SLEEPBEFORE_START,1516299597528,67
1461,PLAYER_SLEEPBEFORE_END,1516299599035,67
1461,WS_SEND_START,1516299599035,67
1461,WS_SEND_END,1516299599035,67
1461,WS_RECV_START,1516299599036,68
1461,WS_RECV_END,1516299599570,68
1461,PLAYER_SLEEPBEFORE_START,1516299599570,69
1461,PLAYER_SLEEPBEFORE_END,1516299621568,69
1461,WS_SEND_START,1516299621568,69
1461,WS_SEND_END,1516299621568,69
1461,WS_RECV_START,1516299621568,70
1461,WS_RECV_END,1516299621689,70
1461,PLAYER_SLEEPBEFORE_START,1516299621689,71
1461,PLAYER_SLEEPBEFORE_END,1516299646464,71
1461,WS_SEND_START,1516299646464,71
1461,WS_SEND_END,1516299646465,71
1461,PLAYER_SLEEPBEFORE_START,1516299646465,72
1461,PLAYER_SLEEPBEFORE_END,1516299649072,72
1461,WS_SEND_START,1516299649072,72
1461,WS_SEND_END,1516299649072,72
1461,WS_RECV_START,1516299649072,73
1461,WS_RECV_END,1516299649311,73
1461,PLAYER_SLEEPBEFORE_START,1516299649311,74
1461,PLAYER_SLEEPBEFORE_END,1516299649320,74
1461,WS_SEND_START,1516299649320,74
1461,WS_SEND_END,1516299649320,74
1461,WS_RECV_START,1516299649320,75
1461,WS_RECV_END,1516299649702,75
1461,PLAYER_SLEEPBEFORE_START,1516299649702,76
1461,PLAYER_SLEEPBEFORE_END,1516299651208,76
1461,WS_SEND_START,1516299651208,76
1461,WS_SEND_END,1516299651208,76
1461,WS_RECV_START,1516299651208,77
1461,WS_RECV_END,1516299651589,77
1461,PLAYER_SLEEPBEFORE_START,1516299651589,78
1461,PLAYER_SLEEPBEFORE_END,1516299652457,78
1461,WS_SEND_START,1516299652457,78
1461,WS_SEND_END,1516299652457,78
1461,WS_RECV_START,1516299652457,79
1461,WS_RECV_END,1516299652495,79
1461,PLAYER_SLEEPBEFORE_START,1516299652495,80
1461,PLAYER_SLEEPBEFORE_END,1516299660162,80
1461,WS_SEND_START,1516299660162,80
1461,WS_SEND_END,1516299660162,80
1461,WS_RECV_START,1516299660162,81
1461,WS_RECV_END,1516299660265,81
1461,PLAYER_SLEEPBEFORE_START,1516299660265,82
1461,PLAYER_SLEEPBEFORE_END,1516299661367,82
1461,WS_SEND_START,1516299661367,82
1461,WS_SEND_END,1516299661367,82
1461,WS_RECV_START,1516299661367,83
1461,WS_RECV_END,1516299661533,83
1461,PLAYER_SLEEPBEFORE_START,1516299661533,84
1461,PLAYER_SLEEPBEFORE_END,1516299662480,84
1461,WS_SEND_START,1516299662480,84
1461,WS_SEND_END,1516299662480,84
1461,WS_RECV_START,1516299662480,85
1461,WS_RECV_END,1516299663113,85
1461,PLAYER_SLEEPBEFORE_START,1516299663113,86
1461,PLAYER_SLEEPBEFORE_END,1516299667285,86
1461,WS_SEND_START,1516299667285,86
1461,WS_SEND_END,1516299667285,86
1461,WS_RECV_START,1516299667285,87
1461,WS_RECV_END,1516299667738,87
1461,PLAYER_SLEEPBEFORE_START,1516299667738,88
1461,PLAYER_SLEEPBEFORE_END,1516299667746,88
1461,WS_SEND_START,1516299667746,88
1461,WS_SEND_END,1516299667746,88
1461,WS_RECV_START,1516299667746,89
1461,WS_RECV_END,1516299667988,89
1461,PLAYER_SLEEPBEFORE_START,1516299667988,90
1461,PLAYER_SLEEPBEFORE_END,1516299695185,90
1461,REQ_START,1516299695185,90
1461,REQ_END,1516299695190,90
1461,PLAYER_SLEEPBEFORE_START,1516299695190,91
1461,PLAYER_SLEEPBEFORE_END,1516299703079,91
1461,WS_SEND_START,1516299703079,91
1461,WS_SEND_END,1516299703079,91
1461,WS_RECV_START,1516299703079,92
1461,WS_RECV_END,1516299703292,92
1461,PLAYER_SLEEPBEFORE_START,1516299703292,93
1461,PLAYER_SLEEPBEFORE_END,1516299703307,93
1461,WS_SEND_START,1516299703307,93
1461,WS_SEND_END,1516299703307,93
1461,WS_RECV_START,1516299703307,94
1461,WS_RECV_END,1516299703497,94
1461,PLAYER_SLEEPBEFORE_START,1516299703497,95
1461,PLAYER_SLEEPBEFORE_END,1516299727052,95
1461,WS_SEND_START,1516299727052,95
1461,WS_SEND_END,1516299727052,95
1461,WS_RECV_START,1516299727052,96
1461,WS_RECV_END,1516299727762,96
1461,PLAYER_SLEEPBEFORE_START,1516299727762,97
1461,PLAYER_SLEEPBEFORE_END,1516299750202,97
1461,WS_SEND_START,1516299750202,97
1461,WS_SEND_END,1516299750202,97
1461,WS_RECV_START,1516299750202,98
1461,WS_RECV_END,1516299752388,98
1461,PLAYER_SLEEPBEFORE_START,1516299752388,99
1461,PLAYER_SLEEPBEFORE_END,1516299752409,99
1461,WS_SEND_START,1516299752409,99
1461,WS_SEND_END,1516299752409,99
1461,WS_RECV_START,1516299752409,100
1461,WS_RECV_END,1516299753528,100
1461,PLAYER_SLEEPBEFORE_START,1516299753528,101
1461,PLAYER_SLEEPBEFORE_END,1516299777087,101
1461,WS_SEND_START,1516299777087,101
1461,WS_SEND_END,1516299777087,101
1461,WS_RECV_START,1516299777087,102
1461,WS_RECV_END,1516299777871,102
1461,PLAYER_SLEEPBEFORE_START,1516299777871,103
1461,PLAYER_SLEEPBEFORE_END,1516299801496,103
1461,WS_SEND_START,1516299801496,103
1461,WS_SEND_END,1516299801496,103
1461,WS_RECV_START,1516299801496,104
1461,WS_RECV_END,1516299804533,104
1461,PLAYER_SLEEPBEFORE_START,1516299804533,105
1461,PLAYER_SLEEPBEFORE_END,1516299829910,105
1461,WS_SEND_START,1516299829910,105
1461,WS_SEND_END,1516299829910,105
1461,WS_RECV_START,1516299829910,106
1461,WS_RECV_END,1516299830073,106
1461,PLAYER_SLEEPBEFORE_START,1516299830073,107
1461,PLAYER_SLEEPBEFORE_END,1516299853496,107
1461,WS_SEND_START,1516299853496,107
1461,WS_SEND_END,1516299853496,107
1461,WS_RECV_START,1516299853496,108
1461,WS_RECV_END,1516299855661,108
1461,PLAYER_SLEEPBEFORE_START,1516299855661,109
1461,PLAYER_SLEEPBEFORE_END,1516299855670,109
1461,WS_SEND_START,1516299855670,109
1461,WS_SEND_END,1516299855670,109
1461,WS_RECV_START,1516299855670,110
1461,WS_RECV_END,1516299856278,110
1461,PLAYER_SLEEPBEFORE_START,1516299856278,111
1461,PLAYER_SLEEPBEFORE_END,1516299857238,111
1461,WS_SEND_START,1516299857238,111
1461,WS_SEND_END,1516299857238,111
1461,WS_RECV_START,1516299857238,112
1461,WS_RECV_END,1516299857948,112
1461,PLAYER_SLEEPBEFORE_START,1516299857948,113
1461,PLAYER_SLEEPBEFORE_END,1516299858510,113
1461,WS_SEND_START,1516299858510,113
1461,WS_SEND_END,1516299858510,113
1461,WS_RECV_START,1516299858510,114
1461,WS_RECV_END,1516299859889,114
1461,PLAYER_SLEEPBEFORE_START,1516299859889,115
1461,PLAYER_SLEEPBEFORE_END,1516299859898,115
1461,WS_SEND_START,1516299859898,115
1461,WS_SEND_END,1516299859898,115
1461,WS_RECV_START,1516299859898,116
1461,WS_RECV_END,1516299861181,116
1461,PLAYER_SLEEPBEFORE_START,1516299861181,117
1461,PLAYER_SLEEPBEFORE_END,1516299881541,117
1461,WS_SEND_START,1516299881541,117
1461,WS_SEND_END,1516299881541,117
1461,PLAYER_SLEEPBEFORE_START,1516299881541,118
1461,PLAYER_SLEEPBEFORE_END,1516299885293,118
1461,WS_SEND_START,1516299885293,118
1461,WS_SEND_END,1516299885293,118
1461,WS_RECV_START,1516299885293,119
1461,WS_RECV_END,1516299887114,119
1461,PLAYER_SLEEPBEFORE_START,1516299887114,120
1461,PLAYER_SLEEPBEFORE_END,1516299888102,120
1461,WS_SEND_START,1516299888102,120
1461,WS_SEND_END,1516299888102,120
1461,WS_RECV_START,1516299888102,121
1461,WS_RECV_END,1516299890393,121
1461,PLAYER_SLEEPBEFORE_START,1516299890393,122
1461,PLAYER_SLEEPBEFORE_END,1516299891578,122
1461,WS_SEND_START,1516299891578,122
1461,WS_SEND_END,1516299891579,122
1461,WS_RECV_START,1516299891579,123
1461,WS_RECV_END,1516299892715,123
1461,PLAYER_SLEEPBEFORE_START,1516299892715,124
1461,PLAYER_SLEEPBEFORE_END,1516299917121,124
1461,WS_SEND_START,1516299917121,124
1461,WS_SEND_END,1516299917121,124
1461,WS_RECV_START,1516299917121,125
1461,WS_RECV_END,1516299918440,125
1461,PLAYER_SLEEPBEFORE_START,1516299918440,126
1461,PLAYER_SLEEPBEFORE_END,1516299938952,126
1461,WS_SEND_START,1516299938952,126
1461,WS_SEND_END,1516299938952,126
1461,PLAYER_SLEEPBEFORE_START,1516299938952,127
1461,PLAYER_SLEEPBEFORE_END,1516299942006,127
1461,WS_SEND_START,1516299942006,127
1461,WS_SEND_END,1516299942006,127
1461,WS_RECV_START,1516299942006,128
1461,WS_RECV_END,1516299942512,128
1461,PLAYER_SLEEPBEFORE_START,1516299942512,129
1461,PLAYER_SLEEPBEFORE_END,1516299942532,129
1461,WS_SEND_START,1516299942532,129
1461,WS_SEND_END,1516299942532,129
1461,WS_RECV_START,1516299942532,130
1461,WS_RECV_END,1516299942742,130
1461,PLAYER_SLEEPBEFORE_START,1516299942742,131
1461,PLAYER_SLEEPBEFORE_END,1516299964366,131
1461,WS_SEND_START,1516299964366,131
1461,WS_SEND_END,1516299964366,131
1461,PLAYER_SLEEPBEFORE_START,1516299964366,132
1461,PLAYER_SLEEPBEFORE_END,1516299967446,132
1461,WS_SEND_START,1516299967446,132
1461,WS_SEND_END,1516299967446,132
1461,WS_RECV_START,1516299967446,133
1461,WS_RECV_END,1516299967973,133
1461,PLAYER_SLEEPBEFORE_START,1516299967973,134
1461,PLAYER_SLEEPBEFORE_END,1516299989191,134
1461,WS_SEND_START,1516299989191,134
1461,WS_SEND_END,1516299989191,134
1461,PLAYER_SLEEPBEFORE_START,1516299989191,135
1461,PLAYER_SLEEPBEFORE_END,1516299992381,135
1461,WS_SEND_START,1516299992381,135
1461,WS_SEND_END,1516299992381,135
1461,WS_RECV_START,1516299992381,136
1461,WS_RECV_END,1516299994483,136
1461,PLAYER_SLEEPBEFORE_START,1516299994483,137
1461,PLAYER_SLEEPBEFORE_END,1516299994490,137
1461,WS_SEND_START,1516299994490,137
1461,WS_SEND_END,1516299994491,137
1461,WS_RECV_START,1516299994491,138
1461,WS_RECV_END,1516299995179,138
1461,PLAYER_SLEEPBEFORE_START,1516299995179,139
1461,PLAYER_SLEEPBEFORE_END,1516299995869,139
1461,WS_SEND_START,1516299995869,139
1461,WS_SEND_END,1516299995869,139
1461,WS_RECV_START,1516299995869,140
1461,WS_RECV_END,1516299996811,140
1461,PLAYER_SLEEPBEFORE_START,1516299996811,141
1461,PLAYER_SLEEPBEFORE_END,1516299997466,141
1461,WS_SEND_START,1516299997466,141
1461,WS_SEND_END,1516299997466,141
1461,WS_RECV_START,1516299997466,142
1461,WS_RECV_END,1516299998253,142
1461,PLAYER_SLEEPBEFORE_START,1516299998253,143
1461,PLAYER_SLEEPBEFORE_END,1516299998310,143
1461,WS_SEND_START,1516299998310,143
1461,WS_SEND_END,1516299998310,143
1461,WS_RECV_START,1516299998310,144
1461,WS_RECV_END,1516299999667,144
1461,PLAYER_SLEEPBEFORE_START,1516299999667,145
1461,PLAYER_SLEEPBEFORE_END,1516300015729,145
1461,REQ_START,1516300015729,145
1461,REQ_END,1516300015734,145
1461,PLAYER_SLEEPBEFORE_START,1516300015734,146
1461,PLAYER_SLEEPBEFORE_END,1516300024611,146
1461,WS_SEND_START,1516300024611,146
1461,WS_SEND_END,1516300024611,146
1461,WS_RECV_START,1516300024611,147
1461,WS_RECV_END,1516300025862,147
1461,PLAYER_SLEEPBEFORE_START,1516300025862,148
1461,PLAYER_SLEEPBEFORE_END,1516300047784,148
1461,WS_SEND_START,1516300047784,148
1461,WS_SEND_END,1516300047784,148
1461,PLAYER_SLEEPBEFORE_START,1516300047784,149
1461,PLAYER_SLEEPBEFORE_END,1516300050213,149
1461,WS_SEND_START,1516300050213,149
1461,WS_SEND_END,1516300050213,149
1461,WS_RECV_START,1516300050213,150
1461,WS_RECV_END,1516300050550,150
1461,PLAYER_SLEEPBEFORE_START,1516300050550,151
1461,PLAYER_SLEEPBEFORE_END,1516300050760,151
1461,WS_SEND_START,1516300050760,151
1461,WS_SEND_END,1516300050760,151
1461,WS_RECV_START,1516300050760,152
1461,WS_RECV_END,1516300051905,152
1461,PLAYER_SLEEPBEFORE_START,1516300051905,153
1461,PLAYER_SLEEPBEFORE_END,1516300075832,153
1461,WS_SEND_START,1516300075832,153
1461,WS_SEND_END,1516300075832,153
1461,WS_RECV_START,1516300075832,154
1461,WS_RECV_END,1516300076316,154
1461,PLAYER_SLEEPBEFORE_START,1516300076316,155
1461,PLAYER_SLEEPBEFORE_END,1516300098874,155
1461,WS_SEND_START,1516300098874,155
1461,WS_SEND_END,1516300098874,155
1461,PLAYER_SLEEPBEFORE_START,1516300098874,156
1461,PLAYER_SLEEPBEFORE_END,1516300102148,156
1461,WS_SEND_START,1516300102148,156
1461,WS_SEND_END,1516300102148,156
1461,WS_RECV_START,1516300102148,157
1461,WS_RECV_END,1516300103889,157
1461,PLAYER_SLEEPBEFORE_START,1516300103889,158
1461,PLAYER_SLEEPBEFORE_END,1516300103899,158
1461,WS_SEND_START,1516300103899,158
1461,WS_SEND_END,1516300103899,158
1461,WS_RECV_START,1516300103899,159
1461,WS_RECV_END,1516300104535,159
1461,PLAYER_SLEEPBEFORE_START,1516300104535,160
1461,PLAYER_SLEEPBEFORE_END,1516300104710,160
1461,WS_SEND_START,1516300104710,160
1461,WS_SEND_END,1516300104710,160
1461,WS_RECV_START,1516300104710,161
1461,WS_RECV_END,1516300106271,161
1461,PLAYER_SLEEPBEFORE_START,1516300106271,162
1461,PLAYER_SLEEPBEFORE_END,1516300106296,162
1461,WS_SEND_START,1516300106296,162
1461,WS_SEND_END,1516300106296,162
1461,WS_RECV_START,1516300106296,163
1461,WS_RECV_END,1516300107425,163
1461,PLAYER_SLEEPBEFORE_START,1516300107425,164
1461,PLAYER_SLEEPBEFORE_END,1516300128237,164
1461,WS_SEND_START,1516300128237,164
1461,WS_SEND_END,1516300128237,164
1461,WS_RECV_START,1516300128237,165
1461,WS_RECV_END,1516300132579,165
1461,PLAYER_SLEEPBEFORE_START,1516300132579,166
1461,PLAYER_SLEEPBEFORE_END,1516300155035,166
1461,WS_SEND_START,1516300155035,166
1461,WS_SEND_END,1516300155035,166
1461,WS_RECV_START,1516300155035,167
1461,WS_RECV_END,1516300160476,167
1461,PLAYER_SLEEPBEFORE_START,1516300160476,168
1461,PLAYER_SLEEPBEFORE_END,1516300187833,168
1461,WS_SEND_START,1516300187833,168
1461,WS_SEND_END,1516300187833,168
1461,WS_RECV_START,1516300187833,169
1461,WS_RECV_END,1516300192804,169
1461,PLAYER_SLEEPBEFORE_START,1516300192804,170
1461,PLAYER_SLEEPBEFORE_END,1516300192813,170
1461,WS_SEND_START,1516300192813,170
1461,WS_SEND_END,1516300192813,170
1461,WS_RECV_START,1516300192813,171
1461,WS_RECV_END,1516300195186,171
1461,PLAYER_SLEEPBEFORE_START,1516300195186,172
1461,PLAYER_SLEEPBEFORE_END,1516300195556,172
1461,WS_SEND_START,1516300195556,172
1461,WS_SEND_END,1516300195556,172
1461,WS_RECV_START,1516300195556,173
1461,WS_RECV_END,1516300199711,173
1461,PLAYER_SLEEPBEFORE_START,1516300199711,174
1461,PLAYER_SLEEPBEFORE_END,1516300199753,174
1461,WS_SEND_START,1516300199753,174
1461,WS_SEND_END,1516300199753,174
1461,WS_RECV_START,1516300199753,175
1461,WS_RECV_END,1516300204319,175
1461,PLAYER_SLEEPBEFORE_START,1516300204319,176
1461,PLAYER_SLEEPBEFORE_END,1516300226081,176
1461,WS_SEND_START,1516300226081,176
1461,WS_SEND_END,1516300226081,176
1461,PLAYER_SLEEPBEFORE_START,1516300226081,177
1461,PLAYER_SLEEPBEFORE_END,1516300228599,177
1461,WS_SEND_START,1516300228599,177
1461,WS_SEND_END,1516300228599,177
1461,WS_RECV_START,1516300228599,178
1461,WS_RECV_END,1516300229103,178
1461,PLAYER_SLEEPBEFORE_START,1516300229103,179
1461,PLAYER_SLEEPBEFORE_END,1516300251443,179
1461,WS_SEND_START,1516300251443,179
1461,WS_SEND_END,1516300251444,179
1461,WS_RECV_START,1516300251444,180
1461,WS_RECV_END,1516300255799,180
1461,PLAYER_SLEEPBEFORE_START,1516300255799,181
1461,PLAYER_SLEEPBEFORE_END,1516300256243,181
1461,WS_SEND_START,1516300256243,181
1461,WS_SEND_END,1516300256243,181
1461,WS_RECV_START,1516300256243,182
1461,WS_RECV_END,1516300257476,182
1461,PLAYER_SLEEPBEFORE_START,1516300257476,183
1461,PLAYER_SLEEPBEFORE_END,1516300257999,183
1461,WS_SEND_START,1516300257999,183
1461,WS_SEND_END,1516300257999,183
1461,WS_RECV_START,1516300257999,184
1461,WS_RECV_END,1516300259421,184
1461,PLAYER_SLEEPBEFORE_START,1516300259421,185
1461,PLAYER_SLEEPBEFORE_END,1516300259689,185
1461,WS_SEND_START,1516300259689,185
1461,WS_SEND_END,1516300259689,185
1461,WS_RECV_START,1516300259689,186
1461,WS_RECV_END,1516300261351,186
1461,PLAYER_SLEEPBEFORE_START,1516300261351,187
1461,PLAYER_SLEEPBEFORE_END,1516300283851,187
1461,WS_SEND_START,1516300283851,187
1461,WS_SEND_END,1516300283851,187
1461,WS_RECV_START,1516300283851,188
1461,WS_RECV_END,1516300287142,188
1461,PLAYER_SLEEPBEFORE_START,1516300287142,189
1461,PLAYER_SLEEPBEFORE_END,1516300293381,189
1461,WS_SEND_START,1516300293381,189
1461,WS_SEND_END,1516300293381,189
1461,WS_RECV_START,1516300293381,190
1461,WS_RECV_END,1516300295565,190
1461,PLAYER_SLEEPBEFORE_START,1516300295565,191
1461,PLAYER_SLEEPBEFORE_END,1516300297480,191
1461,WS_SEND_START,1516300297480,191
1461,WS_SEND_END,1516300297480,191
1461,WS_RECV_START,1516300297480,192
1461,WS_RECV_END,1516300298481,192
1461,PLAYER_SLEEPBEFORE_START,1516300298481,193
1461,PLAYER_SLEEPBEFORE_END,1516300298610,193
1461,WS_SEND_START,1516300298610,193
1461,WS_SEND_END,1516300298610,193
1461,WS_RECV_START,1516300298610,194
1461,WS_RECV_END,1516300299357,194
1461,PLAYER_SLEEPBEFORE_START,1516300299357,195
1461,PLAYER_SLEEPBEFORE_END,1516300301112,195
1461,WS_SEND_START,1516300301112,195
1461,WS_SEND_END,1516300301112,195
1461,WS_RECV_START,1516300301112,196
1461,WS_RECV_END,1516300301352,196
1461,PLAYER_SLEEPBEFORE_START,1516300301352,197
1461,PLAYER_SLEEPBEFORE_END,1516300303157,197
1461,WS_SEND_START,1516300303157,197
1461,WS_SEND_END,1516300303157,197
1461,WS_RECV_START,1516300303157,198
1461,WS_RECV_END,1516300303545,198
1461,PLAYER_SLEEPBEFORE_START,1516300303545,199
1461,PLAYER_SLEEPBEFORE_END,1516300315399,199
1461,WS_SEND_START,1516300315399,199
1461,WS_SEND_END,1516300315399,199
1461,PLAYER_SLEEPBEFORE_START,1516300315399,200
1461,PLAYER_SLEEPBEFORE_END,1516300319487,200
1461,WS_SEND_START,1516300319487,200
1461,WS_SEND_END,1516300319487,200
1461,WS_RECV_START,1516300319487,201
1461,WS_RECV_END,1516300319713,201
1461,PLAYER_SLEEPBEFORE_START,1516300319713,202
1461,PLAYER_SLEEPBEFORE_END,1516300319727,202
1461,WS_SEND_START,1516300319727,202
1461,WS_SEND_END,1516300319727,202
1461,WS_RECV_START,1516300319727,203
1461,WS_RECV_END,1516300320529,203
1461,PLAYER_SLEEPBEFORE_START,1516300320529,204
1461,PLAYER_SLEEPBEFORE_END,1516300340178,204
1461,WS_SEND_START,1516300340178,204
1461,WS_SEND_END,1516300340178,204
1461,PLAYER_SLEEPBEFORE_START,1516300340178,205
1461,PLAYER_SLEEPBEFORE_END,1516300344076,205
1461,WS_SEND_START,1516300344076,205
1461,WS_SEND_END,1516300344076,205
1461,WS_RECV_START,1516300344076,206
1461,WS_RECV_END,1516300344404,206
1461,PLAYER_SLEEPBEFORE_START,1516300344404,207
1461,PLAYER_SLEEPBEFORE_END,1516300361335,207
1461,REQ_START,1516300361335,207
1461,REQ_END,1516300361342,207
1461,PLAYER_SLEEPBEFORE_START,1516300361342,208
1461,PLAYER_SLEEPBEFORE_END,1516300368194,208
1461,WS_CLOSE_START,1516300368194,208
1461,WS_CLOSE_END,1516300368194,208
1461,PLAYER_DONE,1516300368194
