# --sessions 2700 --app-url=http://shinyloadtest.rstudioservices.com/cran_explorer --output-dir test2700 --overwrite-output --log-level warn --start-interval 100 15min.log
thread_id,event,timestamp,input_line_number,comment
1465,PLAYER_SESSION_CREATE,1516299245954
1465,PLAYER_START_INTERVAL_START,1516299245954
1465,PLAYER_START_INTERVAL_END,1516299392454
1465,REQ_HOME_START,1516299392454,2
1465,REQ_HOME_END,1516299392549,2
1465,REQ_START,1516299392549,3
1465,REQ_END,1516299392629,3
1465,REQ_START,1516299392629,4
1465,REQ_END,1516299392715,4
1465,REQ_START,1516299392715,5
1465,REQ_END,1516299392756,5
1465,REQ_START,1516299392756,6
1465,REQ_END,1516299392803,6
1465,REQ_START,1516299392803,7
1465,REQ_END,1516299392841,7
1465,REQ_START,1516299392841,8
1465,REQ_END,1516299392880,8
1465,REQ_START,1516299392880,9
1465,REQ_END,1516299392926,9
1465,REQ_START,1516299392926,10
1465,REQ_END,1516299392932,10
1465,REQ_START,1516299392932,11
1465,REQ_END,1516299392971,11
1465,REQ_START,1516299392971,12
1465,REQ_END,1516299392979,12
1465,REQ_START,1516299392979,13
1465,REQ_END,1516299393020,13
1465,REQ_START,1516299393020,14
1465,REQ_END,1516299393034,14
1465,REQ_START,1516299393034,15
1465,REQ_END,1516299393078,15
1465,REQ_TOK_START,1516299393078,16
1465,REQ_TOK_END,1516299393084,16
1465,REQ_SINF_START,1516299393084,17
1465,REQ_SINF_END,1516299393091,17
1465,WS_OPEN_START,1516299393091,18
1465,WS_OPEN_END,1516299393100,18
1465,REQ_START,1516299393100,19
1465,REQ_END,1516299393133,19
1465,WS_RECV_START,1516299393133,20
1465,WS_RECV_END,1516299393133,20
1465,PLAYER_SLEEPBEFORE_START,1516299393133,21
1465,PLAYER_SLEEPBEFORE_END,1516299393138,21
1465,WS_SEND_START,1516299393138,21
1465,WS_SEND_END,1516299393138,21
1465,PLAYER_SLEEPBEFORE_START,1516299393138,22
1465,PLAYER_SLEEPBEFORE_END,1516299393139,22
1465,WS_SEND_START,1516299393139,22
1465,WS_SEND_END,1516299393139,22
1465,WS_RECV_INIT_START,1516299393139,23
1465,WS_RECV_INIT_END,1516299393378,23
1465,WS_RECV_START,1516299393378,24
1465,WS_RECV_END,1516299393428,24
1465,PLAYER_SLEEPBEFORE_START,1516299393428,25
1465,PLAYER_SLEEPBEFORE_END,1516299393435,25
1465,REQ_START,1516299393435,25
1465,REQ_END,1516299393472,25
1465,PLAYER_SLEEPBEFORE_START,1516299393472,26
1465,PLAYER_SLEEPBEFORE_END,1516299393473,26
1465,REQ_START,1516299393473,26
1465,REQ_END,1516299393620,26
1465,PLAYER_SLEEPBEFORE_START,1516299393620,27
1465,PLAYER_SLEEPBEFORE_END,1516299393623,27
1465,REQ_START,1516299393623,27
1465,REQ_END,1516299393797,27
1465,PLAYER_SLEEPBEFORE_START,1516299393797,28
1465,PLAYER_SLEEPBEFORE_END,1516299394082,28
1465,REQ_START,1516299394082,28
1465,REQ_END,1516299394145,28
1465,PLAYER_SLEEPBEFORE_START,1516299394145,29
1465,PLAYER_SLEEPBEFORE_END,1516299394320,29
1465,WS_SEND_START,1516299394320,29
1465,WS_SEND_END,1516299394320,29
1465,WS_RECV_START,1516299394320,30
1465,WS_RECV_END,1516299394449,30
1465,PLAYER_SLEEPBEFORE_START,1516299394449,31
1465,PLAYER_SLEEPBEFORE_END,1516299394461,31
1465,REQ_START,1516299394461,31
1465,REQ_END,1516299394499,31
1465,PLAYER_SLEEPBEFORE_START,1516299394499,32
1465,PLAYER_SLEEPBEFORE_END,1516299422644,32
1465,WS_SEND_START,1516299422644,32
1465,WS_SEND_END,1516299422644,32
1465,WS_RECV_START,1516299422644,33
1465,WS_RECV_END,1516299422730,33
1465,PLAYER_SLEEPBEFORE_START,1516299422730,34
1465,PLAYER_SLEEPBEFORE_END,1516299448641,34
1465,WS_SEND_START,1516299448641,34
1465,WS_SEND_END,1516299448641,34
1465,WS_RECV_START,1516299448641,35
1465,WS_RECV_END,1516299448716,35
1465,PLAYER_SLEEPBEFORE_START,1516299448716,36
1465,PLAYER_SLEEPBEFORE_END,1516299448725,36
1465,WS_SEND_START,1516299448725,36
1465,WS_SEND_END,1516299448725,36
1465,WS_RECV_START,1516299448725,37
1465,WS_RECV_END,1516299448797,37
1465,PLAYER_SLEEPBEFORE_START,1516299448797,38
1465,PLAYER_SLEEPBEFORE_END,1516299451992,38
1465,WS_SEND_START,1516299451992,38
1465,WS_SEND_END,1516299451992,38
1465,WS_RECV_START,1516299451992,39
1465,WS_RECV_END,1516299452159,39
1465,PLAYER_SLEEPBEFORE_START,1516299452159,40
1465,PLAYER_SLEEPBEFORE_END,1516299452205,40
1465,WS_SEND_START,1516299452205,40
1465,WS_SEND_END,1516299452205,40
1465,WS_RECV_START,1516299452205,41
1465,WS_RECV_END,1516299452381,41
1465,PLAYER_SLEEPBEFORE_START,1516299452381,42
1465,PLAYER_SLEEPBEFORE_END,1516299470516,42
1465,WS_SEND_START,1516299470516,42
1465,WS_SEND_END,1516299470516,42
1465,WS_RECV_START,1516299470516,43
1465,WS_RECV_END,1516299470597,43
1465,PLAYER_SLEEPBEFORE_START,1516299470597,44
1465,PLAYER_SLEEPBEFORE_END,1516299470609,44
1465,WS_SEND_START,1516299470609,44
1465,WS_SEND_END,1516299470609,44
1465,WS_RECV_START,1516299470609,45
1465,WS_RECV_END,1516299470757,45
1465,PLAYER_SLEEPBEFORE_START,1516299470757,46
1465,PLAYER_SLEEPBEFORE_END,1516299472017,46
1465,WS_SEND_START,1516299472017,46
1465,WS_SEND_END,1516299472017,46
1465,WS_RECV_START,1516299472017,47
1465,WS_RECV_END,1516299472143,47
1465,PLAYER_SLEEPBEFORE_START,1516299472143,48
1465,PLAYER_SLEEPBEFORE_END,1516299473463,48
1465,WS_SEND_START,1516299473463,48
1465,WS_SEND_END,1516299473463,48
1465,WS_RECV_START,1516299473463,49
1465,WS_RECV_END,1516299473584,49
1465,PLAYER_SLEEPBEFORE_START,1516299473584,50
1465,PLAYER_SLEEPBEFORE_END,1516299473609,50
1465,WS_SEND_START,1516299473609,50
1465,WS_SEND_END,1516299473609,50
1465,WS_RECV_START,1516299473609,51
1465,WS_RECV_END,1516299473853,51
1465,PLAYER_SLEEPBEFORE_START,1516299473853,52
1465,PLAYER_SLEEPBEFORE_END,1516299496417,52
1465,WS_SEND_START,1516299496417,52
1465,WS_SEND_END,1516299496417,52
1465,WS_RECV_START,1516299496417,53
1465,WS_RECV_END,1516299496734,53
1465,PLAYER_SLEEPBEFORE_START,1516299496734,54
1465,PLAYER_SLEEPBEFORE_END,1516299518037,54
1465,WS_SEND_START,1516299518037,54
1465,WS_SEND_END,1516299518037,54
1465,PLAYER_SLEEPBEFORE_START,1516299518037,55
1465,PLAYER_SLEEPBEFORE_END,1516299519978,55
1465,WS_SEND_START,1516299519978,55
1465,WS_SEND_END,1516299519978,55
1465,WS_RECV_START,1516299519978,56
1465,WS_RECV_END,1516299520140,56
1465,PLAYER_SLEEPBEFORE_START,1516299520140,57
1465,PLAYER_SLEEPBEFORE_END,1516299543012,57
1465,WS_SEND_START,1516299543012,57
1465,WS_SEND_END,1516299543012,57
1465,WS_RECV_START,1516299543012,58
1465,WS_RECV_END,1516299543404,58
1465,PLAYER_SLEEPBEFORE_START,1516299543404,59
1465,PLAYER_SLEEPBEFORE_END,1516299545731,59
1465,WS_SEND_START,1516299545731,59
1465,WS_SEND_END,1516299545731,59
1465,WS_RECV_START,1516299545731,60
1465,WS_RECV_END,1516299546582,60
1465,PLAYER_SLEEPBEFORE_START,1516299546582,61
1465,PLAYER_SLEEPBEFORE_END,1516299550173,61
1465,WS_SEND_START,1516299550173,61
1465,WS_SEND_END,1516299550173,61
1465,WS_RECV_START,1516299550173,62
1465,WS_RECV_END,1516299550871,62
1465,PLAYER_SLEEPBEFORE_START,1516299550871,63
1465,PLAYER_SLEEPBEFORE_END,1516299570133,63
1465,WS_SEND_START,1516299570133,63
1465,WS_SEND_END,1516299570133,63
1465,WS_RECV_START,1516299570133,64
1465,WS_RECV_END,1516299572308,64
1465,PLAYER_SLEEPBEFORE_START,1516299572308,65
1465,PLAYER_SLEEPBEFORE_END,1516299599125,65
1465,WS_SEND_START,1516299599125,65
1465,WS_SEND_END,1516299599125,65
1465,WS_RECV_START,1516299599125,66
1465,WS_RECV_END,1516299600502,66
1465,PLAYER_SLEEPBEFORE_START,1516299600502,67
1465,PLAYER_SLEEPBEFORE_END,1516299602009,67
1465,WS_SEND_START,1516299602009,67
1465,WS_SEND_END,1516299602009,67
1465,WS_RECV_START,1516299602009,68
1465,WS_RECV_END,1516299602423,68
1465,PLAYER_SLEEPBEFORE_START,1516299602424,69
1465,PLAYER_SLEEPBEFORE_END,1516299624422,69
1465,WS_SEND_START,1516299624422,69
1465,WS_SEND_END,1516299624422,69
1465,WS_RECV_START,1516299624422,70
1465,WS_RECV_END,1516299624824,70
1465,PLAYER_SLEEPBEFORE_START,1516299624824,71
1465,PLAYER_SLEEPBEFORE_END,1516299649599,71
1465,WS_SEND_START,1516299649599,71
1465,WS_SEND_END,1516299649599,71
1465,PLAYER_SLEEPBEFORE_START,1516299649599,72
1465,PLAYER_SLEEPBEFORE_END,1516299652206,72
1465,WS_SEND_START,1516299652206,72
1465,WS_SEND_END,1516299652206,72
1465,WS_RECV_START,1516299652206,73
1465,WS_RECV_END,1516299652799,73
1465,PLAYER_SLEEPBEFORE_START,1516299652799,74
1465,PLAYER_SLEEPBEFORE_END,1516299652808,74
1465,WS_SEND_START,1516299652808,74
1465,WS_SEND_END,1516299652808,74
1465,WS_RECV_START,1516299652808,75
1465,WS_RECV_END,1516299653354,75
1465,PLAYER_SLEEPBEFORE_START,1516299653354,76
1465,PLAYER_SLEEPBEFORE_END,1516299654860,76
1465,WS_SEND_START,1516299654860,76
1465,WS_SEND_END,1516299654860,76
1465,WS_RECV_START,1516299654860,77
1465,WS_RECV_END,1516299655702,77
1465,PLAYER_SLEEPBEFORE_START,1516299655702,78
1465,PLAYER_SLEEPBEFORE_END,1516299656570,78
1465,WS_SEND_START,1516299656570,78
1465,WS_SEND_END,1516299656570,78
1465,WS_RECV_START,1516299656570,79
1465,WS_RECV_END,1516299657073,79
1465,PLAYER_SLEEPBEFORE_START,1516299657073,80
1465,PLAYER_SLEEPBEFORE_END,1516299664740,80
1465,WS_SEND_START,1516299664740,80
1465,WS_SEND_END,1516299664740,80
1465,WS_RECV_START,1516299664740,81
1465,WS_RECV_END,1516299665011,81
1465,PLAYER_SLEEPBEFORE_START,1516299665011,82
1465,PLAYER_SLEEPBEFORE_END,1516299666113,82
1465,WS_SEND_START,1516299666113,82
1465,WS_SEND_END,1516299666113,82
1465,WS_RECV_START,1516299666113,83
1465,WS_RECV_END,1516299666146,83
1465,PLAYER_SLEEPBEFORE_START,1516299666146,84
1465,PLAYER_SLEEPBEFORE_END,1516299667093,84
1465,WS_SEND_START,1516299667093,84
1465,WS_SEND_END,1516299667093,84
1465,WS_RECV_START,1516299667093,85
1465,WS_RECV_END,1516299667130,85
1465,PLAYER_SLEEPBEFORE_START,1516299667130,86
1465,PLAYER_SLEEPBEFORE_END,1516299671302,86
1465,WS_SEND_START,1516299671302,86
1465,WS_SEND_END,1516299671302,86
1465,WS_RECV_START,1516299671302,87
1465,WS_RECV_END,1516299671569,87
1465,PLAYER_SLEEPBEFORE_START,1516299671569,88
1465,PLAYER_SLEEPBEFORE_END,1516299671577,88
1465,WS_SEND_START,1516299671577,88
1465,WS_SEND_END,1516299671577,88
1465,WS_RECV_START,1516299671577,89
1465,WS_RECV_END,1516299671688,89
1465,PLAYER_SLEEPBEFORE_START,1516299671688,90
1465,PLAYER_SLEEPBEFORE_END,1516299698885,90
1465,REQ_START,1516299698885,90
1465,REQ_END,1516299698892,90
1465,PLAYER_SLEEPBEFORE_START,1516299698892,91
1465,PLAYER_SLEEPBEFORE_END,1516299706781,91
1465,WS_SEND_START,1516299706781,91
1465,WS_SEND_END,1516299706781,91
1465,WS_RECV_START,1516299706781,92
1465,WS_RECV_END,1516299707246,92
1465,PLAYER_SLEEPBEFORE_START,1516299707246,93
1465,PLAYER_SLEEPBEFORE_END,1516299707261,93
1465,WS_SEND_START,1516299707261,93
1465,WS_SEND_END,1516299707262,93
1465,WS_RECV_START,1516299707262,94
1465,WS_RECV_END,1516299708061,94
1465,PLAYER_SLEEPBEFORE_START,1516299708061,95
1465,PLAYER_SLEEPBEFORE_END,1516299731616,95
1465,WS_SEND_START,1516299731616,95
1465,WS_SEND_END,1516299731616,95
1465,WS_RECV_START,1516299731616,96
1465,WS_RECV_END,1516299732668,96
1465,PLAYER_SLEEPBEFORE_START,1516299732668,97
1465,PLAYER_SLEEPBEFORE_END,1516299755108,97
1465,WS_SEND_START,1516299755108,97
1465,WS_SEND_END,1516299755109,97
1465,WS_RECV_START,1516299755109,98
1465,WS_RECV_END,1516299756601,98
1465,PLAYER_SLEEPBEFORE_START,1516299756601,99
1465,PLAYER_SLEEPBEFORE_END,1516299756622,99
1465,WS_SEND_START,1516299756622,99
1465,WS_SEND_END,1516299756622,99
1465,WS_RECV_START,1516299756622,100
1465,WS_RECV_END,1516299759531,100
1465,PLAYER_SLEEPBEFORE_START,1516299759531,101
1465,PLAYER_SLEEPBEFORE_END,1516299783090,101
1465,WS_SEND_START,1516299783090,101
1465,WS_SEND_END,1516299783090,101
1465,WS_RECV_START,1516299783090,102
1465,WS_RECV_END,1516299784863,102
1465,PLAYER_SLEEPBEFORE_START,1516299784863,103
1465,PLAYER_SLEEPBEFORE_END,1516299808488,103
1465,WS_SEND_START,1516299808488,103
1465,WS_SEND_END,1516299808488,103
1465,WS_RECV_START,1516299808488,104
1465,WS_RECV_END,1516299810922,104
1465,PLAYER_SLEEPBEFORE_START,1516299810922,105
1465,PLAYER_SLEEPBEFORE_END,1516299836299,105
1465,WS_SEND_START,1516299836299,105
1465,WS_SEND_END,1516299836299,105
1465,WS_RECV_START,1516299836299,106
1465,WS_RECV_END,1516299837291,106
1465,PLAYER_SLEEPBEFORE_START,1516299837292,107
1465,PLAYER_SLEEPBEFORE_END,1516299860715,107
1465,WS_SEND_START,1516299860715,107
1465,WS_SEND_END,1516299860715,107
1465,WS_RECV_START,1516299860715,108
1465,WS_RECV_END,1516299864742,108
1465,PLAYER_SLEEPBEFORE_START,1516299864742,109
1465,PLAYER_SLEEPBEFORE_END,1516299864751,109
1465,WS_SEND_START,1516299864751,109
1465,WS_SEND_END,1516299864751,109
1465,WS_RECV_START,1516299864751,110
1465,WS_RECV_END,1516299866644,110
1465,PLAYER_SLEEPBEFORE_START,1516299866644,111
1465,PLAYER_SLEEPBEFORE_END,1516299867603,111
1465,WS_SEND_START,1516299867603,111
1465,WS_SEND_END,1516299867603,111
1465,WS_RECV_START,1516299867603,112
1465,WS_RECV_END,1516299868977,112
1465,PLAYER_SLEEPBEFORE_START,1516299868977,113
1465,PLAYER_SLEEPBEFORE_END,1516299869539,113
1465,WS_SEND_START,1516299869539,113
1465,WS_SEND_END,1516299869539,113
1465,WS_RECV_START,1516299869539,114
1465,WS_RECV_END,1516299872066,114
1465,PLAYER_SLEEPBEFORE_START,1516299872066,115
1465,PLAYER_SLEEPBEFORE_END,1516299872075,115
1465,WS_SEND_START,1516299872075,115
1465,WS_SEND_END,1516299872075,115
1465,WS_RECV_START,1516299872075,116
1465,WS_RECV_END,1516299876103,116
1465,PLAYER_SLEEPBEFORE_START,1516299876103,117
1465,PLAYER_SLEEPBEFORE_END,1516299896463,117
1465,WS_SEND_START,1516299896463,117
1465,WS_SEND_END,1516299896463,117
1465,PLAYER_SLEEPBEFORE_START,1516299896463,118
1465,PLAYER_SLEEPBEFORE_END,1516299900215,118
1465,WS_SEND_START,1516299900215,118
1465,WS_SEND_END,1516299900215,118
1465,WS_RECV_START,1516299900215,119
1465,WS_RECV_END,1516299900401,119
1465,PLAYER_SLEEPBEFORE_START,1516299900401,120
1465,PLAYER_SLEEPBEFORE_END,1516299901389,120
1465,WS_SEND_START,1516299901389,120
1465,WS_SEND_END,1516299901389,120
1465,WS_RECV_START,1516299901389,121
1465,WS_RECV_END,1516299902235,121
1465,PLAYER_SLEEPBEFORE_START,1516299902235,122
1465,PLAYER_SLEEPBEFORE_END,1516299903420,122
1465,WS_SEND_START,1516299903420,122
1465,WS_SEND_END,1516299903420,122
1465,WS_RECV_START,1516299903420,123
1465,WS_RECV_END,1516299904116,123
1465,PLAYER_SLEEPBEFORE_START,1516299904116,124
1465,PLAYER_SLEEPBEFORE_END,1516299928521,124
1465,WS_SEND_START,1516299928521,124
1465,WS_SEND_END,1516299928521,124
1465,WS_RECV_START,1516299928521,125
1465,WS_RECV_END,1516299929630,125
1465,PLAYER_SLEEPBEFORE_START,1516299929630,126
1465,PLAYER_SLEEPBEFORE_END,1516299950142,126
1465,WS_SEND_START,1516299950142,126
1465,WS_SEND_END,1516299950142,126
1465,PLAYER_SLEEPBEFORE_START,1516299950142,127
1465,PLAYER_SLEEPBEFORE_END,1516299953196,127
1465,WS_SEND_START,1516299953196,127
1465,WS_SEND_END,1516299953196,127
1465,WS_RECV_START,1516299953196,128
1465,WS_RECV_END,1516299953305,128
1465,PLAYER_SLEEPBEFORE_START,1516299953305,129
1465,PLAYER_SLEEPBEFORE_END,1516299953325,129
1465,WS_SEND_START,1516299953325,129
1465,WS_SEND_END,1516299953325,129
1465,WS_RECV_START,1516299953325,130
1465,WS_RECV_END,1516299954033,130
1465,PLAYER_SLEEPBEFORE_START,1516299954033,131
1465,PLAYER_SLEEPBEFORE_END,1516299975658,131
1465,WS_SEND_START,1516299975658,131
1465,WS_SEND_END,1516299975658,131
1465,PLAYER_SLEEPBEFORE_START,1516299975658,132
1465,PLAYER_SLEEPBEFORE_END,1516299978738,132
1465,WS_SEND_START,1516299978738,132
1465,WS_SEND_END,1516299978738,132
1465,WS_RECV_START,1516299978738,133
1465,WS_RECV_END,1516299979693,133
1465,PLAYER_SLEEPBEFORE_START,1516299979693,134
1465,PLAYER_SLEEPBEFORE_END,1516300000910,134
1465,WS_SEND_START,1516300000910,134
1465,WS_SEND_END,1516300000910,134
1465,PLAYER_SLEEPBEFORE_START,1516300000910,135
1465,PLAYER_SLEEPBEFORE_END,1516300004101,135
1465,WS_SEND_START,1516300004101,135
1465,WS_SEND_END,1516300004101,135
1465,WS_RECV_START,1516300004101,136
1465,WS_RECV_END,1516300004674,136
1465,PLAYER_SLEEPBEFORE_START,1516300004674,137
1465,PLAYER_SLEEPBEFORE_END,1516300004707,137
1465,WS_SEND_START,1516300004707,137
1465,WS_SEND_END,1516300004707,137
1465,WS_RECV_START,1516300004707,138
1465,WS_RECV_END,1516300005227,138
1465,PLAYER_SLEEPBEFORE_START,1516300005227,139
1465,PLAYER_SLEEPBEFORE_END,1516300005917,139
1465,WS_SEND_START,1516300005917,139
1465,WS_SEND_END,1516300005917,139
1465,WS_RECV_START,1516300005917,140
1465,WS_RECV_END,1516300007231,140
1465,PLAYER_SLEEPBEFORE_START,1516300007231,141
1465,PLAYER_SLEEPBEFORE_END,1516300007886,141
1465,WS_SEND_START,1516300007886,141
1465,WS_SEND_END,1516300007886,141
1465,WS_RECV_START,1516300007886,142
1465,WS_RECV_END,1516300009598,142
1465,PLAYER_SLEEPBEFORE_START,1516300009598,143
1465,PLAYER_SLEEPBEFORE_END,1516300009663,143
1465,WS_SEND_START,1516300009663,143
1465,WS_SEND_END,1516300009663,143
1465,WS_RECV_START,1516300009663,144
1465,WS_RECV_END,1516300010398,144
1465,PLAYER_SLEEPBEFORE_START,1516300010398,145
1465,PLAYER_SLEEPBEFORE_END,1516300026461,145
1465,REQ_START,1516300026461,145
1465,REQ_END,1516300026465,145
1465,PLAYER_SLEEPBEFORE_START,1516300026465,146
1465,PLAYER_SLEEPBEFORE_END,1516300035342,146
1465,WS_SEND_START,1516300035342,146
1465,WS_SEND_END,1516300035342,146
1465,WS_RECV_START,1516300035342,147
1465,WS_RECV_END,1516300035880,147
1465,PLAYER_SLEEPBEFORE_START,1516300035880,148
1465,PLAYER_SLEEPBEFORE_END,1516300057802,148
1465,WS_SEND_START,1516300057802,148
1465,WS_SEND_END,1516300057802,148
1465,PLAYER_SLEEPBEFORE_START,1516300057802,149
1465,PLAYER_SLEEPBEFORE_END,1516300060230,149
1465,WS_SEND_START,1516300060230,149
1465,WS_SEND_END,1516300060230,149
1465,WS_RECV_START,1516300060230,150
1465,WS_RECV_END,1516300061125,150
1465,PLAYER_SLEEPBEFORE_START,1516300061125,151
1465,PLAYER_SLEEPBEFORE_END,1516300061335,151
1465,WS_SEND_START,1516300061335,151
1465,WS_SEND_END,1516300061335,151
1465,WS_RECV_START,1516300061335,152
1465,WS_RECV_END,1516300061780,152
1465,PLAYER_SLEEPBEFORE_START,1516300061780,153
1465,PLAYER_SLEEPBEFORE_END,1516300085707,153
1465,WS_SEND_START,1516300085707,153
1465,WS_SEND_END,1516300085707,153
1465,WS_RECV_START,1516300085707,154
1465,WS_RECV_END,1516300086487,154
1465,PLAYER_SLEEPBEFORE_START,1516300086487,155
1465,PLAYER_SLEEPBEFORE_END,1516300109045,155
1465,WS_SEND_START,1516300109045,155
1465,WS_SEND_END,1516300109045,155
1465,PLAYER_SLEEPBEFORE_START,1516300109045,156
1465,PLAYER_SLEEPBEFORE_END,1516300112319,156
1465,WS_SEND_START,1516300112319,156
1465,WS_SEND_END,1516300112319,156
1465,WS_RECV_START,1516300112319,157
1465,WS_RECV_END,1516300115597,157
1465,PLAYER_SLEEPBEFORE_START,1516300115597,158
1465,PLAYER_SLEEPBEFORE_END,1516300115607,158
1465,WS_SEND_START,1516300115608,158
1465,WS_SEND_END,1516300115608,158
1465,WS_RECV_START,1516300115608,159
1465,WS_RECV_END,1516300116823,159
1465,PLAYER_SLEEPBEFORE_START,1516300116823,160
1465,PLAYER_SLEEPBEFORE_END,1516300116998,160
1465,WS_SEND_START,1516300116998,160
1465,WS_SEND_END,1516300116998,160
1465,WS_RECV_START,1516300116998,161
1465,WS_RECV_END,1516300118370,161
1465,PLAYER_SLEEPBEFORE_START,1516300118370,162
1465,PLAYER_SLEEPBEFORE_END,1516300118395,162
1465,WS_SEND_START,1516300118395,162
1465,WS_SEND_END,1516300118395,162
1465,WS_RECV_START,1516300118395,163
1465,WS_RECV_END,1516300120675,163
1465,PLAYER_SLEEPBEFORE_START,1516300120675,164
1465,PLAYER_SLEEPBEFORE_END,1516300141487,164
1465,WS_SEND_START,1516300141487,164
1465,WS_SEND_END,1516300141487,164
1465,WS_RECV_START,1516300141487,165
1465,WS_RECV_END,1516300144844,165
1465,PLAYER_SLEEPBEFORE_START,1516300144844,166
1465,PLAYER_SLEEPBEFORE_END,1516300167299,166
1465,WS_SEND_START,1516300167299,166
1465,WS_SEND_END,1516300167299,166
1465,WS_RECV_START,1516300167299,167
1465,WS_RECV_END,1516300176012,167
1465,PLAYER_SLEEPBEFORE_START,1516300176012,168
1465,PLAYER_SLEEPBEFORE_END,1516300203369,168
1465,WS_SEND_START,1516300203369,168
1465,WS_SEND_END,1516300203369,168
1465,WS_RECV_START,1516300203369,169
1465,WS_RECV_END,1516300207798,169
1465,PLAYER_SLEEPBEFORE_START,1516300207798,170
1465,PLAYER_SLEEPBEFORE_END,1516300207807,170
1465,WS_SEND_START,1516300207807,170
1465,WS_SEND_END,1516300207807,170
1465,WS_RECV_START,1516300207807,171
1465,WS_RECV_END,1516300209306,171
1465,PLAYER_SLEEPBEFORE_START,1516300209306,172
1465,PLAYER_SLEEPBEFORE_END,1516300209675,172
1465,WS_SEND_START,1516300209675,172
1465,WS_SEND_END,1516300209675,172
1465,WS_RECV_START,1516300209675,173
1465,WS_RECV_END,1516300212665,173
1465,PLAYER_SLEEPBEFORE_START,1516300212665,174
1465,PLAYER_SLEEPBEFORE_END,1516300212708,174
1465,WS_SEND_START,1516300212708,174
1465,WS_SEND_END,1516300212708,174
1465,WS_RECV_START,1516300212708,175
1465,WS_RECV_END,1516300215963,175
1465,PLAYER_SLEEPBEFORE_START,1516300215963,176
1465,PLAYER_SLEEPBEFORE_END,1516300237725,176
1465,WS_SEND_START,1516300237725,176
1465,WS_SEND_END,1516300237725,176
1465,PLAYER_SLEEPBEFORE_START,1516300237725,177
1465,PLAYER_SLEEPBEFORE_END,1516300240243,177
1465,WS_SEND_START,1516300240243,177
1465,WS_SEND_END,1516300240243,177
1465,WS_RECV_START,1516300240243,178
1465,WS_RECV_END,1516300242385,178
1465,PLAYER_SLEEPBEFORE_START,1516300242385,179
1465,PLAYER_SLEEPBEFORE_END,1516300264725,179
1465,WS_SEND_START,1516300264725,179
1465,WS_SEND_END,1516300264725,179
1465,WS_RECV_START,1516300264725,180
1465,WS_RECV_END,1516300265633,180
1465,PLAYER_SLEEPBEFORE_START,1516300265633,181
1465,PLAYER_SLEEPBEFORE_END,1516300266077,181
1465,WS_SEND_START,1516300266077,181
1465,WS_SEND_END,1516300266077,181
1465,WS_RECV_START,1516300266077,182
1465,WS_RECV_END,1516300268285,182
1465,PLAYER_SLEEPBEFORE_START,1516300268285,183
1465,PLAYER_SLEEPBEFORE_END,1516300268808,183
1465,WS_SEND_START,1516300268808,183
1465,WS_SEND_END,1516300268808,183
1465,WS_RECV_START,1516300268808,184
1465,WS_RECV_END,1516300270110,184
1465,PLAYER_SLEEPBEFORE_START,1516300270110,185
1465,PLAYER_SLEEPBEFORE_END,1516300270378,185
1465,WS_SEND_START,1516300270378,185
1465,WS_SEND_END,1516300270378,185
1465,WS_RECV_START,1516300270378,186
1465,WS_RECV_END,1516300270954,186
1465,PLAYER_SLEEPBEFORE_START,1516300270954,187
1465,PLAYER_SLEEPBEFORE_END,1516300293455,187
1465,WS_SEND_START,1516300293455,187
1465,WS_SEND_END,1516300293455,187
1465,WS_RECV_START,1516300293455,188
1465,WS_RECV_END,1516300294496,188
1465,PLAYER_SLEEPBEFORE_START,1516300294496,189
1465,PLAYER_SLEEPBEFORE_END,1516300300735,189
1465,WS_SEND_START,1516300300735,189
1465,WS_SEND_END,1516300300735,189
1465,WS_RECV_START,1516300300735,190
1465,WS_RECV_END,1516300301084,190
1465,PLAYER_SLEEPBEFORE_START,1516300301084,191
1465,PLAYER_SLEEPBEFORE_END,1516300302999,191
1465,WS_SEND_START,1516300302999,191
1465,WS_SEND_END,1516300302999,191
1465,WS_RECV_START,1516300302999,192
1465,WS_RECV_END,1516300303406,192
1465,PLAYER_SLEEPBEFORE_START,1516300303406,193
1465,PLAYER_SLEEPBEFORE_END,1516300303534,193
1465,WS_SEND_START,1516300303534,193
1465,WS_SEND_END,1516300303534,193
1465,WS_RECV_START,1516300303534,194
1465,WS_RECV_END,1516300304154,194
1465,PLAYER_SLEEPBEFORE_START,1516300304154,195
1465,PLAYER_SLEEPBEFORE_END,1516300305909,195
1465,WS_SEND_START,1516300305909,195
1465,WS_SEND_END,1516300305909,195
1465,WS_RECV_START,1516300305909,196
1465,WS_RECV_END,1516300307044,196
1465,PLAYER_SLEEPBEFORE_START,1516300307044,197
1465,PLAYER_SLEEPBEFORE_END,1516300308848,197
1465,WS_SEND_START,1516300308848,197
1465,WS_SEND_END,1516300308848,197
1465,WS_RECV_START,1516300308848,198
1465,WS_RECV_END,1516300309020,198
1465,PLAYER_SLEEPBEFORE_START,1516300309020,199
1465,PLAYER_SLEEPBEFORE_END,1516300320874,199
1465,WS_SEND_START,1516300320875,199
1465,WS_SEND_END,1516300320875,199
1465,PLAYER_SLEEPBEFORE_START,1516300320875,200
1465,PLAYER_SLEEPBEFORE_END,1516300324963,200
1465,WS_SEND_START,1516300324963,200
1465,WS_SEND_END,1516300324963,200
1465,WS_RECV_START,1516300324963,201
1465,WS_RECV_END,1516300325124,201
1465,PLAYER_SLEEPBEFORE_START,1516300325124,202
1465,PLAYER_SLEEPBEFORE_END,1516300325139,202
1465,WS_SEND_START,1516300325139,202
1465,WS_SEND_END,1516300325139,202
1465,WS_RECV_START,1516300325139,203
1465,WS_RECV_END,1516300325276,203
1465,PLAYER_SLEEPBEFORE_START,1516300325276,204
1465,PLAYER_SLEEPBEFORE_END,1516300344926,204
1465,WS_SEND_START,1516300344926,204
1465,WS_SEND_END,1516300344926,204
1465,PLAYER_SLEEPBEFORE_START,1516300344926,205
1465,PLAYER_SLEEPBEFORE_END,1516300348824,205
1465,WS_SEND_START,1516300348824,205
1465,WS_SEND_END,1516300348824,205
1465,WS_RECV_START,1516300348824,206
1465,WS_RECV_END,1516300348985,206
1465,PLAYER_SLEEPBEFORE_START,1516300348985,207
1465,PLAYER_SLEEPBEFORE_END,1516300365916,207
1465,REQ_START,1516300365916,207
1465,REQ_END,1516300365923,207
1465,PLAYER_SLEEPBEFORE_START,1516300365923,208
1465,PLAYER_SLEEPBEFORE_END,1516300372775,208
1465,WS_CLOSE_START,1516300372775,208
1465,WS_CLOSE_END,1516300372775,208
1465,PLAYER_DONE,1516300372775
