# --sessions 2700 --app-url=http://shinyloadtest.rstudioservices.com/cran_explorer --output-dir test2700 --overwrite-output --log-level warn --start-interval 100 15min.log
thread_id,event,timestamp,input_line_number,comment
1499,PLAYER_SESSION_CREATE,1516299245958
1499,PLAYER_START_INTERVAL_START,1516299245958
1499,PLAYER_START_INTERVAL_END,1516299395858
1499,REQ_HOME_START,1516299395858,2
1499,REQ_HOME_END,1516299395968,2
1499,REQ_START,1516299395968,3
1499,REQ_END,1516299396008,3
1499,REQ_START,1516299396008,4
1499,REQ_END,1516299396045,4
1499,REQ_START,1516299396045,5
1499,REQ_END,1516299396081,5
1499,REQ_START,1516299396081,6
1499,REQ_END,1516299396119,6
1499,REQ_START,1516299396119,7
1499,REQ_END,1516299396155,7
1499,REQ_START,1516299396155,8
1499,REQ_END,1516299396195,8
1499,REQ_START,1516299396195,9
1499,REQ_END,1516299396258,9
1499,REQ_START,1516299396258,10
1499,REQ_END,1516299396263,10
1499,REQ_START,1516299396263,11
1499,REQ_END,1516299396300,11
1499,REQ_START,1516299396300,12
1499,REQ_END,1516299396306,12
1499,REQ_START,1516299396306,13
1499,REQ_END,1516299396345,13
1499,REQ_START,1516299396345,14
1499,REQ_END,1516299396358,14
1499,REQ_START,1516299396358,15
1499,REQ_END,1516299396555,15
1499,REQ_TOK_START,1516299396555,16
1499,REQ_TOK_END,1516299396562,16
1499,REQ_SINF_START,1516299396562,17
1499,REQ_SINF_END,1516299396567,17
1499,WS_OPEN_START,1516299396567,18
1499,WS_OPEN_END,1516299396574,18
1499,REQ_START,1516299396574,19
1499,REQ_END,1516299396605,19
1499,WS_RECV_START,1516299396605,20
1499,WS_RECV_END,1516299396605,20
1499,PLAYER_SLEEPBEFORE_START,1516299396605,21
1499,PLAYER_SLEEPBEFORE_END,1516299396610,21
1499,WS_SEND_START,1516299396610,21
1499,WS_SEND_END,1516299396610,21
1499,PLAYER_SLEEPBEFORE_START,1516299396610,22
1499,PLAYER_SLEEPBEFORE_END,1516299396612,22
1499,WS_SEND_START,1516299396612,22
1499,WS_SEND_END,1516299396612,22
1499,WS_RECV_INIT_START,1516299396612,23
1499,WS_RECV_INIT_END,1516299396938,23
1499,WS_RECV_START,1516299396938,24
1499,WS_RECV_END,1516299396992,24
1499,PLAYER_SLEEPBEFORE_START,1516299396992,25
1499,PLAYER_SLEEPBEFORE_END,1516299396999,25
1499,REQ_START,1516299396999,25
1499,REQ_END,1516299397036,25
1499,PLAYER_SLEEPBEFORE_START,1516299397036,26
1499,PLAYER_SLEEPBEFORE_END,1516299397037,26
1499,REQ_START,1516299397037,26
1499,REQ_END,1516299397581,26
1499,PLAYER_SLEEPBEFORE_START,1516299397581,27
1499,PLAYER_SLEEPBEFORE_END,1516299397585,27
1499,REQ_START,1516299397585,27
1499,REQ_END,1516299397752,27
1499,PLAYER_SLEEPBEFORE_START,1516299397752,28
1499,PLAYER_SLEEPBEFORE_END,1516299398037,28
1499,REQ_START,1516299398037,28
1499,REQ_END,1516299398074,28
1499,PLAYER_SLEEPBEFORE_START,1516299398074,29
1499,PLAYER_SLEEPBEFORE_END,1516299398249,29
1499,WS_SEND_START,1516299398249,29
1499,WS_SEND_END,1516299398249,29
1499,WS_RECV_START,1516299398249,30
1499,WS_RECV_END,1516299398368,30
1499,PLAYER_SLEEPBEFORE_START,1516299398368,31
1499,PLAYER_SLEEPBEFORE_END,1516299398379,31
1499,REQ_START,1516299398379,31
1499,REQ_END,1516299398436,31
1499,PLAYER_SLEEPBEFORE_START,1516299398436,32
1499,PLAYER_SLEEPBEFORE_END,1516299426581,32
1499,WS_SEND_START,1516299426581,32
1499,WS_SEND_END,1516299426581,32
1499,WS_RECV_START,1516299426581,33
1499,WS_RECV_END,1516299426709,33
1499,PLAYER_SLEEPBEFORE_START,1516299426709,34
1499,PLAYER_SLEEPBEFORE_END,1516299452620,34
1499,WS_SEND_START,1516299452620,34
1499,WS_SEND_END,1516299452620,34
1499,WS_RECV_START,1516299452620,35
1499,WS_RECV_END,1516299452729,35
1499,PLAYER_SLEEPBEFORE_START,1516299452729,36
1499,PLAYER_SLEEPBEFORE_END,1516299452738,36
1499,WS_SEND_START,1516299452738,36
1499,WS_SEND_END,1516299452738,36
1499,WS_RECV_START,1516299452738,37
1499,WS_RECV_END,1516299452785,37
1499,PLAYER_SLEEPBEFORE_START,1516299452785,38
1499,PLAYER_SLEEPBEFORE_END,1516299455980,38
1499,WS_SEND_START,1516299455980,38
1499,WS_SEND_END,1516299455980,38
1499,WS_RECV_START,1516299455980,39
1499,WS_RECV_END,1516299456133,39
1499,PLAYER_SLEEPBEFORE_START,1516299456133,40
1499,PLAYER_SLEEPBEFORE_END,1516299456179,40
1499,WS_SEND_START,1516299456179,40
1499,WS_SEND_END,1516299456179,40
1499,WS_RECV_START,1516299456179,41
1499,WS_RECV_END,1516299456280,41
1499,PLAYER_SLEEPBEFORE_START,1516299456280,42
1499,PLAYER_SLEEPBEFORE_END,1516299474415,42
1499,WS_SEND_START,1516299474415,42
1499,WS_SEND_END,1516299474415,42
1499,WS_RECV_START,1516299474415,43
1499,WS_RECV_END,1516299474494,43
1499,PLAYER_SLEEPBEFORE_START,1516299474494,44
1499,PLAYER_SLEEPBEFORE_END,1516299474507,44
1499,WS_SEND_START,1516299474507,44
1499,WS_SEND_END,1516299474507,44
1499,WS_RECV_START,1516299474507,45
1499,WS_RECV_END,1516299474665,45
1499,PLAYER_SLEEPBEFORE_START,1516299474665,46
1499,PLAYER_SLEEPBEFORE_END,1516299475925,46
1499,WS_SEND_START,1516299475925,46
1499,WS_SEND_END,1516299475925,46
1499,WS_RECV_START,1516299475925,47
1499,WS_RECV_END,1516299476167,47
1499,PLAYER_SLEEPBEFORE_START,1516299476167,48
1499,PLAYER_SLEEPBEFORE_END,1516299477487,48
1499,WS_SEND_START,1516299477487,48
1499,WS_SEND_END,1516299477487,48
1499,WS_RECV_START,1516299477488,49
1499,WS_RECV_END,1516299477680,49
1499,PLAYER_SLEEPBEFORE_START,1516299477680,50
1499,PLAYER_SLEEPBEFORE_END,1516299477704,50
1499,WS_SEND_START,1516299477704,50
1499,WS_SEND_END,1516299477704,50
1499,WS_RECV_START,1516299477704,51
1499,WS_RECV_END,1516299477906,51
1499,PLAYER_SLEEPBEFORE_START,1516299477907,52
1499,PLAYER_SLEEPBEFORE_END,1516299500471,52
1499,WS_SEND_START,1516299500471,52
1499,WS_SEND_END,1516299500471,52
1499,WS_RECV_START,1516299500471,53
1499,WS_RECV_END,1516299500694,53
1499,PLAYER_SLEEPBEFORE_START,1516299500694,54
1499,PLAYER_SLEEPBEFORE_END,1516299521997,54
1499,WS_SEND_START,1516299521997,54
1499,WS_SEND_END,1516299521997,54
1499,PLAYER_SLEEPBEFORE_START,1516299521997,55
1499,PLAYER_SLEEPBEFORE_END,1516299523938,55
1499,WS_SEND_START,1516299523938,55
1499,WS_SEND_END,1516299523938,55
1499,WS_RECV_START,1516299523938,56
1499,WS_RECV_END,1516299524417,56
1499,PLAYER_SLEEPBEFORE_START,1516299524417,57
1499,PLAYER_SLEEPBEFORE_END,1516299547289,57
1499,WS_SEND_START,1516299547289,57
1499,WS_SEND_END,1516299547289,57
1499,WS_RECV_START,1516299547289,58
1499,WS_RECV_END,1516299548135,58
1499,PLAYER_SLEEPBEFORE_START,1516299548135,59
1499,PLAYER_SLEEPBEFORE_END,1516299550463,59
1499,WS_SEND_START,1516299550463,59
1499,WS_SEND_END,1516299550463,59
1499,WS_RECV_START,1516299550463,60
1499,WS_RECV_END,1516299551238,60
1499,PLAYER_SLEEPBEFORE_START,1516299551238,61
1499,PLAYER_SLEEPBEFORE_END,1516299554829,61
1499,WS_SEND_START,1516299554829,61
1499,WS_SEND_END,1516299554829,61
1499,WS_RECV_START,1516299554829,62
1499,WS_RECV_END,1516299555869,62
1499,PLAYER_SLEEPBEFORE_START,1516299555869,63
1499,PLAYER_SLEEPBEFORE_END,1516299575131,63
1499,WS_SEND_START,1516299575131,63
1499,WS_SEND_END,1516299575131,63
1499,WS_RECV_START,1516299575131,64
1499,WS_RECV_END,1516299576143,64
1499,PLAYER_SLEEPBEFORE_START,1516299576143,65
1499,PLAYER_SLEEPBEFORE_END,1516299602960,65
1499,WS_SEND_START,1516299602960,65
1499,WS_SEND_END,1516299602960,65
1499,WS_RECV_START,1516299602960,66
1499,WS_RECV_END,1516299603071,66
1499,PLAYER_SLEEPBEFORE_START,1516299603071,67
1499,PLAYER_SLEEPBEFORE_END,1516299604578,67
1499,WS_SEND_START,1516299604578,67
1499,WS_SEND_END,1516299604578,67
1499,WS_RECV_START,1516299604578,68
1499,WS_RECV_END,1516299604800,68
1499,PLAYER_SLEEPBEFORE_START,1516299604800,69
1499,PLAYER_SLEEPBEFORE_END,1516299626798,69
1499,WS_SEND_START,1516299626798,69
1499,WS_SEND_END,1516299626798,69
1499,WS_RECV_START,1516299626798,70
1499,WS_RECV_END,1516299627577,70
1499,PLAYER_SLEEPBEFORE_START,1516299627577,71
1499,PLAYER_SLEEPBEFORE_END,1516299652352,71
1499,WS_SEND_START,1516299652352,71
1499,WS_SEND_END,1516299652352,71
1499,PLAYER_SLEEPBEFORE_START,1516299652352,72
1499,PLAYER_SLEEPBEFORE_END,1516299654959,72
1499,WS_SEND_START,1516299654959,72
1499,WS_SEND_END,1516299654959,72
1499,WS_RECV_START,1516299654959,73
1499,WS_RECV_END,1516299656002,73
1499,PLAYER_SLEEPBEFORE_START,1516299656002,74
1499,PLAYER_SLEEPBEFORE_END,1516299656011,74
1499,WS_SEND_START,1516299656011,74
1499,WS_SEND_END,1516299656011,74
1499,WS_RECV_START,1516299656011,75
1499,WS_RECV_END,1516299656261,75
1499,PLAYER_SLEEPBEFORE_START,1516299656261,76
1499,PLAYER_SLEEPBEFORE_END,1516299657767,76
1499,WS_SEND_START,1516299657767,76
1499,WS_SEND_END,1516299657767,76
1499,WS_RECV_START,1516299657767,77
1499,WS_RECV_END,1516299658307,77
1499,PLAYER_SLEEPBEFORE_START,1516299658307,78
1499,PLAYER_SLEEPBEFORE_END,1516299659175,78
1499,WS_SEND_START,1516299659175,78
1499,WS_SEND_END,1516299659175,78
1499,WS_RECV_START,1516299659175,79
1499,WS_RECV_END,1516299659210,79
1499,PLAYER_SLEEPBEFORE_START,1516299659210,80
1499,PLAYER_SLEEPBEFORE_END,1516299666876,80
1499,WS_SEND_START,1516299666876,80
1499,WS_SEND_END,1516299666876,80
1499,WS_RECV_START,1516299666876,81
1499,WS_RECV_END,1516299667021,81
1499,PLAYER_SLEEPBEFORE_START,1516299667021,82
1499,PLAYER_SLEEPBEFORE_END,1516299668123,82
1499,WS_SEND_START,1516299668123,82
1499,WS_SEND_END,1516299668123,82
1499,WS_RECV_START,1516299668123,83
1499,WS_RECV_END,1516299668177,83
1499,PLAYER_SLEEPBEFORE_START,1516299668177,84
1499,PLAYER_SLEEPBEFORE_END,1516299669124,84
1499,WS_SEND_START,1516299669124,84
1499,WS_SEND_END,1516299669124,84
1499,WS_RECV_START,1516299669124,85
1499,WS_RECV_END,1516299669260,85
1499,PLAYER_SLEEPBEFORE_START,1516299669260,86
1499,PLAYER_SLEEPBEFORE_END,1516299673432,86
1499,WS_SEND_START,1516299673432,86
1499,WS_SEND_END,1516299673432,86
1499,WS_RECV_START,1516299673432,87
1499,WS_RECV_END,1516299673553,87
1499,PLAYER_SLEEPBEFORE_START,1516299673553,88
1499,PLAYER_SLEEPBEFORE_END,1516299673561,88
1499,WS_SEND_START,1516299673562,88
1499,WS_SEND_END,1516299673562,88
1499,WS_RECV_START,1516299673562,89
1499,WS_RECV_END,1516299674066,89
1499,PLAYER_SLEEPBEFORE_START,1516299674066,90
1499,PLAYER_SLEEPBEFORE_END,1516299701263,90
1499,REQ_START,1516299701263,90
1499,REQ_END,1516299701269,90
1499,PLAYER_SLEEPBEFORE_START,1516299701269,91
1499,PLAYER_SLEEPBEFORE_END,1516299709158,91
1499,WS_SEND_START,1516299709159,91
1499,WS_SEND_END,1516299709159,91
1499,WS_RECV_START,1516299709159,92
1499,WS_RECV_END,1516299709396,92
1499,PLAYER_SLEEPBEFORE_START,1516299709396,93
1499,PLAYER_SLEEPBEFORE_END,1516299709411,93
1499,WS_SEND_START,1516299709411,93
1499,WS_SEND_END,1516299709411,93
1499,WS_RECV_START,1516299709411,94
1499,WS_RECV_END,1516299709596,94
1499,PLAYER_SLEEPBEFORE_START,1516299709596,95
1499,PLAYER_SLEEPBEFORE_END,1516299733151,95
1499,WS_SEND_START,1516299733151,95
1499,WS_SEND_END,1516299733151,95
1499,WS_RECV_START,1516299733151,96
1499,WS_RECV_END,1516299733454,96
1499,PLAYER_SLEEPBEFORE_START,1516299733454,97
1499,PLAYER_SLEEPBEFORE_END,1516299755894,97
1499,WS_SEND_START,1516299755894,97
1499,WS_SEND_END,1516299755894,97
1499,WS_RECV_START,1516299755894,98
1499,WS_RECV_END,1516299758172,98
1499,PLAYER_SLEEPBEFORE_START,1516299758172,99
1499,PLAYER_SLEEPBEFORE_END,1516299758193,99
1499,WS_SEND_START,1516299758194,99
1499,WS_SEND_END,1516299758194,99
1499,WS_RECV_START,1516299758194,100
1499,WS_RECV_END,1516299759344,100
1499,PLAYER_SLEEPBEFORE_START,1516299759344,101
1499,PLAYER_SLEEPBEFORE_END,1516299782903,101
1499,WS_SEND_START,1516299782903,101
1499,WS_SEND_END,1516299782903,101
1499,WS_RECV_START,1516299782903,102
1499,WS_RECV_END,1516299784110,102
1499,PLAYER_SLEEPBEFORE_START,1516299784110,103
1499,PLAYER_SLEEPBEFORE_END,1516299807735,103
1499,WS_SEND_START,1516299807735,103
1499,WS_SEND_END,1516299807735,103
1499,WS_RECV_START,1516299807735,104
1499,WS_RECV_END,1516299809647,104
1499,PLAYER_SLEEPBEFORE_START,1516299809647,105
1499,PLAYER_SLEEPBEFORE_END,1516299835024,105
1499,WS_SEND_START,1516299835024,105
1499,WS_SEND_END,1516299835024,105
1499,WS_RECV_START,1516299835024,106
1499,WS_RECV_END,1516299835761,106
1499,PLAYER_SLEEPBEFORE_START,1516299835761,107
1499,PLAYER_SLEEPBEFORE_END,1516299859184,107
1499,WS_SEND_START,1516299859184,107
1499,WS_SEND_END,1516299859184,107
1499,WS_RECV_START,1516299859184,108
1499,WS_RECV_END,1516299862739,108
1499,PLAYER_SLEEPBEFORE_START,1516299862739,109
1499,PLAYER_SLEEPBEFORE_END,1516299862748,109
1499,WS_SEND_START,1516299862748,109
1499,WS_SEND_END,1516299862748,109
1499,WS_RECV_START,1516299862748,110
1499,WS_RECV_END,1516299864146,110
1499,PLAYER_SLEEPBEFORE_START,1516299864146,111
1499,PLAYER_SLEEPBEFORE_END,1516299865105,111
1499,WS_SEND_START,1516299865105,111
1499,WS_SEND_END,1516299865105,111
1499,WS_RECV_START,1516299865105,112
1499,WS_RECV_END,1516299866344,112
1499,PLAYER_SLEEPBEFORE_START,1516299866344,113
1499,PLAYER_SLEEPBEFORE_END,1516299866906,113
1499,WS_SEND_START,1516299866906,113
1499,WS_SEND_END,1516299866906,113
1499,WS_RECV_START,1516299866906,114
1499,WS_RECV_END,1516299868670,114
1499,PLAYER_SLEEPBEFORE_START,1516299868670,115
1499,PLAYER_SLEEPBEFORE_END,1516299868679,115
1499,WS_SEND_START,1516299868679,115
1499,WS_SEND_END,1516299868679,115
1499,WS_RECV_START,1516299868679,116
1499,WS_RECV_END,1516299871559,116
1499,PLAYER_SLEEPBEFORE_START,1516299871559,117
1499,PLAYER_SLEEPBEFORE_END,1516299891920,117
1499,WS_SEND_START,1516299891920,117
1499,WS_SEND_END,1516299891920,117
1499,PLAYER_SLEEPBEFORE_START,1516299891920,118
1499,PLAYER_SLEEPBEFORE_END,1516299895672,118
1499,WS_SEND_START,1516299895672,118
1499,WS_SEND_END,1516299895672,118
1499,WS_RECV_START,1516299895672,119
1499,WS_RECV_END,1516299896159,119
1499,PLAYER_SLEEPBEFORE_START,1516299896159,120
1499,PLAYER_SLEEPBEFORE_END,1516299897147,120
1499,WS_SEND_START,1516299897147,120
1499,WS_SEND_END,1516299897147,120
1499,WS_RECV_START,1516299897147,121
1499,WS_RECV_END,1516299897467,121
1499,PLAYER_SLEEPBEFORE_START,1516299897467,122
1499,PLAYER_SLEEPBEFORE_END,1516299898652,122
1499,WS_SEND_START,1516299898652,122
1499,WS_SEND_END,1516299898652,122
1499,WS_RECV_START,1516299898652,123
1499,WS_RECV_END,1516299898840,123
1499,PLAYER_SLEEPBEFORE_START,1516299898840,124
1499,PLAYER_SLEEPBEFORE_END,1516299923245,124
1499,WS_SEND_START,1516299923245,124
1499,WS_SEND_END,1516299923245,124
1499,WS_RECV_START,1516299923245,125
1499,WS_RECV_END,1516299924209,125
1499,PLAYER_SLEEPBEFORE_START,1516299924209,126
1499,PLAYER_SLEEPBEFORE_END,1516299944721,126
1499,WS_SEND_START,1516299944721,126
1499,WS_SEND_END,1516299944721,126
1499,PLAYER_SLEEPBEFORE_START,1516299944721,127
1499,PLAYER_SLEEPBEFORE_END,1516299947775,127
1499,WS_SEND_START,1516299947775,127
1499,WS_SEND_END,1516299947776,127
1499,WS_RECV_START,1516299947776,128
1499,WS_RECV_END,1516299948312,128
1499,PLAYER_SLEEPBEFORE_START,1516299948312,129
1499,PLAYER_SLEEPBEFORE_END,1516299948332,129
1499,WS_SEND_START,1516299948332,129
1499,WS_SEND_END,1516299948332,129
1499,WS_RECV_START,1516299948332,130
1499,WS_RECV_END,1516299948626,130
1499,PLAYER_SLEEPBEFORE_START,1516299948626,131
1499,PLAYER_SLEEPBEFORE_END,1516299970250,131
1499,WS_SEND_START,1516299970250,131
1499,WS_SEND_END,1516299970250,131
1499,PLAYER_SLEEPBEFORE_START,1516299970250,132
1499,PLAYER_SLEEPBEFORE_END,1516299973330,132
1499,WS_SEND_START,1516299973330,132
1499,WS_SEND_END,1516299973330,132
1499,WS_RECV_START,1516299973330,133
1499,WS_RECV_END,1516299974717,133
1499,PLAYER_SLEEPBEFORE_START,1516299974717,134
1499,PLAYER_SLEEPBEFORE_END,1516299995934,134
1499,WS_SEND_START,1516299995934,134
1499,WS_SEND_END,1516299995934,134
1499,PLAYER_SLEEPBEFORE_START,1516299995934,135
1499,PLAYER_SLEEPBEFORE_END,1516299999124,135
1499,WS_SEND_START,1516299999124,135
1499,WS_SEND_END,1516299999124,135
1499,WS_RECV_START,1516299999124,136
1499,WS_RECV_END,1516300000155,136
1499,PLAYER_SLEEPBEFORE_START,1516300000155,137
1499,PLAYER_SLEEPBEFORE_END,1516300000162,137
1499,WS_SEND_START,1516300000162,137
1499,WS_SEND_END,1516300000162,137
1499,WS_RECV_START,1516300000162,138
1499,WS_RECV_END,1516300000542,138
1499,PLAYER_SLEEPBEFORE_START,1516300000542,139
1499,PLAYER_SLEEPBEFORE_END,1516300001232,139
1499,WS_SEND_START,1516300001232,139
1499,WS_SEND_END,1516300001232,139
1499,WS_RECV_START,1516300001232,140
1499,WS_RECV_END,1516300002720,140
1499,PLAYER_SLEEPBEFORE_START,1516300002720,141
1499,PLAYER_SLEEPBEFORE_END,1516300003375,141
1499,WS_SEND_START,1516300003376,141
1499,WS_SEND_END,1516300003376,141
1499,WS_RECV_START,1516300003376,142
1499,WS_RECV_END,1516300004428,142
1499,PLAYER_SLEEPBEFORE_START,1516300004428,143
1499,PLAYER_SLEEPBEFORE_END,1516300004485,143
1499,WS_SEND_START,1516300004485,143
1499,WS_SEND_END,1516300004485,143
1499,WS_RECV_START,1516300004485,144
1499,WS_RECV_END,1516300005150,144
1499,PLAYER_SLEEPBEFORE_START,1516300005150,145
1499,PLAYER_SLEEPBEFORE_END,1516300021212,145
1499,REQ_START,1516300021212,145
1499,REQ_END,1516300021218,145
1499,PLAYER_SLEEPBEFORE_START,1516300021218,146
1499,PLAYER_SLEEPBEFORE_END,1516300030095,146
1499,WS_SEND_START,1516300030095,146
1499,WS_SEND_END,1516300030095,146
1499,WS_RECV_START,1516300030095,147
1499,WS_RECV_END,1516300031226,147
1499,PLAYER_SLEEPBEFORE_START,1516300031226,148
1499,PLAYER_SLEEPBEFORE_END,1516300053148,148
1499,WS_SEND_START,1516300053148,148
1499,WS_SEND_END,1516300053148,148
1499,PLAYER_SLEEPBEFORE_START,1516300053148,149
1499,PLAYER_SLEEPBEFORE_END,1516300055576,149
1499,WS_SEND_START,1516300055576,149
1499,WS_SEND_END,1516300055576,149
1499,WS_RECV_START,1516300055576,150
1499,WS_RECV_END,1516300055777,150
1499,PLAYER_SLEEPBEFORE_START,1516300055777,151
1499,PLAYER_SLEEPBEFORE_END,1516300055987,151
1499,WS_SEND_START,1516300055987,151
1499,WS_SEND_END,1516300055987,151
1499,WS_RECV_START,1516300055987,152
1499,WS_RECV_END,1516300056286,152
1499,PLAYER_SLEEPBEFORE_START,1516300056286,153
1499,PLAYER_SLEEPBEFORE_END,1516300080213,153
1499,WS_SEND_START,1516300080213,153
1499,WS_SEND_END,1516300080213,153
1499,WS_RECV_START,1516300080213,154
1499,WS_RECV_END,1516300080808,154
1499,PLAYER_SLEEPBEFORE_START,1516300080808,155
1499,PLAYER_SLEEPBEFORE_END,1516300103366,155
1499,WS_SEND_START,1516300103366,155
1499,WS_SEND_END,1516300103366,155
1499,PLAYER_SLEEPBEFORE_START,1516300103366,156
1499,PLAYER_SLEEPBEFORE_END,1516300106640,156
1499,WS_SEND_START,1516300106640,156
1499,WS_SEND_END,1516300106640,156
1499,WS_RECV_START,1516300106640,157
1499,WS_RECV_END,1516300108851,157
1499,PLAYER_SLEEPBEFORE_START,1516300108851,158
1499,PLAYER_SLEEPBEFORE_END,1516300108861,158
1499,WS_SEND_START,1516300108861,158
1499,WS_SEND_END,1516300108861,158
1499,WS_RECV_START,1516300108861,159
1499,WS_RECV_END,1516300110154,159
1499,PLAYER_SLEEPBEFORE_START,1516300110154,160
1499,PLAYER_SLEEPBEFORE_END,1516300110329,160
1499,WS_SEND_START,1516300110330,160
1499,WS_SEND_END,1516300110330,160
1499,WS_RECV_START,1516300110330,161
1499,WS_RECV_END,1516300112111,161
1499,PLAYER_SLEEPBEFORE_START,1516300112111,162
1499,PLAYER_SLEEPBEFORE_END,1516300112136,162
1499,WS_SEND_START,1516300112136,162
1499,WS_SEND_END,1516300112136,162
1499,WS_RECV_START,1516300112136,163
1499,WS_RECV_END,1516300113709,163
1499,PLAYER_SLEEPBEFORE_START,1516300113709,164
1499,PLAYER_SLEEPBEFORE_END,1516300134521,164
1499,WS_SEND_START,1516300134521,164
1499,WS_SEND_END,1516300134521,164
1499,WS_RECV_START,1516300134521,165
1499,WS_RECV_END,1516300138351,165
1499,PLAYER_SLEEPBEFORE_START,1516300138351,166
1499,PLAYER_SLEEPBEFORE_END,1516300160806,166
1499,WS_SEND_START,1516300160806,166
1499,WS_SEND_END,1516300160806,166
1499,WS_RECV_START,1516300160806,167
1499,WS_RECV_END,1516300166489,167
1499,PLAYER_SLEEPBEFORE_START,1516300166489,168
1499,PLAYER_SLEEPBEFORE_END,1516300193847,168
1499,WS_SEND_START,1516300193847,168
1499,WS_SEND_END,1516300193847,168
1499,WS_RECV_START,1516300193847,169
1499,WS_RECV_END,1516300200238,169
1499,PLAYER_SLEEPBEFORE_START,1516300200238,170
1499,PLAYER_SLEEPBEFORE_END,1516300200247,170
1499,WS_SEND_START,1516300200247,170
1499,WS_SEND_END,1516300200247,170
1499,WS_RECV_START,1516300200247,171
1499,WS_RECV_END,1516300202982,171
1499,PLAYER_SLEEPBEFORE_START,1516300202982,172
1499,PLAYER_SLEEPBEFORE_END,1516300203351,172
1499,WS_SEND_START,1516300203351,172
1499,WS_SEND_END,1516300203351,172
1499,WS_RECV_START,1516300203351,173
1499,WS_RECV_END,1516300205431,173
1499,PLAYER_SLEEPBEFORE_START,1516300205431,174
1499,PLAYER_SLEEPBEFORE_END,1516300205472,174
1499,WS_SEND_START,1516300205472,174
1499,WS_SEND_END,1516300205472,174
1499,WS_RECV_START,1516300205472,175
1499,WS_RECV_END,1516300208225,175
1499,PLAYER_SLEEPBEFORE_START,1516300208225,176
1499,PLAYER_SLEEPBEFORE_END,1516300229986,176
1499,WS_SEND_START,1516300229986,176
1499,WS_SEND_END,1516300229986,176
1499,PLAYER_SLEEPBEFORE_START,1516300229986,177
1499,PLAYER_SLEEPBEFORE_END,1516300232504,177
1499,WS_SEND_START,1516300232504,177
1499,WS_SEND_END,1516300232504,177
1499,WS_RECV_START,1516300232504,178
1499,WS_RECV_END,1516300235388,178
1499,PLAYER_SLEEPBEFORE_START,1516300235388,179
1499,PLAYER_SLEEPBEFORE_END,1516300257728,179
1499,WS_SEND_START,1516300257728,179
1499,WS_SEND_END,1516300257728,179
1499,WS_RECV_START,1516300257728,180
1499,WS_RECV_END,1516300259200,180
1499,PLAYER_SLEEPBEFORE_START,1516300259200,181
1499,PLAYER_SLEEPBEFORE_END,1516300259645,181
1499,WS_SEND_START,1516300259645,181
1499,WS_SEND_END,1516300259645,181
1499,WS_RECV_START,1516300259645,182
1499,WS_RECV_END,1516300260638,182
1499,PLAYER_SLEEPBEFORE_START,1516300260638,183
1499,PLAYER_SLEEPBEFORE_END,1516300261161,183
1499,WS_SEND_START,1516300261161,183
1499,WS_SEND_END,1516300261161,183
1499,WS_RECV_START,1516300261161,184
1499,WS_RECV_END,1516300261546,184
1499,PLAYER_SLEEPBEFORE_START,1516300261546,185
1499,PLAYER_SLEEPBEFORE_END,1516300261814,185
1499,WS_SEND_START,1516300261814,185
1499,WS_SEND_END,1516300261814,185
1499,WS_RECV_START,1516300261814,186
1499,WS_RECV_END,1516300262232,186
1499,PLAYER_SLEEPBEFORE_START,1516300262232,187
1499,PLAYER_SLEEPBEFORE_END,1516300284733,187
1499,WS_SEND_START,1516300284733,187
1499,WS_SEND_END,1516300284733,187
1499,WS_RECV_START,1516300284733,188
1499,WS_RECV_END,1516300286724,188
1499,PLAYER_SLEEPBEFORE_START,1516300286724,189
1499,PLAYER_SLEEPBEFORE_END,1516300292963,189
1499,WS_SEND_START,1516300292963,189
1499,WS_SEND_END,1516300292963,189
1499,WS_RECV_START,1516300292963,190
1499,WS_RECV_END,1516300294303,190
1499,PLAYER_SLEEPBEFORE_START,1516300294303,191
1499,PLAYER_SLEEPBEFORE_END,1516300296218,191
1499,WS_SEND_START,1516300296218,191
1499,WS_SEND_END,1516300296218,191
1499,WS_RECV_START,1516300296218,192
1499,WS_RECV_END,1516300296318,192
1499,PLAYER_SLEEPBEFORE_START,1516300296318,193
1499,PLAYER_SLEEPBEFORE_END,1516300296446,193
1499,WS_SEND_START,1516300296447,193
1499,WS_SEND_END,1516300296447,193
1499,WS_RECV_START,1516300296447,194
1499,WS_RECV_END,1516300297003,194
1499,PLAYER_SLEEPBEFORE_START,1516300297003,195
1499,PLAYER_SLEEPBEFORE_END,1516300298758,195
1499,WS_SEND_START,1516300298758,195
1499,WS_SEND_END,1516300298758,195
1499,WS_RECV_START,1516300298758,196
1499,WS_RECV_END,1516300299140,196
1499,PLAYER_SLEEPBEFORE_START,1516300299140,197
1499,PLAYER_SLEEPBEFORE_END,1516300300945,197
1499,WS_SEND_START,1516300300945,197
1499,WS_SEND_END,1516300300945,197
1499,WS_RECV_START,1516300300945,198
1499,WS_RECV_END,1516300301243,198
1499,PLAYER_SLEEPBEFORE_START,1516300301243,199
1499,PLAYER_SLEEPBEFORE_END,1516300313097,199
1499,WS_SEND_START,1516300313097,199
1499,WS_SEND_END,1516300313097,199
1499,PLAYER_SLEEPBEFORE_START,1516300313097,200
1499,PLAYER_SLEEPBEFORE_END,1516300317185,200
1499,WS_SEND_START,1516300317185,200
1499,WS_SEND_END,1516300317185,200
1499,WS_RECV_START,1516300317185,201
1499,WS_RECV_END,1516300317352,201
1499,PLAYER_SLEEPBEFORE_START,1516300317352,202
1499,PLAYER_SLEEPBEFORE_END,1516300317366,202
1499,WS_SEND_START,1516300317366,202
1499,WS_SEND_END,1516300317366,202
1499,WS_RECV_START,1516300317366,203
1499,WS_RECV_END,1516300317808,203
1499,PLAYER_SLEEPBEFORE_START,1516300317808,204
1499,PLAYER_SLEEPBEFORE_END,1516300337457,204
1499,WS_SEND_START,1516300337457,204
1499,WS_SEND_END,1516300337457,204
1499,PLAYER_SLEEPBEFORE_START,1516300337457,205
1499,PLAYER_SLEEPBEFORE_END,1516300341355,205
1499,WS_SEND_START,1516300341355,205
1499,WS_SEND_END,1516300341355,205
1499,WS_RECV_START,1516300341355,206
1499,WS_RECV_END,1516300341460,206
1499,PLAYER_SLEEPBEFORE_START,1516300341460,207
1499,PLAYER_SLEEPBEFORE_END,1516300358392,207
1499,REQ_START,1516300358392,207
1499,REQ_END,1516300358396,207
1499,PLAYER_SLEEPBEFORE_START,1516300358396,208
1499,PLAYER_SLEEPBEFORE_END,1516300365248,208
1499,WS_CLOSE_START,1516300365248,208
1499,WS_CLOSE_END,1516300365248,208
1499,PLAYER_DONE,1516300365248
