# --sessions 2700 --app-url=http://shinyloadtest.rstudioservices.com/cran_explorer --output-dir test2700 --overwrite-output --log-level warn --start-interval 100 15min.log
thread_id,event,timestamp,input_line_number,comment
158,PLAYER_SESSION_CREATE,1516299245306
158,PLAYER_START_INTERVAL_START,1516299245306
158,PLAYER_START_INTERVAL_END,1516299261107
158,REQ_HOME_START,1516299261107,2
158,REQ_HOME_END,1516299261336,2
158,REQ_START,1516299261336,3
158,REQ_END,1516299261399,3
158,REQ_START,1516299261399,4
158,REQ_END,1516299261438,4
158,REQ_START,1516299261438,5
158,REQ_END,1516299261478,5
158,REQ_START,1516299261478,6
158,REQ_END,1516299261518,6
158,REQ_START,1516299261518,7
158,REQ_END,1516299261560,7
158,REQ_START,1516299261560,8
158,REQ_END,1516299261604,8
158,REQ_START,1516299261604,9
158,REQ_END,1516299261645,9
158,REQ_START,1516299261645,10
158,REQ_END,1516299261652,10
158,REQ_START,1516299261652,11
158,REQ_END,1516299261685,11
158,REQ_START,1516299261685,12
158,REQ_END,1516299261697,12
158,REQ_START,1516299261697,13
158,REQ_END,1516299261732,13
158,REQ_START,1516299261732,14
158,REQ_END,1516299261744,14
158,REQ_START,1516299261744,15
158,REQ_END,1516299261781,15
158,REQ_TOK_START,1516299261781,16
158,REQ_TOK_END,1516299261786,16
158,REQ_SINF_START,1516299261786,17
158,REQ_SINF_END,1516299261793,17
158,WS_OPEN_START,1516299261793,18
158,WS_OPEN_END,1516299261798,18
158,REQ_START,1516299261798,19
158,REQ_END,1516299261831,19
158,WS_RECV_START,1516299261831,20
158,WS_RECV_END,1516299261831,20
158,PLAYER_SLEEPBEFORE_START,1516299261831,21
158,PLAYER_SLEEPBEFORE_END,1516299261836,21
158,WS_SEND_START,1516299261836,21
158,WS_SEND_END,1516299261836,21
158,PLAYER_SLEEPBEFORE_START,1516299261836,22
158,PLAYER_SLEEPBEFORE_END,1516299261837,22
158,WS_SEND_START,1516299261837,22
158,WS_SEND_END,1516299261837,22
158,WS_RECV_INIT_START,1516299261837,23
158,WS_RECV_INIT_END,1516299261856,23
158,WS_RECV_START,1516299261857,24
158,WS_RECV_END,1516299261924,24
158,PLAYER_SLEEPBEFORE_START,1516299261924,25
158,PLAYER_SLEEPBEFORE_END,1516299261931,25
158,REQ_START,1516299261931,25
158,REQ_END,1516299261969,25
158,PLAYER_SLEEPBEFORE_START,1516299261969,26
158,PLAYER_SLEEPBEFORE_END,1516299261971,26
158,REQ_START,1516299261971,26
158,REQ_END,1516299262007,26
158,PLAYER_SLEEPBEFORE_START,1516299262007,27
158,PLAYER_SLEEPBEFORE_END,1516299262010,27
158,REQ_START,1516299262010,27
158,REQ_END,1516299262050,27
158,PLAYER_SLEEPBEFORE_START,1516299262050,28
158,PLAYER_SLEEPBEFORE_END,1516299262335,28
158,REQ_START,1516299262335,28
158,REQ_END,1516299262372,28
158,PLAYER_SLEEPBEFORE_START,1516299262372,29
158,PLAYER_SLEEPBEFORE_END,1516299262547,29
158,WS_SEND_START,1516299262547,29
158,WS_SEND_END,1516299262547,29
158,WS_RECV_START,1516299262547,30
158,WS_RECV_END,1516299262657,30
158,PLAYER_SLEEPBEFORE_START,1516299262657,31
158,PLAYER_SLEEPBEFORE_END,1516299262668,31
158,REQ_START,1516299262668,31
158,REQ_END,1516299262707,31
158,PLAYER_SLEEPBEFORE_START,1516299262707,32
158,PLAYER_SLEEPBEFORE_END,1516299290853,32
158,WS_SEND_START,1516299290853,32
158,WS_SEND_END,1516299290853,32
158,WS_RECV_START,1516299290853,33
158,WS_RECV_END,1516299290938,33
158,PLAYER_SLEEPBEFORE_START,1516299290938,34
158,PLAYER_SLEEPBEFORE_END,1516299316849,34
158,WS_SEND_START,1516299316849,34
158,WS_SEND_END,1516299316849,34
158,WS_RECV_START,1516299316849,35
158,WS_RECV_END,1516299316939,35
158,PLAYER_SLEEPBEFORE_START,1516299316939,36
158,PLAYER_SLEEPBEFORE_END,1516299316948,36
158,WS_SEND_START,1516299316948,36
158,WS_SEND_END,1516299316948,36
158,WS_RECV_START,1516299316948,37
158,WS_RECV_END,1516299316988,37
158,PLAYER_SLEEPBEFORE_START,1516299316988,38
158,PLAYER_SLEEPBEFORE_END,1516299320184,38
158,WS_SEND_START,1516299320184,38
158,WS_SEND_END,1516299320184,38
158,WS_RECV_START,1516299320184,39
158,WS_RECV_END,1516299320328,39
158,PLAYER_SLEEPBEFORE_START,1516299320328,40
158,PLAYER_SLEEPBEFORE_END,1516299320374,40
158,WS_SEND_START,1516299320374,40
158,WS_SEND_END,1516299320374,40
158,WS_RECV_START,1516299320374,41
158,WS_RECV_END,1516299320557,41
158,PLAYER_SLEEPBEFORE_START,1516299320557,42
158,PLAYER_SLEEPBEFORE_END,1516299338692,42
158,WS_SEND_START,1516299338692,42
158,WS_SEND_END,1516299338692,42
158,WS_RECV_START,1516299338692,43
158,WS_RECV_END,1516299339202,43
158,PLAYER_SLEEPBEFORE_START,1516299339202,44
158,PLAYER_SLEEPBEFORE_END,1516299339214,44
158,WS_SEND_START,1516299339214,44
158,WS_SEND_END,1516299339214,44
158,WS_RECV_START,1516299339214,45
158,WS_RECV_END,1516299339260,45
158,PLAYER_SLEEPBEFORE_START,1516299339260,46
158,PLAYER_SLEEPBEFORE_END,1516299340520,46
158,WS_SEND_START,1516299340520,46
158,WS_SEND_END,1516299340520,46
158,WS_RECV_START,1516299340520,47
158,WS_RECV_END,1516299340561,47
158,PLAYER_SLEEPBEFORE_START,1516299340561,48
158,PLAYER_SLEEPBEFORE_END,1516299341881,48
158,WS_SEND_START,1516299341881,48
158,WS_SEND_END,1516299341881,48
158,WS_RECV_START,1516299341881,49
158,WS_RECV_END,1516299342518,49
158,PLAYER_SLEEPBEFORE_START,1516299342518,50
158,PLAYER_SLEEPBEFORE_END,1516299342542,50
158,WS_SEND_START,1516299342542,50
158,WS_SEND_END,1516299342542,50
158,WS_RECV_START,1516299342542,51
158,WS_RECV_END,1516299343038,51
158,PLAYER_SLEEPBEFORE_START,1516299343038,52
158,PLAYER_SLEEPBEFORE_END,1516299365602,52
158,WS_SEND_START,1516299365602,52
158,WS_SEND_END,1516299365602,52
158,WS_RECV_START,1516299365602,53
158,WS_RECV_END,1516299365731,53
158,PLAYER_SLEEPBEFORE_START,1516299365731,54
158,PLAYER_SLEEPBEFORE_END,1516299387034,54
158,WS_SEND_START,1516299387034,54
158,WS_SEND_END,1516299387034,54
158,PLAYER_SLEEPBEFORE_START,1516299387034,55
158,PLAYER_SLEEPBEFORE_END,1516299388998,55
158,WS_SEND_START,1516299388998,55
158,WS_SEND_END,1516299388998,55
158,WS_RECV_START,1516299388998,56
158,WS_RECV_END,1516299389071,56
158,PLAYER_SLEEPBEFORE_START,1516299389071,57
158,PLAYER_SLEEPBEFORE_END,1516299411944,57
158,WS_SEND_START,1516299411944,57
158,WS_SEND_END,1516299411944,57
158,WS_RECV_START,1516299411944,58
158,WS_RECV_END,1516299411997,58
158,PLAYER_SLEEPBEFORE_START,1516299411997,59
158,PLAYER_SLEEPBEFORE_END,1516299414325,59
158,WS_SEND_START,1516299414325,59
158,WS_SEND_END,1516299414325,59
158,WS_RECV_START,1516299414325,60
158,WS_RECV_END,1516299414559,60
158,PLAYER_SLEEPBEFORE_START,1516299414559,61
158,PLAYER_SLEEPBEFORE_END,1516299418150,61
158,WS_SEND_START,1516299418150,61
158,WS_SEND_END,1516299418150,61
158,WS_RECV_START,1516299418150,62
158,WS_RECV_END,1516299418533,62
158,PLAYER_SLEEPBEFORE_START,1516299418533,63
158,PLAYER_SLEEPBEFORE_END,1516299437795,63
158,WS_SEND_START,1516299437795,63
158,WS_SEND_END,1516299437795,63
158,WS_RECV_START,1516299437795,64
158,WS_RECV_END,1516299438006,64
158,PLAYER_SLEEPBEFORE_START,1516299438006,65
158,PLAYER_SLEEPBEFORE_END,1516299464823,65
158,WS_SEND_START,1516299464823,65
158,WS_SEND_END,1516299464823,65
158,WS_RECV_START,1516299464823,66
158,WS_RECV_END,1516299465122,66
158,PLAYER_SLEEPBEFORE_START,1516299465122,67
158,PLAYER_SLEEPBEFORE_END,1516299466629,67
158,WS_SEND_START,1516299466629,67
158,WS_SEND_END,1516299466629,67
158,WS_RECV_START,1516299466629,68
158,WS_RECV_END,1516299467297,68
158,PLAYER_SLEEPBEFORE_START,1516299467297,69
158,PLAYER_SLEEPBEFORE_END,1516299489295,69
158,WS_SEND_START,1516299489295,69
158,WS_SEND_END,1516299489295,69
158,WS_RECV_START,1516299489295,70
158,WS_RECV_END,1516299490347,70
158,PLAYER_SLEEPBEFORE_START,1516299490347,71
158,PLAYER_SLEEPBEFORE_END,1516299515122,71
158,WS_SEND_START,1516299515122,71
158,WS_SEND_END,1516299515122,71
158,PLAYER_SLEEPBEFORE_START,1516299515122,72
158,PLAYER_SLEEPBEFORE_END,1516299517729,72
158,WS_SEND_START,1516299517729,72
158,WS_SEND_END,1516299517729,72
158,WS_RECV_START,1516299517729,73
158,WS_RECV_END,1516299518674,73
158,PLAYER_SLEEPBEFORE_START,1516299518674,74
158,PLAYER_SLEEPBEFORE_END,1516299518683,74
158,WS_SEND_START,1516299518683,74
158,WS_SEND_END,1516299518683,74
158,WS_RECV_START,1516299518683,75
158,WS_RECV_END,1516299519073,75
158,PLAYER_SLEEPBEFORE_START,1516299519073,76
158,PLAYER_SLEEPBEFORE_END,1516299520579,76
158,WS_SEND_START,1516299520579,76
158,WS_SEND_END,1516299520579,76
158,WS_RECV_START,1516299520579,77
158,WS_RECV_END,1516299521207,77
158,PLAYER_SLEEPBEFORE_START,1516299521207,78
158,PLAYER_SLEEPBEFORE_END,1516299522075,78
158,WS_SEND_START,1516299522075,78
158,WS_SEND_END,1516299522075,78
158,WS_RECV_START,1516299522075,79
158,WS_RECV_END,1516299522979,79
158,PLAYER_SLEEPBEFORE_START,1516299522979,80
158,PLAYER_SLEEPBEFORE_END,1516299530646,80
158,WS_SEND_START,1516299530646,80
158,WS_SEND_END,1516299530646,80
158,WS_RECV_START,1516299530646,81
158,WS_RECV_END,1516299531846,81
158,PLAYER_SLEEPBEFORE_START,1516299531846,82
158,PLAYER_SLEEPBEFORE_END,1516299532948,82
158,WS_SEND_START,1516299532948,82
158,WS_SEND_END,1516299532948,82
158,WS_RECV_START,1516299532948,83
158,WS_RECV_END,1516299533274,83
158,PLAYER_SLEEPBEFORE_START,1516299533274,84
158,PLAYER_SLEEPBEFORE_END,1516299534221,84
158,WS_SEND_START,1516299534221,84
158,WS_SEND_END,1516299534221,84
158,WS_RECV_START,1516299534221,85
158,WS_RECV_END,1516299536422,85
158,PLAYER_SLEEPBEFORE_START,1516299536422,86
158,PLAYER_SLEEPBEFORE_END,1516299540594,86
158,WS_SEND_START,1516299540594,86
158,WS_SEND_END,1516299540594,86
158,WS_RECV_START,1516299540594,87
158,WS_RECV_END,1516299543334,87
158,PLAYER_SLEEPBEFORE_START,1516299543334,88
158,PLAYER_SLEEPBEFORE_END,1516299543342,88
158,WS_SEND_START,1516299543342,88
158,WS_SEND_END,1516299543342,88
158,WS_RECV_START,1516299543342,89
158,WS_RECV_END,1516299545278,89
158,PLAYER_SLEEPBEFORE_START,1516299545278,90
158,PLAYER_SLEEPBEFORE_END,1516299572475,90
158,REQ_START,1516299572475,90
158,REQ_END,1516299572480,90
158,PLAYER_SLEEPBEFORE_START,1516299572480,91
158,PLAYER_SLEEPBEFORE_END,1516299580369,91
158,WS_SEND_START,1516299580369,91
158,WS_SEND_END,1516299580369,91
158,WS_RECV_START,1516299580369,92
158,WS_RECV_END,1516299584409,92
158,PLAYER_SLEEPBEFORE_START,1516299584409,93
158,PLAYER_SLEEPBEFORE_END,1516299584444,93
158,WS_SEND_START,1516299584444,93
158,WS_SEND_END,1516299584444,93
158,WS_RECV_START,1516299584444,94
158,WS_RECV_END,1516299585622,94
158,PLAYER_SLEEPBEFORE_START,1516299585622,95
158,PLAYER_SLEEPBEFORE_END,1516299609177,95
158,WS_SEND_START,1516299609177,95
158,WS_SEND_END,1516299609177,95
158,WS_RECV_START,1516299609177,96
158,WS_RECV_END,1516299611072,96
158,PLAYER_SLEEPBEFORE_START,1516299611072,97
158,PLAYER_SLEEPBEFORE_END,1516299633512,97
158,WS_SEND_START,1516299633512,97
158,WS_SEND_END,1516299633512,97
158,WS_RECV_START,1516299633512,98
158,WS_RECV_END,1516299635179,98
158,PLAYER_SLEEPBEFORE_START,1516299635179,99
158,PLAYER_SLEEPBEFORE_END,1516299635200,99
158,WS_SEND_START,1516299635201,99
158,WS_SEND_END,1516299635201,99
158,WS_RECV_START,1516299635201,100
158,WS_RECV_END,1516299636321,100
158,PLAYER_SLEEPBEFORE_START,1516299636321,101
158,PLAYER_SLEEPBEFORE_END,1516299659880,101
158,WS_SEND_START,1516299659880,101
158,WS_SEND_END,1516299659880,101
158,WS_RECV_START,1516299659880,102
158,WS_RECV_END,1516299662646,102
158,PLAYER_SLEEPBEFORE_START,1516299662646,103
158,PLAYER_SLEEPBEFORE_END,1516299686271,103
158,WS_SEND_START,1516299686271,103
158,WS_SEND_END,1516299686271,103
158,WS_RECV_START,1516299686271,104
158,WS_RECV_END,1516299689059,104
158,PLAYER_SLEEPBEFORE_START,1516299689059,105
158,PLAYER_SLEEPBEFORE_END,1516299714436,105
158,WS_SEND_START,1516299714436,105
158,WS_SEND_END,1516299714436,105
158,WS_RECV_START,1516299714436,106
158,WS_RECV_END,1516299714891,106
158,PLAYER_SLEEPBEFORE_START,1516299714891,107
158,PLAYER_SLEEPBEFORE_END,1516299738314,107
158,WS_SEND_START,1516299738314,107
158,WS_SEND_END,1516299738314,107
158,WS_RECV_START,1516299738314,108
158,WS_RECV_END,1516299741214,108
158,PLAYER_SLEEPBEFORE_START,1516299741214,109
158,PLAYER_SLEEPBEFORE_END,1516299741223,109
158,WS_SEND_START,1516299741223,109
158,WS_SEND_END,1516299741223,109
158,WS_RECV_START,1516299741223,110
158,WS_RECV_END,1516299743193,110
158,PLAYER_SLEEPBEFORE_START,1516299743193,111
158,PLAYER_SLEEPBEFORE_END,1516299744152,111
158,WS_SEND_START,1516299744152,111
158,WS_SEND_END,1516299744152,111
158,WS_RECV_START,1516299744152,112
158,WS_RECV_END,1516299746330,112
158,PLAYER_SLEEPBEFORE_START,1516299746330,113
158,PLAYER_SLEEPBEFORE_END,1516299746892,113
158,WS_SEND_START,1516299746892,113
158,WS_SEND_END,1516299746892,113
158,WS_RECV_START,1516299746892,114
158,WS_RECV_END,1516299748944,114
158,PLAYER_SLEEPBEFORE_START,1516299748944,115
158,PLAYER_SLEEPBEFORE_END,1516299748953,115
158,WS_SEND_START,1516299748953,115
158,WS_SEND_END,1516299748953,115
158,WS_RECV_START,1516299748953,116
158,WS_RECV_END,1516299751255,116
158,PLAYER_SLEEPBEFORE_START,1516299751255,117
158,PLAYER_SLEEPBEFORE_END,1516299771615,117
158,WS_SEND_START,1516299771615,117
158,WS_SEND_END,1516299771615,117
158,PLAYER_SLEEPBEFORE_START,1516299771615,118
158,PLAYER_SLEEPBEFORE_END,1516299775367,118
158,WS_SEND_START,1516299775367,118
158,WS_SEND_END,1516299775367,118
158,WS_RECV_START,1516299775367,119
158,WS_RECV_END,1516299776726,119
158,PLAYER_SLEEPBEFORE_START,1516299776726,120
158,PLAYER_SLEEPBEFORE_END,1516299777715,120
158,WS_SEND_START,1516299777715,120
158,WS_SEND_END,1516299777715,120
158,WS_RECV_START,1516299777715,121
158,WS_RECV_END,1516299781598,121
158,PLAYER_SLEEPBEFORE_START,1516299781598,122
158,PLAYER_SLEEPBEFORE_END,1516299782784,122
158,WS_SEND_START,1516299782784,122
158,WS_SEND_END,1516299782784,122
158,WS_RECV_START,1516299782784,123
158,WS_RECV_END,1516299785007,123
158,PLAYER_SLEEPBEFORE_START,1516299785007,124
158,PLAYER_SLEEPBEFORE_END,1516299809412,124
158,WS_SEND_START,1516299809412,124
158,WS_SEND_END,1516299809412,124
158,WS_RECV_START,1516299809412,125
158,WS_RECV_END,1516299813774,125
158,PLAYER_SLEEPBEFORE_START,1516299813774,126
158,PLAYER_SLEEPBEFORE_END,1516299834286,126
158,WS_SEND_START,1516299834286,126
158,WS_SEND_END,1516299834286,126
158,PLAYER_SLEEPBEFORE_START,1516299834286,127
158,PLAYER_SLEEPBEFORE_END,1516299837340,127
158,WS_SEND_START,1516299837340,127
158,WS_SEND_END,1516299837340,127
158,WS_RECV_START,1516299837340,128
158,WS_RECV_END,1516299838490,128
158,PLAYER_SLEEPBEFORE_START,1516299838490,129
158,PLAYER_SLEEPBEFORE_END,1516299838510,129
158,WS_SEND_START,1516299838510,129
158,WS_SEND_END,1516299838510,129
158,WS_RECV_START,1516299838510,130
158,WS_RECV_END,1516299839421,130
158,PLAYER_SLEEPBEFORE_START,1516299839421,131
158,PLAYER_SLEEPBEFORE_END,1516299861045,131
158,WS_SEND_START,1516299861045,131
158,WS_SEND_END,1516299861045,131
158,PLAYER_SLEEPBEFORE_START,1516299861045,132
158,PLAYER_SLEEPBEFORE_END,1516299864125,132
158,WS_SEND_START,1516299864125,132
158,WS_SEND_END,1516299864125,132
158,WS_RECV_START,1516299864125,133
158,WS_RECV_END,1516299864842,133
158,PLAYER_SLEEPBEFORE_START,1516299864842,134
158,PLAYER_SLEEPBEFORE_END,1516299886059,134
158,WS_SEND_START,1516299886059,134
158,WS_SEND_END,1516299886059,134
158,PLAYER_SLEEPBEFORE_START,1516299886059,135
158,PLAYER_SLEEPBEFORE_END,1516299889249,135
158,WS_SEND_START,1516299889250,135
158,WS_SEND_END,1516299889250,135
158,WS_RECV_START,1516299889250,136
158,WS_RECV_END,1516299889656,136
158,PLAYER_SLEEPBEFORE_START,1516299889656,137
158,PLAYER_SLEEPBEFORE_END,1516299889663,137
158,WS_SEND_START,1516299889663,137
158,WS_SEND_END,1516299889663,137
158,WS_RECV_START,1516299889663,138
158,WS_RECV_END,1516299891289,138
158,PLAYER_SLEEPBEFORE_START,1516299891289,139
158,PLAYER_SLEEPBEFORE_END,1516299891980,139
158,WS_SEND_START,1516299891980,139
158,WS_SEND_END,1516299891980,139
158,WS_RECV_START,1516299891980,140
158,WS_RECV_END,1516299893630,140
158,PLAYER_SLEEPBEFORE_START,1516299893630,141
158,PLAYER_SLEEPBEFORE_END,1516299894286,141
158,WS_SEND_START,1516299894286,141
158,WS_SEND_END,1516299894286,141
158,WS_RECV_START,1516299894286,142
158,WS_RECV_END,1516299895650,142
158,PLAYER_SLEEPBEFORE_START,1516299895650,143
158,PLAYER_SLEEPBEFORE_END,1516299895707,143
158,WS_SEND_START,1516299895707,143
158,WS_SEND_END,1516299895707,143
158,WS_RECV_START,1516299895707,144
158,WS_RECV_END,1516299898859,144
158,PLAYER_SLEEPBEFORE_START,1516299898859,145
158,PLAYER_SLEEPBEFORE_END,1516299914921,145
158,REQ_START,1516299914921,145
158,REQ_END,1516299914926,145
158,PLAYER_SLEEPBEFORE_START,1516299914926,146
158,PLAYER_SLEEPBEFORE_END,1516299923803,146
158,WS_SEND_START,1516299923803,146
158,WS_SEND_END,1516299923803,146
158,WS_RECV_START,1516299923803,147
158,WS_RECV_END,1516299924438,147
158,PLAYER_SLEEPBEFORE_START,1516299924438,148
158,PLAYER_SLEEPBEFORE_END,1516299946361,148
158,WS_SEND_START,1516299946361,148
158,WS_SEND_END,1516299946361,148
158,PLAYER_SLEEPBEFORE_START,1516299946361,149
158,PLAYER_SLEEPBEFORE_END,1516299948789,149
158,WS_SEND_START,1516299948789,149
158,WS_SEND_END,1516299948789,149
158,WS_RECV_START,1516299948789,150
158,WS_RECV_END,1516299949390,150
158,PLAYER_SLEEPBEFORE_START,1516299949390,151
158,PLAYER_SLEEPBEFORE_END,1516299949600,151
158,WS_SEND_START,1516299949600,151
158,WS_SEND_END,1516299949600,151
158,WS_RECV_START,1516299949600,152
158,WS_RECV_END,1516299949906,152
158,PLAYER_SLEEPBEFORE_START,1516299949906,153
158,PLAYER_SLEEPBEFORE_END,1516299973833,153
158,WS_SEND_START,1516299973833,153
158,WS_SEND_END,1516299973833,153
158,WS_RECV_START,1516299973833,154
158,WS_RECV_END,1516299974937,154
158,PLAYER_SLEEPBEFORE_START,1516299974937,155
158,PLAYER_SLEEPBEFORE_END,1516299997495,155
158,WS_SEND_START,1516299997495,155
158,WS_SEND_END,1516299997495,155
158,PLAYER_SLEEPBEFORE_START,1516299997495,156
158,PLAYER_SLEEPBEFORE_END,1516300000769,156
158,WS_SEND_START,1516300000769,156
158,WS_SEND_END,1516300000769,156
158,WS_RECV_START,1516300000769,157
158,WS_RECV_END,1516300001589,157
158,PLAYER_SLEEPBEFORE_START,1516300001589,158
158,PLAYER_SLEEPBEFORE_END,1516300001599,158
158,WS_SEND_START,1516300001599,158
158,WS_SEND_END,1516300001600,158
158,WS_RECV_START,1516300001600,159
158,WS_RECV_END,1516300001982,159
158,PLAYER_SLEEPBEFORE_START,1516300001982,160
158,PLAYER_SLEEPBEFORE_END,1516300002157,160
158,WS_SEND_START,1516300002157,160
158,WS_SEND_END,1516300002157,160
158,WS_RECV_START,1516300002157,161
158,WS_RECV_END,1516300003003,161
158,PLAYER_SLEEPBEFORE_START,1516300003003,162
158,PLAYER_SLEEPBEFORE_END,1516300003028,162
158,WS_SEND_START,1516300003028,162
158,WS_SEND_END,1516300003028,162
158,WS_RECV_START,1516300003028,163
158,WS_RECV_END,1516300003891,163
158,PLAYER_SLEEPBEFORE_START,1516300003891,164
158,PLAYER_SLEEPBEFORE_END,1516300024704,164
158,WS_SEND_START,1516300024704,164
158,WS_SEND_END,1516300024704,164
158,WS_RECV_START,1516300024704,165
158,WS_RECV_END,1516300026015,165
158,PLAYER_SLEEPBEFORE_START,1516300026015,166
158,PLAYER_SLEEPBEFORE_END,1516300048470,166
158,WS_SEND_START,1516300048470,166
158,WS_SEND_END,1516300048470,166
158,WS_RECV_START,1516300048470,167
158,WS_RECV_END,1516300049272,167
158,PLAYER_SLEEPBEFORE_START,1516300049272,168
158,PLAYER_SLEEPBEFORE_END,1516300076629,168
158,WS_SEND_START,1516300076629,168
158,WS_SEND_END,1516300076629,168
158,WS_RECV_START,1516300076629,169
158,WS_RECV_END,1516300077332,169
158,PLAYER_SLEEPBEFORE_START,1516300077332,170
158,PLAYER_SLEEPBEFORE_END,1516300077342,170
158,WS_SEND_START,1516300077342,170
158,WS_SEND_END,1516300077342,170
158,WS_RECV_START,1516300077342,171
158,WS_RECV_END,1516300077757,171
158,PLAYER_SLEEPBEFORE_START,1516300077757,172
158,PLAYER_SLEEPBEFORE_END,1516300078126,172
158,WS_SEND_START,1516300078126,172
158,WS_SEND_END,1516300078126,172
158,WS_RECV_START,1516300078126,173
158,WS_RECV_END,1516300078473,173
158,PLAYER_SLEEPBEFORE_START,1516300078473,174
158,PLAYER_SLEEPBEFORE_END,1516300078514,174
158,WS_SEND_START,1516300078514,174
158,WS_SEND_END,1516300078514,174
158,WS_RECV_START,1516300078514,175
158,WS_RECV_END,1516300079531,175
158,PLAYER_SLEEPBEFORE_START,1516300079531,176
158,PLAYER_SLEEPBEFORE_END,1516300101292,176
158,WS_SEND_START,1516300101292,176
158,WS_SEND_END,1516300101292,176
158,PLAYER_SLEEPBEFORE_START,1516300101292,177
158,PLAYER_SLEEPBEFORE_END,1516300103811,177
158,WS_SEND_START,1516300103811,177
158,WS_SEND_END,1516300103811,177
158,WS_RECV_START,1516300103811,178
158,WS_RECV_END,1516300104233,178
158,PLAYER_SLEEPBEFORE_START,1516300104233,179
158,PLAYER_SLEEPBEFORE_END,1516300126576,179
158,WS_SEND_START,1516300126576,179
158,WS_SEND_END,1516300126576,179
158,WS_RECV_START,1516300126576,180
158,WS_RECV_END,1516300128636,180
158,PLAYER_SLEEPBEFORE_START,1516300128636,181
158,PLAYER_SLEEPBEFORE_END,1516300129080,181
158,WS_SEND_START,1516300129080,181
158,WS_SEND_END,1516300129080,181
158,WS_RECV_START,1516300129080,182
158,WS_RECV_END,1516300130120,182
158,PLAYER_SLEEPBEFORE_START,1516300130120,183
158,PLAYER_SLEEPBEFORE_END,1516300130643,183
158,WS_SEND_START,1516300130643,183
158,WS_SEND_END,1516300130643,183
158,WS_RECV_START,1516300130643,184
158,WS_RECV_END,1516300131994,184
158,PLAYER_SLEEPBEFORE_START,1516300131994,185
158,PLAYER_SLEEPBEFORE_END,1516300132262,185
158,WS_SEND_START,1516300132262,185
158,WS_SEND_END,1516300132262,185
158,WS_RECV_START,1516300132262,186
158,WS_RECV_END,1516300133982,186
158,PLAYER_SLEEPBEFORE_START,1516300133982,187
158,PLAYER_SLEEPBEFORE_END,1516300156482,187
158,WS_SEND_START,1516300156482,187
158,WS_SEND_END,1516300156482,187
158,WS_RECV_START,1516300156482,188
158,WS_RECV_END,1516300159845,188
158,PLAYER_SLEEPBEFORE_START,1516300159845,189
158,PLAYER_SLEEPBEFORE_END,1516300166084,189
158,WS_SEND_START,1516300166084,189
158,WS_SEND_END,1516300166084,189
158,WS_RECV_START,1516300166084,190
158,WS_RECV_END,1516300170157,190
158,PLAYER_SLEEPBEFORE_START,1516300170157,191
158,PLAYER_SLEEPBEFORE_END,1516300172073,191
158,WS_SEND_START,1516300172073,191
158,WS_SEND_END,1516300172073,191
158,WS_RECV_START,1516300172073,192
158,WS_RECV_END,1516300176392,192
158,PLAYER_SLEEPBEFORE_START,1516300176392,193
158,PLAYER_SLEEPBEFORE_END,1516300176520,193
158,WS_SEND_START,1516300176520,193
158,WS_SEND_END,1516300176520,193
158,WS_RECV_START,1516300176520,194
158,WS_RECV_END,1516300179075,194
158,PLAYER_SLEEPBEFORE_START,1516300179075,195
158,PLAYER_SLEEPBEFORE_END,1516300180830,195
158,WS_SEND_START,1516300180830,195
158,WS_SEND_END,1516300180830,195
158,WS_RECV_START,1516300180830,196
158,WS_RECV_END,1516300185251,196
158,PLAYER_SLEEPBEFORE_START,1516300185251,197
158,PLAYER_SLEEPBEFORE_END,1516300187055,197
158,WS_SEND_START,1516300187055,197
158,WS_SEND_END,1516300187055,197
158,WS_RECV_START,1516300187055,198
158,WS_RECV_END,1516300194043,198
158,PLAYER_SLEEPBEFORE_START,1516300194043,199
158,PLAYER_SLEEPBEFORE_END,1516300205897,199
158,WS_SEND_START,1516300205897,199
158,WS_SEND_END,1516300205897,199
158,PLAYER_SLEEPBEFORE_START,1516300205897,200
158,PLAYER_SLEEPBEFORE_END,1516300209985,200
158,WS_SEND_START,1516300209985,200
158,WS_SEND_END,1516300209985,200
158,WS_RECV_START,1516300209985,201
158,WS_RECV_END,1516300212023,201
158,PLAYER_SLEEPBEFORE_START,1516300212023,202
158,PLAYER_SLEEPBEFORE_END,1516300212038,202
158,WS_SEND_START,1516300212038,202
158,WS_SEND_END,1516300212038,202
158,WS_RECV_START,1516300212038,203
158,WS_RECV_END,1516300215060,203
158,PLAYER_SLEEPBEFORE_START,1516300215060,204
158,PLAYER_SLEEPBEFORE_END,1516300234709,204
158,WS_SEND_START,1516300234709,204
158,WS_SEND_END,1516300234709,204
158,PLAYER_SLEEPBEFORE_START,1516300234709,205
158,PLAYER_SLEEPBEFORE_END,1516300238608,205
158,WS_SEND_START,1516300238608,205
158,WS_SEND_END,1516300238608,205
158,WS_RECV_START,1516300238608,206
158,WS_RECV_END,1516300240050,206
158,PLAYER_SLEEPBEFORE_START,1516300240050,207
158,PLAYER_SLEEPBEFORE_END,1516300256981,207
158,REQ_START,1516300256981,207
158,REQ_END,1516300256987,207
158,PLAYER_SLEEPBEFORE_START,1516300256988,208
158,PLAYER_SLEEPBEFORE_END,1516300263840,208
158,WS_CLOSE_START,1516300263840,208
158,WS_CLOSE_END,1516300263840,208
158,PLAYER_DONE,1516300263840
