# --sessions 2700 --app-url=http://shinyloadtest.rstudioservices.com/cran_explorer --output-dir test2700 --overwrite-output --log-level warn --start-interval 100 15min.log
thread_id,event,timestamp,input_line_number,comment
1701,PLAYER_SESSION_CREATE,1516299246010
1701,PLAYER_START_INTERVAL_START,1516299246010
1701,PLAYER_START_INTERVAL_END,1516299416110
1701,REQ_HOME_START,1516299416110,2
1701,REQ_HOME_END,1516299416223,2
1701,REQ_START,1516299416223,3
1701,REQ_END,1516299416257,3
1701,REQ_START,1516299416257,4
1701,REQ_END,1516299416292,4
1701,REQ_START,1516299416292,5
1701,REQ_END,1516299416438,5
1701,REQ_START,1516299416438,6
1701,REQ_END,1516299416512,6
1701,REQ_START,1516299416512,7
1701,REQ_END,1516299416557,7
1701,REQ_START,1516299416557,8
1701,REQ_END,1516299416849,8
1701,REQ_START,1516299416849,9
1701,REQ_END,1516299416913,9
1701,REQ_START,1516299416913,10
1701,REQ_END,1516299416917,10
1701,REQ_START,1516299416917,11
1701,REQ_END,1516299416976,11
1701,REQ_START,1516299416976,12
1701,REQ_END,1516299416982,12
1701,REQ_START,1516299416982,13
1701,REQ_END,1516299417020,13
1701,REQ_START,1516299417020,14
1701,REQ_END,1516299417033,14
1701,REQ_START,1516299417033,15
1701,REQ_END,1516299417511,15
1701,REQ_TOK_START,1516299417511,16
1701,REQ_TOK_END,1516299417515,16
1701,REQ_SINF_START,1516299417515,17
1701,REQ_SINF_END,1516299417519,17
1701,WS_OPEN_START,1516299417519,18
1701,WS_OPEN_END,1516299417522,18
1701,REQ_START,1516299417522,19
1701,REQ_END,1516299417551,19
1701,WS_RECV_START,1516299417551,20
1701,WS_RECV_END,1516299417551,20
1701,PLAYER_SLEEPBEFORE_START,1516299417551,21
1701,PLAYER_SLEEPBEFORE_END,1516299417556,21
1701,WS_SEND_START,1516299417556,21
1701,WS_SEND_END,1516299417556,21
1701,PLAYER_SLEEPBEFORE_START,1516299417556,22
1701,PLAYER_SLEEPBEFORE_END,1516299417557,22
1701,WS_SEND_START,1516299417557,22
1701,WS_SEND_END,1516299417557,22
1701,WS_RECV_INIT_START,1516299417557,23
1701,WS_RECV_INIT_END,1516299417677,23
1701,WS_RECV_START,1516299417677,24
1701,WS_RECV_END,1516299417750,24
1701,PLAYER_SLEEPBEFORE_START,1516299417750,25
1701,PLAYER_SLEEPBEFORE_END,1516299417757,25
1701,REQ_START,1516299417757,25
1701,REQ_END,1516299417990,25
1701,PLAYER_SLEEPBEFORE_START,1516299417990,26
1701,PLAYER_SLEEPBEFORE_END,1516299417991,26
1701,REQ_START,1516299417992,26
1701,REQ_END,1516299418028,26
1701,PLAYER_SLEEPBEFORE_START,1516299418028,27
1701,PLAYER_SLEEPBEFORE_END,1516299418031,27
1701,REQ_START,1516299418031,27
1701,REQ_END,1516299418097,27
1701,PLAYER_SLEEPBEFORE_START,1516299418097,28
1701,PLAYER_SLEEPBEFORE_END,1516299418383,28
1701,REQ_START,1516299418383,28
1701,REQ_END,1516299418623,28
1701,PLAYER_SLEEPBEFORE_START,1516299418623,29
1701,PLAYER_SLEEPBEFORE_END,1516299418798,29
1701,WS_SEND_START,1516299418798,29
1701,WS_SEND_END,1516299418798,29
1701,WS_RECV_START,1516299418798,30
1701,WS_RECV_END,1516299418982,30
1701,PLAYER_SLEEPBEFORE_START,1516299418982,31
1701,PLAYER_SLEEPBEFORE_END,1516299418993,31
1701,REQ_START,1516299418993,31
1701,REQ_END,1516299419033,31
1701,PLAYER_SLEEPBEFORE_START,1516299419033,32
1701,PLAYER_SLEEPBEFORE_END,1516299447178,32
1701,WS_SEND_START,1516299447178,32
1701,WS_SEND_END,1516299447178,32
1701,WS_RECV_START,1516299447178,33
1701,WS_RECV_END,1516299447277,33
1701,PLAYER_SLEEPBEFORE_START,1516299447277,34
1701,PLAYER_SLEEPBEFORE_END,1516299473188,34
1701,WS_SEND_START,1516299473188,34
1701,WS_SEND_END,1516299473188,34
1701,WS_RECV_START,1516299473188,35
1701,WS_RECV_END,1516299473291,35
1701,PLAYER_SLEEPBEFORE_START,1516299473291,36
1701,PLAYER_SLEEPBEFORE_END,1516299473300,36
1701,WS_SEND_START,1516299473300,36
1701,WS_SEND_END,1516299473300,36
1701,WS_RECV_START,1516299473300,37
1701,WS_RECV_END,1516299473371,37
1701,PLAYER_SLEEPBEFORE_START,1516299473371,38
1701,PLAYER_SLEEPBEFORE_END,1516299476567,38
1701,WS_SEND_START,1516299476567,38
1701,WS_SEND_END,1516299476567,38
1701,WS_RECV_START,1516299476567,39
1701,WS_RECV_END,1516299476768,39
1701,PLAYER_SLEEPBEFORE_START,1516299476768,40
1701,PLAYER_SLEEPBEFORE_END,1516299476814,40
1701,WS_SEND_START,1516299476814,40
1701,WS_SEND_END,1516299476815,40
1701,WS_RECV_START,1516299476815,41
1701,WS_RECV_END,1516299476992,41
1701,PLAYER_SLEEPBEFORE_START,1516299476992,42
1701,PLAYER_SLEEPBEFORE_END,1516299495127,42
1701,WS_SEND_START,1516299495128,42
1701,WS_SEND_END,1516299495128,42
1701,WS_RECV_START,1516299495128,43
1701,WS_RECV_END,1516299495195,43
1701,PLAYER_SLEEPBEFORE_START,1516299495195,44
1701,PLAYER_SLEEPBEFORE_END,1516299495207,44
1701,WS_SEND_START,1516299495207,44
1701,WS_SEND_END,1516299495207,44
1701,WS_RECV_START,1516299495207,45
1701,WS_RECV_END,1516299495273,45
1701,PLAYER_SLEEPBEFORE_START,1516299495273,46
1701,PLAYER_SLEEPBEFORE_END,1516299496533,46
1701,WS_SEND_START,1516299496533,46
1701,WS_SEND_END,1516299496533,46
1701,WS_RECV_START,1516299496533,47
1701,WS_RECV_END,1516299496712,47
1701,PLAYER_SLEEPBEFORE_START,1516299496712,48
1701,PLAYER_SLEEPBEFORE_END,1516299498032,48
1701,WS_SEND_START,1516299498032,48
1701,WS_SEND_END,1516299498032,48
1701,WS_RECV_START,1516299498032,49
1701,WS_RECV_END,1516299498344,49
1701,PLAYER_SLEEPBEFORE_START,1516299498344,50
1701,PLAYER_SLEEPBEFORE_END,1516299498368,50
1701,WS_SEND_START,1516299498368,50
1701,WS_SEND_END,1516299498368,50
1701,WS_RECV_START,1516299498368,51
1701,WS_RECV_END,1516299498681,51
1701,PLAYER_SLEEPBEFORE_START,1516299498681,52
1701,PLAYER_SLEEPBEFORE_END,1516299521245,52
1701,WS_SEND_START,1516299521245,52
1701,WS_SEND_END,1516299521245,52
1701,WS_RECV_START,1516299521245,53
1701,WS_RECV_END,1516299521806,53
1701,PLAYER_SLEEPBEFORE_START,1516299521806,54
1701,PLAYER_SLEEPBEFORE_END,1516299543109,54
1701,WS_SEND_START,1516299543109,54
1701,WS_SEND_END,1516299543109,54
1701,PLAYER_SLEEPBEFORE_START,1516299543109,55
1701,PLAYER_SLEEPBEFORE_END,1516299545050,55
1701,WS_SEND_START,1516299545050,55
1701,WS_SEND_END,1516299545050,55
1701,WS_RECV_START,1516299545050,56
1701,WS_RECV_END,1516299545589,56
1701,PLAYER_SLEEPBEFORE_START,1516299545589,57
1701,PLAYER_SLEEPBEFORE_END,1516299568461,57
1701,WS_SEND_START,1516299568461,57
1701,WS_SEND_END,1516299568461,57
1701,WS_RECV_START,1516299568461,58
1701,WS_RECV_END,1516299570100,58
1701,PLAYER_SLEEPBEFORE_START,1516299570100,59
1701,PLAYER_SLEEPBEFORE_END,1516299572428,59
1701,WS_SEND_START,1516299572428,59
1701,WS_SEND_END,1516299572428,59
1701,WS_RECV_START,1516299572428,60
1701,WS_RECV_END,1516299573804,60
1701,PLAYER_SLEEPBEFORE_START,1516299573804,61
1701,PLAYER_SLEEPBEFORE_END,1516299577395,61
1701,WS_SEND_START,1516299577396,61
1701,WS_SEND_END,1516299577396,61
1701,WS_RECV_START,1516299577396,62
1701,WS_RECV_END,1516299578834,62
1701,PLAYER_SLEEPBEFORE_START,1516299578834,63
1701,PLAYER_SLEEPBEFORE_END,1516299598096,63
1701,WS_SEND_START,1516299598096,63
1701,WS_SEND_END,1516299598096,63
1701,WS_RECV_START,1516299598096,64
1701,WS_RECV_END,1516299598707,64
1701,PLAYER_SLEEPBEFORE_START,1516299598707,65
1701,PLAYER_SLEEPBEFORE_END,1516299625524,65
1701,WS_SEND_START,1516299625524,65
1701,WS_SEND_END,1516299625524,65
1701,WS_RECV_START,1516299625524,66
1701,WS_RECV_END,1516299625652,66
1701,PLAYER_SLEEPBEFORE_START,1516299625652,67
1701,PLAYER_SLEEPBEFORE_END,1516299627159,67
1701,WS_SEND_START,1516299627159,67
1701,WS_SEND_END,1516299627159,67
1701,WS_RECV_START,1516299627159,68
1701,WS_RECV_END,1516299628877,68
1701,PLAYER_SLEEPBEFORE_START,1516299628877,69
1701,PLAYER_SLEEPBEFORE_END,1516299650875,69
1701,WS_SEND_START,1516299650875,69
1701,WS_SEND_END,1516299650875,69
1701,WS_RECV_START,1516299650875,70
1701,WS_RECV_END,1516299651156,70
1701,PLAYER_SLEEPBEFORE_START,1516299651156,71
1701,PLAYER_SLEEPBEFORE_END,1516299675931,71
1701,WS_SEND_START,1516299675931,71
1701,WS_SEND_END,1516299675931,71
1701,PLAYER_SLEEPBEFORE_START,1516299675931,72
1701,PLAYER_SLEEPBEFORE_END,1516299678538,72
1701,WS_SEND_START,1516299678538,72
1701,WS_SEND_END,1516299678538,72
1701,WS_RECV_START,1516299678538,73
1701,WS_RECV_END,1516299679148,73
1701,PLAYER_SLEEPBEFORE_START,1516299679148,74
1701,PLAYER_SLEEPBEFORE_END,1516299679157,74
1701,WS_SEND_START,1516299679157,74
1701,WS_SEND_END,1516299679157,74
1701,WS_RECV_START,1516299679157,75
1701,WS_RECV_END,1516299679361,75
1701,PLAYER_SLEEPBEFORE_START,1516299679361,76
1701,PLAYER_SLEEPBEFORE_END,1516299680868,76
1701,WS_SEND_START,1516299680868,76
1701,WS_SEND_END,1516299680868,76
1701,WS_RECV_START,1516299680868,77
1701,WS_RECV_END,1516299682345,77
1701,PLAYER_SLEEPBEFORE_START,1516299682345,78
1701,PLAYER_SLEEPBEFORE_END,1516299683213,78
1701,WS_SEND_START,1516299683213,78
1701,WS_SEND_END,1516299683213,78
1701,WS_RECV_START,1516299683213,79
1701,WS_RECV_END,1516299684326,79
1701,PLAYER_SLEEPBEFORE_START,1516299684326,80
1701,PLAYER_SLEEPBEFORE_END,1516299691992,80
1701,WS_SEND_START,1516299691992,80
1701,WS_SEND_END,1516299691992,80
1701,WS_RECV_START,1516299691992,81
1701,WS_RECV_END,1516299693206,81
1701,PLAYER_SLEEPBEFORE_START,1516299693206,82
1701,PLAYER_SLEEPBEFORE_END,1516299694308,82
1701,WS_SEND_START,1516299694308,82
1701,WS_SEND_END,1516299694308,82
1701,WS_RECV_START,1516299694308,83
1701,WS_RECV_END,1516299694532,83
1701,PLAYER_SLEEPBEFORE_START,1516299694532,84
1701,PLAYER_SLEEPBEFORE_END,1516299695480,84
1701,WS_SEND_START,1516299695480,84
1701,WS_SEND_END,1516299695480,84
1701,WS_RECV_START,1516299695480,85
1701,WS_RECV_END,1516299695569,85
1701,PLAYER_SLEEPBEFORE_START,1516299695569,86
1701,PLAYER_SLEEPBEFORE_END,1516299699741,86
1701,WS_SEND_START,1516299699741,86
1701,WS_SEND_END,1516299699741,86
1701,WS_RECV_START,1516299699741,87
1701,WS_RECV_END,1516299700258,87
1701,PLAYER_SLEEPBEFORE_START,1516299700258,88
1701,PLAYER_SLEEPBEFORE_END,1516299700266,88
1701,WS_SEND_START,1516299700266,88
1701,WS_SEND_END,1516299700266,88
1701,WS_RECV_START,1516299700266,89
1701,WS_RECV_END,1516299700563,89
1701,PLAYER_SLEEPBEFORE_START,1516299700563,90
1701,PLAYER_SLEEPBEFORE_END,1516299727760,90
1701,REQ_START,1516299727760,90
1701,REQ_END,1516299727765,90
1701,PLAYER_SLEEPBEFORE_START,1516299727765,91
1701,PLAYER_SLEEPBEFORE_END,1516299735654,91
1701,WS_SEND_START,1516299735654,91
1701,WS_SEND_END,1516299735654,91
1701,WS_RECV_START,1516299735654,92
1701,WS_RECV_END,1516299736529,92
1701,PLAYER_SLEEPBEFORE_START,1516299736529,93
1701,PLAYER_SLEEPBEFORE_END,1516299736544,93
1701,WS_SEND_START,1516299736544,93
1701,WS_SEND_END,1516299736544,93
1701,WS_RECV_START,1516299736544,94
1701,WS_RECV_END,1516299737102,94
1701,PLAYER_SLEEPBEFORE_START,1516299737102,95
1701,PLAYER_SLEEPBEFORE_END,1516299760657,95
1701,WS_SEND_START,1516299760657,95
1701,WS_SEND_END,1516299760657,95
1701,WS_RECV_START,1516299760657,96
1701,WS_RECV_END,1516299764365,96
1701,PLAYER_SLEEPBEFORE_START,1516299764365,97
1701,PLAYER_SLEEPBEFORE_END,1516299786805,97
1701,WS_SEND_START,1516299786805,97
1701,WS_SEND_END,1516299786805,97
1701,WS_RECV_START,1516299786805,98
1701,WS_RECV_END,1516299789788,98
1701,PLAYER_SLEEPBEFORE_START,1516299789788,99
1701,PLAYER_SLEEPBEFORE_END,1516299789809,99
1701,WS_SEND_START,1516299789809,99
1701,WS_SEND_END,1516299789809,99
1701,WS_RECV_START,1516299789809,100
1701,WS_RECV_END,1516299790941,100
1701,PLAYER_SLEEPBEFORE_START,1516299790941,101
1701,PLAYER_SLEEPBEFORE_END,1516299814500,101
1701,WS_SEND_START,1516299814500,101
1701,WS_SEND_END,1516299814500,101
1701,WS_RECV_START,1516299814500,102
1701,WS_RECV_END,1516299818379,102
1701,PLAYER_SLEEPBEFORE_START,1516299818379,103
1701,PLAYER_SLEEPBEFORE_END,1516299842004,103
1701,WS_SEND_START,1516299842004,103
1701,WS_SEND_END,1516299842004,103
1701,WS_RECV_START,1516299842004,104
1701,WS_RECV_END,1516299845229,104
1701,PLAYER_SLEEPBEFORE_START,1516299845229,105
1701,PLAYER_SLEEPBEFORE_END,1516299870606,105
1701,WS_SEND_START,1516299870606,105
1701,WS_SEND_END,1516299870607,105
1701,WS_RECV_START,1516299870607,106
1701,WS_RECV_END,1516299874935,106
1701,PLAYER_SLEEPBEFORE_START,1516299874935,107
1701,PLAYER_SLEEPBEFORE_END,1516299898358,107
1701,WS_SEND_START,1516299898358,107
1701,WS_SEND_END,1516299898358,107
1701,WS_RECV_START,1516299898358,108
1701,WS_RECV_END,1516299902602,108
1701,PLAYER_SLEEPBEFORE_START,1516299902602,109
1701,PLAYER_SLEEPBEFORE_END,1516299902611,109
1701,WS_SEND_START,1516299902612,109
1701,WS_SEND_END,1516299902612,109
1701,WS_RECV_START,1516299902612,110
1701,WS_RECV_END,1516299904178,110
1701,PLAYER_SLEEPBEFORE_START,1516299904178,111
1701,PLAYER_SLEEPBEFORE_END,1516299905137,111
1701,WS_SEND_START,1516299905138,111
1701,WS_SEND_END,1516299905138,111
1701,WS_RECV_START,1516299905138,112
1701,WS_RECV_END,1516299906420,112
1701,PLAYER_SLEEPBEFORE_START,1516299906420,113
1701,PLAYER_SLEEPBEFORE_END,1516299906982,113
1701,WS_SEND_START,1516299906982,113
1701,WS_SEND_END,1516299906982,113
1701,WS_RECV_START,1516299906982,114
1701,WS_RECV_END,1516299908757,114
1701,PLAYER_SLEEPBEFORE_START,1516299908757,115
1701,PLAYER_SLEEPBEFORE_END,1516299908766,115
1701,WS_SEND_START,1516299908766,115
1701,WS_SEND_END,1516299908766,115
1701,WS_RECV_START,1516299908766,116
1701,WS_RECV_END,1516299910130,116
1701,PLAYER_SLEEPBEFORE_START,1516299910130,117
1701,PLAYER_SLEEPBEFORE_END,1516299930490,117
1701,WS_SEND_START,1516299930490,117
1701,WS_SEND_END,1516299930490,117
1701,PLAYER_SLEEPBEFORE_START,1516299930490,118
1701,PLAYER_SLEEPBEFORE_END,1516299934242,118
1701,WS_SEND_START,1516299934242,118
1701,WS_SEND_END,1516299934242,118
1701,WS_RECV_START,1516299934242,119
1701,WS_RECV_END,1516299936106,119
1701,PLAYER_SLEEPBEFORE_START,1516299936106,120
1701,PLAYER_SLEEPBEFORE_END,1516299937094,120
1701,WS_SEND_START,1516299937094,120
1701,WS_SEND_END,1516299937095,120
1701,WS_RECV_START,1516299937095,121
1701,WS_RECV_END,1516299939743,121
1701,PLAYER_SLEEPBEFORE_START,1516299939743,122
1701,PLAYER_SLEEPBEFORE_END,1516299940928,122
1701,WS_SEND_START,1516299940928,122
1701,WS_SEND_END,1516299940928,122
1701,WS_RECV_START,1516299940928,123
1701,WS_RECV_END,1516299944350,123
1701,PLAYER_SLEEPBEFORE_START,1516299944350,124
1701,PLAYER_SLEEPBEFORE_END,1516299968755,124
1701,WS_SEND_START,1516299968755,124
1701,WS_SEND_END,1516299968755,124
1701,WS_RECV_START,1516299968755,125
1701,WS_RECV_END,1516299968922,125
1701,PLAYER_SLEEPBEFORE_START,1516299968922,126
1701,PLAYER_SLEEPBEFORE_END,1516299989434,126
1701,WS_SEND_START,1516299989434,126
1701,WS_SEND_END,1516299989434,126
1701,PLAYER_SLEEPBEFORE_START,1516299989434,127
1701,PLAYER_SLEEPBEFORE_END,1516299992488,127
1701,WS_SEND_START,1516299992488,127
1701,WS_SEND_END,1516299992488,127
1701,WS_RECV_START,1516299992488,128
1701,WS_RECV_END,1516299993012,128
1701,PLAYER_SLEEPBEFORE_START,1516299993012,129
1701,PLAYER_SLEEPBEFORE_END,1516299993032,129
1701,WS_SEND_START,1516299993032,129
1701,WS_SEND_END,1516299993032,129
1701,WS_RECV_START,1516299993032,130
1701,WS_RECV_END,1516299995302,130
1701,PLAYER_SLEEPBEFORE_START,1516299995302,131
1701,PLAYER_SLEEPBEFORE_END,1516300016926,131
1701,WS_SEND_START,1516300016926,131
1701,WS_SEND_END,1516300016926,131
1701,PLAYER_SLEEPBEFORE_START,1516300016926,132
1701,PLAYER_SLEEPBEFORE_END,1516300020006,132
1701,WS_SEND_START,1516300020006,132
1701,WS_SEND_END,1516300020006,132
1701,WS_RECV_START,1516300020006,133
1701,WS_RECV_END,1516300021191,133
1701,PLAYER_SLEEPBEFORE_START,1516300021191,134
1701,PLAYER_SLEEPBEFORE_END,1516300042409,134
1701,WS_SEND_START,1516300042409,134
1701,WS_SEND_END,1516300042409,134
1701,PLAYER_SLEEPBEFORE_START,1516300042409,135
1701,PLAYER_SLEEPBEFORE_END,1516300045599,135
1701,WS_SEND_START,1516300045599,135
1701,WS_SEND_END,1516300045599,135
1701,WS_RECV_START,1516300045599,136
1701,WS_RECV_END,1516300046443,136
1701,PLAYER_SLEEPBEFORE_START,1516300046443,137
1701,PLAYER_SLEEPBEFORE_END,1516300046450,137
1701,WS_SEND_START,1516300046450,137
1701,WS_SEND_END,1516300046450,137
1701,WS_RECV_START,1516300046450,138
1701,WS_RECV_END,1516300046994,138
1701,PLAYER_SLEEPBEFORE_START,1516300046994,139
1701,PLAYER_SLEEPBEFORE_END,1516300047684,139
1701,WS_SEND_START,1516300047684,139
1701,WS_SEND_END,1516300047684,139
1701,WS_RECV_START,1516300047684,140
1701,WS_RECV_END,1516300048007,140
1701,PLAYER_SLEEPBEFORE_START,1516300048007,141
1701,PLAYER_SLEEPBEFORE_END,1516300048662,141
1701,WS_SEND_START,1516300048662,141
1701,WS_SEND_END,1516300048662,141
1701,WS_RECV_START,1516300048662,142
1701,WS_RECV_END,1516300049230,142
1701,PLAYER_SLEEPBEFORE_START,1516300049230,143
1701,PLAYER_SLEEPBEFORE_END,1516300049287,143
1701,WS_SEND_START,1516300049287,143
1701,WS_SEND_END,1516300049287,143
1701,WS_RECV_START,1516300049287,144
1701,WS_RECV_END,1516300049882,144
1701,PLAYER_SLEEPBEFORE_START,1516300049882,145
1701,PLAYER_SLEEPBEFORE_END,1516300065944,145
1701,REQ_START,1516300065944,145
1701,REQ_END,1516300065950,145
1701,PLAYER_SLEEPBEFORE_START,1516300065950,146
1701,PLAYER_SLEEPBEFORE_END,1516300074827,146
1701,WS_SEND_START,1516300074827,146
1701,WS_SEND_END,1516300074827,146
1701,WS_RECV_START,1516300074827,147
1701,WS_RECV_END,1516300077224,147
1701,PLAYER_SLEEPBEFORE_START,1516300077224,148
1701,PLAYER_SLEEPBEFORE_END,1516300099146,148
1701,WS_SEND_START,1516300099146,148
1701,WS_SEND_END,1516300099146,148
1701,PLAYER_SLEEPBEFORE_START,1516300099146,149
1701,PLAYER_SLEEPBEFORE_END,1516300101574,149
1701,WS_SEND_START,1516300101574,149
1701,WS_SEND_END,1516300101574,149
1701,WS_RECV_START,1516300101574,150
1701,WS_RECV_END,1516300103304,150
1701,PLAYER_SLEEPBEFORE_START,1516300103304,151
1701,PLAYER_SLEEPBEFORE_END,1516300103514,151
1701,WS_SEND_START,1516300103514,151
1701,WS_SEND_END,1516300103514,151
1701,WS_RECV_START,1516300103514,152
1701,WS_RECV_END,1516300104318,152
1701,PLAYER_SLEEPBEFORE_START,1516300104318,153
1701,PLAYER_SLEEPBEFORE_END,1516300128245,153
1701,WS_SEND_START,1516300128245,153
1701,WS_SEND_END,1516300128245,153
1701,WS_RECV_START,1516300128245,154
1701,WS_RECV_END,1516300130049,154
1701,PLAYER_SLEEPBEFORE_START,1516300130049,155
1701,PLAYER_SLEEPBEFORE_END,1516300152607,155
1701,WS_SEND_START,1516300152607,155
1701,WS_SEND_END,1516300152607,155
1701,PLAYER_SLEEPBEFORE_START,1516300152607,156
1701,PLAYER_SLEEPBEFORE_END,1516300155881,156
1701,WS_SEND_START,1516300155881,156
1701,WS_SEND_END,1516300155881,156
1701,WS_RECV_START,1516300155881,157
1701,WS_RECV_END,1516300159261,157
1701,PLAYER_SLEEPBEFORE_START,1516300159261,158
1701,PLAYER_SLEEPBEFORE_END,1516300159271,158
1701,WS_SEND_START,1516300159271,158
1701,WS_SEND_END,1516300159271,158
1701,WS_RECV_START,1516300159271,159
1701,WS_RECV_END,1516300162266,159
1701,PLAYER_SLEEPBEFORE_START,1516300162266,160
1701,PLAYER_SLEEPBEFORE_END,1516300162441,160
1701,WS_SEND_START,1516300162441,160
1701,WS_SEND_END,1516300162441,160
1701,WS_RECV_START,1516300162441,161
1701,WS_RECV_END,1516300164879,161
1701,PLAYER_SLEEPBEFORE_START,1516300164879,162
1701,PLAYER_SLEEPBEFORE_END,1516300164904,162
1701,WS_SEND_START,1516300164904,162
1701,WS_SEND_END,1516300164904,162
1701,WS_RECV_START,1516300164904,163
1701,WS_RECV_END,1516300167851,163
1701,PLAYER_SLEEPBEFORE_START,1516300167851,164
1701,PLAYER_SLEEPBEFORE_END,1516300188663,164
1701,WS_SEND_START,1516300188663,164
1701,WS_SEND_END,1516300188663,164
1701,WS_RECV_START,1516300188663,165
1701,WS_RECV_END,1516300192121,165
1701,PLAYER_SLEEPBEFORE_START,1516300192121,166
1701,PLAYER_SLEEPBEFORE_END,1516300214576,166
1701,WS_SEND_START,1516300214576,166
1701,WS_SEND_END,1516300214576,166
1701,WS_RECV_START,1516300214576,167
1701,WS_RECV_END,1516300217984,167
1701,PLAYER_SLEEPBEFORE_START,1516300217984,168
1701,PLAYER_SLEEPBEFORE_END,1516300245342,168
1701,WS_SEND_START,1516300245342,168
1701,WS_SEND_END,1516300245342,168
1701,WS_RECV_START,1516300245342,169
1701,WS_RECV_END,1516300247700,169
1701,PLAYER_SLEEPBEFORE_START,1516300247700,170
1701,PLAYER_SLEEPBEFORE_END,1516300247709,170
1701,WS_SEND_START,1516300247709,170
1701,WS_SEND_END,1516300247709,170
1701,WS_RECV_START,1516300247709,171
1701,WS_RECV_END,1516300251166,171
1701,PLAYER_SLEEPBEFORE_START,1516300251166,172
1701,PLAYER_SLEEPBEFORE_END,1516300251535,172
1701,WS_SEND_START,1516300251535,172
1701,WS_SEND_END,1516300251535,172
1701,WS_RECV_START,1516300251535,173
1701,WS_RECV_END,1516300252691,173
1701,PLAYER_SLEEPBEFORE_START,1516300252691,174
1701,PLAYER_SLEEPBEFORE_END,1516300252732,174
1701,WS_SEND_START,1516300252732,174
1701,WS_SEND_END,1516300252732,174
1701,WS_RECV_START,1516300252732,175
1701,WS_RECV_END,1516300254610,175
1701,PLAYER_SLEEPBEFORE_START,1516300254610,176
1701,PLAYER_SLEEPBEFORE_END,1516300276371,176
1701,WS_SEND_START,1516300276371,176
1701,WS_SEND_END,1516300276371,176
1701,PLAYER_SLEEPBEFORE_START,1516300276371,177
1701,PLAYER_SLEEPBEFORE_END,1516300278889,177
1701,WS_SEND_START,1516300278889,177
1701,WS_SEND_END,1516300278889,177
1701,WS_RECV_START,1516300278889,178
1701,WS_RECV_END,1516300280888,178
1701,PLAYER_SLEEPBEFORE_START,1516300280888,179
1701,PLAYER_SLEEPBEFORE_END,1516300303228,179
1701,WS_SEND_START,1516300303228,179
1701,WS_SEND_END,1516300303228,179
1701,WS_RECV_START,1516300303228,180
1701,WS_RECV_END,1516300304280,180
1701,PLAYER_SLEEPBEFORE_START,1516300304280,181
1701,PLAYER_SLEEPBEFORE_END,1516300304724,181
1701,WS_SEND_START,1516300304724,181
1701,WS_SEND_END,1516300304724,181
1701,WS_RECV_START,1516300304724,182
1701,WS_RECV_END,1516300305697,182
1701,PLAYER_SLEEPBEFORE_START,1516300305697,183
1701,PLAYER_SLEEPBEFORE_END,1516300306220,183
1701,WS_SEND_START,1516300306220,183
1701,WS_SEND_END,1516300306220,183
1701,WS_RECV_START,1516300306220,184
1701,WS_RECV_END,1516300307406,184
1701,PLAYER_SLEEPBEFORE_START,1516300307406,185
1701,PLAYER_SLEEPBEFORE_END,1516300307674,185
1701,WS_SEND_START,1516300307674,185
1701,WS_SEND_END,1516300307674,185
1701,WS_RECV_START,1516300307674,186
1701,WS_RECV_END,1516300308414,186
1701,PLAYER_SLEEPBEFORE_START,1516300308414,187
1701,PLAYER_SLEEPBEFORE_END,1516300330914,187
1701,WS_SEND_START,1516300330914,187
1701,WS_SEND_END,1516300330914,187
1701,WS_RECV_START,1516300330914,188
1701,WS_RECV_END,1516300331182,188
1701,PLAYER_SLEEPBEFORE_START,1516300331182,189
1701,PLAYER_SLEEPBEFORE_END,1516300337421,189
1701,WS_SEND_START,1516300337421,189
1701,WS_SEND_END,1516300337421,189
1701,WS_RECV_START,1516300337421,190
1701,WS_RECV_END,1516300337599,190
1701,PLAYER_SLEEPBEFORE_START,1516300337599,191
1701,PLAYER_SLEEPBEFORE_END,1516300339514,191
1701,WS_SEND_START,1516300339514,191
1701,WS_SEND_END,1516300339514,191
1701,WS_RECV_START,1516300339514,192
1701,WS_RECV_END,1516300339632,192
1701,PLAYER_SLEEPBEFORE_START,1516300339633,193
1701,PLAYER_SLEEPBEFORE_END,1516300339761,193
1701,WS_SEND_START,1516300339761,193
1701,WS_SEND_END,1516300339761,193
1701,WS_RECV_START,1516300339761,194
1701,WS_RECV_END,1516300339920,194
1701,PLAYER_SLEEPBEFORE_START,1516300339920,195
1701,PLAYER_SLEEPBEFORE_END,1516300341675,195
1701,WS_SEND_START,1516300341675,195
1701,WS_SEND_END,1516300341675,195
1701,WS_RECV_START,1516300341675,196
1701,WS_RECV_END,1516300342093,196
1701,PLAYER_SLEEPBEFORE_START,1516300342093,197
1701,PLAYER_SLEEPBEFORE_END,1516300343897,197
1701,WS_SEND_START,1516300343897,197
1701,WS_SEND_END,1516300343897,197
1701,WS_RECV_START,1516300343897,198
1701,WS_RECV_END,1516300344192,198
1701,PLAYER_SLEEPBEFORE_START,1516300344192,199
1701,PLAYER_SLEEPBEFORE_END,1516300356046,199
1701,WS_SEND_START,1516300356046,199
1701,WS_SEND_END,1516300356046,199
1701,PLAYER_SLEEPBEFORE_START,1516300356046,200
1701,PLAYER_SLEEPBEFORE_END,1516300360134,200
1701,WS_SEND_START,1516300360134,200
1701,WS_SEND_END,1516300360134,200
1701,WS_RECV_START,1516300360134,201
1701,WS_RECV_END,1516300360265,201
1701,PLAYER_SLEEPBEFORE_START,1516300360265,202
1701,PLAYER_SLEEPBEFORE_END,1516300360279,202
1701,WS_SEND_START,1516300360279,202
1701,WS_SEND_END,1516300360279,202
1701,WS_RECV_START,1516300360279,203
1701,WS_RECV_END,1516300360674,203
1701,PLAYER_SLEEPBEFORE_START,1516300360674,204
1701,PLAYER_SLEEPBEFORE_END,1516300380324,204
1701,WS_SEND_START,1516300380324,204
1701,WS_SEND_END,1516300380324,204
1701,PLAYER_SLEEPBEFORE_START,1516300380324,205
1701,PLAYER_SLEEPBEFORE_END,1516300384222,205
1701,WS_SEND_START,1516300384222,205
1701,WS_SEND_END,1516300384222,205
1701,WS_RECV_START,1516300384222,206
1701,WS_RECV_END,1516300384354,206
1701,PLAYER_SLEEPBEFORE_START,1516300384354,207
1701,PLAYER_SLEEPBEFORE_END,1516300401285,207
1701,REQ_START,1516300401285,207
1701,REQ_END,1516300401291,207
1701,PLAYER_SLEEPBEFORE_START,1516300401291,208
1701,PLAYER_SLEEPBEFORE_END,1516300408143,208
1701,WS_CLOSE_START,1516300408143,208
1701,WS_CLOSE_END,1516300408143,208
1701,PLAYER_DONE,1516300408143
