# --sessions 2700 --app-url=http://shinyloadtest.rstudioservices.com/cran_explorer --output-dir test2700 --overwrite-output --log-level warn --start-interval 100 15min.log
thread_id,event,timestamp,input_line_number,comment
1774,PLAYER_SESSION_CREATE,1516299246021
1774,PLAYER_START_INTERVAL_START,1516299246021
1774,PLAYER_START_INTERVAL_END,1516299423421
1774,REQ_HOME_START,1516299423422,2
1774,REQ_HOME_END,1516299423726,2
1774,REQ_START,1516299423726,3
1774,REQ_END,1516299424123,3
1774,REQ_START,1516299424123,4
1774,REQ_END,1516299424161,4
1774,REQ_START,1516299424161,5
1774,REQ_END,1516299424228,5
1774,REQ_START,1516299424228,6
1774,REQ_END,1516299424299,6
1774,REQ_START,1516299424299,7
1774,REQ_END,1516299424363,7
1774,REQ_START,1516299424363,8
1774,REQ_END,1516299424436,8
1774,REQ_START,1516299424436,9
1774,REQ_END,1516299424504,9
1774,REQ_START,1516299424504,10
1774,REQ_END,1516299424510,10
1774,REQ_START,1516299424510,11
1774,REQ_END,1516299424566,11
1774,REQ_START,1516299424566,12
1774,REQ_END,1516299424573,12
1774,REQ_START,1516299424573,13
1774,REQ_END,1516299424628,13
1774,REQ_START,1516299424628,14
1774,REQ_END,1516299424639,14
1774,REQ_START,1516299424639,15
1774,REQ_END,1516299424700,15
1774,REQ_TOK_START,1516299424700,16
1774,REQ_TOK_END,1516299424704,16
1774,REQ_SINF_START,1516299424704,17
1774,REQ_SINF_END,1516299424709,17
1774,WS_OPEN_START,1516299424709,18
1774,WS_OPEN_END,1516299424713,18
1774,REQ_START,1516299424713,19
1774,REQ_END,1516299424746,19
1774,WS_RECV_START,1516299424746,20
1774,WS_RECV_END,1516299424746,20
1774,PLAYER_SLEEPBEFORE_START,1516299424746,21
1774,PLAYER_SLEEPBEFORE_END,1516299424751,21
1774,WS_SEND_START,1516299424751,21
1774,WS_SEND_END,1516299424751,21
1774,PLAYER_SLEEPBEFORE_START,1516299424751,22
1774,PLAYER_SLEEPBEFORE_END,1516299424752,22
1774,WS_SEND_START,1516299424752,22
1774,WS_SEND_END,1516299424752,22
1774,WS_RECV_INIT_START,1516299424752,23
1774,WS_RECV_INIT_END,1516299424799,23
1774,WS_RECV_START,1516299424799,24
1774,WS_RECV_END,1516299424877,24
1774,PLAYER_SLEEPBEFORE_START,1516299424877,25
1774,PLAYER_SLEEPBEFORE_END,1516299424884,25
1774,REQ_START,1516299424884,25
1774,REQ_END,1516299425200,25
1774,PLAYER_SLEEPBEFORE_START,1516299425200,26
1774,PLAYER_SLEEPBEFORE_END,1516299425201,26
1774,REQ_START,1516299425201,26
1774,REQ_END,1516299425817,26
1774,PLAYER_SLEEPBEFORE_START,1516299425817,27
1774,PLAYER_SLEEPBEFORE_END,1516299425820,27
1774,REQ_START,1516299425820,27
1774,REQ_END,1516299425911,27
1774,PLAYER_SLEEPBEFORE_START,1516299425911,28
1774,PLAYER_SLEEPBEFORE_END,1516299426196,28
1774,REQ_START,1516299426196,28
1774,REQ_END,1516299426786,28
1774,PLAYER_SLEEPBEFORE_START,1516299426786,29
1774,PLAYER_SLEEPBEFORE_END,1516299426961,29
1774,WS_SEND_START,1516299426961,29
1774,WS_SEND_END,1516299426961,29
1774,WS_RECV_START,1516299426961,30
1774,WS_RECV_END,1516299427248,30
1774,PLAYER_SLEEPBEFORE_START,1516299427248,31
1774,PLAYER_SLEEPBEFORE_END,1516299427259,31
1774,REQ_START,1516299427259,31
1774,REQ_END,1516299427471,31
1774,PLAYER_SLEEPBEFORE_START,1516299427471,32
1774,PLAYER_SLEEPBEFORE_END,1516299455616,32
1774,WS_SEND_START,1516299455616,32
1774,WS_SEND_END,1516299455616,32
1774,WS_RECV_START,1516299455616,33
1774,WS_RECV_END,1516299455847,33
1774,PLAYER_SLEEPBEFORE_START,1516299455847,34
1774,PLAYER_SLEEPBEFORE_END,1516299481758,34
1774,WS_SEND_START,1516299481758,34
1774,WS_SEND_END,1516299481758,34
1774,WS_RECV_START,1516299481758,35
1774,WS_RECV_END,1516299481841,35
1774,PLAYER_SLEEPBEFORE_START,1516299481841,36
1774,PLAYER_SLEEPBEFORE_END,1516299481850,36
1774,WS_SEND_START,1516299481850,36
1774,WS_SEND_END,1516299481850,36
1774,WS_RECV_START,1516299481850,37
1774,WS_RECV_END,1516299481949,37
1774,PLAYER_SLEEPBEFORE_START,1516299481949,38
1774,PLAYER_SLEEPBEFORE_END,1516299485144,38
1774,WS_SEND_START,1516299485144,38
1774,WS_SEND_END,1516299485144,38
1774,WS_RECV_START,1516299485144,39
1774,WS_RECV_END,1516299485358,39
1774,PLAYER_SLEEPBEFORE_START,1516299485358,40
1774,PLAYER_SLEEPBEFORE_END,1516299485404,40
1774,WS_SEND_START,1516299485404,40
1774,WS_SEND_END,1516299485404,40
1774,WS_RECV_START,1516299485404,41
1774,WS_RECV_END,1516299485686,41
1774,PLAYER_SLEEPBEFORE_START,1516299485686,42
1774,PLAYER_SLEEPBEFORE_END,1516299503821,42
1774,WS_SEND_START,1516299503821,42
1774,WS_SEND_END,1516299503821,42
1774,WS_RECV_START,1516299503821,43
1774,WS_RECV_END,1516299504068,43
1774,PLAYER_SLEEPBEFORE_START,1516299504068,44
1774,PLAYER_SLEEPBEFORE_END,1516299504080,44
1774,WS_SEND_START,1516299504080,44
1774,WS_SEND_END,1516299504080,44
1774,WS_RECV_START,1516299504080,45
1774,WS_RECV_END,1516299504211,45
1774,PLAYER_SLEEPBEFORE_START,1516299504211,46
1774,PLAYER_SLEEPBEFORE_END,1516299505471,46
1774,WS_SEND_START,1516299505471,46
1774,WS_SEND_END,1516299505471,46
1774,WS_RECV_START,1516299505471,47
1774,WS_RECV_END,1516299505734,47
1774,PLAYER_SLEEPBEFORE_START,1516299505734,48
1774,PLAYER_SLEEPBEFORE_END,1516299507054,48
1774,WS_SEND_START,1516299507054,48
1774,WS_SEND_END,1516299507054,48
1774,WS_RECV_START,1516299507054,49
1774,WS_RECV_END,1516299507792,49
1774,PLAYER_SLEEPBEFORE_START,1516299507792,50
1774,PLAYER_SLEEPBEFORE_END,1516299507817,50
1774,WS_SEND_START,1516299507817,50
1774,WS_SEND_END,1516299507817,50
1774,WS_RECV_START,1516299507817,51
1774,WS_RECV_END,1516299508305,51
1774,PLAYER_SLEEPBEFORE_START,1516299508305,52
1774,PLAYER_SLEEPBEFORE_END,1516299530869,52
1774,WS_SEND_START,1516299530869,52
1774,WS_SEND_END,1516299530869,52
1774,WS_RECV_START,1516299530869,53
1774,WS_RECV_END,1516299532162,53
1774,PLAYER_SLEEPBEFORE_START,1516299532162,54
1774,PLAYER_SLEEPBEFORE_END,1516299553465,54
1774,WS_SEND_START,1516299553465,54
1774,WS_SEND_END,1516299553465,54
1774,PLAYER_SLEEPBEFORE_START,1516299553465,55
1774,PLAYER_SLEEPBEFORE_END,1516299555407,55
1774,WS_SEND_START,1516299555407,55
1774,WS_SEND_END,1516299555407,55
1774,WS_RECV_START,1516299555407,56
1774,WS_RECV_END,1516299555672,56
1774,PLAYER_SLEEPBEFORE_START,1516299555672,57
1774,PLAYER_SLEEPBEFORE_END,1516299578545,57
1774,WS_SEND_START,1516299578545,57
1774,WS_SEND_END,1516299578545,57
1774,WS_RECV_START,1516299578545,58
1774,WS_RECV_END,1516299581804,58
1774,PLAYER_SLEEPBEFORE_START,1516299581804,59
1774,PLAYER_SLEEPBEFORE_END,1516299584131,59
1774,WS_SEND_START,1516299584131,59
1774,WS_SEND_END,1516299584131,59
1774,WS_RECV_START,1516299584131,60
1774,WS_RECV_END,1516299585600,60
1774,PLAYER_SLEEPBEFORE_START,1516299585600,61
1774,PLAYER_SLEEPBEFORE_END,1516299589192,61
1774,WS_SEND_START,1516299589192,61
1774,WS_SEND_END,1516299589192,61
1774,WS_RECV_START,1516299589192,62
1774,WS_RECV_END,1516299590584,62
1774,PLAYER_SLEEPBEFORE_START,1516299590584,63
1774,PLAYER_SLEEPBEFORE_END,1516299609846,63
1774,WS_SEND_START,1516299609846,63
1774,WS_SEND_END,1516299609846,63
1774,WS_RECV_START,1516299609846,64
1774,WS_RECV_END,1516299610515,64
1774,PLAYER_SLEEPBEFORE_START,1516299610515,65
1774,PLAYER_SLEEPBEFORE_END,1516299637332,65
1774,WS_SEND_START,1516299637332,65
1774,WS_SEND_END,1516299637332,65
1774,WS_RECV_START,1516299637332,66
1774,WS_RECV_END,1516299639527,66
1774,PLAYER_SLEEPBEFORE_START,1516299639527,67
1774,PLAYER_SLEEPBEFORE_END,1516299641034,67
1774,WS_SEND_START,1516299641034,67
1774,WS_SEND_END,1516299641034,67
1774,WS_RECV_START,1516299641034,68
1774,WS_RECV_END,1516299642054,68
1774,PLAYER_SLEEPBEFORE_START,1516299642054,69
1774,PLAYER_SLEEPBEFORE_END,1516299664052,69
1774,WS_SEND_START,1516299664052,69
1774,WS_SEND_END,1516299664053,69
1774,WS_RECV_START,1516299664053,70
1774,WS_RECV_END,1516299665437,70
1774,PLAYER_SLEEPBEFORE_START,1516299665437,71
1774,PLAYER_SLEEPBEFORE_END,1516299690212,71
1774,WS_SEND_START,1516299690213,71
1774,WS_SEND_END,1516299690213,71
1774,PLAYER_SLEEPBEFORE_START,1516299690213,72
1774,PLAYER_SLEEPBEFORE_END,1516299692820,72
1774,WS_SEND_START,1516299692820,72
1774,WS_SEND_END,1516299692820,72
1774,WS_RECV_START,1516299692820,73
1774,WS_RECV_END,1516299693119,73
1774,PLAYER_SLEEPBEFORE_START,1516299693119,74
1774,PLAYER_SLEEPBEFORE_END,1516299693128,74
1774,WS_SEND_START,1516299693128,74
1774,WS_SEND_END,1516299693128,74
1774,WS_RECV_START,1516299693128,75
1774,WS_RECV_END,1516299693305,75
1774,PLAYER_SLEEPBEFORE_START,1516299693305,76
1774,PLAYER_SLEEPBEFORE_END,1516299694811,76
1774,WS_SEND_START,1516299694811,76
1774,WS_SEND_END,1516299694811,76
1774,WS_RECV_START,1516299694811,77
1774,WS_RECV_END,1516299695314,77
1774,PLAYER_SLEEPBEFORE_START,1516299695314,78
1774,PLAYER_SLEEPBEFORE_END,1516299696182,78
1774,WS_SEND_START,1516299696182,78
1774,WS_SEND_END,1516299696182,78
1774,WS_RECV_START,1516299696182,79
1774,WS_RECV_END,1516299697041,79
1774,PLAYER_SLEEPBEFORE_START,1516299697041,80
1774,PLAYER_SLEEPBEFORE_END,1516299704708,80
1774,WS_SEND_START,1516299704708,80
1774,WS_SEND_END,1516299704708,80
1774,WS_RECV_START,1516299704708,81
1774,WS_RECV_END,1516299704772,81
1774,PLAYER_SLEEPBEFORE_START,1516299704772,82
1774,PLAYER_SLEEPBEFORE_END,1516299705874,82
1774,WS_SEND_START,1516299705874,82
1774,WS_SEND_END,1516299705874,82
1774,WS_RECV_START,1516299705874,83
1774,WS_RECV_END,1516299706202,83
1774,PLAYER_SLEEPBEFORE_START,1516299706202,84
1774,PLAYER_SLEEPBEFORE_END,1516299707149,84
1774,WS_SEND_START,1516299707149,84
1774,WS_SEND_END,1516299707149,84
1774,WS_RECV_START,1516299707149,85
1774,WS_RECV_END,1516299707177,85
1774,PLAYER_SLEEPBEFORE_START,1516299707177,86
1774,PLAYER_SLEEPBEFORE_END,1516299711349,86
1774,WS_SEND_START,1516299711349,86
1774,WS_SEND_END,1516299711349,86
1774,WS_RECV_START,1516299711349,87
1774,WS_RECV_END,1516299712116,87
1774,PLAYER_SLEEPBEFORE_START,1516299712116,88
1774,PLAYER_SLEEPBEFORE_END,1516299712124,88
1774,WS_SEND_START,1516299712124,88
1774,WS_SEND_END,1516299712124,88
1774,WS_RECV_START,1516299712124,89
1774,WS_RECV_END,1516299712500,89
1774,PLAYER_SLEEPBEFORE_START,1516299712500,90
1774,PLAYER_SLEEPBEFORE_END,1516299739697,90
1774,REQ_START,1516299739697,90
1774,REQ_END,1516299739702,90
1774,PLAYER_SLEEPBEFORE_START,1516299739702,91
1774,PLAYER_SLEEPBEFORE_END,1516299747591,91
1774,WS_SEND_START,1516299747591,91
1774,WS_SEND_END,1516299747592,91
1774,WS_RECV_START,1516299747592,92
1774,WS_RECV_END,1516299750072,92
1774,PLAYER_SLEEPBEFORE_START,1516299750072,93
1774,PLAYER_SLEEPBEFORE_END,1516299750087,93
1774,WS_SEND_START,1516299750087,93
1774,WS_SEND_END,1516299750087,93
1774,WS_RECV_START,1516299750087,94
1774,WS_RECV_END,1516299752288,94
1774,PLAYER_SLEEPBEFORE_START,1516299752288,95
1774,PLAYER_SLEEPBEFORE_END,1516299775843,95
1774,WS_SEND_START,1516299775843,95
1774,WS_SEND_END,1516299775843,95
1774,WS_RECV_START,1516299775843,96
1774,WS_RECV_END,1516299780817,96
1774,PLAYER_SLEEPBEFORE_START,1516299780817,97
1774,PLAYER_SLEEPBEFORE_END,1516299803257,97
1774,WS_SEND_START,1516299803257,97
1774,WS_SEND_END,1516299803257,97
1774,WS_RECV_START,1516299803257,98
1774,WS_RECV_END,1516299807850,98
1774,PLAYER_SLEEPBEFORE_START,1516299807850,99
1774,PLAYER_SLEEPBEFORE_END,1516299807871,99
1774,WS_SEND_START,1516299807871,99
1774,WS_SEND_END,1516299807872,99
1774,WS_RECV_START,1516299807872,100
1774,WS_RECV_END,1516299810007,100
1774,PLAYER_SLEEPBEFORE_START,1516299810007,101
1774,PLAYER_SLEEPBEFORE_END,1516299833566,101
1774,WS_SEND_START,1516299833566,101
1774,WS_SEND_END,1516299833566,101
1774,WS_RECV_START,1516299833566,102
1774,WS_RECV_END,1516299838383,102
1774,PLAYER_SLEEPBEFORE_START,1516299838383,103
1774,PLAYER_SLEEPBEFORE_END,1516299862008,103
1774,WS_SEND_START,1516299862008,103
1774,WS_SEND_END,1516299862008,103
1774,WS_RECV_START,1516299862008,104
1774,WS_RECV_END,1516299865570,104
1774,PLAYER_SLEEPBEFORE_START,1516299865570,105
1774,PLAYER_SLEEPBEFORE_END,1516299890947,105
1774,WS_SEND_START,1516299890947,105
1774,WS_SEND_END,1516299890947,105
1774,WS_RECV_START,1516299890947,106
1774,WS_RECV_END,1516299898786,106
1774,PLAYER_SLEEPBEFORE_START,1516299898786,107
1774,PLAYER_SLEEPBEFORE_END,1516299922210,107
1774,WS_SEND_START,1516299922210,107
1774,WS_SEND_END,1516299922210,107
1774,WS_RECV_START,1516299922210,108
1774,WS_RECV_END,1516299926187,108
1774,PLAYER_SLEEPBEFORE_START,1516299926187,109
1774,PLAYER_SLEEPBEFORE_END,1516299926196,109
1774,WS_SEND_START,1516299926196,109
1774,WS_SEND_END,1516299926196,109
1774,WS_RECV_START,1516299926196,110
1774,WS_RECV_END,1516299927241,110
1774,PLAYER_SLEEPBEFORE_START,1516299927241,111
1774,PLAYER_SLEEPBEFORE_END,1516299928200,111
1774,WS_SEND_START,1516299928200,111
1774,WS_SEND_END,1516299928200,111
1774,WS_RECV_START,1516299928200,112
1774,WS_RECV_END,1516299929355,112
1774,PLAYER_SLEEPBEFORE_START,1516299929355,113
1774,PLAYER_SLEEPBEFORE_END,1516299929917,113
1774,WS_SEND_START,1516299929917,113
1774,WS_SEND_END,1516299929917,113
1774,WS_RECV_START,1516299929917,114
1774,WS_RECV_END,1516299930592,114
1774,PLAYER_SLEEPBEFORE_START,1516299930592,115
1774,PLAYER_SLEEPBEFORE_END,1516299930601,115
1774,WS_SEND_START,1516299930601,115
1774,WS_SEND_END,1516299930601,115
1774,WS_RECV_START,1516299930601,116
1774,WS_RECV_END,1516299932614,116
1774,PLAYER_SLEEPBEFORE_START,1516299932614,117
1774,PLAYER_SLEEPBEFORE_END,1516299952974,117
1774,WS_SEND_START,1516299952974,117
1774,WS_SEND_END,1516299952974,117
1774,PLAYER_SLEEPBEFORE_START,1516299952974,118
1774,PLAYER_SLEEPBEFORE_END,1516299956727,118
1774,WS_SEND_START,1516299956727,118
1774,WS_SEND_END,1516299956727,118
1774,WS_RECV_START,1516299956727,119
1774,WS_RECV_END,1516299957851,119
1774,PLAYER_SLEEPBEFORE_START,1516299957851,120
1774,PLAYER_SLEEPBEFORE_END,1516299958839,120
1774,WS_SEND_START,1516299958839,120
1774,WS_SEND_END,1516299958839,120
1774,WS_RECV_START,1516299958839,121
1774,WS_RECV_END,1516299959310,121
1774,PLAYER_SLEEPBEFORE_START,1516299959310,122
1774,PLAYER_SLEEPBEFORE_END,1516299960495,122
1774,WS_SEND_START,1516299960495,122
1774,WS_SEND_END,1516299960495,122
1774,WS_RECV_START,1516299960495,123
1774,WS_RECV_END,1516299960931,123
1774,PLAYER_SLEEPBEFORE_START,1516299960931,124
1774,PLAYER_SLEEPBEFORE_END,1516299985336,124
1774,WS_SEND_START,1516299985336,124
1774,WS_SEND_END,1516299985336,124
1774,WS_RECV_START,1516299985336,125
1774,WS_RECV_END,1516299985801,125
1774,PLAYER_SLEEPBEFORE_START,1516299985801,126
1774,PLAYER_SLEEPBEFORE_END,1516300006313,126
1774,WS_SEND_START,1516300006313,126
1774,WS_SEND_END,1516300006314,126
1774,PLAYER_SLEEPBEFORE_START,1516300006314,127
1774,PLAYER_SLEEPBEFORE_END,1516300009368,127
1774,WS_SEND_START,1516300009368,127
1774,WS_SEND_END,1516300009368,127
1774,WS_RECV_START,1516300009368,128
1774,WS_RECV_END,1516300010351,128
1774,PLAYER_SLEEPBEFORE_START,1516300010351,129
1774,PLAYER_SLEEPBEFORE_END,1516300010371,129
1774,WS_SEND_START,1516300010371,129
1774,WS_SEND_END,1516300010371,129
1774,WS_RECV_START,1516300010371,130
1774,WS_RECV_END,1516300010797,130
1774,PLAYER_SLEEPBEFORE_START,1516300010797,131
1774,PLAYER_SLEEPBEFORE_END,1516300032421,131
1774,WS_SEND_START,1516300032421,131
1774,WS_SEND_END,1516300032421,131
1774,PLAYER_SLEEPBEFORE_START,1516300032422,132
1774,PLAYER_SLEEPBEFORE_END,1516300035502,132
1774,WS_SEND_START,1516300035502,132
1774,WS_SEND_END,1516300035502,132
1774,WS_RECV_START,1516300035502,133
1774,WS_RECV_END,1516300035738,133
1774,PLAYER_SLEEPBEFORE_START,1516300035738,134
1774,PLAYER_SLEEPBEFORE_END,1516300056955,134
1774,WS_SEND_START,1516300056955,134
1774,WS_SEND_END,1516300056955,134
1774,PLAYER_SLEEPBEFORE_START,1516300056955,135
1774,PLAYER_SLEEPBEFORE_END,1516300060145,135
1774,WS_SEND_START,1516300060145,135
1774,WS_SEND_END,1516300060145,135
1774,WS_RECV_START,1516300060145,136
1774,WS_RECV_END,1516300060176,136
1774,PLAYER_SLEEPBEFORE_START,1516300060176,137
1774,PLAYER_SLEEPBEFORE_END,1516300060183,137
1774,WS_SEND_START,1516300060183,137
1774,WS_SEND_END,1516300060183,137
1774,WS_RECV_START,1516300060183,138
1774,WS_RECV_END,1516300060276,138
1774,PLAYER_SLEEPBEFORE_START,1516300060276,139
1774,PLAYER_SLEEPBEFORE_END,1516300060966,139
1774,WS_SEND_START,1516300060966,139
1774,WS_SEND_END,1516300060966,139
1774,WS_RECV_START,1516300060966,140
1774,WS_RECV_END,1516300061047,140
1774,PLAYER_SLEEPBEFORE_START,1516300061047,141
1774,PLAYER_SLEEPBEFORE_END,1516300061702,141
1774,WS_SEND_START,1516300061702,141
1774,WS_SEND_END,1516300061702,141
1774,WS_RECV_START,1516300061702,142
1774,WS_RECV_END,1516300061981,142
1774,PLAYER_SLEEPBEFORE_START,1516300061981,143
1774,PLAYER_SLEEPBEFORE_END,1516300062038,143
1774,WS_SEND_START,1516300062038,143
1774,WS_SEND_END,1516300062038,143
1774,WS_RECV_START,1516300062038,144
1774,WS_RECV_END,1516300062191,144
1774,PLAYER_SLEEPBEFORE_START,1516300062191,145
1774,PLAYER_SLEEPBEFORE_END,1516300078254,145
1774,REQ_START,1516300078254,145
1774,REQ_END,1516300078260,145
1774,PLAYER_SLEEPBEFORE_START,1516300078260,146
1774,PLAYER_SLEEPBEFORE_END,1516300087137,146
1774,WS_SEND_START,1516300087137,146
1774,WS_SEND_END,1516300087137,146
1774,WS_RECV_START,1516300087137,147
1774,WS_RECV_END,1516300087406,147
1774,PLAYER_SLEEPBEFORE_START,1516300087406,148
1774,PLAYER_SLEEPBEFORE_END,1516300109329,148
1774,WS_SEND_START,1516300109329,148
1774,WS_SEND_END,1516300109329,148
1774,PLAYER_SLEEPBEFORE_START,1516300109329,149
1774,PLAYER_SLEEPBEFORE_END,1516300111757,149
1774,WS_SEND_START,1516300111757,149
1774,WS_SEND_END,1516300111757,149
1774,WS_RECV_START,1516300111757,150
1774,WS_RECV_END,1516300112180,150
1774,PLAYER_SLEEPBEFORE_START,1516300112180,151
1774,PLAYER_SLEEPBEFORE_END,1516300112390,151
1774,WS_SEND_START,1516300112390,151
1774,WS_SEND_END,1516300112390,151
1774,WS_RECV_START,1516300112390,152
1774,WS_RECV_END,1516300112592,152
1774,PLAYER_SLEEPBEFORE_START,1516300112592,153
1774,PLAYER_SLEEPBEFORE_END,1516300136519,153
1774,WS_SEND_START,1516300136519,153
1774,WS_SEND_END,1516300136519,153
1774,WS_RECV_START,1516300136519,154
1774,WS_RECV_END,1516300139855,154
1774,PLAYER_SLEEPBEFORE_START,1516300139855,155
1774,PLAYER_SLEEPBEFORE_END,1516300162414,155
1774,WS_SEND_START,1516300162414,155
1774,WS_SEND_END,1516300162414,155
1774,PLAYER_SLEEPBEFORE_START,1516300162414,156
1774,PLAYER_SLEEPBEFORE_END,1516300165688,156
1774,WS_SEND_START,1516300165688,156
1774,WS_SEND_END,1516300165688,156
1774,WS_RECV_START,1516300165688,157
1774,WS_RECV_END,1516300168655,157
1774,PLAYER_SLEEPBEFORE_START,1516300168655,158
1774,PLAYER_SLEEPBEFORE_END,1516300168665,158
1774,WS_SEND_START,1516300168665,158
1774,WS_SEND_END,1516300168665,158
1774,WS_RECV_START,1516300168665,159
1774,WS_RECV_END,1516300169253,159
1774,PLAYER_SLEEPBEFORE_START,1516300169253,160
1774,PLAYER_SLEEPBEFORE_END,1516300169428,160
1774,WS_SEND_START,1516300169428,160
1774,WS_SEND_END,1516300169428,160
1774,WS_RECV_START,1516300169428,161
1774,WS_RECV_END,1516300171134,161
1774,PLAYER_SLEEPBEFORE_START,1516300171134,162
1774,PLAYER_SLEEPBEFORE_END,1516300171159,162
1774,WS_SEND_START,1516300171159,162
1774,WS_SEND_END,1516300171159,162
1774,WS_RECV_START,1516300171159,163
1774,WS_RECV_END,1516300172674,163
1774,PLAYER_SLEEPBEFORE_START,1516300172674,164
1774,PLAYER_SLEEPBEFORE_END,1516300193486,164
1774,WS_SEND_START,1516300193486,164
1774,WS_SEND_END,1516300193486,164
1774,WS_RECV_START,1516300193486,165
1774,WS_RECV_END,1516300198152,165
1774,PLAYER_SLEEPBEFORE_START,1516300198152,166
1774,PLAYER_SLEEPBEFORE_END,1516300220607,166
1774,WS_SEND_START,1516300220607,166
1774,WS_SEND_END,1516300220607,166
1774,WS_RECV_START,1516300220607,167
1774,WS_RECV_END,1516300224156,167
1774,PLAYER_SLEEPBEFORE_START,1516300224156,168
1774,PLAYER_SLEEPBEFORE_END,1516300251513,168
1774,WS_SEND_START,1516300251513,168
1774,WS_SEND_END,1516300251513,168
1774,WS_RECV_START,1516300251513,169
1774,WS_RECV_END,1516300253571,169
1774,PLAYER_SLEEPBEFORE_START,1516300253571,170
1774,PLAYER_SLEEPBEFORE_END,1516300253580,170
1774,WS_SEND_START,1516300253580,170
1774,WS_SEND_END,1516300253580,170
1774,WS_RECV_START,1516300253580,171
1774,WS_RECV_END,1516300255141,171
1774,PLAYER_SLEEPBEFORE_START,1516300255141,172
1774,PLAYER_SLEEPBEFORE_END,1516300255510,172
1774,WS_SEND_START,1516300255510,172
1774,WS_SEND_END,1516300255510,172
1774,WS_RECV_START,1516300255510,173
1774,WS_RECV_END,1516300257079,173
1774,PLAYER_SLEEPBEFORE_START,1516300257079,174
1774,PLAYER_SLEEPBEFORE_END,1516300257120,174
1774,WS_SEND_START,1516300257120,174
1774,WS_SEND_END,1516300257120,174
1774,WS_RECV_START,1516300257120,175
1774,WS_RECV_END,1516300259267,175
1774,PLAYER_SLEEPBEFORE_START,1516300259267,176
1774,PLAYER_SLEEPBEFORE_END,1516300281028,176
1774,WS_SEND_START,1516300281028,176
1774,WS_SEND_END,1516300281028,176
1774,PLAYER_SLEEPBEFORE_START,1516300281028,177
1774,PLAYER_SLEEPBEFORE_END,1516300283546,177
1774,WS_SEND_START,1516300283546,177
1774,WS_SEND_END,1516300283546,177
1774,WS_RECV_START,1516300283546,178
1774,WS_RECV_END,1516300286758,178
1774,PLAYER_SLEEPBEFORE_START,1516300286758,179
1774,PLAYER_SLEEPBEFORE_END,1516300309098,179
1774,WS_SEND_START,1516300309098,179
1774,WS_SEND_END,1516300309098,179
1774,WS_RECV_START,1516300309098,180
1774,WS_RECV_END,1516300309351,180
1774,PLAYER_SLEEPBEFORE_START,1516300309351,181
1774,PLAYER_SLEEPBEFORE_END,1516300309795,181
1774,WS_SEND_START,1516300309795,181
1774,WS_SEND_END,1516300309795,181
1774,WS_RECV_START,1516300309795,182
1774,WS_RECV_END,1516300310238,182
1774,PLAYER_SLEEPBEFORE_START,1516300310238,183
1774,PLAYER_SLEEPBEFORE_END,1516300310761,183
1774,WS_SEND_START,1516300310761,183
1774,WS_SEND_END,1516300310761,183
1774,WS_RECV_START,1516300310761,184
1774,WS_RECV_END,1516300311061,184
1774,PLAYER_SLEEPBEFORE_START,1516300311061,185
1774,PLAYER_SLEEPBEFORE_END,1516300311329,185
1774,WS_SEND_START,1516300311329,185
1774,WS_SEND_END,1516300311329,185
1774,WS_RECV_START,1516300311329,186
1774,WS_RECV_END,1516300311560,186
1774,PLAYER_SLEEPBEFORE_START,1516300311560,187
1774,PLAYER_SLEEPBEFORE_END,1516300334060,187
1774,WS_SEND_START,1516300334060,187
1774,WS_SEND_END,1516300334060,187
1774,WS_RECV_START,1516300334060,188
1774,WS_RECV_END,1516300334403,188
1774,PLAYER_SLEEPBEFORE_START,1516300334403,189
1774,PLAYER_SLEEPBEFORE_END,1516300340642,189
1774,WS_SEND_START,1516300340642,189
1774,WS_SEND_END,1516300340642,189
1774,WS_RECV_START,1516300340642,190
1774,WS_RECV_END,1516300341084,190
1774,PLAYER_SLEEPBEFORE_START,1516300341084,191
1774,PLAYER_SLEEPBEFORE_END,1516300342999,191
1774,WS_SEND_START,1516300342999,191
1774,WS_SEND_END,1516300342999,191
1774,WS_RECV_START,1516300342999,192
1774,WS_RECV_END,1516300343801,192
1774,PLAYER_SLEEPBEFORE_START,1516300343801,193
1774,PLAYER_SLEEPBEFORE_END,1516300343930,193
1774,WS_SEND_START,1516300343930,193
1774,WS_SEND_END,1516300343930,193
1774,WS_RECV_START,1516300343930,194
1774,WS_RECV_END,1516300344575,194
1774,PLAYER_SLEEPBEFORE_START,1516300344575,195
1774,PLAYER_SLEEPBEFORE_END,1516300346330,195
1774,WS_SEND_START,1516300346330,195
1774,WS_SEND_END,1516300346330,195
1774,WS_RECV_START,1516300346330,196
1774,WS_RECV_END,1516300346601,196
1774,PLAYER_SLEEPBEFORE_START,1516300346601,197
1774,PLAYER_SLEEPBEFORE_END,1516300348405,197
1774,WS_SEND_START,1516300348405,197
1774,WS_SEND_END,1516300348405,197
1774,WS_RECV_START,1516300348405,198
1774,WS_RECV_END,1516300348828,198
1774,PLAYER_SLEEPBEFORE_START,1516300348828,199
1774,PLAYER_SLEEPBEFORE_END,1516300360682,199
1774,WS_SEND_START,1516300360682,199
1774,WS_SEND_END,1516300360682,199
1774,PLAYER_SLEEPBEFORE_START,1516300360682,200
1774,PLAYER_SLEEPBEFORE_END,1516300364770,200
1774,WS_SEND_START,1516300364770,200
1774,WS_SEND_END,1516300364770,200
1774,WS_RECV_START,1516300364770,201
1774,WS_RECV_END,1516300364979,201
1774,PLAYER_SLEEPBEFORE_START,1516300364979,202
1774,PLAYER_SLEEPBEFORE_END,1516300364993,202
1774,WS_SEND_START,1516300364993,202
1774,WS_SEND_END,1516300364993,202
1774,WS_RECV_START,1516300364993,203
1774,WS_RECV_END,1516300365100,203
1774,PLAYER_SLEEPBEFORE_START,1516300365100,204
1774,PLAYER_SLEEPBEFORE_END,1516300384750,204
1774,WS_SEND_START,1516300384750,204
1774,WS_SEND_END,1516300384750,204
1774,PLAYER_SLEEPBEFORE_START,1516300384750,205
1774,PLAYER_SLEEPBEFORE_END,1516300388648,205
1774,WS_SEND_START,1516300388648,205
1774,WS_SEND_END,1516300388648,205
1774,WS_RECV_START,1516300388648,206
1774,WS_RECV_END,1516300388869,206
1774,PLAYER_SLEEPBEFORE_START,1516300388869,207
1774,PLAYER_SLEEPBEFORE_END,1516300405800,207
1774,REQ_START,1516300405800,207
1774,REQ_END,1516300405806,207
1774,PLAYER_SLEEPBEFORE_START,1516300405806,208
1774,PLAYER_SLEEPBEFORE_END,1516300412658,208
1774,WS_CLOSE_START,1516300412658,208
1774,WS_CLOSE_END,1516300412658,208
1774,PLAYER_DONE,1516300412658
