# --sessions 2700 --app-url=http://shinyloadtest.rstudioservices.com/cran_explorer --output-dir test2700 --overwrite-output --log-level warn --start-interval 100 15min.log
thread_id,event,timestamp,input_line_number,comment
1853,PLAYER_SESSION_CREATE,1516299246133
1853,PLAYER_START_INTERVAL_START,1516299246133
1853,PLAYER_START_INTERVAL_END,1516299431433
1853,REQ_HOME_START,1516299431433,2
1853,REQ_HOME_END,1516299432085,2
1853,REQ_START,1516299432085,3
1853,REQ_END,1516299432125,3
1853,REQ_START,1516299432125,4
1853,REQ_END,1516299432163,4
1853,REQ_START,1516299432163,5
1853,REQ_END,1516299432205,5
1853,REQ_START,1516299432205,6
1853,REQ_END,1516299432246,6
1853,REQ_START,1516299432246,7
1853,REQ_END,1516299432286,7
1853,REQ_START,1516299432286,8
1853,REQ_END,1516299432324,8
1853,REQ_START,1516299432324,9
1853,REQ_END,1516299432365,9
1853,REQ_START,1516299432365,10
1853,REQ_END,1516299432370,10
1853,REQ_START,1516299432370,11
1853,REQ_END,1516299432408,11
1853,REQ_START,1516299432408,12
1853,REQ_END,1516299432417,12
1853,REQ_START,1516299432417,13
1853,REQ_END,1516299432456,13
1853,REQ_START,1516299432456,14
1853,REQ_END,1516299432472,14
1853,REQ_START,1516299432472,15
1853,REQ_END,1516299432519,15
1853,REQ_TOK_START,1516299432519,16
1853,REQ_TOK_END,1516299432525,16
1853,REQ_SINF_START,1516299432525,17
1853,REQ_SINF_END,1516299432530,17
1853,WS_OPEN_START,1516299432530,18
1853,WS_OPEN_END,1516299432534,18
1853,REQ_START,1516299432534,19
1853,REQ_END,1516299432712,19
1853,WS_RECV_START,1516299432712,20
1853,WS_RECV_END,1516299432712,20
1853,PLAYER_SLEEPBEFORE_START,1516299432712,21
1853,PLAYER_SLEEPBEFORE_END,1516299432717,21
1853,WS_SEND_START,1516299432717,21
1853,WS_SEND_END,1516299432717,21
1853,PLAYER_SLEEPBEFORE_START,1516299432717,22
1853,PLAYER_SLEEPBEFORE_END,1516299432719,22
1853,WS_SEND_START,1516299432719,22
1853,WS_SEND_END,1516299432719,22
1853,WS_RECV_INIT_START,1516299432719,23
1853,WS_RECV_INIT_END,1516299432741,23
1853,WS_RECV_START,1516299432741,24
1853,WS_RECV_END,1516299432796,24
1853,PLAYER_SLEEPBEFORE_START,1516299432796,25
1853,PLAYER_SLEEPBEFORE_END,1516299432803,25
1853,REQ_START,1516299432803,25
1853,REQ_END,1516299432844,25
1853,PLAYER_SLEEPBEFORE_START,1516299432844,26
1853,PLAYER_SLEEPBEFORE_END,1516299432845,26
1853,REQ_START,1516299432846,26
1853,REQ_END,1516299432879,26
1853,PLAYER_SLEEPBEFORE_START,1516299432879,27
1853,PLAYER_SLEEPBEFORE_END,1516299432882,27
1853,REQ_START,1516299432882,27
1853,REQ_END,1516299432918,27
1853,PLAYER_SLEEPBEFORE_START,1516299432918,28
1853,PLAYER_SLEEPBEFORE_END,1516299433203,28
1853,REQ_START,1516299433203,28
1853,REQ_END,1516299433245,28
1853,PLAYER_SLEEPBEFORE_START,1516299433245,29
1853,PLAYER_SLEEPBEFORE_END,1516299433420,29
1853,WS_SEND_START,1516299433420,29
1853,WS_SEND_END,1516299433420,29
1853,WS_RECV_START,1516299433420,30
1853,WS_RECV_END,1516299433614,30
1853,PLAYER_SLEEPBEFORE_START,1516299433614,31
1853,PLAYER_SLEEPBEFORE_END,1516299433625,31
1853,REQ_START,1516299433625,31
1853,REQ_END,1516299434200,31
1853,PLAYER_SLEEPBEFORE_START,1516299434200,32
1853,PLAYER_SLEEPBEFORE_END,1516299462346,32
1853,WS_SEND_START,1516299462346,32
1853,WS_SEND_END,1516299462346,32
1853,WS_RECV_START,1516299462346,33
1853,WS_RECV_END,1516299462554,33
1853,PLAYER_SLEEPBEFORE_START,1516299462554,34
1853,PLAYER_SLEEPBEFORE_END,1516299488465,34
1853,WS_SEND_START,1516299488465,34
1853,WS_SEND_END,1516299488465,34
1853,WS_RECV_START,1516299488465,35
1853,WS_RECV_END,1516299488843,35
1853,PLAYER_SLEEPBEFORE_START,1516299488843,36
1853,PLAYER_SLEEPBEFORE_END,1516299488852,36
1853,WS_SEND_START,1516299488852,36
1853,WS_SEND_END,1516299488852,36
1853,WS_RECV_START,1516299488852,37
1853,WS_RECV_END,1516299489380,37
1853,PLAYER_SLEEPBEFORE_START,1516299489380,38
1853,PLAYER_SLEEPBEFORE_END,1516299492575,38
1853,WS_SEND_START,1516299492575,38
1853,WS_SEND_END,1516299492575,38
1853,WS_RECV_START,1516299492575,39
1853,WS_RECV_END,1516299492762,39
1853,PLAYER_SLEEPBEFORE_START,1516299492762,40
1853,PLAYER_SLEEPBEFORE_END,1516299492809,40
1853,WS_SEND_START,1516299492809,40
1853,WS_SEND_END,1516299492809,40
1853,WS_RECV_START,1516299492809,41
1853,WS_RECV_END,1516299493079,41
1853,PLAYER_SLEEPBEFORE_START,1516299493079,42
1853,PLAYER_SLEEPBEFORE_END,1516299511215,42
1853,WS_SEND_START,1516299511215,42
1853,WS_SEND_END,1516299511215,42
1853,WS_RECV_START,1516299511215,43
1853,WS_RECV_END,1516299511694,43
1853,PLAYER_SLEEPBEFORE_START,1516299511694,44
1853,PLAYER_SLEEPBEFORE_END,1516299511706,44
1853,WS_SEND_START,1516299511706,44
1853,WS_SEND_END,1516299511706,44
1853,WS_RECV_START,1516299511706,45
1853,WS_RECV_END,1516299511788,45
1853,PLAYER_SLEEPBEFORE_START,1516299511788,46
1853,PLAYER_SLEEPBEFORE_END,1516299513085,46
1853,WS_SEND_START,1516299513085,46
1853,WS_SEND_END,1516299513085,46
1853,WS_RECV_START,1516299513085,47
1853,WS_RECV_END,1516299513591,47
1853,PLAYER_SLEEPBEFORE_START,1516299513591,48
1853,PLAYER_SLEEPBEFORE_END,1516299514911,48
1853,WS_SEND_START,1516299514911,48
1853,WS_SEND_END,1516299514911,48
1853,WS_RECV_START,1516299514911,49
1853,WS_RECV_END,1516299515359,49
1853,PLAYER_SLEEPBEFORE_START,1516299515359,50
1853,PLAYER_SLEEPBEFORE_END,1516299515383,50
1853,WS_SEND_START,1516299515383,50
1853,WS_SEND_END,1516299515383,50
1853,WS_RECV_START,1516299515383,51
1853,WS_RECV_END,1516299516091,51
1853,PLAYER_SLEEPBEFORE_START,1516299516091,52
1853,PLAYER_SLEEPBEFORE_END,1516299538655,52
1853,WS_SEND_START,1516299538655,52
1853,WS_SEND_END,1516299538655,52
1853,WS_RECV_START,1516299538655,53
1853,WS_RECV_END,1516299540271,53
1853,PLAYER_SLEEPBEFORE_START,1516299540271,54
1853,PLAYER_SLEEPBEFORE_END,1516299561574,54
1853,WS_SEND_START,1516299561574,54
1853,WS_SEND_END,1516299561574,54
1853,PLAYER_SLEEPBEFORE_START,1516299561574,55
1853,PLAYER_SLEEPBEFORE_END,1516299563515,55
1853,WS_SEND_START,1516299563515,55
1853,WS_SEND_END,1516299563515,55
1853,WS_RECV_START,1516299563515,56
1853,WS_RECV_END,1516299563621,56
1853,PLAYER_SLEEPBEFORE_START,1516299563621,57
1853,PLAYER_SLEEPBEFORE_END,1516299586494,57
1853,WS_SEND_START,1516299586494,57
1853,WS_SEND_END,1516299586494,57
1853,WS_RECV_START,1516299586494,58
1853,WS_RECV_END,1516299587075,58
1853,PLAYER_SLEEPBEFORE_START,1516299587075,59
1853,PLAYER_SLEEPBEFORE_END,1516299589402,59
1853,WS_SEND_START,1516299589402,59
1853,WS_SEND_END,1516299589402,59
1853,WS_RECV_START,1516299589402,60
1853,WS_RECV_END,1516299589865,60
1853,PLAYER_SLEEPBEFORE_START,1516299589865,61
1853,PLAYER_SLEEPBEFORE_END,1516299593457,61
1853,WS_SEND_START,1516299593457,61
1853,WS_SEND_END,1516299593457,61
1853,WS_RECV_START,1516299593457,62
1853,WS_RECV_END,1516299593614,62
1853,PLAYER_SLEEPBEFORE_START,1516299593614,63
1853,PLAYER_SLEEPBEFORE_END,1516299612876,63
1853,WS_SEND_START,1516299612876,63
1853,WS_SEND_END,1516299612876,63
1853,WS_RECV_START,1516299612876,64
1853,WS_RECV_END,1516299612974,64
1853,PLAYER_SLEEPBEFORE_START,1516299612974,65
1853,PLAYER_SLEEPBEFORE_END,1516299639791,65
1853,WS_SEND_START,1516299639791,65
1853,WS_SEND_END,1516299639791,65
1853,WS_RECV_START,1516299639791,66
1853,WS_RECV_END,1516299640177,66
1853,PLAYER_SLEEPBEFORE_START,1516299640177,67
1853,PLAYER_SLEEPBEFORE_END,1516299641684,67
1853,WS_SEND_START,1516299641684,67
1853,WS_SEND_END,1516299641684,67
1853,WS_RECV_START,1516299641684,68
1853,WS_RECV_END,1516299642189,68
1853,PLAYER_SLEEPBEFORE_START,1516299642189,69
1853,PLAYER_SLEEPBEFORE_END,1516299664188,69
1853,WS_SEND_START,1516299664188,69
1853,WS_SEND_END,1516299664188,69
1853,WS_RECV_START,1516299664188,70
1853,WS_RECV_END,1516299665134,70
1853,PLAYER_SLEEPBEFORE_START,1516299665134,71
1853,PLAYER_SLEEPBEFORE_END,1516299689910,71
1853,WS_SEND_START,1516299689910,71
1853,WS_SEND_END,1516299689910,71
1853,PLAYER_SLEEPBEFORE_START,1516299689910,72
1853,PLAYER_SLEEPBEFORE_END,1516299692517,72
1853,WS_SEND_START,1516299692517,72
1853,WS_SEND_END,1516299692517,72
1853,WS_RECV_START,1516299692517,73
1853,WS_RECV_END,1516299693665,73
1853,PLAYER_SLEEPBEFORE_START,1516299693665,74
1853,PLAYER_SLEEPBEFORE_END,1516299693674,74
1853,WS_SEND_START,1516299693674,74
1853,WS_SEND_END,1516299693674,74
1853,WS_RECV_START,1516299693674,75
1853,WS_RECV_END,1516299694801,75
1853,PLAYER_SLEEPBEFORE_START,1516299694801,76
1853,PLAYER_SLEEPBEFORE_END,1516299696307,76
1853,WS_SEND_START,1516299696307,76
1853,WS_SEND_END,1516299696307,76
1853,WS_RECV_START,1516299696307,77
1853,WS_RECV_END,1516299696362,77
1853,PLAYER_SLEEPBEFORE_START,1516299696362,78
1853,PLAYER_SLEEPBEFORE_END,1516299697230,78
1853,WS_SEND_START,1516299697230,78
1853,WS_SEND_END,1516299697230,78
1853,WS_RECV_START,1516299697230,79
1853,WS_RECV_END,1516299697631,79
1853,PLAYER_SLEEPBEFORE_START,1516299697631,80
1853,PLAYER_SLEEPBEFORE_END,1516299705297,80
1853,WS_SEND_START,1516299705297,80
1853,WS_SEND_END,1516299705297,80
1853,WS_RECV_START,1516299705297,81
1853,WS_RECV_END,1516299705514,81
1853,PLAYER_SLEEPBEFORE_START,1516299705514,82
1853,PLAYER_SLEEPBEFORE_END,1516299706616,82
1853,WS_SEND_START,1516299706616,82
1853,WS_SEND_END,1516299706616,82
1853,WS_RECV_START,1516299706616,83
1853,WS_RECV_END,1516299706710,83
1853,PLAYER_SLEEPBEFORE_START,1516299706710,84
1853,PLAYER_SLEEPBEFORE_END,1516299707658,84
1853,WS_SEND_START,1516299707658,84
1853,WS_SEND_END,1516299707658,84
1853,WS_RECV_START,1516299707658,85
1853,WS_RECV_END,1516299707725,85
1853,PLAYER_SLEEPBEFORE_START,1516299707725,86
1853,PLAYER_SLEEPBEFORE_END,1516299711897,86
1853,WS_SEND_START,1516299711897,86
1853,WS_SEND_END,1516299711897,86
1853,WS_RECV_START,1516299711897,87
1853,WS_RECV_END,1516299713310,87
1853,PLAYER_SLEEPBEFORE_START,1516299713310,88
1853,PLAYER_SLEEPBEFORE_END,1516299713318,88
1853,WS_SEND_START,1516299713318,88
1853,WS_SEND_END,1516299713318,88
1853,WS_RECV_START,1516299713318,89
1853,WS_RECV_END,1516299714120,89
1853,PLAYER_SLEEPBEFORE_START,1516299714120,90
1853,PLAYER_SLEEPBEFORE_END,1516299741317,90
1853,REQ_START,1516299741317,90
1853,REQ_END,1516299741322,90
1853,PLAYER_SLEEPBEFORE_START,1516299741322,91
1853,PLAYER_SLEEPBEFORE_END,1516299749211,91
1853,WS_SEND_START,1516299749211,91
1853,WS_SEND_END,1516299749211,91
1853,WS_RECV_START,1516299749211,92
1853,WS_RECV_END,1516299750264,92
1853,PLAYER_SLEEPBEFORE_START,1516299750264,93
1853,PLAYER_SLEEPBEFORE_END,1516299750279,93
1853,WS_SEND_START,1516299750279,93
1853,WS_SEND_END,1516299750279,93
1853,WS_RECV_START,1516299750279,94
1853,WS_RECV_END,1516299750733,94
1853,PLAYER_SLEEPBEFORE_START,1516299750733,95
1853,PLAYER_SLEEPBEFORE_END,1516299774288,95
1853,WS_SEND_START,1516299774288,95
1853,WS_SEND_END,1516299774288,95
1853,WS_RECV_START,1516299774288,96
1853,WS_RECV_END,1516299775648,96
1853,PLAYER_SLEEPBEFORE_START,1516299775648,97
1853,PLAYER_SLEEPBEFORE_END,1516299798088,97
1853,WS_SEND_START,1516299798088,97
1853,WS_SEND_END,1516299798088,97
1853,WS_RECV_START,1516299798088,98
1853,WS_RECV_END,1516299799539,98
1853,PLAYER_SLEEPBEFORE_START,1516299799539,99
1853,PLAYER_SLEEPBEFORE_END,1516299799561,99
1853,WS_SEND_START,1516299799561,99
1853,WS_SEND_END,1516299799561,99
1853,WS_RECV_START,1516299799561,100
1853,WS_RECV_END,1516299800982,100
1853,PLAYER_SLEEPBEFORE_START,1516299800982,101
1853,PLAYER_SLEEPBEFORE_END,1516299824541,101
1853,WS_SEND_START,1516299824541,101
1853,WS_SEND_END,1516299824541,101
1853,WS_RECV_START,1516299824541,102
1853,WS_RECV_END,1516299825372,102
1853,PLAYER_SLEEPBEFORE_START,1516299825372,103
1853,PLAYER_SLEEPBEFORE_END,1516299848997,103
1853,WS_SEND_START,1516299848997,103
1853,WS_SEND_END,1516299848997,103
1853,WS_RECV_START,1516299848997,104
1853,WS_RECV_END,1516299849835,104
1853,PLAYER_SLEEPBEFORE_START,1516299849835,105
1853,PLAYER_SLEEPBEFORE_END,1516299875212,105
1853,WS_SEND_START,1516299875212,105
1853,WS_SEND_END,1516299875212,105
1853,WS_RECV_START,1516299875212,106
1853,WS_RECV_END,1516299881270,106
1853,PLAYER_SLEEPBEFORE_START,1516299881270,107
1853,PLAYER_SLEEPBEFORE_END,1516299904693,107
1853,WS_SEND_START,1516299904693,107
1853,WS_SEND_END,1516299904693,107
1853,WS_RECV_START,1516299904693,108
1853,WS_RECV_END,1516299905806,108
1853,PLAYER_SLEEPBEFORE_START,1516299905806,109
1853,PLAYER_SLEEPBEFORE_END,1516299905815,109
1853,WS_SEND_START,1516299905815,109
1853,WS_SEND_END,1516299905815,109
1853,WS_RECV_START,1516299905815,110
1853,WS_RECV_END,1516299906112,110
1853,PLAYER_SLEEPBEFORE_START,1516299906112,111
1853,PLAYER_SLEEPBEFORE_END,1516299907071,111
1853,WS_SEND_START,1516299907071,111
1853,WS_SEND_END,1516299907072,111
1853,WS_RECV_START,1516299907072,112
1853,WS_RECV_END,1516299907717,112
1853,PLAYER_SLEEPBEFORE_START,1516299907717,113
1853,PLAYER_SLEEPBEFORE_END,1516299908279,113
1853,WS_SEND_START,1516299908279,113
1853,WS_SEND_END,1516299908279,113
1853,WS_RECV_START,1516299908279,114
1853,WS_RECV_END,1516299909944,114
1853,PLAYER_SLEEPBEFORE_START,1516299909944,115
1853,PLAYER_SLEEPBEFORE_END,1516299909953,115
1853,WS_SEND_START,1516299909953,115
1853,WS_SEND_END,1516299909953,115
1853,WS_RECV_START,1516299909953,116
1853,WS_RECV_END,1516299910466,116
1853,PLAYER_SLEEPBEFORE_START,1516299910466,117
1853,PLAYER_SLEEPBEFORE_END,1516299930827,117
1853,WS_SEND_START,1516299930827,117
1853,WS_SEND_END,1516299930827,117
1853,PLAYER_SLEEPBEFORE_START,1516299930827,118
1853,PLAYER_SLEEPBEFORE_END,1516299934579,118
1853,WS_SEND_START,1516299934579,118
1853,WS_SEND_END,1516299934579,118
1853,WS_RECV_START,1516299934579,119
1853,WS_RECV_END,1516299936488,119
1853,PLAYER_SLEEPBEFORE_START,1516299936488,120
1853,PLAYER_SLEEPBEFORE_END,1516299937476,120
1853,WS_SEND_START,1516299937476,120
1853,WS_SEND_END,1516299937476,120
1853,WS_RECV_START,1516299937476,121
1853,WS_RECV_END,1516299938712,121
1853,PLAYER_SLEEPBEFORE_START,1516299938712,122
1853,PLAYER_SLEEPBEFORE_END,1516299939897,122
1853,WS_SEND_START,1516299939897,122
1853,WS_SEND_END,1516299939897,122
1853,WS_RECV_START,1516299939897,123
1853,WS_RECV_END,1516299941554,123
1853,PLAYER_SLEEPBEFORE_START,1516299941554,124
1853,PLAYER_SLEEPBEFORE_END,1516299965959,124
1853,WS_SEND_START,1516299965959,124
1853,WS_SEND_END,1516299965959,124
1853,WS_RECV_START,1516299965959,125
1853,WS_RECV_END,1516299966588,125
1853,PLAYER_SLEEPBEFORE_START,1516299966588,126
1853,PLAYER_SLEEPBEFORE_END,1516299987100,126
1853,WS_SEND_START,1516299987100,126
1853,WS_SEND_END,1516299987100,126
1853,PLAYER_SLEEPBEFORE_START,1516299987100,127
1853,PLAYER_SLEEPBEFORE_END,1516299990154,127
1853,WS_SEND_START,1516299990154,127
1853,WS_SEND_END,1516299990154,127
1853,WS_RECV_START,1516299990154,128
1853,WS_RECV_END,1516299993082,128
1853,PLAYER_SLEEPBEFORE_START,1516299993082,129
1853,PLAYER_SLEEPBEFORE_END,1516299993102,129
1853,WS_SEND_START,1516299993102,129
1853,WS_SEND_END,1516299993102,129
1853,WS_RECV_START,1516299993102,130
1853,WS_RECV_END,1516299994852,130
1853,PLAYER_SLEEPBEFORE_START,1516299994852,131
1853,PLAYER_SLEEPBEFORE_END,1516300016476,131
1853,WS_SEND_START,1516300016476,131
1853,WS_SEND_END,1516300016476,131
1853,PLAYER_SLEEPBEFORE_START,1516300016476,132
1853,PLAYER_SLEEPBEFORE_END,1516300019556,132
1853,WS_SEND_START,1516300019556,132
1853,WS_SEND_END,1516300019556,132
1853,WS_RECV_START,1516300019556,133
1853,WS_RECV_END,1516300020620,133
1853,PLAYER_SLEEPBEFORE_START,1516300020620,134
1853,PLAYER_SLEEPBEFORE_END,1516300041837,134
1853,WS_SEND_START,1516300041837,134
1853,WS_SEND_END,1516300041837,134
1853,PLAYER_SLEEPBEFORE_START,1516300041837,135
1853,PLAYER_SLEEPBEFORE_END,1516300045027,135
1853,WS_SEND_START,1516300045027,135
1853,WS_SEND_END,1516300045027,135
1853,WS_RECV_START,1516300045027,136
1853,WS_RECV_END,1516300045956,136
1853,PLAYER_SLEEPBEFORE_START,1516300045956,137
1853,PLAYER_SLEEPBEFORE_END,1516300045963,137
1853,WS_SEND_START,1516300045963,137
1853,WS_SEND_END,1516300045963,137
1853,WS_RECV_START,1516300045963,138
1853,WS_RECV_END,1516300046481,138
1853,PLAYER_SLEEPBEFORE_START,1516300046481,139
1853,PLAYER_SLEEPBEFORE_END,1516300047171,139
1853,WS_SEND_START,1516300047171,139
1853,WS_SEND_END,1516300047171,139
1853,WS_RECV_START,1516300047171,140
1853,WS_RECV_END,1516300049160,140
1853,PLAYER_SLEEPBEFORE_START,1516300049160,141
1853,PLAYER_SLEEPBEFORE_END,1516300049815,141
1853,WS_SEND_START,1516300049815,141
1853,WS_SEND_END,1516300049815,141
1853,WS_RECV_START,1516300049815,142
1853,WS_RECV_END,1516300051072,142
1853,PLAYER_SLEEPBEFORE_START,1516300051072,143
1853,PLAYER_SLEEPBEFORE_END,1516300051129,143
1853,WS_SEND_START,1516300051129,143
1853,WS_SEND_END,1516300051129,143
1853,WS_RECV_START,1516300051129,144
1853,WS_RECV_END,1516300052675,144
1853,PLAYER_SLEEPBEFORE_START,1516300052675,145
1853,PLAYER_SLEEPBEFORE_END,1516300068737,145
1853,REQ_START,1516300068737,145
1853,REQ_END,1516300068745,145
1853,PLAYER_SLEEPBEFORE_START,1516300068745,146
1853,PLAYER_SLEEPBEFORE_END,1516300077622,146
1853,WS_SEND_START,1516300077622,146
1853,WS_SEND_END,1516300077622,146
1853,WS_RECV_START,1516300077622,147
1853,WS_RECV_END,1516300078410,147
1853,PLAYER_SLEEPBEFORE_START,1516300078410,148
1853,PLAYER_SLEEPBEFORE_END,1516300100332,148
1853,WS_SEND_START,1516300100332,148
1853,WS_SEND_END,1516300100332,148
1853,PLAYER_SLEEPBEFORE_START,1516300100332,149
1853,PLAYER_SLEEPBEFORE_END,1516300102761,149
1853,WS_SEND_START,1516300102761,149
1853,WS_SEND_END,1516300102761,149
1853,WS_RECV_START,1516300102761,150
1853,WS_RECV_END,1516300103570,150
1853,PLAYER_SLEEPBEFORE_START,1516300103570,151
1853,PLAYER_SLEEPBEFORE_END,1516300103780,151
1853,WS_SEND_START,1516300103780,151
1853,WS_SEND_END,1516300103780,151
1853,WS_RECV_START,1516300103780,152
1853,WS_RECV_END,1516300104675,152
1853,PLAYER_SLEEPBEFORE_START,1516300104675,153
1853,PLAYER_SLEEPBEFORE_END,1516300128602,153
1853,WS_SEND_START,1516300128602,153
1853,WS_SEND_END,1516300128602,153
1853,WS_RECV_START,1516300128602,154
1853,WS_RECV_END,1516300131464,154
1853,PLAYER_SLEEPBEFORE_START,1516300131464,155
1853,PLAYER_SLEEPBEFORE_END,1516300154022,155
1853,WS_SEND_START,1516300154022,155
1853,WS_SEND_END,1516300154022,155
1853,PLAYER_SLEEPBEFORE_START,1516300154022,156
1853,PLAYER_SLEEPBEFORE_END,1516300157297,156
1853,WS_SEND_START,1516300157297,156
1853,WS_SEND_END,1516300157297,156
1853,WS_RECV_START,1516300157297,157
1853,WS_RECV_END,1516300158794,157
1853,PLAYER_SLEEPBEFORE_START,1516300158794,158
1853,PLAYER_SLEEPBEFORE_END,1516300158804,158
1853,WS_SEND_START,1516300158804,158
1853,WS_SEND_END,1516300158804,158
1853,WS_RECV_START,1516300158804,159
1853,WS_RECV_END,1516300161759,159
1853,PLAYER_SLEEPBEFORE_START,1516300161759,160
1853,PLAYER_SLEEPBEFORE_END,1516300161934,160
1853,WS_SEND_START,1516300161934,160
1853,WS_SEND_END,1516300161934,160
1853,WS_RECV_START,1516300161934,161
1853,WS_RECV_END,1516300164897,161
1853,PLAYER_SLEEPBEFORE_START,1516300164897,162
1853,PLAYER_SLEEPBEFORE_END,1516300164922,162
1853,WS_SEND_START,1516300164922,162
1853,WS_SEND_END,1516300164922,162
1853,WS_RECV_START,1516300164922,163
1853,WS_RECV_END,1516300167820,163
1853,PLAYER_SLEEPBEFORE_START,1516300167820,164
1853,PLAYER_SLEEPBEFORE_END,1516300188632,164
1853,WS_SEND_START,1516300188632,164
1853,WS_SEND_END,1516300188632,164
1853,WS_RECV_START,1516300188632,165
1853,WS_RECV_END,1516300194597,165
1853,PLAYER_SLEEPBEFORE_START,1516300194597,166
1853,PLAYER_SLEEPBEFORE_END,1516300217052,166
1853,WS_SEND_START,1516300217052,166
1853,WS_SEND_END,1516300217052,166
1853,WS_RECV_START,1516300217052,167
1853,WS_RECV_END,1516300222539,167
1853,PLAYER_SLEEPBEFORE_START,1516300222539,168
1853,PLAYER_SLEEPBEFORE_END,1516300249896,168
1853,WS_SEND_START,1516300249896,168
1853,WS_SEND_END,1516300249896,168
1853,WS_RECV_START,1516300249896,169
1853,WS_RECV_END,1516300251509,169
1853,PLAYER_SLEEPBEFORE_START,1516300251509,170
1853,PLAYER_SLEEPBEFORE_END,1516300251518,170
1853,WS_SEND_START,1516300251518,170
1853,WS_SEND_END,1516300251518,170
1853,WS_RECV_START,1516300251518,171
1853,WS_RECV_END,1516300254354,171
1853,PLAYER_SLEEPBEFORE_START,1516300254354,172
1853,PLAYER_SLEEPBEFORE_END,1516300254723,172
1853,WS_SEND_START,1516300254723,172
1853,WS_SEND_END,1516300254723,172
1853,WS_RECV_START,1516300254723,173
1853,WS_RECV_END,1516300256478,173
1853,PLAYER_SLEEPBEFORE_START,1516300256478,174
1853,PLAYER_SLEEPBEFORE_END,1516300256519,174
1853,WS_SEND_START,1516300256519,174
1853,WS_SEND_END,1516300256519,174
1853,WS_RECV_START,1516300256519,175
1853,WS_RECV_END,1516300259366,175
1853,PLAYER_SLEEPBEFORE_START,1516300259366,176
1853,PLAYER_SLEEPBEFORE_END,1516300281127,176
1853,WS_SEND_START,1516300281127,176
1853,WS_SEND_END,1516300281127,176
1853,PLAYER_SLEEPBEFORE_START,1516300281127,177
1853,PLAYER_SLEEPBEFORE_END,1516300283645,177
1853,WS_SEND_START,1516300283645,177
1853,WS_SEND_END,1516300283645,177
1853,WS_RECV_START,1516300283645,178
1853,WS_RECV_END,1516300285821,178
1853,PLAYER_SLEEPBEFORE_START,1516300285821,179
1853,PLAYER_SLEEPBEFORE_END,1516300308161,179
1853,WS_SEND_START,1516300308161,179
1853,WS_SEND_END,1516300308161,179
1853,WS_RECV_START,1516300308161,180
1853,WS_RECV_END,1516300309930,180
1853,PLAYER_SLEEPBEFORE_START,1516300309930,181
1853,PLAYER_SLEEPBEFORE_END,1516300310374,181
1853,WS_SEND_START,1516300310374,181
1853,WS_SEND_END,1516300310374,181
1853,WS_RECV_START,1516300310374,182
1853,WS_RECV_END,1516300311691,182
1853,PLAYER_SLEEPBEFORE_START,1516300311691,183
1853,PLAYER_SLEEPBEFORE_END,1516300312215,183
1853,WS_SEND_START,1516300312215,183
1853,WS_SEND_END,1516300312215,183
1853,WS_RECV_START,1516300312215,184
1853,WS_RECV_END,1516300313136,184
1853,PLAYER_SLEEPBEFORE_START,1516300313136,185
1853,PLAYER_SLEEPBEFORE_END,1516300313405,185
1853,WS_SEND_START,1516300313405,185
1853,WS_SEND_END,1516300313405,185
1853,WS_RECV_START,1516300313405,186
1853,WS_RECV_END,1516300313905,186
1853,PLAYER_SLEEPBEFORE_START,1516300313905,187
1853,PLAYER_SLEEPBEFORE_END,1516300336405,187
1853,WS_SEND_START,1516300336405,187
1853,WS_SEND_END,1516300336405,187
1853,WS_RECV_START,1516300336405,188
1853,WS_RECV_END,1516300336944,188
1853,PLAYER_SLEEPBEFORE_START,1516300336945,189
1853,PLAYER_SLEEPBEFORE_END,1516300343184,189
1853,WS_SEND_START,1516300343184,189
1853,WS_SEND_END,1516300343184,189
1853,WS_RECV_START,1516300343184,190
1853,WS_RECV_END,1516300343496,190
1853,PLAYER_SLEEPBEFORE_START,1516300343496,191
1853,PLAYER_SLEEPBEFORE_END,1516300345411,191
1853,WS_SEND_START,1516300345411,191
1853,WS_SEND_END,1516300345411,191
1853,WS_RECV_START,1516300345411,192
1853,WS_RECV_END,1516300345646,192
1853,PLAYER_SLEEPBEFORE_START,1516300345646,193
1853,PLAYER_SLEEPBEFORE_END,1516300345774,193
1853,WS_SEND_START,1516300345774,193
1853,WS_SEND_END,1516300345774,193
1853,WS_RECV_START,1516300345774,194
1853,WS_RECV_END,1516300346159,194
1853,PLAYER_SLEEPBEFORE_START,1516300346159,195
1853,PLAYER_SLEEPBEFORE_END,1516300347914,195
1853,WS_SEND_START,1516300347914,195
1853,WS_SEND_END,1516300347914,195
1853,WS_RECV_START,1516300347914,196
1853,WS_RECV_END,1516300348137,196
1853,PLAYER_SLEEPBEFORE_START,1516300348137,197
1853,PLAYER_SLEEPBEFORE_END,1516300349941,197
1853,WS_SEND_START,1516300349941,197
1853,WS_SEND_END,1516300349941,197
1853,WS_RECV_START,1516300349941,198
1853,WS_RECV_END,1516300350084,198
1853,PLAYER_SLEEPBEFORE_START,1516300350084,199
1853,PLAYER_SLEEPBEFORE_END,1516300361938,199
1853,WS_SEND_START,1516300361938,199
1853,WS_SEND_END,1516300361938,199
1853,PLAYER_SLEEPBEFORE_START,1516300361938,200
1853,PLAYER_SLEEPBEFORE_END,1516300366026,200
1853,WS_SEND_START,1516300366026,200
1853,WS_SEND_END,1516300366026,200
1853,WS_RECV_START,1516300366026,201
1853,WS_RECV_END,1516300366120,201
1853,PLAYER_SLEEPBEFORE_START,1516300366120,202
1853,PLAYER_SLEEPBEFORE_END,1516300366134,202
1853,WS_SEND_START,1516300366134,202
1853,WS_SEND_END,1516300366134,202
1853,WS_RECV_START,1516300366134,203
1853,WS_RECV_END,1516300366501,203
1853,PLAYER_SLEEPBEFORE_START,1516300366501,204
1853,PLAYER_SLEEPBEFORE_END,1516300386150,204
1853,WS_SEND_START,1516300386150,204
1853,WS_SEND_END,1516300386150,204
1853,PLAYER_SLEEPBEFORE_START,1516300386150,205
1853,PLAYER_SLEEPBEFORE_END,1516300390048,205
1853,WS_SEND_START,1516300390048,205
1853,WS_SEND_END,1516300390048,205
1853,WS_RECV_START,1516300390048,206
1853,WS_RECV_END,1516300390200,206
1853,PLAYER_SLEEPBEFORE_START,1516300390200,207
1853,PLAYER_SLEEPBEFORE_END,1516300407131,207
1853,REQ_START,1516300407131,207
1853,REQ_END,1516300407138,207
1853,PLAYER_SLEEPBEFORE_START,1516300407138,208
1853,PLAYER_SLEEPBEFORE_END,1516300413990,208
1853,WS_CLOSE_START,1516300413990,208
1853,WS_CLOSE_END,1516300413990,208
1853,PLAYER_DONE,1516300413990
