# --sessions 2700 --app-url=http://shinyloadtest.rstudioservices.com/cran_explorer --output-dir test2700 --overwrite-output --log-level warn --start-interval 100 15min.log
thread_id,event,timestamp,input_line_number,comment
1974,PLAYER_SESSION_CREATE,1516299246161
1974,PLAYER_START_INTERVAL_START,1516299246161
1974,PLAYER_START_INTERVAL_END,1516299443561
1974,REQ_HOME_START,1516299443561,2
1974,REQ_HOME_END,1516299443998,2
1974,REQ_START,1516299443998,3
1974,REQ_END,1516299444109,3
1974,REQ_START,1516299444109,4
1974,REQ_END,1516299444185,4
1974,REQ_START,1516299444185,5
1974,REQ_END,1516299444337,5
1974,REQ_START,1516299444337,6
1974,REQ_END,1516299444378,6
1974,REQ_START,1516299444378,7
1974,REQ_END,1516299444419,7
1974,REQ_START,1516299444419,8
1974,REQ_END,1516299444462,8
1974,REQ_START,1516299444462,9
1974,REQ_END,1516299444500,9
1974,REQ_START,1516299444500,10
1974,REQ_END,1516299444505,10
1974,REQ_START,1516299444505,11
1974,REQ_END,1516299444587,11
1974,REQ_START,1516299444587,12
1974,REQ_END,1516299444594,12
1974,REQ_START,1516299444594,13
1974,REQ_END,1516299444663,13
1974,REQ_START,1516299444663,14
1974,REQ_END,1516299444708,14
1974,REQ_START,1516299444708,15
1974,REQ_END,1516299444748,15
1974,REQ_TOK_START,1516299444748,16
1974,REQ_TOK_END,1516299444753,16
1974,REQ_SINF_START,1516299444753,17
1974,REQ_SINF_END,1516299444756,17
1974,WS_OPEN_START,1516299444756,18
1974,WS_OPEN_END,1516299444759,18
1974,REQ_START,1516299444759,19
1974,REQ_END,1516299444790,19
1974,WS_RECV_START,1516299444790,20
1974,WS_RECV_END,1516299444790,20
1974,PLAYER_SLEEPBEFORE_START,1516299444790,21
1974,PLAYER_SLEEPBEFORE_END,1516299444795,21
1974,WS_SEND_START,1516299444795,21
1974,WS_SEND_END,1516299444795,21
1974,PLAYER_SLEEPBEFORE_START,1516299444795,22
1974,PLAYER_SLEEPBEFORE_END,1516299444796,22
1974,WS_SEND_START,1516299444796,22
1974,WS_SEND_END,1516299444796,22
1974,WS_RECV_INIT_START,1516299444796,23
1974,WS_RECV_INIT_END,1516299444819,23
1974,WS_RECV_START,1516299444819,24
1974,WS_RECV_END,1516299444894,24
1974,PLAYER_SLEEPBEFORE_START,1516299444894,25
1974,PLAYER_SLEEPBEFORE_END,1516299444901,25
1974,REQ_START,1516299444901,25
1974,REQ_END,1516299444944,25
1974,PLAYER_SLEEPBEFORE_START,1516299444944,26
1974,PLAYER_SLEEPBEFORE_END,1516299444945,26
1974,REQ_START,1516299444945,26
1974,REQ_END,1516299444982,26
1974,PLAYER_SLEEPBEFORE_START,1516299444982,27
1974,PLAYER_SLEEPBEFORE_END,1516299444985,27
1974,REQ_START,1516299444985,27
1974,REQ_END,1516299445062,27
1974,PLAYER_SLEEPBEFORE_START,1516299445062,28
1974,PLAYER_SLEEPBEFORE_END,1516299445347,28
1974,REQ_START,1516299445347,28
1974,REQ_END,1516299445383,28
1974,PLAYER_SLEEPBEFORE_START,1516299445383,29
1974,PLAYER_SLEEPBEFORE_END,1516299445558,29
1974,WS_SEND_START,1516299445558,29
1974,WS_SEND_END,1516299445558,29
1974,WS_RECV_START,1516299445558,30
1974,WS_RECV_END,1516299445798,30
1974,PLAYER_SLEEPBEFORE_START,1516299445798,31
1974,PLAYER_SLEEPBEFORE_END,1516299445809,31
1974,REQ_START,1516299445809,31
1974,REQ_END,1516299446440,31
1974,PLAYER_SLEEPBEFORE_START,1516299446440,32
1974,PLAYER_SLEEPBEFORE_END,1516299474605,32
1974,WS_SEND_START,1516299474605,32
1974,WS_SEND_END,1516299474605,32
1974,WS_RECV_START,1516299474605,33
1974,WS_RECV_END,1516299475184,33
1974,PLAYER_SLEEPBEFORE_START,1516299475184,34
1974,PLAYER_SLEEPBEFORE_END,1516299501096,34
1974,WS_SEND_START,1516299501096,34
1974,WS_SEND_END,1516299501096,34
1974,WS_RECV_START,1516299501096,35
1974,WS_RECV_END,1516299501600,35
1974,PLAYER_SLEEPBEFORE_START,1516299501600,36
1974,PLAYER_SLEEPBEFORE_END,1516299501609,36
1974,WS_SEND_START,1516299501609,36
1974,WS_SEND_END,1516299501609,36
1974,WS_RECV_START,1516299501609,37
1974,WS_RECV_END,1516299502278,37
1974,PLAYER_SLEEPBEFORE_START,1516299502278,38
1974,PLAYER_SLEEPBEFORE_END,1516299505473,38
1974,WS_SEND_START,1516299505473,38
1974,WS_SEND_END,1516299505474,38
1974,WS_RECV_START,1516299505474,39
1974,WS_RECV_END,1516299506439,39
1974,PLAYER_SLEEPBEFORE_START,1516299506439,40
1974,PLAYER_SLEEPBEFORE_END,1516299506485,40
1974,WS_SEND_START,1516299506485,40
1974,WS_SEND_END,1516299506485,40
1974,WS_RECV_START,1516299506485,41
1974,WS_RECV_END,1516299506880,41
1974,PLAYER_SLEEPBEFORE_START,1516299506880,42
1974,PLAYER_SLEEPBEFORE_END,1516299525015,42
1974,WS_SEND_START,1516299525015,42
1974,WS_SEND_END,1516299525015,42
1974,WS_RECV_START,1516299525015,43
1974,WS_RECV_END,1516299526257,43
1974,PLAYER_SLEEPBEFORE_START,1516299526257,44
1974,PLAYER_SLEEPBEFORE_END,1516299526269,44
1974,WS_SEND_START,1516299526269,44
1974,WS_SEND_END,1516299526269,44
1974,WS_RECV_START,1516299526269,45
1974,WS_RECV_END,1516299526796,45
1974,PLAYER_SLEEPBEFORE_START,1516299526796,46
1974,PLAYER_SLEEPBEFORE_END,1516299528056,46
1974,WS_SEND_START,1516299528056,46
1974,WS_SEND_END,1516299528056,46
1974,WS_RECV_START,1516299528056,47
1974,WS_RECV_END,1516299529365,47
1974,PLAYER_SLEEPBEFORE_START,1516299529365,48
1974,PLAYER_SLEEPBEFORE_END,1516299530685,48
1974,WS_SEND_START,1516299530685,48
1974,WS_SEND_END,1516299530685,48
1974,WS_RECV_START,1516299530685,49
1974,WS_RECV_END,1516299531903,49
1974,PLAYER_SLEEPBEFORE_START,1516299531903,50
1974,PLAYER_SLEEPBEFORE_END,1516299531927,50
1974,WS_SEND_START,1516299531927,50
1974,WS_SEND_END,1516299531927,50
1974,WS_RECV_START,1516299531927,51
1974,WS_RECV_END,1516299532311,51
1974,PLAYER_SLEEPBEFORE_START,1516299532311,52
1974,PLAYER_SLEEPBEFORE_END,1516299554875,52
1974,WS_SEND_START,1516299554875,52
1974,WS_SEND_END,1516299554875,52
1974,WS_RECV_START,1516299554875,53
1974,WS_RECV_END,1516299557249,53
1974,PLAYER_SLEEPBEFORE_START,1516299557249,54
1974,PLAYER_SLEEPBEFORE_END,1516299578552,54
1974,WS_SEND_START,1516299578552,54
1974,WS_SEND_END,1516299578552,54
1974,PLAYER_SLEEPBEFORE_START,1516299578552,55
1974,PLAYER_SLEEPBEFORE_END,1516299580493,55
1974,WS_SEND_START,1516299580493,55
1974,WS_SEND_END,1516299580493,55
1974,WS_RECV_START,1516299580493,56
1974,WS_RECV_END,1516299582277,56
1974,PLAYER_SLEEPBEFORE_START,1516299582277,57
1974,PLAYER_SLEEPBEFORE_END,1516299605149,57
1974,WS_SEND_START,1516299605149,57
1974,WS_SEND_END,1516299605149,57
1974,WS_RECV_START,1516299605149,58
1974,WS_RECV_END,1516299607025,58
1974,PLAYER_SLEEPBEFORE_START,1516299607025,59
1974,PLAYER_SLEEPBEFORE_END,1516299609352,59
1974,WS_SEND_START,1516299609352,59
1974,WS_SEND_END,1516299609352,59
1974,WS_RECV_START,1516299609352,60
1974,WS_RECV_END,1516299611123,60
1974,PLAYER_SLEEPBEFORE_START,1516299611123,61
1974,PLAYER_SLEEPBEFORE_END,1516299614714,61
1974,WS_SEND_START,1516299614714,61
1974,WS_SEND_END,1516299614714,61
1974,WS_RECV_START,1516299614714,62
1974,WS_RECV_END,1516299616556,62
1974,PLAYER_SLEEPBEFORE_START,1516299616556,63
1974,PLAYER_SLEEPBEFORE_END,1516299635818,63
1974,WS_SEND_START,1516299635818,63
1974,WS_SEND_END,1516299635818,63
1974,WS_RECV_START,1516299635818,64
1974,WS_RECV_END,1516299636975,64
1974,PLAYER_SLEEPBEFORE_START,1516299636975,65
1974,PLAYER_SLEEPBEFORE_END,1516299663792,65
1974,WS_SEND_START,1516299663792,65
1974,WS_SEND_END,1516299663792,65
1974,WS_RECV_START,1516299663792,66
1974,WS_RECV_END,1516299664276,66
1974,PLAYER_SLEEPBEFORE_START,1516299664276,67
1974,PLAYER_SLEEPBEFORE_END,1516299665783,67
1974,WS_SEND_START,1516299665783,67
1974,WS_SEND_END,1516299665783,67
1974,WS_RECV_START,1516299665783,68
1974,WS_RECV_END,1516299666085,68
1974,PLAYER_SLEEPBEFORE_START,1516299666085,69
1974,PLAYER_SLEEPBEFORE_END,1516299688083,69
1974,WS_SEND_START,1516299688083,69
1974,WS_SEND_END,1516299688083,69
1974,WS_RECV_START,1516299688083,70
1974,WS_RECV_END,1516299688279,70
1974,PLAYER_SLEEPBEFORE_START,1516299688279,71
1974,PLAYER_SLEEPBEFORE_END,1516299713055,71
1974,WS_SEND_START,1516299713055,71
1974,WS_SEND_END,1516299713055,71
1974,PLAYER_SLEEPBEFORE_START,1516299713055,72
1974,PLAYER_SLEEPBEFORE_END,1516299715662,72
1974,WS_SEND_START,1516299715662,72
1974,WS_SEND_END,1516299715662,72
1974,WS_RECV_START,1516299715662,73
1974,WS_RECV_END,1516299715943,73
1974,PLAYER_SLEEPBEFORE_START,1516299715943,74
1974,PLAYER_SLEEPBEFORE_END,1516299715952,74
1974,WS_SEND_START,1516299715952,74
1974,WS_SEND_END,1516299715952,74
1974,WS_RECV_START,1516299715952,75
1974,WS_RECV_END,1516299716221,75
1974,PLAYER_SLEEPBEFORE_START,1516299716221,76
1974,PLAYER_SLEEPBEFORE_END,1516299717727,76
1974,WS_SEND_START,1516299717727,76
1974,WS_SEND_END,1516299717727,76
1974,WS_RECV_START,1516299717727,77
1974,WS_RECV_END,1516299717943,77
1974,PLAYER_SLEEPBEFORE_START,1516299717943,78
1974,PLAYER_SLEEPBEFORE_END,1516299718811,78
1974,WS_SEND_START,1516299718811,78
1974,WS_SEND_END,1516299718811,78
1974,WS_RECV_START,1516299718811,79
1974,WS_RECV_END,1516299719472,79
1974,PLAYER_SLEEPBEFORE_START,1516299719472,80
1974,PLAYER_SLEEPBEFORE_END,1516299727138,80
1974,WS_SEND_START,1516299727138,80
1974,WS_SEND_END,1516299727138,80
1974,WS_RECV_START,1516299727138,81
1974,WS_RECV_END,1516299728242,81
1974,PLAYER_SLEEPBEFORE_START,1516299728242,82
1974,PLAYER_SLEEPBEFORE_END,1516299729344,82
1974,WS_SEND_START,1516299729344,82
1974,WS_SEND_END,1516299729344,82
1974,WS_RECV_START,1516299729344,83
1974,WS_RECV_END,1516299730383,83
1974,PLAYER_SLEEPBEFORE_START,1516299730383,84
1974,PLAYER_SLEEPBEFORE_END,1516299731330,84
1974,WS_SEND_START,1516299731330,84
1974,WS_SEND_END,1516299731330,84
1974,WS_RECV_START,1516299731330,85
1974,WS_RECV_END,1516299733017,85
1974,PLAYER_SLEEPBEFORE_START,1516299733017,86
1974,PLAYER_SLEEPBEFORE_END,1516299737189,86
1974,WS_SEND_START,1516299737189,86
1974,WS_SEND_END,1516299737189,86
1974,WS_RECV_START,1516299737189,87
1974,WS_RECV_END,1516299737901,87
1974,PLAYER_SLEEPBEFORE_START,1516299737901,88
1974,PLAYER_SLEEPBEFORE_END,1516299737909,88
1974,WS_SEND_START,1516299737909,88
1974,WS_SEND_END,1516299737909,88
1974,WS_RECV_START,1516299737909,89
1974,WS_RECV_END,1516299738411,89
1974,PLAYER_SLEEPBEFORE_START,1516299738411,90
1974,PLAYER_SLEEPBEFORE_END,1516299765609,90
1974,REQ_START,1516299765609,90
1974,REQ_END,1516299765615,90
1974,PLAYER_SLEEPBEFORE_START,1516299765615,91
1974,PLAYER_SLEEPBEFORE_END,1516299773504,91
1974,WS_SEND_START,1516299773504,91
1974,WS_SEND_END,1516299773504,91
1974,WS_RECV_START,1516299773504,92
1974,WS_RECV_END,1516299775660,92
1974,PLAYER_SLEEPBEFORE_START,1516299775660,93
1974,PLAYER_SLEEPBEFORE_END,1516299775675,93
1974,WS_SEND_START,1516299775675,93
1974,WS_SEND_END,1516299775675,93
1974,WS_RECV_START,1516299775675,94
1974,WS_RECV_END,1516299776423,94
1974,PLAYER_SLEEPBEFORE_START,1516299776423,95
1974,PLAYER_SLEEPBEFORE_END,1516299799978,95
1974,WS_SEND_START,1516299799978,95
1974,WS_SEND_END,1516299799978,95
1974,WS_RECV_START,1516299799978,96
1974,WS_RECV_END,1516299801542,96
1974,PLAYER_SLEEPBEFORE_START,1516299801542,97
1974,PLAYER_SLEEPBEFORE_END,1516299823982,97
1974,WS_SEND_START,1516299823982,97
1974,WS_SEND_END,1516299823982,97
1974,WS_RECV_START,1516299823982,98
1974,WS_RECV_END,1516299825482,98
1974,PLAYER_SLEEPBEFORE_START,1516299825482,99
1974,PLAYER_SLEEPBEFORE_END,1516299825504,99
1974,WS_SEND_START,1516299825504,99
1974,WS_SEND_END,1516299825504,99
1974,WS_RECV_START,1516299825504,100
1974,WS_RECV_END,1516299826010,100
1974,PLAYER_SLEEPBEFORE_START,1516299826010,101
1974,PLAYER_SLEEPBEFORE_END,1516299849570,101
1974,WS_SEND_START,1516299849570,101
1974,WS_SEND_END,1516299849570,101
1974,WS_RECV_START,1516299849570,102
1974,WS_RECV_END,1516299850041,102
1974,PLAYER_SLEEPBEFORE_START,1516299850041,103
1974,PLAYER_SLEEPBEFORE_END,1516299873666,103
1974,WS_SEND_START,1516299873666,103
1974,WS_SEND_END,1516299873666,103
1974,WS_RECV_START,1516299873666,104
1974,WS_RECV_END,1516299875430,104
1974,PLAYER_SLEEPBEFORE_START,1516299875430,105
1974,PLAYER_SLEEPBEFORE_END,1516299900807,105
1974,WS_SEND_START,1516299900807,105
1974,WS_SEND_END,1516299900807,105
1974,WS_RECV_START,1516299900807,106
1974,WS_RECV_END,1516299903758,106
1974,PLAYER_SLEEPBEFORE_START,1516299903758,107
1974,PLAYER_SLEEPBEFORE_END,1516299927181,107
1974,WS_SEND_START,1516299927181,107
1974,WS_SEND_END,1516299927181,107
1974,WS_RECV_START,1516299927181,108
1974,WS_RECV_END,1516299927386,108
1974,PLAYER_SLEEPBEFORE_START,1516299927386,109
1974,PLAYER_SLEEPBEFORE_END,1516299927395,109
1974,WS_SEND_START,1516299927395,109
1974,WS_SEND_END,1516299927395,109
1974,WS_RECV_START,1516299927395,110
1974,WS_RECV_END,1516299927841,110
1974,PLAYER_SLEEPBEFORE_START,1516299927841,111
1974,PLAYER_SLEEPBEFORE_END,1516299928800,111
1974,WS_SEND_START,1516299928800,111
1974,WS_SEND_END,1516299928800,111
1974,WS_RECV_START,1516299928800,112
1974,WS_RECV_END,1516299929455,112
1974,PLAYER_SLEEPBEFORE_START,1516299929455,113
1974,PLAYER_SLEEPBEFORE_END,1516299930017,113
1974,WS_SEND_START,1516299930017,113
1974,WS_SEND_END,1516299930017,113
1974,WS_RECV_START,1516299930017,114
1974,WS_RECV_END,1516299931038,114
1974,PLAYER_SLEEPBEFORE_START,1516299931038,115
1974,PLAYER_SLEEPBEFORE_END,1516299931047,115
1974,WS_SEND_START,1516299931047,115
1974,WS_SEND_END,1516299931047,115
1974,WS_RECV_START,1516299931047,116
1974,WS_RECV_END,1516299931427,116
1974,PLAYER_SLEEPBEFORE_START,1516299931427,117
1974,PLAYER_SLEEPBEFORE_END,1516299951788,117
1974,WS_SEND_START,1516299951788,117
1974,WS_SEND_END,1516299951788,117
1974,PLAYER_SLEEPBEFORE_START,1516299951788,118
1974,PLAYER_SLEEPBEFORE_END,1516299955540,118
1974,WS_SEND_START,1516299955540,118
1974,WS_SEND_END,1516299955540,118
1974,WS_RECV_START,1516299955540,119
1974,WS_RECV_END,1516299957158,119
1974,PLAYER_SLEEPBEFORE_START,1516299957158,120
1974,PLAYER_SLEEPBEFORE_END,1516299958146,120
1974,WS_SEND_START,1516299958146,120
1974,WS_SEND_END,1516299958146,120
1974,WS_RECV_START,1516299958146,121
1974,WS_RECV_END,1516299960848,121
1974,PLAYER_SLEEPBEFORE_START,1516299960848,122
1974,PLAYER_SLEEPBEFORE_END,1516299962033,122
1974,WS_SEND_START,1516299962033,122
1974,WS_SEND_END,1516299962033,122
1974,WS_RECV_START,1516299962033,123
1974,WS_RECV_END,1516299962943,123
1974,PLAYER_SLEEPBEFORE_START,1516299962943,124
1974,PLAYER_SLEEPBEFORE_END,1516299987348,124
1974,WS_SEND_START,1516299987348,124
1974,WS_SEND_END,1516299987348,124
1974,WS_RECV_START,1516299987348,125
1974,WS_RECV_END,1516299988918,125
1974,PLAYER_SLEEPBEFORE_START,1516299988918,126
1974,PLAYER_SLEEPBEFORE_END,1516300009430,126
1974,WS_SEND_START,1516300009430,126
1974,WS_SEND_END,1516300009430,126
1974,PLAYER_SLEEPBEFORE_START,1516300009430,127
1974,PLAYER_SLEEPBEFORE_END,1516300012484,127
1974,WS_SEND_START,1516300012484,127
1974,WS_SEND_END,1516300012484,127
1974,WS_RECV_START,1516300012484,128
1974,WS_RECV_END,1516300013710,128
1974,PLAYER_SLEEPBEFORE_START,1516300013710,129
1974,PLAYER_SLEEPBEFORE_END,1516300013730,129
1974,WS_SEND_START,1516300013730,129
1974,WS_SEND_END,1516300013730,129
1974,WS_RECV_START,1516300013730,130
1974,WS_RECV_END,1516300014170,130
1974,PLAYER_SLEEPBEFORE_START,1516300014170,131
1974,PLAYER_SLEEPBEFORE_END,1516300035794,131
1974,WS_SEND_START,1516300035794,131
1974,WS_SEND_END,1516300035794,131
1974,PLAYER_SLEEPBEFORE_START,1516300035794,132
1974,PLAYER_SLEEPBEFORE_END,1516300038874,132
1974,WS_SEND_START,1516300038874,132
1974,WS_SEND_END,1516300038874,132
1974,WS_RECV_START,1516300038874,133
1974,WS_RECV_END,1516300039788,133
1974,PLAYER_SLEEPBEFORE_START,1516300039788,134
1974,PLAYER_SLEEPBEFORE_END,1516300061005,134
1974,WS_SEND_START,1516300061005,134
1974,WS_SEND_END,1516300061005,134
1974,PLAYER_SLEEPBEFORE_START,1516300061005,135
1974,PLAYER_SLEEPBEFORE_END,1516300064195,135
1974,WS_SEND_START,1516300064195,135
1974,WS_SEND_END,1516300064195,135
1974,WS_RECV_START,1516300064195,136
1974,WS_RECV_END,1516300065942,136
1974,PLAYER_SLEEPBEFORE_START,1516300065942,137
1974,PLAYER_SLEEPBEFORE_END,1516300065949,137
1974,WS_SEND_START,1516300065949,137
1974,WS_SEND_END,1516300065949,137
1974,WS_RECV_START,1516300065949,138
1974,WS_RECV_END,1516300068152,138
1974,PLAYER_SLEEPBEFORE_START,1516300068152,139
1974,PLAYER_SLEEPBEFORE_END,1516300068843,139
1974,WS_SEND_START,1516300068843,139
1974,WS_SEND_END,1516300068843,139
1974,WS_RECV_START,1516300068843,140
1974,WS_RECV_END,1516300069664,140
1974,PLAYER_SLEEPBEFORE_START,1516300069665,141
1974,PLAYER_SLEEPBEFORE_END,1516300070320,141
1974,WS_SEND_START,1516300070320,141
1974,WS_SEND_END,1516300070320,141
1974,WS_RECV_START,1516300070320,142
1974,WS_RECV_END,1516300071527,142
1974,PLAYER_SLEEPBEFORE_START,1516300071527,143
1974,PLAYER_SLEEPBEFORE_END,1516300071584,143
1974,WS_SEND_START,1516300071584,143
1974,WS_SEND_END,1516300071584,143
1974,WS_RECV_START,1516300071584,144
1974,WS_RECV_END,1516300073086,144
1974,PLAYER_SLEEPBEFORE_START,1516300073086,145
1974,PLAYER_SLEEPBEFORE_END,1516300089148,145
1974,REQ_START,1516300089148,145
1974,REQ_END,1516300089153,145
1974,PLAYER_SLEEPBEFORE_START,1516300089153,146
1974,PLAYER_SLEEPBEFORE_END,1516300098030,146
1974,WS_SEND_START,1516300098030,146
1974,WS_SEND_END,1516300098030,146
1974,WS_RECV_START,1516300098030,147
1974,WS_RECV_END,1516300098665,147
1974,PLAYER_SLEEPBEFORE_START,1516300098665,148
1974,PLAYER_SLEEPBEFORE_END,1516300120587,148
1974,WS_SEND_START,1516300120587,148
1974,WS_SEND_END,1516300120587,148
1974,PLAYER_SLEEPBEFORE_START,1516300120587,149
1974,PLAYER_SLEEPBEFORE_END,1516300123016,149
1974,WS_SEND_START,1516300123016,149
1974,WS_SEND_END,1516300123016,149
1974,WS_RECV_START,1516300123016,150
1974,WS_RECV_END,1516300125120,150
1974,PLAYER_SLEEPBEFORE_START,1516300125120,151
1974,PLAYER_SLEEPBEFORE_END,1516300125330,151
1974,WS_SEND_START,1516300125330,151
1974,WS_SEND_END,1516300125330,151
1974,WS_RECV_START,1516300125330,152
1974,WS_RECV_END,1516300126150,152
1974,PLAYER_SLEEPBEFORE_START,1516300126150,153
1974,PLAYER_SLEEPBEFORE_END,1516300150077,153
1974,WS_SEND_START,1516300150077,153
1974,WS_SEND_END,1516300150077,153
1974,WS_RECV_START,1516300150077,154
1974,WS_RECV_END,1516300154544,154
1974,PLAYER_SLEEPBEFORE_START,1516300154544,155
1974,PLAYER_SLEEPBEFORE_END,1516300177102,155
1974,WS_SEND_START,1516300177102,155
1974,WS_SEND_END,1516300177102,155
1974,PLAYER_SLEEPBEFORE_START,1516300177102,156
1974,PLAYER_SLEEPBEFORE_END,1516300180376,156
1974,WS_SEND_START,1516300180376,156
1974,WS_SEND_END,1516300180376,156
1974,WS_RECV_START,1516300180376,157
1974,WS_RECV_END,1516300183899,157
1974,PLAYER_SLEEPBEFORE_START,1516300183899,158
1974,PLAYER_SLEEPBEFORE_END,1516300183909,158
1974,WS_SEND_START,1516300183909,158
1974,WS_SEND_END,1516300183909,158
1974,WS_RECV_START,1516300183909,159
1974,WS_RECV_END,1516300186803,159
1974,PLAYER_SLEEPBEFORE_START,1516300186803,160
1974,PLAYER_SLEEPBEFORE_END,1516300186978,160
1974,WS_SEND_START,1516300186978,160
1974,WS_SEND_END,1516300186978,160
1974,WS_RECV_START,1516300186978,161
1974,WS_RECV_END,1516300191766,161
1974,PLAYER_SLEEPBEFORE_START,1516300191766,162
1974,PLAYER_SLEEPBEFORE_END,1516300191791,162
1974,WS_SEND_START,1516300191791,162
1974,WS_SEND_END,1516300191791,162
1974,WS_RECV_START,1516300191791,163
1974,WS_RECV_END,1516300195304,163
1974,PLAYER_SLEEPBEFORE_START,1516300195304,164
1974,PLAYER_SLEEPBEFORE_END,1516300216116,164
1974,WS_SEND_START,1516300216116,164
1974,WS_SEND_END,1516300216116,164
1974,WS_RECV_START,1516300216116,165
1974,WS_RECV_END,1516300222573,165
1974,PLAYER_SLEEPBEFORE_START,1516300222573,166
1974,PLAYER_SLEEPBEFORE_END,1516300245028,166
1974,WS_SEND_START,1516300245028,166
1974,WS_SEND_END,1516300245028,166
1974,WS_RECV_START,1516300245028,167
1974,WS_RECV_END,1516300248190,167
1974,PLAYER_SLEEPBEFORE_START,1516300248190,168
1974,PLAYER_SLEEPBEFORE_END,1516300275548,168
1974,WS_SEND_START,1516300275548,168
1974,WS_SEND_END,1516300275548,168
1974,WS_RECV_START,1516300275548,169
1974,WS_RECV_END,1516300278416,169
1974,PLAYER_SLEEPBEFORE_START,1516300278416,170
1974,PLAYER_SLEEPBEFORE_END,1516300278425,170
1974,WS_SEND_START,1516300278425,170
1974,WS_SEND_END,1516300278425,170
1974,WS_RECV_START,1516300278425,171
1974,WS_RECV_END,1516300279073,171
1974,PLAYER_SLEEPBEFORE_START,1516300279073,172
1974,PLAYER_SLEEPBEFORE_END,1516300279442,172
1974,WS_SEND_START,1516300279442,172
1974,WS_SEND_END,1516300279442,172
1974,WS_RECV_START,1516300279442,173
1974,WS_RECV_END,1516300280522,173
1974,PLAYER_SLEEPBEFORE_START,1516300280522,174
1974,PLAYER_SLEEPBEFORE_END,1516300280563,174
1974,WS_SEND_START,1516300280563,174
1974,WS_SEND_END,1516300280563,174
1974,WS_RECV_START,1516300280563,175
1974,WS_RECV_END,1516300282212,175
1974,PLAYER_SLEEPBEFORE_START,1516300282212,176
1974,PLAYER_SLEEPBEFORE_END,1516300303973,176
1974,WS_SEND_START,1516300303973,176
1974,WS_SEND_END,1516300303973,176
1974,PLAYER_SLEEPBEFORE_START,1516300303973,177
1974,PLAYER_SLEEPBEFORE_END,1516300306491,177
1974,WS_SEND_START,1516300306491,177
1974,WS_SEND_END,1516300306491,177
1974,WS_RECV_START,1516300306491,178
1974,WS_RECV_END,1516300309053,178
1974,PLAYER_SLEEPBEFORE_START,1516300309053,179
1974,PLAYER_SLEEPBEFORE_END,1516300331393,179
1974,WS_SEND_START,1516300331393,179
1974,WS_SEND_END,1516300331393,179
1974,WS_RECV_START,1516300331393,180
1974,WS_RECV_END,1516300331750,180
1974,PLAYER_SLEEPBEFORE_START,1516300331750,181
1974,PLAYER_SLEEPBEFORE_END,1516300332194,181
1974,WS_SEND_START,1516300332194,181
1974,WS_SEND_END,1516300332194,181
1974,WS_RECV_START,1516300332194,182
1974,WS_RECV_END,1516300332611,182
1974,PLAYER_SLEEPBEFORE_START,1516300332611,183
1974,PLAYER_SLEEPBEFORE_END,1516300333134,183
1974,WS_SEND_START,1516300333134,183
1974,WS_SEND_END,1516300333134,183
1974,WS_RECV_START,1516300333134,184
1974,WS_RECV_END,1516300333896,184
1974,PLAYER_SLEEPBEFORE_START,1516300333896,185
1974,PLAYER_SLEEPBEFORE_END,1516300334164,185
1974,WS_SEND_START,1516300334164,185
1974,WS_SEND_END,1516300334164,185
1974,WS_RECV_START,1516300334164,186
1974,WS_RECV_END,1516300334953,186
1974,PLAYER_SLEEPBEFORE_START,1516300334953,187
1974,PLAYER_SLEEPBEFORE_END,1516300357453,187
1974,WS_SEND_START,1516300357453,187
1974,WS_SEND_END,1516300357453,187
1974,WS_RECV_START,1516300357453,188
1974,WS_RECV_END,1516300357597,188
1974,PLAYER_SLEEPBEFORE_START,1516300357597,189
1974,PLAYER_SLEEPBEFORE_END,1516300363836,189
1974,WS_SEND_START,1516300363836,189
1974,WS_SEND_END,1516300363836,189
1974,WS_RECV_START,1516300363836,190
1974,WS_RECV_END,1516300364121,190
1974,PLAYER_SLEEPBEFORE_START,1516300364121,191
1974,PLAYER_SLEEPBEFORE_END,1516300366036,191
1974,WS_SEND_START,1516300366036,191
1974,WS_SEND_END,1516300366036,191
1974,WS_RECV_START,1516300366036,192
1974,WS_RECV_END,1516300366199,192
1974,PLAYER_SLEEPBEFORE_START,1516300366199,193
1974,PLAYER_SLEEPBEFORE_END,1516300366327,193
1974,WS_SEND_START,1516300366327,193
1974,WS_SEND_END,1516300366327,193
1974,WS_RECV_START,1516300366327,194
1974,WS_RECV_END,1516300366658,194
1974,PLAYER_SLEEPBEFORE_START,1516300366658,195
1974,PLAYER_SLEEPBEFORE_END,1516300368413,195
1974,WS_SEND_START,1516300368414,195
1974,WS_SEND_END,1516300368414,195
1974,WS_RECV_START,1516300368414,196
1974,WS_RECV_END,1516300368517,196
1974,PLAYER_SLEEPBEFORE_START,1516300368517,197
1974,PLAYER_SLEEPBEFORE_END,1516300370321,197
1974,WS_SEND_START,1516300370321,197
1974,WS_SEND_END,1516300370321,197
1974,WS_RECV_START,1516300370321,198
1974,WS_RECV_END,1516300370484,198
1974,PLAYER_SLEEPBEFORE_START,1516300370484,199
1974,PLAYER_SLEEPBEFORE_END,1516300382338,199
1974,WS_SEND_START,1516300382338,199
1974,WS_SEND_END,1516300382338,199
1974,PLAYER_SLEEPBEFORE_START,1516300382338,200
1974,PLAYER_SLEEPBEFORE_END,1516300386426,200
1974,WS_SEND_START,1516300386426,200
1974,WS_SEND_END,1516300386426,200
1974,WS_RECV_START,1516300386426,201
1974,WS_RECV_END,1516300386547,201
1974,PLAYER_SLEEPBEFORE_START,1516300386547,202
1974,PLAYER_SLEEPBEFORE_END,1516300386561,202
1974,WS_SEND_START,1516300386561,202
1974,WS_SEND_END,1516300386561,202
1974,WS_RECV_START,1516300386561,203
1974,WS_RECV_END,1516300386770,203
1974,PLAYER_SLEEPBEFORE_START,1516300386770,204
1974,PLAYER_SLEEPBEFORE_END,1516300406419,204
1974,WS_SEND_START,1516300406419,204
1974,WS_SEND_END,1516300406419,204
1974,PLAYER_SLEEPBEFORE_START,1516300406419,205
1974,PLAYER_SLEEPBEFORE_END,1516300410317,205
1974,WS_SEND_START,1516300410317,205
1974,WS_SEND_END,1516300410317,205
1974,WS_RECV_START,1516300410317,206
1974,WS_RECV_END,1516300410441,206
1974,PLAYER_SLEEPBEFORE_START,1516300410441,207
1974,PLAYER_SLEEPBEFORE_END,1516300427372,207
1974,REQ_START,1516300427372,207
1974,REQ_END,1516300427377,207
1974,PLAYER_SLEEPBEFORE_START,1516300427377,208
1974,PLAYER_SLEEPBEFORE_END,1516300434229,208
1974,WS_CLOSE_START,1516300434229,208
1974,WS_CLOSE_END,1516300434229,208
1974,PLAYER_DONE,1516300434229
