# --sessions 2700 --app-url=http://shinyloadtest.rstudioservices.com/cran_explorer --output-dir test2700 --overwrite-output --log-level warn --start-interval 100 15min.log
thread_id,event,timestamp,input_line_number,comment
2065,PLAYER_SESSION_CREATE,1516299246195
2065,PLAYER_START_INTERVAL_START,1516299246195
2065,PLAYER_START_INTERVAL_END,1516299452695
2065,REQ_HOME_START,1516299452695,2
2065,REQ_HOME_END,1516299452870,2
2065,REQ_START,1516299452870,3
2065,REQ_END,1516299453224,3
2065,REQ_START,1516299453224,4
2065,REQ_END,1516299453262,4
2065,REQ_START,1516299453262,5
2065,REQ_END,1516299453303,5
2065,REQ_START,1516299453303,6
2065,REQ_END,1516299453560,6
2065,REQ_START,1516299453560,7
2065,REQ_END,1516299453615,7
2065,REQ_START,1516299453615,8
2065,REQ_END,1516299453654,8
2065,REQ_START,1516299453654,9
2065,REQ_END,1516299453686,9
2065,REQ_START,1516299453686,10
2065,REQ_END,1516299453692,10
2065,REQ_START,1516299453692,11
2065,REQ_END,1516299453725,11
2065,REQ_START,1516299453725,12
2065,REQ_END,1516299453734,12
2065,REQ_START,1516299453734,13
2065,REQ_END,1516299453768,13
2065,REQ_START,1516299453768,14
2065,REQ_END,1516299453782,14
2065,REQ_START,1516299453782,15
2065,REQ_END,1516299453932,15
2065,REQ_TOK_START,1516299453933,16
2065,REQ_TOK_END,1516299453939,16
2065,REQ_SINF_START,1516299453939,17
2065,REQ_SINF_END,1516299453945,17
2065,WS_OPEN_START,1516299453945,18
2065,WS_OPEN_END,1516299453952,18
2065,REQ_START,1516299453952,19
2065,REQ_END,1516299454107,19
2065,WS_RECV_START,1516299454107,20
2065,WS_RECV_END,1516299454107,20
2065,PLAYER_SLEEPBEFORE_START,1516299454107,21
2065,PLAYER_SLEEPBEFORE_END,1516299454112,21
2065,WS_SEND_START,1516299454112,21
2065,WS_SEND_END,1516299454112,21
2065,PLAYER_SLEEPBEFORE_START,1516299454112,22
2065,PLAYER_SLEEPBEFORE_END,1516299454116,22
2065,WS_SEND_START,1516299454116,22
2065,WS_SEND_END,1516299454116,22
2065,WS_RECV_INIT_START,1516299454116,23
2065,WS_RECV_INIT_END,1516299454142,23
2065,WS_RECV_START,1516299454142,24
2065,WS_RECV_END,1516299454218,24
2065,PLAYER_SLEEPBEFORE_START,1516299454218,25
2065,PLAYER_SLEEPBEFORE_END,1516299454225,25
2065,REQ_START,1516299454225,25
2065,REQ_END,1516299454257,25
2065,PLAYER_SLEEPBEFORE_START,1516299454257,26
2065,PLAYER_SLEEPBEFORE_END,1516299454258,26
2065,REQ_START,1516299454258,26
2065,REQ_END,1516299454353,26
2065,PLAYER_SLEEPBEFORE_START,1516299454353,27
2065,PLAYER_SLEEPBEFORE_END,1516299454356,27
2065,REQ_START,1516299454356,27
2065,REQ_END,1516299454389,27
2065,PLAYER_SLEEPBEFORE_START,1516299454389,28
2065,PLAYER_SLEEPBEFORE_END,1516299454674,28
2065,REQ_START,1516299454674,28
2065,REQ_END,1516299454880,28
2065,PLAYER_SLEEPBEFORE_START,1516299454880,29
2065,PLAYER_SLEEPBEFORE_END,1516299455055,29
2065,WS_SEND_START,1516299455055,29
2065,WS_SEND_END,1516299455055,29
2065,WS_RECV_START,1516299455055,30
2065,WS_RECV_END,1516299455167,30
2065,PLAYER_SLEEPBEFORE_START,1516299455167,31
2065,PLAYER_SLEEPBEFORE_END,1516299455178,31
2065,REQ_START,1516299455178,31
2065,REQ_END,1516299455216,31
2065,PLAYER_SLEEPBEFORE_START,1516299455216,32
2065,PLAYER_SLEEPBEFORE_END,1516299483361,32
2065,WS_SEND_START,1516299483361,32
2065,WS_SEND_END,1516299483361,32
2065,WS_RECV_START,1516299483361,33
2065,WS_RECV_END,1516299483606,33
2065,PLAYER_SLEEPBEFORE_START,1516299483606,34
2065,PLAYER_SLEEPBEFORE_END,1516299509517,34
2065,WS_SEND_START,1516299509517,34
2065,WS_SEND_END,1516299509517,34
2065,WS_RECV_START,1516299509517,35
2065,WS_RECV_END,1516299509804,35
2065,PLAYER_SLEEPBEFORE_START,1516299509804,36
2065,PLAYER_SLEEPBEFORE_END,1516299509813,36
2065,WS_SEND_START,1516299509813,36
2065,WS_SEND_END,1516299509813,36
2065,WS_RECV_START,1516299509813,37
2065,WS_RECV_END,1516299510101,37
2065,PLAYER_SLEEPBEFORE_START,1516299510101,38
2065,PLAYER_SLEEPBEFORE_END,1516299513296,38
2065,WS_SEND_START,1516299513296,38
2065,WS_SEND_END,1516299513296,38
2065,WS_RECV_START,1516299513296,39
2065,WS_RECV_END,1516299513449,39
2065,PLAYER_SLEEPBEFORE_START,1516299513449,40
2065,PLAYER_SLEEPBEFORE_END,1516299513495,40
2065,WS_SEND_START,1516299513495,40
2065,WS_SEND_END,1516299513496,40
2065,WS_RECV_START,1516299513496,41
2065,WS_RECV_END,1516299513711,41
2065,PLAYER_SLEEPBEFORE_START,1516299513711,42
2065,PLAYER_SLEEPBEFORE_END,1516299531847,42
2065,WS_SEND_START,1516299531847,42
2065,WS_SEND_END,1516299531847,42
2065,WS_RECV_START,1516299531847,43
2065,WS_RECV_END,1516299533265,43
2065,PLAYER_SLEEPBEFORE_START,1516299533265,44
2065,PLAYER_SLEEPBEFORE_END,1516299533278,44
2065,WS_SEND_START,1516299533278,44
2065,WS_SEND_END,1516299533278,44
2065,WS_RECV_START,1516299533278,45
2065,WS_RECV_END,1516299533537,45
2065,PLAYER_SLEEPBEFORE_START,1516299533537,46
2065,PLAYER_SLEEPBEFORE_END,1516299534797,46
2065,WS_SEND_START,1516299534797,46
2065,WS_SEND_END,1516299534797,46
2065,WS_RECV_START,1516299534797,47
2065,WS_RECV_END,1516299535321,47
2065,PLAYER_SLEEPBEFORE_START,1516299535321,48
2065,PLAYER_SLEEPBEFORE_END,1516299536641,48
2065,WS_SEND_START,1516299536641,48
2065,WS_SEND_END,1516299536641,48
2065,WS_RECV_START,1516299536641,49
2065,WS_RECV_END,1516299537717,49
2065,PLAYER_SLEEPBEFORE_START,1516299537717,50
2065,PLAYER_SLEEPBEFORE_END,1516299537741,50
2065,WS_SEND_START,1516299537741,50
2065,WS_SEND_END,1516299537741,50
2065,WS_RECV_START,1516299537741,51
2065,WS_RECV_END,1516299537916,51
2065,PLAYER_SLEEPBEFORE_START,1516299537916,52
2065,PLAYER_SLEEPBEFORE_END,1516299560480,52
2065,WS_SEND_START,1516299560480,52
2065,WS_SEND_END,1516299560480,52
2065,WS_RECV_START,1516299560480,53
2065,WS_RECV_END,1516299560660,53
2065,PLAYER_SLEEPBEFORE_START,1516299560660,54
2065,PLAYER_SLEEPBEFORE_END,1516299581963,54
2065,WS_SEND_START,1516299581963,54
2065,WS_SEND_END,1516299581963,54
2065,PLAYER_SLEEPBEFORE_START,1516299581963,55
2065,PLAYER_SLEEPBEFORE_END,1516299583904,55
2065,WS_SEND_START,1516299583904,55
2065,WS_SEND_END,1516299583904,55
2065,WS_RECV_START,1516299583904,56
2065,WS_RECV_END,1516299583991,56
2065,PLAYER_SLEEPBEFORE_START,1516299583991,57
2065,PLAYER_SLEEPBEFORE_END,1516299606863,57
2065,WS_SEND_START,1516299606863,57
2065,WS_SEND_END,1516299606863,57
2065,WS_RECV_START,1516299606863,58
2065,WS_RECV_END,1516299607637,58
2065,PLAYER_SLEEPBEFORE_START,1516299607637,59
2065,PLAYER_SLEEPBEFORE_END,1516299609965,59
2065,WS_SEND_START,1516299609965,59
2065,WS_SEND_END,1516299609965,59
2065,WS_RECV_START,1516299609965,60
2065,WS_RECV_END,1516299610126,60
2065,PLAYER_SLEEPBEFORE_START,1516299610126,61
2065,PLAYER_SLEEPBEFORE_END,1516299613717,61
2065,WS_SEND_START,1516299613717,61
2065,WS_SEND_END,1516299613717,61
2065,WS_RECV_START,1516299613717,62
2065,WS_RECV_END,1516299614982,62
2065,PLAYER_SLEEPBEFORE_START,1516299614982,63
2065,PLAYER_SLEEPBEFORE_END,1516299634244,63
2065,WS_SEND_START,1516299634244,63
2065,WS_SEND_END,1516299634244,63
2065,WS_RECV_START,1516299634244,64
2065,WS_RECV_END,1516299635386,64
2065,PLAYER_SLEEPBEFORE_START,1516299635386,65
2065,PLAYER_SLEEPBEFORE_END,1516299662203,65
2065,WS_SEND_START,1516299662203,65
2065,WS_SEND_END,1516299662203,65
2065,WS_RECV_START,1516299662203,66
2065,WS_RECV_END,1516299662855,66
2065,PLAYER_SLEEPBEFORE_START,1516299662855,67
2065,PLAYER_SLEEPBEFORE_END,1516299664362,67
2065,WS_SEND_START,1516299664362,67
2065,WS_SEND_END,1516299664362,67
2065,WS_RECV_START,1516299664362,68
2065,WS_RECV_END,1516299665100,68
2065,PLAYER_SLEEPBEFORE_START,1516299665100,69
2065,PLAYER_SLEEPBEFORE_END,1516299687098,69
2065,WS_SEND_START,1516299687098,69
2065,WS_SEND_END,1516299687098,69
2065,WS_RECV_START,1516299687098,70
2065,WS_RECV_END,1516299688437,70
2065,PLAYER_SLEEPBEFORE_START,1516299688437,71
2065,PLAYER_SLEEPBEFORE_END,1516299713212,71
2065,WS_SEND_START,1516299713212,71
2065,WS_SEND_END,1516299713212,71
2065,PLAYER_SLEEPBEFORE_START,1516299713212,72
2065,PLAYER_SLEEPBEFORE_END,1516299715819,72
2065,WS_SEND_START,1516299715819,72
2065,WS_SEND_END,1516299715819,72
2065,WS_RECV_START,1516299715819,73
2065,WS_RECV_END,1516299716372,73
2065,PLAYER_SLEEPBEFORE_START,1516299716372,74
2065,PLAYER_SLEEPBEFORE_END,1516299716382,74
2065,WS_SEND_START,1516299716382,74
2065,WS_SEND_END,1516299716382,74
2065,WS_RECV_START,1516299716382,75
2065,WS_RECV_END,1516299717646,75
2065,PLAYER_SLEEPBEFORE_START,1516299717646,76
2065,PLAYER_SLEEPBEFORE_END,1516299719152,76
2065,WS_SEND_START,1516299719152,76
2065,WS_SEND_END,1516299719152,76
2065,WS_RECV_START,1516299719152,77
2065,WS_RECV_END,1516299721577,77
2065,PLAYER_SLEEPBEFORE_START,1516299721577,78
2065,PLAYER_SLEEPBEFORE_END,1516299722445,78
2065,WS_SEND_START,1516299722445,78
2065,WS_SEND_END,1516299722445,78
2065,WS_RECV_START,1516299722446,79
2065,WS_RECV_END,1516299724191,79
2065,PLAYER_SLEEPBEFORE_START,1516299724191,80
2065,PLAYER_SLEEPBEFORE_END,1516299731857,80
2065,WS_SEND_START,1516299731857,80
2065,WS_SEND_END,1516299731857,80
2065,WS_RECV_START,1516299731857,81
2065,WS_RECV_END,1516299732561,81
2065,PLAYER_SLEEPBEFORE_START,1516299732561,82
2065,PLAYER_SLEEPBEFORE_END,1516299733663,82
2065,WS_SEND_START,1516299733663,82
2065,WS_SEND_END,1516299733663,82
2065,WS_RECV_START,1516299733663,83
2065,WS_RECV_END,1516299735630,83
2065,PLAYER_SLEEPBEFORE_START,1516299735630,84
2065,PLAYER_SLEEPBEFORE_END,1516299736578,84
2065,WS_SEND_START,1516299736578,84
2065,WS_SEND_END,1516299736578,84
2065,WS_RECV_START,1516299736578,85
2065,WS_RECV_END,1516299737280,85
2065,PLAYER_SLEEPBEFORE_START,1516299737280,86
2065,PLAYER_SLEEPBEFORE_END,1516299741452,86
2065,WS_SEND_START,1516299741452,86
2065,WS_SEND_END,1516299741452,86
2065,WS_RECV_START,1516299741452,87
2065,WS_RECV_END,1516299743018,87
2065,PLAYER_SLEEPBEFORE_START,1516299743018,88
2065,PLAYER_SLEEPBEFORE_END,1516299743026,88
2065,WS_SEND_START,1516299743026,88
2065,WS_SEND_END,1516299743026,88
2065,WS_RECV_START,1516299743026,89
2065,WS_RECV_END,1516299743434,89
2065,PLAYER_SLEEPBEFORE_START,1516299743434,90
2065,PLAYER_SLEEPBEFORE_END,1516299770632,90
2065,REQ_START,1516299770632,90
2065,REQ_END,1516299770673,90
2065,PLAYER_SLEEPBEFORE_START,1516299770673,91
2065,PLAYER_SLEEPBEFORE_END,1516299778563,91
2065,WS_SEND_START,1516299778563,91
2065,WS_SEND_END,1516299778563,91
2065,WS_RECV_START,1516299778563,92
2065,WS_RECV_END,1516299779909,92
2065,PLAYER_SLEEPBEFORE_START,1516299779909,93
2065,PLAYER_SLEEPBEFORE_END,1516299779924,93
2065,WS_SEND_START,1516299779924,93
2065,WS_SEND_END,1516299779924,93
2065,WS_RECV_START,1516299779924,94
2065,WS_RECV_END,1516299780617,94
2065,PLAYER_SLEEPBEFORE_START,1516299780617,95
2065,PLAYER_SLEEPBEFORE_END,1516299804172,95
2065,WS_SEND_START,1516299804172,95
2065,WS_SEND_END,1516299804172,95
2065,WS_RECV_START,1516299804172,96
2065,WS_RECV_END,1516299808472,96
2065,PLAYER_SLEEPBEFORE_START,1516299808472,97
2065,PLAYER_SLEEPBEFORE_END,1516299830913,97
2065,WS_SEND_START,1516299830913,97
2065,WS_SEND_END,1516299830913,97
2065,WS_RECV_START,1516299830913,98
2065,WS_RECV_END,1516299835090,98
2065,PLAYER_SLEEPBEFORE_START,1516299835090,99
2065,PLAYER_SLEEPBEFORE_END,1516299835111,99
2065,WS_SEND_START,1516299835111,99
2065,WS_SEND_END,1516299835111,99
2065,WS_RECV_START,1516299835111,100
2065,WS_RECV_END,1516299836723,100
2065,PLAYER_SLEEPBEFORE_START,1516299836723,101
2065,PLAYER_SLEEPBEFORE_END,1516299860283,101
2065,WS_SEND_START,1516299860283,101
2065,WS_SEND_END,1516299860283,101
2065,WS_RECV_START,1516299860283,102
2065,WS_RECV_END,1516299860666,102
2065,PLAYER_SLEEPBEFORE_START,1516299860666,103
2065,PLAYER_SLEEPBEFORE_END,1516299884291,103
2065,WS_SEND_START,1516299884291,103
2065,WS_SEND_END,1516299884291,103
2065,WS_RECV_START,1516299884291,104
2065,WS_RECV_END,1516299889721,104
2065,PLAYER_SLEEPBEFORE_START,1516299889721,105
2065,PLAYER_SLEEPBEFORE_END,1516299915098,105
2065,WS_SEND_START,1516299915098,105
2065,WS_SEND_END,1516299915098,105
2065,WS_RECV_START,1516299915098,106
2065,WS_RECV_END,1516299915578,106
2065,PLAYER_SLEEPBEFORE_START,1516299915578,107
2065,PLAYER_SLEEPBEFORE_END,1516299939002,107
2065,WS_SEND_START,1516299939002,107
2065,WS_SEND_END,1516299939002,107
2065,WS_RECV_START,1516299939002,108
2065,WS_RECV_END,1516299940419,108
2065,PLAYER_SLEEPBEFORE_START,1516299940419,109
2065,PLAYER_SLEEPBEFORE_END,1516299940428,109
2065,WS_SEND_START,1516299940428,109
2065,WS_SEND_END,1516299940428,109
2065,WS_RECV_START,1516299940428,110
2065,WS_RECV_END,1516299941590,110
2065,PLAYER_SLEEPBEFORE_START,1516299941590,111
2065,PLAYER_SLEEPBEFORE_END,1516299942549,111
2065,WS_SEND_START,1516299942549,111
2065,WS_SEND_END,1516299942549,111
2065,WS_RECV_START,1516299942549,112
2065,WS_RECV_END,1516299944432,112
2065,PLAYER_SLEEPBEFORE_START,1516299944432,113
2065,PLAYER_SLEEPBEFORE_END,1516299944994,113
2065,WS_SEND_START,1516299944994,113
2065,WS_SEND_END,1516299944994,113
2065,WS_RECV_START,1516299944994,114
2065,WS_RECV_END,1516299945976,114
2065,PLAYER_SLEEPBEFORE_START,1516299945976,115
2065,PLAYER_SLEEPBEFORE_END,1516299945985,115
2065,WS_SEND_START,1516299945985,115
2065,WS_SEND_END,1516299945985,115
2065,WS_RECV_START,1516299945985,116
2065,WS_RECV_END,1516299946292,116
2065,PLAYER_SLEEPBEFORE_START,1516299946292,117
2065,PLAYER_SLEEPBEFORE_END,1516299966653,117
2065,WS_SEND_START,1516299966653,117
2065,WS_SEND_END,1516299966653,117
2065,PLAYER_SLEEPBEFORE_START,1516299966653,118
2065,PLAYER_SLEEPBEFORE_END,1516299970405,118
2065,WS_SEND_START,1516299970405,118
2065,WS_SEND_END,1516299970405,118
2065,WS_RECV_START,1516299970405,119
2065,WS_RECV_END,1516299970767,119
2065,PLAYER_SLEEPBEFORE_START,1516299970767,120
2065,PLAYER_SLEEPBEFORE_END,1516299971755,120
2065,WS_SEND_START,1516299971756,120
2065,WS_SEND_END,1516299971756,120
2065,WS_RECV_START,1516299971756,121
2065,WS_RECV_END,1516299972813,121
2065,PLAYER_SLEEPBEFORE_START,1516299972813,122
2065,PLAYER_SLEEPBEFORE_END,1516299973998,122
2065,WS_SEND_START,1516299973998,122
2065,WS_SEND_END,1516299973998,122
2065,WS_RECV_START,1516299973998,123
2065,WS_RECV_END,1516299975392,123
2065,PLAYER_SLEEPBEFORE_START,1516299975392,124
2065,PLAYER_SLEEPBEFORE_END,1516299999797,124
2065,WS_SEND_START,1516299999797,124
2065,WS_SEND_END,1516299999797,124
2065,WS_RECV_START,1516299999797,125
2065,WS_RECV_END,1516300002181,125
2065,PLAYER_SLEEPBEFORE_START,1516300002181,126
2065,PLAYER_SLEEPBEFORE_END,1516300022693,126
2065,WS_SEND_START,1516300022693,126
2065,WS_SEND_END,1516300022693,126
2065,PLAYER_SLEEPBEFORE_START,1516300022693,127
2065,PLAYER_SLEEPBEFORE_END,1516300025747,127
2065,WS_SEND_START,1516300025747,127
2065,WS_SEND_END,1516300025747,127
2065,WS_RECV_START,1516300025747,128
2065,WS_RECV_END,1516300026510,128
2065,PLAYER_SLEEPBEFORE_START,1516300026510,129
2065,PLAYER_SLEEPBEFORE_END,1516300026530,129
2065,WS_SEND_START,1516300026530,129
2065,WS_SEND_END,1516300026530,129
2065,WS_RECV_START,1516300026530,130
2065,WS_RECV_END,1516300026780,130
2065,PLAYER_SLEEPBEFORE_START,1516300026780,131
2065,PLAYER_SLEEPBEFORE_END,1516300048404,131
2065,WS_SEND_START,1516300048404,131
2065,WS_SEND_END,1516300048404,131
2065,PLAYER_SLEEPBEFORE_START,1516300048404,132
2065,PLAYER_SLEEPBEFORE_END,1516300051484,132
2065,WS_SEND_START,1516300051484,132
2065,WS_SEND_END,1516300051484,132
2065,WS_RECV_START,1516300051484,133
2065,WS_RECV_END,1516300051866,133
2065,PLAYER_SLEEPBEFORE_START,1516300051866,134
2065,PLAYER_SLEEPBEFORE_END,1516300073083,134
2065,WS_SEND_START,1516300073083,134
2065,WS_SEND_END,1516300073084,134
2065,PLAYER_SLEEPBEFORE_START,1516300073084,135
2065,PLAYER_SLEEPBEFORE_END,1516300076274,135
2065,WS_SEND_START,1516300076274,135
2065,WS_SEND_END,1516300076274,135
2065,WS_RECV_START,1516300076274,136
2065,WS_RECV_END,1516300077203,136
2065,PLAYER_SLEEPBEFORE_START,1516300077203,137
2065,PLAYER_SLEEPBEFORE_END,1516300077210,137
2065,WS_SEND_START,1516300077210,137
2065,WS_SEND_END,1516300077210,137
2065,WS_RECV_START,1516300077210,138
2065,WS_RECV_END,1516300077334,138
2065,PLAYER_SLEEPBEFORE_START,1516300077334,139
2065,PLAYER_SLEEPBEFORE_END,1516300078025,139
2065,WS_SEND_START,1516300078025,139
2065,WS_SEND_END,1516300078025,139
2065,WS_RECV_START,1516300078025,140
2065,WS_RECV_END,1516300078469,140
2065,PLAYER_SLEEPBEFORE_START,1516300078469,141
2065,PLAYER_SLEEPBEFORE_END,1516300079124,141
2065,WS_SEND_START,1516300079124,141
2065,WS_SEND_END,1516300079124,141
2065,WS_RECV_START,1516300079124,142
2065,WS_RECV_END,1516300080022,142
2065,PLAYER_SLEEPBEFORE_START,1516300080022,143
2065,PLAYER_SLEEPBEFORE_END,1516300080079,143
2065,WS_SEND_START,1516300080079,143
2065,WS_SEND_END,1516300080079,143
2065,WS_RECV_START,1516300080079,144
2065,WS_RECV_END,1516300081450,144
2065,PLAYER_SLEEPBEFORE_START,1516300081450,145
2065,PLAYER_SLEEPBEFORE_END,1516300097512,145
2065,REQ_START,1516300097512,145
2065,REQ_END,1516300097519,145
2065,PLAYER_SLEEPBEFORE_START,1516300097519,146
2065,PLAYER_SLEEPBEFORE_END,1516300106397,146
2065,WS_SEND_START,1516300106397,146
2065,WS_SEND_END,1516300106397,146
2065,WS_RECV_START,1516300106397,147
2065,WS_RECV_END,1516300107471,147
2065,PLAYER_SLEEPBEFORE_START,1516300107471,148
2065,PLAYER_SLEEPBEFORE_END,1516300129393,148
2065,WS_SEND_START,1516300129393,148
2065,WS_SEND_END,1516300129393,148
2065,PLAYER_SLEEPBEFORE_START,1516300129393,149
2065,PLAYER_SLEEPBEFORE_END,1516300131821,149
2065,WS_SEND_START,1516300131821,149
2065,WS_SEND_END,1516300131821,149
2065,WS_RECV_START,1516300131821,150
2065,WS_RECV_END,1516300133321,150
2065,PLAYER_SLEEPBEFORE_START,1516300133321,151
2065,PLAYER_SLEEPBEFORE_END,1516300133531,151
2065,WS_SEND_START,1516300133531,151
2065,WS_SEND_END,1516300133531,151
2065,WS_RECV_START,1516300133531,152
2065,WS_RECV_END,1516300134636,152
2065,PLAYER_SLEEPBEFORE_START,1516300134636,153
2065,PLAYER_SLEEPBEFORE_END,1516300158563,153
2065,WS_SEND_START,1516300158563,153
2065,WS_SEND_END,1516300158563,153
2065,WS_RECV_START,1516300158563,154
2065,WS_RECV_END,1516300161923,154
2065,PLAYER_SLEEPBEFORE_START,1516300161923,155
2065,PLAYER_SLEEPBEFORE_END,1516300184481,155
2065,WS_SEND_START,1516300184481,155
2065,WS_SEND_END,1516300184481,155
2065,PLAYER_SLEEPBEFORE_START,1516300184481,156
2065,PLAYER_SLEEPBEFORE_END,1516300187755,156
2065,WS_SEND_START,1516300187755,156
2065,WS_SEND_END,1516300187755,156
2065,WS_RECV_START,1516300187755,157
2065,WS_RECV_END,1516300192028,157
2065,PLAYER_SLEEPBEFORE_START,1516300192028,158
2065,PLAYER_SLEEPBEFORE_END,1516300192038,158
2065,WS_SEND_START,1516300192038,158
2065,WS_SEND_END,1516300192038,158
2065,WS_RECV_START,1516300192038,159
2065,WS_RECV_END,1516300195619,159
2065,PLAYER_SLEEPBEFORE_START,1516300195619,160
2065,PLAYER_SLEEPBEFORE_END,1516300195794,160
2065,WS_SEND_START,1516300195794,160
2065,WS_SEND_END,1516300195794,160
2065,WS_RECV_START,1516300195794,161
2065,WS_RECV_END,1516300199278,161
2065,PLAYER_SLEEPBEFORE_START,1516300199278,162
2065,PLAYER_SLEEPBEFORE_END,1516300199304,162
2065,WS_SEND_START,1516300199304,162
2065,WS_SEND_END,1516300199304,162
2065,WS_RECV_START,1516300199304,163
2065,WS_RECV_END,1516300201842,163
2065,PLAYER_SLEEPBEFORE_START,1516300201842,164
2065,PLAYER_SLEEPBEFORE_END,1516300222655,164
2065,WS_SEND_START,1516300222655,164
2065,WS_SEND_END,1516300222655,164
2065,WS_RECV_START,1516300222655,165
2065,WS_RECV_END,1516300226233,165
2065,PLAYER_SLEEPBEFORE_START,1516300226233,166
2065,PLAYER_SLEEPBEFORE_END,1516300248689,166
2065,WS_SEND_START,1516300248689,166
2065,WS_SEND_END,1516300248689,166
2065,WS_RECV_START,1516300248689,167
2065,WS_RECV_END,1516300252755,167
2065,PLAYER_SLEEPBEFORE_START,1516300252755,168
2065,PLAYER_SLEEPBEFORE_END,1516300280112,168
2065,WS_SEND_START,1516300280112,168
2065,WS_SEND_END,1516300280112,168
2065,WS_RECV_START,1516300280112,169
2065,WS_RECV_END,1516300282257,169
2065,PLAYER_SLEEPBEFORE_START,1516300282257,170
2065,PLAYER_SLEEPBEFORE_END,1516300282266,170
2065,WS_SEND_START,1516300282266,170
2065,WS_SEND_END,1516300282266,170
2065,WS_RECV_START,1516300282266,171
2065,WS_RECV_END,1516300282939,171
2065,PLAYER_SLEEPBEFORE_START,1516300282939,172
2065,PLAYER_SLEEPBEFORE_END,1516300283308,172
2065,WS_SEND_START,1516300283308,172
2065,WS_SEND_END,1516300283308,172
2065,WS_RECV_START,1516300283308,173
2065,WS_RECV_END,1516300284294,173
2065,PLAYER_SLEEPBEFORE_START,1516300284294,174
2065,PLAYER_SLEEPBEFORE_END,1516300284335,174
2065,WS_SEND_START,1516300284335,174
2065,WS_SEND_END,1516300284335,174
2065,WS_RECV_START,1516300284335,175
2065,WS_RECV_END,1516300286271,175
2065,PLAYER_SLEEPBEFORE_START,1516300286271,176
2065,PLAYER_SLEEPBEFORE_END,1516300308032,176
2065,WS_SEND_START,1516300308032,176
2065,WS_SEND_END,1516300308032,176
2065,PLAYER_SLEEPBEFORE_START,1516300308032,177
2065,PLAYER_SLEEPBEFORE_END,1516300310551,177
2065,WS_SEND_START,1516300310551,177
2065,WS_SEND_END,1516300310551,177
2065,WS_RECV_START,1516300310551,178
2065,WS_RECV_END,1516300310682,178
2065,PLAYER_SLEEPBEFORE_START,1516300310682,179
2065,PLAYER_SLEEPBEFORE_END,1516300333022,179
2065,WS_SEND_START,1516300333022,179
2065,WS_SEND_END,1516300333022,179
2065,WS_RECV_START,1516300333022,180
2065,WS_RECV_END,1516300333129,180
2065,PLAYER_SLEEPBEFORE_START,1516300333129,181
2065,PLAYER_SLEEPBEFORE_END,1516300333573,181
2065,WS_SEND_START,1516300333573,181
2065,WS_SEND_END,1516300333573,181
2065,WS_RECV_START,1516300333573,182
2065,WS_RECV_END,1516300333746,182
2065,PLAYER_SLEEPBEFORE_START,1516300333746,183
2065,PLAYER_SLEEPBEFORE_END,1516300334269,183
2065,WS_SEND_START,1516300334269,183
2065,WS_SEND_END,1516300334269,183
2065,WS_RECV_START,1516300334269,184
2065,WS_RECV_END,1516300334774,184
2065,PLAYER_SLEEPBEFORE_START,1516300334774,185
2065,PLAYER_SLEEPBEFORE_END,1516300335042,185
2065,WS_SEND_START,1516300335042,185
2065,WS_SEND_END,1516300335042,185
2065,WS_RECV_START,1516300335042,186
2065,WS_RECV_END,1516300335677,186
2065,PLAYER_SLEEPBEFORE_START,1516300335677,187
2065,PLAYER_SLEEPBEFORE_END,1516300358177,187
2065,WS_SEND_START,1516300358177,187
2065,WS_SEND_END,1516300358177,187
2065,WS_RECV_START,1516300358177,188
2065,WS_RECV_END,1516300358346,188
2065,PLAYER_SLEEPBEFORE_START,1516300358346,189
2065,PLAYER_SLEEPBEFORE_END,1516300364585,189
2065,WS_SEND_START,1516300364585,189
2065,WS_SEND_END,1516300364585,189
2065,WS_RECV_START,1516300364585,190
2065,WS_RECV_END,1516300364694,190
2065,PLAYER_SLEEPBEFORE_START,1516300364694,191
2065,PLAYER_SLEEPBEFORE_END,1516300366609,191
2065,WS_SEND_START,1516300366609,191
2065,WS_SEND_END,1516300366609,191
2065,WS_RECV_START,1516300366609,192
2065,WS_RECV_END,1516300366734,192
2065,PLAYER_SLEEPBEFORE_START,1516300366735,193
2065,PLAYER_SLEEPBEFORE_END,1516300366863,193
2065,WS_SEND_START,1516300366863,193
2065,WS_SEND_END,1516300366863,193
2065,WS_RECV_START,1516300366863,194
2065,WS_RECV_END,1516300367099,194
2065,PLAYER_SLEEPBEFORE_START,1516300367099,195
2065,PLAYER_SLEEPBEFORE_END,1516300368854,195
2065,WS_SEND_START,1516300368854,195
2065,WS_SEND_END,1516300368854,195
2065,WS_RECV_START,1516300368854,196
2065,WS_RECV_END,1516300368950,196
2065,PLAYER_SLEEPBEFORE_START,1516300368950,197
2065,PLAYER_SLEEPBEFORE_END,1516300370755,197
2065,WS_SEND_START,1516300370755,197
2065,WS_SEND_END,1516300370755,197
2065,WS_RECV_START,1516300370755,198
2065,WS_RECV_END,1516300371293,198
2065,PLAYER_SLEEPBEFORE_START,1516300371293,199
2065,PLAYER_SLEEPBEFORE_END,1516300383147,199
2065,WS_SEND_START,1516300383147,199
2065,WS_SEND_END,1516300383147,199
2065,PLAYER_SLEEPBEFORE_START,1516300383147,200
2065,PLAYER_SLEEPBEFORE_END,1516300387236,200
2065,WS_SEND_START,1516300387236,200
2065,WS_SEND_END,1516300387236,200
2065,WS_RECV_START,1516300387236,201
2065,WS_RECV_END,1516300387465,201
2065,PLAYER_SLEEPBEFORE_START,1516300387465,202
2065,PLAYER_SLEEPBEFORE_END,1516300387479,202
2065,WS_SEND_START,1516300387479,202
2065,WS_SEND_END,1516300387479,202
2065,WS_RECV_START,1516300387479,203
2065,WS_RECV_END,1516300387586,203
2065,PLAYER_SLEEPBEFORE_START,1516300387586,204
2065,PLAYER_SLEEPBEFORE_END,1516300407235,204
2065,WS_SEND_START,1516300407235,204
2065,WS_SEND_END,1516300407235,204
2065,PLAYER_SLEEPBEFORE_START,1516300407235,205
2065,PLAYER_SLEEPBEFORE_END,1516300411133,205
2065,WS_SEND_START,1516300411133,205
2065,WS_SEND_END,1516300411133,205
2065,WS_RECV_START,1516300411133,206
2065,WS_RECV_END,1516300411263,206
2065,PLAYER_SLEEPBEFORE_START,1516300411263,207
2065,PLAYER_SLEEPBEFORE_END,1516300428194,207
2065,REQ_START,1516300428194,207
2065,REQ_END,1516300428201,207
2065,PLAYER_SLEEPBEFORE_START,1516300428201,208
2065,PLAYER_SLEEPBEFORE_END,1516300435053,208
2065,WS_CLOSE_START,1516300435053,208
2065,WS_CLOSE_END,1516300435053,208
2065,PLAYER_DONE,1516300435053
