# --sessions 2700 --app-url=http://shinyloadtest.rstudioservices.com/cran_explorer --output-dir test2700 --overwrite-output --log-level warn --start-interval 100 15min.log
thread_id,event,timestamp,input_line_number,comment
2116,PLAYER_SESSION_CREATE,1516299246194
2116,PLAYER_START_INTERVAL_START,1516299246194
2116,PLAYER_START_INTERVAL_END,1516299457794
2116,REQ_HOME_START,1516299457794,2
2116,REQ_HOME_END,1516299458772,2
2116,REQ_START,1516299458772,3
2116,REQ_END,1516299459116,3
2116,REQ_START,1516299459116,4
2116,REQ_END,1516299459158,4
2116,REQ_START,1516299459158,5
2116,REQ_END,1516299459197,5
2116,REQ_START,1516299459197,6
2116,REQ_END,1516299459357,6
2116,REQ_START,1516299459357,7
2116,REQ_END,1516299459400,7
2116,REQ_START,1516299459400,8
2116,REQ_END,1516299459852,8
2116,REQ_START,1516299459852,9
2116,REQ_END,1516299459897,9
2116,REQ_START,1516299459897,10
2116,REQ_END,1516299459905,10
2116,REQ_START,1516299459905,11
2116,REQ_END,1516299459940,11
2116,REQ_START,1516299459940,12
2116,REQ_END,1516299459951,12
2116,REQ_START,1516299459951,13
2116,REQ_END,1516299459985,13
2116,REQ_START,1516299459985,14
2116,REQ_END,1516299460000,14
2116,REQ_START,1516299460000,15
2116,REQ_END,1516299460663,15
2116,REQ_TOK_START,1516299460663,16
2116,REQ_TOK_END,1516299460670,16
2116,REQ_SINF_START,1516299460670,17
2116,REQ_SINF_END,1516299460678,17
2116,WS_OPEN_START,1516299460678,18
2116,WS_OPEN_END,1516299460685,18
2116,REQ_START,1516299460685,19
2116,REQ_END,1516299460873,19
2116,WS_RECV_START,1516299460873,20
2116,WS_RECV_END,1516299460873,20
2116,PLAYER_SLEEPBEFORE_START,1516299460873,21
2116,PLAYER_SLEEPBEFORE_END,1516299460878,21
2116,WS_SEND_START,1516299460878,21
2116,WS_SEND_END,1516299460878,21
2116,PLAYER_SLEEPBEFORE_START,1516299460878,22
2116,PLAYER_SLEEPBEFORE_END,1516299460879,22
2116,WS_SEND_START,1516299460879,22
2116,WS_SEND_END,1516299460879,22
2116,WS_RECV_INIT_START,1516299460879,23
2116,WS_RECV_INIT_END,1516299461608,23
2116,WS_RECV_START,1516299461608,24
2116,WS_RECV_END,1516299461761,24
2116,PLAYER_SLEEPBEFORE_START,1516299461761,25
2116,PLAYER_SLEEPBEFORE_END,1516299461768,25
2116,REQ_START,1516299461768,25
2116,REQ_END,1516299462172,25
2116,PLAYER_SLEEPBEFORE_START,1516299462172,26
2116,PLAYER_SLEEPBEFORE_END,1516299462173,26
2116,REQ_START,1516299462173,26
2116,REQ_END,1516299462231,26
2116,PLAYER_SLEEPBEFORE_START,1516299462231,27
2116,PLAYER_SLEEPBEFORE_END,1516299462234,27
2116,REQ_START,1516299462234,27
2116,REQ_END,1516299462283,27
2116,PLAYER_SLEEPBEFORE_START,1516299462283,28
2116,PLAYER_SLEEPBEFORE_END,1516299462568,28
2116,REQ_START,1516299462568,28
2116,REQ_END,1516299462816,28
2116,PLAYER_SLEEPBEFORE_START,1516299462816,29
2116,PLAYER_SLEEPBEFORE_END,1516299462991,29
2116,WS_SEND_START,1516299462991,29
2116,WS_SEND_END,1516299462991,29
2116,WS_RECV_START,1516299462991,30
2116,WS_RECV_END,1516299463525,30
2116,PLAYER_SLEEPBEFORE_START,1516299463525,31
2116,PLAYER_SLEEPBEFORE_END,1516299463536,31
2116,REQ_START,1516299463536,31
2116,REQ_END,1516299464786,31
2116,PLAYER_SLEEPBEFORE_START,1516299464786,32
2116,PLAYER_SLEEPBEFORE_END,1516299492931,32
2116,WS_SEND_START,1516299492931,32
2116,WS_SEND_END,1516299492931,32
2116,WS_RECV_START,1516299492931,33
2116,WS_RECV_END,1516299493433,33
2116,PLAYER_SLEEPBEFORE_START,1516299493433,34
2116,PLAYER_SLEEPBEFORE_END,1516299519344,34
2116,WS_SEND_START,1516299519344,34
2116,WS_SEND_END,1516299519344,34
2116,WS_RECV_START,1516299519344,35
2116,WS_RECV_END,1516299520563,35
2116,PLAYER_SLEEPBEFORE_START,1516299520563,36
2116,PLAYER_SLEEPBEFORE_END,1516299520572,36
2116,WS_SEND_START,1516299520572,36
2116,WS_SEND_END,1516299520572,36
2116,WS_RECV_START,1516299520572,37
2116,WS_RECV_END,1516299520813,37
2116,PLAYER_SLEEPBEFORE_START,1516299520813,38
2116,PLAYER_SLEEPBEFORE_END,1516299524008,38
2116,WS_SEND_START,1516299524008,38
2116,WS_SEND_END,1516299524008,38
2116,WS_RECV_START,1516299524009,39
2116,WS_RECV_END,1516299524509,39
2116,PLAYER_SLEEPBEFORE_START,1516299524509,40
2116,PLAYER_SLEEPBEFORE_END,1516299524556,40
2116,WS_SEND_START,1516299524556,40
2116,WS_SEND_END,1516299524556,40
2116,WS_RECV_START,1516299524556,41
2116,WS_RECV_END,1516299525151,41
2116,PLAYER_SLEEPBEFORE_START,1516299525151,42
2116,PLAYER_SLEEPBEFORE_END,1516299543286,42
2116,WS_SEND_START,1516299543286,42
2116,WS_SEND_END,1516299543286,42
2116,WS_RECV_START,1516299543286,43
2116,WS_RECV_END,1516299546675,43
2116,PLAYER_SLEEPBEFORE_START,1516299546675,44
2116,PLAYER_SLEEPBEFORE_END,1516299546687,44
2116,WS_SEND_START,1516299546687,44
2116,WS_SEND_END,1516299546687,44
2116,WS_RECV_START,1516299546687,45
2116,WS_RECV_END,1516299548778,45
2116,PLAYER_SLEEPBEFORE_START,1516299548778,46
2116,PLAYER_SLEEPBEFORE_END,1516299550038,46
2116,WS_SEND_START,1516299550038,46
2116,WS_SEND_END,1516299550038,46
2116,WS_RECV_START,1516299550038,47
2116,WS_RECV_END,1516299550585,47
2116,PLAYER_SLEEPBEFORE_START,1516299550585,48
2116,PLAYER_SLEEPBEFORE_END,1516299551905,48
2116,WS_SEND_START,1516299551905,48
2116,WS_SEND_END,1516299551905,48
2116,WS_RECV_START,1516299551905,49
2116,WS_RECV_END,1516299552712,49
2116,PLAYER_SLEEPBEFORE_START,1516299552712,50
2116,PLAYER_SLEEPBEFORE_END,1516299552736,50
2116,WS_SEND_START,1516299552736,50
2116,WS_SEND_END,1516299552737,50
2116,WS_RECV_START,1516299552737,51
2116,WS_RECV_END,1516299554325,51
2116,PLAYER_SLEEPBEFORE_START,1516299554325,52
2116,PLAYER_SLEEPBEFORE_END,1516299576889,52
2116,WS_SEND_START,1516299576889,52
2116,WS_SEND_END,1516299576889,52
2116,WS_RECV_START,1516299576889,53
2116,WS_RECV_END,1516299580590,53
2116,PLAYER_SLEEPBEFORE_START,1516299580590,54
2116,PLAYER_SLEEPBEFORE_END,1516299601893,54
2116,WS_SEND_START,1516299601893,54
2116,WS_SEND_END,1516299601893,54
2116,PLAYER_SLEEPBEFORE_START,1516299601893,55
2116,PLAYER_SLEEPBEFORE_END,1516299603834,55
2116,WS_SEND_START,1516299603834,55
2116,WS_SEND_END,1516299603834,55
2116,WS_RECV_START,1516299603834,56
2116,WS_RECV_END,1516299604539,56
2116,PLAYER_SLEEPBEFORE_START,1516299604539,57
2116,PLAYER_SLEEPBEFORE_END,1516299627411,57
2116,WS_SEND_START,1516299627411,57
2116,WS_SEND_END,1516299627411,57
2116,WS_RECV_START,1516299627411,58
2116,WS_RECV_END,1516299628812,58
2116,PLAYER_SLEEPBEFORE_START,1516299628812,59
2116,PLAYER_SLEEPBEFORE_END,1516299631139,59
2116,WS_SEND_START,1516299631139,59
2116,WS_SEND_END,1516299631139,59
2116,WS_RECV_START,1516299631139,60
2116,WS_RECV_END,1516299632584,60
2116,PLAYER_SLEEPBEFORE_START,1516299632584,61
2116,PLAYER_SLEEPBEFORE_END,1516299636175,61
2116,WS_SEND_START,1516299636175,61
2116,WS_SEND_END,1516299636175,61
2116,WS_RECV_START,1516299636175,62
2116,WS_RECV_END,1516299638193,62
2116,PLAYER_SLEEPBEFORE_START,1516299638193,63
2116,PLAYER_SLEEPBEFORE_END,1516299657455,63
2116,WS_SEND_START,1516299657455,63
2116,WS_SEND_END,1516299657455,63
2116,WS_RECV_START,1516299657455,64
2116,WS_RECV_END,1516299657574,64
2116,PLAYER_SLEEPBEFORE_START,1516299657574,65
2116,PLAYER_SLEEPBEFORE_END,1516299684391,65
2116,WS_SEND_START,1516299684391,65
2116,WS_SEND_END,1516299684391,65
2116,WS_RECV_START,1516299684391,66
2116,WS_RECV_END,1516299684665,66
2116,PLAYER_SLEEPBEFORE_START,1516299684665,67
2116,PLAYER_SLEEPBEFORE_END,1516299686172,67
2116,WS_SEND_START,1516299686172,67
2116,WS_SEND_END,1516299686172,67
2116,WS_RECV_START,1516299686172,68
2116,WS_RECV_END,1516299687025,68
2116,PLAYER_SLEEPBEFORE_START,1516299687025,69
2116,PLAYER_SLEEPBEFORE_END,1516299709023,69
2116,WS_SEND_START,1516299709023,69
2116,WS_SEND_END,1516299709023,69
2116,WS_RECV_START,1516299709023,70
2116,WS_RECV_END,1516299709461,70
2116,PLAYER_SLEEPBEFORE_START,1516299709461,71
2116,PLAYER_SLEEPBEFORE_END,1516299734236,71
2116,WS_SEND_START,1516299734236,71
2116,WS_SEND_END,1516299734236,71
2116,PLAYER_SLEEPBEFORE_START,1516299734236,72
2116,PLAYER_SLEEPBEFORE_END,1516299736843,72
2116,WS_SEND_START,1516299736843,72
2116,WS_SEND_END,1516299736844,72
2116,WS_RECV_START,1516299736844,73
2116,WS_RECV_END,1516299737556,73
2116,PLAYER_SLEEPBEFORE_START,1516299737556,74
2116,PLAYER_SLEEPBEFORE_END,1516299737565,74
2116,WS_SEND_START,1516299737565,74
2116,WS_SEND_END,1516299737565,74
2116,WS_RECV_START,1516299737565,75
2116,WS_RECV_END,1516299737953,75
2116,PLAYER_SLEEPBEFORE_START,1516299737953,76
2116,PLAYER_SLEEPBEFORE_END,1516299739460,76
2116,WS_SEND_START,1516299739460,76
2116,WS_SEND_END,1516299739460,76
2116,WS_RECV_START,1516299739460,77
2116,WS_RECV_END,1516299740039,77
2116,PLAYER_SLEEPBEFORE_START,1516299740039,78
2116,PLAYER_SLEEPBEFORE_END,1516299740907,78
2116,WS_SEND_START,1516299740907,78
2116,WS_SEND_END,1516299740907,78
2116,WS_RECV_START,1516299740907,79
2116,WS_RECV_END,1516299741496,79
2116,PLAYER_SLEEPBEFORE_START,1516299741496,80
2116,PLAYER_SLEEPBEFORE_END,1516299749162,80
2116,WS_SEND_START,1516299749162,80
2116,WS_SEND_END,1516299749162,80
2116,WS_RECV_START,1516299749162,81
2116,WS_RECV_END,1516299749543,81
2116,PLAYER_SLEEPBEFORE_START,1516299749543,82
2116,PLAYER_SLEEPBEFORE_END,1516299750645,82
2116,WS_SEND_START,1516299750645,82
2116,WS_SEND_END,1516299750645,82
2116,WS_RECV_START,1516299750645,83
2116,WS_RECV_END,1516299750715,83
2116,PLAYER_SLEEPBEFORE_START,1516299750715,84
2116,PLAYER_SLEEPBEFORE_END,1516299751663,84
2116,WS_SEND_START,1516299751663,84
2116,WS_SEND_END,1516299751663,84
2116,WS_RECV_START,1516299751663,85
2116,WS_RECV_END,1516299752361,85
2116,PLAYER_SLEEPBEFORE_START,1516299752361,86
2116,PLAYER_SLEEPBEFORE_END,1516299756533,86
2116,WS_SEND_START,1516299756533,86
2116,WS_SEND_END,1516299756533,86
2116,WS_RECV_START,1516299756534,87
2116,WS_RECV_END,1516299758484,87
2116,PLAYER_SLEEPBEFORE_START,1516299758484,88
2116,PLAYER_SLEEPBEFORE_END,1516299758492,88
2116,WS_SEND_START,1516299758492,88
2116,WS_SEND_END,1516299758492,88
2116,WS_RECV_START,1516299758492,89
2116,WS_RECV_END,1516299759619,89
2116,PLAYER_SLEEPBEFORE_START,1516299759619,90
2116,PLAYER_SLEEPBEFORE_END,1516299786816,90
2116,REQ_START,1516299786816,90
2116,REQ_END,1516299786824,90
2116,PLAYER_SLEEPBEFORE_START,1516299786824,91
2116,PLAYER_SLEEPBEFORE_END,1516299794713,91
2116,WS_SEND_START,1516299794713,91
2116,WS_SEND_END,1516299794714,91
2116,WS_RECV_START,1516299794714,92
2116,WS_RECV_END,1516299795272,92
2116,PLAYER_SLEEPBEFORE_START,1516299795272,93
2116,PLAYER_SLEEPBEFORE_END,1516299795287,93
2116,WS_SEND_START,1516299795287,93
2116,WS_SEND_END,1516299795287,93
2116,WS_RECV_START,1516299795287,94
2116,WS_RECV_END,1516299795911,94
2116,PLAYER_SLEEPBEFORE_START,1516299795911,95
2116,PLAYER_SLEEPBEFORE_END,1516299819466,95
2116,WS_SEND_START,1516299819466,95
2116,WS_SEND_END,1516299819466,95
2116,WS_RECV_START,1516299819466,96
2116,WS_RECV_END,1516299821639,96
2116,PLAYER_SLEEPBEFORE_START,1516299821639,97
2116,PLAYER_SLEEPBEFORE_END,1516299844079,97
2116,WS_SEND_START,1516299844079,97
2116,WS_SEND_END,1516299844079,97
2116,WS_RECV_START,1516299844079,98
2116,WS_RECV_END,1516299844586,98
2116,PLAYER_SLEEPBEFORE_START,1516299844586,99
2116,PLAYER_SLEEPBEFORE_END,1516299844607,99
2116,WS_SEND_START,1516299844607,99
2116,WS_SEND_END,1516299844607,99
2116,WS_RECV_START,1516299844607,100
2116,WS_RECV_END,1516299844797,100
2116,PLAYER_SLEEPBEFORE_START,1516299844797,101
2116,PLAYER_SLEEPBEFORE_END,1516299868356,101
2116,WS_SEND_START,1516299868356,101
2116,WS_SEND_END,1516299868356,101
2116,WS_RECV_START,1516299868356,102
2116,WS_RECV_END,1516299870385,102
2116,PLAYER_SLEEPBEFORE_START,1516299870385,103
2116,PLAYER_SLEEPBEFORE_END,1516299894010,103
2116,WS_SEND_START,1516299894010,103
2116,WS_SEND_END,1516299894010,103
2116,WS_RECV_START,1516299894010,104
2116,WS_RECV_END,1516299895999,104
2116,PLAYER_SLEEPBEFORE_START,1516299895999,105
2116,PLAYER_SLEEPBEFORE_END,1516299921376,105
2116,WS_SEND_START,1516299921376,105
2116,WS_SEND_END,1516299921376,105
2116,WS_RECV_START,1516299921376,106
2116,WS_RECV_END,1516299922359,106
2116,PLAYER_SLEEPBEFORE_START,1516299922359,107
2116,PLAYER_SLEEPBEFORE_END,1516299945782,107
2116,WS_SEND_START,1516299945782,107
2116,WS_SEND_END,1516299945782,107
2116,WS_RECV_START,1516299945782,108
2116,WS_RECV_END,1516299946108,108
2116,PLAYER_SLEEPBEFORE_START,1516299946108,109
2116,PLAYER_SLEEPBEFORE_END,1516299946117,109
2116,WS_SEND_START,1516299946117,109
2116,WS_SEND_END,1516299946118,109
2116,WS_RECV_START,1516299946118,110
2116,WS_RECV_END,1516299946166,110
2116,PLAYER_SLEEPBEFORE_START,1516299946166,111
2116,PLAYER_SLEEPBEFORE_END,1516299947125,111
2116,WS_SEND_START,1516299947125,111
2116,WS_SEND_END,1516299947125,111
2116,WS_RECV_START,1516299947125,112
2116,WS_RECV_END,1516299947568,112
2116,PLAYER_SLEEPBEFORE_START,1516299947568,113
2116,PLAYER_SLEEPBEFORE_END,1516299948130,113
2116,WS_SEND_START,1516299948130,113
2116,WS_SEND_END,1516299948130,113
2116,WS_RECV_START,1516299948130,114
2116,WS_RECV_END,1516299948608,114
2116,PLAYER_SLEEPBEFORE_START,1516299948608,115
2116,PLAYER_SLEEPBEFORE_END,1516299948617,115
2116,WS_SEND_START,1516299948617,115
2116,WS_SEND_END,1516299948617,115
2116,WS_RECV_START,1516299948617,116
2116,WS_RECV_END,1516299949288,116
2116,PLAYER_SLEEPBEFORE_START,1516299949288,117
2116,PLAYER_SLEEPBEFORE_END,1516299969648,117
2116,WS_SEND_START,1516299969648,117
2116,WS_SEND_END,1516299969648,117
2116,PLAYER_SLEEPBEFORE_START,1516299969648,118
2116,PLAYER_SLEEPBEFORE_END,1516299973400,118
2116,WS_SEND_START,1516299973400,118
2116,WS_SEND_END,1516299973400,118
2116,WS_RECV_START,1516299973400,119
2116,WS_RECV_END,1516299974481,119
2116,PLAYER_SLEEPBEFORE_START,1516299974481,120
2116,PLAYER_SLEEPBEFORE_END,1516299975469,120
2116,WS_SEND_START,1516299975469,120
2116,WS_SEND_END,1516299975469,120
2116,WS_RECV_START,1516299975469,121
2116,WS_RECV_END,1516299975900,121
2116,PLAYER_SLEEPBEFORE_START,1516299975900,122
2116,PLAYER_SLEEPBEFORE_END,1516299977085,122
2116,WS_SEND_START,1516299977085,122
2116,WS_SEND_END,1516299977085,122
2116,WS_RECV_START,1516299977085,123
2116,WS_RECV_END,1516299977276,123
2116,PLAYER_SLEEPBEFORE_START,1516299977276,124
2116,PLAYER_SLEEPBEFORE_END,1516300001681,124
2116,WS_SEND_START,1516300001681,124
2116,WS_SEND_END,1516300001681,124
2116,WS_RECV_START,1516300001681,125
2116,WS_RECV_END,1516300003091,125
2116,PLAYER_SLEEPBEFORE_START,1516300003091,126
2116,PLAYER_SLEEPBEFORE_END,1516300023603,126
2116,WS_SEND_START,1516300023603,126
2116,WS_SEND_END,1516300023603,126
2116,PLAYER_SLEEPBEFORE_START,1516300023603,127
2116,PLAYER_SLEEPBEFORE_END,1516300026657,127
2116,WS_SEND_START,1516300026657,127
2116,WS_SEND_END,1516300026657,127
2116,WS_RECV_START,1516300026657,128
2116,WS_RECV_END,1516300026755,128
2116,PLAYER_SLEEPBEFORE_START,1516300026755,129
2116,PLAYER_SLEEPBEFORE_END,1516300026775,129
2116,WS_SEND_START,1516300026775,129
2116,WS_SEND_END,1516300026775,129
2116,WS_RECV_START,1516300026775,130
2116,WS_RECV_END,1516300026936,130
2116,PLAYER_SLEEPBEFORE_START,1516300026936,131
2116,PLAYER_SLEEPBEFORE_END,1516300048590,131
2116,WS_SEND_START,1516300048590,131
2116,WS_SEND_END,1516300048590,131
2116,PLAYER_SLEEPBEFORE_START,1516300048590,132
2116,PLAYER_SLEEPBEFORE_END,1516300051670,132
2116,WS_SEND_START,1516300051670,132
2116,WS_SEND_END,1516300051670,132
2116,WS_RECV_START,1516300051670,133
2116,WS_RECV_END,1516300052368,133
2116,PLAYER_SLEEPBEFORE_START,1516300052368,134
2116,PLAYER_SLEEPBEFORE_END,1516300073585,134
2116,WS_SEND_START,1516300073585,134
2116,WS_SEND_END,1516300073585,134
2116,PLAYER_SLEEPBEFORE_START,1516300073585,135
2116,PLAYER_SLEEPBEFORE_END,1516300076775,135
2116,WS_SEND_START,1516300076775,135
2116,WS_SEND_END,1516300076775,135
2116,WS_RECV_START,1516300076775,136
2116,WS_RECV_END,1516300078023,136
2116,PLAYER_SLEEPBEFORE_START,1516300078023,137
2116,PLAYER_SLEEPBEFORE_END,1516300078030,137
2116,WS_SEND_START,1516300078030,137
2116,WS_SEND_END,1516300078030,137
2116,WS_RECV_START,1516300078030,138
2116,WS_RECV_END,1516300078562,138
2116,PLAYER_SLEEPBEFORE_START,1516300078562,139
2116,PLAYER_SLEEPBEFORE_END,1516300079252,139
2116,WS_SEND_START,1516300079252,139
2116,WS_SEND_END,1516300079252,139
2116,WS_RECV_START,1516300079252,140
2116,WS_RECV_END,1516300079688,140
2116,PLAYER_SLEEPBEFORE_START,1516300079688,141
2116,PLAYER_SLEEPBEFORE_END,1516300080343,141
2116,WS_SEND_START,1516300080343,141
2116,WS_SEND_END,1516300080343,141
2116,WS_RECV_START,1516300080343,142
2116,WS_RECV_END,1516300080792,142
2116,PLAYER_SLEEPBEFORE_START,1516300080792,143
2116,PLAYER_SLEEPBEFORE_END,1516300080849,143
2116,WS_SEND_START,1516300080849,143
2116,WS_SEND_END,1516300080849,143
2116,WS_RECV_START,1516300080849,144
2116,WS_RECV_END,1516300081700,144
2116,PLAYER_SLEEPBEFORE_START,1516300081700,145
2116,PLAYER_SLEEPBEFORE_END,1516300097762,145
2116,REQ_START,1516300097762,145
2116,REQ_END,1516300097770,145
2116,PLAYER_SLEEPBEFORE_START,1516300097770,146
2116,PLAYER_SLEEPBEFORE_END,1516300106647,146
2116,WS_SEND_START,1516300106647,146
2116,WS_SEND_END,1516300106647,146
2116,WS_RECV_START,1516300106647,147
2116,WS_RECV_END,1516300108089,147
2116,PLAYER_SLEEPBEFORE_START,1516300108089,148
2116,PLAYER_SLEEPBEFORE_END,1516300130011,148
2116,WS_SEND_START,1516300130011,148
2116,WS_SEND_END,1516300130011,148
2116,PLAYER_SLEEPBEFORE_START,1516300130011,149
2116,PLAYER_SLEEPBEFORE_END,1516300132439,149
2116,WS_SEND_START,1516300132439,149
2116,WS_SEND_END,1516300132439,149
2116,WS_RECV_START,1516300132439,150
2116,WS_RECV_END,1516300134376,150
2116,PLAYER_SLEEPBEFORE_START,1516300134376,151
2116,PLAYER_SLEEPBEFORE_END,1516300134586,151
2116,WS_SEND_START,1516300134586,151
2116,WS_SEND_END,1516300134586,151
2116,WS_RECV_START,1516300134586,152
2116,WS_RECV_END,1516300135646,152
2116,PLAYER_SLEEPBEFORE_START,1516300135646,153
2116,PLAYER_SLEEPBEFORE_END,1516300159574,153
2116,WS_SEND_START,1516300159574,153
2116,WS_SEND_END,1516300159574,153
2116,WS_RECV_START,1516300159574,154
2116,WS_RECV_END,1516300162929,154
2116,PLAYER_SLEEPBEFORE_START,1516300162929,155
2116,PLAYER_SLEEPBEFORE_END,1516300185487,155
2116,WS_SEND_START,1516300185487,155
2116,WS_SEND_END,1516300185487,155
2116,PLAYER_SLEEPBEFORE_START,1516300185487,156
2116,PLAYER_SLEEPBEFORE_END,1516300188761,156
2116,WS_SEND_START,1516300188761,156
2116,WS_SEND_END,1516300188761,156
2116,WS_RECV_START,1516300188761,157
2116,WS_RECV_END,1516300190965,157
2116,PLAYER_SLEEPBEFORE_START,1516300190965,158
2116,PLAYER_SLEEPBEFORE_END,1516300190975,158
2116,WS_SEND_START,1516300190975,158
2116,WS_SEND_END,1516300190975,158
2116,WS_RECV_START,1516300190975,159
2116,WS_RECV_END,1516300193722,159
2116,PLAYER_SLEEPBEFORE_START,1516300193722,160
2116,PLAYER_SLEEPBEFORE_END,1516300193897,160
2116,WS_SEND_START,1516300193897,160
2116,WS_SEND_END,1516300193897,160
2116,WS_RECV_START,1516300193897,161
2116,WS_RECV_END,1516300197190,161
2116,PLAYER_SLEEPBEFORE_START,1516300197190,162
2116,PLAYER_SLEEPBEFORE_END,1516300197216,162
2116,WS_SEND_START,1516300197216,162
2116,WS_SEND_END,1516300197216,162
2116,WS_RECV_START,1516300197216,163
2116,WS_RECV_END,1516300200532,163
2116,PLAYER_SLEEPBEFORE_START,1516300200532,164
2116,PLAYER_SLEEPBEFORE_END,1516300221345,164
2116,WS_SEND_START,1516300221345,164
2116,WS_SEND_END,1516300221345,164
2116,WS_RECV_START,1516300221345,165
2116,WS_RECV_END,1516300224957,165
2116,PLAYER_SLEEPBEFORE_START,1516300224957,166
2116,PLAYER_SLEEPBEFORE_END,1516300247412,166
2116,WS_SEND_START,1516300247412,166
2116,WS_SEND_END,1516300247412,166
2116,WS_RECV_START,1516300247412,167
2116,WS_RECV_END,1516300249820,167
2116,PLAYER_SLEEPBEFORE_START,1516300249820,168
2116,PLAYER_SLEEPBEFORE_END,1516300277177,168
2116,WS_SEND_START,1516300277177,168
2116,WS_SEND_END,1516300277177,168
2116,WS_RECV_START,1516300277177,169
2116,WS_RECV_END,1516300279339,169
2116,PLAYER_SLEEPBEFORE_START,1516300279339,170
2116,PLAYER_SLEEPBEFORE_END,1516300279348,170
2116,WS_SEND_START,1516300279348,170
2116,WS_SEND_END,1516300279348,170
2116,WS_RECV_START,1516300279348,171
2116,WS_RECV_END,1516300279561,171
2116,PLAYER_SLEEPBEFORE_START,1516300279561,172
2116,PLAYER_SLEEPBEFORE_END,1516300279931,172
2116,WS_SEND_START,1516300279931,172
2116,WS_SEND_END,1516300279931,172
2116,WS_RECV_START,1516300279931,173
2116,WS_RECV_END,1516300281031,173
2116,PLAYER_SLEEPBEFORE_START,1516300281031,174
2116,PLAYER_SLEEPBEFORE_END,1516300281072,174
2116,WS_SEND_START,1516300281072,174
2116,WS_SEND_END,1516300281072,174
2116,WS_RECV_START,1516300281072,175
2116,WS_RECV_END,1516300281753,175
2116,PLAYER_SLEEPBEFORE_START,1516300281753,176
2116,PLAYER_SLEEPBEFORE_END,1516300303514,176
2116,WS_SEND_START,1516300303514,176
2116,WS_SEND_END,1516300303514,176
2116,PLAYER_SLEEPBEFORE_START,1516300303514,177
2116,PLAYER_SLEEPBEFORE_END,1516300306032,177
2116,WS_SEND_START,1516300306032,177
2116,WS_SEND_END,1516300306032,177
2116,WS_RECV_START,1516300306032,178
2116,WS_RECV_END,1516300306421,178
2116,PLAYER_SLEEPBEFORE_START,1516300306421,179
2116,PLAYER_SLEEPBEFORE_END,1516300328761,179
2116,WS_SEND_START,1516300328761,179
2116,WS_SEND_END,1516300328761,179
2116,WS_RECV_START,1516300328761,180
2116,WS_RECV_END,1516300329215,180
2116,PLAYER_SLEEPBEFORE_START,1516300329215,181
2116,PLAYER_SLEEPBEFORE_END,1516300329659,181
2116,WS_SEND_START,1516300329659,181
2116,WS_SEND_END,1516300329659,181
2116,WS_RECV_START,1516300329659,182
2116,WS_RECV_END,1516300329998,182
2116,PLAYER_SLEEPBEFORE_START,1516300329998,183
2116,PLAYER_SLEEPBEFORE_END,1516300330521,183
2116,WS_SEND_START,1516300330521,183
2116,WS_SEND_END,1516300330521,183
2116,WS_RECV_START,1516300330521,184
2116,WS_RECV_END,1516300330750,184
2116,PLAYER_SLEEPBEFORE_START,1516300330751,185
2116,PLAYER_SLEEPBEFORE_END,1516300331019,185
2116,WS_SEND_START,1516300331019,185
2116,WS_SEND_END,1516300331019,185
2116,WS_RECV_START,1516300331019,186
2116,WS_RECV_END,1516300331475,186
2116,PLAYER_SLEEPBEFORE_START,1516300331475,187
2116,PLAYER_SLEEPBEFORE_END,1516300353976,187
2116,WS_SEND_START,1516300353976,187
2116,WS_SEND_END,1516300353976,187
2116,WS_RECV_START,1516300353976,188
2116,WS_RECV_END,1516300354047,188
2116,PLAYER_SLEEPBEFORE_START,1516300354047,189
2116,PLAYER_SLEEPBEFORE_END,1516300360286,189
2116,WS_SEND_START,1516300360286,189
2116,WS_SEND_END,1516300360286,189
2116,WS_RECV_START,1516300360286,190
2116,WS_RECV_END,1516300360417,190
2116,PLAYER_SLEEPBEFORE_START,1516300360417,191
2116,PLAYER_SLEEPBEFORE_END,1516300362332,191
2116,WS_SEND_START,1516300362332,191
2116,WS_SEND_END,1516300362332,191
2116,WS_RECV_START,1516300362332,192
2116,WS_RECV_END,1516300362558,192
2116,PLAYER_SLEEPBEFORE_START,1516300362558,193
2116,PLAYER_SLEEPBEFORE_END,1516300362686,193
2116,WS_SEND_START,1516300362686,193
2116,WS_SEND_END,1516300362686,193
2116,WS_RECV_START,1516300362686,194
2116,WS_RECV_END,1516300362819,194
2116,PLAYER_SLEEPBEFORE_START,1516300362819,195
2116,PLAYER_SLEEPBEFORE_END,1516300364574,195
2116,WS_SEND_START,1516300364574,195
2116,WS_SEND_END,1516300364574,195
2116,WS_RECV_START,1516300364574,196
2116,WS_RECV_END,1516300364743,196
2116,PLAYER_SLEEPBEFORE_START,1516300364743,197
2116,PLAYER_SLEEPBEFORE_END,1516300366548,197
2116,WS_SEND_START,1516300366548,197
2116,WS_SEND_END,1516300366548,197
2116,WS_RECV_START,1516300366548,198
2116,WS_RECV_END,1516300366689,198
2116,PLAYER_SLEEPBEFORE_START,1516300366689,199
2116,PLAYER_SLEEPBEFORE_END,1516300378544,199
2116,WS_SEND_START,1516300378544,199
2116,WS_SEND_END,1516300378544,199
2116,PLAYER_SLEEPBEFORE_START,1516300378544,200
2116,PLAYER_SLEEPBEFORE_END,1516300382632,200
2116,WS_SEND_START,1516300382632,200
2116,WS_SEND_END,1516300382632,200
2116,WS_RECV_START,1516300382632,201
2116,WS_RECV_END,1516300382829,201
2116,PLAYER_SLEEPBEFORE_START,1516300382829,202
2116,PLAYER_SLEEPBEFORE_END,1516300382844,202
2116,WS_SEND_START,1516300382844,202
2116,WS_SEND_END,1516300382844,202
2116,WS_RECV_START,1516300382844,203
2116,WS_RECV_END,1516300382947,203
2116,PLAYER_SLEEPBEFORE_START,1516300382947,204
2116,PLAYER_SLEEPBEFORE_END,1516300402596,204
2116,WS_SEND_START,1516300402596,204
2116,WS_SEND_END,1516300402596,204
2116,PLAYER_SLEEPBEFORE_START,1516300402596,205
2116,PLAYER_SLEEPBEFORE_END,1516300406494,205
2116,WS_SEND_START,1516300406494,205
2116,WS_SEND_END,1516300406494,205
2116,WS_RECV_START,1516300406494,206
2116,WS_RECV_END,1516300406699,206
2116,PLAYER_SLEEPBEFORE_START,1516300406699,207
2116,PLAYER_SLEEPBEFORE_END,1516300423630,207
2116,REQ_START,1516300423630,207
2116,REQ_END,1516300423638,207
2116,PLAYER_SLEEPBEFORE_START,1516300423638,208
2116,PLAYER_SLEEPBEFORE_END,1516300430490,208
2116,WS_CLOSE_START,1516300430490,208
2116,WS_CLOSE_END,1516300430490,208
2116,PLAYER_DONE,1516300430490
