# --sessions 2700 --app-url=http://shinyloadtest.rstudioservices.com/cran_explorer --output-dir test2700 --overwrite-output --log-level warn --start-interval 100 15min.log
thread_id,event,timestamp,input_line_number,comment
2153,PLAYER_SESSION_CREATE,1516299246193
2153,PLAYER_START_INTERVAL_START,1516299246193
2153,PLAYER_START_INTERVAL_END,1516299461493
2153,REQ_HOME_START,1516299461493,2
2153,REQ_HOME_END,1516299461610,2
2153,REQ_START,1516299461610,3
2153,REQ_END,1516299461649,3
2153,REQ_START,1516299461649,4
2153,REQ_END,1516299461691,4
2153,REQ_START,1516299461691,5
2153,REQ_END,1516299461736,5
2153,REQ_START,1516299461736,6
2153,REQ_END,1516299462040,6
2153,REQ_START,1516299462040,7
2153,REQ_END,1516299462288,7
2153,REQ_START,1516299462288,8
2153,REQ_END,1516299462686,8
2153,REQ_START,1516299462686,9
2153,REQ_END,1516299462732,9
2153,REQ_START,1516299462732,10
2153,REQ_END,1516299462739,10
2153,REQ_START,1516299462739,11
2153,REQ_END,1516299462833,11
2153,REQ_START,1516299462833,12
2153,REQ_END,1516299462843,12
2153,REQ_START,1516299462843,13
2153,REQ_END,1516299462885,13
2153,REQ_START,1516299462885,14
2153,REQ_END,1516299462901,14
2153,REQ_START,1516299462901,15
2153,REQ_END,1516299462944,15
2153,REQ_TOK_START,1516299462944,16
2153,REQ_TOK_END,1516299462950,16
2153,REQ_SINF_START,1516299462950,17
2153,REQ_SINF_END,1516299462957,17
2153,WS_OPEN_START,1516299462957,18
2153,WS_OPEN_END,1516299462963,18
2153,REQ_START,1516299462963,19
2153,REQ_END,1516299462998,19
2153,WS_RECV_START,1516299462998,20
2153,WS_RECV_END,1516299462998,20
2153,PLAYER_SLEEPBEFORE_START,1516299462998,21
2153,PLAYER_SLEEPBEFORE_END,1516299463003,21
2153,WS_SEND_START,1516299463003,21
2153,WS_SEND_END,1516299463003,21
2153,PLAYER_SLEEPBEFORE_START,1516299463003,22
2153,PLAYER_SLEEPBEFORE_END,1516299463004,22
2153,WS_SEND_START,1516299463004,22
2153,WS_SEND_END,1516299463004,22
2153,WS_RECV_INIT_START,1516299463004,23
2153,WS_RECV_INIT_END,1516299463026,23
2153,WS_RECV_START,1516299463026,24
2153,WS_RECV_END,1516299463102,24
2153,PLAYER_SLEEPBEFORE_START,1516299463102,25
2153,PLAYER_SLEEPBEFORE_END,1516299463109,25
2153,REQ_START,1516299463109,25
2153,REQ_END,1516299463149,25
2153,PLAYER_SLEEPBEFORE_START,1516299463149,26
2153,PLAYER_SLEEPBEFORE_END,1516299463150,26
2153,REQ_START,1516299463150,26
2153,REQ_END,1516299463191,26
2153,PLAYER_SLEEPBEFORE_START,1516299463191,27
2153,PLAYER_SLEEPBEFORE_END,1516299463194,27
2153,REQ_START,1516299463194,27
2153,REQ_END,1516299463322,27
2153,PLAYER_SLEEPBEFORE_START,1516299463322,28
2153,PLAYER_SLEEPBEFORE_END,1516299463607,28
2153,REQ_START,1516299463607,28
2153,REQ_END,1516299464037,28
2153,PLAYER_SLEEPBEFORE_START,1516299464037,29
2153,PLAYER_SLEEPBEFORE_END,1516299464212,29
2153,WS_SEND_START,1516299464212,29
2153,WS_SEND_END,1516299464212,29
2153,WS_RECV_START,1516299464212,30
2153,WS_RECV_END,1516299464391,30
2153,PLAYER_SLEEPBEFORE_START,1516299464391,31
2153,PLAYER_SLEEPBEFORE_END,1516299464402,31
2153,REQ_START,1516299464402,31
2153,REQ_END,1516299464808,31
2153,PLAYER_SLEEPBEFORE_START,1516299464808,32
2153,PLAYER_SLEEPBEFORE_END,1516299492953,32
2153,WS_SEND_START,1516299492953,32
2153,WS_SEND_END,1516299492953,32
2153,WS_RECV_START,1516299492953,33
2153,WS_RECV_END,1516299493962,33
2153,PLAYER_SLEEPBEFORE_START,1516299493962,34
2153,PLAYER_SLEEPBEFORE_END,1516299519873,34
2153,WS_SEND_START,1516299519873,34
2153,WS_SEND_END,1516299519873,34
2153,WS_RECV_START,1516299519873,35
2153,WS_RECV_END,1516299520332,35
2153,PLAYER_SLEEPBEFORE_START,1516299520332,36
2153,PLAYER_SLEEPBEFORE_END,1516299520341,36
2153,WS_SEND_START,1516299520341,36
2153,WS_SEND_END,1516299520341,36
2153,WS_RECV_START,1516299520341,37
2153,WS_RECV_END,1516299520622,37
2153,PLAYER_SLEEPBEFORE_START,1516299520622,38
2153,PLAYER_SLEEPBEFORE_END,1516299523817,38
2153,WS_SEND_START,1516299523817,38
2153,WS_SEND_END,1516299523817,38
2153,WS_RECV_START,1516299523817,39
2153,WS_RECV_END,1516299524625,39
2153,PLAYER_SLEEPBEFORE_START,1516299524625,40
2153,PLAYER_SLEEPBEFORE_END,1516299524671,40
2153,WS_SEND_START,1516299524671,40
2153,WS_SEND_END,1516299524671,40
2153,WS_RECV_START,1516299524671,41
2153,WS_RECV_END,1516299525259,41
2153,PLAYER_SLEEPBEFORE_START,1516299525259,42
2153,PLAYER_SLEEPBEFORE_END,1516299543394,42
2153,WS_SEND_START,1516299543394,42
2153,WS_SEND_END,1516299543394,42
2153,WS_RECV_START,1516299543394,43
2153,WS_RECV_END,1516299543575,43
2153,PLAYER_SLEEPBEFORE_START,1516299543575,44
2153,PLAYER_SLEEPBEFORE_END,1516299543587,44
2153,WS_SEND_START,1516299543587,44
2153,WS_SEND_END,1516299543587,44
2153,WS_RECV_START,1516299543587,45
2153,WS_RECV_END,1516299543746,45
2153,PLAYER_SLEEPBEFORE_START,1516299543746,46
2153,PLAYER_SLEEPBEFORE_END,1516299545006,46
2153,WS_SEND_START,1516299545006,46
2153,WS_SEND_END,1516299545006,46
2153,WS_RECV_START,1516299545006,47
2153,WS_RECV_END,1516299545376,47
2153,PLAYER_SLEEPBEFORE_START,1516299545376,48
2153,PLAYER_SLEEPBEFORE_END,1516299546696,48
2153,WS_SEND_START,1516299546696,48
2153,WS_SEND_END,1516299546696,48
2153,WS_RECV_START,1516299546696,49
2153,WS_RECV_END,1516299546955,49
2153,PLAYER_SLEEPBEFORE_START,1516299546955,50
2153,PLAYER_SLEEPBEFORE_END,1516299546979,50
2153,WS_SEND_START,1516299546979,50
2153,WS_SEND_END,1516299546979,50
2153,WS_RECV_START,1516299546979,51
2153,WS_RECV_END,1516299547171,51
2153,PLAYER_SLEEPBEFORE_START,1516299547171,52
2153,PLAYER_SLEEPBEFORE_END,1516299569735,52
2153,WS_SEND_START,1516299569735,52
2153,WS_SEND_END,1516299569735,52
2153,WS_RECV_START,1516299569735,53
2153,WS_RECV_END,1516299570785,53
2153,PLAYER_SLEEPBEFORE_START,1516299570785,54
2153,PLAYER_SLEEPBEFORE_END,1516299592088,54
2153,WS_SEND_START,1516299592088,54
2153,WS_SEND_END,1516299592088,54
2153,PLAYER_SLEEPBEFORE_START,1516299592088,55
2153,PLAYER_SLEEPBEFORE_END,1516299594029,55
2153,WS_SEND_START,1516299594029,55
2153,WS_SEND_END,1516299594029,55
2153,WS_RECV_START,1516299594029,56
2153,WS_RECV_END,1516299594538,56
2153,PLAYER_SLEEPBEFORE_START,1516299594538,57
2153,PLAYER_SLEEPBEFORE_END,1516299617410,57
2153,WS_SEND_START,1516299617410,57
2153,WS_SEND_END,1516299617410,57
2153,WS_RECV_START,1516299617410,58
2153,WS_RECV_END,1516299618537,58
2153,PLAYER_SLEEPBEFORE_START,1516299618537,59
2153,PLAYER_SLEEPBEFORE_END,1516299620864,59
2153,WS_SEND_START,1516299620864,59
2153,WS_SEND_END,1516299620864,59
2153,WS_RECV_START,1516299620864,60
2153,WS_RECV_END,1516299621580,60
2153,PLAYER_SLEEPBEFORE_START,1516299621580,61
2153,PLAYER_SLEEPBEFORE_END,1516299625171,61
2153,WS_SEND_START,1516299625171,61
2153,WS_SEND_END,1516299625171,61
2153,WS_RECV_START,1516299625171,62
2153,WS_RECV_END,1516299626750,62
2153,PLAYER_SLEEPBEFORE_START,1516299626750,63
2153,PLAYER_SLEEPBEFORE_END,1516299646012,63
2153,WS_SEND_START,1516299646012,63
2153,WS_SEND_END,1516299646012,63
2153,WS_RECV_START,1516299646012,64
2153,WS_RECV_END,1516299646564,64
2153,PLAYER_SLEEPBEFORE_START,1516299646564,65
2153,PLAYER_SLEEPBEFORE_END,1516299673381,65
2153,WS_SEND_START,1516299673381,65
2153,WS_SEND_END,1516299673381,65
2153,WS_RECV_START,1516299673381,66
2153,WS_RECV_END,1516299673958,66
2153,PLAYER_SLEEPBEFORE_START,1516299673958,67
2153,PLAYER_SLEEPBEFORE_END,1516299675465,67
2153,WS_SEND_START,1516299675465,67
2153,WS_SEND_END,1516299675465,67
2153,WS_RECV_START,1516299675465,68
2153,WS_RECV_END,1516299675675,68
2153,PLAYER_SLEEPBEFORE_START,1516299675675,69
2153,PLAYER_SLEEPBEFORE_END,1516299697673,69
2153,WS_SEND_START,1516299697673,69
2153,WS_SEND_END,1516299697673,69
2153,WS_RECV_START,1516299697673,70
2153,WS_RECV_END,1516299697791,70
2153,PLAYER_SLEEPBEFORE_START,1516299697791,71
2153,PLAYER_SLEEPBEFORE_END,1516299722566,71
2153,WS_SEND_START,1516299722566,71
2153,WS_SEND_END,1516299722566,71
2153,PLAYER_SLEEPBEFORE_START,1516299722566,72
2153,PLAYER_SLEEPBEFORE_END,1516299725173,72
2153,WS_SEND_START,1516299725173,72
2153,WS_SEND_END,1516299725173,72
2153,WS_RECV_START,1516299725173,73
2153,WS_RECV_END,1516299726939,73
2153,PLAYER_SLEEPBEFORE_START,1516299726939,74
2153,PLAYER_SLEEPBEFORE_END,1516299726948,74
2153,WS_SEND_START,1516299726948,74
2153,WS_SEND_END,1516299726948,74
2153,WS_RECV_START,1516299726948,75
2153,WS_RECV_END,1516299727662,75
2153,PLAYER_SLEEPBEFORE_START,1516299727662,76
2153,PLAYER_SLEEPBEFORE_END,1516299729168,76
2153,WS_SEND_START,1516299729168,76
2153,WS_SEND_END,1516299729168,76
2153,WS_RECV_START,1516299729168,77
2153,WS_RECV_END,1516299730520,77
2153,PLAYER_SLEEPBEFORE_START,1516299730520,78
2153,PLAYER_SLEEPBEFORE_END,1516299731388,78
2153,WS_SEND_START,1516299731388,78
2153,WS_SEND_END,1516299731388,78
2153,WS_RECV_START,1516299731388,79
2153,WS_RECV_END,1516299733438,79
2153,PLAYER_SLEEPBEFORE_START,1516299733438,80
2153,PLAYER_SLEEPBEFORE_END,1516299741105,80
2153,WS_SEND_START,1516299741105,80
2153,WS_SEND_END,1516299741105,80
2153,WS_RECV_START,1516299741105,81
2153,WS_RECV_END,1516299742974,81
2153,PLAYER_SLEEPBEFORE_START,1516299742974,82
2153,PLAYER_SLEEPBEFORE_END,1516299744099,82
2153,WS_SEND_START,1516299744100,82
2153,WS_SEND_END,1516299744100,82
2153,WS_RECV_START,1516299744100,83
2153,WS_RECV_END,1516299745015,83
2153,PLAYER_SLEEPBEFORE_START,1516299745015,84
2153,PLAYER_SLEEPBEFORE_END,1516299745962,84
2153,WS_SEND_START,1516299745962,84
2153,WS_SEND_END,1516299745962,84
2153,WS_RECV_START,1516299745962,85
2153,WS_RECV_END,1516299746587,85
2153,PLAYER_SLEEPBEFORE_START,1516299746587,86
2153,PLAYER_SLEEPBEFORE_END,1516299750759,86
2153,WS_SEND_START,1516299750759,86
2153,WS_SEND_END,1516299750759,86
2153,WS_RECV_START,1516299750759,87
2153,WS_RECV_END,1516299752930,87
2153,PLAYER_SLEEPBEFORE_START,1516299752930,88
2153,PLAYER_SLEEPBEFORE_END,1516299752938,88
2153,WS_SEND_START,1516299752938,88
2153,WS_SEND_END,1516299752938,88
2153,WS_RECV_START,1516299752938,89
2153,WS_RECV_END,1516299753777,89
2153,PLAYER_SLEEPBEFORE_START,1516299753777,90
2153,PLAYER_SLEEPBEFORE_END,1516299780974,90
2153,REQ_START,1516299780974,90
2153,REQ_END,1516299780980,90
2153,PLAYER_SLEEPBEFORE_START,1516299780980,91
2153,PLAYER_SLEEPBEFORE_END,1516299788869,91
2153,WS_SEND_START,1516299788869,91
2153,WS_SEND_END,1516299788870,91
2153,WS_RECV_START,1516299788870,92
2153,WS_RECV_END,1516299790802,92
2153,PLAYER_SLEEPBEFORE_START,1516299790802,93
2153,PLAYER_SLEEPBEFORE_END,1516299790817,93
2153,WS_SEND_START,1516299790817,93
2153,WS_SEND_END,1516299790817,93
2153,WS_RECV_START,1516299790817,94
2153,WS_RECV_END,1516299792049,94
2153,PLAYER_SLEEPBEFORE_START,1516299792049,95
2153,PLAYER_SLEEPBEFORE_END,1516299815604,95
2153,WS_SEND_START,1516299815604,95
2153,WS_SEND_END,1516299815604,95
2153,WS_RECV_START,1516299815604,96
2153,WS_RECV_END,1516299819894,96
2153,PLAYER_SLEEPBEFORE_START,1516299819895,97
2153,PLAYER_SLEEPBEFORE_END,1516299842335,97
2153,WS_SEND_START,1516299842335,97
2153,WS_SEND_END,1516299842335,97
2153,WS_RECV_START,1516299842335,98
2153,WS_RECV_END,1516299843449,98
2153,PLAYER_SLEEPBEFORE_START,1516299843449,99
2153,PLAYER_SLEEPBEFORE_END,1516299843470,99
2153,WS_SEND_START,1516299843470,99
2153,WS_SEND_END,1516299843470,99
2153,WS_RECV_START,1516299843470,100
2153,WS_RECV_END,1516299844203,100
2153,PLAYER_SLEEPBEFORE_START,1516299844203,101
2153,PLAYER_SLEEPBEFORE_END,1516299867762,101
2153,WS_SEND_START,1516299867762,101
2153,WS_SEND_END,1516299867762,101
2153,WS_RECV_START,1516299867762,102
2153,WS_RECV_END,1516299873524,102
2153,PLAYER_SLEEPBEFORE_START,1516299873524,103
2153,PLAYER_SLEEPBEFORE_END,1516299897150,103
2153,WS_SEND_START,1516299897150,103
2153,WS_SEND_END,1516299897150,103
2153,WS_RECV_START,1516299897150,104
2153,WS_RECV_END,1516299898628,104
2153,PLAYER_SLEEPBEFORE_START,1516299898628,105
2153,PLAYER_SLEEPBEFORE_END,1516299924006,105
2153,WS_SEND_START,1516299924006,105
2153,WS_SEND_END,1516299924006,105
2153,WS_RECV_START,1516299924006,106
2153,WS_RECV_END,1516299926031,106
2153,PLAYER_SLEEPBEFORE_START,1516299926031,107
2153,PLAYER_SLEEPBEFORE_END,1516299949454,107
2153,WS_SEND_START,1516299949454,107
2153,WS_SEND_END,1516299949454,107
2153,WS_RECV_START,1516299949454,108
2153,WS_RECV_END,1516299949914,108
2153,PLAYER_SLEEPBEFORE_START,1516299949914,109
2153,PLAYER_SLEEPBEFORE_END,1516299949923,109
2153,WS_SEND_START,1516299949923,109
2153,WS_SEND_END,1516299949923,109
2153,WS_RECV_START,1516299949923,110
2153,WS_RECV_END,1516299950194,110
2153,PLAYER_SLEEPBEFORE_START,1516299950194,111
2153,PLAYER_SLEEPBEFORE_END,1516299951153,111
2153,WS_SEND_START,1516299951153,111
2153,WS_SEND_END,1516299951153,111
2153,WS_RECV_START,1516299951153,112
2153,WS_RECV_END,1516299951380,112
2153,PLAYER_SLEEPBEFORE_START,1516299951380,113
2153,PLAYER_SLEEPBEFORE_END,1516299951942,113
2153,WS_SEND_START,1516299951942,113
2153,WS_SEND_END,1516299951942,113
2153,WS_RECV_START,1516299951942,114
2153,WS_RECV_END,1516299952293,114
2153,PLAYER_SLEEPBEFORE_START,1516299952293,115
2153,PLAYER_SLEEPBEFORE_END,1516299952303,115
2153,WS_SEND_START,1516299952303,115
2153,WS_SEND_END,1516299952303,115
2153,WS_RECV_START,1516299952303,116
2153,WS_RECV_END,1516299952744,116
2153,PLAYER_SLEEPBEFORE_START,1516299952744,117
2153,PLAYER_SLEEPBEFORE_END,1516299973104,117
2153,WS_SEND_START,1516299973104,117
2153,WS_SEND_END,1516299973104,117
2153,PLAYER_SLEEPBEFORE_START,1516299973104,118
2153,PLAYER_SLEEPBEFORE_END,1516299976856,118
2153,WS_SEND_START,1516299976856,118
2153,WS_SEND_END,1516299976856,118
2153,WS_RECV_START,1516299976856,119
2153,WS_RECV_END,1516299979265,119
2153,PLAYER_SLEEPBEFORE_START,1516299979265,120
2153,PLAYER_SLEEPBEFORE_END,1516299980253,120
2153,WS_SEND_START,1516299980253,120
2153,WS_SEND_END,1516299980253,120
2153,WS_RECV_START,1516299980253,121
2153,WS_RECV_END,1516299980972,121
2153,PLAYER_SLEEPBEFORE_START,1516299980972,122
2153,PLAYER_SLEEPBEFORE_END,1516299982157,122
2153,WS_SEND_START,1516299982157,122
2153,WS_SEND_END,1516299982157,122
2153,WS_RECV_START,1516299982157,123
2153,WS_RECV_END,1516299983903,123
2153,PLAYER_SLEEPBEFORE_START,1516299983903,124
2153,PLAYER_SLEEPBEFORE_END,1516300008308,124
2153,WS_SEND_START,1516300008308,124
2153,WS_SEND_END,1516300008308,124
2153,WS_RECV_START,1516300008308,125
2153,WS_RECV_END,1516300012372,125
2153,PLAYER_SLEEPBEFORE_START,1516300012372,126
2153,PLAYER_SLEEPBEFORE_END,1516300032884,126
2153,WS_SEND_START,1516300032884,126
2153,WS_SEND_END,1516300032884,126
2153,PLAYER_SLEEPBEFORE_START,1516300032884,127
2153,PLAYER_SLEEPBEFORE_END,1516300035938,127
2153,WS_SEND_START,1516300035938,127
2153,WS_SEND_END,1516300035938,127
2153,WS_RECV_START,1516300035938,128
2153,WS_RECV_END,1516300037115,128
2153,PLAYER_SLEEPBEFORE_START,1516300037115,129
2153,PLAYER_SLEEPBEFORE_END,1516300037135,129
2153,WS_SEND_START,1516300037135,129
2153,WS_SEND_END,1516300037135,129
2153,WS_RECV_START,1516300037135,130
2153,WS_RECV_END,1516300037537,130
2153,PLAYER_SLEEPBEFORE_START,1516300037537,131
2153,PLAYER_SLEEPBEFORE_END,1516300059161,131
2153,WS_SEND_START,1516300059161,131
2153,WS_SEND_END,1516300059161,131
2153,PLAYER_SLEEPBEFORE_START,1516300059161,132
2153,PLAYER_SLEEPBEFORE_END,1516300062241,132
2153,WS_SEND_START,1516300062241,132
2153,WS_SEND_END,1516300062241,132
2153,WS_RECV_START,1516300062241,133
2153,WS_RECV_END,1516300062765,133
2153,PLAYER_SLEEPBEFORE_START,1516300062765,134
2153,PLAYER_SLEEPBEFORE_END,1516300083982,134
2153,WS_SEND_START,1516300083982,134
2153,WS_SEND_END,1516300083982,134
2153,PLAYER_SLEEPBEFORE_START,1516300083982,135
2153,PLAYER_SLEEPBEFORE_END,1516300087173,135
2153,WS_SEND_START,1516300087173,135
2153,WS_SEND_END,1516300087173,135
2153,WS_RECV_START,1516300087173,136
2153,WS_RECV_END,1516300088470,136
2153,PLAYER_SLEEPBEFORE_START,1516300088470,137
2153,PLAYER_SLEEPBEFORE_END,1516300088477,137
2153,WS_SEND_START,1516300088477,137
2153,WS_SEND_END,1516300088477,137
2153,WS_RECV_START,1516300088477,138
2153,WS_RECV_END,1516300089454,138
2153,PLAYER_SLEEPBEFORE_START,1516300089454,139
2153,PLAYER_SLEEPBEFORE_END,1516300090144,139
2153,WS_SEND_START,1516300090144,139
2153,WS_SEND_END,1516300090144,139
2153,WS_RECV_START,1516300090144,140
2153,WS_RECV_END,1516300092830,140
2153,PLAYER_SLEEPBEFORE_START,1516300092830,141
2153,PLAYER_SLEEPBEFORE_END,1516300093485,141
2153,WS_SEND_START,1516300093485,141
2153,WS_SEND_END,1516300093485,141
2153,WS_RECV_START,1516300093485,142
2153,WS_RECV_END,1516300095664,142
2153,PLAYER_SLEEPBEFORE_START,1516300095664,143
2153,PLAYER_SLEEPBEFORE_END,1516300095722,143
2153,WS_SEND_START,1516300095722,143
2153,WS_SEND_END,1516300095722,143
2153,WS_RECV_START,1516300095722,144
2153,WS_RECV_END,1516300097491,144
2153,PLAYER_SLEEPBEFORE_START,1516300097491,145
2153,PLAYER_SLEEPBEFORE_END,1516300113553,145
2153,REQ_START,1516300113553,145
2153,REQ_END,1516300113558,145
2153,PLAYER_SLEEPBEFORE_START,1516300113558,146
2153,PLAYER_SLEEPBEFORE_END,1516300122435,146
2153,WS_SEND_START,1516300122435,146
2153,WS_SEND_END,1516300122435,146
2153,WS_RECV_START,1516300122435,147
2153,WS_RECV_END,1516300125099,147
2153,PLAYER_SLEEPBEFORE_START,1516300125099,148
2153,PLAYER_SLEEPBEFORE_END,1516300147021,148
2153,WS_SEND_START,1516300147021,148
2153,WS_SEND_END,1516300147021,148
2153,PLAYER_SLEEPBEFORE_START,1516300147021,149
2153,PLAYER_SLEEPBEFORE_END,1516300149449,149
2153,WS_SEND_START,1516300149449,149
2153,WS_SEND_END,1516300149449,149
2153,WS_RECV_START,1516300149449,150
2153,WS_RECV_END,1516300151259,150
2153,PLAYER_SLEEPBEFORE_START,1516300151259,151
2153,PLAYER_SLEEPBEFORE_END,1516300151469,151
2153,WS_SEND_START,1516300151469,151
2153,WS_SEND_END,1516300151469,151
2153,WS_RECV_START,1516300151469,152
2153,WS_RECV_END,1516300153126,152
2153,PLAYER_SLEEPBEFORE_START,1516300153126,153
2153,PLAYER_SLEEPBEFORE_END,1516300177053,153
2153,WS_SEND_START,1516300177053,153
2153,WS_SEND_END,1516300177053,153
2153,WS_RECV_START,1516300177053,154
2153,WS_RECV_END,1516300184533,154
2153,PLAYER_SLEEPBEFORE_START,1516300184533,155
2153,PLAYER_SLEEPBEFORE_END,1516300207091,155
2153,WS_SEND_START,1516300207091,155
2153,WS_SEND_END,1516300207091,155
2153,PLAYER_SLEEPBEFORE_START,1516300207091,156
2153,PLAYER_SLEEPBEFORE_END,1516300210365,156
2153,WS_SEND_START,1516300210365,156
2153,WS_SEND_END,1516300210365,156
2153,WS_RECV_START,1516300210365,157
2153,WS_RECV_END,1516300215311,157
2153,PLAYER_SLEEPBEFORE_START,1516300215311,158
2153,PLAYER_SLEEPBEFORE_END,1516300215322,158
2153,WS_SEND_START,1516300215322,158
2153,WS_SEND_END,1516300215322,158
2153,WS_RECV_START,1516300215322,159
2153,WS_RECV_END,1516300218822,159
2153,PLAYER_SLEEPBEFORE_START,1516300218822,160
2153,PLAYER_SLEEPBEFORE_END,1516300218997,160
2153,WS_SEND_START,1516300218997,160
2153,WS_SEND_END,1516300218997,160
2153,WS_RECV_START,1516300218997,161
2153,WS_RECV_END,1516300223435,161
2153,PLAYER_SLEEPBEFORE_START,1516300223435,162
2153,PLAYER_SLEEPBEFORE_END,1516300223461,162
2153,WS_SEND_START,1516300223461,162
2153,WS_SEND_END,1516300223461,162
2153,WS_RECV_START,1516300223461,163
2153,WS_RECV_END,1516300228785,163
2153,PLAYER_SLEEPBEFORE_START,1516300228785,164
2153,PLAYER_SLEEPBEFORE_END,1516300249597,164
2153,WS_SEND_START,1516300249597,164
2153,WS_SEND_END,1516300249597,164
2153,WS_RECV_START,1516300249597,165
2153,WS_RECV_END,1516300252861,165
2153,PLAYER_SLEEPBEFORE_START,1516300252861,166
2153,PLAYER_SLEEPBEFORE_END,1516300275316,166
2153,WS_SEND_START,1516300275316,166
2153,WS_SEND_END,1516300275316,166
2153,WS_RECV_START,1516300275316,167
2153,WS_RECV_END,1516300279959,167
2153,PLAYER_SLEEPBEFORE_START,1516300279959,168
2153,PLAYER_SLEEPBEFORE_END,1516300307316,168
2153,WS_SEND_START,1516300307316,168
2153,WS_SEND_END,1516300307316,168
2153,WS_RECV_START,1516300307316,169
2153,WS_RECV_END,1516300311179,169
2153,PLAYER_SLEEPBEFORE_START,1516300311179,170
2153,PLAYER_SLEEPBEFORE_END,1516300311188,170
2153,WS_SEND_START,1516300311188,170
2153,WS_SEND_END,1516300311188,170
2153,WS_RECV_START,1516300311188,171
2153,WS_RECV_END,1516300311774,171
2153,PLAYER_SLEEPBEFORE_START,1516300311774,172
2153,PLAYER_SLEEPBEFORE_END,1516300312143,172
2153,WS_SEND_START,1516300312143,172
2153,WS_SEND_END,1516300312143,172
2153,WS_RECV_START,1516300312143,173
2153,WS_RECV_END,1516300313369,173
2153,PLAYER_SLEEPBEFORE_START,1516300313369,174
2153,PLAYER_SLEEPBEFORE_END,1516300313410,174
2153,WS_SEND_START,1516300313410,174
2153,WS_SEND_END,1516300313411,174
2153,WS_RECV_START,1516300313411,175
2153,WS_RECV_END,1516300314673,175
2153,PLAYER_SLEEPBEFORE_START,1516300314673,176
2153,PLAYER_SLEEPBEFORE_END,1516300336434,176
2153,WS_SEND_START,1516300336434,176
2153,WS_SEND_END,1516300336434,176
2153,PLAYER_SLEEPBEFORE_START,1516300336434,177
2153,PLAYER_SLEEPBEFORE_END,1516300338953,177
2153,WS_SEND_START,1516300338953,177
2153,WS_SEND_END,1516300338953,177
2153,WS_RECV_START,1516300338953,178
2153,WS_RECV_END,1516300339179,178
2153,PLAYER_SLEEPBEFORE_START,1516300339179,179
2153,PLAYER_SLEEPBEFORE_END,1516300361519,179
2153,WS_SEND_START,1516300361519,179
2153,WS_SEND_END,1516300361519,179
2153,WS_RECV_START,1516300361519,180
2153,WS_RECV_END,1516300361854,180
2153,PLAYER_SLEEPBEFORE_START,1516300361854,181
2153,PLAYER_SLEEPBEFORE_END,1516300362298,181
2153,WS_SEND_START,1516300362298,181
2153,WS_SEND_END,1516300362298,181
2153,WS_RECV_START,1516300362298,182
2153,WS_RECV_END,1516300362575,182
2153,PLAYER_SLEEPBEFORE_START,1516300362575,183
2153,PLAYER_SLEEPBEFORE_END,1516300363098,183
2153,WS_SEND_START,1516300363098,183
2153,WS_SEND_END,1516300363098,183
2153,WS_RECV_START,1516300363098,184
2153,WS_RECV_END,1516300363363,184
2153,PLAYER_SLEEPBEFORE_START,1516300363363,185
2153,PLAYER_SLEEPBEFORE_END,1516300363631,185
2153,WS_SEND_START,1516300363631,185
2153,WS_SEND_END,1516300363631,185
2153,WS_RECV_START,1516300363631,186
2153,WS_RECV_END,1516300363871,186
2153,PLAYER_SLEEPBEFORE_START,1516300363871,187
2153,PLAYER_SLEEPBEFORE_END,1516300386371,187
2153,WS_SEND_START,1516300386371,187
2153,WS_SEND_END,1516300386371,187
2153,WS_RECV_START,1516300386371,188
2153,WS_RECV_END,1516300386414,188
2153,PLAYER_SLEEPBEFORE_START,1516300386414,189
2153,PLAYER_SLEEPBEFORE_END,1516300392653,189
2153,WS_SEND_START,1516300392653,189
2153,WS_SEND_END,1516300392653,189
2153,WS_RECV_START,1516300392653,190
2153,WS_RECV_END,1516300392815,190
2153,PLAYER_SLEEPBEFORE_START,1516300392815,191
2153,PLAYER_SLEEPBEFORE_END,1516300394731,191
2153,WS_SEND_START,1516300394731,191
2153,WS_SEND_END,1516300394731,191
2153,WS_RECV_START,1516300394731,192
2153,WS_RECV_END,1516300394993,192
2153,PLAYER_SLEEPBEFORE_START,1516300394993,193
2153,PLAYER_SLEEPBEFORE_END,1516300395121,193
2153,WS_SEND_START,1516300395121,193
2153,WS_SEND_END,1516300395121,193
2153,WS_RECV_START,1516300395121,194
2153,WS_RECV_END,1516300395253,194
2153,PLAYER_SLEEPBEFORE_START,1516300395253,195
2153,PLAYER_SLEEPBEFORE_END,1516300397008,195
2153,WS_SEND_START,1516300397008,195
2153,WS_SEND_END,1516300397008,195
2153,WS_RECV_START,1516300397008,196
2153,WS_RECV_END,1516300397216,196
2153,PLAYER_SLEEPBEFORE_START,1516300397216,197
2153,PLAYER_SLEEPBEFORE_END,1516300399020,197
2153,WS_SEND_START,1516300399020,197
2153,WS_SEND_END,1516300399020,197
2153,WS_RECV_START,1516300399020,198
2153,WS_RECV_END,1516300399166,198
2153,PLAYER_SLEEPBEFORE_START,1516300399166,199
2153,PLAYER_SLEEPBEFORE_END,1516300411020,199
2153,WS_SEND_START,1516300411020,199
2153,WS_SEND_END,1516300411020,199
2153,PLAYER_SLEEPBEFORE_START,1516300411020,200
2153,PLAYER_SLEEPBEFORE_END,1516300415108,200
2153,WS_SEND_START,1516300415108,200
2153,WS_SEND_END,1516300415108,200
2153,WS_RECV_START,1516300415108,201
2153,WS_RECV_END,1516300415323,201
2153,PLAYER_SLEEPBEFORE_START,1516300415323,202
2153,PLAYER_SLEEPBEFORE_END,1516300415337,202
2153,WS_SEND_START,1516300415337,202
2153,WS_SEND_END,1516300415338,202
2153,WS_RECV_START,1516300415338,203
2153,WS_RECV_END,1516300415454,203
2153,PLAYER_SLEEPBEFORE_START,1516300415454,204
2153,PLAYER_SLEEPBEFORE_END,1516300435103,204
2153,WS_SEND_START,1516300435103,204
2153,WS_SEND_END,1516300435103,204
2153,PLAYER_SLEEPBEFORE_START,1516300435103,205
2153,PLAYER_SLEEPBEFORE_END,1516300439002,205
2153,WS_SEND_START,1516300439002,205
2153,WS_SEND_END,1516300439002,205
2153,WS_RECV_START,1516300439002,206
2153,WS_RECV_END,1516300439138,206
2153,PLAYER_SLEEPBEFORE_START,1516300439138,207
2153,PLAYER_SLEEPBEFORE_END,1516300456069,207
2153,REQ_START,1516300456069,207
2153,REQ_END,1516300456073,207
2153,PLAYER_SLEEPBEFORE_START,1516300456073,208
2153,PLAYER_SLEEPBEFORE_END,1516300462925,208
2153,WS_CLOSE_START,1516300462925,208
2153,WS_CLOSE_END,1516300462925,208
2153,PLAYER_DONE,1516300462925
