# --sessions 2700 --app-url=http://shinyloadtest.rstudioservices.com/cran_explorer --output-dir test2700 --overwrite-output --log-level warn --start-interval 100 15min.log
thread_id,event,timestamp,input_line_number,comment
2248,PLAYER_SESSION_CREATE,1516299246231
2248,PLAYER_START_INTERVAL_START,1516299246231
2248,PLAYER_START_INTERVAL_END,1516299471031
2248,REQ_HOME_START,1516299471031,2
2248,REQ_HOME_END,1516299471176,2
2248,REQ_START,1516299471176,3
2248,REQ_END,1516299471372,3
2248,REQ_START,1516299471372,4
2248,REQ_END,1516299471427,4
2248,REQ_START,1516299471427,5
2248,REQ_END,1516299471462,5
2248,REQ_START,1516299471463,6
2248,REQ_END,1516299471502,6
2248,REQ_START,1516299471502,7
2248,REQ_END,1516299471538,7
2248,REQ_START,1516299471538,8
2248,REQ_END,1516299472123,8
2248,REQ_START,1516299472123,9
2248,REQ_END,1516299472630,9
2248,REQ_START,1516299472630,10
2248,REQ_END,1516299472637,10
2248,REQ_START,1516299472637,11
2248,REQ_END,1516299472778,11
2248,REQ_START,1516299472778,12
2248,REQ_END,1516299472789,12
2248,REQ_START,1516299472789,13
2248,REQ_END,1516299472824,13
2248,REQ_START,1516299472824,14
2248,REQ_END,1516299472847,14
2248,REQ_START,1516299472847,15
2248,REQ_END,1516299472883,15
2248,REQ_TOK_START,1516299472883,16
2248,REQ_TOK_END,1516299472897,16
2248,REQ_SINF_START,1516299472897,17
2248,REQ_SINF_END,1516299472906,17
2248,WS_OPEN_START,1516299472906,18
2248,WS_OPEN_END,1516299472913,18
2248,REQ_START,1516299472913,19
2248,REQ_END,1516299472961,19
2248,WS_RECV_START,1516299472961,20
2248,WS_RECV_END,1516299472961,20
2248,PLAYER_SLEEPBEFORE_START,1516299472961,21
2248,PLAYER_SLEEPBEFORE_END,1516299472966,21
2248,WS_SEND_START,1516299472966,21
2248,WS_SEND_END,1516299472967,21
2248,PLAYER_SLEEPBEFORE_START,1516299472967,22
2248,PLAYER_SLEEPBEFORE_END,1516299472968,22
2248,WS_SEND_START,1516299472968,22
2248,WS_SEND_END,1516299472968,22
2248,WS_RECV_INIT_START,1516299472968,23
2248,WS_RECV_INIT_END,1516299472988,23
2248,WS_RECV_START,1516299472988,24
2248,WS_RECV_END,1516299473070,24
2248,PLAYER_SLEEPBEFORE_START,1516299473070,25
2248,PLAYER_SLEEPBEFORE_END,1516299473077,25
2248,REQ_START,1516299473077,25
2248,REQ_END,1516299473111,25
2248,PLAYER_SLEEPBEFORE_START,1516299473111,26
2248,PLAYER_SLEEPBEFORE_END,1516299473112,26
2248,REQ_START,1516299473112,26
2248,REQ_END,1516299473143,26
2248,PLAYER_SLEEPBEFORE_START,1516299473143,27
2248,PLAYER_SLEEPBEFORE_END,1516299473146,27
2248,REQ_START,1516299473146,27
2248,REQ_END,1516299473177,27
2248,PLAYER_SLEEPBEFORE_START,1516299473177,28
2248,PLAYER_SLEEPBEFORE_END,1516299473462,28
2248,REQ_START,1516299473462,28
2248,REQ_END,1516299473582,28
2248,PLAYER_SLEEPBEFORE_START,1516299473582,29
2248,PLAYER_SLEEPBEFORE_END,1516299473757,29
2248,WS_SEND_START,1516299473757,29
2248,WS_SEND_END,1516299473757,29
2248,WS_RECV_START,1516299473757,30
2248,WS_RECV_END,1516299473918,30
2248,PLAYER_SLEEPBEFORE_START,1516299473918,31
2248,PLAYER_SLEEPBEFORE_END,1516299473929,31
2248,REQ_START,1516299473929,31
2248,REQ_END,1516299474060,31
2248,PLAYER_SLEEPBEFORE_START,1516299474060,32
2248,PLAYER_SLEEPBEFORE_END,1516299502205,32
2248,WS_SEND_START,1516299502205,32
2248,WS_SEND_END,1516299502205,32
2248,WS_RECV_START,1516299502205,33
2248,WS_RECV_END,1516299502424,33
2248,PLAYER_SLEEPBEFORE_START,1516299502424,34
2248,PLAYER_SLEEPBEFORE_END,1516299528335,34
2248,WS_SEND_START,1516299528335,34
2248,WS_SEND_END,1516299528335,34
2248,WS_RECV_START,1516299528335,35
2248,WS_RECV_END,1516299529383,35
2248,PLAYER_SLEEPBEFORE_START,1516299529383,36
2248,PLAYER_SLEEPBEFORE_END,1516299529392,36
2248,WS_SEND_START,1516299529392,36
2248,WS_SEND_END,1516299529392,36
2248,WS_RECV_START,1516299529392,37
2248,WS_RECV_END,1516299529705,37
2248,PLAYER_SLEEPBEFORE_START,1516299529705,38
2248,PLAYER_SLEEPBEFORE_END,1516299532900,38
2248,WS_SEND_START,1516299532900,38
2248,WS_SEND_END,1516299532900,38
2248,WS_RECV_START,1516299532900,39
2248,WS_RECV_END,1516299534066,39
2248,PLAYER_SLEEPBEFORE_START,1516299534066,40
2248,PLAYER_SLEEPBEFORE_END,1516299534112,40
2248,WS_SEND_START,1516299534112,40
2248,WS_SEND_END,1516299534112,40
2248,WS_RECV_START,1516299534112,41
2248,WS_RECV_END,1516299534508,41
2248,PLAYER_SLEEPBEFORE_START,1516299534508,42
2248,PLAYER_SLEEPBEFORE_END,1516299552643,42
2248,WS_SEND_START,1516299552643,42
2248,WS_SEND_END,1516299552643,42
2248,WS_RECV_START,1516299552643,43
2248,WS_RECV_END,1516299553348,43
2248,PLAYER_SLEEPBEFORE_START,1516299553348,44
2248,PLAYER_SLEEPBEFORE_END,1516299553360,44
2248,WS_SEND_START,1516299553360,44
2248,WS_SEND_END,1516299553360,44
2248,WS_RECV_START,1516299553360,45
2248,WS_RECV_END,1516299553621,45
2248,PLAYER_SLEEPBEFORE_START,1516299553621,46
2248,PLAYER_SLEEPBEFORE_END,1516299554881,46
2248,WS_SEND_START,1516299554881,46
2248,WS_SEND_END,1516299554881,46
2248,WS_RECV_START,1516299554881,47
2248,WS_RECV_END,1516299555197,47
2248,PLAYER_SLEEPBEFORE_START,1516299555197,48
2248,PLAYER_SLEEPBEFORE_END,1516299556517,48
2248,WS_SEND_START,1516299556517,48
2248,WS_SEND_END,1516299556517,48
2248,WS_RECV_START,1516299556517,49
2248,WS_RECV_END,1516299556761,49
2248,PLAYER_SLEEPBEFORE_START,1516299556761,50
2248,PLAYER_SLEEPBEFORE_END,1516299556785,50
2248,WS_SEND_START,1516299556785,50
2248,WS_SEND_END,1516299556785,50
2248,WS_RECV_START,1516299556785,51
2248,WS_RECV_END,1516299557005,51
2248,PLAYER_SLEEPBEFORE_START,1516299557005,52
2248,PLAYER_SLEEPBEFORE_END,1516299579569,52
2248,WS_SEND_START,1516299579569,52
2248,WS_SEND_END,1516299579569,52
2248,WS_RECV_START,1516299579569,53
2248,WS_RECV_END,1516299580016,53
2248,PLAYER_SLEEPBEFORE_START,1516299580016,54
2248,PLAYER_SLEEPBEFORE_END,1516299601319,54
2248,WS_SEND_START,1516299601320,54
2248,WS_SEND_END,1516299601320,54
2248,PLAYER_SLEEPBEFORE_START,1516299601320,55
2248,PLAYER_SLEEPBEFORE_END,1516299603261,55
2248,WS_SEND_START,1516299603261,55
2248,WS_SEND_END,1516299603261,55
2248,WS_RECV_START,1516299603261,56
2248,WS_RECV_END,1516299603905,56
2248,PLAYER_SLEEPBEFORE_START,1516299603905,57
2248,PLAYER_SLEEPBEFORE_END,1516299626777,57
2248,WS_SEND_START,1516299626777,57
2248,WS_SEND_END,1516299626777,57
2248,WS_RECV_START,1516299626777,58
2248,WS_RECV_END,1516299629323,58
2248,PLAYER_SLEEPBEFORE_START,1516299629323,59
2248,PLAYER_SLEEPBEFORE_END,1516299631650,59
2248,WS_SEND_START,1516299631650,59
2248,WS_SEND_END,1516299631650,59
2248,WS_RECV_START,1516299631650,60
2248,WS_RECV_END,1516299632398,60
2248,PLAYER_SLEEPBEFORE_START,1516299632398,61
2248,PLAYER_SLEEPBEFORE_END,1516299635989,61
2248,WS_SEND_START,1516299635989,61
2248,WS_SEND_END,1516299635989,61
2248,WS_RECV_START,1516299635989,62
2248,WS_RECV_END,1516299636686,62
2248,PLAYER_SLEEPBEFORE_START,1516299636686,63
2248,PLAYER_SLEEPBEFORE_END,1516299655949,63
2248,WS_SEND_START,1516299655949,63
2248,WS_SEND_END,1516299655949,63
2248,WS_RECV_START,1516299655949,64
2248,WS_RECV_END,1516299656665,64
2248,PLAYER_SLEEPBEFORE_START,1516299656665,65
2248,PLAYER_SLEEPBEFORE_END,1516299683482,65
2248,WS_SEND_START,1516299683482,65
2248,WS_SEND_END,1516299683482,65
2248,WS_RECV_START,1516299683482,66
2248,WS_RECV_END,1516299683928,66
2248,PLAYER_SLEEPBEFORE_START,1516299683928,67
2248,PLAYER_SLEEPBEFORE_END,1516299685435,67
2248,WS_SEND_START,1516299685435,67
2248,WS_SEND_END,1516299685435,67
2248,WS_RECV_START,1516299685435,68
2248,WS_RECV_END,1516299686318,68
2248,PLAYER_SLEEPBEFORE_START,1516299686318,69
2248,PLAYER_SLEEPBEFORE_END,1516299708316,69
2248,WS_SEND_START,1516299708316,69
2248,WS_SEND_END,1516299708316,69
2248,WS_RECV_START,1516299708316,70
2248,WS_RECV_END,1516299709197,70
2248,PLAYER_SLEEPBEFORE_START,1516299709197,71
2248,PLAYER_SLEEPBEFORE_END,1516299733973,71
2248,WS_SEND_START,1516299733973,71
2248,WS_SEND_END,1516299733973,71
2248,PLAYER_SLEEPBEFORE_START,1516299733973,72
2248,PLAYER_SLEEPBEFORE_END,1516299736580,72
2248,WS_SEND_START,1516299736580,72
2248,WS_SEND_END,1516299736580,72
2248,WS_RECV_START,1516299736580,73
2248,WS_RECV_END,1516299736659,73
2248,PLAYER_SLEEPBEFORE_START,1516299736659,74
2248,PLAYER_SLEEPBEFORE_END,1516299736668,74
2248,WS_SEND_START,1516299736668,74
2248,WS_SEND_END,1516299736668,74
2248,WS_RECV_START,1516299736668,75
2248,WS_RECV_END,1516299736710,75
2248,PLAYER_SLEEPBEFORE_START,1516299736710,76
2248,PLAYER_SLEEPBEFORE_END,1516299738216,76
2248,WS_SEND_START,1516299738216,76
2248,WS_SEND_END,1516299738216,76
2248,WS_RECV_START,1516299738216,77
2248,WS_RECV_END,1516299738586,77
2248,PLAYER_SLEEPBEFORE_START,1516299738586,78
2248,PLAYER_SLEEPBEFORE_END,1516299739454,78
2248,WS_SEND_START,1516299739454,78
2248,WS_SEND_END,1516299739454,78
2248,WS_RECV_START,1516299739454,79
2248,WS_RECV_END,1516299739826,79
2248,PLAYER_SLEEPBEFORE_START,1516299739826,80
2248,PLAYER_SLEEPBEFORE_END,1516299747492,80
2248,WS_SEND_START,1516299747492,80
2248,WS_SEND_END,1516299747492,80
2248,WS_RECV_START,1516299747492,81
2248,WS_RECV_END,1516299749175,81
2248,PLAYER_SLEEPBEFORE_START,1516299749175,82
2248,PLAYER_SLEEPBEFORE_END,1516299750277,82
2248,WS_SEND_START,1516299750277,82
2248,WS_SEND_END,1516299750277,82
2248,WS_RECV_START,1516299750277,83
2248,WS_RECV_END,1516299751125,83
2248,PLAYER_SLEEPBEFORE_START,1516299751125,84
2248,PLAYER_SLEEPBEFORE_END,1516299752073,84
2248,WS_SEND_START,1516299752073,84
2248,WS_SEND_END,1516299752073,84
2248,WS_RECV_START,1516299752073,85
2248,WS_RECV_END,1516299752757,85
2248,PLAYER_SLEEPBEFORE_START,1516299752757,86
2248,PLAYER_SLEEPBEFORE_END,1516299756930,86
2248,WS_SEND_START,1516299756930,86
2248,WS_SEND_END,1516299756930,86
2248,WS_RECV_START,1516299756930,87
2248,WS_RECV_END,1516299758149,87
2248,PLAYER_SLEEPBEFORE_START,1516299758149,88
2248,PLAYER_SLEEPBEFORE_END,1516299758157,88
2248,WS_SEND_START,1516299758157,88
2248,WS_SEND_END,1516299758157,88
2248,WS_RECV_START,1516299758157,89
2248,WS_RECV_END,1516299758881,89
2248,PLAYER_SLEEPBEFORE_START,1516299758881,90
2248,PLAYER_SLEEPBEFORE_END,1516299786078,90
2248,REQ_START,1516299786078,90
2248,REQ_END,1516299786086,90
2248,PLAYER_SLEEPBEFORE_START,1516299786086,91
2248,PLAYER_SLEEPBEFORE_END,1516299793986,91
2248,WS_SEND_START,1516299793986,91
2248,WS_SEND_END,1516299793987,91
2248,WS_RECV_START,1516299793987,92
2248,WS_RECV_END,1516299796003,92
2248,PLAYER_SLEEPBEFORE_START,1516299796003,93
2248,PLAYER_SLEEPBEFORE_END,1516299796018,93
2248,WS_SEND_START,1516299796018,93
2248,WS_SEND_END,1516299796018,93
2248,WS_RECV_START,1516299796018,94
2248,WS_RECV_END,1516299796758,94
2248,PLAYER_SLEEPBEFORE_START,1516299796758,95
2248,PLAYER_SLEEPBEFORE_END,1516299820314,95
2248,WS_SEND_START,1516299820314,95
2248,WS_SEND_END,1516299820314,95
2248,WS_RECV_START,1516299820314,96
2248,WS_RECV_END,1516299821592,96
2248,PLAYER_SLEEPBEFORE_START,1516299821592,97
2248,PLAYER_SLEEPBEFORE_END,1516299844032,97
2248,WS_SEND_START,1516299844032,97
2248,WS_SEND_END,1516299844032,97
2248,WS_RECV_START,1516299844032,98
2248,WS_RECV_END,1516299845068,98
2248,PLAYER_SLEEPBEFORE_START,1516299845068,99
2248,PLAYER_SLEEPBEFORE_END,1516299845090,99
2248,WS_SEND_START,1516299845090,99
2248,WS_SEND_END,1516299845090,99
2248,WS_RECV_START,1516299845090,100
2248,WS_RECV_END,1516299846070,100
2248,PLAYER_SLEEPBEFORE_START,1516299846070,101
2248,PLAYER_SLEEPBEFORE_END,1516299869629,101
2248,WS_SEND_START,1516299869629,101
2248,WS_SEND_END,1516299869629,101
2248,WS_RECV_START,1516299869629,102
2248,WS_RECV_END,1516299873914,102
2248,PLAYER_SLEEPBEFORE_START,1516299873914,103
2248,PLAYER_SLEEPBEFORE_END,1516299897539,103
2248,WS_SEND_START,1516299897539,103
2248,WS_SEND_END,1516299897539,103
2248,WS_RECV_START,1516299897539,104
2248,WS_RECV_END,1516299898170,104
2248,PLAYER_SLEEPBEFORE_START,1516299898170,105
2248,PLAYER_SLEEPBEFORE_END,1516299923547,105
2248,WS_SEND_START,1516299923547,105
2248,WS_SEND_END,1516299923547,105
2248,WS_RECV_START,1516299923547,106
2248,WS_RECV_END,1516299924095,106
2248,PLAYER_SLEEPBEFORE_START,1516299924095,107
2248,PLAYER_SLEEPBEFORE_END,1516299947518,107
2248,WS_SEND_START,1516299947518,107
2248,WS_SEND_END,1516299947518,107
2248,WS_RECV_START,1516299947518,108
2248,WS_RECV_END,1516299948530,108
2248,PLAYER_SLEEPBEFORE_START,1516299948530,109
2248,PLAYER_SLEEPBEFORE_END,1516299948539,109
2248,WS_SEND_START,1516299948539,109
2248,WS_SEND_END,1516299948539,109
2248,WS_RECV_START,1516299948539,110
2248,WS_RECV_END,1516299948898,110
2248,PLAYER_SLEEPBEFORE_START,1516299948898,111
2248,PLAYER_SLEEPBEFORE_END,1516299949857,111
2248,WS_SEND_START,1516299949857,111
2248,WS_SEND_END,1516299949857,111
2248,WS_RECV_START,1516299949857,112
2248,WS_RECV_END,1516299950551,112
2248,PLAYER_SLEEPBEFORE_START,1516299950551,113
2248,PLAYER_SLEEPBEFORE_END,1516299951113,113
2248,WS_SEND_START,1516299951113,113
2248,WS_SEND_END,1516299951114,113
2248,WS_RECV_START,1516299951114,114
2248,WS_RECV_END,1516299951605,114
2248,PLAYER_SLEEPBEFORE_START,1516299951605,115
2248,PLAYER_SLEEPBEFORE_END,1516299951614,115
2248,WS_SEND_START,1516299951614,115
2248,WS_SEND_END,1516299951614,115
2248,WS_RECV_START,1516299951614,116
2248,WS_RECV_END,1516299952212,116
2248,PLAYER_SLEEPBEFORE_START,1516299952212,117
2248,PLAYER_SLEEPBEFORE_END,1516299972572,117
2248,WS_SEND_START,1516299972572,117
2248,WS_SEND_END,1516299972572,117
2248,PLAYER_SLEEPBEFORE_START,1516299972572,118
2248,PLAYER_SLEEPBEFORE_END,1516299976324,118
2248,WS_SEND_START,1516299976324,118
2248,WS_SEND_END,1516299976324,118
2248,WS_RECV_START,1516299976324,119
2248,WS_RECV_END,1516299977224,119
2248,PLAYER_SLEEPBEFORE_START,1516299977224,120
2248,PLAYER_SLEEPBEFORE_END,1516299978212,120
2248,WS_SEND_START,1516299978212,120
2248,WS_SEND_END,1516299978212,120
2248,WS_RECV_START,1516299978212,121
2248,WS_RECV_END,1516299979166,121
2248,PLAYER_SLEEPBEFORE_START,1516299979166,122
2248,PLAYER_SLEEPBEFORE_END,1516299980351,122
2248,WS_SEND_START,1516299980351,122
2248,WS_SEND_END,1516299980351,122
2248,WS_RECV_START,1516299980351,123
2248,WS_RECV_END,1516299981343,123
2248,PLAYER_SLEEPBEFORE_START,1516299981343,124
2248,PLAYER_SLEEPBEFORE_END,1516300005749,124
2248,WS_SEND_START,1516300005749,124
2248,WS_SEND_END,1516300005749,124
2248,WS_RECV_START,1516300005749,125
2248,WS_RECV_END,1516300006761,125
2248,PLAYER_SLEEPBEFORE_START,1516300006761,126
2248,PLAYER_SLEEPBEFORE_END,1516300027273,126
2248,WS_SEND_START,1516300027273,126
2248,WS_SEND_END,1516300027273,126
2248,PLAYER_SLEEPBEFORE_START,1516300027273,127
2248,PLAYER_SLEEPBEFORE_END,1516300030327,127
2248,WS_SEND_START,1516300030328,127
2248,WS_SEND_END,1516300030328,127
2248,WS_RECV_START,1516300030328,128
2248,WS_RECV_END,1516300030476,128
2248,PLAYER_SLEEPBEFORE_START,1516300030476,129
2248,PLAYER_SLEEPBEFORE_END,1516300030497,129
2248,WS_SEND_START,1516300030497,129
2248,WS_SEND_END,1516300030497,129
2248,WS_RECV_START,1516300030497,130
2248,WS_RECV_END,1516300030625,130
2248,PLAYER_SLEEPBEFORE_START,1516300030625,131
2248,PLAYER_SLEEPBEFORE_END,1516300052249,131
2248,WS_SEND_START,1516300052249,131
2248,WS_SEND_END,1516300052249,131
2248,PLAYER_SLEEPBEFORE_START,1516300052249,132
2248,PLAYER_SLEEPBEFORE_END,1516300055329,132
2248,WS_SEND_START,1516300055329,132
2248,WS_SEND_END,1516300055330,132
2248,WS_RECV_START,1516300055330,133
2248,WS_RECV_END,1516300055880,133
2248,PLAYER_SLEEPBEFORE_START,1516300055880,134
2248,PLAYER_SLEEPBEFORE_END,1516300077097,134
2248,WS_SEND_START,1516300077097,134
2248,WS_SEND_END,1516300077097,134
2248,PLAYER_SLEEPBEFORE_START,1516300077097,135
2248,PLAYER_SLEEPBEFORE_END,1516300080287,135
2248,WS_SEND_START,1516300080287,135
2248,WS_SEND_END,1516300080287,135
2248,WS_RECV_START,1516300080287,136
2248,WS_RECV_END,1516300080468,136
2248,PLAYER_SLEEPBEFORE_START,1516300080468,137
2248,PLAYER_SLEEPBEFORE_END,1516300080475,137
2248,WS_SEND_START,1516300080475,137
2248,WS_SEND_END,1516300080475,137
2248,WS_RECV_START,1516300080475,138
2248,WS_RECV_END,1516300080650,138
2248,PLAYER_SLEEPBEFORE_START,1516300080650,139
2248,PLAYER_SLEEPBEFORE_END,1516300081340,139
2248,WS_SEND_START,1516300081340,139
2248,WS_SEND_END,1516300081340,139
2248,WS_RECV_START,1516300081340,140
2248,WS_RECV_END,1516300081909,140
2248,PLAYER_SLEEPBEFORE_START,1516300081909,141
2248,PLAYER_SLEEPBEFORE_END,1516300082564,141
2248,WS_SEND_START,1516300082564,141
2248,WS_SEND_END,1516300082564,141
2248,WS_RECV_START,1516300082564,142
2248,WS_RECV_END,1516300083020,142
2248,PLAYER_SLEEPBEFORE_START,1516300083020,143
2248,PLAYER_SLEEPBEFORE_END,1516300083077,143
2248,WS_SEND_START,1516300083077,143
2248,WS_SEND_END,1516300083077,143
2248,WS_RECV_START,1516300083077,144
2248,WS_RECV_END,1516300083356,144
2248,PLAYER_SLEEPBEFORE_START,1516300083356,145
2248,PLAYER_SLEEPBEFORE_END,1516300099418,145
2248,REQ_START,1516300099418,145
2248,REQ_END,1516300099425,145
2248,PLAYER_SLEEPBEFORE_START,1516300099425,146
2248,PLAYER_SLEEPBEFORE_END,1516300108302,146
2248,WS_SEND_START,1516300108302,146
2248,WS_SEND_END,1516300108302,146
2248,WS_RECV_START,1516300108302,147
2248,WS_RECV_END,1516300111776,147
2248,PLAYER_SLEEPBEFORE_START,1516300111776,148
2248,PLAYER_SLEEPBEFORE_END,1516300133698,148
2248,WS_SEND_START,1516300133698,148
2248,WS_SEND_END,1516300133698,148
2248,PLAYER_SLEEPBEFORE_START,1516300133698,149
2248,PLAYER_SLEEPBEFORE_END,1516300136127,149
2248,WS_SEND_START,1516300136127,149
2248,WS_SEND_END,1516300136127,149
2248,WS_RECV_START,1516300136127,150
2248,WS_RECV_END,1516300138575,150
2248,PLAYER_SLEEPBEFORE_START,1516300138575,151
2248,PLAYER_SLEEPBEFORE_END,1516300138786,151
2248,WS_SEND_START,1516300138786,151
2248,WS_SEND_END,1516300138786,151
2248,WS_RECV_START,1516300138786,152
2248,WS_RECV_END,1516300141747,152
2248,PLAYER_SLEEPBEFORE_START,1516300141747,153
2248,PLAYER_SLEEPBEFORE_END,1516300165674,153
2248,WS_SEND_START,1516300165674,153
2248,WS_SEND_END,1516300165674,153
2248,WS_RECV_START,1516300165674,154
2248,WS_RECV_END,1516300170747,154
2248,PLAYER_SLEEPBEFORE_START,1516300170747,155
2248,PLAYER_SLEEPBEFORE_END,1516300193305,155
2248,WS_SEND_START,1516300193305,155
2248,WS_SEND_END,1516300193305,155
2248,PLAYER_SLEEPBEFORE_START,1516300193305,156
2248,PLAYER_SLEEPBEFORE_END,1516300196579,156
2248,WS_SEND_START,1516300196579,156
2248,WS_SEND_END,1516300196579,156
2248,WS_RECV_START,1516300196579,157
2248,WS_RECV_END,1516300197536,157
2248,PLAYER_SLEEPBEFORE_START,1516300197536,158
2248,PLAYER_SLEEPBEFORE_END,1516300197546,158
2248,WS_SEND_START,1516300197546,158
2248,WS_SEND_END,1516300197546,158
2248,WS_RECV_START,1516300197546,159
2248,WS_RECV_END,1516300200583,159
2248,PLAYER_SLEEPBEFORE_START,1516300200583,160
2248,PLAYER_SLEEPBEFORE_END,1516300200758,160
2248,WS_SEND_START,1516300200758,160
2248,WS_SEND_END,1516300200758,160
2248,WS_RECV_START,1516300200758,161
2248,WS_RECV_END,1516300204100,161
2248,PLAYER_SLEEPBEFORE_START,1516300204100,162
2248,PLAYER_SLEEPBEFORE_END,1516300204125,162
2248,WS_SEND_START,1516300204125,162
2248,WS_SEND_END,1516300204125,162
2248,WS_RECV_START,1516300204125,163
2248,WS_RECV_END,1516300207068,163
2248,PLAYER_SLEEPBEFORE_START,1516300207068,164
2248,PLAYER_SLEEPBEFORE_END,1516300227881,164
2248,WS_SEND_START,1516300227881,164
2248,WS_SEND_END,1516300227881,164
2248,WS_RECV_START,1516300227881,165
2248,WS_RECV_END,1516300232576,165
2248,PLAYER_SLEEPBEFORE_START,1516300232576,166
2248,PLAYER_SLEEPBEFORE_END,1516300255032,166
2248,WS_SEND_START,1516300255032,166
2248,WS_SEND_END,1516300255032,166
2248,WS_RECV_START,1516300255032,167
2248,WS_RECV_END,1516300257639,167
2248,PLAYER_SLEEPBEFORE_START,1516300257639,168
2248,PLAYER_SLEEPBEFORE_END,1516300284996,168
2248,WS_SEND_START,1516300284996,168
2248,WS_SEND_END,1516300284996,168
2248,WS_RECV_START,1516300284996,169
2248,WS_RECV_END,1516300285036,169
2248,PLAYER_SLEEPBEFORE_START,1516300285036,170
2248,PLAYER_SLEEPBEFORE_END,1516300285045,170
2248,WS_SEND_START,1516300285045,170
2248,WS_SEND_END,1516300285045,170
2248,WS_RECV_START,1516300285045,171
2248,WS_RECV_END,1516300285091,171
2248,PLAYER_SLEEPBEFORE_START,1516300285091,172
2248,PLAYER_SLEEPBEFORE_END,1516300285460,172
2248,WS_SEND_START,1516300285460,172
2248,WS_SEND_END,1516300285460,172
2248,WS_RECV_START,1516300285460,173
2248,WS_RECV_END,1516300285771,173
2248,PLAYER_SLEEPBEFORE_START,1516300285771,174
2248,PLAYER_SLEEPBEFORE_END,1516300285812,174
2248,WS_SEND_START,1516300285812,174
2248,WS_SEND_END,1516300285812,174
2248,WS_RECV_START,1516300285812,175
2248,WS_RECV_END,1516300286126,175
2248,PLAYER_SLEEPBEFORE_START,1516300286126,176
2248,PLAYER_SLEEPBEFORE_END,1516300307887,176
2248,WS_SEND_START,1516300307887,176
2248,WS_SEND_END,1516300307887,176
2248,PLAYER_SLEEPBEFORE_START,1516300307887,177
2248,PLAYER_SLEEPBEFORE_END,1516300310405,177
2248,WS_SEND_START,1516300310405,177
2248,WS_SEND_END,1516300310405,177
2248,WS_RECV_START,1516300310405,178
2248,WS_RECV_END,1516300310804,178
2248,PLAYER_SLEEPBEFORE_START,1516300310804,179
2248,PLAYER_SLEEPBEFORE_END,1516300333144,179
2248,WS_SEND_START,1516300333144,179
2248,WS_SEND_END,1516300333144,179
2248,WS_RECV_START,1516300333144,180
2248,WS_RECV_END,1516300333334,180
2248,PLAYER_SLEEPBEFORE_START,1516300333334,181
2248,PLAYER_SLEEPBEFORE_END,1516300333778,181
2248,WS_SEND_START,1516300333778,181
2248,WS_SEND_END,1516300333779,181
2248,WS_RECV_START,1516300333779,182
2248,WS_RECV_END,1516300334249,182
2248,PLAYER_SLEEPBEFORE_START,1516300334249,183
2248,PLAYER_SLEEPBEFORE_END,1516300334772,183
2248,WS_SEND_START,1516300334772,183
2248,WS_SEND_END,1516300334772,183
2248,WS_RECV_START,1516300334772,184
2248,WS_RECV_END,1516300335112,184
2248,PLAYER_SLEEPBEFORE_START,1516300335112,185
2248,PLAYER_SLEEPBEFORE_END,1516300335380,185
2248,WS_SEND_START,1516300335380,185
2248,WS_SEND_END,1516300335380,185
2248,WS_RECV_START,1516300335380,186
2248,WS_RECV_END,1516300335597,186
2248,PLAYER_SLEEPBEFORE_START,1516300335597,187
2248,PLAYER_SLEEPBEFORE_END,1516300358097,187
2248,WS_SEND_START,1516300358097,187
2248,WS_SEND_END,1516300358097,187
2248,WS_RECV_START,1516300358097,188
2248,WS_RECV_END,1516300358260,188
2248,PLAYER_SLEEPBEFORE_START,1516300358260,189
2248,PLAYER_SLEEPBEFORE_END,1516300364499,189
2248,WS_SEND_START,1516300364499,189
2248,WS_SEND_END,1516300364499,189
2248,WS_RECV_START,1516300364499,190
2248,WS_RECV_END,1516300364594,190
2248,PLAYER_SLEEPBEFORE_START,1516300364594,191
2248,PLAYER_SLEEPBEFORE_END,1516300366509,191
2248,WS_SEND_START,1516300366509,191
2248,WS_SEND_END,1516300366509,191
2248,WS_RECV_START,1516300366509,192
2248,WS_RECV_END,1516300366661,192
2248,PLAYER_SLEEPBEFORE_START,1516300366661,193
2248,PLAYER_SLEEPBEFORE_END,1516300366789,193
2248,WS_SEND_START,1516300366789,193
2248,WS_SEND_END,1516300366789,193
2248,WS_RECV_START,1516300366789,194
2248,WS_RECV_END,1516300366981,194
2248,PLAYER_SLEEPBEFORE_START,1516300366981,195
2248,PLAYER_SLEEPBEFORE_END,1516300368737,195
2248,WS_SEND_START,1516300368737,195
2248,WS_SEND_END,1516300368737,195
2248,WS_RECV_START,1516300368737,196
2248,WS_RECV_END,1516300369037,196
2248,PLAYER_SLEEPBEFORE_START,1516300369037,197
2248,PLAYER_SLEEPBEFORE_END,1516300370841,197
2248,WS_SEND_START,1516300370841,197
2248,WS_SEND_END,1516300370841,197
2248,WS_RECV_START,1516300370841,198
2248,WS_RECV_END,1516300371105,198
2248,PLAYER_SLEEPBEFORE_START,1516300371105,199
2248,PLAYER_SLEEPBEFORE_END,1516300382959,199
2248,WS_SEND_START,1516300382959,199
2248,WS_SEND_END,1516300382959,199
2248,PLAYER_SLEEPBEFORE_START,1516300382959,200
2248,PLAYER_SLEEPBEFORE_END,1516300387047,200
2248,WS_SEND_START,1516300387047,200
2248,WS_SEND_END,1516300387047,200
2248,WS_RECV_START,1516300387047,201
2248,WS_RECV_END,1516300387198,201
2248,PLAYER_SLEEPBEFORE_START,1516300387198,202
2248,PLAYER_SLEEPBEFORE_END,1516300387212,202
2248,WS_SEND_START,1516300387212,202
2248,WS_SEND_END,1516300387212,202
2248,WS_RECV_START,1516300387212,203
2248,WS_RECV_END,1516300387376,203
2248,PLAYER_SLEEPBEFORE_START,1516300387376,204
2248,PLAYER_SLEEPBEFORE_END,1516300407025,204
2248,WS_SEND_START,1516300407025,204
2248,WS_SEND_END,1516300407025,204
2248,PLAYER_SLEEPBEFORE_START,1516300407025,205
2248,PLAYER_SLEEPBEFORE_END,1516300410923,205
2248,WS_SEND_START,1516300410923,205
2248,WS_SEND_END,1516300410923,205
2248,WS_RECV_START,1516300410923,206
2248,WS_RECV_END,1516300411021,206
2248,PLAYER_SLEEPBEFORE_START,1516300411021,207
2248,PLAYER_SLEEPBEFORE_END,1516300427952,207
2248,REQ_START,1516300427952,207
2248,REQ_END,1516300427959,207
2248,PLAYER_SLEEPBEFORE_START,1516300427959,208
2248,PLAYER_SLEEPBEFORE_END,1516300434811,208
2248,WS_CLOSE_START,1516300434811,208
2248,WS_CLOSE_END,1516300434811,208
2248,PLAYER_DONE,1516300434811
