# --sessions 2700 --app-url=http://shinyloadtest.rstudioservices.com/cran_explorer --output-dir test2700 --overwrite-output --log-level warn --start-interval 100 15min.log
thread_id,event,timestamp,input_line_number,comment
228,PLAYER_SESSION_CREATE,1516299245330
228,PLAYER_START_INTERVAL_START,1516299245330
228,PLAYER_START_INTERVAL_END,1516299268130
228,REQ_HOME_START,1516299268130,2
228,REQ_HOME_END,1516299268228,2
228,REQ_START,1516299268228,3
228,REQ_END,1516299268265,3
228,REQ_START,1516299268265,4
228,REQ_END,1516299268302,4
228,REQ_START,1516299268302,5
228,REQ_END,1516299268339,5
228,REQ_START,1516299268339,6
228,REQ_END,1516299268377,6
228,REQ_START,1516299268377,7
228,REQ_END,1516299268413,7
228,REQ_START,1516299268413,8
228,REQ_END,1516299268454,8
228,REQ_START,1516299268454,9
228,REQ_END,1516299268495,9
228,REQ_START,1516299268495,10
228,REQ_END,1516299268501,10
228,REQ_START,1516299268501,11
228,REQ_END,1516299268537,11
228,REQ_START,1516299268537,12
228,REQ_END,1516299268545,12
228,REQ_START,1516299268545,13
228,REQ_END,1516299268581,13
228,REQ_START,1516299268581,14
228,REQ_END,1516299268594,14
228,REQ_START,1516299268594,15
228,REQ_END,1516299268633,15
228,REQ_TOK_START,1516299268633,16
228,REQ_TOK_END,1516299268638,16
228,REQ_SINF_START,1516299268638,17
228,REQ_SINF_END,1516299268644,17
228,WS_OPEN_START,1516299268644,18
228,WS_OPEN_END,1516299268648,18
228,REQ_START,1516299268648,19
228,REQ_END,1516299268682,19
228,WS_RECV_START,1516299268682,20
228,WS_RECV_END,1516299268682,20
228,PLAYER_SLEEPBEFORE_START,1516299268682,21
228,PLAYER_SLEEPBEFORE_END,1516299268687,21
228,WS_SEND_START,1516299268687,21
228,WS_SEND_END,1516299268687,21
228,PLAYER_SLEEPBEFORE_START,1516299268687,22
228,PLAYER_SLEEPBEFORE_END,1516299268688,22
228,WS_SEND_START,1516299268688,22
228,WS_SEND_END,1516299268688,22
228,WS_RECV_INIT_START,1516299268688,23
228,WS_RECV_INIT_END,1516299268707,23
228,WS_RECV_START,1516299268707,24
228,WS_RECV_END,1516299268770,24
228,PLAYER_SLEEPBEFORE_START,1516299268770,25
228,PLAYER_SLEEPBEFORE_END,1516299268777,25
228,REQ_START,1516299268777,25
228,REQ_END,1516299268814,25
228,PLAYER_SLEEPBEFORE_START,1516299268814,26
228,PLAYER_SLEEPBEFORE_END,1516299268816,26
228,REQ_START,1516299268816,26
228,REQ_END,1516299268855,26
228,PLAYER_SLEEPBEFORE_START,1516299268855,27
228,PLAYER_SLEEPBEFORE_END,1516299268858,27
228,REQ_START,1516299268858,27
228,REQ_END,1516299268899,27
228,PLAYER_SLEEPBEFORE_START,1516299268899,28
228,PLAYER_SLEEPBEFORE_END,1516299269184,28
228,REQ_START,1516299269184,28
228,REQ_END,1516299269220,28
228,PLAYER_SLEEPBEFORE_START,1516299269220,29
228,PLAYER_SLEEPBEFORE_END,1516299269396,29
228,WS_SEND_START,1516299269396,29
228,WS_SEND_END,1516299269396,29
228,WS_RECV_START,1516299269396,30
228,WS_RECV_END,1516299269496,30
228,PLAYER_SLEEPBEFORE_START,1516299269496,31
228,PLAYER_SLEEPBEFORE_END,1516299269507,31
228,REQ_START,1516299269507,31
228,REQ_END,1516299269547,31
228,PLAYER_SLEEPBEFORE_START,1516299269547,32
228,PLAYER_SLEEPBEFORE_END,1516299297692,32
228,WS_SEND_START,1516299297692,32
228,WS_SEND_END,1516299297692,32
228,WS_RECV_START,1516299297692,33
228,WS_RECV_END,1516299297795,33
228,PLAYER_SLEEPBEFORE_START,1516299297795,34
228,PLAYER_SLEEPBEFORE_END,1516299323706,34
228,WS_SEND_START,1516299323706,34
228,WS_SEND_END,1516299323706,34
228,WS_RECV_START,1516299323706,35
228,WS_RECV_END,1516299323729,35
228,PLAYER_SLEEPBEFORE_START,1516299323729,36
228,PLAYER_SLEEPBEFORE_END,1516299323738,36
228,WS_SEND_START,1516299323738,36
228,WS_SEND_END,1516299323738,36
228,WS_RECV_START,1516299323739,37
228,WS_RECV_END,1516299323779,37
228,PLAYER_SLEEPBEFORE_START,1516299323779,38
228,PLAYER_SLEEPBEFORE_END,1516299326975,38
228,WS_SEND_START,1516299326975,38
228,WS_SEND_END,1516299326975,38
228,WS_RECV_START,1516299326975,39
228,WS_RECV_END,1516299327111,39
228,PLAYER_SLEEPBEFORE_START,1516299327111,40
228,PLAYER_SLEEPBEFORE_END,1516299327157,40
228,WS_SEND_START,1516299327157,40
228,WS_SEND_END,1516299327157,40
228,WS_RECV_START,1516299327157,41
228,WS_RECV_END,1516299327258,41
228,PLAYER_SLEEPBEFORE_START,1516299327258,42
228,PLAYER_SLEEPBEFORE_END,1516299345394,42
228,WS_SEND_START,1516299345394,42
228,WS_SEND_END,1516299345394,42
228,WS_RECV_START,1516299345394,43
228,WS_RECV_END,1516299345439,43
228,PLAYER_SLEEPBEFORE_START,1516299345439,44
228,PLAYER_SLEEPBEFORE_END,1516299345451,44
228,WS_SEND_START,1516299345451,44
228,WS_SEND_END,1516299345451,44
228,WS_RECV_START,1516299345451,45
228,WS_RECV_END,1516299345520,45
228,PLAYER_SLEEPBEFORE_START,1516299345520,46
228,PLAYER_SLEEPBEFORE_END,1516299346780,46
228,WS_SEND_START,1516299346780,46
228,WS_SEND_END,1516299346780,46
228,WS_RECV_START,1516299346780,47
228,WS_RECV_END,1516299346877,47
228,PLAYER_SLEEPBEFORE_START,1516299346878,48
228,PLAYER_SLEEPBEFORE_END,1516299348198,48
228,WS_SEND_START,1516299348198,48
228,WS_SEND_END,1516299348198,48
228,WS_RECV_START,1516299348198,49
228,WS_RECV_END,1516299348302,49
228,PLAYER_SLEEPBEFORE_START,1516299348302,50
228,PLAYER_SLEEPBEFORE_END,1516299348326,50
228,WS_SEND_START,1516299348326,50
228,WS_SEND_END,1516299348326,50
228,WS_RECV_START,1516299348326,51
228,WS_RECV_END,1516299348428,51
228,PLAYER_SLEEPBEFORE_START,1516299348428,52
228,PLAYER_SLEEPBEFORE_END,1516299370992,52
228,WS_SEND_START,1516299370992,52
228,WS_SEND_END,1516299370992,52
228,WS_RECV_START,1516299370992,53
228,WS_RECV_END,1516299371108,53
228,PLAYER_SLEEPBEFORE_START,1516299371108,54
228,PLAYER_SLEEPBEFORE_END,1516299392411,54
228,WS_SEND_START,1516299392411,54
228,WS_SEND_END,1516299392411,54
228,PLAYER_SLEEPBEFORE_START,1516299392411,55
228,PLAYER_SLEEPBEFORE_END,1516299394353,55
228,WS_SEND_START,1516299394353,55
228,WS_SEND_END,1516299394353,55
228,WS_RECV_START,1516299394353,56
228,WS_RECV_END,1516299394439,56
228,PLAYER_SLEEPBEFORE_START,1516299394439,57
228,PLAYER_SLEEPBEFORE_END,1516299417311,57
228,WS_SEND_START,1516299417311,57
228,WS_SEND_END,1516299417311,57
228,WS_RECV_START,1516299417311,58
228,WS_RECV_END,1516299417437,58
228,PLAYER_SLEEPBEFORE_START,1516299417437,59
228,PLAYER_SLEEPBEFORE_END,1516299419764,59
228,WS_SEND_START,1516299419764,59
228,WS_SEND_END,1516299419764,59
228,WS_RECV_START,1516299419764,60
228,WS_RECV_END,1516299420103,60
228,PLAYER_SLEEPBEFORE_START,1516299420103,61
228,PLAYER_SLEEPBEFORE_END,1516299423694,61
228,WS_SEND_START,1516299423694,61
228,WS_SEND_END,1516299423694,61
228,WS_RECV_START,1516299423694,62
228,WS_RECV_END,1516299423814,62
228,PLAYER_SLEEPBEFORE_START,1516299423814,63
228,PLAYER_SLEEPBEFORE_END,1516299443076,63
228,WS_SEND_START,1516299443076,63
228,WS_SEND_END,1516299443076,63
228,WS_RECV_START,1516299443076,64
228,WS_RECV_END,1516299443307,64
228,PLAYER_SLEEPBEFORE_START,1516299443307,65
228,PLAYER_SLEEPBEFORE_END,1516299470124,65
228,WS_SEND_START,1516299470124,65
228,WS_SEND_END,1516299470124,65
228,WS_RECV_START,1516299470124,66
228,WS_RECV_END,1516299470310,66
228,PLAYER_SLEEPBEFORE_START,1516299470310,67
228,PLAYER_SLEEPBEFORE_END,1516299471818,67
228,WS_SEND_START,1516299471818,67
228,WS_SEND_END,1516299471818,67
228,WS_RECV_START,1516299471818,68
228,WS_RECV_END,1516299472171,68
228,PLAYER_SLEEPBEFORE_START,1516299472171,69
228,PLAYER_SLEEPBEFORE_END,1516299494169,69
228,WS_SEND_START,1516299494169,69
228,WS_SEND_END,1516299494169,69
228,WS_RECV_START,1516299494169,70
228,WS_RECV_END,1516299494306,70
228,PLAYER_SLEEPBEFORE_START,1516299494306,71
228,PLAYER_SLEEPBEFORE_END,1516299519081,71
228,WS_SEND_START,1516299519081,71
228,WS_SEND_END,1516299519081,71
228,PLAYER_SLEEPBEFORE_START,1516299519081,72
228,PLAYER_SLEEPBEFORE_END,1516299521688,72
228,WS_SEND_START,1516299521688,72
228,WS_SEND_END,1516299521688,72
228,WS_RECV_START,1516299521688,73
228,WS_RECV_END,1516299522130,73
228,PLAYER_SLEEPBEFORE_START,1516299522130,74
228,PLAYER_SLEEPBEFORE_END,1516299522139,74
228,WS_SEND_START,1516299522139,74
228,WS_SEND_END,1516299522139,74
228,WS_RECV_START,1516299522139,75
228,WS_RECV_END,1516299522226,75
228,PLAYER_SLEEPBEFORE_START,1516299522226,76
228,PLAYER_SLEEPBEFORE_END,1516299523732,76
228,WS_SEND_START,1516299523732,76
228,WS_SEND_END,1516299523732,76
228,WS_RECV_START,1516299523732,77
228,WS_RECV_END,1516299524395,77
228,PLAYER_SLEEPBEFORE_START,1516299524395,78
228,PLAYER_SLEEPBEFORE_END,1516299525263,78
228,WS_SEND_START,1516299525263,78
228,WS_SEND_END,1516299525263,78
228,WS_RECV_START,1516299525263,79
228,WS_RECV_END,1516299525775,79
228,PLAYER_SLEEPBEFORE_START,1516299525775,80
228,PLAYER_SLEEPBEFORE_END,1516299533441,80
228,WS_SEND_START,1516299533441,80
228,WS_SEND_END,1516299533441,80
228,WS_RECV_START,1516299533441,81
228,WS_RECV_END,1516299535065,81
228,PLAYER_SLEEPBEFORE_START,1516299535065,82
228,PLAYER_SLEEPBEFORE_END,1516299536167,82
228,WS_SEND_START,1516299536167,82
228,WS_SEND_END,1516299536167,82
228,WS_RECV_START,1516299536167,83
228,WS_RECV_END,1516299538231,83
228,PLAYER_SLEEPBEFORE_START,1516299538231,84
228,PLAYER_SLEEPBEFORE_END,1516299539178,84
228,WS_SEND_START,1516299539178,84
228,WS_SEND_END,1516299539178,84
228,WS_RECV_START,1516299539178,85
228,WS_RECV_END,1516299540814,85
228,PLAYER_SLEEPBEFORE_START,1516299540814,86
228,PLAYER_SLEEPBEFORE_END,1516299544986,86
228,WS_SEND_START,1516299544986,86
228,WS_SEND_END,1516299544986,86
228,WS_RECV_START,1516299544986,87
228,WS_RECV_END,1516299546125,87
228,PLAYER_SLEEPBEFORE_START,1516299546125,88
228,PLAYER_SLEEPBEFORE_END,1516299546133,88
228,WS_SEND_START,1516299546133,88
228,WS_SEND_END,1516299546133,88
228,WS_RECV_START,1516299546133,89
228,WS_RECV_END,1516299546483,89
228,PLAYER_SLEEPBEFORE_START,1516299546483,90
228,PLAYER_SLEEPBEFORE_END,1516299573680,90
228,REQ_START,1516299573680,90
228,REQ_END,1516299573685,90
228,PLAYER_SLEEPBEFORE_START,1516299573685,91
228,PLAYER_SLEEPBEFORE_END,1516299581574,91
228,WS_SEND_START,1516299581574,91
228,WS_SEND_END,1516299581574,91
228,WS_RECV_START,1516299581574,92
228,WS_RECV_END,1516299582887,92
228,PLAYER_SLEEPBEFORE_START,1516299582887,93
228,PLAYER_SLEEPBEFORE_END,1516299582902,93
228,WS_SEND_START,1516299582902,93
228,WS_SEND_END,1516299582902,93
228,WS_RECV_START,1516299582902,94
228,WS_RECV_END,1516299583387,94
228,PLAYER_SLEEPBEFORE_START,1516299583387,95
228,PLAYER_SLEEPBEFORE_END,1516299606942,95
228,WS_SEND_START,1516299606942,95
228,WS_SEND_END,1516299606942,95
228,WS_RECV_START,1516299606942,96
228,WS_RECV_END,1516299607586,96
228,PLAYER_SLEEPBEFORE_START,1516299607586,97
228,PLAYER_SLEEPBEFORE_END,1516299630027,97
228,WS_SEND_START,1516299630027,97
228,WS_SEND_END,1516299630027,97
228,WS_RECV_START,1516299630027,98
228,WS_RECV_END,1516299630981,98
228,PLAYER_SLEEPBEFORE_START,1516299630981,99
228,PLAYER_SLEEPBEFORE_END,1516299631002,99
228,WS_SEND_START,1516299631002,99
228,WS_SEND_END,1516299631002,99
228,WS_RECV_START,1516299631002,100
228,WS_RECV_END,1516299631710,100
228,PLAYER_SLEEPBEFORE_START,1516299631710,101
228,PLAYER_SLEEPBEFORE_END,1516299655269,101
228,WS_SEND_START,1516299655269,101
228,WS_SEND_END,1516299655269,101
228,WS_RECV_START,1516299655269,102
228,WS_RECV_END,1516299655596,102
228,PLAYER_SLEEPBEFORE_START,1516299655596,103
228,PLAYER_SLEEPBEFORE_END,1516299679221,103
228,WS_SEND_START,1516299679221,103
228,WS_SEND_END,1516299679221,103
228,WS_RECV_START,1516299679221,104
228,WS_RECV_END,1516299679492,104
228,PLAYER_SLEEPBEFORE_START,1516299679492,105
228,PLAYER_SLEEPBEFORE_END,1516299704869,105
228,WS_SEND_START,1516299704869,105
228,WS_SEND_END,1516299704869,105
228,WS_RECV_START,1516299704869,106
228,WS_RECV_END,1516299705251,106
228,PLAYER_SLEEPBEFORE_START,1516299705251,107
228,PLAYER_SLEEPBEFORE_END,1516299728675,107
228,WS_SEND_START,1516299728675,107
228,WS_SEND_END,1516299728675,107
228,WS_RECV_START,1516299728675,108
228,WS_RECV_END,1516299729055,108
228,PLAYER_SLEEPBEFORE_START,1516299729055,109
228,PLAYER_SLEEPBEFORE_END,1516299729064,109
228,WS_SEND_START,1516299729064,109
228,WS_SEND_END,1516299729064,109
228,WS_RECV_START,1516299729064,110
228,WS_RECV_END,1516299729118,110
228,PLAYER_SLEEPBEFORE_START,1516299729118,111
228,PLAYER_SLEEPBEFORE_END,1516299730077,111
228,WS_SEND_START,1516299730077,111
228,WS_SEND_END,1516299730077,111
228,WS_RECV_START,1516299730077,112
228,WS_RECV_END,1516299730335,112
228,PLAYER_SLEEPBEFORE_START,1516299730335,113
228,PLAYER_SLEEPBEFORE_END,1516299730898,113
228,WS_SEND_START,1516299730898,113
228,WS_SEND_END,1516299730898,113
228,WS_RECV_START,1516299730898,114
228,WS_RECV_END,1516299731114,114
228,PLAYER_SLEEPBEFORE_START,1516299731115,115
228,PLAYER_SLEEPBEFORE_END,1516299731124,115
228,WS_SEND_START,1516299731124,115
228,WS_SEND_END,1516299731124,115
228,WS_RECV_START,1516299731124,116
228,WS_RECV_END,1516299731294,116
228,PLAYER_SLEEPBEFORE_START,1516299731294,117
228,PLAYER_SLEEPBEFORE_END,1516299751654,117
228,WS_SEND_START,1516299751654,117
228,WS_SEND_END,1516299751654,117
228,PLAYER_SLEEPBEFORE_START,1516299751654,118
228,PLAYER_SLEEPBEFORE_END,1516299755407,118
228,WS_SEND_START,1516299755407,118
228,WS_SEND_END,1516299755407,118
228,WS_RECV_START,1516299755407,119
228,WS_RECV_END,1516299756119,119
228,PLAYER_SLEEPBEFORE_START,1516299756119,120
228,PLAYER_SLEEPBEFORE_END,1516299757107,120
228,WS_SEND_START,1516299757107,120
228,WS_SEND_END,1516299757107,120
228,WS_RECV_START,1516299757107,121
228,WS_RECV_END,1516299758107,121
228,PLAYER_SLEEPBEFORE_START,1516299758107,122
228,PLAYER_SLEEPBEFORE_END,1516299759292,122
228,WS_SEND_START,1516299759292,122
228,WS_SEND_END,1516299759292,122
228,WS_RECV_START,1516299759292,123
228,WS_RECV_END,1516299759903,123
228,PLAYER_SLEEPBEFORE_START,1516299759903,124
228,PLAYER_SLEEPBEFORE_END,1516299784308,124
228,WS_SEND_START,1516299784308,124
228,WS_SEND_END,1516299784308,124
228,WS_RECV_START,1516299784308,125
228,WS_RECV_END,1516299784890,125
228,PLAYER_SLEEPBEFORE_START,1516299784890,126
228,PLAYER_SLEEPBEFORE_END,1516299805403,126
228,WS_SEND_START,1516299805403,126
228,WS_SEND_END,1516299805403,126
228,PLAYER_SLEEPBEFORE_START,1516299805403,127
228,PLAYER_SLEEPBEFORE_END,1516299808457,127
228,WS_SEND_START,1516299808457,127
228,WS_SEND_END,1516299808457,127
228,WS_RECV_START,1516299808457,128
228,WS_RECV_END,1516299809647,128
228,PLAYER_SLEEPBEFORE_START,1516299809647,129
228,PLAYER_SLEEPBEFORE_END,1516299809667,129
228,WS_SEND_START,1516299809667,129
228,WS_SEND_END,1516299809667,129
228,WS_RECV_START,1516299809667,130
228,WS_RECV_END,1516299810203,130
228,PLAYER_SLEEPBEFORE_START,1516299810203,131
228,PLAYER_SLEEPBEFORE_END,1516299831827,131
228,WS_SEND_START,1516299831827,131
228,WS_SEND_END,1516299831827,131
228,PLAYER_SLEEPBEFORE_START,1516299831827,132
228,PLAYER_SLEEPBEFORE_END,1516299834907,132
228,WS_SEND_START,1516299834907,132
228,WS_SEND_END,1516299834907,132
228,WS_RECV_START,1516299834907,133
228,WS_RECV_END,1516299835060,133
228,PLAYER_SLEEPBEFORE_START,1516299835060,134
228,PLAYER_SLEEPBEFORE_END,1516299856277,134
228,WS_SEND_START,1516299856277,134
228,WS_SEND_END,1516299856277,134
228,PLAYER_SLEEPBEFORE_START,1516299856277,135
228,PLAYER_SLEEPBEFORE_END,1516299859488,135
228,WS_SEND_START,1516299859488,135
228,WS_SEND_END,1516299859488,135
228,WS_RECV_START,1516299859488,136
228,WS_RECV_END,1516299862120,136
228,PLAYER_SLEEPBEFORE_START,1516299862121,137
228,PLAYER_SLEEPBEFORE_END,1516299862128,137
228,WS_SEND_START,1516299862128,137
228,WS_SEND_END,1516299862128,137
228,WS_RECV_START,1516299862128,138
228,WS_RECV_END,1516299863498,138
228,PLAYER_SLEEPBEFORE_START,1516299863498,139
228,PLAYER_SLEEPBEFORE_END,1516299864188,139
228,WS_SEND_START,1516299864188,139
228,WS_SEND_END,1516299864188,139
228,WS_RECV_START,1516299864188,140
228,WS_RECV_END,1516299864541,140
228,PLAYER_SLEEPBEFORE_START,1516299864541,141
228,PLAYER_SLEEPBEFORE_END,1516299865196,141
228,WS_SEND_START,1516299865196,141
228,WS_SEND_END,1516299865196,141
228,WS_RECV_START,1516299865196,142
228,WS_RECV_END,1516299865917,142
228,PLAYER_SLEEPBEFORE_START,1516299865917,143
228,PLAYER_SLEEPBEFORE_END,1516299865975,143
228,WS_SEND_START,1516299865975,143
228,WS_SEND_END,1516299865975,143
228,WS_RECV_START,1516299865975,144
228,WS_RECV_END,1516299867280,144
228,PLAYER_SLEEPBEFORE_START,1516299867280,145
228,PLAYER_SLEEPBEFORE_END,1516299883342,145
228,REQ_START,1516299883342,145
228,REQ_END,1516299883347,145
228,PLAYER_SLEEPBEFORE_START,1516299883347,146
228,PLAYER_SLEEPBEFORE_END,1516299892224,146
228,WS_SEND_START,1516299892224,146
228,WS_SEND_END,1516299892224,146
228,WS_RECV_START,1516299892224,147
228,WS_RECV_END,1516299892974,147
228,PLAYER_SLEEPBEFORE_START,1516299892974,148
228,PLAYER_SLEEPBEFORE_END,1516299914896,148
228,WS_SEND_START,1516299914896,148
228,WS_SEND_END,1516299914896,148
228,PLAYER_SLEEPBEFORE_START,1516299914896,149
228,PLAYER_SLEEPBEFORE_END,1516299917324,149
228,WS_SEND_START,1516299917324,149
228,WS_SEND_END,1516299917324,149
228,WS_RECV_START,1516299917324,150
228,WS_RECV_END,1516299918155,150
228,PLAYER_SLEEPBEFORE_START,1516299918155,151
228,PLAYER_SLEEPBEFORE_END,1516299918366,151
228,WS_SEND_START,1516299918366,151
228,WS_SEND_END,1516299918366,151
228,WS_RECV_START,1516299918366,152
228,WS_RECV_END,1516299919083,152
228,PLAYER_SLEEPBEFORE_START,1516299919083,153
228,PLAYER_SLEEPBEFORE_END,1516299943010,153
228,WS_SEND_START,1516299943010,153
228,WS_SEND_END,1516299943010,153
228,WS_RECV_START,1516299943010,154
228,WS_RECV_END,1516299943214,154
228,PLAYER_SLEEPBEFORE_START,1516299943214,155
228,PLAYER_SLEEPBEFORE_END,1516299965772,155
228,WS_SEND_START,1516299965772,155
228,WS_SEND_END,1516299965772,155
228,PLAYER_SLEEPBEFORE_START,1516299965772,156
228,PLAYER_SLEEPBEFORE_END,1516299969046,156
228,WS_SEND_START,1516299969046,156
228,WS_SEND_END,1516299969046,156
228,WS_RECV_START,1516299969046,157
228,WS_RECV_END,1516299969762,157
228,PLAYER_SLEEPBEFORE_START,1516299969762,158
228,PLAYER_SLEEPBEFORE_END,1516299969772,158
228,WS_SEND_START,1516299969772,158
228,WS_SEND_END,1516299969773,158
228,WS_RECV_START,1516299969773,159
228,WS_RECV_END,1516299970274,159
228,PLAYER_SLEEPBEFORE_START,1516299970274,160
228,PLAYER_SLEEPBEFORE_END,1516299970449,160
228,WS_SEND_START,1516299970449,160
228,WS_SEND_END,1516299970449,160
228,WS_RECV_START,1516299970449,161
228,WS_RECV_END,1516299971382,161
228,PLAYER_SLEEPBEFORE_START,1516299971382,162
228,PLAYER_SLEEPBEFORE_END,1516299971407,162
228,WS_SEND_START,1516299971407,162
228,WS_SEND_END,1516299971407,162
228,WS_RECV_START,1516299971407,163
228,WS_RECV_END,1516299972141,163
228,PLAYER_SLEEPBEFORE_START,1516299972141,164
228,PLAYER_SLEEPBEFORE_END,1516299992954,164
228,WS_SEND_START,1516299992954,164
228,WS_SEND_END,1516299992954,164
228,WS_RECV_START,1516299992954,165
228,WS_RECV_END,1516299993559,165
228,PLAYER_SLEEPBEFORE_START,1516299993559,166
228,PLAYER_SLEEPBEFORE_END,1516300016014,166
228,WS_SEND_START,1516300016014,166
228,WS_SEND_END,1516300016014,166
228,WS_RECV_START,1516300016014,167
228,WS_RECV_END,1516300016750,167
228,PLAYER_SLEEPBEFORE_START,1516300016750,168
228,PLAYER_SLEEPBEFORE_END,1516300044107,168
228,WS_SEND_START,1516300044107,168
228,WS_SEND_END,1516300044107,168
228,WS_RECV_START,1516300044107,169
228,WS_RECV_END,1516300044767,169
228,PLAYER_SLEEPBEFORE_START,1516300044767,170
228,PLAYER_SLEEPBEFORE_END,1516300044776,170
228,WS_SEND_START,1516300044776,170
228,WS_SEND_END,1516300044776,170
228,WS_RECV_START,1516300044776,171
228,WS_RECV_END,1516300045398,171
228,PLAYER_SLEEPBEFORE_START,1516300045398,172
228,PLAYER_SLEEPBEFORE_END,1516300045767,172
228,WS_SEND_START,1516300045767,172
228,WS_SEND_END,1516300045767,172
228,WS_RECV_START,1516300045767,173
228,WS_RECV_END,1516300046748,173
228,PLAYER_SLEEPBEFORE_START,1516300046748,174
228,PLAYER_SLEEPBEFORE_END,1516300046789,174
228,WS_SEND_START,1516300046789,174
228,WS_SEND_END,1516300046789,174
228,WS_RECV_START,1516300046789,175
228,WS_RECV_END,1516300047616,175
228,PLAYER_SLEEPBEFORE_START,1516300047616,176
228,PLAYER_SLEEPBEFORE_END,1516300069378,176
228,WS_SEND_START,1516300069378,176
228,WS_SEND_END,1516300069378,176
228,PLAYER_SLEEPBEFORE_START,1516300069378,177
228,PLAYER_SLEEPBEFORE_END,1516300071896,177
228,WS_SEND_START,1516300071896,177
228,WS_SEND_END,1516300071896,177
228,WS_RECV_START,1516300071896,178
228,WS_RECV_END,1516300072955,178
228,PLAYER_SLEEPBEFORE_START,1516300072955,179
228,PLAYER_SLEEPBEFORE_END,1516300095295,179
228,WS_SEND_START,1516300095295,179
228,WS_SEND_END,1516300095295,179
228,WS_RECV_START,1516300095295,180
228,WS_RECV_END,1516300096195,180
228,PLAYER_SLEEPBEFORE_START,1516300096195,181
228,PLAYER_SLEEPBEFORE_END,1516300096639,181
228,WS_SEND_START,1516300096639,181
228,WS_SEND_END,1516300096639,181
228,WS_RECV_START,1516300096639,182
228,WS_RECV_END,1516300097348,182
228,PLAYER_SLEEPBEFORE_START,1516300097348,183
228,PLAYER_SLEEPBEFORE_END,1516300097872,183
228,WS_SEND_START,1516300097872,183
228,WS_SEND_END,1516300097872,183
228,WS_RECV_START,1516300097872,184
228,WS_RECV_END,1516300098737,184
228,PLAYER_SLEEPBEFORE_START,1516300098737,185
228,PLAYER_SLEEPBEFORE_END,1516300099005,185
228,WS_SEND_START,1516300099005,185
228,WS_SEND_END,1516300099005,185
228,WS_RECV_START,1516300099005,186
228,WS_RECV_END,1516300100549,186
228,PLAYER_SLEEPBEFORE_START,1516300100549,187
228,PLAYER_SLEEPBEFORE_END,1516300123049,187
228,WS_SEND_START,1516300123049,187
228,WS_SEND_END,1516300123049,187
228,WS_RECV_START,1516300123049,188
228,WS_RECV_END,1516300125309,188
228,PLAYER_SLEEPBEFORE_START,1516300125309,189
228,PLAYER_SLEEPBEFORE_END,1516300131549,189
228,WS_SEND_START,1516300131549,189
228,WS_SEND_END,1516300131549,189
228,WS_RECV_START,1516300131549,190
228,WS_RECV_END,1516300134951,190
228,PLAYER_SLEEPBEFORE_START,1516300134951,191
228,PLAYER_SLEEPBEFORE_END,1516300136866,191
228,WS_SEND_START,1516300136866,191
228,WS_SEND_END,1516300136866,191
228,WS_RECV_START,1516300136867,192
228,WS_RECV_END,1516300141617,192
228,PLAYER_SLEEPBEFORE_START,1516300141617,193
228,PLAYER_SLEEPBEFORE_END,1516300141746,193
228,WS_SEND_START,1516300141746,193
228,WS_SEND_END,1516300141746,193
228,WS_RECV_START,1516300141746,194
228,WS_RECV_END,1516300143692,194
228,PLAYER_SLEEPBEFORE_START,1516300143692,195
228,PLAYER_SLEEPBEFORE_END,1516300145447,195
228,WS_SEND_START,1516300145447,195
228,WS_SEND_END,1516300145447,195
228,WS_RECV_START,1516300145447,196
228,WS_RECV_END,1516300147878,196
228,PLAYER_SLEEPBEFORE_START,1516300147878,197
228,PLAYER_SLEEPBEFORE_END,1516300149682,197
228,WS_SEND_START,1516300149682,197
228,WS_SEND_END,1516300149682,197
228,WS_RECV_START,1516300149682,198
228,WS_RECV_END,1516300150639,198
228,PLAYER_SLEEPBEFORE_START,1516300150639,199
228,PLAYER_SLEEPBEFORE_END,1516300162493,199
228,WS_SEND_START,1516300162494,199
228,WS_SEND_END,1516300162494,199
228,PLAYER_SLEEPBEFORE_START,1516300162494,200
228,PLAYER_SLEEPBEFORE_END,1516300166582,200
228,WS_SEND_START,1516300166582,200
228,WS_SEND_END,1516300166582,200
228,WS_RECV_START,1516300166582,201
228,WS_RECV_END,1516300169236,201
228,PLAYER_SLEEPBEFORE_START,1516300169236,202
228,PLAYER_SLEEPBEFORE_END,1516300169250,202
228,WS_SEND_START,1516300169250,202
228,WS_SEND_END,1516300169250,202
228,WS_RECV_START,1516300169250,203
228,WS_RECV_END,1516300172056,203
228,PLAYER_SLEEPBEFORE_START,1516300172056,204
228,PLAYER_SLEEPBEFORE_END,1516300191705,204
228,WS_SEND_START,1516300191705,204
228,WS_SEND_END,1516300191705,204
228,PLAYER_SLEEPBEFORE_START,1516300191705,205
228,PLAYER_SLEEPBEFORE_END,1516300195603,205
228,WS_SEND_START,1516300195603,205
228,WS_SEND_END,1516300195603,205
228,WS_RECV_START,1516300195603,206
228,WS_RECV_END,1516300197784,206
228,PLAYER_SLEEPBEFORE_START,1516300197784,207
228,PLAYER_SLEEPBEFORE_END,1516300214715,207
228,REQ_START,1516300214715,207
228,REQ_END,1516300214720,207
228,PLAYER_SLEEPBEFORE_START,1516300214720,208
228,PLAYER_SLEEPBEFORE_END,1516300221572,208
228,WS_CLOSE_START,1516300221572,208
228,WS_CLOSE_END,1516300221572,208
228,PLAYER_DONE,1516300221572
