# --sessions 2700 --app-url=http://shinyloadtest.rstudioservices.com/cran_explorer --output-dir test2700 --overwrite-output --log-level warn --start-interval 100 15min.log
thread_id,event,timestamp,input_line_number,comment
2580,PLAYER_SESSION_CREATE,1516299246290
2580,PLAYER_START_INTERVAL_START,1516299246290
2580,PLAYER_START_INTERVAL_END,1516299504290
2580,REQ_HOME_START,1516299504290,2
2580,REQ_HOME_END,1516299504432,2
2580,REQ_START,1516299504432,3
2580,REQ_END,1516299504926,3
2580,REQ_START,1516299504926,4
2580,REQ_END,1516299504981,4
2580,REQ_START,1516299504981,5
2580,REQ_END,1516299505043,5
2580,REQ_START,1516299505043,6
2580,REQ_END,1516299505436,6
2580,REQ_START,1516299505436,7
2580,REQ_END,1516299505519,7
2580,REQ_START,1516299505519,8
2580,REQ_END,1516299505550,8
2580,REQ_START,1516299505550,9
2580,REQ_END,1516299505589,9
2580,REQ_START,1516299505589,10
2580,REQ_END,1516299505596,10
2580,REQ_START,1516299505596,11
2580,REQ_END,1516299505626,11
2580,REQ_START,1516299505626,12
2580,REQ_END,1516299505636,12
2580,REQ_START,1516299505636,13
2580,REQ_END,1516299505666,13
2580,REQ_START,1516299505666,14
2580,REQ_END,1516299505686,14
2580,REQ_START,1516299505686,15
2580,REQ_END,1516299506044,15
2580,REQ_TOK_START,1516299506044,16
2580,REQ_TOK_END,1516299506051,16
2580,REQ_SINF_START,1516299506051,17
2580,REQ_SINF_END,1516299506058,17
2580,WS_OPEN_START,1516299506058,18
2580,WS_OPEN_END,1516299506064,18
2580,REQ_START,1516299506064,19
2580,REQ_END,1516299506092,19
2580,WS_RECV_START,1516299506092,20
2580,WS_RECV_END,1516299506092,20
2580,PLAYER_SLEEPBEFORE_START,1516299506092,21
2580,PLAYER_SLEEPBEFORE_END,1516299506097,21
2580,WS_SEND_START,1516299506097,21
2580,WS_SEND_END,1516299506097,21
2580,PLAYER_SLEEPBEFORE_START,1516299506097,22
2580,PLAYER_SLEEPBEFORE_END,1516299506098,22
2580,WS_SEND_START,1516299506098,22
2580,WS_SEND_END,1516299506098,22
2580,WS_RECV_INIT_START,1516299506099,23
2580,WS_RECV_INIT_END,1516299506116,23
2580,WS_RECV_START,1516299506116,24
2580,WS_RECV_END,1516299506162,24
2580,PLAYER_SLEEPBEFORE_START,1516299506162,25
2580,PLAYER_SLEEPBEFORE_END,1516299506169,25
2580,REQ_START,1516299506169,25
2580,REQ_END,1516299506247,25
2580,PLAYER_SLEEPBEFORE_START,1516299506247,26
2580,PLAYER_SLEEPBEFORE_END,1516299506250,26
2580,REQ_START,1516299506250,26
2580,REQ_END,1516299506284,26
2580,PLAYER_SLEEPBEFORE_START,1516299506284,27
2580,PLAYER_SLEEPBEFORE_END,1516299506288,27
2580,REQ_START,1516299506288,27
2580,REQ_END,1516299506324,27
2580,PLAYER_SLEEPBEFORE_START,1516299506324,28
2580,PLAYER_SLEEPBEFORE_END,1516299506609,28
2580,REQ_START,1516299506609,28
2580,REQ_END,1516299506678,28
2580,PLAYER_SLEEPBEFORE_START,1516299506678,29
2580,PLAYER_SLEEPBEFORE_END,1516299506853,29
2580,WS_SEND_START,1516299506853,29
2580,WS_SEND_END,1516299506853,29
2580,WS_RECV_START,1516299506853,30
2580,WS_RECV_END,1516299506994,30
2580,PLAYER_SLEEPBEFORE_START,1516299506994,31
2580,PLAYER_SLEEPBEFORE_END,1516299507005,31
2580,REQ_START,1516299507005,31
2580,REQ_END,1516299507150,31
2580,PLAYER_SLEEPBEFORE_START,1516299507150,32
2580,PLAYER_SLEEPBEFORE_END,1516299535296,32
2580,WS_SEND_START,1516299535296,32
2580,WS_SEND_END,1516299535296,32
2580,WS_RECV_START,1516299535296,33
2580,WS_RECV_END,1516299535658,33
2580,PLAYER_SLEEPBEFORE_START,1516299535658,34
2580,PLAYER_SLEEPBEFORE_END,1516299561569,34
2580,WS_SEND_START,1516299561569,34
2580,WS_SEND_END,1516299561569,34
2580,WS_RECV_START,1516299561569,35
2580,WS_RECV_END,1516299562020,35
2580,PLAYER_SLEEPBEFORE_START,1516299562020,36
2580,PLAYER_SLEEPBEFORE_END,1516299562029,36
2580,WS_SEND_START,1516299562029,36
2580,WS_SEND_END,1516299562029,36
2580,WS_RECV_START,1516299562029,37
2580,WS_RECV_END,1516299562393,37
2580,PLAYER_SLEEPBEFORE_START,1516299562393,38
2580,PLAYER_SLEEPBEFORE_END,1516299565588,38
2580,WS_SEND_START,1516299565588,38
2580,WS_SEND_END,1516299565588,38
2580,WS_RECV_START,1516299565588,39
2580,WS_RECV_END,1516299566304,39
2580,PLAYER_SLEEPBEFORE_START,1516299566304,40
2580,PLAYER_SLEEPBEFORE_END,1516299566351,40
2580,WS_SEND_START,1516299566351,40
2580,WS_SEND_END,1516299566351,40
2580,WS_RECV_START,1516299566351,41
2580,WS_RECV_END,1516299566939,41
2580,PLAYER_SLEEPBEFORE_START,1516299566939,42
2580,PLAYER_SLEEPBEFORE_END,1516299585074,42
2580,WS_SEND_START,1516299585074,42
2580,WS_SEND_END,1516299585074,42
2580,WS_RECV_START,1516299585074,43
2580,WS_RECV_END,1516299585369,43
2580,PLAYER_SLEEPBEFORE_START,1516299585369,44
2580,PLAYER_SLEEPBEFORE_END,1516299585381,44
2580,WS_SEND_START,1516299585381,44
2580,WS_SEND_END,1516299585381,44
2580,WS_RECV_START,1516299585381,45
2580,WS_RECV_END,1516299585425,45
2580,PLAYER_SLEEPBEFORE_START,1516299585425,46
2580,PLAYER_SLEEPBEFORE_END,1516299586685,46
2580,WS_SEND_START,1516299586685,46
2580,WS_SEND_END,1516299586685,46
2580,WS_RECV_START,1516299586685,47
2580,WS_RECV_END,1516299586797,47
2580,PLAYER_SLEEPBEFORE_START,1516299586797,48
2580,PLAYER_SLEEPBEFORE_END,1516299588117,48
2580,WS_SEND_START,1516299588117,48
2580,WS_SEND_END,1516299588117,48
2580,WS_RECV_START,1516299588117,49
2580,WS_RECV_END,1516299588579,49
2580,PLAYER_SLEEPBEFORE_START,1516299588579,50
2580,PLAYER_SLEEPBEFORE_END,1516299588603,50
2580,WS_SEND_START,1516299588603,50
2580,WS_SEND_END,1516299588603,50
2580,WS_RECV_START,1516299588603,51
2580,WS_RECV_END,1516299589309,51
2580,PLAYER_SLEEPBEFORE_START,1516299589309,52
2580,PLAYER_SLEEPBEFORE_END,1516299611873,52
2580,WS_SEND_START,1516299611873,52
2580,WS_SEND_END,1516299611873,52
2580,WS_RECV_START,1516299611873,53
2580,WS_RECV_END,1516299613179,53
2580,PLAYER_SLEEPBEFORE_START,1516299613179,54
2580,PLAYER_SLEEPBEFORE_END,1516299634482,54
2580,WS_SEND_START,1516299634482,54
2580,WS_SEND_END,1516299634482,54
2580,PLAYER_SLEEPBEFORE_START,1516299634482,55
2580,PLAYER_SLEEPBEFORE_END,1516299636423,55
2580,WS_SEND_START,1516299636423,55
2580,WS_SEND_END,1516299636423,55
2580,WS_RECV_START,1516299636423,56
2580,WS_RECV_END,1516299637117,56
2580,PLAYER_SLEEPBEFORE_START,1516299637117,57
2580,PLAYER_SLEEPBEFORE_END,1516299659989,57
2580,WS_SEND_START,1516299659989,57
2580,WS_SEND_END,1516299659989,57
2580,WS_RECV_START,1516299659989,58
2580,WS_RECV_END,1516299660805,58
2580,PLAYER_SLEEPBEFORE_START,1516299660805,59
2580,PLAYER_SLEEPBEFORE_END,1516299663132,59
2580,WS_SEND_START,1516299663132,59
2580,WS_SEND_END,1516299663132,59
2580,WS_RECV_START,1516299663132,60
2580,WS_RECV_END,1516299663464,60
2580,PLAYER_SLEEPBEFORE_START,1516299663464,61
2580,PLAYER_SLEEPBEFORE_END,1516299667055,61
2580,WS_SEND_START,1516299667055,61
2580,WS_SEND_END,1516299667055,61
2580,WS_RECV_START,1516299667055,62
2580,WS_RECV_END,1516299667464,62
2580,PLAYER_SLEEPBEFORE_START,1516299667464,63
2580,PLAYER_SLEEPBEFORE_END,1516299686726,63
2580,WS_SEND_START,1516299686726,63
2580,WS_SEND_END,1516299686726,63
2580,WS_RECV_START,1516299686726,64
2580,WS_RECV_END,1516299686856,64
2580,PLAYER_SLEEPBEFORE_START,1516299686856,65
2580,PLAYER_SLEEPBEFORE_END,1516299713673,65
2580,WS_SEND_START,1516299713673,65
2580,WS_SEND_END,1516299713673,65
2580,WS_RECV_START,1516299713673,66
2580,WS_RECV_END,1516299714366,66
2580,PLAYER_SLEEPBEFORE_START,1516299714366,67
2580,PLAYER_SLEEPBEFORE_END,1516299715873,67
2580,WS_SEND_START,1516299715873,67
2580,WS_SEND_END,1516299715873,67
2580,WS_RECV_START,1516299715873,68
2580,WS_RECV_END,1516299716593,68
2580,PLAYER_SLEEPBEFORE_START,1516299716593,69
2580,PLAYER_SLEEPBEFORE_END,1516299738591,69
2580,WS_SEND_START,1516299738591,69
2580,WS_SEND_END,1516299738592,69
2580,WS_RECV_START,1516299738592,70
2580,WS_RECV_END,1516299738867,70
2580,PLAYER_SLEEPBEFORE_START,1516299738867,71
2580,PLAYER_SLEEPBEFORE_END,1516299763642,71
2580,WS_SEND_START,1516299763642,71
2580,WS_SEND_END,1516299763642,71
2580,PLAYER_SLEEPBEFORE_START,1516299763642,72
2580,PLAYER_SLEEPBEFORE_END,1516299766249,72
2580,WS_SEND_START,1516299766249,72
2580,WS_SEND_END,1516299766249,72
2580,WS_RECV_START,1516299766249,73
2580,WS_RECV_END,1516299766790,73
2580,PLAYER_SLEEPBEFORE_START,1516299766790,74
2580,PLAYER_SLEEPBEFORE_END,1516299766799,74
2580,WS_SEND_START,1516299766799,74
2580,WS_SEND_END,1516299766799,74
2580,WS_RECV_START,1516299766799,75
2580,WS_RECV_END,1516299766978,75
2580,PLAYER_SLEEPBEFORE_START,1516299766978,76
2580,PLAYER_SLEEPBEFORE_END,1516299768484,76
2580,WS_SEND_START,1516299768484,76
2580,WS_SEND_END,1516299768484,76
2580,WS_RECV_START,1516299768484,77
2580,WS_RECV_END,1516299770213,77
2580,PLAYER_SLEEPBEFORE_START,1516299770213,78
2580,PLAYER_SLEEPBEFORE_END,1516299771081,78
2580,WS_SEND_START,1516299771081,78
2580,WS_SEND_END,1516299771081,78
2580,WS_RECV_START,1516299771081,79
2580,WS_RECV_END,1516299771908,79
2580,PLAYER_SLEEPBEFORE_START,1516299771908,80
2580,PLAYER_SLEEPBEFORE_END,1516299779574,80
2580,WS_SEND_START,1516299779574,80
2580,WS_SEND_END,1516299779574,80
2580,WS_RECV_START,1516299779574,81
2580,WS_RECV_END,1516299780667,81
2580,PLAYER_SLEEPBEFORE_START,1516299780667,82
2580,PLAYER_SLEEPBEFORE_END,1516299781770,82
2580,WS_SEND_START,1516299781770,82
2580,WS_SEND_END,1516299781770,82
2580,WS_RECV_START,1516299781770,83
2580,WS_RECV_END,1516299782416,83
2580,PLAYER_SLEEPBEFORE_START,1516299782416,84
2580,PLAYER_SLEEPBEFORE_END,1516299783363,84
2580,WS_SEND_START,1516299783363,84
2580,WS_SEND_END,1516299783363,84
2580,WS_RECV_START,1516299783363,85
2580,WS_RECV_END,1516299784872,85
2580,PLAYER_SLEEPBEFORE_START,1516299784872,86
2580,PLAYER_SLEEPBEFORE_END,1516299789072,86
2580,WS_SEND_START,1516299789072,86
2580,WS_SEND_END,1516299789072,86
2580,WS_RECV_START,1516299789072,87
2580,WS_RECV_END,1516299790009,87
2580,PLAYER_SLEEPBEFORE_START,1516299790009,88
2580,PLAYER_SLEEPBEFORE_END,1516299790017,88
2580,WS_SEND_START,1516299790017,88
2580,WS_SEND_END,1516299790017,88
2580,WS_RECV_START,1516299790017,89
2580,WS_RECV_END,1516299790557,89
2580,PLAYER_SLEEPBEFORE_START,1516299790557,90
2580,PLAYER_SLEEPBEFORE_END,1516299817754,90
2580,REQ_START,1516299817754,90
2580,REQ_END,1516299817762,90
2580,PLAYER_SLEEPBEFORE_START,1516299817762,91
2580,PLAYER_SLEEPBEFORE_END,1516299825651,91
2580,WS_SEND_START,1516299825651,91
2580,WS_SEND_END,1516299825651,91
2580,WS_RECV_START,1516299825651,92
2580,WS_RECV_END,1516299825898,92
2580,PLAYER_SLEEPBEFORE_START,1516299825898,93
2580,PLAYER_SLEEPBEFORE_END,1516299825913,93
2580,WS_SEND_START,1516299825913,93
2580,WS_SEND_END,1516299825913,93
2580,WS_RECV_START,1516299825913,94
2580,WS_RECV_END,1516299826194,94
2580,PLAYER_SLEEPBEFORE_START,1516299826194,95
2580,PLAYER_SLEEPBEFORE_END,1516299849749,95
2580,WS_SEND_START,1516299849749,95
2580,WS_SEND_END,1516299849749,95
2580,WS_RECV_START,1516299849749,96
2580,WS_RECV_END,1516299852558,96
2580,PLAYER_SLEEPBEFORE_START,1516299852558,97
2580,PLAYER_SLEEPBEFORE_END,1516299874998,97
2580,WS_SEND_START,1516299874998,97
2580,WS_SEND_END,1516299874998,97
2580,WS_RECV_START,1516299874998,98
2580,WS_RECV_END,1516299876662,98
2580,PLAYER_SLEEPBEFORE_START,1516299876663,99
2580,PLAYER_SLEEPBEFORE_END,1516299876684,99
2580,WS_SEND_START,1516299876684,99
2580,WS_SEND_END,1516299876684,99
2580,WS_RECV_START,1516299876684,100
2580,WS_RECV_END,1516299877435,100
2580,PLAYER_SLEEPBEFORE_START,1516299877435,101
2580,PLAYER_SLEEPBEFORE_END,1516299900994,101
2580,WS_SEND_START,1516299900994,101
2580,WS_SEND_END,1516299900994,101
2580,WS_RECV_START,1516299900994,102
2580,WS_RECV_END,1516299901472,102
2580,PLAYER_SLEEPBEFORE_START,1516299901472,103
2580,PLAYER_SLEEPBEFORE_END,1516299925097,103
2580,WS_SEND_START,1516299925097,103
2580,WS_SEND_END,1516299925097,103
2580,WS_RECV_START,1516299925097,104
2580,WS_RECV_END,1516299926387,104
2580,PLAYER_SLEEPBEFORE_START,1516299926387,105
2580,PLAYER_SLEEPBEFORE_END,1516299951764,105
2580,WS_SEND_START,1516299951764,105
2580,WS_SEND_END,1516299951764,105
2580,WS_RECV_START,1516299951764,106
2580,WS_RECV_END,1516299952316,106
2580,PLAYER_SLEEPBEFORE_START,1516299952316,107
2580,PLAYER_SLEEPBEFORE_END,1516299975739,107
2580,WS_SEND_START,1516299975739,107
2580,WS_SEND_END,1516299975739,107
2580,WS_RECV_START,1516299975739,108
2580,WS_RECV_END,1516299977521,108
2580,PLAYER_SLEEPBEFORE_START,1516299977521,109
2580,PLAYER_SLEEPBEFORE_END,1516299977531,109
2580,WS_SEND_START,1516299977531,109
2580,WS_SEND_END,1516299977531,109
2580,WS_RECV_START,1516299977531,110
2580,WS_RECV_END,1516299978670,110
2580,PLAYER_SLEEPBEFORE_START,1516299978670,111
2580,PLAYER_SLEEPBEFORE_END,1516299979629,111
2580,WS_SEND_START,1516299979629,111
2580,WS_SEND_END,1516299979629,111
2580,WS_RECV_START,1516299979629,112
2580,WS_RECV_END,1516299981323,112
2580,PLAYER_SLEEPBEFORE_START,1516299981323,113
2580,PLAYER_SLEEPBEFORE_END,1516299981885,113
2580,WS_SEND_START,1516299981885,113
2580,WS_SEND_END,1516299981885,113
2580,WS_RECV_START,1516299981885,114
2580,WS_RECV_END,1516299984180,114
2580,PLAYER_SLEEPBEFORE_START,1516299984180,115
2580,PLAYER_SLEEPBEFORE_END,1516299984189,115
2580,WS_SEND_START,1516299984189,115
2580,WS_SEND_END,1516299984189,115
2580,WS_RECV_START,1516299984189,116
2580,WS_RECV_END,1516299985568,116
2580,PLAYER_SLEEPBEFORE_START,1516299985568,117
2580,PLAYER_SLEEPBEFORE_END,1516300005928,117
2580,WS_SEND_START,1516300005928,117
2580,WS_SEND_END,1516300005928,117
2580,PLAYER_SLEEPBEFORE_START,1516300005928,118
2580,PLAYER_SLEEPBEFORE_END,1516300009680,118
2580,WS_SEND_START,1516300009680,118
2580,WS_SEND_END,1516300009680,118
2580,WS_RECV_START,1516300009680,119
2580,WS_RECV_END,1516300010727,119
2580,PLAYER_SLEEPBEFORE_START,1516300010727,120
2580,PLAYER_SLEEPBEFORE_END,1516300011715,120
2580,WS_SEND_START,1516300011715,120
2580,WS_SEND_END,1516300011715,120
2580,WS_RECV_START,1516300011715,121
2580,WS_RECV_END,1516300012322,121
2580,PLAYER_SLEEPBEFORE_START,1516300012322,122
2580,PLAYER_SLEEPBEFORE_END,1516300013507,122
2580,WS_SEND_START,1516300013507,122
2580,WS_SEND_END,1516300013507,122
2580,WS_RECV_START,1516300013507,123
2580,WS_RECV_END,1516300014582,123
2580,PLAYER_SLEEPBEFORE_START,1516300014582,124
2580,PLAYER_SLEEPBEFORE_END,1516300038987,124
2580,WS_SEND_START,1516300038987,124
2580,WS_SEND_END,1516300038987,124
2580,WS_RECV_START,1516300038987,125
2580,WS_RECV_END,1516300039533,125
2580,PLAYER_SLEEPBEFORE_START,1516300039533,126
2580,PLAYER_SLEEPBEFORE_END,1516300060045,126
2580,WS_SEND_START,1516300060045,126
2580,WS_SEND_END,1516300060045,126
2580,PLAYER_SLEEPBEFORE_START,1516300060045,127
2580,PLAYER_SLEEPBEFORE_END,1516300063099,127
2580,WS_SEND_START,1516300063099,127
2580,WS_SEND_END,1516300063099,127
2580,WS_RECV_START,1516300063099,128
2580,WS_RECV_END,1516300064013,128
2580,PLAYER_SLEEPBEFORE_START,1516300064013,129
2580,PLAYER_SLEEPBEFORE_END,1516300064033,129
2580,WS_SEND_START,1516300064033,129
2580,WS_SEND_END,1516300064033,129
2580,WS_RECV_START,1516300064033,130
2580,WS_RECV_END,1516300064678,130
2580,PLAYER_SLEEPBEFORE_START,1516300064679,131
2580,PLAYER_SLEEPBEFORE_END,1516300086303,131
2580,WS_SEND_START,1516300086303,131
2580,WS_SEND_END,1516300086303,131
2580,PLAYER_SLEEPBEFORE_START,1516300086303,132
2580,PLAYER_SLEEPBEFORE_END,1516300089383,132
2580,WS_SEND_START,1516300089383,132
2580,WS_SEND_END,1516300089383,132
2580,WS_RECV_START,1516300089383,133
2580,WS_RECV_END,1516300090282,133
2580,PLAYER_SLEEPBEFORE_START,1516300090282,134
2580,PLAYER_SLEEPBEFORE_END,1516300111499,134
2580,WS_SEND_START,1516300111499,134
2580,WS_SEND_END,1516300111500,134
2580,PLAYER_SLEEPBEFORE_START,1516300111500,135
2580,PLAYER_SLEEPBEFORE_END,1516300114690,135
2580,WS_SEND_START,1516300114690,135
2580,WS_SEND_END,1516300114690,135
2580,WS_RECV_START,1516300114690,136
2580,WS_RECV_END,1516300115969,136
2580,PLAYER_SLEEPBEFORE_START,1516300115969,137
2580,PLAYER_SLEEPBEFORE_END,1516300115976,137
2580,WS_SEND_START,1516300115976,137
2580,WS_SEND_END,1516300115976,137
2580,WS_RECV_START,1516300115976,138
2580,WS_RECV_END,1516300116478,138
2580,PLAYER_SLEEPBEFORE_START,1516300116478,139
2580,PLAYER_SLEEPBEFORE_END,1516300117169,139
2580,WS_SEND_START,1516300117169,139
2580,WS_SEND_END,1516300117169,139
2580,WS_RECV_START,1516300117169,140
2580,WS_RECV_END,1516300117755,140
2580,PLAYER_SLEEPBEFORE_START,1516300117755,141
2580,PLAYER_SLEEPBEFORE_END,1516300118410,141
2580,WS_SEND_START,1516300118410,141
2580,WS_SEND_END,1516300118410,141
2580,WS_RECV_START,1516300118410,142
2580,WS_RECV_END,1516300119228,142
2580,PLAYER_SLEEPBEFORE_START,1516300119228,143
2580,PLAYER_SLEEPBEFORE_END,1516300119285,143
2580,WS_SEND_START,1516300119285,143
2580,WS_SEND_END,1516300119285,143
2580,WS_RECV_START,1516300119285,144
2580,WS_RECV_END,1516300121235,144
2580,PLAYER_SLEEPBEFORE_START,1516300121235,145
2580,PLAYER_SLEEPBEFORE_END,1516300137297,145
2580,REQ_START,1516300137297,145
2580,REQ_END,1516300137305,145
2580,PLAYER_SLEEPBEFORE_START,1516300137305,146
2580,PLAYER_SLEEPBEFORE_END,1516300146182,146
2580,WS_SEND_START,1516300146182,146
2580,WS_SEND_END,1516300146182,146
2580,WS_RECV_START,1516300146182,147
2580,WS_RECV_END,1516300150332,147
2580,PLAYER_SLEEPBEFORE_START,1516300150332,148
2580,PLAYER_SLEEPBEFORE_END,1516300172254,148
2580,WS_SEND_START,1516300172254,148
2580,WS_SEND_END,1516300172254,148
2580,PLAYER_SLEEPBEFORE_START,1516300172254,149
2580,PLAYER_SLEEPBEFORE_END,1516300174682,149
2580,WS_SEND_START,1516300174682,149
2580,WS_SEND_END,1516300174682,149
2580,WS_RECV_START,1516300174682,150
2580,WS_RECV_END,1516300176336,150
2580,PLAYER_SLEEPBEFORE_START,1516300176336,151
2580,PLAYER_SLEEPBEFORE_END,1516300176546,151
2580,WS_SEND_START,1516300176546,151
2580,WS_SEND_END,1516300176546,151
2580,WS_RECV_START,1516300176546,152
2580,WS_RECV_END,1516300178553,152
2580,PLAYER_SLEEPBEFORE_START,1516300178553,153
2580,PLAYER_SLEEPBEFORE_END,1516300202480,153
2580,WS_SEND_START,1516300202480,153
2580,WS_SEND_END,1516300202480,153
2580,WS_RECV_START,1516300202480,154
2580,WS_RECV_END,1516300205837,154
2580,PLAYER_SLEEPBEFORE_START,1516300205838,155
2580,PLAYER_SLEEPBEFORE_END,1516300228396,155
2580,WS_SEND_START,1516300228396,155
2580,WS_SEND_END,1516300228396,155
2580,PLAYER_SLEEPBEFORE_START,1516300228396,156
2580,PLAYER_SLEEPBEFORE_END,1516300231670,156
2580,WS_SEND_START,1516300231670,156
2580,WS_SEND_END,1516300231670,156
2580,WS_RECV_START,1516300231670,157
2580,WS_RECV_END,1516300233232,157
2580,PLAYER_SLEEPBEFORE_START,1516300233232,158
2580,PLAYER_SLEEPBEFORE_END,1516300233242,158
2580,WS_SEND_START,1516300233242,158
2580,WS_SEND_END,1516300233242,158
2580,WS_RECV_START,1516300233242,159
2580,WS_RECV_END,1516300235731,159
2580,PLAYER_SLEEPBEFORE_START,1516300235731,160
2580,PLAYER_SLEEPBEFORE_END,1516300235906,160
2580,WS_SEND_START,1516300235906,160
2580,WS_SEND_END,1516300235906,160
2580,WS_RECV_START,1516300235906,161
2580,WS_RECV_END,1516300238441,161
2580,PLAYER_SLEEPBEFORE_START,1516300238441,162
2580,PLAYER_SLEEPBEFORE_END,1516300238466,162
2580,WS_SEND_START,1516300238466,162
2580,WS_SEND_END,1516300238466,162
2580,WS_RECV_START,1516300238466,163
2580,WS_RECV_END,1516300241298,163
2580,PLAYER_SLEEPBEFORE_START,1516300241298,164
2580,PLAYER_SLEEPBEFORE_END,1516300262110,164
2580,WS_SEND_START,1516300262110,164
2580,WS_SEND_END,1516300262110,164
2580,WS_RECV_START,1516300262110,165
2580,WS_RECV_END,1516300263655,165
2580,PLAYER_SLEEPBEFORE_START,1516300263655,166
2580,PLAYER_SLEEPBEFORE_END,1516300286110,166
2580,WS_SEND_START,1516300286110,166
2580,WS_SEND_END,1516300286110,166
2580,WS_RECV_START,1516300286110,167
2580,WS_RECV_END,1516300286893,167
2580,PLAYER_SLEEPBEFORE_START,1516300286893,168
2580,PLAYER_SLEEPBEFORE_END,1516300314251,168
2580,WS_SEND_START,1516300314251,168
2580,WS_SEND_END,1516300314251,168
2580,WS_RECV_START,1516300314251,169
2580,WS_RECV_END,1516300314601,169
2580,PLAYER_SLEEPBEFORE_START,1516300314601,170
2580,PLAYER_SLEEPBEFORE_END,1516300314610,170
2580,WS_SEND_START,1516300314610,170
2580,WS_SEND_END,1516300314610,170
2580,WS_RECV_START,1516300314610,171
2580,WS_RECV_END,1516300315107,171
2580,PLAYER_SLEEPBEFORE_START,1516300315107,172
2580,PLAYER_SLEEPBEFORE_END,1516300315476,172
2580,WS_SEND_START,1516300315476,172
2580,WS_SEND_END,1516300315476,172
2580,WS_RECV_START,1516300315476,173
2580,WS_RECV_END,1516300315718,173
2580,PLAYER_SLEEPBEFORE_START,1516300315718,174
2580,PLAYER_SLEEPBEFORE_END,1516300315759,174
2580,WS_SEND_START,1516300315759,174
2580,WS_SEND_END,1516300315759,174
2580,WS_RECV_START,1516300315759,175
2580,WS_RECV_END,1516300316479,175
2580,PLAYER_SLEEPBEFORE_START,1516300316479,176
2580,PLAYER_SLEEPBEFORE_END,1516300338240,176
2580,WS_SEND_START,1516300338240,176
2580,WS_SEND_END,1516300338240,176
2580,PLAYER_SLEEPBEFORE_START,1516300338241,177
2580,PLAYER_SLEEPBEFORE_END,1516300340759,177
2580,WS_SEND_START,1516300340759,177
2580,WS_SEND_END,1516300340759,177
2580,WS_RECV_START,1516300340759,178
2580,WS_RECV_END,1516300340977,178
2580,PLAYER_SLEEPBEFORE_START,1516300340977,179
2580,PLAYER_SLEEPBEFORE_END,1516300363317,179
2580,WS_SEND_START,1516300363317,179
2580,WS_SEND_END,1516300363317,179
2580,WS_RECV_START,1516300363317,180
2580,WS_RECV_END,1516300363464,180
2580,PLAYER_SLEEPBEFORE_START,1516300363464,181
2580,PLAYER_SLEEPBEFORE_END,1516300363908,181
2580,WS_SEND_START,1516300363908,181
2580,WS_SEND_END,1516300363908,181
2580,WS_RECV_START,1516300363908,182
2580,WS_RECV_END,1516300364079,182
2580,PLAYER_SLEEPBEFORE_START,1516300364079,183
2580,PLAYER_SLEEPBEFORE_END,1516300364602,183
2580,WS_SEND_START,1516300364602,183
2580,WS_SEND_END,1516300364602,183
2580,WS_RECV_START,1516300364602,184
2580,WS_RECV_END,1516300364707,184
2580,PLAYER_SLEEPBEFORE_START,1516300364707,185
2580,PLAYER_SLEEPBEFORE_END,1516300364975,185
2580,WS_SEND_START,1516300364975,185
2580,WS_SEND_END,1516300364975,185
2580,WS_RECV_START,1516300364975,186
2580,WS_RECV_END,1516300365092,186
2580,PLAYER_SLEEPBEFORE_START,1516300365092,187
2580,PLAYER_SLEEPBEFORE_END,1516300387592,187
2580,WS_SEND_START,1516300387592,187
2580,WS_SEND_END,1516300387592,187
2580,WS_RECV_START,1516300387592,188
2580,WS_RECV_END,1516300387694,188
2580,PLAYER_SLEEPBEFORE_START,1516300387694,189
2580,PLAYER_SLEEPBEFORE_END,1516300393933,189
2580,WS_SEND_START,1516300393933,189
2580,WS_SEND_END,1516300393933,189
2580,WS_RECV_START,1516300393933,190
2580,WS_RECV_END,1516300394044,190
2580,PLAYER_SLEEPBEFORE_START,1516300394044,191
2580,PLAYER_SLEEPBEFORE_END,1516300395959,191
2580,WS_SEND_START,1516300395959,191
2580,WS_SEND_END,1516300395959,191
2580,WS_RECV_START,1516300395959,192
2580,WS_RECV_END,1516300396054,192
2580,PLAYER_SLEEPBEFORE_START,1516300396054,193
2580,PLAYER_SLEEPBEFORE_END,1516300396183,193
2580,WS_SEND_START,1516300396183,193
2580,WS_SEND_END,1516300396183,193
2580,WS_RECV_START,1516300396183,194
2580,WS_RECV_END,1516300396294,194
2580,PLAYER_SLEEPBEFORE_START,1516300396294,195
2580,PLAYER_SLEEPBEFORE_END,1516300398049,195
2580,WS_SEND_START,1516300398049,195
2580,WS_SEND_END,1516300398049,195
2580,WS_RECV_START,1516300398050,196
2580,WS_RECV_END,1516300398140,196
2580,PLAYER_SLEEPBEFORE_START,1516300398140,197
2580,PLAYER_SLEEPBEFORE_END,1516300399944,197
2580,WS_SEND_START,1516300399944,197
2580,WS_SEND_END,1516300399944,197
2580,WS_RECV_START,1516300399944,198
2580,WS_RECV_END,1516300400034,198
2580,PLAYER_SLEEPBEFORE_START,1516300400034,199
2580,PLAYER_SLEEPBEFORE_END,1516300411889,199
2580,WS_SEND_START,1516300411889,199
2580,WS_SEND_END,1516300411889,199
2580,PLAYER_SLEEPBEFORE_START,1516300411889,200
2580,PLAYER_SLEEPBEFORE_END,1516300415977,200
2580,WS_SEND_START,1516300415977,200
2580,WS_SEND_END,1516300415977,200
2580,WS_RECV_START,1516300415977,201
2580,WS_RECV_END,1516300416054,201
2580,PLAYER_SLEEPBEFORE_START,1516300416054,202
2580,PLAYER_SLEEPBEFORE_END,1516300416068,202
2580,WS_SEND_START,1516300416068,202
2580,WS_SEND_END,1516300416068,202
2580,WS_RECV_START,1516300416068,203
2580,WS_RECV_END,1516300416268,203
2580,PLAYER_SLEEPBEFORE_START,1516300416268,204
2580,PLAYER_SLEEPBEFORE_END,1516300435917,204
2580,WS_SEND_START,1516300435917,204
2580,WS_SEND_END,1516300435917,204
2580,PLAYER_SLEEPBEFORE_START,1516300435917,205
2580,PLAYER_SLEEPBEFORE_END,1516300439815,205
2580,WS_SEND_START,1516300439815,205
2580,WS_SEND_END,1516300439816,205
2580,WS_RECV_START,1516300439816,206
2580,WS_RECV_END,1516300439907,206
2580,PLAYER_SLEEPBEFORE_START,1516300439907,207
2580,PLAYER_SLEEPBEFORE_END,1516300456838,207
2580,REQ_START,1516300456838,207
2580,REQ_END,1516300456845,207
2580,PLAYER_SLEEPBEFORE_START,1516300456845,208
2580,PLAYER_SLEEPBEFORE_END,1516300463697,208
2580,WS_CLOSE_START,1516300463697,208
2580,WS_CLOSE_END,1516300463697,208
2580,PLAYER_DONE,1516300463697
