# --sessions 2700 --app-url=http://shinyloadtest.rstudioservices.com/cran_explorer --output-dir test2700 --overwrite-output --log-level warn --start-interval 100 15min.log
thread_id,event,timestamp,input_line_number,comment
2689,PLAYER_SESSION_CREATE,1516299246312
2689,PLAYER_START_INTERVAL_START,1516299246312
2689,PLAYER_START_INTERVAL_END,1516299515212
2689,REQ_HOME_START,1516299515212,2
2689,REQ_HOME_END,1516299516698,2
2689,REQ_START,1516299516698,3
2689,REQ_END,1516299518118,3
2689,REQ_START,1516299518118,4
2689,REQ_END,1516299519378,4
2689,REQ_START,1516299519378,5
2689,REQ_END,1516299520715,5
2689,REQ_START,1516299520715,6
2689,REQ_END,1516299520924,6
2689,REQ_START,1516299520924,7
2689,REQ_END,1516299521080,7
2689,REQ_START,1516299521080,8
2689,REQ_END,1516299521125,8
2689,REQ_START,1516299521125,9
2689,REQ_END,1516299521172,9
2689,REQ_START,1516299521172,10
2689,REQ_END,1516299521179,10
2689,REQ_START,1516299521179,11
2689,REQ_END,1516299521268,11
2689,REQ_START,1516299521268,12
2689,REQ_END,1516299521277,12
2689,REQ_START,1516299521277,13
2689,REQ_END,1516299521987,13
2689,REQ_START,1516299521987,14
2689,REQ_END,1516299522002,14
2689,REQ_START,1516299522002,15
2689,REQ_END,1516299523130,15
2689,REQ_TOK_START,1516299523130,16
2689,REQ_TOK_END,1516299523136,16
2689,REQ_SINF_START,1516299523136,17
2689,REQ_SINF_END,1516299523142,17
2689,WS_OPEN_START,1516299523142,18
2689,WS_OPEN_END,1516299523148,18
2689,REQ_START,1516299523148,19
2689,REQ_END,1516299524302,19
2689,WS_RECV_START,1516299524302,20
2689,WS_RECV_END,1516299524302,20
2689,PLAYER_SLEEPBEFORE_START,1516299524302,21
2689,PLAYER_SLEEPBEFORE_END,1516299524307,21
2689,WS_SEND_START,1516299524307,21
2689,WS_SEND_END,1516299524307,21
2689,PLAYER_SLEEPBEFORE_START,1516299524307,22
2689,PLAYER_SLEEPBEFORE_END,1516299524308,22
2689,WS_SEND_START,1516299524308,22
2689,WS_SEND_END,1516299524308,22
2689,WS_RECV_INIT_START,1516299524308,23
2689,WS_RECV_INIT_END,1516299524596,23
2689,WS_RECV_START,1516299524596,24
2689,WS_RECV_END,1516299524725,24
2689,PLAYER_SLEEPBEFORE_START,1516299524725,25
2689,PLAYER_SLEEPBEFORE_END,1516299524732,25
2689,REQ_START,1516299524732,25
2689,REQ_END,1516299525814,25
2689,PLAYER_SLEEPBEFORE_START,1516299525814,26
2689,PLAYER_SLEEPBEFORE_END,1516299525815,26
2689,REQ_START,1516299525815,26
2689,REQ_END,1516299527250,26
2689,PLAYER_SLEEPBEFORE_START,1516299527250,27
2689,PLAYER_SLEEPBEFORE_END,1516299527253,27
2689,REQ_START,1516299527253,27
2689,REQ_END,1516299529258,27
2689,PLAYER_SLEEPBEFORE_START,1516299529258,28
2689,PLAYER_SLEEPBEFORE_END,1516299529543,28
2689,REQ_START,1516299529543,28
2689,REQ_END,1516299533102,28
2689,PLAYER_SLEEPBEFORE_START,1516299533102,29
2689,PLAYER_SLEEPBEFORE_END,1516299533277,29
2689,WS_SEND_START,1516299533277,29
2689,WS_SEND_END,1516299533277,29
2689,WS_RECV_START,1516299533277,30
2689,WS_RECV_END,1516299534112,30
2689,PLAYER_SLEEPBEFORE_START,1516299534112,31
2689,PLAYER_SLEEPBEFORE_END,1516299534123,31
2689,REQ_START,1516299534123,31
2689,REQ_END,1516299537490,31
2689,PLAYER_SLEEPBEFORE_START,1516299537490,32
2689,PLAYER_SLEEPBEFORE_END,1516299565663,32
2689,WS_SEND_START,1516299565663,32
2689,WS_SEND_END,1516299565663,32
2689,WS_RECV_START,1516299565663,33
2689,WS_RECV_END,1516299566872,33
2689,PLAYER_SLEEPBEFORE_START,1516299566872,34
2689,PLAYER_SLEEPBEFORE_END,1516299592783,34
2689,WS_SEND_START,1516299592783,34
2689,WS_SEND_END,1516299592783,34
2689,WS_RECV_START,1516299592783,35
2689,WS_RECV_END,1516299593880,35
2689,PLAYER_SLEEPBEFORE_START,1516299593880,36
2689,PLAYER_SLEEPBEFORE_END,1516299593889,36
2689,WS_SEND_START,1516299593889,36
2689,WS_SEND_END,1516299593889,36
2689,WS_RECV_START,1516299593889,37
2689,WS_RECV_END,1516299594623,37
2689,PLAYER_SLEEPBEFORE_START,1516299594623,38
2689,PLAYER_SLEEPBEFORE_END,1516299597819,38
2689,WS_SEND_START,1516299597819,38
2689,WS_SEND_END,1516299597819,38
2689,WS_RECV_START,1516299597819,39
2689,WS_RECV_END,1516299598622,39
2689,PLAYER_SLEEPBEFORE_START,1516299598622,40
2689,PLAYER_SLEEPBEFORE_END,1516299598668,40
2689,WS_SEND_START,1516299598668,40
2689,WS_SEND_END,1516299598668,40
2689,WS_RECV_START,1516299598668,41
2689,WS_RECV_END,1516299599162,41
2689,PLAYER_SLEEPBEFORE_START,1516299599162,42
2689,PLAYER_SLEEPBEFORE_END,1516299617297,42
2689,WS_SEND_START,1516299617297,42
2689,WS_SEND_END,1516299617297,42
2689,WS_RECV_START,1516299617297,43
2689,WS_RECV_END,1516299618334,43
2689,PLAYER_SLEEPBEFORE_START,1516299618334,44
2689,PLAYER_SLEEPBEFORE_END,1516299618346,44
2689,WS_SEND_START,1516299618346,44
2689,WS_SEND_END,1516299618346,44
2689,WS_RECV_START,1516299618346,45
2689,WS_RECV_END,1516299618646,45
2689,PLAYER_SLEEPBEFORE_START,1516299618646,46
2689,PLAYER_SLEEPBEFORE_END,1516299619906,46
2689,WS_SEND_START,1516299619906,46
2689,WS_SEND_END,1516299619906,46
2689,WS_RECV_START,1516299619906,47
2689,WS_RECV_END,1516299619992,47
2689,PLAYER_SLEEPBEFORE_START,1516299619992,48
2689,PLAYER_SLEEPBEFORE_END,1516299621312,48
2689,WS_SEND_START,1516299621312,48
2689,WS_SEND_END,1516299621312,48
2689,WS_RECV_START,1516299621312,49
2689,WS_RECV_END,1516299621735,49
2689,PLAYER_SLEEPBEFORE_START,1516299621735,50
2689,PLAYER_SLEEPBEFORE_END,1516299621759,50
2689,WS_SEND_START,1516299621759,50
2689,WS_SEND_END,1516299621759,50
2689,WS_RECV_START,1516299621759,51
2689,WS_RECV_END,1516299622179,51
2689,PLAYER_SLEEPBEFORE_START,1516299622179,52
2689,PLAYER_SLEEPBEFORE_END,1516299644756,52
2689,WS_SEND_START,1516299644756,52
2689,WS_SEND_END,1516299644756,52
2689,WS_RECV_START,1516299644756,53
2689,WS_RECV_END,1516299645170,53
2689,PLAYER_SLEEPBEFORE_START,1516299645170,54
2689,PLAYER_SLEEPBEFORE_END,1516299666473,54
2689,WS_SEND_START,1516299666473,54
2689,WS_SEND_END,1516299666473,54
2689,PLAYER_SLEEPBEFORE_START,1516299666473,55
2689,PLAYER_SLEEPBEFORE_END,1516299668415,55
2689,WS_SEND_START,1516299668415,55
2689,WS_SEND_END,1516299668415,55
2689,WS_RECV_START,1516299668415,56
2689,WS_RECV_END,1516299668636,56
2689,PLAYER_SLEEPBEFORE_START,1516299668636,57
2689,PLAYER_SLEEPBEFORE_END,1516299691508,57
2689,WS_SEND_START,1516299691508,57
2689,WS_SEND_END,1516299691508,57
2689,WS_RECV_START,1516299691508,58
2689,WS_RECV_END,1516299693480,58
2689,PLAYER_SLEEPBEFORE_START,1516299693480,59
2689,PLAYER_SLEEPBEFORE_END,1516299695808,59
2689,WS_SEND_START,1516299695808,59
2689,WS_SEND_END,1516299695808,59
2689,WS_RECV_START,1516299695808,60
2689,WS_RECV_END,1516299695942,60
2689,PLAYER_SLEEPBEFORE_START,1516299695942,61
2689,PLAYER_SLEEPBEFORE_END,1516299699533,61
2689,WS_SEND_START,1516299699533,61
2689,WS_SEND_END,1516299699533,61
2689,WS_RECV_START,1516299699533,62
2689,WS_RECV_END,1516299700025,62
2689,PLAYER_SLEEPBEFORE_START,1516299700025,63
2689,PLAYER_SLEEPBEFORE_END,1516299719287,63
2689,WS_SEND_START,1516299719287,63
2689,WS_SEND_END,1516299719287,63
2689,WS_RECV_START,1516299719287,64
2689,WS_RECV_END,1516299721194,64
2689,PLAYER_SLEEPBEFORE_START,1516299721194,65
2689,PLAYER_SLEEPBEFORE_END,1516299748011,65
2689,WS_SEND_START,1516299748011,65
2689,WS_SEND_END,1516299748011,65
2689,WS_RECV_START,1516299748011,66
2689,WS_RECV_END,1516299750362,66
2689,PLAYER_SLEEPBEFORE_START,1516299750362,67
2689,PLAYER_SLEEPBEFORE_END,1516299751869,67
2689,WS_SEND_START,1516299751869,67
2689,WS_SEND_END,1516299751869,67
2689,WS_RECV_START,1516299751869,68
2689,WS_RECV_END,1516299756291,68
2689,PLAYER_SLEEPBEFORE_START,1516299756291,69
2689,PLAYER_SLEEPBEFORE_END,1516299778289,69
2689,WS_SEND_START,1516299778289,69
2689,WS_SEND_END,1516299778289,69
2689,WS_RECV_START,1516299778289,70
2689,WS_RECV_END,1516299781297,70
2689,PLAYER_SLEEPBEFORE_START,1516299781297,71
2689,PLAYER_SLEEPBEFORE_END,1516299806072,71
2689,WS_SEND_START,1516299806072,71
2689,WS_SEND_END,1516299806072,71
2689,PLAYER_SLEEPBEFORE_START,1516299806072,72
2689,PLAYER_SLEEPBEFORE_END,1516299808680,72
2689,WS_SEND_START,1516299808680,72
2689,WS_SEND_END,1516299808680,72
2689,WS_RECV_START,1516299808680,73
2689,WS_RECV_END,1516299811265,73
2689,PLAYER_SLEEPBEFORE_START,1516299811265,74
2689,PLAYER_SLEEPBEFORE_END,1516299811274,74
2689,WS_SEND_START,1516299811274,74
2689,WS_SEND_END,1516299811274,74
2689,WS_RECV_START,1516299811274,75
2689,WS_RECV_END,1516299814649,75
2689,PLAYER_SLEEPBEFORE_START,1516299814649,76
2689,PLAYER_SLEEPBEFORE_END,1516299816155,76
2689,WS_SEND_START,1516299816155,76
2689,WS_SEND_END,1516299816155,76
2689,WS_RECV_START,1516299816155,77
2689,WS_RECV_END,1516299817997,77
2689,PLAYER_SLEEPBEFORE_START,1516299817998,78
2689,PLAYER_SLEEPBEFORE_END,1516299818866,78
2689,WS_SEND_START,1516299818866,78
2689,WS_SEND_END,1516299818866,78
2689,WS_RECV_START,1516299818866,79
2689,WS_RECV_END,1516299822179,79
2689,PLAYER_SLEEPBEFORE_START,1516299822179,80
2689,PLAYER_SLEEPBEFORE_END,1516299829845,80
2689,WS_SEND_START,1516299829845,80
2689,WS_SEND_END,1516299829845,80
2689,WS_RECV_START,1516299829845,81
2689,WS_RECV_END,1516299836102,81
2689,PLAYER_SLEEPBEFORE_START,1516299836102,82
2689,PLAYER_SLEEPBEFORE_END,1516299837204,82
2689,WS_SEND_START,1516299837204,82
2689,WS_SEND_END,1516299837204,82
2689,WS_RECV_START,1516299837204,83
2689,WS_RECV_END,1516299838643,83
2689,PLAYER_SLEEPBEFORE_START,1516299838643,84
2689,PLAYER_SLEEPBEFORE_END,1516299839590,84
2689,WS_SEND_START,1516299839590,84
2689,WS_SEND_END,1516299839590,84
2689,WS_RECV_START,1516299839590,85
2689,WS_RECV_END,1516299841628,85
2689,PLAYER_SLEEPBEFORE_START,1516299841628,86
2689,PLAYER_SLEEPBEFORE_END,1516299845800,86
2689,WS_SEND_START,1516299845800,86
2689,WS_SEND_END,1516299845800,86
2689,WS_RECV_START,1516299845800,87
2689,WS_RECV_END,1516299849780,87
2689,PLAYER_SLEEPBEFORE_START,1516299849780,88
2689,PLAYER_SLEEPBEFORE_END,1516299849788,88
2689,WS_SEND_START,1516299849788,88
2689,WS_SEND_END,1516299849788,88
2689,WS_RECV_START,1516299849788,89
2689,WS_RECV_END,1516299850969,89
2689,PLAYER_SLEEPBEFORE_START,1516299850969,90
2689,PLAYER_SLEEPBEFORE_END,1516299878166,90
2689,REQ_START,1516299878166,90
2689,REQ_END,1516299878171,90
2689,PLAYER_SLEEPBEFORE_START,1516299878171,91
2689,PLAYER_SLEEPBEFORE_END,1516299886060,91
2689,WS_SEND_START,1516299886060,91
2689,WS_SEND_END,1516299886060,91
2689,WS_RECV_START,1516299886060,92
2689,WS_RECV_END,1516299891227,92
2689,PLAYER_SLEEPBEFORE_START,1516299891227,93
2689,PLAYER_SLEEPBEFORE_END,1516299891242,93
2689,WS_SEND_START,1516299891242,93
2689,WS_SEND_END,1516299891242,93
2689,WS_RECV_START,1516299891242,94
2689,WS_RECV_END,1516299896662,94
2689,PLAYER_SLEEPBEFORE_START,1516299896662,95
2689,PLAYER_SLEEPBEFORE_END,1516299920217,95
2689,WS_SEND_START,1516299920217,95
2689,WS_SEND_END,1516299920217,95
2689,WS_RECV_START,1516299920217,96
2689,WS_RECV_END,1516299921161,96
2689,PLAYER_SLEEPBEFORE_START,1516299921161,97
2689,PLAYER_SLEEPBEFORE_END,1516299943601,97
2689,WS_SEND_START,1516299943601,97
2689,WS_SEND_END,1516299943601,97
2689,WS_RECV_START,1516299943601,98
2689,WS_RECV_END,1516299945666,98
2689,PLAYER_SLEEPBEFORE_START,1516299945666,99
2689,PLAYER_SLEEPBEFORE_END,1516299945687,99
2689,WS_SEND_START,1516299945687,99
2689,WS_SEND_END,1516299945687,99
2689,WS_RECV_START,1516299945687,100
2689,WS_RECV_END,1516299946304,100
2689,PLAYER_SLEEPBEFORE_START,1516299946304,101
2689,PLAYER_SLEEPBEFORE_END,1516299969863,101
2689,WS_SEND_START,1516299969863,101
2689,WS_SEND_END,1516299969863,101
2689,WS_RECV_START,1516299969863,102
2689,WS_RECV_END,1516299970063,102
2689,PLAYER_SLEEPBEFORE_START,1516299970064,103
2689,PLAYER_SLEEPBEFORE_END,1516299993689,103
2689,WS_SEND_START,1516299993689,103
2689,WS_SEND_END,1516299993689,103
2689,WS_RECV_START,1516299993689,104
2689,WS_RECV_END,1516299996563,104
2689,PLAYER_SLEEPBEFORE_START,1516299996563,105
2689,PLAYER_SLEEPBEFORE_END,1516300021940,105
2689,WS_SEND_START,1516300021940,105
2689,WS_SEND_END,1516300021940,105
2689,WS_RECV_START,1516300021940,106
2689,WS_RECV_END,1516300022232,106
2689,PLAYER_SLEEPBEFORE_START,1516300022232,107
2689,PLAYER_SLEEPBEFORE_END,1516300045655,107
2689,WS_SEND_START,1516300045655,107
2689,WS_SEND_END,1516300045655,107
2689,WS_RECV_START,1516300045655,108
2689,WS_RECV_END,1516300045982,108
2689,PLAYER_SLEEPBEFORE_START,1516300045982,109
2689,PLAYER_SLEEPBEFORE_END,1516300045991,109
2689,WS_SEND_START,1516300045991,109
2689,WS_SEND_END,1516300045991,109
2689,WS_RECV_START,1516300045991,110
2689,WS_RECV_END,1516300046575,110
2689,PLAYER_SLEEPBEFORE_START,1516300046575,111
2689,PLAYER_SLEEPBEFORE_END,1516300047534,111
2689,WS_SEND_START,1516300047534,111
2689,WS_SEND_END,1516300047534,111
2689,WS_RECV_START,1516300047534,112
2689,WS_RECV_END,1516300048590,112
2689,PLAYER_SLEEPBEFORE_START,1516300048590,113
2689,PLAYER_SLEEPBEFORE_END,1516300049152,113
2689,WS_SEND_START,1516300049152,113
2689,WS_SEND_END,1516300049152,113
2689,WS_RECV_START,1516300049152,114
2689,WS_RECV_END,1516300049734,114
2689,PLAYER_SLEEPBEFORE_START,1516300049734,115
2689,PLAYER_SLEEPBEFORE_END,1516300049743,115
2689,WS_SEND_START,1516300049743,115
2689,WS_SEND_END,1516300049743,115
2689,WS_RECV_START,1516300049743,116
2689,WS_RECV_END,1516300051522,116
2689,PLAYER_SLEEPBEFORE_START,1516300051522,117
2689,PLAYER_SLEEPBEFORE_END,1516300071882,117
2689,WS_SEND_START,1516300071882,117
2689,WS_SEND_END,1516300071882,117
2689,PLAYER_SLEEPBEFORE_START,1516300071882,118
2689,PLAYER_SLEEPBEFORE_END,1516300075634,118
2689,WS_SEND_START,1516300075634,118
2689,WS_SEND_END,1516300075634,118
2689,WS_RECV_START,1516300075634,119
2689,WS_RECV_END,1516300075794,119
2689,PLAYER_SLEEPBEFORE_START,1516300075794,120
2689,PLAYER_SLEEPBEFORE_END,1516300076782,120
2689,WS_SEND_START,1516300076782,120
2689,WS_SEND_END,1516300076782,120
2689,WS_RECV_START,1516300076782,121
2689,WS_RECV_END,1516300077373,121
2689,PLAYER_SLEEPBEFORE_START,1516300077373,122
2689,PLAYER_SLEEPBEFORE_END,1516300078558,122
2689,WS_SEND_START,1516300078558,122
2689,WS_SEND_END,1516300078558,122
2689,WS_RECV_START,1516300078558,123
2689,WS_RECV_END,1516300078688,123
2689,PLAYER_SLEEPBEFORE_START,1516300078688,124
2689,PLAYER_SLEEPBEFORE_END,1516300103093,124
2689,WS_SEND_START,1516300103093,124
2689,WS_SEND_END,1516300103094,124
2689,WS_RECV_START,1516300103094,125
2689,WS_RECV_END,1516300103555,125
2689,PLAYER_SLEEPBEFORE_START,1516300103555,126
2689,PLAYER_SLEEPBEFORE_END,1516300124067,126
2689,WS_SEND_START,1516300124067,126
2689,WS_SEND_END,1516300124067,126
2689,PLAYER_SLEEPBEFORE_START,1516300124067,127
2689,PLAYER_SLEEPBEFORE_END,1516300127121,127
2689,WS_SEND_START,1516300127121,127
2689,WS_SEND_END,1516300127121,127
2689,WS_RECV_START,1516300127121,128
2689,WS_RECV_END,1516300128997,128
2689,PLAYER_SLEEPBEFORE_START,1516300128997,129
2689,PLAYER_SLEEPBEFORE_END,1516300129017,129
2689,WS_SEND_START,1516300129017,129
2689,WS_SEND_END,1516300129017,129
2689,WS_RECV_START,1516300129017,130
2689,WS_RECV_END,1516300130140,130
2689,PLAYER_SLEEPBEFORE_START,1516300130140,131
2689,PLAYER_SLEEPBEFORE_END,1516300151764,131
2689,WS_SEND_START,1516300151764,131
2689,WS_SEND_END,1516300151764,131
2689,PLAYER_SLEEPBEFORE_START,1516300151764,132
2689,PLAYER_SLEEPBEFORE_END,1516300154845,132
2689,WS_SEND_START,1516300154845,132
2689,WS_SEND_END,1516300154845,132
2689,WS_RECV_START,1516300154845,133
2689,WS_RECV_END,1516300156837,133
2689,PLAYER_SLEEPBEFORE_START,1516300156837,134
2689,PLAYER_SLEEPBEFORE_END,1516300178054,134
2689,WS_SEND_START,1516300178054,134
2689,WS_SEND_END,1516300178054,134
2689,PLAYER_SLEEPBEFORE_START,1516300178054,135
2689,PLAYER_SLEEPBEFORE_END,1516300181244,135
2689,WS_SEND_START,1516300181244,135
2689,WS_SEND_END,1516300181244,135
2689,WS_RECV_START,1516300181244,136
2689,WS_RECV_END,1516300183521,136
2689,PLAYER_SLEEPBEFORE_START,1516300183521,137
2689,PLAYER_SLEEPBEFORE_END,1516300183528,137
2689,WS_SEND_START,1516300183528,137
2689,WS_SEND_END,1516300183528,137
2689,WS_RECV_START,1516300183528,138
2689,WS_RECV_END,1516300187262,138
2689,PLAYER_SLEEPBEFORE_START,1516300187262,139
2689,PLAYER_SLEEPBEFORE_END,1516300187952,139
2689,WS_SEND_START,1516300187952,139
2689,WS_SEND_END,1516300187953,139
2689,WS_RECV_START,1516300187953,140
2689,WS_RECV_END,1516300191415,140
2689,PLAYER_SLEEPBEFORE_START,1516300191415,141
2689,PLAYER_SLEEPBEFORE_END,1516300192070,141
2689,WS_SEND_START,1516300192070,141
2689,WS_SEND_END,1516300192070,141
2689,WS_RECV_START,1516300192070,142
2689,WS_RECV_END,1516300195453,142
2689,PLAYER_SLEEPBEFORE_START,1516300195453,143
2689,PLAYER_SLEEPBEFORE_END,1516300195510,143
2689,WS_SEND_START,1516300195510,143
2689,WS_SEND_END,1516300195510,143
2689,WS_RECV_START,1516300195510,144
2689,WS_RECV_END,1516300200072,144
2689,PLAYER_SLEEPBEFORE_START,1516300200072,145
2689,PLAYER_SLEEPBEFORE_END,1516300216134,145
2689,REQ_START,1516300216134,145
2689,REQ_END,1516300216138,145
2689,PLAYER_SLEEPBEFORE_START,1516300216138,146
2689,PLAYER_SLEEPBEFORE_END,1516300225015,146
2689,WS_SEND_START,1516300225015,146
2689,WS_SEND_END,1516300225015,146
2689,WS_RECV_START,1516300225015,147
2689,WS_RECV_END,1516300228787,147
2689,PLAYER_SLEEPBEFORE_START,1516300228787,148
2689,PLAYER_SLEEPBEFORE_END,1516300250709,148
2689,WS_SEND_START,1516300250709,148
2689,WS_SEND_END,1516300250709,148
2689,PLAYER_SLEEPBEFORE_START,1516300250709,149
2689,PLAYER_SLEEPBEFORE_END,1516300253137,149
2689,WS_SEND_START,1516300253137,149
2689,WS_SEND_END,1516300253137,149
2689,WS_RECV_START,1516300253137,150
2689,WS_RECV_END,1516300257119,150
2689,PLAYER_SLEEPBEFORE_START,1516300257119,151
2689,PLAYER_SLEEPBEFORE_END,1516300257329,151
2689,WS_SEND_START,1516300257329,151
2689,WS_SEND_END,1516300257329,151
2689,WS_RECV_START,1516300257329,152
2689,WS_RECV_END,1516300259721,152
2689,PLAYER_SLEEPBEFORE_START,1516300259722,153
2689,PLAYER_SLEEPBEFORE_END,1516300283649,153
2689,WS_SEND_START,1516300283649,153
2689,WS_SEND_END,1516300283649,153
2689,WS_RECV_START,1516300283649,154
2689,WS_RECV_END,1516300285079,154
2689,PLAYER_SLEEPBEFORE_START,1516300285079,155
2689,PLAYER_SLEEPBEFORE_END,1516300307637,155
2689,WS_SEND_START,1516300307637,155
2689,WS_SEND_END,1516300307637,155
2689,PLAYER_SLEEPBEFORE_START,1516300307637,156
2689,PLAYER_SLEEPBEFORE_END,1516300310911,156
2689,WS_SEND_START,1516300310911,156
2689,WS_SEND_END,1516300310911,156
2689,WS_RECV_START,1516300310911,157
2689,WS_RECV_END,1516300311102,157
2689,PLAYER_SLEEPBEFORE_START,1516300311102,158
2689,PLAYER_SLEEPBEFORE_END,1516300311112,158
2689,WS_SEND_START,1516300311113,158
2689,WS_SEND_END,1516300311113,158
2689,WS_RECV_START,1516300311113,159
2689,WS_RECV_END,1516300311438,159
2689,PLAYER_SLEEPBEFORE_START,1516300311438,160
2689,PLAYER_SLEEPBEFORE_END,1516300311613,160
2689,WS_SEND_START,1516300311613,160
2689,WS_SEND_END,1516300311613,160
2689,WS_RECV_START,1516300311613,161
2689,WS_RECV_END,1516300312659,161
2689,PLAYER_SLEEPBEFORE_START,1516300312659,162
2689,PLAYER_SLEEPBEFORE_END,1516300312684,162
2689,WS_SEND_START,1516300312684,162
2689,WS_SEND_END,1516300312684,162
2689,WS_RECV_START,1516300312684,163
2689,WS_RECV_END,1516300313224,163
2689,PLAYER_SLEEPBEFORE_START,1516300313224,164
2689,PLAYER_SLEEPBEFORE_END,1516300334036,164
2689,WS_SEND_START,1516300334036,164
2689,WS_SEND_END,1516300334036,164
2689,WS_RECV_START,1516300334036,165
2689,WS_RECV_END,1516300334354,165
2689,PLAYER_SLEEPBEFORE_START,1516300334354,166
2689,PLAYER_SLEEPBEFORE_END,1516300356809,166
2689,WS_SEND_START,1516300356809,166
2689,WS_SEND_END,1516300356809,166
2689,WS_RECV_START,1516300356809,167
2689,WS_RECV_END,1516300356947,167
2689,PLAYER_SLEEPBEFORE_START,1516300356947,168
2689,PLAYER_SLEEPBEFORE_END,1516300384304,168
2689,WS_SEND_START,1516300384304,168
2689,WS_SEND_END,1516300384304,168
2689,WS_RECV_START,1516300384304,169
2689,WS_RECV_END,1516300384493,169
2689,PLAYER_SLEEPBEFORE_START,1516300384493,170
2689,PLAYER_SLEEPBEFORE_END,1516300384503,170
2689,WS_SEND_START,1516300384503,170
2689,WS_SEND_END,1516300384503,170
2689,WS_RECV_START,1516300384503,171
2689,WS_RECV_END,1516300384822,171
2689,PLAYER_SLEEPBEFORE_START,1516300384822,172
2689,PLAYER_SLEEPBEFORE_END,1516300385191,172
2689,WS_SEND_START,1516300385191,172
2689,WS_SEND_END,1516300385191,172
2689,WS_RECV_START,1516300385192,173
2689,WS_RECV_END,1516300385435,173
2689,PLAYER_SLEEPBEFORE_START,1516300385435,174
2689,PLAYER_SLEEPBEFORE_END,1516300385477,174
2689,WS_SEND_START,1516300385477,174
2689,WS_SEND_END,1516300385477,174
2689,WS_RECV_START,1516300385477,175
2689,WS_RECV_END,1516300385723,175
2689,PLAYER_SLEEPBEFORE_START,1516300385723,176
2689,PLAYER_SLEEPBEFORE_END,1516300407484,176
2689,WS_SEND_START,1516300407484,176
2689,WS_SEND_END,1516300407484,176
2689,PLAYER_SLEEPBEFORE_START,1516300407484,177
2689,PLAYER_SLEEPBEFORE_END,1516300410002,177
2689,WS_SEND_START,1516300410002,177
2689,WS_SEND_END,1516300410002,177
2689,WS_RECV_START,1516300410002,178
2689,WS_RECV_END,1516300410170,178
2689,PLAYER_SLEEPBEFORE_START,1516300410170,179
2689,PLAYER_SLEEPBEFORE_END,1516300432510,179
2689,WS_SEND_START,1516300432510,179
2689,WS_SEND_END,1516300432510,179
2689,WS_RECV_START,1516300432510,180
2689,WS_RECV_END,1516300432877,180
2689,PLAYER_SLEEPBEFORE_START,1516300432877,181
2689,PLAYER_SLEEPBEFORE_END,1516300433321,181
2689,WS_SEND_START,1516300433321,181
2689,WS_SEND_END,1516300433321,181
2689,WS_RECV_START,1516300433321,182
2689,WS_RECV_END,1516300433450,182
2689,PLAYER_SLEEPBEFORE_START,1516300433450,183
2689,PLAYER_SLEEPBEFORE_END,1516300433973,183
2689,WS_SEND_START,1516300433973,183
2689,WS_SEND_END,1516300433973,183
2689,WS_RECV_START,1516300433973,184
2689,WS_RECV_END,1516300434076,184
2689,PLAYER_SLEEPBEFORE_START,1516300434076,185
2689,PLAYER_SLEEPBEFORE_END,1516300434344,185
2689,WS_SEND_START,1516300434345,185
2689,WS_SEND_END,1516300434345,185
2689,WS_RECV_START,1516300434345,186
2689,WS_RECV_END,1516300434446,186
2689,PLAYER_SLEEPBEFORE_START,1516300434446,187
2689,PLAYER_SLEEPBEFORE_END,1516300456946,187
2689,WS_SEND_START,1516300456946,187
2689,WS_SEND_END,1516300456946,187
2689,WS_RECV_START,1516300456946,188
2689,WS_RECV_END,1516300456982,188
2689,PLAYER_SLEEPBEFORE_START,1516300456982,189
2689,PLAYER_SLEEPBEFORE_END,1516300463221,189
2689,WS_SEND_START,1516300463221,189
2689,WS_SEND_END,1516300463221,189
2689,WS_RECV_START,1516300463221,190
2689,WS_RECV_END,1516300463316,190
2689,PLAYER_SLEEPBEFORE_START,1516300463316,191
2689,PLAYER_SLEEPBEFORE_END,1516300465231,191
2689,WS_SEND_START,1516300465231,191
2689,WS_SEND_END,1516300465231,191
2689,WS_RECV_START,1516300465231,192
2689,WS_RECV_END,1516300465329,192
2689,PLAYER_SLEEPBEFORE_START,1516300465329,193
2689,PLAYER_SLEEPBEFORE_END,1516300465457,193
2689,WS_SEND_START,1516300465457,193
2689,WS_SEND_END,1516300465457,193
2689,WS_RECV_START,1516300465457,194
2689,WS_RECV_END,1516300465549,194
2689,PLAYER_SLEEPBEFORE_START,1516300465549,195
2689,PLAYER_SLEEPBEFORE_END,1516300467304,195
2689,WS_SEND_START,1516300467304,195
2689,WS_SEND_END,1516300467304,195
2689,WS_RECV_START,1516300467304,196
2689,WS_RECV_END,1516300467401,196
2689,PLAYER_SLEEPBEFORE_START,1516300467401,197
2689,PLAYER_SLEEPBEFORE_END,1516300469205,197
2689,WS_SEND_START,1516300469205,197
2689,WS_SEND_END,1516300469205,197
2689,WS_RECV_START,1516300469205,198
2689,WS_RECV_END,1516300469299,198
2689,PLAYER_SLEEPBEFORE_START,1516300469299,199
2689,PLAYER_SLEEPBEFORE_END,1516300481154,199
2689,WS_SEND_START,1516300481154,199
2689,WS_SEND_END,1516300481154,199
2689,PLAYER_SLEEPBEFORE_START,1516300481154,200
2689,PLAYER_SLEEPBEFORE_END,1516300485242,200
2689,WS_SEND_START,1516300485242,200
2689,WS_SEND_END,1516300485242,200
2689,WS_RECV_START,1516300485242,201
2689,WS_RECV_END,1516300485318,201
2689,PLAYER_SLEEPBEFORE_START,1516300485318,202
2689,PLAYER_SLEEPBEFORE_END,1516300485333,202
2689,WS_SEND_START,1516300485333,202
2689,WS_SEND_END,1516300485333,202
2689,WS_RECV_START,1516300485333,203
2689,WS_RECV_END,1516300485438,203
2689,PLAYER_SLEEPBEFORE_START,1516300485438,204
2689,PLAYER_SLEEPBEFORE_END,1516300505087,204
2689,WS_SEND_START,1516300505087,204
2689,WS_SEND_END,1516300505087,204
2689,PLAYER_SLEEPBEFORE_START,1516300505087,205
2689,PLAYER_SLEEPBEFORE_END,1516300508985,205
2689,WS_SEND_START,1516300508985,205
2689,WS_SEND_END,1516300508985,205
2689,WS_RECV_START,1516300508985,206
2689,WS_RECV_END,1516300509091,206
2689,PLAYER_SLEEPBEFORE_START,1516300509091,207
2689,PLAYER_SLEEPBEFORE_END,1516300526022,207
2689,REQ_START,1516300526022,207
2689,REQ_END,1516300526028,207
2689,PLAYER_SLEEPBEFORE_START,1516300526028,208
2689,PLAYER_SLEEPBEFORE_END,1516300532880,208
2689,WS_CLOSE_START,1516300532880,208
2689,WS_CLOSE_END,1516300532880,208
2689,PLAYER_DONE,1516300532880
