# --sessions 2700 --app-url=http://shinyloadtest.rstudioservices.com/cran_explorer --output-dir test2700 --overwrite-output --log-level warn --start-interval 100 15min.log
thread_id,event,timestamp,input_line_number,comment
281,PLAYER_SESSION_CREATE,1516299245371
281,PLAYER_START_INTERVAL_START,1516299245371
281,PLAYER_START_INTERVAL_END,1516299273471
281,REQ_HOME_START,1516299273471,2
281,REQ_HOME_END,1516299273744,2
281,REQ_START,1516299273744,3
281,REQ_END,1516299273779,3
281,REQ_START,1516299273779,4
281,REQ_END,1516299273818,4
281,REQ_START,1516299273818,5
281,REQ_END,1516299273857,5
281,REQ_START,1516299273857,6
281,REQ_END,1516299273895,6
281,REQ_START,1516299273895,7
281,REQ_END,1516299273933,7
281,REQ_START,1516299273933,8
281,REQ_END,1516299273974,8
281,REQ_START,1516299273974,9
281,REQ_END,1516299274012,9
281,REQ_START,1516299274012,10
281,REQ_END,1516299274018,10
281,REQ_START,1516299274018,11
281,REQ_END,1516299274063,11
281,REQ_START,1516299274063,12
281,REQ_END,1516299274071,12
281,REQ_START,1516299274071,13
281,REQ_END,1516299274110,13
281,REQ_START,1516299274110,14
281,REQ_END,1516299274122,14
281,REQ_START,1516299274122,15
281,REQ_END,1516299274158,15
281,REQ_TOK_START,1516299274158,16
281,REQ_TOK_END,1516299274164,16
281,REQ_SINF_START,1516299274164,17
281,REQ_SINF_END,1516299274169,17
281,WS_OPEN_START,1516299274169,18
281,WS_OPEN_END,1516299274173,18
281,REQ_START,1516299274173,19
281,REQ_END,1516299274204,19
281,WS_RECV_START,1516299274204,20
281,WS_RECV_END,1516299274204,20
281,PLAYER_SLEEPBEFORE_START,1516299274204,21
281,PLAYER_SLEEPBEFORE_END,1516299274210,21
281,WS_SEND_START,1516299274210,21
281,WS_SEND_END,1516299274210,21
281,PLAYER_SLEEPBEFORE_START,1516299274210,22
281,PLAYER_SLEEPBEFORE_END,1516299274211,22
281,WS_SEND_START,1516299274211,22
281,WS_SEND_END,1516299274211,22
281,WS_RECV_INIT_START,1516299274211,23
281,WS_RECV_INIT_END,1516299274226,23
281,WS_RECV_START,1516299274226,24
281,WS_RECV_END,1516299274272,24
281,PLAYER_SLEEPBEFORE_START,1516299274272,25
281,PLAYER_SLEEPBEFORE_END,1516299274279,25
281,REQ_START,1516299274279,25
281,REQ_END,1516299274321,25
281,PLAYER_SLEEPBEFORE_START,1516299274321,26
281,PLAYER_SLEEPBEFORE_END,1516299274323,26
281,REQ_START,1516299274323,26
281,REQ_END,1516299274360,26
281,PLAYER_SLEEPBEFORE_START,1516299274360,27
281,PLAYER_SLEEPBEFORE_END,1516299274364,27
281,REQ_START,1516299274364,27
281,REQ_END,1516299274406,27
281,PLAYER_SLEEPBEFORE_START,1516299274406,28
281,PLAYER_SLEEPBEFORE_END,1516299274692,28
281,REQ_START,1516299274692,28
281,REQ_END,1516299274729,28
281,PLAYER_SLEEPBEFORE_START,1516299274729,29
281,PLAYER_SLEEPBEFORE_END,1516299274905,29
281,WS_SEND_START,1516299274905,29
281,WS_SEND_END,1516299274905,29
281,WS_RECV_START,1516299274905,30
281,WS_RECV_END,1516299275035,30
281,PLAYER_SLEEPBEFORE_START,1516299275035,31
281,PLAYER_SLEEPBEFORE_END,1516299275046,31
281,REQ_START,1516299275046,31
281,REQ_END,1516299275085,31
281,PLAYER_SLEEPBEFORE_START,1516299275085,32
281,PLAYER_SLEEPBEFORE_END,1516299303230,32
281,WS_SEND_START,1516299303230,32
281,WS_SEND_END,1516299303230,32
281,WS_RECV_START,1516299303230,33
281,WS_RECV_END,1516299303332,33
281,PLAYER_SLEEPBEFORE_START,1516299303332,34
281,PLAYER_SLEEPBEFORE_END,1516299329243,34
281,WS_SEND_START,1516299329243,34
281,WS_SEND_END,1516299329243,34
281,WS_RECV_START,1516299329243,35
281,WS_RECV_END,1516299329290,35
281,PLAYER_SLEEPBEFORE_START,1516299329290,36
281,PLAYER_SLEEPBEFORE_END,1516299329299,36
281,WS_SEND_START,1516299329299,36
281,WS_SEND_END,1516299329299,36
281,WS_RECV_START,1516299329299,37
281,WS_RECV_END,1516299329363,37
281,PLAYER_SLEEPBEFORE_START,1516299329363,38
281,PLAYER_SLEEPBEFORE_END,1516299332559,38
281,WS_SEND_START,1516299332559,38
281,WS_SEND_END,1516299332559,38
281,WS_RECV_START,1516299332559,39
281,WS_RECV_END,1516299336196,39
281,PLAYER_SLEEPBEFORE_START,1516299336196,40
281,PLAYER_SLEEPBEFORE_END,1516299336242,40
281,WS_SEND_START,1516299336242,40
281,WS_SEND_END,1516299336242,40
281,WS_RECV_START,1516299336242,41
281,WS_RECV_END,1516299336528,41
281,PLAYER_SLEEPBEFORE_START,1516299336528,42
281,PLAYER_SLEEPBEFORE_END,1516299354664,42
281,WS_SEND_START,1516299354664,42
281,WS_SEND_END,1516299354664,42
281,WS_RECV_START,1516299354664,43
281,WS_RECV_END,1516299354697,43
281,PLAYER_SLEEPBEFORE_START,1516299354697,44
281,PLAYER_SLEEPBEFORE_END,1516299354709,44
281,WS_SEND_START,1516299354709,44
281,WS_SEND_END,1516299354709,44
281,WS_RECV_START,1516299354709,45
281,WS_RECV_END,1516299354752,45
281,PLAYER_SLEEPBEFORE_START,1516299354752,46
281,PLAYER_SLEEPBEFORE_END,1516299356012,46
281,WS_SEND_START,1516299356012,46
281,WS_SEND_END,1516299356012,46
281,WS_RECV_START,1516299356012,47
281,WS_RECV_END,1516299356119,47
281,PLAYER_SLEEPBEFORE_START,1516299356119,48
281,PLAYER_SLEEPBEFORE_END,1516299357439,48
281,WS_SEND_START,1516299357439,48
281,WS_SEND_END,1516299357439,48
281,WS_RECV_START,1516299357439,49
281,WS_RECV_END,1516299357578,49
281,PLAYER_SLEEPBEFORE_START,1516299357578,50
281,PLAYER_SLEEPBEFORE_END,1516299357602,50
281,WS_SEND_START,1516299357602,50
281,WS_SEND_END,1516299357602,50
281,WS_RECV_START,1516299357602,51
281,WS_RECV_END,1516299357720,51
281,PLAYER_SLEEPBEFORE_START,1516299357720,52
281,PLAYER_SLEEPBEFORE_END,1516299380284,52
281,WS_SEND_START,1516299380284,52
281,WS_SEND_END,1516299380284,52
281,WS_RECV_START,1516299380284,53
281,WS_RECV_END,1516299380427,53
281,PLAYER_SLEEPBEFORE_START,1516299380427,54
281,PLAYER_SLEEPBEFORE_END,1516299401730,54
281,WS_SEND_START,1516299401730,54
281,WS_SEND_END,1516299401730,54
281,PLAYER_SLEEPBEFORE_START,1516299401730,55
281,PLAYER_SLEEPBEFORE_END,1516299403671,55
281,WS_SEND_START,1516299403671,55
281,WS_SEND_END,1516299403671,55
281,WS_RECV_START,1516299403671,56
281,WS_RECV_END,1516299403716,56
281,PLAYER_SLEEPBEFORE_START,1516299403716,57
281,PLAYER_SLEEPBEFORE_END,1516299426588,57
281,WS_SEND_START,1516299426588,57
281,WS_SEND_END,1516299426588,57
281,WS_RECV_START,1516299426588,58
281,WS_RECV_END,1516299426650,58
281,PLAYER_SLEEPBEFORE_START,1516299426650,59
281,PLAYER_SLEEPBEFORE_END,1516299428977,59
281,WS_SEND_START,1516299428977,59
281,WS_SEND_END,1516299428977,59
281,WS_RECV_START,1516299428977,60
281,WS_RECV_END,1516299429124,60
281,PLAYER_SLEEPBEFORE_START,1516299429124,61
281,PLAYER_SLEEPBEFORE_END,1516299432715,61
281,WS_SEND_START,1516299432715,61
281,WS_SEND_END,1516299432715,61
281,WS_RECV_START,1516299432715,62
281,WS_RECV_END,1516299432852,62
281,PLAYER_SLEEPBEFORE_START,1516299432852,63
281,PLAYER_SLEEPBEFORE_END,1516299452114,63
281,WS_SEND_START,1516299452114,63
281,WS_SEND_END,1516299452114,63
281,WS_RECV_START,1516299452114,64
281,WS_RECV_END,1516299452206,64
281,PLAYER_SLEEPBEFORE_START,1516299452206,65
281,PLAYER_SLEEPBEFORE_END,1516299479023,65
281,WS_SEND_START,1516299479023,65
281,WS_SEND_END,1516299479023,65
281,WS_RECV_START,1516299479023,66
281,WS_RECV_END,1516299479238,66
281,PLAYER_SLEEPBEFORE_START,1516299479238,67
281,PLAYER_SLEEPBEFORE_END,1516299480745,67
281,WS_SEND_START,1516299480745,67
281,WS_SEND_END,1516299480745,67
281,WS_RECV_START,1516299480745,68
281,WS_RECV_END,1516299481223,68
281,PLAYER_SLEEPBEFORE_START,1516299481223,69
281,PLAYER_SLEEPBEFORE_END,1516299503222,69
281,WS_SEND_START,1516299503222,69
281,WS_SEND_END,1516299503222,69
281,WS_RECV_START,1516299503222,70
281,WS_RECV_END,1516299503404,70
281,PLAYER_SLEEPBEFORE_START,1516299503404,71
281,PLAYER_SLEEPBEFORE_END,1516299528179,71
281,WS_SEND_START,1516299528179,71
281,WS_SEND_END,1516299528179,71
281,PLAYER_SLEEPBEFORE_START,1516299528179,72
281,PLAYER_SLEEPBEFORE_END,1516299530786,72
281,WS_SEND_START,1516299530786,72
281,WS_SEND_END,1516299530787,72
281,WS_RECV_START,1516299530787,73
281,WS_RECV_END,1516299531596,73
281,PLAYER_SLEEPBEFORE_START,1516299531596,74
281,PLAYER_SLEEPBEFORE_END,1516299531605,74
281,WS_SEND_START,1516299531605,74
281,WS_SEND_END,1516299531605,74
281,WS_RECV_START,1516299531605,75
281,WS_RECV_END,1516299531650,75
281,PLAYER_SLEEPBEFORE_START,1516299531650,76
281,PLAYER_SLEEPBEFORE_END,1516299533156,76
281,WS_SEND_START,1516299533156,76
281,WS_SEND_END,1516299533156,76
281,WS_RECV_START,1516299533156,77
281,WS_RECV_END,1516299533524,77
281,PLAYER_SLEEPBEFORE_START,1516299533524,78
281,PLAYER_SLEEPBEFORE_END,1516299534392,78
281,WS_SEND_START,1516299534392,78
281,WS_SEND_END,1516299534392,78
281,WS_RECV_START,1516299534392,79
281,WS_RECV_END,1516299535034,79
281,PLAYER_SLEEPBEFORE_START,1516299535034,80
281,PLAYER_SLEEPBEFORE_END,1516299542700,80
281,WS_SEND_START,1516299542700,80
281,WS_SEND_END,1516299542700,80
281,WS_RECV_START,1516299542700,81
281,WS_RECV_END,1516299543009,81
281,PLAYER_SLEEPBEFORE_START,1516299543009,82
281,PLAYER_SLEEPBEFORE_END,1516299544111,82
281,WS_SEND_START,1516299544111,82
281,WS_SEND_END,1516299544111,82
281,WS_RECV_START,1516299544111,83
281,WS_RECV_END,1516299544394,83
281,PLAYER_SLEEPBEFORE_START,1516299544394,84
281,PLAYER_SLEEPBEFORE_END,1516299545341,84
281,WS_SEND_START,1516299545341,84
281,WS_SEND_END,1516299545341,84
281,WS_RECV_START,1516299545341,85
281,WS_RECV_END,1516299545380,85
281,PLAYER_SLEEPBEFORE_START,1516299545380,86
281,PLAYER_SLEEPBEFORE_END,1516299549552,86
281,WS_SEND_START,1516299549552,86
281,WS_SEND_END,1516299549552,86
281,WS_RECV_START,1516299549552,87
281,WS_RECV_END,1516299549851,87
281,PLAYER_SLEEPBEFORE_START,1516299549851,88
281,PLAYER_SLEEPBEFORE_END,1516299549860,88
281,WS_SEND_START,1516299549860,88
281,WS_SEND_END,1516299549860,88
281,WS_RECV_START,1516299549860,89
281,WS_RECV_END,1516299549975,89
281,PLAYER_SLEEPBEFORE_START,1516299549975,90
281,PLAYER_SLEEPBEFORE_END,1516299577172,90
281,REQ_START,1516299577172,90
281,REQ_END,1516299577178,90
281,PLAYER_SLEEPBEFORE_START,1516299577178,91
281,PLAYER_SLEEPBEFORE_END,1516299585067,91
281,WS_SEND_START,1516299585067,91
281,WS_SEND_END,1516299585067,91
281,WS_RECV_START,1516299585067,92
281,WS_RECV_END,1516299585346,92
281,PLAYER_SLEEPBEFORE_START,1516299585346,93
281,PLAYER_SLEEPBEFORE_END,1516299585361,93
281,WS_SEND_START,1516299585361,93
281,WS_SEND_END,1516299585361,93
281,WS_RECV_START,1516299585361,94
281,WS_RECV_END,1516299585775,94
281,PLAYER_SLEEPBEFORE_START,1516299585775,95
281,PLAYER_SLEEPBEFORE_END,1516299609330,95
281,WS_SEND_START,1516299609330,95
281,WS_SEND_END,1516299609330,95
281,WS_RECV_START,1516299609330,96
281,WS_RECV_END,1516299609540,96
281,PLAYER_SLEEPBEFORE_START,1516299609540,97
281,PLAYER_SLEEPBEFORE_END,1516299631980,97
281,WS_SEND_START,1516299631980,97
281,WS_SEND_END,1516299631980,97
281,WS_RECV_START,1516299631980,98
281,WS_RECV_END,1516299632673,98
281,PLAYER_SLEEPBEFORE_START,1516299632674,99
281,PLAYER_SLEEPBEFORE_END,1516299632695,99
281,WS_SEND_START,1516299632695,99
281,WS_SEND_END,1516299632695,99
281,WS_RECV_START,1516299632695,100
281,WS_RECV_END,1516299633066,100
281,PLAYER_SLEEPBEFORE_START,1516299633066,101
281,PLAYER_SLEEPBEFORE_END,1516299656625,101
281,WS_SEND_START,1516299656625,101
281,WS_SEND_END,1516299656625,101
281,WS_RECV_START,1516299656625,102
281,WS_RECV_END,1516299656858,102
281,PLAYER_SLEEPBEFORE_START,1516299656858,103
281,PLAYER_SLEEPBEFORE_END,1516299680483,103
281,WS_SEND_START,1516299680483,103
281,WS_SEND_END,1516299680483,103
281,WS_RECV_START,1516299680483,104
281,WS_RECV_END,1516299680799,104
281,PLAYER_SLEEPBEFORE_START,1516299680799,105
281,PLAYER_SLEEPBEFORE_END,1516299706176,105
281,WS_SEND_START,1516299706176,105
281,WS_SEND_END,1516299706176,105
281,WS_RECV_START,1516299706176,106
281,WS_RECV_END,1516299706348,106
281,PLAYER_SLEEPBEFORE_START,1516299706348,107
281,PLAYER_SLEEPBEFORE_END,1516299729771,107
281,WS_SEND_START,1516299729771,107
281,WS_SEND_END,1516299729772,107
281,WS_RECV_START,1516299729772,108
281,WS_RECV_END,1516299730515,108
281,PLAYER_SLEEPBEFORE_START,1516299730515,109
281,PLAYER_SLEEPBEFORE_END,1516299730524,109
281,WS_SEND_START,1516299730524,109
281,WS_SEND_END,1516299730524,109
281,WS_RECV_START,1516299730524,110
281,WS_RECV_END,1516299730570,110
281,PLAYER_SLEEPBEFORE_START,1516299730570,111
281,PLAYER_SLEEPBEFORE_END,1516299731529,111
281,WS_SEND_START,1516299731529,111
281,WS_SEND_END,1516299731529,111
281,WS_RECV_START,1516299731529,112
281,WS_RECV_END,1516299732553,112
281,PLAYER_SLEEPBEFORE_START,1516299732553,113
281,PLAYER_SLEEPBEFORE_END,1516299733115,113
281,WS_SEND_START,1516299733115,113
281,WS_SEND_END,1516299733115,113
281,WS_RECV_START,1516299733115,114
281,WS_RECV_END,1516299734429,114
281,PLAYER_SLEEPBEFORE_START,1516299734429,115
281,PLAYER_SLEEPBEFORE_END,1516299734438,115
281,WS_SEND_START,1516299734438,115
281,WS_SEND_END,1516299734438,115
281,WS_RECV_START,1516299734438,116
281,WS_RECV_END,1516299734941,116
281,PLAYER_SLEEPBEFORE_START,1516299734941,117
281,PLAYER_SLEEPBEFORE_END,1516299755301,117
281,WS_SEND_START,1516299755301,117
281,WS_SEND_END,1516299755301,117
281,PLAYER_SLEEPBEFORE_START,1516299755301,118
281,PLAYER_SLEEPBEFORE_END,1516299759053,118
281,WS_SEND_START,1516299759053,118
281,WS_SEND_END,1516299759053,118
281,WS_RECV_START,1516299759053,119
281,WS_RECV_END,1516299760295,119
281,PLAYER_SLEEPBEFORE_START,1516299760295,120
281,PLAYER_SLEEPBEFORE_END,1516299761283,120
281,WS_SEND_START,1516299761283,120
281,WS_SEND_END,1516299761283,120
281,WS_RECV_START,1516299761283,121
281,WS_RECV_END,1516299763067,121
281,PLAYER_SLEEPBEFORE_START,1516299763067,122
281,PLAYER_SLEEPBEFORE_END,1516299764253,122
281,WS_SEND_START,1516299764253,122
281,WS_SEND_END,1516299764253,122
281,WS_RECV_START,1516299764253,123
281,WS_RECV_END,1516299765270,123
281,PLAYER_SLEEPBEFORE_START,1516299765270,124
281,PLAYER_SLEEPBEFORE_END,1516299789675,124
281,WS_SEND_START,1516299789675,124
281,WS_SEND_END,1516299789675,124
281,WS_RECV_START,1516299789675,125
281,WS_RECV_END,1516299791093,125
281,PLAYER_SLEEPBEFORE_START,1516299791093,126
281,PLAYER_SLEEPBEFORE_END,1516299811605,126
281,WS_SEND_START,1516299811605,126
281,WS_SEND_END,1516299811605,126
281,PLAYER_SLEEPBEFORE_START,1516299811605,127
281,PLAYER_SLEEPBEFORE_END,1516299814659,127
281,WS_SEND_START,1516299814659,127
281,WS_SEND_END,1516299814659,127
281,WS_RECV_START,1516299814659,128
281,WS_RECV_END,1516299815800,128
281,PLAYER_SLEEPBEFORE_START,1516299815800,129
281,PLAYER_SLEEPBEFORE_END,1516299815820,129
281,WS_SEND_START,1516299815820,129
281,WS_SEND_END,1516299815820,129
281,WS_RECV_START,1516299815820,130
281,WS_RECV_END,1516299817047,130
281,PLAYER_SLEEPBEFORE_START,1516299817047,131
281,PLAYER_SLEEPBEFORE_END,1516299838671,131
281,WS_SEND_START,1516299838671,131
281,WS_SEND_END,1516299838671,131
281,PLAYER_SLEEPBEFORE_START,1516299838671,132
281,PLAYER_SLEEPBEFORE_END,1516299841752,132
281,WS_SEND_START,1516299841752,132
281,WS_SEND_END,1516299841752,132
281,WS_RECV_START,1516299841752,133
281,WS_RECV_END,1516299842917,133
281,PLAYER_SLEEPBEFORE_START,1516299842917,134
281,PLAYER_SLEEPBEFORE_END,1516299864134,134
281,WS_SEND_START,1516299864135,134
281,WS_SEND_END,1516299864135,134
281,PLAYER_SLEEPBEFORE_START,1516299864135,135
281,PLAYER_SLEEPBEFORE_END,1516299867325,135
281,WS_SEND_START,1516299867325,135
281,WS_SEND_END,1516299867325,135
281,WS_RECV_START,1516299867325,136
281,WS_RECV_END,1516299867732,136
281,PLAYER_SLEEPBEFORE_START,1516299867732,137
281,PLAYER_SLEEPBEFORE_END,1516299867739,137
281,WS_SEND_START,1516299867739,137
281,WS_SEND_END,1516299867739,137
281,WS_RECV_START,1516299867739,138
281,WS_RECV_END,1516299870126,138
281,PLAYER_SLEEPBEFORE_START,1516299870126,139
281,PLAYER_SLEEPBEFORE_END,1516299870816,139
281,WS_SEND_START,1516299870816,139
281,WS_SEND_END,1516299870816,139
281,WS_RECV_START,1516299870816,140
281,WS_RECV_END,1516299873415,140
281,PLAYER_SLEEPBEFORE_START,1516299873415,141
281,PLAYER_SLEEPBEFORE_END,1516299874070,141
281,WS_SEND_START,1516299874070,141
281,WS_SEND_END,1516299874070,141
281,WS_RECV_START,1516299874070,142
281,WS_RECV_END,1516299876106,142
281,PLAYER_SLEEPBEFORE_START,1516299876106,143
281,PLAYER_SLEEPBEFORE_END,1516299876164,143
281,WS_SEND_START,1516299876164,143
281,WS_SEND_END,1516299876164,143
281,WS_RECV_START,1516299876164,144
281,WS_RECV_END,1516299877241,144
281,PLAYER_SLEEPBEFORE_START,1516299877241,145
281,PLAYER_SLEEPBEFORE_END,1516299893303,145
281,REQ_START,1516299893303,145
281,REQ_END,1516299893308,145
281,PLAYER_SLEEPBEFORE_START,1516299893308,146
281,PLAYER_SLEEPBEFORE_END,1516299902185,146
281,WS_SEND_START,1516299902185,146
281,WS_SEND_END,1516299902185,146
281,WS_RECV_START,1516299902185,147
281,WS_RECV_END,1516299902512,147
281,PLAYER_SLEEPBEFORE_START,1516299902512,148
281,PLAYER_SLEEPBEFORE_END,1516299924434,148
281,WS_SEND_START,1516299924434,148
281,WS_SEND_END,1516299924434,148
281,PLAYER_SLEEPBEFORE_START,1516299924434,149
281,PLAYER_SLEEPBEFORE_END,1516299926862,149
281,WS_SEND_START,1516299926862,149
281,WS_SEND_END,1516299926862,149
281,WS_RECV_START,1516299926862,150
281,WS_RECV_END,1516299928072,150
281,PLAYER_SLEEPBEFORE_START,1516299928072,151
281,PLAYER_SLEEPBEFORE_END,1516299928282,151
281,WS_SEND_START,1516299928282,151
281,WS_SEND_END,1516299928282,151
281,WS_RECV_START,1516299928282,152
281,WS_RECV_END,1516299928873,152
281,PLAYER_SLEEPBEFORE_START,1516299928873,153
281,PLAYER_SLEEPBEFORE_END,1516299952800,153
281,WS_SEND_START,1516299952800,153
281,WS_SEND_END,1516299952800,153
281,WS_RECV_START,1516299952800,154
281,WS_RECV_END,1516299953598,154
281,PLAYER_SLEEPBEFORE_START,1516299953599,155
281,PLAYER_SLEEPBEFORE_END,1516299976157,155
281,WS_SEND_START,1516299976157,155
281,WS_SEND_END,1516299976157,155
281,PLAYER_SLEEPBEFORE_START,1516299976157,156
281,PLAYER_SLEEPBEFORE_END,1516299979431,156
281,WS_SEND_START,1516299979431,156
281,WS_SEND_END,1516299979431,156
281,WS_RECV_START,1516299979431,157
281,WS_RECV_END,1516299981498,157
281,PLAYER_SLEEPBEFORE_START,1516299981498,158
281,PLAYER_SLEEPBEFORE_END,1516299981508,158
281,WS_SEND_START,1516299981508,158
281,WS_SEND_END,1516299981508,158
281,WS_RECV_START,1516299981508,159
281,WS_RECV_END,1516299981994,159
281,PLAYER_SLEEPBEFORE_START,1516299981994,160
281,PLAYER_SLEEPBEFORE_END,1516299982169,160
281,WS_SEND_START,1516299982169,160
281,WS_SEND_END,1516299982169,160
281,WS_RECV_START,1516299982169,161
281,WS_RECV_END,1516299982732,161
281,PLAYER_SLEEPBEFORE_START,1516299982732,162
281,PLAYER_SLEEPBEFORE_END,1516299982757,162
281,WS_SEND_START,1516299982757,162
281,WS_SEND_END,1516299982757,162
281,WS_RECV_START,1516299982757,163
281,WS_RECV_END,1516299983687,163
281,PLAYER_SLEEPBEFORE_START,1516299983687,164
281,PLAYER_SLEEPBEFORE_END,1516300004499,164
281,WS_SEND_START,1516300004499,164
281,WS_SEND_END,1516300004499,164
281,WS_RECV_START,1516300004499,165
281,WS_RECV_END,1516300004762,165
281,PLAYER_SLEEPBEFORE_START,1516300004762,166
281,PLAYER_SLEEPBEFORE_END,1516300027217,166
281,WS_SEND_START,1516300027217,166
281,WS_SEND_END,1516300027217,166
281,WS_RECV_START,1516300027217,167
281,WS_RECV_END,1516300028197,167
281,PLAYER_SLEEPBEFORE_START,1516300028197,168
281,PLAYER_SLEEPBEFORE_END,1516300055554,168
281,WS_SEND_START,1516300055554,168
281,WS_SEND_END,1516300055554,168
281,WS_RECV_START,1516300055554,169
281,WS_RECV_END,1516300055693,169
281,PLAYER_SLEEPBEFORE_START,1516300055693,170
281,PLAYER_SLEEPBEFORE_END,1516300055702,170
281,WS_SEND_START,1516300055702,170
281,WS_SEND_END,1516300055702,170
281,WS_RECV_START,1516300055702,171
281,WS_RECV_END,1516300055746,171
281,PLAYER_SLEEPBEFORE_START,1516300055746,172
281,PLAYER_SLEEPBEFORE_END,1516300056115,172
281,WS_SEND_START,1516300056115,172
281,WS_SEND_END,1516300056115,172
281,WS_RECV_START,1516300056115,173
281,WS_RECV_END,1516300056267,173
281,PLAYER_SLEEPBEFORE_START,1516300056267,174
281,PLAYER_SLEEPBEFORE_END,1516300056308,174
281,WS_SEND_START,1516300056308,174
281,WS_SEND_END,1516300056308,174
281,WS_RECV_START,1516300056308,175
281,WS_RECV_END,1516300056925,175
281,PLAYER_SLEEPBEFORE_START,1516300056925,176
281,PLAYER_SLEEPBEFORE_END,1516300078686,176
281,WS_SEND_START,1516300078686,176
281,WS_SEND_END,1516300078686,176
281,PLAYER_SLEEPBEFORE_START,1516300078686,177
281,PLAYER_SLEEPBEFORE_END,1516300081204,177
281,WS_SEND_START,1516300081204,177
281,WS_SEND_END,1516300081204,177
281,WS_RECV_START,1516300081204,178
281,WS_RECV_END,1516300081767,178
281,PLAYER_SLEEPBEFORE_START,1516300081767,179
281,PLAYER_SLEEPBEFORE_END,1516300104107,179
281,WS_SEND_START,1516300104107,179
281,WS_SEND_END,1516300104107,179
281,WS_RECV_START,1516300104107,180
281,WS_RECV_END,1516300105655,180
281,PLAYER_SLEEPBEFORE_START,1516300105655,181
281,PLAYER_SLEEPBEFORE_END,1516300106099,181
281,WS_SEND_START,1516300106099,181
281,WS_SEND_END,1516300106099,181
281,WS_RECV_START,1516300106099,182
281,WS_RECV_END,1516300107942,182
281,PLAYER_SLEEPBEFORE_START,1516300107942,183
281,PLAYER_SLEEPBEFORE_END,1516300108465,183
281,WS_SEND_START,1516300108465,183
281,WS_SEND_END,1516300108465,183
281,WS_RECV_START,1516300108465,184
281,WS_RECV_END,1516300111293,184
281,PLAYER_SLEEPBEFORE_START,1516300111293,185
281,PLAYER_SLEEPBEFORE_END,1516300111561,185
281,WS_SEND_START,1516300111561,185
281,WS_SEND_END,1516300111561,185
281,WS_RECV_START,1516300111561,186
281,WS_RECV_END,1516300112462,186
281,PLAYER_SLEEPBEFORE_START,1516300112462,187
281,PLAYER_SLEEPBEFORE_END,1516300134962,187
281,WS_SEND_START,1516300134962,187
281,WS_SEND_END,1516300134962,187
281,WS_RECV_START,1516300134962,188
281,WS_RECV_END,1516300139512,188
281,PLAYER_SLEEPBEFORE_START,1516300139512,189
281,PLAYER_SLEEPBEFORE_END,1516300145752,189
281,WS_SEND_START,1516300145752,189
281,WS_SEND_END,1516300145752,189
281,WS_RECV_START,1516300145752,190
281,WS_RECV_END,1516300151088,190
281,PLAYER_SLEEPBEFORE_START,1516300151088,191
281,PLAYER_SLEEPBEFORE_END,1516300153003,191
281,WS_SEND_START,1516300153003,191
281,WS_SEND_END,1516300153004,191
281,WS_RECV_START,1516300153004,192
281,WS_RECV_END,1516300158304,192
281,PLAYER_SLEEPBEFORE_START,1516300158304,193
281,PLAYER_SLEEPBEFORE_END,1516300158432,193
281,WS_SEND_START,1516300158432,193
281,WS_SEND_END,1516300158433,193
281,WS_RECV_START,1516300158433,194
281,WS_RECV_END,1516300162177,194
281,PLAYER_SLEEPBEFORE_START,1516300162177,195
281,PLAYER_SLEEPBEFORE_END,1516300163933,195
281,WS_SEND_START,1516300163933,195
281,WS_SEND_END,1516300163933,195
281,WS_RECV_START,1516300163933,196
281,WS_RECV_END,1516300166796,196
281,PLAYER_SLEEPBEFORE_START,1516300166796,197
281,PLAYER_SLEEPBEFORE_END,1516300168600,197
281,WS_SEND_START,1516300168601,197
281,WS_SEND_END,1516300168601,197
281,WS_RECV_START,1516300168601,198
281,WS_RECV_END,1516300170492,198
281,PLAYER_SLEEPBEFORE_START,1516300170492,199
281,PLAYER_SLEEPBEFORE_END,1516300182346,199
281,WS_SEND_START,1516300182346,199
281,WS_SEND_END,1516300182346,199
281,PLAYER_SLEEPBEFORE_START,1516300182346,200
281,PLAYER_SLEEPBEFORE_END,1516300186434,200
281,WS_SEND_START,1516300186434,200
281,WS_SEND_END,1516300186434,200
281,WS_RECV_START,1516300186434,201
281,WS_RECV_END,1516300187570,201
281,PLAYER_SLEEPBEFORE_START,1516300187570,202
281,PLAYER_SLEEPBEFORE_END,1516300187584,202
281,WS_SEND_START,1516300187584,202
281,WS_SEND_END,1516300187584,202
281,WS_RECV_START,1516300187584,203
281,WS_RECV_END,1516300190632,203
281,PLAYER_SLEEPBEFORE_START,1516300190632,204
281,PLAYER_SLEEPBEFORE_END,1516300210281,204
281,WS_SEND_START,1516300210281,204
281,WS_SEND_END,1516300210281,204
281,PLAYER_SLEEPBEFORE_START,1516300210281,205
281,PLAYER_SLEEPBEFORE_END,1516300214179,205
281,WS_SEND_START,1516300214179,205
281,WS_SEND_END,1516300214179,205
281,WS_RECV_START,1516300214179,206
281,WS_RECV_END,1516300214395,206
281,PLAYER_SLEEPBEFORE_START,1516300214395,207
281,PLAYER_SLEEPBEFORE_END,1516300231326,207
281,REQ_START,1516300231326,207
281,REQ_END,1516300231331,207
281,PLAYER_SLEEPBEFORE_START,1516300231331,208
281,PLAYER_SLEEPBEFORE_END,1516300238183,208
281,WS_CLOSE_START,1516300238183,208
281,WS_CLOSE_END,1516300238183,208
281,PLAYER_DONE,1516300238183
