# --sessions 2700 --app-url=http://shinyloadtest.rstudioservices.com/cran_explorer --output-dir test2700 --overwrite-output --log-level warn --start-interval 100 15min.log
thread_id,event,timestamp,input_line_number,comment
372,PLAYER_SESSION_CREATE,1516299245405
372,PLAYER_START_INTERVAL_START,1516299245405
372,PLAYER_START_INTERVAL_END,1516299282605
372,REQ_HOME_START,1516299282605,2
372,REQ_HOME_END,1516299282697,2
372,REQ_START,1516299282697,3
372,REQ_END,1516299282819,3
372,REQ_START,1516299282819,4
372,REQ_END,1516299282854,4
372,REQ_START,1516299282854,5
372,REQ_END,1516299282889,5
372,REQ_START,1516299282889,6
372,REQ_END,1516299282963,6
372,REQ_START,1516299282963,7
372,REQ_END,1516299283003,7
372,REQ_START,1516299283003,8
372,REQ_END,1516299283037,8
372,REQ_START,1516299283037,9
372,REQ_END,1516299283073,9
372,REQ_START,1516299283073,10
372,REQ_END,1516299283077,10
372,REQ_START,1516299283077,11
372,REQ_END,1516299283112,11
372,REQ_START,1516299283112,12
372,REQ_END,1516299283124,12
372,REQ_START,1516299283124,13
372,REQ_END,1516299283157,13
372,REQ_START,1516299283157,14
372,REQ_END,1516299283167,14
372,REQ_START,1516299283167,15
372,REQ_END,1516299283209,15
372,REQ_TOK_START,1516299283209,16
372,REQ_TOK_END,1516299283213,16
372,REQ_SINF_START,1516299283213,17
372,REQ_SINF_END,1516299283217,17
372,WS_OPEN_START,1516299283217,18
372,WS_OPEN_END,1516299283220,18
372,REQ_START,1516299283220,19
372,REQ_END,1516299283248,19
372,WS_RECV_START,1516299283248,20
372,WS_RECV_END,1516299283248,20
372,PLAYER_SLEEPBEFORE_START,1516299283248,21
372,PLAYER_SLEEPBEFORE_END,1516299283253,21
372,WS_SEND_START,1516299283253,21
372,WS_SEND_END,1516299283253,21
372,PLAYER_SLEEPBEFORE_START,1516299283253,22
372,PLAYER_SLEEPBEFORE_END,1516299283254,22
372,WS_SEND_START,1516299283254,22
372,WS_SEND_END,1516299283254,22
372,WS_RECV_INIT_START,1516299283254,23
372,WS_RECV_INIT_END,1516299283272,23
372,WS_RECV_START,1516299283272,24
372,WS_RECV_END,1516299283320,24
372,PLAYER_SLEEPBEFORE_START,1516299283320,25
372,PLAYER_SLEEPBEFORE_END,1516299283327,25
372,REQ_START,1516299283327,25
372,REQ_END,1516299283362,25
372,PLAYER_SLEEPBEFORE_START,1516299283362,26
372,PLAYER_SLEEPBEFORE_END,1516299283364,26
372,REQ_START,1516299283364,26
372,REQ_END,1516299283396,26
372,PLAYER_SLEEPBEFORE_START,1516299283396,27
372,PLAYER_SLEEPBEFORE_END,1516299283399,27
372,REQ_START,1516299283399,27
372,REQ_END,1516299283434,27
372,PLAYER_SLEEPBEFORE_START,1516299283434,28
372,PLAYER_SLEEPBEFORE_END,1516299283719,28
372,REQ_START,1516299283719,28
372,REQ_END,1516299283753,28
372,PLAYER_SLEEPBEFORE_START,1516299283753,29
372,PLAYER_SLEEPBEFORE_END,1516299283928,29
372,WS_SEND_START,1516299283928,29
372,WS_SEND_END,1516299283928,29
372,WS_RECV_START,1516299283928,30
372,WS_RECV_END,1516299284036,30
372,PLAYER_SLEEPBEFORE_START,1516299284036,31
372,PLAYER_SLEEPBEFORE_END,1516299284047,31
372,REQ_START,1516299284047,31
372,REQ_END,1516299284088,31
372,PLAYER_SLEEPBEFORE_START,1516299284088,32
372,PLAYER_SLEEPBEFORE_END,1516299312233,32
372,WS_SEND_START,1516299312233,32
372,WS_SEND_END,1516299312233,32
372,WS_RECV_START,1516299312233,33
372,WS_RECV_END,1516299312573,33
372,PLAYER_SLEEPBEFORE_START,1516299312573,34
372,PLAYER_SLEEPBEFORE_END,1516299338485,34
372,WS_SEND_START,1516299338485,34
372,WS_SEND_END,1516299338485,34
372,WS_RECV_START,1516299338485,35
372,WS_RECV_END,1516299338619,35
372,PLAYER_SLEEPBEFORE_START,1516299338619,36
372,PLAYER_SLEEPBEFORE_END,1516299338629,36
372,WS_SEND_START,1516299338629,36
372,WS_SEND_END,1516299338629,36
372,WS_RECV_START,1516299338629,37
372,WS_RECV_END,1516299338692,37
372,PLAYER_SLEEPBEFORE_START,1516299338692,38
372,PLAYER_SLEEPBEFORE_END,1516299341887,38
372,WS_SEND_START,1516299341887,38
372,WS_SEND_END,1516299341887,38
372,WS_RECV_START,1516299341887,39
372,WS_RECV_END,1516299342015,39
372,PLAYER_SLEEPBEFORE_START,1516299342015,40
372,PLAYER_SLEEPBEFORE_END,1516299342061,40
372,WS_SEND_START,1516299342061,40
372,WS_SEND_END,1516299342061,40
372,WS_RECV_START,1516299342061,41
372,WS_RECV_END,1516299342273,41
372,PLAYER_SLEEPBEFORE_START,1516299342273,42
372,PLAYER_SLEEPBEFORE_END,1516299360409,42
372,WS_SEND_START,1516299360409,42
372,WS_SEND_END,1516299360409,42
372,WS_RECV_START,1516299360409,43
372,WS_RECV_END,1516299360453,43
372,PLAYER_SLEEPBEFORE_START,1516299360454,44
372,PLAYER_SLEEPBEFORE_END,1516299360466,44
372,WS_SEND_START,1516299360466,44
372,WS_SEND_END,1516299360466,44
372,WS_RECV_START,1516299360466,45
372,WS_RECV_END,1516299360575,45
372,PLAYER_SLEEPBEFORE_START,1516299360575,46
372,PLAYER_SLEEPBEFORE_END,1516299361836,46
372,WS_SEND_START,1516299361836,46
372,WS_SEND_END,1516299361836,46
372,WS_RECV_START,1516299361836,47
372,WS_RECV_END,1516299361862,47
372,PLAYER_SLEEPBEFORE_START,1516299361862,48
372,PLAYER_SLEEPBEFORE_END,1516299363182,48
372,WS_SEND_START,1516299363182,48
372,WS_SEND_END,1516299363182,48
372,WS_RECV_START,1516299363182,49
372,WS_RECV_END,1516299363292,49
372,PLAYER_SLEEPBEFORE_START,1516299363292,50
372,PLAYER_SLEEPBEFORE_END,1516299363316,50
372,WS_SEND_START,1516299363316,50
372,WS_SEND_END,1516299363316,50
372,WS_RECV_START,1516299363316,51
372,WS_RECV_END,1516299363529,51
372,PLAYER_SLEEPBEFORE_START,1516299363529,52
372,PLAYER_SLEEPBEFORE_END,1516299386093,52
372,WS_SEND_START,1516299386093,52
372,WS_SEND_END,1516299386093,52
372,WS_RECV_START,1516299386093,53
372,WS_RECV_END,1516299386236,53
372,PLAYER_SLEEPBEFORE_START,1516299386236,54
372,PLAYER_SLEEPBEFORE_END,1516299407539,54
372,WS_SEND_START,1516299407539,54
372,WS_SEND_END,1516299407539,54
372,PLAYER_SLEEPBEFORE_START,1516299407539,55
372,PLAYER_SLEEPBEFORE_END,1516299409480,55
372,WS_SEND_START,1516299409480,55
372,WS_SEND_END,1516299409481,55
372,WS_RECV_START,1516299409481,56
372,WS_RECV_END,1516299409601,56
372,PLAYER_SLEEPBEFORE_START,1516299409601,57
372,PLAYER_SLEEPBEFORE_END,1516299432473,57
372,WS_SEND_START,1516299432473,57
372,WS_SEND_END,1516299432473,57
372,WS_RECV_START,1516299432473,58
372,WS_RECV_END,1516299432520,58
372,PLAYER_SLEEPBEFORE_START,1516299432520,59
372,PLAYER_SLEEPBEFORE_END,1516299434847,59
372,WS_SEND_START,1516299434847,59
372,WS_SEND_END,1516299434847,59
372,WS_RECV_START,1516299434847,60
372,WS_RECV_END,1516299434976,60
372,PLAYER_SLEEPBEFORE_START,1516299434976,61
372,PLAYER_SLEEPBEFORE_END,1516299438567,61
372,WS_SEND_START,1516299438567,61
372,WS_SEND_END,1516299438567,61
372,WS_RECV_START,1516299438567,62
372,WS_RECV_END,1516299438807,62
372,PLAYER_SLEEPBEFORE_START,1516299438807,63
372,PLAYER_SLEEPBEFORE_END,1516299458069,63
372,WS_SEND_START,1516299458069,63
372,WS_SEND_END,1516299458069,63
372,WS_RECV_START,1516299458069,64
372,WS_RECV_END,1516299458190,64
372,PLAYER_SLEEPBEFORE_START,1516299458190,65
372,PLAYER_SLEEPBEFORE_END,1516299485009,65
372,WS_SEND_START,1516299485009,65
372,WS_SEND_END,1516299485009,65
372,WS_RECV_START,1516299485009,66
372,WS_RECV_END,1516299485317,66
372,PLAYER_SLEEPBEFORE_START,1516299485317,67
372,PLAYER_SLEEPBEFORE_END,1516299486824,67
372,WS_SEND_START,1516299486824,67
372,WS_SEND_END,1516299486824,67
372,WS_RECV_START,1516299486824,68
372,WS_RECV_END,1516299487160,68
372,PLAYER_SLEEPBEFORE_START,1516299487160,69
372,PLAYER_SLEEPBEFORE_END,1516299509159,69
372,WS_SEND_START,1516299509159,69
372,WS_SEND_END,1516299509159,69
372,WS_RECV_START,1516299509159,70
372,WS_RECV_END,1516299509397,70
372,PLAYER_SLEEPBEFORE_START,1516299509398,71
372,PLAYER_SLEEPBEFORE_END,1516299534173,71
372,WS_SEND_START,1516299534173,71
372,WS_SEND_END,1516299534173,71
372,PLAYER_SLEEPBEFORE_START,1516299534173,72
372,PLAYER_SLEEPBEFORE_END,1516299536780,72
372,WS_SEND_START,1516299536780,72
372,WS_SEND_END,1516299536780,72
372,WS_RECV_START,1516299536780,73
372,WS_RECV_END,1516299538369,73
372,PLAYER_SLEEPBEFORE_START,1516299538369,74
372,PLAYER_SLEEPBEFORE_END,1516299538378,74
372,WS_SEND_START,1516299538378,74
372,WS_SEND_END,1516299538379,74
372,WS_RECV_START,1516299538379,75
372,WS_RECV_END,1516299538797,75
372,PLAYER_SLEEPBEFORE_START,1516299538797,76
372,PLAYER_SLEEPBEFORE_END,1516299540303,76
372,WS_SEND_START,1516299540303,76
372,WS_SEND_END,1516299540303,76
372,WS_RECV_START,1516299540303,77
372,WS_RECV_END,1516299541207,77
372,PLAYER_SLEEPBEFORE_START,1516299541207,78
372,PLAYER_SLEEPBEFORE_END,1516299542075,78
372,WS_SEND_START,1516299542075,78
372,WS_SEND_END,1516299542075,78
372,WS_RECV_START,1516299542075,79
372,WS_RECV_END,1516299542725,79
372,PLAYER_SLEEPBEFORE_START,1516299542725,80
372,PLAYER_SLEEPBEFORE_END,1516299550391,80
372,WS_SEND_START,1516299550391,80
372,WS_SEND_END,1516299550391,80
372,WS_RECV_START,1516299550391,81
372,WS_RECV_END,1516299551099,81
372,PLAYER_SLEEPBEFORE_START,1516299551099,82
372,PLAYER_SLEEPBEFORE_END,1516299552201,82
372,WS_SEND_START,1516299552201,82
372,WS_SEND_END,1516299552201,82
372,WS_RECV_START,1516299552201,83
372,WS_RECV_END,1516299552614,83
372,PLAYER_SLEEPBEFORE_START,1516299552614,84
372,PLAYER_SLEEPBEFORE_END,1516299553562,84
372,WS_SEND_START,1516299553562,84
372,WS_SEND_END,1516299553562,84
372,WS_RECV_START,1516299553562,85
372,WS_RECV_END,1516299553851,85
372,PLAYER_SLEEPBEFORE_START,1516299553851,86
372,PLAYER_SLEEPBEFORE_END,1516299558023,86
372,WS_SEND_START,1516299558023,86
372,WS_SEND_END,1516299558023,86
372,WS_RECV_START,1516299558023,87
372,WS_RECV_END,1516299558757,87
372,PLAYER_SLEEPBEFORE_START,1516299558757,88
372,PLAYER_SLEEPBEFORE_END,1516299558765,88
372,WS_SEND_START,1516299558765,88
372,WS_SEND_END,1516299558766,88
372,WS_RECV_START,1516299558766,89
372,WS_RECV_END,1516299559034,89
372,PLAYER_SLEEPBEFORE_START,1516299559034,90
372,PLAYER_SLEEPBEFORE_END,1516299586231,90
372,REQ_START,1516299586231,90
372,REQ_END,1516299586238,90
372,PLAYER_SLEEPBEFORE_START,1516299586238,91
372,PLAYER_SLEEPBEFORE_END,1516299594127,91
372,WS_SEND_START,1516299594127,91
372,WS_SEND_END,1516299594127,91
372,WS_RECV_START,1516299594127,92
372,WS_RECV_END,1516299594822,92
372,PLAYER_SLEEPBEFORE_START,1516299594822,93
372,PLAYER_SLEEPBEFORE_END,1516299594837,93
372,WS_SEND_START,1516299594837,93
372,WS_SEND_END,1516299594837,93
372,WS_RECV_START,1516299594837,94
372,WS_RECV_END,1516299595285,94
372,PLAYER_SLEEPBEFORE_START,1516299595285,95
372,PLAYER_SLEEPBEFORE_END,1516299618840,95
372,WS_SEND_START,1516299618840,95
372,WS_SEND_END,1516299618840,95
372,WS_RECV_START,1516299618840,96
372,WS_RECV_END,1516299619457,96
372,PLAYER_SLEEPBEFORE_START,1516299619457,97
372,PLAYER_SLEEPBEFORE_END,1516299641897,97
372,WS_SEND_START,1516299641897,97
372,WS_SEND_END,1516299641897,97
372,WS_RECV_START,1516299641897,98
372,WS_RECV_END,1516299642602,98
372,PLAYER_SLEEPBEFORE_START,1516299642602,99
372,PLAYER_SLEEPBEFORE_END,1516299642623,99
372,WS_SEND_START,1516299642623,99
372,WS_SEND_END,1516299642623,99
372,WS_RECV_START,1516299642623,100
372,WS_RECV_END,1516299643626,100
372,PLAYER_SLEEPBEFORE_START,1516299643626,101
372,PLAYER_SLEEPBEFORE_END,1516299667185,101
372,WS_SEND_START,1516299667185,101
372,WS_SEND_END,1516299667185,101
372,WS_RECV_START,1516299667185,102
372,WS_RECV_END,1516299667355,102
372,PLAYER_SLEEPBEFORE_START,1516299667355,103
372,PLAYER_SLEEPBEFORE_END,1516299690980,103
372,WS_SEND_START,1516299690980,103
372,WS_SEND_END,1516299690980,103
372,WS_RECV_START,1516299690980,104
372,WS_RECV_END,1516299691453,104
372,PLAYER_SLEEPBEFORE_START,1516299691453,105
372,PLAYER_SLEEPBEFORE_END,1516299716831,105
372,WS_SEND_START,1516299716831,105
372,WS_SEND_END,1516299716831,105
372,WS_RECV_START,1516299716831,106
372,WS_RECV_END,1516299717617,106
372,PLAYER_SLEEPBEFORE_START,1516299717618,107
372,PLAYER_SLEEPBEFORE_END,1516299741041,107
372,WS_SEND_START,1516299741041,107
372,WS_SEND_END,1516299741041,107
372,WS_RECV_START,1516299741041,108
372,WS_RECV_END,1516299741319,108
372,PLAYER_SLEEPBEFORE_START,1516299741319,109
372,PLAYER_SLEEPBEFORE_END,1516299741328,109
372,WS_SEND_START,1516299741328,109
372,WS_SEND_END,1516299741328,109
372,WS_RECV_START,1516299741328,110
372,WS_RECV_END,1516299741449,110
372,PLAYER_SLEEPBEFORE_START,1516299741449,111
372,PLAYER_SLEEPBEFORE_END,1516299742409,111
372,WS_SEND_START,1516299742409,111
372,WS_SEND_END,1516299742409,111
372,WS_RECV_START,1516299742409,112
372,WS_RECV_END,1516299743004,112
372,PLAYER_SLEEPBEFORE_START,1516299743004,113
372,PLAYER_SLEEPBEFORE_END,1516299743566,113
372,WS_SEND_START,1516299743566,113
372,WS_SEND_END,1516299743566,113
372,WS_RECV_START,1516299743566,114
372,WS_RECV_END,1516299744488,114
372,PLAYER_SLEEPBEFORE_START,1516299744488,115
372,PLAYER_SLEEPBEFORE_END,1516299744497,115
372,WS_SEND_START,1516299744497,115
372,WS_SEND_END,1516299744497,115
372,WS_RECV_START,1516299744497,116
372,WS_RECV_END,1516299744896,116
372,PLAYER_SLEEPBEFORE_START,1516299744896,117
372,PLAYER_SLEEPBEFORE_END,1516299765256,117
372,WS_SEND_START,1516299765256,117
372,WS_SEND_END,1516299765256,117
372,PLAYER_SLEEPBEFORE_START,1516299765256,118
372,PLAYER_SLEEPBEFORE_END,1516299769008,118
372,WS_SEND_START,1516299769008,118
372,WS_SEND_END,1516299769008,118
372,WS_RECV_START,1516299769008,119
372,WS_RECV_END,1516299771017,119
372,PLAYER_SLEEPBEFORE_START,1516299771017,120
372,PLAYER_SLEEPBEFORE_END,1516299772005,120
372,WS_SEND_START,1516299772005,120
372,WS_SEND_END,1516299772005,120
372,WS_RECV_START,1516299772005,121
372,WS_RECV_END,1516299773659,121
372,PLAYER_SLEEPBEFORE_START,1516299773659,122
372,PLAYER_SLEEPBEFORE_END,1516299774844,122
372,WS_SEND_START,1516299774844,122
372,WS_SEND_END,1516299774845,122
372,WS_RECV_START,1516299774845,123
372,WS_RECV_END,1516299775091,123
372,PLAYER_SLEEPBEFORE_START,1516299775091,124
372,PLAYER_SLEEPBEFORE_END,1516299799496,124
372,WS_SEND_START,1516299799496,124
372,WS_SEND_END,1516299799496,124
372,WS_RECV_START,1516299799496,125
372,WS_RECV_END,1516299801319,125
372,PLAYER_SLEEPBEFORE_START,1516299801319,126
372,PLAYER_SLEEPBEFORE_END,1516299821831,126
372,WS_SEND_START,1516299821831,126
372,WS_SEND_END,1516299821831,126
372,PLAYER_SLEEPBEFORE_START,1516299821831,127
372,PLAYER_SLEEPBEFORE_END,1516299824885,127
372,WS_SEND_START,1516299824885,127
372,WS_SEND_END,1516299824885,127
372,WS_RECV_START,1516299824885,128
372,WS_RECV_END,1516299826458,128
372,PLAYER_SLEEPBEFORE_START,1516299826458,129
372,PLAYER_SLEEPBEFORE_END,1516299826478,129
372,WS_SEND_START,1516299826478,129
372,WS_SEND_END,1516299826478,129
372,WS_RECV_START,1516299826478,130
372,WS_RECV_END,1516299827896,130
372,PLAYER_SLEEPBEFORE_START,1516299827896,131
372,PLAYER_SLEEPBEFORE_END,1516299849520,131
372,WS_SEND_START,1516299849520,131
372,WS_SEND_END,1516299849520,131
372,PLAYER_SLEEPBEFORE_START,1516299849520,132
372,PLAYER_SLEEPBEFORE_END,1516299852600,132
372,WS_SEND_START,1516299852600,132
372,WS_SEND_END,1516299852600,132
372,WS_RECV_START,1516299852600,133
372,WS_RECV_END,1516299855257,133
372,PLAYER_SLEEPBEFORE_START,1516299855257,134
372,PLAYER_SLEEPBEFORE_END,1516299876474,134
372,WS_SEND_START,1516299876474,134
372,WS_SEND_END,1516299876474,134
372,PLAYER_SLEEPBEFORE_START,1516299876474,135
372,PLAYER_SLEEPBEFORE_END,1516299879664,135
372,WS_SEND_START,1516299879664,135
372,WS_SEND_END,1516299879664,135
372,WS_RECV_START,1516299879664,136
372,WS_RECV_END,1516299880408,136
372,PLAYER_SLEEPBEFORE_START,1516299880408,137
372,PLAYER_SLEEPBEFORE_END,1516299880416,137
372,WS_SEND_START,1516299880416,137
372,WS_SEND_END,1516299880416,137
372,WS_RECV_START,1516299880416,138
372,WS_RECV_END,1516299881130,138
372,PLAYER_SLEEPBEFORE_START,1516299881130,139
372,PLAYER_SLEEPBEFORE_END,1516299881820,139
372,WS_SEND_START,1516299881820,139
372,WS_SEND_END,1516299881820,139
372,WS_RECV_START,1516299881820,140
372,WS_RECV_END,1516299882553,140
372,PLAYER_SLEEPBEFORE_START,1516299882553,141
372,PLAYER_SLEEPBEFORE_END,1516299883208,141
372,WS_SEND_START,1516299883208,141
372,WS_SEND_END,1516299883208,141
372,WS_RECV_START,1516299883208,142
372,WS_RECV_END,1516299884102,142
372,PLAYER_SLEEPBEFORE_START,1516299884102,143
372,PLAYER_SLEEPBEFORE_END,1516299884160,143
372,WS_SEND_START,1516299884160,143
372,WS_SEND_END,1516299884160,143
372,WS_RECV_START,1516299884160,144
372,WS_RECV_END,1516299885638,144
372,PLAYER_SLEEPBEFORE_START,1516299885638,145
372,PLAYER_SLEEPBEFORE_END,1516299901700,145
372,REQ_START,1516299901700,145
372,REQ_END,1516299901706,145
372,PLAYER_SLEEPBEFORE_START,1516299901706,146
372,PLAYER_SLEEPBEFORE_END,1516299910583,146
372,WS_SEND_START,1516299910583,146
372,WS_SEND_END,1516299910583,146
372,WS_RECV_START,1516299910583,147
372,WS_RECV_END,1516299911948,147
372,PLAYER_SLEEPBEFORE_START,1516299911948,148
372,PLAYER_SLEEPBEFORE_END,1516299933870,148
372,WS_SEND_START,1516299933870,148
372,WS_SEND_END,1516299933870,148
372,PLAYER_SLEEPBEFORE_START,1516299933870,149
372,PLAYER_SLEEPBEFORE_END,1516299936298,149
372,WS_SEND_START,1516299936298,149
372,WS_SEND_END,1516299936298,149
372,WS_RECV_START,1516299936298,150
372,WS_RECV_END,1516299936956,150
372,PLAYER_SLEEPBEFORE_START,1516299936956,151
372,PLAYER_SLEEPBEFORE_END,1516299937166,151
372,WS_SEND_START,1516299937166,151
372,WS_SEND_END,1516299937166,151
372,WS_RECV_START,1516299937166,152
372,WS_RECV_END,1516299937388,152
372,PLAYER_SLEEPBEFORE_START,1516299937388,153
372,PLAYER_SLEEPBEFORE_END,1516299961315,153
372,WS_SEND_START,1516299961315,153
372,WS_SEND_END,1516299961315,153
372,WS_RECV_START,1516299961315,154
372,WS_RECV_END,1516299961559,154
372,PLAYER_SLEEPBEFORE_START,1516299961559,155
372,PLAYER_SLEEPBEFORE_END,1516299984118,155
372,WS_SEND_START,1516299984118,155
372,WS_SEND_END,1516299984118,155
372,PLAYER_SLEEPBEFORE_START,1516299984118,156
372,PLAYER_SLEEPBEFORE_END,1516299987392,156
372,WS_SEND_START,1516299987392,156
372,WS_SEND_END,1516299987392,156
372,WS_RECV_START,1516299987392,157
372,WS_RECV_END,1516299988951,157
372,PLAYER_SLEEPBEFORE_START,1516299988951,158
372,PLAYER_SLEEPBEFORE_END,1516299988962,158
372,WS_SEND_START,1516299988962,158
372,WS_SEND_END,1516299988962,158
372,WS_RECV_START,1516299988962,159
372,WS_RECV_END,1516299989670,159
372,PLAYER_SLEEPBEFORE_START,1516299989670,160
372,PLAYER_SLEEPBEFORE_END,1516299989845,160
372,WS_SEND_START,1516299989845,160
372,WS_SEND_END,1516299989845,160
372,WS_RECV_START,1516299989845,161
372,WS_RECV_END,1516299990764,161
372,PLAYER_SLEEPBEFORE_START,1516299990764,162
372,PLAYER_SLEEPBEFORE_END,1516299990789,162
372,WS_SEND_START,1516299990789,162
372,WS_SEND_END,1516299990789,162
372,WS_RECV_START,1516299990789,163
372,WS_RECV_END,1516299992407,163
372,PLAYER_SLEEPBEFORE_START,1516299992408,164
372,PLAYER_SLEEPBEFORE_END,1516300013220,164
372,WS_SEND_START,1516300013220,164
372,WS_SEND_END,1516300013220,164
372,WS_RECV_START,1516300013220,165
372,WS_RECV_END,1516300014694,165
372,PLAYER_SLEEPBEFORE_START,1516300014694,166
372,PLAYER_SLEEPBEFORE_END,1516300037149,166
372,WS_SEND_START,1516300037149,166
372,WS_SEND_END,1516300037150,166
372,WS_RECV_START,1516300037150,167
372,WS_RECV_END,1516300037316,167
372,PLAYER_SLEEPBEFORE_START,1516300037316,168
372,PLAYER_SLEEPBEFORE_END,1516300064673,168
372,WS_SEND_START,1516300064673,168
372,WS_SEND_END,1516300064673,168
372,WS_RECV_START,1516300064673,169
372,WS_RECV_END,1516300065295,169
372,PLAYER_SLEEPBEFORE_START,1516300065295,170
372,PLAYER_SLEEPBEFORE_END,1516300065304,170
372,WS_SEND_START,1516300065304,170
372,WS_SEND_END,1516300065304,170
372,WS_RECV_START,1516300065304,171
372,WS_RECV_END,1516300065550,171
372,PLAYER_SLEEPBEFORE_START,1516300065550,172
372,PLAYER_SLEEPBEFORE_END,1516300065919,172
372,WS_SEND_START,1516300065919,172
372,WS_SEND_END,1516300065919,172
372,WS_RECV_START,1516300065919,173
372,WS_RECV_END,1516300066187,173
372,PLAYER_SLEEPBEFORE_START,1516300066187,174
372,PLAYER_SLEEPBEFORE_END,1516300066228,174
372,WS_SEND_START,1516300066228,174
372,WS_SEND_END,1516300066228,174
372,WS_RECV_START,1516300066228,175
372,WS_RECV_END,1516300066898,175
372,PLAYER_SLEEPBEFORE_START,1516300066898,176
372,PLAYER_SLEEPBEFORE_END,1516300088659,176
372,WS_SEND_START,1516300088659,176
372,WS_SEND_END,1516300088659,176
372,PLAYER_SLEEPBEFORE_START,1516300088659,177
372,PLAYER_SLEEPBEFORE_END,1516300091177,177
372,WS_SEND_START,1516300091177,177
372,WS_SEND_END,1516300091177,177
372,WS_RECV_START,1516300091177,178
372,WS_RECV_END,1516300091356,178
372,PLAYER_SLEEPBEFORE_START,1516300091356,179
372,PLAYER_SLEEPBEFORE_END,1516300113696,179
372,WS_SEND_START,1516300113696,179
372,WS_SEND_END,1516300113696,179
372,WS_RECV_START,1516300113696,180
372,WS_RECV_END,1516300117089,180
372,PLAYER_SLEEPBEFORE_START,1516300117089,181
372,PLAYER_SLEEPBEFORE_END,1516300117533,181
372,WS_SEND_START,1516300117533,181
372,WS_SEND_END,1516300117533,181
372,WS_RECV_START,1516300117533,182
372,WS_RECV_END,1516300118725,182
372,PLAYER_SLEEPBEFORE_START,1516300118725,183
372,PLAYER_SLEEPBEFORE_END,1516300119248,183
372,WS_SEND_START,1516300119248,183
372,WS_SEND_END,1516300119248,183
372,WS_RECV_START,1516300119248,184
372,WS_RECV_END,1516300121058,184
372,PLAYER_SLEEPBEFORE_START,1516300121058,185
372,PLAYER_SLEEPBEFORE_END,1516300121326,185
372,WS_SEND_START,1516300121326,185
372,WS_SEND_END,1516300121326,185
372,WS_RECV_START,1516300121326,186
372,WS_RECV_END,1516300122626,186
372,PLAYER_SLEEPBEFORE_START,1516300122626,187
372,PLAYER_SLEEPBEFORE_END,1516300145126,187
372,WS_SEND_START,1516300145126,187
372,WS_SEND_END,1516300145126,187
372,WS_RECV_START,1516300145126,188
372,WS_RECV_END,1516300147580,188
372,PLAYER_SLEEPBEFORE_START,1516300147580,189
372,PLAYER_SLEEPBEFORE_END,1516300153819,189
372,WS_SEND_START,1516300153819,189
372,WS_SEND_END,1516300153819,189
372,WS_RECV_START,1516300153819,190
372,WS_RECV_END,1516300158242,190
372,PLAYER_SLEEPBEFORE_START,1516300158242,191
372,PLAYER_SLEEPBEFORE_END,1516300160157,191
372,WS_SEND_START,1516300160157,191
372,WS_SEND_END,1516300160157,191
372,WS_RECV_START,1516300160157,192
372,WS_RECV_END,1516300165517,192
372,PLAYER_SLEEPBEFORE_START,1516300165517,193
372,PLAYER_SLEEPBEFORE_END,1516300165646,193
372,WS_SEND_START,1516300165646,193
372,WS_SEND_END,1516300165646,193
372,WS_RECV_START,1516300165646,194
372,WS_RECV_END,1516300168830,194
372,PLAYER_SLEEPBEFORE_START,1516300168830,195
372,PLAYER_SLEEPBEFORE_END,1516300170585,195
372,WS_SEND_START,1516300170585,195
372,WS_SEND_END,1516300170585,195
372,WS_RECV_START,1516300170585,196
372,WS_RECV_END,1516300173273,196
372,PLAYER_SLEEPBEFORE_START,1516300173273,197
372,PLAYER_SLEEPBEFORE_END,1516300175078,197
372,WS_SEND_START,1516300175078,197
372,WS_SEND_END,1516300175078,197
372,WS_RECV_START,1516300175078,198
372,WS_RECV_END,1516300179094,198
372,PLAYER_SLEEPBEFORE_START,1516300179094,199
372,PLAYER_SLEEPBEFORE_END,1516300190948,199
372,WS_SEND_START,1516300190948,199
372,WS_SEND_END,1516300190948,199
372,PLAYER_SLEEPBEFORE_START,1516300190948,200
372,PLAYER_SLEEPBEFORE_END,1516300195037,200
372,WS_SEND_START,1516300195037,200
372,WS_SEND_END,1516300195037,200
372,WS_RECV_START,1516300195037,201
372,WS_RECV_END,1516300196022,201
372,PLAYER_SLEEPBEFORE_START,1516300196022,202
372,PLAYER_SLEEPBEFORE_END,1516300196036,202
372,WS_SEND_START,1516300196036,202
372,WS_SEND_END,1516300196036,202
372,WS_RECV_START,1516300196036,203
372,WS_RECV_END,1516300198773,203
372,PLAYER_SLEEPBEFORE_START,1516300198773,204
372,PLAYER_SLEEPBEFORE_END,1516300218422,204
372,WS_SEND_START,1516300218422,204
372,WS_SEND_END,1516300218422,204
372,PLAYER_SLEEPBEFORE_START,1516300218422,205
372,PLAYER_SLEEPBEFORE_END,1516300222320,205
372,WS_SEND_START,1516300222320,205
372,WS_SEND_END,1516300222320,205
372,WS_RECV_START,1516300222320,206
372,WS_RECV_END,1516300223692,206
372,PLAYER_SLEEPBEFORE_START,1516300223692,207
372,PLAYER_SLEEPBEFORE_END,1516300240623,207
372,REQ_START,1516300240623,207
372,REQ_END,1516300240629,207
372,PLAYER_SLEEPBEFORE_START,1516300240629,208
372,PLAYER_SLEEPBEFORE_END,1516300247481,208
372,WS_CLOSE_START,1516300247481,208
372,WS_CLOSE_END,1516300247481,208
372,PLAYER_DONE,1516300247481
