# --sessions 2700 --app-url=http://shinyloadtest.rstudioservices.com/cran_explorer --output-dir test2700 --overwrite-output --log-level warn --start-interval 100 15min.log
thread_id,event,timestamp,input_line_number,comment
5,PLAYER_SESSION_CREATE,1516299245234
5,PLAYER_START_INTERVAL_START,1516299245234
5,PLAYER_START_INTERVAL_END,1516299245734
5,REQ_HOME_START,1516299245734,2
5,REQ_HOME_END,1516299246000,2
5,REQ_START,1516299246000,3
5,REQ_END,1516299246141,3
5,REQ_START,1516299246141,4
5,REQ_END,1516299246238,4
5,REQ_START,1516299246238,5
5,REQ_END,1516299246285,5
5,REQ_START,1516299246285,6
5,REQ_END,1516299246354,6
5,REQ_START,1516299246354,7
5,REQ_END,1516299246393,7
5,REQ_START,1516299246393,8
5,REQ_END,1516299246477,8
5,REQ_START,1516299246477,9
5,REQ_END,1516299246521,9
5,REQ_START,1516299246521,10
5,REQ_END,1516299246531,10
5,REQ_START,1516299246531,11
5,REQ_END,1516299246588,11
5,REQ_START,1516299246588,12
5,REQ_END,1516299246607,12
5,REQ_START,1516299246607,13
5,REQ_END,1516299246677,13
5,REQ_START,1516299246678,14
5,REQ_END,1516299246716,14
5,REQ_START,1516299246716,15
5,REQ_END,1516299246772,15
5,REQ_TOK_START,1516299246772,16
5,REQ_TOK_END,1516299246802,16
5,REQ_SINF_START,1516299246802,17
5,REQ_SINF_END,1516299246822,17
5,WS_OPEN_START,1516299246822,18
5,WS_OPEN_END,1516299246834,18
5,REQ_START,1516299246834,19
5,REQ_END,1516299246929,19
5,WS_RECV_START,1516299246930,20
5,WS_RECV_END,1516299246930,20
5,PLAYER_SLEEPBEFORE_START,1516299246931,21
5,PLAYER_SLEEPBEFORE_END,1516299246943,21
5,WS_SEND_START,1516299246943,21
5,WS_SEND_END,1516299246944,21
5,PLAYER_SLEEPBEFORE_START,1516299246944,22
5,PLAYER_SLEEPBEFORE_END,1516299246946,22
5,WS_SEND_START,1516299246946,22
5,WS_SEND_END,1516299246955,22
5,WS_RECV_INIT_START,1516299246955,23
5,WS_RECV_INIT_END,1516299247058,23
5,WS_RECV_START,1516299247058,24
5,WS_RECV_END,1516299247297,24
5,PLAYER_SLEEPBEFORE_START,1516299247297,25
5,PLAYER_SLEEPBEFORE_END,1516299247304,25
5,REQ_START,1516299247304,25
5,REQ_END,1516299247346,25
5,PLAYER_SLEEPBEFORE_START,1516299247346,26
5,PLAYER_SLEEPBEFORE_END,1516299247347,26
5,REQ_START,1516299247347,26
5,REQ_END,1516299247381,26
5,PLAYER_SLEEPBEFORE_START,1516299247381,27
5,PLAYER_SLEEPBEFORE_END,1516299247384,27
5,REQ_START,1516299247384,27
5,REQ_END,1516299247433,27
5,PLAYER_SLEEPBEFORE_START,1516299247433,28
5,PLAYER_SLEEPBEFORE_END,1516299247718,28
5,REQ_START,1516299247718,28
5,REQ_END,1516299247776,28
5,PLAYER_SLEEPBEFORE_START,1516299247776,29
5,PLAYER_SLEEPBEFORE_END,1516299247951,29
5,WS_SEND_START,1516299247951,29
5,WS_SEND_END,1516299247951,29
5,WS_RECV_START,1516299247951,30
5,WS_RECV_END,1516299248678,30
5,PLAYER_SLEEPBEFORE_START,1516299248678,31
5,PLAYER_SLEEPBEFORE_END,1516299248690,31
5,REQ_START,1516299248690,31
5,REQ_END,1516299248738,31
5,PLAYER_SLEEPBEFORE_START,1516299248738,32
5,PLAYER_SLEEPBEFORE_END,1516299276884,32
5,WS_SEND_START,1516299276884,32
5,WS_SEND_END,1516299276884,32
5,WS_RECV_START,1516299276884,33
5,WS_RECV_END,1516299276958,33
5,PLAYER_SLEEPBEFORE_START,1516299276958,34
5,PLAYER_SLEEPBEFORE_END,1516299302870,34
5,WS_SEND_START,1516299302870,34
5,WS_SEND_END,1516299302870,34
5,WS_RECV_START,1516299302870,35
5,WS_RECV_END,1516299302920,35
5,PLAYER_SLEEPBEFORE_START,1516299302920,36
5,PLAYER_SLEEPBEFORE_END,1516299302929,36
5,WS_SEND_START,1516299302929,36
5,WS_SEND_END,1516299302929,36
5,WS_RECV_START,1516299302929,37
5,WS_RECV_END,1516299302993,37
5,PLAYER_SLEEPBEFORE_START,1516299302993,38
5,PLAYER_SLEEPBEFORE_END,1516299306189,38
5,WS_SEND_START,1516299306189,38
5,WS_SEND_END,1516299306189,38
5,WS_RECV_START,1516299306189,39
5,WS_RECV_END,1516299309932,39
5,PLAYER_SLEEPBEFORE_START,1516299309932,40
5,PLAYER_SLEEPBEFORE_END,1516299309978,40
5,WS_SEND_START,1516299309978,40
5,WS_SEND_END,1516299309978,40
5,WS_RECV_START,1516299309978,41
5,WS_RECV_END,1516299310460,41
5,PLAYER_SLEEPBEFORE_START,1516299310460,42
5,PLAYER_SLEEPBEFORE_END,1516299328595,42
5,WS_SEND_START,1516299328595,42
5,WS_SEND_END,1516299328595,42
5,WS_RECV_START,1516299328595,43
5,WS_RECV_END,1516299328632,43
5,PLAYER_SLEEPBEFORE_START,1516299328632,44
5,PLAYER_SLEEPBEFORE_END,1516299328644,44
5,WS_SEND_START,1516299328644,44
5,WS_SEND_END,1516299328644,44
5,WS_RECV_START,1516299328644,45
5,WS_RECV_END,1516299328685,45
5,PLAYER_SLEEPBEFORE_START,1516299328685,46
5,PLAYER_SLEEPBEFORE_END,1516299329945,46
5,WS_SEND_START,1516299329945,46
5,WS_SEND_END,1516299329945,46
5,WS_RECV_START,1516299329945,47
5,WS_RECV_END,1516299329980,47
5,PLAYER_SLEEPBEFORE_START,1516299329980,48
5,PLAYER_SLEEPBEFORE_END,1516299331300,48
5,WS_SEND_START,1516299331300,48
5,WS_SEND_END,1516299331300,48
5,WS_RECV_START,1516299331300,49
5,WS_RECV_END,1516299334513,49
5,PLAYER_SLEEPBEFORE_START,1516299334513,50
5,PLAYER_SLEEPBEFORE_END,1516299334537,50
5,WS_SEND_START,1516299334537,50
5,WS_SEND_END,1516299334537,50
5,WS_RECV_START,1516299334537,51
5,WS_RECV_END,1516299335181,51
5,PLAYER_SLEEPBEFORE_START,1516299335181,52
5,PLAYER_SLEEPBEFORE_END,1516299357745,52
5,WS_SEND_START,1516299357745,52
5,WS_SEND_END,1516299357745,52
5,WS_RECV_START,1516299357745,53
5,WS_RECV_END,1516299357906,53
5,PLAYER_SLEEPBEFORE_START,1516299357907,54
5,PLAYER_SLEEPBEFORE_END,1516299379210,54
5,WS_SEND_START,1516299379210,54
5,WS_SEND_END,1516299379210,54
5,PLAYER_SLEEPBEFORE_START,1516299379210,55
5,PLAYER_SLEEPBEFORE_END,1516299381151,55
5,WS_SEND_START,1516299381151,55
5,WS_SEND_END,1516299381151,55
5,WS_RECV_START,1516299381151,56
5,WS_RECV_END,1516299381195,56
5,PLAYER_SLEEPBEFORE_START,1516299381195,57
5,PLAYER_SLEEPBEFORE_END,1516299404067,57
5,WS_SEND_START,1516299404067,57
5,WS_SEND_END,1516299404067,57
5,WS_RECV_START,1516299404067,58
5,WS_RECV_END,1516299404134,58
5,PLAYER_SLEEPBEFORE_START,1516299404134,59
5,PLAYER_SLEEPBEFORE_END,1516299406461,59
5,WS_SEND_START,1516299406461,59
5,WS_SEND_END,1516299406462,59
5,WS_RECV_START,1516299406462,60
5,WS_RECV_END,1516299406598,60
5,PLAYER_SLEEPBEFORE_START,1516299406598,61
5,PLAYER_SLEEPBEFORE_END,1516299410189,61
5,WS_SEND_START,1516299410189,61
5,WS_SEND_END,1516299410189,61
5,WS_RECV_START,1516299410189,62
5,WS_RECV_END,1516299410328,62
5,PLAYER_SLEEPBEFORE_START,1516299410328,63
5,PLAYER_SLEEPBEFORE_END,1516299429590,63
5,WS_SEND_START,1516299429590,63
5,WS_SEND_END,1516299429591,63
5,WS_RECV_START,1516299429591,64
5,WS_RECV_END,1516299429721,64
5,PLAYER_SLEEPBEFORE_START,1516299429721,65
5,PLAYER_SLEEPBEFORE_END,1516299456538,65
5,WS_SEND_START,1516299456538,65
5,WS_SEND_END,1516299456538,65
5,WS_RECV_START,1516299456538,66
5,WS_RECV_END,1516299456734,66
5,PLAYER_SLEEPBEFORE_START,1516299456734,67
5,PLAYER_SLEEPBEFORE_END,1516299458241,67
5,WS_SEND_START,1516299458241,67
5,WS_SEND_END,1516299458241,67
5,WS_RECV_START,1516299458241,68
5,WS_RECV_END,1516299458343,68
5,PLAYER_SLEEPBEFORE_START,1516299458343,69
5,PLAYER_SLEEPBEFORE_END,1516299480341,69
5,WS_SEND_START,1516299480341,69
5,WS_SEND_END,1516299480341,69
5,WS_RECV_START,1516299480341,70
5,WS_RECV_END,1516299480517,70
5,PLAYER_SLEEPBEFORE_START,1516299480517,71
5,PLAYER_SLEEPBEFORE_END,1516299505292,71
5,WS_SEND_START,1516299505292,71
5,WS_SEND_END,1516299505292,71
5,PLAYER_SLEEPBEFORE_START,1516299505292,72
5,PLAYER_SLEEPBEFORE_END,1516299507899,72
5,WS_SEND_START,1516299507899,72
5,WS_SEND_END,1516299507899,72
5,WS_RECV_START,1516299507899,73
5,WS_RECV_END,1516299508325,73
5,PLAYER_SLEEPBEFORE_START,1516299508325,74
5,PLAYER_SLEEPBEFORE_END,1516299508334,74
5,WS_SEND_START,1516299508334,74
5,WS_SEND_END,1516299508334,74
5,WS_RECV_START,1516299508334,75
5,WS_RECV_END,1516299508589,75
5,PLAYER_SLEEPBEFORE_START,1516299508589,76
5,PLAYER_SLEEPBEFORE_END,1516299510095,76
5,WS_SEND_START,1516299510095,76
5,WS_SEND_END,1516299510095,76
5,WS_RECV_START,1516299510095,77
5,WS_RECV_END,1516299510440,77
5,PLAYER_SLEEPBEFORE_START,1516299510440,78
5,PLAYER_SLEEPBEFORE_END,1516299511308,78
5,WS_SEND_START,1516299511308,78
5,WS_SEND_END,1516299511308,78
5,WS_RECV_START,1516299511308,79
5,WS_RECV_END,1516299511773,79
5,PLAYER_SLEEPBEFORE_START,1516299511773,80
5,PLAYER_SLEEPBEFORE_END,1516299519440,80
5,WS_SEND_START,1516299519440,80
5,WS_SEND_END,1516299519440,80
5,WS_RECV_START,1516299519440,81
5,WS_RECV_END,1516299519727,81
5,PLAYER_SLEEPBEFORE_START,1516299519727,82
5,PLAYER_SLEEPBEFORE_END,1516299520829,82
5,WS_SEND_START,1516299520829,82
5,WS_SEND_END,1516299520829,82
5,WS_RECV_START,1516299520829,83
5,WS_RECV_END,1516299520939,83
5,PLAYER_SLEEPBEFORE_START,1516299520939,84
5,PLAYER_SLEEPBEFORE_END,1516299521887,84
5,WS_SEND_START,1516299521887,84
5,WS_SEND_END,1516299521887,84
5,WS_RECV_START,1516299521887,85
5,WS_RECV_END,1516299522456,85
5,PLAYER_SLEEPBEFORE_START,1516299522456,86
5,PLAYER_SLEEPBEFORE_END,1516299526628,86
5,WS_SEND_START,1516299526628,86
5,WS_SEND_END,1516299526629,86
5,WS_RECV_START,1516299526629,87
5,WS_RECV_END,1516299527256,87
5,PLAYER_SLEEPBEFORE_START,1516299527256,88
5,PLAYER_SLEEPBEFORE_END,1516299527265,88
5,WS_SEND_START,1516299527265,88
5,WS_SEND_END,1516299527265,88
5,WS_RECV_START,1516299527265,89
5,WS_RECV_END,1516299527501,89
5,PLAYER_SLEEPBEFORE_START,1516299527501,90
5,PLAYER_SLEEPBEFORE_END,1516299554698,90
5,REQ_START,1516299554698,90
5,REQ_END,1516299554705,90
5,PLAYER_SLEEPBEFORE_START,1516299554705,91
5,PLAYER_SLEEPBEFORE_END,1516299562594,91
5,WS_SEND_START,1516299562594,91
5,WS_SEND_END,1516299562594,91
5,WS_RECV_START,1516299562594,92
5,WS_RECV_END,1516299563644,92
5,PLAYER_SLEEPBEFORE_START,1516299563644,93
5,PLAYER_SLEEPBEFORE_END,1516299563659,93
5,WS_SEND_START,1516299563659,93
5,WS_SEND_END,1516299563659,93
5,WS_RECV_START,1516299563659,94
5,WS_RECV_END,1516299563880,94
5,PLAYER_SLEEPBEFORE_START,1516299563880,95
5,PLAYER_SLEEPBEFORE_END,1516299587435,95
5,WS_SEND_START,1516299587435,95
5,WS_SEND_END,1516299587435,95
5,WS_RECV_START,1516299587435,96
5,WS_RECV_END,1516299587818,96
5,PLAYER_SLEEPBEFORE_START,1516299587818,97
5,PLAYER_SLEEPBEFORE_END,1516299610259,97
5,WS_SEND_START,1516299610259,97
5,WS_SEND_END,1516299610259,97
5,WS_RECV_START,1516299610259,98
5,WS_RECV_END,1516299611234,98
5,PLAYER_SLEEPBEFORE_START,1516299611234,99
5,PLAYER_SLEEPBEFORE_END,1516299611255,99
5,WS_SEND_START,1516299611255,99
5,WS_SEND_END,1516299611255,99
5,WS_RECV_START,1516299611255,100
5,WS_RECV_END,1516299612754,100
5,PLAYER_SLEEPBEFORE_START,1516299612754,101
5,PLAYER_SLEEPBEFORE_END,1516299636314,101
5,WS_SEND_START,1516299636314,101
5,WS_SEND_END,1516299636314,101
5,WS_RECV_START,1516299636314,102
5,WS_RECV_END,1516299636570,102
5,PLAYER_SLEEPBEFORE_START,1516299636570,103
5,PLAYER_SLEEPBEFORE_END,1516299660195,103
5,WS_SEND_START,1516299660195,103
5,WS_SEND_END,1516299660195,103
5,WS_RECV_START,1516299660195,104
5,WS_RECV_END,1516299661142,104
5,PLAYER_SLEEPBEFORE_START,1516299661142,105
5,PLAYER_SLEEPBEFORE_END,1516299686519,105
5,WS_SEND_START,1516299686519,105
5,WS_SEND_END,1516299686519,105
5,WS_RECV_START,1516299686519,106
5,WS_RECV_END,1516299686764,106
5,PLAYER_SLEEPBEFORE_START,1516299686764,107
5,PLAYER_SLEEPBEFORE_END,1516299710187,107
5,WS_SEND_START,1516299710187,107
5,WS_SEND_END,1516299710187,107
5,WS_RECV_START,1516299710187,108
5,WS_RECV_END,1516299710360,108
5,PLAYER_SLEEPBEFORE_START,1516299710360,109
5,PLAYER_SLEEPBEFORE_END,1516299710370,109
5,WS_SEND_START,1516299710370,109
5,WS_SEND_END,1516299710370,109
5,WS_RECV_START,1516299710370,110
5,WS_RECV_END,1516299710473,110
5,PLAYER_SLEEPBEFORE_START,1516299710474,111
5,PLAYER_SLEEPBEFORE_END,1516299711433,111
5,WS_SEND_START,1516299711433,111
5,WS_SEND_END,1516299711433,111
5,WS_RECV_START,1516299711433,112
5,WS_RECV_END,1516299711639,112
5,PLAYER_SLEEPBEFORE_START,1516299711639,113
5,PLAYER_SLEEPBEFORE_END,1516299712201,113
5,WS_SEND_START,1516299712201,113
5,WS_SEND_END,1516299712201,113
5,WS_RECV_START,1516299712201,114
5,WS_RECV_END,1516299713208,114
5,PLAYER_SLEEPBEFORE_START,1516299713208,115
5,PLAYER_SLEEPBEFORE_END,1516299713218,115
5,WS_SEND_START,1516299713218,115
5,WS_SEND_END,1516299713218,115
5,WS_RECV_START,1516299713218,116
5,WS_RECV_END,1516299713766,116
5,PLAYER_SLEEPBEFORE_START,1516299713766,117
5,PLAYER_SLEEPBEFORE_END,1516299734126,117
5,WS_SEND_START,1516299734126,117
5,WS_SEND_END,1516299734127,117
5,PLAYER_SLEEPBEFORE_START,1516299734127,118
5,PLAYER_SLEEPBEFORE_END,1516299737879,118
5,WS_SEND_START,1516299737879,118
5,WS_SEND_END,1516299737879,118
5,WS_RECV_START,1516299737879,119
5,WS_RECV_END,1516299738336,119
5,PLAYER_SLEEPBEFORE_START,1516299738336,120
5,PLAYER_SLEEPBEFORE_END,1516299739324,120
5,WS_SEND_START,1516299739324,120
5,WS_SEND_END,1516299739324,120
5,WS_RECV_START,1516299739324,121
5,WS_RECV_END,1516299739928,121
5,PLAYER_SLEEPBEFORE_START,1516299739928,122
5,PLAYER_SLEEPBEFORE_END,1516299741113,122
5,WS_SEND_START,1516299741113,122
5,WS_SEND_END,1516299741113,122
5,WS_RECV_START,1516299741113,123
5,WS_RECV_END,1516299741794,123
5,PLAYER_SLEEPBEFORE_START,1516299741794,124
5,PLAYER_SLEEPBEFORE_END,1516299766199,124
5,WS_SEND_START,1516299766199,124
5,WS_SEND_END,1516299766199,124
5,WS_RECV_START,1516299766199,125
5,WS_RECV_END,1516299766588,125
5,PLAYER_SLEEPBEFORE_START,1516299766588,126
5,PLAYER_SLEEPBEFORE_END,1516299787100,126
5,WS_SEND_START,1516299787100,126
5,WS_SEND_END,1516299787100,126
5,PLAYER_SLEEPBEFORE_START,1516299787100,127
5,PLAYER_SLEEPBEFORE_END,1516299790154,127
5,WS_SEND_START,1516299790154,127
5,WS_SEND_END,1516299790154,127
5,WS_RECV_START,1516299790154,128
5,WS_RECV_END,1516299792024,128
5,PLAYER_SLEEPBEFORE_START,1516299792024,129
5,PLAYER_SLEEPBEFORE_END,1516299792044,129
5,WS_SEND_START,1516299792044,129
5,WS_SEND_END,1516299792044,129
5,WS_RECV_START,1516299792044,130
5,WS_RECV_END,1516299793613,130
5,PLAYER_SLEEPBEFORE_START,1516299793613,131
5,PLAYER_SLEEPBEFORE_END,1516299815237,131
5,WS_SEND_START,1516299815237,131
5,WS_SEND_END,1516299815237,131
5,PLAYER_SLEEPBEFORE_START,1516299815237,132
5,PLAYER_SLEEPBEFORE_END,1516299818317,132
5,WS_SEND_START,1516299818317,132
5,WS_SEND_END,1516299818317,132
5,WS_RECV_START,1516299818317,133
5,WS_RECV_END,1516299819096,133
5,PLAYER_SLEEPBEFORE_START,1516299819096,134
5,PLAYER_SLEEPBEFORE_END,1516299840313,134
5,WS_SEND_START,1516299840313,134
5,WS_SEND_END,1516299840313,134
5,PLAYER_SLEEPBEFORE_START,1516299840313,135
5,PLAYER_SLEEPBEFORE_END,1516299843503,135
5,WS_SEND_START,1516299843503,135
5,WS_SEND_END,1516299843503,135
5,WS_RECV_START,1516299843503,136
5,WS_RECV_END,1516299844220,136
5,PLAYER_SLEEPBEFORE_START,1516299844220,137
5,PLAYER_SLEEPBEFORE_END,1516299844227,137
5,WS_SEND_START,1516299844227,137
5,WS_SEND_END,1516299844227,137
5,WS_RECV_START,1516299844227,138
5,WS_RECV_END,1516299844658,138
5,PLAYER_SLEEPBEFORE_START,1516299844658,139
5,PLAYER_SLEEPBEFORE_END,1516299845348,139
5,WS_SEND_START,1516299845348,139
5,WS_SEND_END,1516299845348,139
5,WS_RECV_START,1516299845348,140
5,WS_RECV_END,1516299845628,140
5,PLAYER_SLEEPBEFORE_START,1516299845628,141
5,PLAYER_SLEEPBEFORE_END,1516299846283,141
5,WS_SEND_START,1516299846283,141
5,WS_SEND_END,1516299846283,141
5,WS_RECV_START,1516299846283,142
5,WS_RECV_END,1516299848647,142
5,PLAYER_SLEEPBEFORE_START,1516299848647,143
5,PLAYER_SLEEPBEFORE_END,1516299848704,143
5,WS_SEND_START,1516299848704,143
5,WS_SEND_END,1516299848704,143
5,WS_RECV_START,1516299848704,144
5,WS_RECV_END,1516299851962,144
5,PLAYER_SLEEPBEFORE_START,1516299851962,145
5,PLAYER_SLEEPBEFORE_END,1516299868024,145
5,REQ_START,1516299868024,145
5,REQ_END,1516299868036,145
5,PLAYER_SLEEPBEFORE_START,1516299868036,146
5,PLAYER_SLEEPBEFORE_END,1516299876913,146
5,WS_SEND_START,1516299876913,146
5,WS_SEND_END,1516299876913,146
5,WS_RECV_START,1516299876913,147
5,WS_RECV_END,1516299878290,147
5,PLAYER_SLEEPBEFORE_START,1516299878290,148
5,PLAYER_SLEEPBEFORE_END,1516299900212,148
5,WS_SEND_START,1516299900212,148
5,WS_SEND_END,1516299900212,148
5,PLAYER_SLEEPBEFORE_START,1516299900212,149
5,PLAYER_SLEEPBEFORE_END,1516299902641,149
5,WS_SEND_START,1516299902641,149
5,WS_SEND_END,1516299902641,149
5,WS_RECV_START,1516299902641,150
5,WS_RECV_END,1516299902740,150
5,PLAYER_SLEEPBEFORE_START,1516299902741,151
5,PLAYER_SLEEPBEFORE_END,1516299902951,151
5,WS_SEND_START,1516299902951,151
5,WS_SEND_END,1516299902951,151
5,WS_RECV_START,1516299902951,152
5,WS_RECV_END,1516299903240,152
5,PLAYER_SLEEPBEFORE_START,1516299903240,153
5,PLAYER_SLEEPBEFORE_END,1516299927167,153
5,WS_SEND_START,1516299927167,153
5,WS_SEND_END,1516299927167,153
5,WS_RECV_START,1516299927167,154
5,WS_RECV_END,1516299928638,154
5,PLAYER_SLEEPBEFORE_START,1516299928638,155
5,PLAYER_SLEEPBEFORE_END,1516299951196,155
5,WS_SEND_START,1516299951196,155
5,WS_SEND_END,1516299951196,155
5,PLAYER_SLEEPBEFORE_START,1516299951196,156
5,PLAYER_SLEEPBEFORE_END,1516299954470,156
5,WS_SEND_START,1516299954470,156
5,WS_SEND_END,1516299954470,156
5,WS_RECV_START,1516299954470,157
5,WS_RECV_END,1516299955240,157
5,PLAYER_SLEEPBEFORE_START,1516299955240,158
5,PLAYER_SLEEPBEFORE_END,1516299955250,158
5,WS_SEND_START,1516299955250,158
5,WS_SEND_END,1516299955250,158
5,WS_RECV_START,1516299955250,159
5,WS_RECV_END,1516299955706,159
5,PLAYER_SLEEPBEFORE_START,1516299955706,160
5,PLAYER_SLEEPBEFORE_END,1516299955881,160
5,WS_SEND_START,1516299955881,160
5,WS_SEND_END,1516299955882,160
5,WS_RECV_START,1516299955882,161
5,WS_RECV_END,1516299956102,161
5,PLAYER_SLEEPBEFORE_START,1516299956102,162
5,PLAYER_SLEEPBEFORE_END,1516299956127,162
5,WS_SEND_START,1516299956127,162
5,WS_SEND_END,1516299956127,162
5,WS_RECV_START,1516299956127,163
5,WS_RECV_END,1516299957029,163
5,PLAYER_SLEEPBEFORE_START,1516299957029,164
5,PLAYER_SLEEPBEFORE_END,1516299977841,164
5,WS_SEND_START,1516299977841,164
5,WS_SEND_END,1516299977841,164
5,WS_RECV_START,1516299977841,165
5,WS_RECV_END,1516299979352,165
5,PLAYER_SLEEPBEFORE_START,1516299979352,166
5,PLAYER_SLEEPBEFORE_END,1516300001807,166
5,WS_SEND_START,1516300001807,166
5,WS_SEND_END,1516300001807,166
5,WS_RECV_START,1516300001807,167
5,WS_RECV_END,1516300002678,167
5,PLAYER_SLEEPBEFORE_START,1516300002678,168
5,PLAYER_SLEEPBEFORE_END,1516300030036,168
5,WS_SEND_START,1516300030036,168
5,WS_SEND_END,1516300030036,168
5,WS_RECV_START,1516300030036,169
5,WS_RECV_END,1516300031536,169
5,PLAYER_SLEEPBEFORE_START,1516300031536,170
5,PLAYER_SLEEPBEFORE_END,1516300031545,170
5,WS_SEND_START,1516300031545,170
5,WS_SEND_END,1516300031545,170
5,WS_RECV_START,1516300031545,171
5,WS_RECV_END,1516300032382,171
5,PLAYER_SLEEPBEFORE_START,1516300032382,172
5,PLAYER_SLEEPBEFORE_END,1516300032752,172
5,WS_SEND_START,1516300032752,172
5,WS_SEND_END,1516300032752,172
5,WS_RECV_START,1516300032752,173
5,WS_RECV_END,1516300033018,173
5,PLAYER_SLEEPBEFORE_START,1516300033018,174
5,PLAYER_SLEEPBEFORE_END,1516300033059,174
5,WS_SEND_START,1516300033059,174
5,WS_SEND_END,1516300033059,174
5,WS_RECV_START,1516300033059,175
5,WS_RECV_END,1516300033269,175
5,PLAYER_SLEEPBEFORE_START,1516300033269,176
5,PLAYER_SLEEPBEFORE_END,1516300055030,176
5,WS_SEND_START,1516300055030,176
5,WS_SEND_END,1516300055030,176
5,PLAYER_SLEEPBEFORE_START,1516300055030,177
5,PLAYER_SLEEPBEFORE_END,1516300057548,177
5,WS_SEND_START,1516300057548,177
5,WS_SEND_END,1516300057548,177
5,WS_RECV_START,1516300057548,178
5,WS_RECV_END,1516300057878,178
5,PLAYER_SLEEPBEFORE_START,1516300057878,179
5,PLAYER_SLEEPBEFORE_END,1516300080218,179
5,WS_SEND_START,1516300080218,179
5,WS_SEND_END,1516300080218,179
5,WS_RECV_START,1516300080218,180
5,WS_RECV_END,1516300080363,180
5,PLAYER_SLEEPBEFORE_START,1516300080363,181
5,PLAYER_SLEEPBEFORE_END,1516300080807,181
5,WS_SEND_START,1516300080807,181
5,WS_SEND_END,1516300080807,181
5,WS_RECV_START,1516300080807,182
5,WS_RECV_END,1516300081126,182
5,PLAYER_SLEEPBEFORE_START,1516300081126,183
5,PLAYER_SLEEPBEFORE_END,1516300081649,183
5,WS_SEND_START,1516300081649,183
5,WS_SEND_END,1516300081649,183
5,WS_RECV_START,1516300081649,184
5,WS_RECV_END,1516300082704,184
5,PLAYER_SLEEPBEFORE_START,1516300082704,185
5,PLAYER_SLEEPBEFORE_END,1516300082972,185
5,WS_SEND_START,1516300082972,185
5,WS_SEND_END,1516300082972,185
5,WS_RECV_START,1516300082972,186
5,WS_RECV_END,1516300083985,186
5,PLAYER_SLEEPBEFORE_START,1516300083985,187
5,PLAYER_SLEEPBEFORE_END,1516300106485,187
5,WS_SEND_START,1516300106485,187
5,WS_SEND_END,1516300106485,187
5,WS_RECV_START,1516300106485,188
5,WS_RECV_END,1516300107374,188
5,PLAYER_SLEEPBEFORE_START,1516300107374,189
5,PLAYER_SLEEPBEFORE_END,1516300113613,189
5,WS_SEND_START,1516300113613,189
5,WS_SEND_END,1516300113613,189
5,WS_RECV_START,1516300113613,190
5,WS_RECV_END,1516300115145,190
5,PLAYER_SLEEPBEFORE_START,1516300115145,191
5,PLAYER_SLEEPBEFORE_END,1516300117060,191
5,WS_SEND_START,1516300117060,191
5,WS_SEND_END,1516300117060,191
5,WS_RECV_START,1516300117060,192
5,WS_RECV_END,1516300119071,192
5,PLAYER_SLEEPBEFORE_START,1516300119071,193
5,PLAYER_SLEEPBEFORE_END,1516300119199,193
5,WS_SEND_START,1516300119199,193
5,WS_SEND_END,1516300119199,193
5,WS_RECV_START,1516300119199,194
5,WS_RECV_END,1516300122146,194
5,PLAYER_SLEEPBEFORE_START,1516300122146,195
5,PLAYER_SLEEPBEFORE_END,1516300123901,195
5,WS_SEND_START,1516300123901,195
5,WS_SEND_END,1516300123901,195
5,WS_RECV_START,1516300123901,196
5,WS_RECV_END,1516300127404,196
5,PLAYER_SLEEPBEFORE_START,1516300127404,197
5,PLAYER_SLEEPBEFORE_END,1516300129208,197
5,WS_SEND_START,1516300129208,197
5,WS_SEND_END,1516300129208,197
5,WS_RECV_START,1516300129208,198
5,WS_RECV_END,1516300134565,198
5,PLAYER_SLEEPBEFORE_START,1516300134565,199
5,PLAYER_SLEEPBEFORE_END,1516300146419,199
5,WS_SEND_START,1516300146419,199
5,WS_SEND_END,1516300146419,199
5,PLAYER_SLEEPBEFORE_START,1516300146419,200
5,PLAYER_SLEEPBEFORE_END,1516300150507,200
5,WS_SEND_START,1516300150507,200
5,WS_SEND_END,1516300150507,200
5,WS_RECV_START,1516300150507,201
5,WS_RECV_END,1516300152694,201
5,PLAYER_SLEEPBEFORE_START,1516300152694,202
5,PLAYER_SLEEPBEFORE_END,1516300152709,202
5,WS_SEND_START,1516300152709,202
5,WS_SEND_END,1516300152709,202
5,WS_RECV_START,1516300152709,203
5,WS_RECV_END,1516300156415,203
5,PLAYER_SLEEPBEFORE_START,1516300156415,204
5,PLAYER_SLEEPBEFORE_END,1516300176064,204
5,WS_SEND_START,1516300176064,204
5,WS_SEND_END,1516300176064,204
5,PLAYER_SLEEPBEFORE_START,1516300176064,205
5,PLAYER_SLEEPBEFORE_END,1516300179962,205
5,WS_SEND_START,1516300179962,205
5,WS_SEND_END,1516300179962,205
5,WS_RECV_START,1516300179962,206
5,WS_RECV_END,1516300183044,206
5,PLAYER_SLEEPBEFORE_START,1516300183044,207
5,PLAYER_SLEEPBEFORE_END,1516300199976,207
5,REQ_START,1516300199976,207
5,REQ_END,1516300199983,207
5,PLAYER_SLEEPBEFORE_START,1516300199983,208
5,PLAYER_SLEEPBEFORE_END,1516300206836,208
5,WS_CLOSE_START,1516300206836,208
5,WS_CLOSE_END,1516300206836,208
5,PLAYER_DONE,1516300206836
