# --sessions 2700 --app-url=http://shinyloadtest.rstudioservices.com/cran_explorer --output-dir test2700 --overwrite-output --log-level warn --start-interval 100 15min.log
thread_id,event,timestamp,input_line_number,comment
568,PLAYER_SESSION_CREATE,1516299245531
568,PLAYER_START_INTERVAL_START,1516299245531
568,PLAYER_START_INTERVAL_END,1516299302331
568,REQ_HOME_START,1516299302331,2
568,REQ_HOME_END,1516299302431,2
568,REQ_START,1516299302431,3
568,REQ_END,1516299302462,3
568,REQ_START,1516299302462,4
568,REQ_END,1516299302494,4
568,REQ_START,1516299302494,5
568,REQ_END,1516299302533,5
568,REQ_START,1516299302533,6
568,REQ_END,1516299302572,6
568,REQ_START,1516299302572,7
568,REQ_END,1516299302607,7
568,REQ_START,1516299302607,8
568,REQ_END,1516299302640,8
568,REQ_START,1516299302640,9
568,REQ_END,1516299302678,9
568,REQ_START,1516299302678,10
568,REQ_END,1516299302686,10
568,REQ_START,1516299302686,11
568,REQ_END,1516299302726,11
568,REQ_START,1516299302726,12
568,REQ_END,1516299302735,12
568,REQ_START,1516299302735,13
568,REQ_END,1516299302770,13
568,REQ_START,1516299302770,14
568,REQ_END,1516299302783,14
568,REQ_START,1516299302783,15
568,REQ_END,1516299302820,15
568,REQ_TOK_START,1516299302820,16
568,REQ_TOK_END,1516299302827,16
568,REQ_SINF_START,1516299302827,17
568,REQ_SINF_END,1516299302833,17
568,WS_OPEN_START,1516299302833,18
568,WS_OPEN_END,1516299302840,18
568,REQ_START,1516299302840,19
568,REQ_END,1516299302868,19
568,WS_RECV_START,1516299302868,20
568,WS_RECV_END,1516299302868,20
568,PLAYER_SLEEPBEFORE_START,1516299302868,21
568,PLAYER_SLEEPBEFORE_END,1516299302874,21
568,WS_SEND_START,1516299302874,21
568,WS_SEND_END,1516299302874,21
568,PLAYER_SLEEPBEFORE_START,1516299302874,22
568,PLAYER_SLEEPBEFORE_END,1516299302875,22
568,WS_SEND_START,1516299302875,22
568,WS_SEND_END,1516299302875,22
568,WS_RECV_INIT_START,1516299302875,23
568,WS_RECV_INIT_END,1516299302991,23
568,WS_RECV_START,1516299302991,24
568,WS_RECV_END,1516299303030,24
568,PLAYER_SLEEPBEFORE_START,1516299303030,25
568,PLAYER_SLEEPBEFORE_END,1516299303037,25
568,REQ_START,1516299303037,25
568,REQ_END,1516299303117,25
568,PLAYER_SLEEPBEFORE_START,1516299303117,26
568,PLAYER_SLEEPBEFORE_END,1516299303118,26
568,REQ_START,1516299303118,26
568,REQ_END,1516299303154,26
568,PLAYER_SLEEPBEFORE_START,1516299303154,27
568,PLAYER_SLEEPBEFORE_END,1516299303157,27
568,REQ_START,1516299303157,27
568,REQ_END,1516299303194,27
568,PLAYER_SLEEPBEFORE_START,1516299303194,28
568,PLAYER_SLEEPBEFORE_END,1516299303479,28
568,REQ_START,1516299303479,28
568,REQ_END,1516299303513,28
568,PLAYER_SLEEPBEFORE_START,1516299303513,29
568,PLAYER_SLEEPBEFORE_END,1516299303688,29
568,WS_SEND_START,1516299303688,29
568,WS_SEND_END,1516299303688,29
568,WS_RECV_START,1516299303688,30
568,WS_RECV_END,1516299303792,30
568,PLAYER_SLEEPBEFORE_START,1516299303792,31
568,PLAYER_SLEEPBEFORE_END,1516299303803,31
568,REQ_START,1516299303803,31
568,REQ_END,1516299303837,31
568,PLAYER_SLEEPBEFORE_START,1516299303837,32
568,PLAYER_SLEEPBEFORE_END,1516299331982,32
568,WS_SEND_START,1516299331982,32
568,WS_SEND_END,1516299331982,32
568,WS_RECV_START,1516299331982,33
568,WS_RECV_END,1516299334061,33
568,PLAYER_SLEEPBEFORE_START,1516299334061,34
568,PLAYER_SLEEPBEFORE_END,1516299359972,34
568,WS_SEND_START,1516299359972,34
568,WS_SEND_END,1516299359972,34
568,WS_RECV_START,1516299359972,35
568,WS_RECV_END,1516299360022,35
568,PLAYER_SLEEPBEFORE_START,1516299360022,36
568,PLAYER_SLEEPBEFORE_END,1516299360031,36
568,WS_SEND_START,1516299360031,36
568,WS_SEND_END,1516299360031,36
568,WS_RECV_START,1516299360031,37
568,WS_RECV_END,1516299360073,37
568,PLAYER_SLEEPBEFORE_START,1516299360073,38
568,PLAYER_SLEEPBEFORE_END,1516299363268,38
568,WS_SEND_START,1516299363268,38
568,WS_SEND_END,1516299363268,38
568,WS_RECV_START,1516299363268,39
568,WS_RECV_END,1516299363388,39
568,PLAYER_SLEEPBEFORE_START,1516299363388,40
568,PLAYER_SLEEPBEFORE_END,1516299363434,40
568,WS_SEND_START,1516299363434,40
568,WS_SEND_END,1516299363434,40
568,WS_RECV_START,1516299363434,41
568,WS_RECV_END,1516299363572,41
568,PLAYER_SLEEPBEFORE_START,1516299363572,42
568,PLAYER_SLEEPBEFORE_END,1516299381707,42
568,WS_SEND_START,1516299381707,42
568,WS_SEND_END,1516299381708,42
568,WS_RECV_START,1516299381708,43
568,WS_RECV_END,1516299381733,43
568,PLAYER_SLEEPBEFORE_START,1516299381733,44
568,PLAYER_SLEEPBEFORE_END,1516299381745,44
568,WS_SEND_START,1516299381745,44
568,WS_SEND_END,1516299381745,44
568,WS_RECV_START,1516299381745,45
568,WS_RECV_END,1516299381809,45
568,PLAYER_SLEEPBEFORE_START,1516299381809,46
568,PLAYER_SLEEPBEFORE_END,1516299383097,46
568,WS_SEND_START,1516299383097,46
568,WS_SEND_END,1516299383097,46
568,WS_RECV_START,1516299383097,47
568,WS_RECV_END,1516299383118,47
568,PLAYER_SLEEPBEFORE_START,1516299383118,48
568,PLAYER_SLEEPBEFORE_END,1516299384438,48
568,WS_SEND_START,1516299384438,48
568,WS_SEND_END,1516299384438,48
568,WS_RECV_START,1516299384438,49
568,WS_RECV_END,1516299384534,49
568,PLAYER_SLEEPBEFORE_START,1516299384534,50
568,PLAYER_SLEEPBEFORE_END,1516299384559,50
568,WS_SEND_START,1516299384559,50
568,WS_SEND_END,1516299384559,50
568,WS_RECV_START,1516299384559,51
568,WS_RECV_END,1516299384760,51
568,PLAYER_SLEEPBEFORE_START,1516299384760,52
568,PLAYER_SLEEPBEFORE_END,1516299407324,52
568,WS_SEND_START,1516299407324,52
568,WS_SEND_END,1516299407324,52
568,WS_RECV_START,1516299407324,53
568,WS_RECV_END,1516299407500,53
568,PLAYER_SLEEPBEFORE_START,1516299407500,54
568,PLAYER_SLEEPBEFORE_END,1516299428803,54
568,WS_SEND_START,1516299428803,54
568,WS_SEND_END,1516299428803,54
568,PLAYER_SLEEPBEFORE_START,1516299428803,55
568,PLAYER_SLEEPBEFORE_END,1516299430744,55
568,WS_SEND_START,1516299430744,55
568,WS_SEND_END,1516299430744,55
568,WS_RECV_START,1516299430744,56
568,WS_RECV_END,1516299430793,56
568,PLAYER_SLEEPBEFORE_START,1516299430793,57
568,PLAYER_SLEEPBEFORE_END,1516299453665,57
568,WS_SEND_START,1516299453665,57
568,WS_SEND_END,1516299453665,57
568,WS_RECV_START,1516299453665,58
568,WS_RECV_END,1516299453705,58
568,PLAYER_SLEEPBEFORE_START,1516299453705,59
568,PLAYER_SLEEPBEFORE_END,1516299456033,59
568,WS_SEND_START,1516299456033,59
568,WS_SEND_END,1516299456033,59
568,WS_RECV_START,1516299456033,60
568,WS_RECV_END,1516299456117,60
568,PLAYER_SLEEPBEFORE_START,1516299456117,61
568,PLAYER_SLEEPBEFORE_END,1516299459843,61
568,WS_SEND_START,1516299459843,61
568,WS_SEND_END,1516299459843,61
568,WS_RECV_START,1516299459843,62
568,WS_RECV_END,1516299460049,62
568,PLAYER_SLEEPBEFORE_START,1516299460049,63
568,PLAYER_SLEEPBEFORE_END,1516299479312,63
568,WS_SEND_START,1516299479312,63
568,WS_SEND_END,1516299479312,63
568,WS_RECV_START,1516299479312,64
568,WS_RECV_END,1516299479371,64
568,PLAYER_SLEEPBEFORE_START,1516299479371,65
568,PLAYER_SLEEPBEFORE_END,1516299506188,65
568,WS_SEND_START,1516299506188,65
568,WS_SEND_END,1516299506188,65
568,WS_RECV_START,1516299506188,66
568,WS_RECV_END,1516299506363,66
568,PLAYER_SLEEPBEFORE_START,1516299506363,67
568,PLAYER_SLEEPBEFORE_END,1516299507870,67
568,WS_SEND_START,1516299507870,67
568,WS_SEND_END,1516299507870,67
568,WS_RECV_START,1516299507870,68
568,WS_RECV_END,1516299508011,68
568,PLAYER_SLEEPBEFORE_START,1516299508011,69
568,PLAYER_SLEEPBEFORE_END,1516299530009,69
568,WS_SEND_START,1516299530009,69
568,WS_SEND_END,1516299530009,69
568,WS_RECV_START,1516299530009,70
568,WS_RECV_END,1516299531142,70
568,PLAYER_SLEEPBEFORE_START,1516299531142,71
568,PLAYER_SLEEPBEFORE_END,1516299555917,71
568,WS_SEND_START,1516299555917,71
568,WS_SEND_END,1516299555917,71
568,PLAYER_SLEEPBEFORE_START,1516299555917,72
568,PLAYER_SLEEPBEFORE_END,1516299558524,72
568,WS_SEND_START,1516299558524,72
568,WS_SEND_END,1516299558524,72
568,WS_RECV_START,1516299558524,73
568,WS_RECV_END,1516299558608,73
568,PLAYER_SLEEPBEFORE_START,1516299558608,74
568,PLAYER_SLEEPBEFORE_END,1516299558618,74
568,WS_SEND_START,1516299558618,74
568,WS_SEND_END,1516299558619,74
568,WS_RECV_START,1516299558619,75
568,WS_RECV_END,1516299558665,75
568,PLAYER_SLEEPBEFORE_START,1516299558665,76
568,PLAYER_SLEEPBEFORE_END,1516299560171,76
568,WS_SEND_START,1516299560171,76
568,WS_SEND_END,1516299560171,76
568,WS_RECV_START,1516299560171,77
568,WS_RECV_END,1516299560267,77
568,PLAYER_SLEEPBEFORE_START,1516299560267,78
568,PLAYER_SLEEPBEFORE_END,1516299561135,78
568,WS_SEND_START,1516299561135,78
568,WS_SEND_END,1516299561136,78
568,WS_RECV_START,1516299561136,79
568,WS_RECV_END,1516299561169,79
568,PLAYER_SLEEPBEFORE_START,1516299561169,80
568,PLAYER_SLEEPBEFORE_END,1516299568835,80
568,WS_SEND_START,1516299568835,80
568,WS_SEND_END,1516299568835,80
568,WS_RECV_START,1516299568835,81
568,WS_RECV_END,1516299570585,81
568,PLAYER_SLEEPBEFORE_START,1516299570585,82
568,PLAYER_SLEEPBEFORE_END,1516299571687,82
568,WS_SEND_START,1516299571687,82
568,WS_SEND_END,1516299571687,82
568,WS_RECV_START,1516299571688,83
568,WS_RECV_END,1516299573167,83
568,PLAYER_SLEEPBEFORE_START,1516299573167,84
568,PLAYER_SLEEPBEFORE_END,1516299574114,84
568,WS_SEND_START,1516299574114,84
568,WS_SEND_END,1516299574114,84
568,WS_RECV_START,1516299574114,85
568,WS_RECV_END,1516299576085,85
568,PLAYER_SLEEPBEFORE_START,1516299576085,86
568,PLAYER_SLEEPBEFORE_END,1516299580257,86
568,WS_SEND_START,1516299580257,86
568,WS_SEND_END,1516299580257,86
568,WS_RECV_START,1516299580257,87
568,WS_RECV_END,1516299581095,87
568,PLAYER_SLEEPBEFORE_START,1516299581095,88
568,PLAYER_SLEEPBEFORE_END,1516299581103,88
568,WS_SEND_START,1516299581103,88
568,WS_SEND_END,1516299581103,88
568,WS_RECV_START,1516299581103,89
568,WS_RECV_END,1516299581275,89
568,PLAYER_SLEEPBEFORE_START,1516299581275,90
568,PLAYER_SLEEPBEFORE_END,1516299608472,90
568,REQ_START,1516299608472,90
568,REQ_END,1516299608480,90
568,PLAYER_SLEEPBEFORE_START,1516299608480,91
568,PLAYER_SLEEPBEFORE_END,1516299616370,91
568,WS_SEND_START,1516299616370,91
568,WS_SEND_END,1516299616370,91
568,WS_RECV_START,1516299616370,92
568,WS_RECV_END,1516299617438,92
568,PLAYER_SLEEPBEFORE_START,1516299617438,93
568,PLAYER_SLEEPBEFORE_END,1516299617454,93
568,WS_SEND_START,1516299617454,93
568,WS_SEND_END,1516299617454,93
568,WS_RECV_START,1516299617454,94
568,WS_RECV_END,1516299618192,94
568,PLAYER_SLEEPBEFORE_START,1516299618192,95
568,PLAYER_SLEEPBEFORE_END,1516299641747,95
568,WS_SEND_START,1516299641747,95
568,WS_SEND_END,1516299641747,95
568,WS_RECV_START,1516299641747,96
568,WS_RECV_END,1516299641935,96
568,PLAYER_SLEEPBEFORE_START,1516299641935,97
568,PLAYER_SLEEPBEFORE_END,1516299664375,97
568,WS_SEND_START,1516299664375,97
568,WS_SEND_END,1516299664375,97
568,WS_RECV_START,1516299664375,98
568,WS_RECV_END,1516299664901,98
568,PLAYER_SLEEPBEFORE_START,1516299664901,99
568,PLAYER_SLEEPBEFORE_END,1516299664922,99
568,WS_SEND_START,1516299664922,99
568,WS_SEND_END,1516299664922,99
568,WS_RECV_START,1516299664922,100
568,WS_RECV_END,1516299665163,100
568,PLAYER_SLEEPBEFORE_START,1516299665163,101
568,PLAYER_SLEEPBEFORE_END,1516299688722,101
568,WS_SEND_START,1516299688722,101
568,WS_SEND_END,1516299688722,101
568,WS_RECV_START,1516299688722,102
568,WS_RECV_END,1516299689232,102
568,PLAYER_SLEEPBEFORE_START,1516299689232,103
568,PLAYER_SLEEPBEFORE_END,1516299712857,103
568,WS_SEND_START,1516299712857,103
568,WS_SEND_END,1516299712857,103
568,WS_RECV_START,1516299712857,104
568,WS_RECV_END,1516299713933,104
568,PLAYER_SLEEPBEFORE_START,1516299713933,105
568,PLAYER_SLEEPBEFORE_END,1516299739310,105
568,WS_SEND_START,1516299739310,105
568,WS_SEND_END,1516299739310,105
568,WS_RECV_START,1516299739310,106
568,WS_RECV_END,1516299739682,106
568,PLAYER_SLEEPBEFORE_START,1516299739682,107
568,PLAYER_SLEEPBEFORE_END,1516299763105,107
568,WS_SEND_START,1516299763105,107
568,WS_SEND_END,1516299763105,107
568,WS_RECV_START,1516299763105,108
568,WS_RECV_END,1516299764109,108
568,PLAYER_SLEEPBEFORE_START,1516299764109,109
568,PLAYER_SLEEPBEFORE_END,1516299764118,109
568,WS_SEND_START,1516299764118,109
568,WS_SEND_END,1516299764118,109
568,WS_RECV_START,1516299764118,110
568,WS_RECV_END,1516299764610,110
568,PLAYER_SLEEPBEFORE_START,1516299764610,111
568,PLAYER_SLEEPBEFORE_END,1516299765569,111
568,WS_SEND_START,1516299765569,111
568,WS_SEND_END,1516299765569,111
568,WS_RECV_START,1516299765569,112
568,WS_RECV_END,1516299765913,112
568,PLAYER_SLEEPBEFORE_START,1516299765913,113
568,PLAYER_SLEEPBEFORE_END,1516299766475,113
568,WS_SEND_START,1516299766475,113
568,WS_SEND_END,1516299766475,113
568,WS_RECV_START,1516299766475,114
568,WS_RECV_END,1516299767508,114
568,PLAYER_SLEEPBEFORE_START,1516299767508,115
568,PLAYER_SLEEPBEFORE_END,1516299767517,115
568,WS_SEND_START,1516299767517,115
568,WS_SEND_END,1516299767517,115
568,WS_RECV_START,1516299767518,116
568,WS_RECV_END,1516299767722,116
568,PLAYER_SLEEPBEFORE_START,1516299767722,117
568,PLAYER_SLEEPBEFORE_END,1516299788082,117
568,WS_SEND_START,1516299788082,117
568,WS_SEND_END,1516299788082,117
568,PLAYER_SLEEPBEFORE_START,1516299788082,118
568,PLAYER_SLEEPBEFORE_END,1516299791835,118
568,WS_SEND_START,1516299791835,118
568,WS_SEND_END,1516299791835,118
568,WS_RECV_START,1516299791835,119
568,WS_RECV_END,1516299793441,119
568,PLAYER_SLEEPBEFORE_START,1516299793441,120
568,PLAYER_SLEEPBEFORE_END,1516299794430,120
568,WS_SEND_START,1516299794430,120
568,WS_SEND_END,1516299794430,120
568,WS_RECV_START,1516299794430,121
568,WS_RECV_END,1516299795379,121
568,PLAYER_SLEEPBEFORE_START,1516299795379,122
568,PLAYER_SLEEPBEFORE_END,1516299796564,122
568,WS_SEND_START,1516299796565,122
568,WS_SEND_END,1516299796565,122
568,WS_RECV_START,1516299796565,123
568,WS_RECV_END,1516299797935,123
568,PLAYER_SLEEPBEFORE_START,1516299797935,124
568,PLAYER_SLEEPBEFORE_END,1516299822340,124
568,WS_SEND_START,1516299822340,124
568,WS_SEND_END,1516299822340,124
568,WS_RECV_START,1516299822340,125
568,WS_RECV_END,1516299823868,125
568,PLAYER_SLEEPBEFORE_START,1516299823868,126
568,PLAYER_SLEEPBEFORE_END,1516299844380,126
568,WS_SEND_START,1516299844380,126
568,WS_SEND_END,1516299844381,126
568,PLAYER_SLEEPBEFORE_START,1516299844381,127
568,PLAYER_SLEEPBEFORE_END,1516299847435,127
568,WS_SEND_START,1516299847435,127
568,WS_SEND_END,1516299847435,127
568,WS_RECV_START,1516299847435,128
568,WS_RECV_END,1516299847826,128
568,PLAYER_SLEEPBEFORE_START,1516299847826,129
568,PLAYER_SLEEPBEFORE_END,1516299847846,129
568,WS_SEND_START,1516299847846,129
568,WS_SEND_END,1516299847846,129
568,WS_RECV_START,1516299847846,130
568,WS_RECV_END,1516299848127,130
568,PLAYER_SLEEPBEFORE_START,1516299848127,131
568,PLAYER_SLEEPBEFORE_END,1516299869751,131
568,WS_SEND_START,1516299869751,131
568,WS_SEND_END,1516299869751,131
568,PLAYER_SLEEPBEFORE_START,1516299869751,132
568,PLAYER_SLEEPBEFORE_END,1516299872832,132
568,WS_SEND_START,1516299872832,132
568,WS_SEND_END,1516299872832,132
568,WS_RECV_START,1516299872832,133
568,WS_RECV_END,1516299874063,133
568,PLAYER_SLEEPBEFORE_START,1516299874063,134
568,PLAYER_SLEEPBEFORE_END,1516299895280,134
568,WS_SEND_START,1516299895280,134
568,WS_SEND_END,1516299895280,134
568,PLAYER_SLEEPBEFORE_START,1516299895280,135
568,PLAYER_SLEEPBEFORE_END,1516299898470,135
568,WS_SEND_START,1516299898470,135
568,WS_SEND_END,1516299898470,135
568,WS_RECV_START,1516299898470,136
568,WS_RECV_END,1516299898688,136
568,PLAYER_SLEEPBEFORE_START,1516299898688,137
568,PLAYER_SLEEPBEFORE_END,1516299898695,137
568,WS_SEND_START,1516299898695,137
568,WS_SEND_END,1516299898695,137
568,WS_RECV_START,1516299898695,138
568,WS_RECV_END,1516299898758,138
568,PLAYER_SLEEPBEFORE_START,1516299898758,139
568,PLAYER_SLEEPBEFORE_END,1516299899448,139
568,WS_SEND_START,1516299899448,139
568,WS_SEND_END,1516299899448,139
568,WS_RECV_START,1516299899448,140
568,WS_RECV_END,1516299899698,140
568,PLAYER_SLEEPBEFORE_START,1516299899698,141
568,PLAYER_SLEEPBEFORE_END,1516299900353,141
568,WS_SEND_START,1516299900353,141
568,WS_SEND_END,1516299900353,141
568,WS_RECV_START,1516299900353,142
568,WS_RECV_END,1516299901037,142
568,PLAYER_SLEEPBEFORE_START,1516299901037,143
568,PLAYER_SLEEPBEFORE_END,1516299901094,143
568,WS_SEND_START,1516299901094,143
568,WS_SEND_END,1516299901094,143
568,WS_RECV_START,1516299901094,144
568,WS_RECV_END,1516299901398,144
568,PLAYER_SLEEPBEFORE_START,1516299901398,145
568,PLAYER_SLEEPBEFORE_END,1516299917460,145
568,REQ_START,1516299917460,145
568,REQ_END,1516299917468,145
568,PLAYER_SLEEPBEFORE_START,1516299917468,146
568,PLAYER_SLEEPBEFORE_END,1516299926345,146
568,WS_SEND_START,1516299926345,146
568,WS_SEND_END,1516299926345,146
568,WS_RECV_START,1516299926345,147
568,WS_RECV_END,1516299926693,147
568,PLAYER_SLEEPBEFORE_START,1516299926693,148
568,PLAYER_SLEEPBEFORE_END,1516299948615,148
568,WS_SEND_START,1516299948615,148
568,WS_SEND_END,1516299948615,148
568,PLAYER_SLEEPBEFORE_START,1516299948615,149
568,PLAYER_SLEEPBEFORE_END,1516299951043,149
568,WS_SEND_START,1516299951043,149
568,WS_SEND_END,1516299951043,149
568,WS_RECV_START,1516299951043,150
568,WS_RECV_END,1516299951400,150
568,PLAYER_SLEEPBEFORE_START,1516299951400,151
568,PLAYER_SLEEPBEFORE_END,1516299951610,151
568,WS_SEND_START,1516299951610,151
568,WS_SEND_END,1516299951610,151
568,WS_RECV_START,1516299951610,152
568,WS_RECV_END,1516299952029,152
568,PLAYER_SLEEPBEFORE_START,1516299952029,153
568,PLAYER_SLEEPBEFORE_END,1516299975957,153
568,WS_SEND_START,1516299975957,153
568,WS_SEND_END,1516299975957,153
568,WS_RECV_START,1516299975957,154
568,WS_RECV_END,1516299976939,154
568,PLAYER_SLEEPBEFORE_START,1516299976939,155
568,PLAYER_SLEEPBEFORE_END,1516299999498,155
568,WS_SEND_START,1516299999498,155
568,WS_SEND_END,1516299999498,155
568,PLAYER_SLEEPBEFORE_START,1516299999498,156
568,PLAYER_SLEEPBEFORE_END,1516300002772,156
568,WS_SEND_START,1516300002772,156
568,WS_SEND_END,1516300002772,156
568,WS_RECV_START,1516300002772,157
568,WS_RECV_END,1516300003736,157
568,PLAYER_SLEEPBEFORE_START,1516300003736,158
568,PLAYER_SLEEPBEFORE_END,1516300003746,158
568,WS_SEND_START,1516300003746,158
568,WS_SEND_END,1516300003746,158
568,WS_RECV_START,1516300003746,159
568,WS_RECV_END,1516300004390,159
568,PLAYER_SLEEPBEFORE_START,1516300004390,160
568,PLAYER_SLEEPBEFORE_END,1516300004565,160
568,WS_SEND_START,1516300004565,160
568,WS_SEND_END,1516300004565,160
568,WS_RECV_START,1516300004565,161
568,WS_RECV_END,1516300004711,161
568,PLAYER_SLEEPBEFORE_START,1516300004711,162
568,PLAYER_SLEEPBEFORE_END,1516300004736,162
568,WS_SEND_START,1516300004736,162
568,WS_SEND_END,1516300004736,162
568,WS_RECV_START,1516300004736,163
568,WS_RECV_END,1516300005286,163
568,PLAYER_SLEEPBEFORE_START,1516300005286,164
568,PLAYER_SLEEPBEFORE_END,1516300026098,164
568,WS_SEND_START,1516300026098,164
568,WS_SEND_END,1516300026098,164
568,WS_RECV_START,1516300026098,165
568,WS_RECV_END,1516300026470,165
568,PLAYER_SLEEPBEFORE_START,1516300026470,166
568,PLAYER_SLEEPBEFORE_END,1516300048925,166
568,WS_SEND_START,1516300048925,166
568,WS_SEND_END,1516300048925,166
568,WS_RECV_START,1516300048925,167
568,WS_RECV_END,1516300050287,167
568,PLAYER_SLEEPBEFORE_START,1516300050287,168
568,PLAYER_SLEEPBEFORE_END,1516300077644,168
568,WS_SEND_START,1516300077644,168
568,WS_SEND_END,1516300077644,168
568,WS_RECV_START,1516300077644,169
568,WS_RECV_END,1516300078054,169
568,PLAYER_SLEEPBEFORE_START,1516300078054,170
568,PLAYER_SLEEPBEFORE_END,1516300078063,170
568,WS_SEND_START,1516300078063,170
568,WS_SEND_END,1516300078063,170
568,WS_RECV_START,1516300078063,171
568,WS_RECV_END,1516300078142,171
568,PLAYER_SLEEPBEFORE_START,1516300078142,172
568,PLAYER_SLEEPBEFORE_END,1516300078511,172
568,WS_SEND_START,1516300078511,172
568,WS_SEND_END,1516300078511,172
568,WS_RECV_START,1516300078511,173
568,WS_RECV_END,1516300078672,173
568,PLAYER_SLEEPBEFORE_START,1516300078672,174
568,PLAYER_SLEEPBEFORE_END,1516300078713,174
568,WS_SEND_START,1516300078713,174
568,WS_SEND_END,1516300078713,174
568,WS_RECV_START,1516300078713,175
568,WS_RECV_END,1516300079029,175
568,PLAYER_SLEEPBEFORE_START,1516300079029,176
568,PLAYER_SLEEPBEFORE_END,1516300100790,176
568,WS_SEND_START,1516300100790,176
568,WS_SEND_END,1516300100790,176
568,PLAYER_SLEEPBEFORE_START,1516300100790,177
568,PLAYER_SLEEPBEFORE_END,1516300103308,177
568,WS_SEND_START,1516300103308,177
568,WS_SEND_END,1516300103308,177
568,WS_RECV_START,1516300103308,178
568,WS_RECV_END,1516300105847,178
568,PLAYER_SLEEPBEFORE_START,1516300105847,179
568,PLAYER_SLEEPBEFORE_END,1516300128187,179
568,WS_SEND_START,1516300128187,179
568,WS_SEND_END,1516300128187,179
568,WS_RECV_START,1516300128187,180
568,WS_RECV_END,1516300132304,180
568,PLAYER_SLEEPBEFORE_START,1516300132304,181
568,PLAYER_SLEEPBEFORE_END,1516300132748,181
568,WS_SEND_START,1516300132748,181
568,WS_SEND_END,1516300132748,181
568,WS_RECV_START,1516300132748,182
568,WS_RECV_END,1516300134518,182
568,PLAYER_SLEEPBEFORE_START,1516300134518,183
568,PLAYER_SLEEPBEFORE_END,1516300135041,183
568,WS_SEND_START,1516300135041,183
568,WS_SEND_END,1516300135041,183
568,WS_RECV_START,1516300135041,184
568,WS_RECV_END,1516300137434,184
568,PLAYER_SLEEPBEFORE_START,1516300137434,185
568,PLAYER_SLEEPBEFORE_END,1516300137702,185
568,WS_SEND_START,1516300137702,185
568,WS_SEND_END,1516300137702,185
568,WS_RECV_START,1516300137702,186
568,WS_RECV_END,1516300140872,186
568,PLAYER_SLEEPBEFORE_START,1516300140872,187
568,PLAYER_SLEEPBEFORE_END,1516300163372,187
568,WS_SEND_START,1516300163372,187
568,WS_SEND_END,1516300163372,187
568,WS_RECV_START,1516300163372,188
568,WS_RECV_END,1516300168356,188
568,PLAYER_SLEEPBEFORE_START,1516300168356,189
568,PLAYER_SLEEPBEFORE_END,1516300174596,189
568,WS_SEND_START,1516300174596,189
568,WS_SEND_END,1516300174596,189
568,WS_RECV_START,1516300174596,190
568,WS_RECV_END,1516300179148,190
568,PLAYER_SLEEPBEFORE_START,1516300179148,191
568,PLAYER_SLEEPBEFORE_END,1516300181063,191
568,WS_SEND_START,1516300181063,191
568,WS_SEND_END,1516300181063,191
568,WS_RECV_START,1516300181063,192
568,WS_RECV_END,1516300185329,192
568,PLAYER_SLEEPBEFORE_START,1516300185329,193
568,PLAYER_SLEEPBEFORE_END,1516300185457,193
568,WS_SEND_START,1516300185457,193
568,WS_SEND_END,1516300185457,193
568,WS_RECV_START,1516300185457,194
568,WS_RECV_END,1516300188817,194
568,PLAYER_SLEEPBEFORE_START,1516300188817,195
568,PLAYER_SLEEPBEFORE_END,1516300190572,195
568,WS_SEND_START,1516300190572,195
568,WS_SEND_END,1516300190572,195
568,WS_RECV_START,1516300190572,196
568,WS_RECV_END,1516300194708,196
568,PLAYER_SLEEPBEFORE_START,1516300194708,197
568,PLAYER_SLEEPBEFORE_END,1516300196512,197
568,WS_SEND_START,1516300196512,197
568,WS_SEND_END,1516300196512,197
568,WS_RECV_START,1516300196512,198
568,WS_RECV_END,1516300201903,198
568,PLAYER_SLEEPBEFORE_START,1516300201903,199
568,PLAYER_SLEEPBEFORE_END,1516300213791,199
568,WS_SEND_START,1516300213791,199
568,WS_SEND_END,1516300213791,199
568,PLAYER_SLEEPBEFORE_START,1516300213791,200
568,PLAYER_SLEEPBEFORE_END,1516300217879,200
568,WS_SEND_START,1516300217879,200
568,WS_SEND_END,1516300217879,200
568,WS_RECV_START,1516300217879,201
568,WS_RECV_END,1516300218363,201
568,PLAYER_SLEEPBEFORE_START,1516300218363,202
568,PLAYER_SLEEPBEFORE_END,1516300218377,202
568,WS_SEND_START,1516300218377,202
568,WS_SEND_END,1516300218377,202
568,WS_RECV_START,1516300218377,203
568,WS_RECV_END,1516300221253,203
568,PLAYER_SLEEPBEFORE_START,1516300221253,204
568,PLAYER_SLEEPBEFORE_END,1516300240902,204
568,WS_SEND_START,1516300240902,204
568,WS_SEND_END,1516300240902,204
568,PLAYER_SLEEPBEFORE_START,1516300240902,205
568,PLAYER_SLEEPBEFORE_END,1516300244800,205
568,WS_SEND_START,1516300244800,205
568,WS_SEND_END,1516300244800,205
568,WS_RECV_START,1516300244800,206
568,WS_RECV_END,1516300247141,206
568,PLAYER_SLEEPBEFORE_START,1516300247141,207
568,PLAYER_SLEEPBEFORE_END,1516300264073,207
568,REQ_START,1516300264073,207
568,REQ_END,1516300264081,207
568,PLAYER_SLEEPBEFORE_START,1516300264081,208
568,PLAYER_SLEEPBEFORE_END,1516300270933,208
568,WS_CLOSE_START,1516300270933,208
568,WS_CLOSE_END,1516300270933,208
568,PLAYER_DONE,1516300270933
