# --sessions 2700 --app-url=http://shinyloadtest.rstudioservices.com/cran_explorer --output-dir test2700 --overwrite-output --log-level warn --start-interval 100 15min.log
thread_id,event,timestamp,input_line_number,comment
571,PLAYER_SESSION_CREATE,1516299245532
571,PLAYER_START_INTERVAL_START,1516299245532
571,PLAYER_START_INTERVAL_END,1516299302632
571,REQ_HOME_START,1516299302632,2
571,REQ_HOME_END,1516299302718,2
571,REQ_START,1516299302718,3
571,REQ_END,1516299302753,3
571,REQ_START,1516299302753,4
571,REQ_END,1516299302793,4
571,REQ_START,1516299302793,5
571,REQ_END,1516299302830,5
571,REQ_START,1516299302830,6
571,REQ_END,1516299302866,6
571,REQ_START,1516299302866,7
571,REQ_END,1516299302901,7
571,REQ_START,1516299302901,8
571,REQ_END,1516299302942,8
571,REQ_START,1516299302942,9
571,REQ_END,1516299302980,9
571,REQ_START,1516299302980,10
571,REQ_END,1516299302986,10
571,REQ_START,1516299302986,11
571,REQ_END,1516299303024,11
571,REQ_START,1516299303024,12
571,REQ_END,1516299303030,12
571,REQ_START,1516299303030,13
571,REQ_END,1516299303065,13
571,REQ_START,1516299303065,14
571,REQ_END,1516299303077,14
571,REQ_START,1516299303077,15
571,REQ_END,1516299303117,15
571,REQ_TOK_START,1516299303117,16
571,REQ_TOK_END,1516299303121,16
571,REQ_SINF_START,1516299303121,17
571,REQ_SINF_END,1516299303125,17
571,WS_OPEN_START,1516299303125,18
571,WS_OPEN_END,1516299303128,18
571,REQ_START,1516299303128,19
571,REQ_END,1516299303161,19
571,WS_RECV_START,1516299303161,20
571,WS_RECV_END,1516299303161,20
571,PLAYER_SLEEPBEFORE_START,1516299303161,21
571,PLAYER_SLEEPBEFORE_END,1516299303166,21
571,WS_SEND_START,1516299303166,21
571,WS_SEND_END,1516299303166,21
571,PLAYER_SLEEPBEFORE_START,1516299303166,22
571,PLAYER_SLEEPBEFORE_END,1516299303167,22
571,WS_SEND_START,1516299303167,22
571,WS_SEND_END,1516299303167,22
571,WS_RECV_INIT_START,1516299303167,23
571,WS_RECV_INIT_END,1516299303206,23
571,WS_RECV_START,1516299303206,24
571,WS_RECV_END,1516299303256,24
571,PLAYER_SLEEPBEFORE_START,1516299303256,25
571,PLAYER_SLEEPBEFORE_END,1516299303264,25
571,REQ_START,1516299303264,25
571,REQ_END,1516299303320,25
571,PLAYER_SLEEPBEFORE_START,1516299303320,26
571,PLAYER_SLEEPBEFORE_END,1516299303321,26
571,REQ_START,1516299303321,26
571,REQ_END,1516299303407,26
571,PLAYER_SLEEPBEFORE_START,1516299303407,27
571,PLAYER_SLEEPBEFORE_END,1516299303410,27
571,REQ_START,1516299303410,27
571,REQ_END,1516299303447,27
571,PLAYER_SLEEPBEFORE_START,1516299303447,28
571,PLAYER_SLEEPBEFORE_END,1516299303732,28
571,REQ_START,1516299303732,28
571,REQ_END,1516299303773,28
571,PLAYER_SLEEPBEFORE_START,1516299303773,29
571,PLAYER_SLEEPBEFORE_END,1516299303948,29
571,WS_SEND_START,1516299303948,29
571,WS_SEND_END,1516299303948,29
571,WS_RECV_START,1516299303948,30
571,WS_RECV_END,1516299304043,30
571,PLAYER_SLEEPBEFORE_START,1516299304043,31
571,PLAYER_SLEEPBEFORE_END,1516299304054,31
571,REQ_START,1516299304054,31
571,REQ_END,1516299304093,31
571,PLAYER_SLEEPBEFORE_START,1516299304093,32
571,PLAYER_SLEEPBEFORE_END,1516299332238,32
571,WS_SEND_START,1516299332238,32
571,WS_SEND_END,1516299332238,32
571,WS_RECV_START,1516299332238,33
571,WS_RECV_END,1516299334960,33
571,PLAYER_SLEEPBEFORE_START,1516299334960,34
571,PLAYER_SLEEPBEFORE_END,1516299360871,34
571,WS_SEND_START,1516299360871,34
571,WS_SEND_END,1516299360871,34
571,WS_RECV_START,1516299360871,35
571,WS_RECV_END,1516299360901,35
571,PLAYER_SLEEPBEFORE_START,1516299360901,36
571,PLAYER_SLEEPBEFORE_END,1516299360911,36
571,WS_SEND_START,1516299360911,36
571,WS_SEND_END,1516299360911,36
571,WS_RECV_START,1516299360911,37
571,WS_RECV_END,1516299360988,37
571,PLAYER_SLEEPBEFORE_START,1516299360988,38
571,PLAYER_SLEEPBEFORE_END,1516299364183,38
571,WS_SEND_START,1516299364183,38
571,WS_SEND_END,1516299364183,38
571,WS_RECV_START,1516299364183,39
571,WS_RECV_END,1516299364294,39
571,PLAYER_SLEEPBEFORE_START,1516299364294,40
571,PLAYER_SLEEPBEFORE_END,1516299364340,40
571,WS_SEND_START,1516299364340,40
571,WS_SEND_END,1516299364340,40
571,WS_RECV_START,1516299364340,41
571,WS_RECV_END,1516299364533,41
571,PLAYER_SLEEPBEFORE_START,1516299364533,42
571,PLAYER_SLEEPBEFORE_END,1516299382668,42
571,WS_SEND_START,1516299382668,42
571,WS_SEND_END,1516299382668,42
571,WS_RECV_START,1516299382668,43
571,WS_RECV_END,1516299382707,43
571,PLAYER_SLEEPBEFORE_START,1516299382707,44
571,PLAYER_SLEEPBEFORE_END,1516299382720,44
571,WS_SEND_START,1516299382720,44
571,WS_SEND_END,1516299382720,44
571,WS_RECV_START,1516299382720,45
571,WS_RECV_END,1516299382763,45
571,PLAYER_SLEEPBEFORE_START,1516299382763,46
571,PLAYER_SLEEPBEFORE_END,1516299384023,46
571,WS_SEND_START,1516299384023,46
571,WS_SEND_END,1516299384023,46
571,WS_RECV_START,1516299384023,47
571,WS_RECV_END,1516299384085,47
571,PLAYER_SLEEPBEFORE_START,1516299384085,48
571,PLAYER_SLEEPBEFORE_END,1516299385405,48
571,WS_SEND_START,1516299385405,48
571,WS_SEND_END,1516299385405,48
571,WS_RECV_START,1516299385405,49
571,WS_RECV_END,1516299385501,49
571,PLAYER_SLEEPBEFORE_START,1516299385501,50
571,PLAYER_SLEEPBEFORE_END,1516299385525,50
571,WS_SEND_START,1516299385525,50
571,WS_SEND_END,1516299385525,50
571,WS_RECV_START,1516299385525,51
571,WS_RECV_END,1516299385646,51
571,PLAYER_SLEEPBEFORE_START,1516299385646,52
571,PLAYER_SLEEPBEFORE_END,1516299408210,52
571,WS_SEND_START,1516299408210,52
571,WS_SEND_END,1516299408210,52
571,WS_RECV_START,1516299408210,53
571,WS_RECV_END,1516299408324,53
571,PLAYER_SLEEPBEFORE_START,1516299408324,54
571,PLAYER_SLEEPBEFORE_END,1516299429628,54
571,WS_SEND_START,1516299429628,54
571,WS_SEND_END,1516299429628,54
571,PLAYER_SLEEPBEFORE_START,1516299429628,55
571,PLAYER_SLEEPBEFORE_END,1516299431569,55
571,WS_SEND_START,1516299431569,55
571,WS_SEND_END,1516299431569,55
571,WS_RECV_START,1516299431569,56
571,WS_RECV_END,1516299431638,56
571,PLAYER_SLEEPBEFORE_START,1516299431638,57
571,PLAYER_SLEEPBEFORE_END,1516299454510,57
571,WS_SEND_START,1516299454510,57
571,WS_SEND_END,1516299454510,57
571,WS_RECV_START,1516299454510,58
571,WS_RECV_END,1516299454576,58
571,PLAYER_SLEEPBEFORE_START,1516299454576,59
571,PLAYER_SLEEPBEFORE_END,1516299456904,59
571,WS_SEND_START,1516299456904,59
571,WS_SEND_END,1516299456904,59
571,WS_RECV_START,1516299456904,60
571,WS_RECV_END,1516299457153,60
571,PLAYER_SLEEPBEFORE_START,1516299457153,61
571,PLAYER_SLEEPBEFORE_END,1516299460745,61
571,WS_SEND_START,1516299460745,61
571,WS_SEND_END,1516299460745,61
571,WS_RECV_START,1516299460745,62
571,WS_RECV_END,1516299460921,62
571,PLAYER_SLEEPBEFORE_START,1516299460921,63
571,PLAYER_SLEEPBEFORE_END,1516299480184,63
571,WS_SEND_START,1516299480184,63
571,WS_SEND_END,1516299480184,63
571,WS_RECV_START,1516299480184,64
571,WS_RECV_END,1516299480505,64
571,PLAYER_SLEEPBEFORE_START,1516299480505,65
571,PLAYER_SLEEPBEFORE_END,1516299507322,65
571,WS_SEND_START,1516299507322,65
571,WS_SEND_END,1516299507322,65
571,WS_RECV_START,1516299507322,66
571,WS_RECV_END,1516299507498,66
571,PLAYER_SLEEPBEFORE_START,1516299507498,67
571,PLAYER_SLEEPBEFORE_END,1516299509006,67
571,WS_SEND_START,1516299509006,67
571,WS_SEND_END,1516299509006,67
571,WS_RECV_START,1516299509006,68
571,WS_RECV_END,1516299509124,68
571,PLAYER_SLEEPBEFORE_START,1516299509124,69
571,PLAYER_SLEEPBEFORE_END,1516299531123,69
571,WS_SEND_START,1516299531123,69
571,WS_SEND_END,1516299531123,69
571,WS_RECV_START,1516299531123,70
571,WS_RECV_END,1516299531954,70
571,PLAYER_SLEEPBEFORE_START,1516299531954,71
571,PLAYER_SLEEPBEFORE_END,1516299556729,71
571,WS_SEND_START,1516299556729,71
571,WS_SEND_END,1516299556729,71
571,PLAYER_SLEEPBEFORE_START,1516299556729,72
571,PLAYER_SLEEPBEFORE_END,1516299559336,72
571,WS_SEND_START,1516299559336,72
571,WS_SEND_END,1516299559336,72
571,WS_RECV_START,1516299559336,73
571,WS_RECV_END,1516299559421,73
571,PLAYER_SLEEPBEFORE_START,1516299559422,74
571,PLAYER_SLEEPBEFORE_END,1516299559431,74
571,WS_SEND_START,1516299559431,74
571,WS_SEND_END,1516299559431,74
571,WS_RECV_START,1516299559431,75
571,WS_RECV_END,1516299559553,75
571,PLAYER_SLEEPBEFORE_START,1516299559553,76
571,PLAYER_SLEEPBEFORE_END,1516299561059,76
571,WS_SEND_START,1516299561059,76
571,WS_SEND_END,1516299561059,76
571,WS_RECV_START,1516299561059,77
571,WS_RECV_END,1516299561133,77
571,PLAYER_SLEEPBEFORE_START,1516299561133,78
571,PLAYER_SLEEPBEFORE_END,1516299562001,78
571,WS_SEND_START,1516299562001,78
571,WS_SEND_END,1516299562001,78
571,WS_RECV_START,1516299562001,79
571,WS_RECV_END,1516299562131,79
571,PLAYER_SLEEPBEFORE_START,1516299562131,80
571,PLAYER_SLEEPBEFORE_END,1516299569798,80
571,WS_SEND_START,1516299569798,80
571,WS_SEND_END,1516299569798,80
571,WS_RECV_START,1516299569798,81
571,WS_RECV_END,1516299571271,81
571,PLAYER_SLEEPBEFORE_START,1516299571271,82
571,PLAYER_SLEEPBEFORE_END,1516299572373,82
571,WS_SEND_START,1516299572373,82
571,WS_SEND_END,1516299572373,82
571,WS_RECV_START,1516299572373,83
571,WS_RECV_END,1516299573528,83
571,PLAYER_SLEEPBEFORE_START,1516299573528,84
571,PLAYER_SLEEPBEFORE_END,1516299574475,84
571,WS_SEND_START,1516299574475,84
571,WS_SEND_END,1516299574475,84
571,WS_RECV_START,1516299574475,85
571,WS_RECV_END,1516299574942,85
571,PLAYER_SLEEPBEFORE_START,1516299574942,86
571,PLAYER_SLEEPBEFORE_END,1516299579114,86
571,WS_SEND_START,1516299579114,86
571,WS_SEND_END,1516299579114,86
571,WS_RECV_START,1516299579114,87
571,WS_RECV_END,1516299579642,87
571,PLAYER_SLEEPBEFORE_START,1516299579642,88
571,PLAYER_SLEEPBEFORE_END,1516299579651,88
571,WS_SEND_START,1516299579651,88
571,WS_SEND_END,1516299579651,88
571,WS_RECV_START,1516299579651,89
571,WS_RECV_END,1516299580055,89
571,PLAYER_SLEEPBEFORE_START,1516299580055,90
571,PLAYER_SLEEPBEFORE_END,1516299607252,90
571,REQ_START,1516299607252,90
571,REQ_END,1516299607261,90
571,PLAYER_SLEEPBEFORE_START,1516299607261,91
571,PLAYER_SLEEPBEFORE_END,1516299615150,91
571,WS_SEND_START,1516299615150,91
571,WS_SEND_END,1516299615150,91
571,WS_RECV_START,1516299615150,92
571,WS_RECV_END,1516299615347,92
571,PLAYER_SLEEPBEFORE_START,1516299615347,93
571,PLAYER_SLEEPBEFORE_END,1516299615362,93
571,WS_SEND_START,1516299615362,93
571,WS_SEND_END,1516299615362,93
571,WS_RECV_START,1516299615362,94
571,WS_RECV_END,1516299615785,94
571,PLAYER_SLEEPBEFORE_START,1516299615785,95
571,PLAYER_SLEEPBEFORE_END,1516299639340,95
571,WS_SEND_START,1516299639340,95
571,WS_SEND_END,1516299639340,95
571,WS_RECV_START,1516299639340,96
571,WS_RECV_END,1516299639507,96
571,PLAYER_SLEEPBEFORE_START,1516299639507,97
571,PLAYER_SLEEPBEFORE_END,1516299661948,97
571,WS_SEND_START,1516299661948,97
571,WS_SEND_END,1516299661948,97
571,WS_RECV_START,1516299661948,98
571,WS_RECV_END,1516299662261,98
571,PLAYER_SLEEPBEFORE_START,1516299662261,99
571,PLAYER_SLEEPBEFORE_END,1516299662282,99
571,WS_SEND_START,1516299662282,99
571,WS_SEND_END,1516299662282,99
571,WS_RECV_START,1516299662282,100
571,WS_RECV_END,1516299662681,100
571,PLAYER_SLEEPBEFORE_START,1516299662681,101
571,PLAYER_SLEEPBEFORE_END,1516299686240,101
571,WS_SEND_START,1516299686240,101
571,WS_SEND_END,1516299686240,101
571,WS_RECV_START,1516299686240,102
571,WS_RECV_END,1516299686673,102
571,PLAYER_SLEEPBEFORE_START,1516299686673,103
571,PLAYER_SLEEPBEFORE_END,1516299710298,103
571,WS_SEND_START,1516299710298,103
571,WS_SEND_END,1516299710298,103
571,WS_RECV_START,1516299710298,104
571,WS_RECV_END,1516299711164,104
571,PLAYER_SLEEPBEFORE_START,1516299711164,105
571,PLAYER_SLEEPBEFORE_END,1516299736542,105
571,WS_SEND_START,1516299736542,105
571,WS_SEND_END,1516299736542,105
571,WS_RECV_START,1516299736542,106
571,WS_RECV_END,1516299737677,106
571,PLAYER_SLEEPBEFORE_START,1516299737677,107
571,PLAYER_SLEEPBEFORE_END,1516299761100,107
571,WS_SEND_START,1516299761100,107
571,WS_SEND_END,1516299761100,107
571,WS_RECV_START,1516299761100,108
571,WS_RECV_END,1516299763952,108
571,PLAYER_SLEEPBEFORE_START,1516299763952,109
571,PLAYER_SLEEPBEFORE_END,1516299763962,109
571,WS_SEND_START,1516299763962,109
571,WS_SEND_END,1516299763962,109
571,WS_RECV_START,1516299763962,110
571,WS_RECV_END,1516299764366,110
571,PLAYER_SLEEPBEFORE_START,1516299764366,111
571,PLAYER_SLEEPBEFORE_END,1516299765325,111
571,WS_SEND_START,1516299765325,111
571,WS_SEND_END,1516299765325,111
571,WS_RECV_START,1516299765325,112
571,WS_RECV_END,1516299766625,112
571,PLAYER_SLEEPBEFORE_START,1516299766625,113
571,PLAYER_SLEEPBEFORE_END,1516299767187,113
571,WS_SEND_START,1516299767187,113
571,WS_SEND_END,1516299767188,113
571,WS_RECV_START,1516299767188,114
571,WS_RECV_END,1516299768058,114
571,PLAYER_SLEEPBEFORE_START,1516299768058,115
571,PLAYER_SLEEPBEFORE_END,1516299768067,115
571,WS_SEND_START,1516299768067,115
571,WS_SEND_END,1516299768067,115
571,WS_RECV_START,1516299768067,116
571,WS_RECV_END,1516299769323,116
571,PLAYER_SLEEPBEFORE_START,1516299769323,117
571,PLAYER_SLEEPBEFORE_END,1516299789683,117
571,WS_SEND_START,1516299789683,117
571,WS_SEND_END,1516299789683,117
571,PLAYER_SLEEPBEFORE_START,1516299789683,118
571,PLAYER_SLEEPBEFORE_END,1516299793435,118
571,WS_SEND_START,1516299793435,118
571,WS_SEND_END,1516299793435,118
571,WS_RECV_START,1516299793435,119
571,WS_RECV_END,1516299795770,119
571,PLAYER_SLEEPBEFORE_START,1516299795770,120
571,PLAYER_SLEEPBEFORE_END,1516299796758,120
571,WS_SEND_START,1516299796758,120
571,WS_SEND_END,1516299796758,120
571,WS_RECV_START,1516299796758,121
571,WS_RECV_END,1516299799040,121
571,PLAYER_SLEEPBEFORE_START,1516299799040,122
571,PLAYER_SLEEPBEFORE_END,1516299800225,122
571,WS_SEND_START,1516299800225,122
571,WS_SEND_END,1516299800225,122
571,WS_RECV_START,1516299800225,123
571,WS_RECV_END,1516299802721,123
571,PLAYER_SLEEPBEFORE_START,1516299802721,124
571,PLAYER_SLEEPBEFORE_END,1516299827126,124
571,WS_SEND_START,1516299827126,124
571,WS_SEND_END,1516299827126,124
571,WS_RECV_START,1516299827126,125
571,WS_RECV_END,1516299827752,125
571,PLAYER_SLEEPBEFORE_START,1516299827752,126
571,PLAYER_SLEEPBEFORE_END,1516299848265,126
571,WS_SEND_START,1516299848265,126
571,WS_SEND_END,1516299848265,126
571,PLAYER_SLEEPBEFORE_START,1516299848265,127
571,PLAYER_SLEEPBEFORE_END,1516299851319,127
571,WS_SEND_START,1516299851319,127
571,WS_SEND_END,1516299851319,127
571,WS_RECV_START,1516299851319,128
571,WS_RECV_END,1516299854044,128
571,PLAYER_SLEEPBEFORE_START,1516299854044,129
571,PLAYER_SLEEPBEFORE_END,1516299854064,129
571,WS_SEND_START,1516299854064,129
571,WS_SEND_END,1516299854064,129
571,WS_RECV_START,1516299854064,130
571,WS_RECV_END,1516299856432,130
571,PLAYER_SLEEPBEFORE_START,1516299856432,131
571,PLAYER_SLEEPBEFORE_END,1516299878056,131
571,WS_SEND_START,1516299878056,131
571,WS_SEND_END,1516299878056,131
571,PLAYER_SLEEPBEFORE_START,1516299878056,132
571,PLAYER_SLEEPBEFORE_END,1516299881137,132
571,WS_SEND_START,1516299881137,132
571,WS_SEND_END,1516299881137,132
571,WS_RECV_START,1516299881137,133
571,WS_RECV_END,1516299882787,133
571,PLAYER_SLEEPBEFORE_START,1516299882787,134
571,PLAYER_SLEEPBEFORE_END,1516299904004,134
571,WS_SEND_START,1516299904004,134
571,WS_SEND_END,1516299904004,134
571,PLAYER_SLEEPBEFORE_START,1516299904004,135
571,PLAYER_SLEEPBEFORE_END,1516299907194,135
571,WS_SEND_START,1516299907194,135
571,WS_SEND_END,1516299907194,135
571,WS_RECV_START,1516299907194,136
571,WS_RECV_END,1516299907267,136
571,PLAYER_SLEEPBEFORE_START,1516299907267,137
571,PLAYER_SLEEPBEFORE_END,1516299907274,137
571,WS_SEND_START,1516299907274,137
571,WS_SEND_END,1516299907274,137
571,WS_RECV_START,1516299907274,138
571,WS_RECV_END,1516299907470,138
571,PLAYER_SLEEPBEFORE_START,1516299907470,139
571,PLAYER_SLEEPBEFORE_END,1516299908160,139
571,WS_SEND_START,1516299908160,139
571,WS_SEND_END,1516299908160,139
571,WS_RECV_START,1516299908160,140
571,WS_RECV_END,1516299908387,140
571,PLAYER_SLEEPBEFORE_START,1516299908387,141
571,PLAYER_SLEEPBEFORE_END,1516299909042,141
571,WS_SEND_START,1516299909042,141
571,WS_SEND_END,1516299909042,141
571,WS_RECV_START,1516299909042,142
571,WS_RECV_END,1516299909372,142
571,PLAYER_SLEEPBEFORE_START,1516299909372,143
571,PLAYER_SLEEPBEFORE_END,1516299909429,143
571,WS_SEND_START,1516299909429,143
571,WS_SEND_END,1516299909429,143
571,WS_RECV_START,1516299909429,144
571,WS_RECV_END,1516299909641,144
571,PLAYER_SLEEPBEFORE_START,1516299909641,145
571,PLAYER_SLEEPBEFORE_END,1516299925703,145
571,REQ_START,1516299925703,145
571,REQ_END,1516299925708,145
571,PLAYER_SLEEPBEFORE_START,1516299925708,146
571,PLAYER_SLEEPBEFORE_END,1516299934585,146
571,WS_SEND_START,1516299934585,146
571,WS_SEND_END,1516299934585,146
571,WS_RECV_START,1516299934585,147
571,WS_RECV_END,1516299935815,147
571,PLAYER_SLEEPBEFORE_START,1516299935815,148
571,PLAYER_SLEEPBEFORE_END,1516299957738,148
571,WS_SEND_START,1516299957738,148
571,WS_SEND_END,1516299957738,148
571,PLAYER_SLEEPBEFORE_START,1516299957738,149
571,PLAYER_SLEEPBEFORE_END,1516299960166,149
571,WS_SEND_START,1516299960166,149
571,WS_SEND_END,1516299960166,149
571,WS_RECV_START,1516299960166,150
571,WS_RECV_END,1516299961249,150
571,PLAYER_SLEEPBEFORE_START,1516299961249,151
571,PLAYER_SLEEPBEFORE_END,1516299961459,151
571,WS_SEND_START,1516299961460,151
571,WS_SEND_END,1516299961460,151
571,WS_RECV_START,1516299961460,152
571,WS_RECV_END,1516299961781,152
571,PLAYER_SLEEPBEFORE_START,1516299961781,153
571,PLAYER_SLEEPBEFORE_END,1516299985709,153
571,WS_SEND_START,1516299985709,153
571,WS_SEND_END,1516299985709,153
571,WS_RECV_START,1516299985709,154
571,WS_RECV_END,1516299987776,154
571,PLAYER_SLEEPBEFORE_START,1516299987777,155
571,PLAYER_SLEEPBEFORE_END,1516300010335,155
571,WS_SEND_START,1516300010335,155
571,WS_SEND_END,1516300010335,155
571,PLAYER_SLEEPBEFORE_START,1516300010335,156
571,PLAYER_SLEEPBEFORE_END,1516300013609,156
571,WS_SEND_START,1516300013609,156
571,WS_SEND_END,1516300013609,156
571,WS_RECV_START,1516300013609,157
571,WS_RECV_END,1516300015583,157
571,PLAYER_SLEEPBEFORE_START,1516300015583,158
571,PLAYER_SLEEPBEFORE_END,1516300015593,158
571,WS_SEND_START,1516300015593,158
571,WS_SEND_END,1516300015593,158
571,WS_RECV_START,1516300015593,159
571,WS_RECV_END,1516300016514,159
571,PLAYER_SLEEPBEFORE_START,1516300016514,160
571,PLAYER_SLEEPBEFORE_END,1516300016689,160
571,WS_SEND_START,1516300016689,160
571,WS_SEND_END,1516300016689,160
571,WS_RECV_START,1516300016689,161
571,WS_RECV_END,1516300017268,161
571,PLAYER_SLEEPBEFORE_START,1516300017268,162
571,PLAYER_SLEEPBEFORE_END,1516300017293,162
571,WS_SEND_START,1516300017293,162
571,WS_SEND_END,1516300017293,162
571,WS_RECV_START,1516300017293,163
571,WS_RECV_END,1516300018023,163
571,PLAYER_SLEEPBEFORE_START,1516300018023,164
571,PLAYER_SLEEPBEFORE_END,1516300038835,164
571,WS_SEND_START,1516300038835,164
571,WS_SEND_END,1516300038835,164
571,WS_RECV_START,1516300038835,165
571,WS_RECV_END,1516300040010,165
571,PLAYER_SLEEPBEFORE_START,1516300040010,166
571,PLAYER_SLEEPBEFORE_END,1516300062465,166
571,WS_SEND_START,1516300062465,166
571,WS_SEND_END,1516300062465,166
571,WS_RECV_START,1516300062466,167
571,WS_RECV_END,1516300063269,167
571,PLAYER_SLEEPBEFORE_START,1516300063269,168
571,PLAYER_SLEEPBEFORE_END,1516300090627,168
571,WS_SEND_START,1516300090627,168
571,WS_SEND_END,1516300090627,168
571,WS_RECV_START,1516300090627,169
571,WS_RECV_END,1516300091226,169
571,PLAYER_SLEEPBEFORE_START,1516300091226,170
571,PLAYER_SLEEPBEFORE_END,1516300091236,170
571,WS_SEND_START,1516300091236,170
571,WS_SEND_END,1516300091236,170
571,WS_RECV_START,1516300091236,171
571,WS_RECV_END,1516300092130,171
571,PLAYER_SLEEPBEFORE_START,1516300092130,172
571,PLAYER_SLEEPBEFORE_END,1516300092499,172
571,WS_SEND_START,1516300092499,172
571,WS_SEND_END,1516300092499,172
571,WS_RECV_START,1516300092499,173
571,WS_RECV_END,1516300093015,173
571,PLAYER_SLEEPBEFORE_START,1516300093015,174
571,PLAYER_SLEEPBEFORE_END,1516300093056,174
571,WS_SEND_START,1516300093056,174
571,WS_SEND_END,1516300093056,174
571,WS_RECV_START,1516300093056,175
571,WS_RECV_END,1516300093530,175
571,PLAYER_SLEEPBEFORE_START,1516300093530,176
571,PLAYER_SLEEPBEFORE_END,1516300115291,176
571,WS_SEND_START,1516300115291,176
571,WS_SEND_END,1516300115291,176
571,PLAYER_SLEEPBEFORE_START,1516300115291,177
571,PLAYER_SLEEPBEFORE_END,1516300117810,177
571,WS_SEND_START,1516300117810,177
571,WS_SEND_END,1516300117810,177
571,WS_RECV_START,1516300117810,178
571,WS_RECV_END,1516300118896,178
571,PLAYER_SLEEPBEFORE_START,1516300118896,179
571,PLAYER_SLEEPBEFORE_END,1516300141236,179
571,WS_SEND_START,1516300141236,179
571,WS_SEND_END,1516300141236,179
571,WS_RECV_START,1516300141236,180
571,WS_RECV_END,1516300147309,180
571,PLAYER_SLEEPBEFORE_START,1516300147309,181
571,PLAYER_SLEEPBEFORE_END,1516300147753,181
571,WS_SEND_START,1516300147753,181
571,WS_SEND_END,1516300147753,181
571,WS_RECV_START,1516300147753,182
571,WS_RECV_END,1516300151083,182
571,PLAYER_SLEEPBEFORE_START,1516300151083,183
571,PLAYER_SLEEPBEFORE_END,1516300151606,183
571,WS_SEND_START,1516300151606,183
571,WS_SEND_END,1516300151606,183
571,WS_RECV_START,1516300151606,184
571,WS_RECV_END,1516300154091,184
571,PLAYER_SLEEPBEFORE_START,1516300154091,185
571,PLAYER_SLEEPBEFORE_END,1516300154359,185
571,WS_SEND_START,1516300154359,185
571,WS_SEND_END,1516300154359,185
571,WS_RECV_START,1516300154359,186
571,WS_RECV_END,1516300157457,186
571,PLAYER_SLEEPBEFORE_START,1516300157457,187
571,PLAYER_SLEEPBEFORE_END,1516300179957,187
571,WS_SEND_START,1516300179957,187
571,WS_SEND_END,1516300179957,187
571,WS_RECV_START,1516300179957,188
571,WS_RECV_END,1516300186679,188
571,PLAYER_SLEEPBEFORE_START,1516300186679,189
571,PLAYER_SLEEPBEFORE_END,1516300192918,189
571,WS_SEND_START,1516300192918,189
571,WS_SEND_END,1516300192918,189
571,WS_RECV_START,1516300192918,190
571,WS_RECV_END,1516300201208,190
571,PLAYER_SLEEPBEFORE_START,1516300201208,191
571,PLAYER_SLEEPBEFORE_END,1516300203124,191
571,WS_SEND_START,1516300203124,191
571,WS_SEND_END,1516300203124,191
571,WS_RECV_START,1516300203124,192
571,WS_RECV_END,1516300205517,192
571,PLAYER_SLEEPBEFORE_START,1516300205517,193
571,PLAYER_SLEEPBEFORE_END,1516300205646,193
571,WS_SEND_START,1516300205646,193
571,WS_SEND_END,1516300205646,193
571,WS_RECV_START,1516300205646,194
571,WS_RECV_END,1516300210136,194
571,PLAYER_SLEEPBEFORE_START,1516300210136,195
571,PLAYER_SLEEPBEFORE_END,1516300211891,195
571,WS_SEND_START,1516300211891,195
571,WS_SEND_END,1516300211891,195
571,WS_RECV_START,1516300211891,196
571,WS_RECV_END,1516300213083,196
571,PLAYER_SLEEPBEFORE_START,1516300213083,197
571,PLAYER_SLEEPBEFORE_END,1516300214887,197
571,WS_SEND_START,1516300214887,197
571,WS_SEND_END,1516300214887,197
571,WS_RECV_START,1516300214887,198
571,WS_RECV_END,1516300217565,198
571,PLAYER_SLEEPBEFORE_START,1516300217565,199
571,PLAYER_SLEEPBEFORE_END,1516300229419,199
571,WS_SEND_START,1516300229419,199
571,WS_SEND_END,1516300229419,199
571,PLAYER_SLEEPBEFORE_START,1516300229419,200
571,PLAYER_SLEEPBEFORE_END,1516300233508,200
571,WS_SEND_START,1516300233508,200
571,WS_SEND_END,1516300233508,200
571,WS_RECV_START,1516300233508,201
571,WS_RECV_END,1516300236705,201
571,PLAYER_SLEEPBEFORE_START,1516300236705,202
571,PLAYER_SLEEPBEFORE_END,1516300236719,202
571,WS_SEND_START,1516300236719,202
571,WS_SEND_END,1516300236719,202
571,WS_RECV_START,1516300236719,203
571,WS_RECV_END,1516300238547,203
571,PLAYER_SLEEPBEFORE_START,1516300238547,204
571,PLAYER_SLEEPBEFORE_END,1516300258196,204
571,WS_SEND_START,1516300258196,204
571,WS_SEND_END,1516300258196,204
571,PLAYER_SLEEPBEFORE_START,1516300258196,205
571,PLAYER_SLEEPBEFORE_END,1516300262094,205
571,WS_SEND_START,1516300262094,205
571,WS_SEND_END,1516300262095,205
571,WS_RECV_START,1516300262095,206
571,WS_RECV_END,1516300264750,206
571,PLAYER_SLEEPBEFORE_START,1516300264750,207
571,PLAYER_SLEEPBEFORE_END,1516300281697,207
571,REQ_START,1516300281697,207
571,REQ_END,1516300281703,207
571,PLAYER_SLEEPBEFORE_START,1516300281703,208
571,PLAYER_SLEEPBEFORE_END,1516300288555,208
571,WS_CLOSE_START,1516300288555,208
571,WS_CLOSE_END,1516300288555,208
571,PLAYER_DONE,1516300288555
