# --sessions 2700 --app-url=http://shinyloadtest.rstudioservices.com/cran_explorer --output-dir test2700 --overwrite-output --log-level warn --start-interval 100 15min.log
thread_id,event,timestamp,input_line_number,comment
588,PLAYER_SESSION_CREATE,1516299245539
588,PLAYER_START_INTERVAL_START,1516299245539
588,PLAYER_START_INTERVAL_END,1516299304339
588,REQ_HOME_START,1516299304339,2
588,REQ_HOME_END,1516299304436,2
588,REQ_START,1516299304437,3
588,REQ_END,1516299304476,3
588,REQ_START,1516299304476,4
588,REQ_END,1516299304516,4
588,REQ_START,1516299304516,5
588,REQ_END,1516299304559,5
588,REQ_START,1516299304559,6
588,REQ_END,1516299304596,6
588,REQ_START,1516299304596,7
588,REQ_END,1516299304635,7
588,REQ_START,1516299304635,8
588,REQ_END,1516299304673,8
588,REQ_START,1516299304673,9
588,REQ_END,1516299304711,9
588,REQ_START,1516299304711,10
588,REQ_END,1516299304715,10
588,REQ_START,1516299304715,11
588,REQ_END,1516299304750,11
588,REQ_START,1516299304750,12
588,REQ_END,1516299304756,12
588,REQ_START,1516299304756,13
588,REQ_END,1516299304797,13
588,REQ_START,1516299304797,14
588,REQ_END,1516299304807,14
588,REQ_START,1516299304807,15
588,REQ_END,1516299304845,15
588,REQ_TOK_START,1516299304845,16
588,REQ_TOK_END,1516299304848,16
588,REQ_SINF_START,1516299304848,17
588,REQ_SINF_END,1516299304853,17
588,WS_OPEN_START,1516299304853,18
588,WS_OPEN_END,1516299304857,18
588,REQ_START,1516299304857,19
588,REQ_END,1516299304889,19
588,WS_RECV_START,1516299304889,20
588,WS_RECV_END,1516299304889,20
588,PLAYER_SLEEPBEFORE_START,1516299304889,21
588,PLAYER_SLEEPBEFORE_END,1516299304894,21
588,WS_SEND_START,1516299304894,21
588,WS_SEND_END,1516299304894,21
588,PLAYER_SLEEPBEFORE_START,1516299304894,22
588,PLAYER_SLEEPBEFORE_END,1516299304896,22
588,WS_SEND_START,1516299304896,22
588,WS_SEND_END,1516299304896,22
588,WS_RECV_INIT_START,1516299304896,23
588,WS_RECV_INIT_END,1516299304915,23
588,WS_RECV_START,1516299304915,24
588,WS_RECV_END,1516299304989,24
588,PLAYER_SLEEPBEFORE_START,1516299304989,25
588,PLAYER_SLEEPBEFORE_END,1516299304996,25
588,REQ_START,1516299304996,25
588,REQ_END,1516299305036,25
588,PLAYER_SLEEPBEFORE_START,1516299305036,26
588,PLAYER_SLEEPBEFORE_END,1516299305037,26
588,REQ_START,1516299305037,26
588,REQ_END,1516299305078,26
588,PLAYER_SLEEPBEFORE_START,1516299305078,27
588,PLAYER_SLEEPBEFORE_END,1516299305081,27
588,REQ_START,1516299305081,27
588,REQ_END,1516299305116,27
588,PLAYER_SLEEPBEFORE_START,1516299305116,28
588,PLAYER_SLEEPBEFORE_END,1516299305401,28
588,REQ_START,1516299305401,28
588,REQ_END,1516299305447,28
588,PLAYER_SLEEPBEFORE_START,1516299305447,29
588,PLAYER_SLEEPBEFORE_END,1516299305622,29
588,WS_SEND_START,1516299305622,29
588,WS_SEND_END,1516299305622,29
588,WS_RECV_START,1516299305622,30
588,WS_RECV_END,1516299305753,30
588,PLAYER_SLEEPBEFORE_START,1516299305753,31
588,PLAYER_SLEEPBEFORE_END,1516299305765,31
588,REQ_START,1516299305765,31
588,REQ_END,1516299305881,31
588,PLAYER_SLEEPBEFORE_START,1516299305881,32
588,PLAYER_SLEEPBEFORE_END,1516299334026,32
588,WS_SEND_START,1516299334026,32
588,WS_SEND_END,1516299334026,32
588,WS_RECV_START,1516299334026,33
588,WS_RECV_END,1516299337994,33
588,PLAYER_SLEEPBEFORE_START,1516299337994,34
588,PLAYER_SLEEPBEFORE_END,1516299363905,34
588,WS_SEND_START,1516299363905,34
588,WS_SEND_END,1516299363905,34
588,WS_RECV_START,1516299363905,35
588,WS_RECV_END,1516299363935,35
588,PLAYER_SLEEPBEFORE_START,1516299363935,36
588,PLAYER_SLEEPBEFORE_END,1516299363944,36
588,WS_SEND_START,1516299363944,36
588,WS_SEND_END,1516299363944,36
588,WS_RECV_START,1516299363944,37
588,WS_RECV_END,1516299363987,37
588,PLAYER_SLEEPBEFORE_START,1516299363987,38
588,PLAYER_SLEEPBEFORE_END,1516299367182,38
588,WS_SEND_START,1516299367182,38
588,WS_SEND_END,1516299367182,38
588,WS_RECV_START,1516299367182,39
588,WS_RECV_END,1516299367629,39
588,PLAYER_SLEEPBEFORE_START,1516299367629,40
588,PLAYER_SLEEPBEFORE_END,1516299367675,40
588,WS_SEND_START,1516299367675,40
588,WS_SEND_END,1516299367675,40
588,WS_RECV_START,1516299367675,41
588,WS_RECV_END,1516299367818,41
588,PLAYER_SLEEPBEFORE_START,1516299367818,42
588,PLAYER_SLEEPBEFORE_END,1516299385953,42
588,WS_SEND_START,1516299385953,42
588,WS_SEND_END,1516299385953,42
588,WS_RECV_START,1516299385953,43
588,WS_RECV_END,1516299385989,43
588,PLAYER_SLEEPBEFORE_START,1516299385989,44
588,PLAYER_SLEEPBEFORE_END,1516299386001,44
588,WS_SEND_START,1516299386001,44
588,WS_SEND_END,1516299386001,44
588,WS_RECV_START,1516299386001,45
588,WS_RECV_END,1516299386062,45
588,PLAYER_SLEEPBEFORE_START,1516299386062,46
588,PLAYER_SLEEPBEFORE_END,1516299387322,46
588,WS_SEND_START,1516299387322,46
588,WS_SEND_END,1516299387322,46
588,WS_RECV_START,1516299387322,47
588,WS_RECV_END,1516299387532,47
588,PLAYER_SLEEPBEFORE_START,1516299387532,48
588,PLAYER_SLEEPBEFORE_END,1516299388853,48
588,WS_SEND_START,1516299388853,48
588,WS_SEND_END,1516299388853,48
588,WS_RECV_START,1516299388853,49
588,WS_RECV_END,1516299388997,49
588,PLAYER_SLEEPBEFORE_START,1516299388997,50
588,PLAYER_SLEEPBEFORE_END,1516299389021,50
588,WS_SEND_START,1516299389021,50
588,WS_SEND_END,1516299389021,50
588,WS_RECV_START,1516299389021,51
588,WS_RECV_END,1516299389207,51
588,PLAYER_SLEEPBEFORE_START,1516299389207,52
588,PLAYER_SLEEPBEFORE_END,1516299411771,52
588,WS_SEND_START,1516299411771,52
588,WS_SEND_END,1516299411771,52
588,WS_RECV_START,1516299411771,53
588,WS_RECV_END,1516299412019,53
588,PLAYER_SLEEPBEFORE_START,1516299412019,54
588,PLAYER_SLEEPBEFORE_END,1516299433322,54
588,WS_SEND_START,1516299433322,54
588,WS_SEND_END,1516299433322,54
588,PLAYER_SLEEPBEFORE_START,1516299433322,55
588,PLAYER_SLEEPBEFORE_END,1516299435263,55
588,WS_SEND_START,1516299435263,55
588,WS_SEND_END,1516299435263,55
588,WS_RECV_START,1516299435263,56
588,WS_RECV_END,1516299435580,56
588,PLAYER_SLEEPBEFORE_START,1516299435580,57
588,PLAYER_SLEEPBEFORE_END,1516299458452,57
588,WS_SEND_START,1516299458452,57
588,WS_SEND_END,1516299458452,57
588,WS_RECV_START,1516299458452,58
588,WS_RECV_END,1516299458777,58
588,PLAYER_SLEEPBEFORE_START,1516299458777,59
588,PLAYER_SLEEPBEFORE_END,1516299461104,59
588,WS_SEND_START,1516299461104,59
588,WS_SEND_END,1516299461104,59
588,WS_RECV_START,1516299461104,60
588,WS_RECV_END,1516299461296,60
588,PLAYER_SLEEPBEFORE_START,1516299461296,61
588,PLAYER_SLEEPBEFORE_END,1516299464887,61
588,WS_SEND_START,1516299464887,61
588,WS_SEND_END,1516299464887,61
588,WS_RECV_START,1516299464887,62
588,WS_RECV_END,1516299465087,62
588,PLAYER_SLEEPBEFORE_START,1516299465087,63
588,PLAYER_SLEEPBEFORE_END,1516299484349,63
588,WS_SEND_START,1516299484349,63
588,WS_SEND_END,1516299484349,63
588,WS_RECV_START,1516299484349,64
588,WS_RECV_END,1516299485561,64
588,PLAYER_SLEEPBEFORE_START,1516299485561,65
588,PLAYER_SLEEPBEFORE_END,1516299512379,65
588,WS_SEND_START,1516299512379,65
588,WS_SEND_END,1516299512379,65
588,WS_RECV_START,1516299512379,66
588,WS_RECV_END,1516299513084,66
588,PLAYER_SLEEPBEFORE_START,1516299513084,67
588,PLAYER_SLEEPBEFORE_END,1516299514591,67
588,WS_SEND_START,1516299514591,67
588,WS_SEND_END,1516299514591,67
588,WS_RECV_START,1516299514591,68
588,WS_RECV_END,1516299515129,68
588,PLAYER_SLEEPBEFORE_START,1516299515129,69
588,PLAYER_SLEEPBEFORE_END,1516299537127,69
588,WS_SEND_START,1516299537127,69
588,WS_SEND_END,1516299537127,69
588,WS_RECV_START,1516299537127,70
588,WS_RECV_END,1516299539907,70
588,PLAYER_SLEEPBEFORE_START,1516299539907,71
588,PLAYER_SLEEPBEFORE_END,1516299564682,71
588,WS_SEND_START,1516299564682,71
588,WS_SEND_END,1516299564682,71
588,PLAYER_SLEEPBEFORE_START,1516299564682,72
588,PLAYER_SLEEPBEFORE_END,1516299567289,72
588,WS_SEND_START,1516299567289,72
588,WS_SEND_END,1516299567289,72
588,WS_RECV_START,1516299567289,73
588,WS_RECV_END,1516299568402,73
588,PLAYER_SLEEPBEFORE_START,1516299568402,74
588,PLAYER_SLEEPBEFORE_END,1516299568411,74
588,WS_SEND_START,1516299568411,74
588,WS_SEND_END,1516299568411,74
588,WS_RECV_START,1516299568411,75
588,WS_RECV_END,1516299569257,75
588,PLAYER_SLEEPBEFORE_START,1516299569257,76
588,PLAYER_SLEEPBEFORE_END,1516299570763,76
588,WS_SEND_START,1516299570763,76
588,WS_SEND_END,1516299570763,76
588,WS_RECV_START,1516299570763,77
588,WS_RECV_END,1516299572334,77
588,PLAYER_SLEEPBEFORE_START,1516299572334,78
588,PLAYER_SLEEPBEFORE_END,1516299573202,78
588,WS_SEND_START,1516299573202,78
588,WS_SEND_END,1516299573202,78
588,WS_RECV_START,1516299573202,79
588,WS_RECV_END,1516299573369,79
588,PLAYER_SLEEPBEFORE_START,1516299573369,80
588,PLAYER_SLEEPBEFORE_END,1516299581035,80
588,WS_SEND_START,1516299581035,80
588,WS_SEND_END,1516299581035,80
588,WS_RECV_START,1516299581035,81
588,WS_RECV_END,1516299584244,81
588,PLAYER_SLEEPBEFORE_START,1516299584244,82
588,PLAYER_SLEEPBEFORE_END,1516299585346,82
588,WS_SEND_START,1516299585346,82
588,WS_SEND_END,1516299585346,82
588,WS_RECV_START,1516299585346,83
588,WS_RECV_END,1516299588798,83
588,PLAYER_SLEEPBEFORE_START,1516299588799,84
588,PLAYER_SLEEPBEFORE_END,1516299589746,84
588,WS_SEND_START,1516299589746,84
588,WS_SEND_END,1516299589746,84
588,WS_RECV_START,1516299589746,85
588,WS_RECV_END,1516299591002,85
588,PLAYER_SLEEPBEFORE_START,1516299591002,86
588,PLAYER_SLEEPBEFORE_END,1516299595174,86
588,WS_SEND_START,1516299595174,86
588,WS_SEND_END,1516299595174,86
588,WS_RECV_START,1516299595174,87
588,WS_RECV_END,1516299596710,87
588,PLAYER_SLEEPBEFORE_START,1516299596710,88
588,PLAYER_SLEEPBEFORE_END,1516299596718,88
588,WS_SEND_START,1516299596718,88
588,WS_SEND_END,1516299596718,88
588,WS_RECV_START,1516299596718,89
588,WS_RECV_END,1516299597126,89
588,PLAYER_SLEEPBEFORE_START,1516299597126,90
588,PLAYER_SLEEPBEFORE_END,1516299624323,90
588,REQ_START,1516299624323,90
588,REQ_END,1516299624330,90
588,PLAYER_SLEEPBEFORE_START,1516299624330,91
588,PLAYER_SLEEPBEFORE_END,1516299632219,91
588,WS_SEND_START,1516299632219,91
588,WS_SEND_END,1516299632219,91
588,WS_RECV_START,1516299632219,92
588,WS_RECV_END,1516299633237,92
588,PLAYER_SLEEPBEFORE_START,1516299633237,93
588,PLAYER_SLEEPBEFORE_END,1516299633252,93
588,WS_SEND_START,1516299633252,93
588,WS_SEND_END,1516299633253,93
588,WS_RECV_START,1516299633253,94
588,WS_RECV_END,1516299633514,94
588,PLAYER_SLEEPBEFORE_START,1516299633514,95
588,PLAYER_SLEEPBEFORE_END,1516299657069,95
588,WS_SEND_START,1516299657069,95
588,WS_SEND_END,1516299657069,95
588,WS_RECV_START,1516299657069,96
588,WS_RECV_END,1516299657256,96
588,PLAYER_SLEEPBEFORE_START,1516299657256,97
588,PLAYER_SLEEPBEFORE_END,1516299679696,97
588,WS_SEND_START,1516299679696,97
588,WS_SEND_END,1516299679696,97
588,WS_RECV_START,1516299679696,98
588,WS_RECV_END,1516299681046,98
588,PLAYER_SLEEPBEFORE_START,1516299681046,99
588,PLAYER_SLEEPBEFORE_END,1516299681067,99
588,WS_SEND_START,1516299681067,99
588,WS_SEND_END,1516299681067,99
588,WS_RECV_START,1516299681067,100
588,WS_RECV_END,1516299681700,100
588,PLAYER_SLEEPBEFORE_START,1516299681700,101
588,PLAYER_SLEEPBEFORE_END,1516299705260,101
588,WS_SEND_START,1516299705260,101
588,WS_SEND_END,1516299705260,101
588,WS_RECV_START,1516299705260,102
588,WS_RECV_END,1516299705460,102
588,PLAYER_SLEEPBEFORE_START,1516299705460,103
588,PLAYER_SLEEPBEFORE_END,1516299729085,103
588,WS_SEND_START,1516299729085,103
588,WS_SEND_END,1516299729085,103
588,WS_RECV_START,1516299729085,104
588,WS_RECV_END,1516299730313,104
588,PLAYER_SLEEPBEFORE_START,1516299730313,105
588,PLAYER_SLEEPBEFORE_END,1516299755690,105
588,WS_SEND_START,1516299755690,105
588,WS_SEND_END,1516299755690,105
588,WS_RECV_START,1516299755690,106
588,WS_RECV_END,1516299756900,106
588,PLAYER_SLEEPBEFORE_START,1516299756900,107
588,PLAYER_SLEEPBEFORE_END,1516299780323,107
588,WS_SEND_START,1516299780323,107
588,WS_SEND_END,1516299780323,107
588,WS_RECV_START,1516299780323,108
588,WS_RECV_END,1516299781448,108
588,PLAYER_SLEEPBEFORE_START,1516299781448,109
588,PLAYER_SLEEPBEFORE_END,1516299781457,109
588,WS_SEND_START,1516299781457,109
588,WS_SEND_END,1516299781457,109
588,WS_RECV_START,1516299781457,110
588,WS_RECV_END,1516299782024,110
588,PLAYER_SLEEPBEFORE_START,1516299782024,111
588,PLAYER_SLEEPBEFORE_END,1516299782983,111
588,WS_SEND_START,1516299782983,111
588,WS_SEND_END,1516299782983,111
588,WS_RECV_START,1516299782983,112
588,WS_RECV_END,1516299784711,112
588,PLAYER_SLEEPBEFORE_START,1516299784711,113
588,PLAYER_SLEEPBEFORE_END,1516299785274,113
588,WS_SEND_START,1516299785274,113
588,WS_SEND_END,1516299785274,113
588,WS_RECV_START,1516299785274,114
588,WS_RECV_END,1516299786052,114
588,PLAYER_SLEEPBEFORE_START,1516299786052,115
588,PLAYER_SLEEPBEFORE_END,1516299786061,115
588,WS_SEND_START,1516299786061,115
588,WS_SEND_END,1516299786061,115
588,WS_RECV_START,1516299786061,116
588,WS_RECV_END,1516299786456,116
588,PLAYER_SLEEPBEFORE_START,1516299786456,117
588,PLAYER_SLEEPBEFORE_END,1516299806816,117
588,WS_SEND_START,1516299806816,117
588,WS_SEND_END,1516299806816,117
588,PLAYER_SLEEPBEFORE_START,1516299806816,118
588,PLAYER_SLEEPBEFORE_END,1516299810568,118
588,WS_SEND_START,1516299810568,118
588,WS_SEND_END,1516299810568,118
588,WS_RECV_START,1516299810568,119
588,WS_RECV_END,1516299811730,119
588,PLAYER_SLEEPBEFORE_START,1516299811730,120
588,PLAYER_SLEEPBEFORE_END,1516299812718,120
588,WS_SEND_START,1516299812718,120
588,WS_SEND_END,1516299812718,120
588,WS_RECV_START,1516299812718,121
588,WS_RECV_END,1516299814296,121
588,PLAYER_SLEEPBEFORE_START,1516299814296,122
588,PLAYER_SLEEPBEFORE_END,1516299815482,122
588,WS_SEND_START,1516299815482,122
588,WS_SEND_END,1516299815482,122
588,WS_RECV_START,1516299815482,123
588,WS_RECV_END,1516299816890,123
588,PLAYER_SLEEPBEFORE_START,1516299816890,124
588,PLAYER_SLEEPBEFORE_END,1516299841295,124
588,WS_SEND_START,1516299841295,124
588,WS_SEND_END,1516299841295,124
588,WS_RECV_START,1516299841295,125
588,WS_RECV_END,1516299842562,125
588,PLAYER_SLEEPBEFORE_START,1516299842562,126
588,PLAYER_SLEEPBEFORE_END,1516299863074,126
588,WS_SEND_START,1516299863074,126
588,WS_SEND_END,1516299863074,126
588,PLAYER_SLEEPBEFORE_START,1516299863074,127
588,PLAYER_SLEEPBEFORE_END,1516299866129,127
588,WS_SEND_START,1516299866129,127
588,WS_SEND_END,1516299866129,127
588,WS_RECV_START,1516299866129,128
588,WS_RECV_END,1516299869727,128
588,PLAYER_SLEEPBEFORE_START,1516299869727,129
588,PLAYER_SLEEPBEFORE_END,1516299869747,129
588,WS_SEND_START,1516299869747,129
588,WS_SEND_END,1516299869747,129
588,WS_RECV_START,1516299869747,130
588,WS_RECV_END,1516299870390,130
588,PLAYER_SLEEPBEFORE_START,1516299870390,131
588,PLAYER_SLEEPBEFORE_END,1516299892014,131
588,WS_SEND_START,1516299892014,131
588,WS_SEND_END,1516299892014,131
588,PLAYER_SLEEPBEFORE_START,1516299892014,132
588,PLAYER_SLEEPBEFORE_END,1516299895094,132
588,WS_SEND_START,1516299895094,132
588,WS_SEND_END,1516299895094,132
588,WS_RECV_START,1516299895094,133
588,WS_RECV_END,1516299897169,133
588,PLAYER_SLEEPBEFORE_START,1516299897169,134
588,PLAYER_SLEEPBEFORE_END,1516299918386,134
588,WS_SEND_START,1516299918386,134
588,WS_SEND_END,1516299918386,134
588,PLAYER_SLEEPBEFORE_START,1516299918386,135
588,PLAYER_SLEEPBEFORE_END,1516299921576,135
588,WS_SEND_START,1516299921576,135
588,WS_SEND_END,1516299921576,135
588,WS_RECV_START,1516299921576,136
588,WS_RECV_END,1516299922561,136
588,PLAYER_SLEEPBEFORE_START,1516299922561,137
588,PLAYER_SLEEPBEFORE_END,1516299922568,137
588,WS_SEND_START,1516299922568,137
588,WS_SEND_END,1516299922568,137
588,WS_RECV_START,1516299922568,138
588,WS_RECV_END,1516299923033,138
588,PLAYER_SLEEPBEFORE_START,1516299923033,139
588,PLAYER_SLEEPBEFORE_END,1516299923723,139
588,WS_SEND_START,1516299923723,139
588,WS_SEND_END,1516299923723,139
588,WS_RECV_START,1516299923723,140
588,WS_RECV_END,1516299924109,140
588,PLAYER_SLEEPBEFORE_START,1516299924109,141
588,PLAYER_SLEEPBEFORE_END,1516299924764,141
588,WS_SEND_START,1516299924764,141
588,WS_SEND_END,1516299924764,141
588,WS_RECV_START,1516299924764,142
588,WS_RECV_END,1516299925428,142
588,PLAYER_SLEEPBEFORE_START,1516299925428,143
588,PLAYER_SLEEPBEFORE_END,1516299925485,143
588,WS_SEND_START,1516299925486,143
588,WS_SEND_END,1516299925486,143
588,WS_RECV_START,1516299925486,144
588,WS_RECV_END,1516299926005,144
588,PLAYER_SLEEPBEFORE_START,1516299926005,145
588,PLAYER_SLEEPBEFORE_END,1516299942067,145
588,REQ_START,1516299942067,145
588,REQ_END,1516299942074,145
588,PLAYER_SLEEPBEFORE_START,1516299942074,146
588,PLAYER_SLEEPBEFORE_END,1516299950951,146
588,WS_SEND_START,1516299950951,146
588,WS_SEND_END,1516299950951,146
588,WS_RECV_START,1516299950951,147
588,WS_RECV_END,1516299952533,147
588,PLAYER_SLEEPBEFORE_START,1516299952533,148
588,PLAYER_SLEEPBEFORE_END,1516299974455,148
588,WS_SEND_START,1516299974455,148
588,WS_SEND_END,1516299974455,148
588,PLAYER_SLEEPBEFORE_START,1516299974455,149
588,PLAYER_SLEEPBEFORE_END,1516299976883,149
588,WS_SEND_START,1516299976883,149
588,WS_SEND_END,1516299976883,149
588,WS_RECV_START,1516299976883,150
588,WS_RECV_END,1516299977988,150
588,PLAYER_SLEEPBEFORE_START,1516299977988,151
588,PLAYER_SLEEPBEFORE_END,1516299978198,151
588,WS_SEND_START,1516299978198,151
588,WS_SEND_END,1516299978198,151
588,WS_RECV_START,1516299978198,152
588,WS_RECV_END,1516299978516,152
588,PLAYER_SLEEPBEFORE_START,1516299978516,153
588,PLAYER_SLEEPBEFORE_END,1516300002443,153
588,WS_SEND_START,1516300002443,153
588,WS_SEND_END,1516300002443,153
588,WS_RECV_START,1516300002443,154
588,WS_RECV_END,1516300003843,154
588,PLAYER_SLEEPBEFORE_START,1516300003843,155
588,PLAYER_SLEEPBEFORE_END,1516300026401,155
588,WS_SEND_START,1516300026401,155
588,WS_SEND_END,1516300026401,155
588,PLAYER_SLEEPBEFORE_START,1516300026401,156
588,PLAYER_SLEEPBEFORE_END,1516300029675,156
588,WS_SEND_START,1516300029675,156
588,WS_SEND_END,1516300029675,156
588,WS_RECV_START,1516300029675,157
588,WS_RECV_END,1516300029965,157
588,PLAYER_SLEEPBEFORE_START,1516300029965,158
588,PLAYER_SLEEPBEFORE_END,1516300029975,158
588,WS_SEND_START,1516300029975,158
588,WS_SEND_END,1516300029975,158
588,WS_RECV_START,1516300029975,159
588,WS_RECV_END,1516300030325,159
588,PLAYER_SLEEPBEFORE_START,1516300030325,160
588,PLAYER_SLEEPBEFORE_END,1516300030500,160
588,WS_SEND_START,1516300030500,160
588,WS_SEND_END,1516300030500,160
588,WS_RECV_START,1516300030500,161
588,WS_RECV_END,1516300031081,161
588,PLAYER_SLEEPBEFORE_START,1516300031081,162
588,PLAYER_SLEEPBEFORE_END,1516300031106,162
588,WS_SEND_START,1516300031106,162
588,WS_SEND_END,1516300031106,162
588,WS_RECV_START,1516300031106,163
588,WS_RECV_END,1516300031760,163
588,PLAYER_SLEEPBEFORE_START,1516300031760,164
588,PLAYER_SLEEPBEFORE_END,1516300052573,164
588,WS_SEND_START,1516300052573,164
588,WS_SEND_END,1516300052573,164
588,WS_RECV_START,1516300052573,165
588,WS_RECV_END,1516300054198,165
588,PLAYER_SLEEPBEFORE_START,1516300054198,166
588,PLAYER_SLEEPBEFORE_END,1516300076653,166
588,WS_SEND_START,1516300076653,166
588,WS_SEND_END,1516300076653,166
588,WS_RECV_START,1516300076653,167
588,WS_RECV_END,1516300079160,167
588,PLAYER_SLEEPBEFORE_START,1516300079160,168
588,PLAYER_SLEEPBEFORE_END,1516300106517,168
588,WS_SEND_START,1516300106517,168
588,WS_SEND_END,1516300106517,168
588,WS_RECV_START,1516300106517,169
588,WS_RECV_END,1516300106813,169
588,PLAYER_SLEEPBEFORE_START,1516300106813,170
588,PLAYER_SLEEPBEFORE_END,1516300106822,170
588,WS_SEND_START,1516300106822,170
588,WS_SEND_END,1516300106822,170
588,WS_RECV_START,1516300106822,171
588,WS_RECV_END,1516300107112,171
588,PLAYER_SLEEPBEFORE_START,1516300107112,172
588,PLAYER_SLEEPBEFORE_END,1516300107481,172
588,WS_SEND_START,1516300107481,172
588,WS_SEND_END,1516300107481,172
588,WS_RECV_START,1516300107481,173
588,WS_RECV_END,1516300107651,173
588,PLAYER_SLEEPBEFORE_START,1516300107651,174
588,PLAYER_SLEEPBEFORE_END,1516300107692,174
588,WS_SEND_START,1516300107692,174
588,WS_SEND_END,1516300107692,174
588,WS_RECV_START,1516300107692,175
588,WS_RECV_END,1516300108219,175
588,PLAYER_SLEEPBEFORE_START,1516300108219,176
588,PLAYER_SLEEPBEFORE_END,1516300129981,176
588,WS_SEND_START,1516300129981,176
588,WS_SEND_END,1516300129981,176
588,PLAYER_SLEEPBEFORE_START,1516300129981,177
588,PLAYER_SLEEPBEFORE_END,1516300132499,177
588,WS_SEND_START,1516300132499,177
588,WS_SEND_END,1516300132499,177
588,WS_RECV_START,1516300132499,178
588,WS_RECV_END,1516300134113,178
588,PLAYER_SLEEPBEFORE_START,1516300134113,179
588,PLAYER_SLEEPBEFORE_END,1516300156453,179
588,WS_SEND_START,1516300156453,179
588,WS_SEND_END,1516300156453,179
588,WS_RECV_START,1516300156453,180
588,WS_RECV_END,1516300161345,180
588,PLAYER_SLEEPBEFORE_START,1516300161345,181
588,PLAYER_SLEEPBEFORE_END,1516300161789,181
588,WS_SEND_START,1516300161789,181
588,WS_SEND_END,1516300161789,181
588,WS_RECV_START,1516300161789,182
588,WS_RECV_END,1516300163323,182
588,PLAYER_SLEEPBEFORE_START,1516300163323,183
588,PLAYER_SLEEPBEFORE_END,1516300163846,183
588,WS_SEND_START,1516300163846,183
588,WS_SEND_END,1516300163846,183
588,WS_RECV_START,1516300163846,184
588,WS_RECV_END,1516300166656,184
588,PLAYER_SLEEPBEFORE_START,1516300166656,185
588,PLAYER_SLEEPBEFORE_END,1516300166924,185
588,WS_SEND_START,1516300166924,185
588,WS_SEND_END,1516300166924,185
588,WS_RECV_START,1516300166924,186
588,WS_RECV_END,1516300169260,186
588,PLAYER_SLEEPBEFORE_START,1516300169260,187
588,PLAYER_SLEEPBEFORE_END,1516300191760,187
588,WS_SEND_START,1516300191760,187
588,WS_SEND_END,1516300191760,187
588,WS_RECV_START,1516300191760,188
588,WS_RECV_END,1516300197568,188
588,PLAYER_SLEEPBEFORE_START,1516300197568,189
588,PLAYER_SLEEPBEFORE_END,1516300203807,189
588,WS_SEND_START,1516300203807,189
588,WS_SEND_END,1516300203807,189
588,WS_RECV_START,1516300203807,190
588,WS_RECV_END,1516300211452,190
588,PLAYER_SLEEPBEFORE_START,1516300211452,191
588,PLAYER_SLEEPBEFORE_END,1516300213367,191
588,WS_SEND_START,1516300213367,191
588,WS_SEND_END,1516300213367,191
588,WS_RECV_START,1516300213367,192
588,WS_RECV_END,1516300216154,192
588,PLAYER_SLEEPBEFORE_START,1516300216154,193
588,PLAYER_SLEEPBEFORE_END,1516300216282,193
588,WS_SEND_START,1516300216282,193
588,WS_SEND_END,1516300216282,193
588,WS_RECV_START,1516300216282,194
588,WS_RECV_END,1516300219995,194
588,PLAYER_SLEEPBEFORE_START,1516300219995,195
588,PLAYER_SLEEPBEFORE_END,1516300221751,195
588,WS_SEND_START,1516300221751,195
588,WS_SEND_END,1516300221751,195
588,WS_RECV_START,1516300221751,196
588,WS_RECV_END,1516300223341,196
588,PLAYER_SLEEPBEFORE_START,1516300223341,197
588,PLAYER_SLEEPBEFORE_END,1516300225145,197
588,WS_SEND_START,1516300225145,197
588,WS_SEND_END,1516300225146,197
588,WS_RECV_START,1516300225146,198
588,WS_RECV_END,1516300228721,198
588,PLAYER_SLEEPBEFORE_START,1516300228721,199
588,PLAYER_SLEEPBEFORE_END,1516300240576,199
588,WS_SEND_START,1516300240576,199
588,WS_SEND_END,1516300240576,199
588,PLAYER_SLEEPBEFORE_START,1516300240576,200
588,PLAYER_SLEEPBEFORE_END,1516300244664,200
588,WS_SEND_START,1516300244664,200
588,WS_SEND_END,1516300244664,200
588,WS_RECV_START,1516300244664,201
588,WS_RECV_END,1516300246802,201
588,PLAYER_SLEEPBEFORE_START,1516300246802,202
588,PLAYER_SLEEPBEFORE_END,1516300246816,202
588,WS_SEND_START,1516300246816,202
588,WS_SEND_END,1516300246816,202
588,WS_RECV_START,1516300246816,203
588,WS_RECV_END,1516300248954,203
588,PLAYER_SLEEPBEFORE_START,1516300248954,204
588,PLAYER_SLEEPBEFORE_END,1516300268603,204
588,WS_SEND_START,1516300268603,204
588,WS_SEND_END,1516300268603,204
588,PLAYER_SLEEPBEFORE_START,1516300268603,205
588,PLAYER_SLEEPBEFORE_END,1516300272501,205
588,WS_SEND_START,1516300272501,205
588,WS_SEND_END,1516300272501,205
588,WS_RECV_START,1516300272501,206
588,WS_RECV_END,1516300274113,206
588,PLAYER_SLEEPBEFORE_START,1516300274113,207
588,PLAYER_SLEEPBEFORE_END,1516300291044,207
588,REQ_START,1516300291044,207
588,REQ_END,1516300291049,207
588,PLAYER_SLEEPBEFORE_START,1516300291049,208
588,PLAYER_SLEEPBEFORE_END,1516300297901,208
588,WS_CLOSE_START,1516300297901,208
588,WS_CLOSE_END,1516300297901,208
588,PLAYER_DONE,1516300297901
