# --sessions 2700 --app-url=http://shinyloadtest.rstudioservices.com/cran_explorer --output-dir test2700 --overwrite-output --log-level warn --start-interval 100 15min.log
thread_id,event,timestamp,input_line_number,comment
649,PLAYER_SESSION_CREATE,1516299245565
649,PLAYER_START_INTERVAL_START,1516299245565
649,PLAYER_START_INTERVAL_END,1516299310465
649,REQ_HOME_START,1516299310465,2
649,REQ_HOME_END,1516299312320,2
649,REQ_START,1516299312320,3
649,REQ_END,1516299312392,3
649,REQ_START,1516299312392,4
649,REQ_END,1516299312526,4
649,REQ_START,1516299312526,5
649,REQ_END,1516299312564,5
649,REQ_START,1516299312564,6
649,REQ_END,1516299312612,6
649,REQ_START,1516299312612,7
649,REQ_END,1516299312647,7
649,REQ_START,1516299312647,8
649,REQ_END,1516299312687,8
649,REQ_START,1516299312687,9
649,REQ_END,1516299312719,9
649,REQ_START,1516299312719,10
649,REQ_END,1516299312726,10
649,REQ_START,1516299312726,11
649,REQ_END,1516299312846,11
649,REQ_START,1516299312846,12
649,REQ_END,1516299312856,12
649,REQ_START,1516299312856,13
649,REQ_END,1516299312929,13
649,REQ_START,1516299312929,14
649,REQ_END,1516299312946,14
649,REQ_START,1516299312946,15
649,REQ_END,1516299312983,15
649,REQ_TOK_START,1516299312983,16
649,REQ_TOK_END,1516299312990,16
649,REQ_SINF_START,1516299312990,17
649,REQ_SINF_END,1516299312999,17
649,WS_OPEN_START,1516299312999,18
649,WS_OPEN_END,1516299313014,18
649,REQ_START,1516299313014,19
649,REQ_END,1516299313045,19
649,WS_RECV_START,1516299313045,20
649,WS_RECV_END,1516299313045,20
649,PLAYER_SLEEPBEFORE_START,1516299313045,21
649,PLAYER_SLEEPBEFORE_END,1516299313050,21
649,WS_SEND_START,1516299313050,21
649,WS_SEND_END,1516299313050,21
649,PLAYER_SLEEPBEFORE_START,1516299313050,22
649,PLAYER_SLEEPBEFORE_END,1516299313051,22
649,WS_SEND_START,1516299313051,22
649,WS_SEND_END,1516299313051,22
649,WS_RECV_INIT_START,1516299313051,23
649,WS_RECV_INIT_END,1516299313070,23
649,WS_RECV_START,1516299313070,24
649,WS_RECV_END,1516299313159,24
649,PLAYER_SLEEPBEFORE_START,1516299313159,25
649,PLAYER_SLEEPBEFORE_END,1516299313166,25
649,REQ_START,1516299313166,25
649,REQ_END,1516299313362,25
649,PLAYER_SLEEPBEFORE_START,1516299313362,26
649,PLAYER_SLEEPBEFORE_END,1516299313363,26
649,REQ_START,1516299313363,26
649,REQ_END,1516299313452,26
649,PLAYER_SLEEPBEFORE_START,1516299313452,27
649,PLAYER_SLEEPBEFORE_END,1516299313455,27
649,REQ_START,1516299313455,27
649,REQ_END,1516299313503,27
649,PLAYER_SLEEPBEFORE_START,1516299313503,28
649,PLAYER_SLEEPBEFORE_END,1516299313788,28
649,REQ_START,1516299313788,28
649,REQ_END,1516299313869,28
649,PLAYER_SLEEPBEFORE_START,1516299313869,29
649,PLAYER_SLEEPBEFORE_END,1516299314044,29
649,WS_SEND_START,1516299314044,29
649,WS_SEND_END,1516299314044,29
649,WS_RECV_START,1516299314044,30
649,WS_RECV_END,1516299314179,30
649,PLAYER_SLEEPBEFORE_START,1516299314179,31
649,PLAYER_SLEEPBEFORE_END,1516299314190,31
649,REQ_START,1516299314190,31
649,REQ_END,1516299314225,31
649,PLAYER_SLEEPBEFORE_START,1516299314225,32
649,PLAYER_SLEEPBEFORE_END,1516299342370,32
649,WS_SEND_START,1516299342370,32
649,WS_SEND_END,1516299342370,32
649,WS_RECV_START,1516299342370,33
649,WS_RECV_END,1516299342466,33
649,PLAYER_SLEEPBEFORE_START,1516299342466,34
649,PLAYER_SLEEPBEFORE_END,1516299368377,34
649,WS_SEND_START,1516299368377,34
649,WS_SEND_END,1516299368377,34
649,WS_RECV_START,1516299368377,35
649,WS_RECV_END,1516299368409,35
649,PLAYER_SLEEPBEFORE_START,1516299368409,36
649,PLAYER_SLEEPBEFORE_END,1516299368418,36
649,WS_SEND_START,1516299368418,36
649,WS_SEND_END,1516299368418,36
649,WS_RECV_START,1516299368418,37
649,WS_RECV_END,1516299368481,37
649,PLAYER_SLEEPBEFORE_START,1516299368481,38
649,PLAYER_SLEEPBEFORE_END,1516299371676,38
649,WS_SEND_START,1516299371676,38
649,WS_SEND_END,1516299371676,38
649,WS_RECV_START,1516299371676,39
649,WS_RECV_END,1516299371821,39
649,PLAYER_SLEEPBEFORE_START,1516299371821,40
649,PLAYER_SLEEPBEFORE_END,1516299371867,40
649,WS_SEND_START,1516299371867,40
649,WS_SEND_END,1516299371867,40
649,WS_RECV_START,1516299371867,41
649,WS_RECV_END,1516299372043,41
649,PLAYER_SLEEPBEFORE_START,1516299372043,42
649,PLAYER_SLEEPBEFORE_END,1516299390178,42
649,WS_SEND_START,1516299390178,42
649,WS_SEND_END,1516299390178,42
649,WS_RECV_START,1516299390178,43
649,WS_RECV_END,1516299390210,43
649,PLAYER_SLEEPBEFORE_START,1516299390210,44
649,PLAYER_SLEEPBEFORE_END,1516299390223,44
649,WS_SEND_START,1516299390223,44
649,WS_SEND_END,1516299390223,44
649,WS_RECV_START,1516299390223,45
649,WS_RECV_END,1516299390285,45
649,PLAYER_SLEEPBEFORE_START,1516299390285,46
649,PLAYER_SLEEPBEFORE_END,1516299391545,46
649,WS_SEND_START,1516299391545,46
649,WS_SEND_END,1516299391545,46
649,WS_RECV_START,1516299391545,47
649,WS_RECV_END,1516299391573,47
649,PLAYER_SLEEPBEFORE_START,1516299391573,48
649,PLAYER_SLEEPBEFORE_END,1516299392893,48
649,WS_SEND_START,1516299392893,48
649,WS_SEND_END,1516299392893,48
649,WS_RECV_START,1516299392893,49
649,WS_RECV_END,1516299393008,49
649,PLAYER_SLEEPBEFORE_START,1516299393008,50
649,PLAYER_SLEEPBEFORE_END,1516299393032,50
649,WS_SEND_START,1516299393032,50
649,WS_SEND_END,1516299393032,50
649,WS_RECV_START,1516299393032,51
649,WS_RECV_END,1516299393181,51
649,PLAYER_SLEEPBEFORE_START,1516299393181,52
649,PLAYER_SLEEPBEFORE_END,1516299415746,52
649,WS_SEND_START,1516299415746,52
649,WS_SEND_END,1516299415746,52
649,WS_RECV_START,1516299415746,53
649,WS_RECV_END,1516299415961,53
649,PLAYER_SLEEPBEFORE_START,1516299415961,54
649,PLAYER_SLEEPBEFORE_END,1516299437264,54
649,WS_SEND_START,1516299437264,54
649,WS_SEND_END,1516299437264,54
649,PLAYER_SLEEPBEFORE_START,1516299437264,55
649,PLAYER_SLEEPBEFORE_END,1516299439205,55
649,WS_SEND_START,1516299439205,55
649,WS_SEND_END,1516299439205,55
649,WS_RECV_START,1516299439205,56
649,WS_RECV_END,1516299439276,56
649,PLAYER_SLEEPBEFORE_START,1516299439276,57
649,PLAYER_SLEEPBEFORE_END,1516299462148,57
649,WS_SEND_START,1516299462148,57
649,WS_SEND_END,1516299462148,57
649,WS_RECV_START,1516299462148,58
649,WS_RECV_END,1516299462592,58
649,PLAYER_SLEEPBEFORE_START,1516299462592,59
649,PLAYER_SLEEPBEFORE_END,1516299464919,59
649,WS_SEND_START,1516299464919,59
649,WS_SEND_END,1516299464919,59
649,WS_RECV_START,1516299464919,60
649,WS_RECV_END,1516299465177,60
649,PLAYER_SLEEPBEFORE_START,1516299465177,61
649,PLAYER_SLEEPBEFORE_END,1516299468768,61
649,WS_SEND_START,1516299468768,61
649,WS_SEND_END,1516299468768,61
649,WS_RECV_START,1516299468768,62
649,WS_RECV_END,1516299468927,62
649,PLAYER_SLEEPBEFORE_START,1516299468927,63
649,PLAYER_SLEEPBEFORE_END,1516299488189,63
649,WS_SEND_START,1516299488189,63
649,WS_SEND_END,1516299488190,63
649,WS_RECV_START,1516299488190,64
649,WS_RECV_END,1516299488353,64
649,PLAYER_SLEEPBEFORE_START,1516299488353,65
649,PLAYER_SLEEPBEFORE_END,1516299515171,65
649,WS_SEND_START,1516299515171,65
649,WS_SEND_END,1516299515171,65
649,WS_RECV_START,1516299515171,66
649,WS_RECV_END,1516299515824,66
649,PLAYER_SLEEPBEFORE_START,1516299515824,67
649,PLAYER_SLEEPBEFORE_END,1516299517331,67
649,WS_SEND_START,1516299517331,67
649,WS_SEND_END,1516299517331,67
649,WS_RECV_START,1516299517331,68
649,WS_RECV_END,1516299517582,68
649,PLAYER_SLEEPBEFORE_START,1516299517582,69
649,PLAYER_SLEEPBEFORE_END,1516299539580,69
649,WS_SEND_START,1516299539580,69
649,WS_SEND_END,1516299539580,69
649,WS_RECV_START,1516299539580,70
649,WS_RECV_END,1516299540107,70
649,PLAYER_SLEEPBEFORE_START,1516299540107,71
649,PLAYER_SLEEPBEFORE_END,1516299564882,71
649,WS_SEND_START,1516299564882,71
649,WS_SEND_END,1516299564882,71
649,PLAYER_SLEEPBEFORE_START,1516299564882,72
649,PLAYER_SLEEPBEFORE_END,1516299567489,72
649,WS_SEND_START,1516299567489,72
649,WS_SEND_END,1516299567489,72
649,WS_RECV_START,1516299567489,73
649,WS_RECV_END,1516299569493,73
649,PLAYER_SLEEPBEFORE_START,1516299569493,74
649,PLAYER_SLEEPBEFORE_END,1516299569502,74
649,WS_SEND_START,1516299569502,74
649,WS_SEND_END,1516299569502,74
649,WS_RECV_START,1516299569502,75
649,WS_RECV_END,1516299570449,75
649,PLAYER_SLEEPBEFORE_START,1516299570449,76
649,PLAYER_SLEEPBEFORE_END,1516299571955,76
649,WS_SEND_START,1516299571955,76
649,WS_SEND_END,1516299571955,76
649,WS_RECV_START,1516299571955,77
649,WS_RECV_END,1516299573967,77
649,PLAYER_SLEEPBEFORE_START,1516299573967,78
649,PLAYER_SLEEPBEFORE_END,1516299574836,78
649,WS_SEND_START,1516299574836,78
649,WS_SEND_END,1516299574836,78
649,WS_RECV_START,1516299574836,79
649,WS_RECV_END,1516299575530,79
649,PLAYER_SLEEPBEFORE_START,1516299575530,80
649,PLAYER_SLEEPBEFORE_END,1516299583197,80
649,WS_SEND_START,1516299583197,80
649,WS_SEND_END,1516299583197,80
649,WS_RECV_START,1516299583197,81
649,WS_RECV_END,1516299583784,81
649,PLAYER_SLEEPBEFORE_START,1516299583784,82
649,PLAYER_SLEEPBEFORE_END,1516299584886,82
649,WS_SEND_START,1516299584886,82
649,WS_SEND_END,1516299584886,82
649,WS_RECV_START,1516299584886,83
649,WS_RECV_END,1516299585157,83
649,PLAYER_SLEEPBEFORE_START,1516299585157,84
649,PLAYER_SLEEPBEFORE_END,1516299586104,84
649,WS_SEND_START,1516299586104,84
649,WS_SEND_END,1516299586104,84
649,WS_RECV_START,1516299586104,85
649,WS_RECV_END,1516299586376,85
649,PLAYER_SLEEPBEFORE_START,1516299586376,86
649,PLAYER_SLEEPBEFORE_END,1516299590549,86
649,WS_SEND_START,1516299590549,86
649,WS_SEND_END,1516299590549,86
649,WS_RECV_START,1516299590549,87
649,WS_RECV_END,1516299591078,87
649,PLAYER_SLEEPBEFORE_START,1516299591078,88
649,PLAYER_SLEEPBEFORE_END,1516299591086,88
649,WS_SEND_START,1516299591086,88
649,WS_SEND_END,1516299591086,88
649,WS_RECV_START,1516299591086,89
649,WS_RECV_END,1516299591914,89
649,PLAYER_SLEEPBEFORE_START,1516299591914,90
649,PLAYER_SLEEPBEFORE_END,1516299619111,90
649,REQ_START,1516299619111,90
649,REQ_END,1516299619120,90
649,PLAYER_SLEEPBEFORE_START,1516299619120,91
649,PLAYER_SLEEPBEFORE_END,1516299627009,91
649,WS_SEND_START,1516299627009,91
649,WS_SEND_END,1516299627009,91
649,WS_RECV_START,1516299627009,92
649,WS_RECV_END,1516299628092,92
649,PLAYER_SLEEPBEFORE_START,1516299628092,93
649,PLAYER_SLEEPBEFORE_END,1516299628107,93
649,WS_SEND_START,1516299628107,93
649,WS_SEND_END,1516299628107,93
649,WS_RECV_START,1516299628107,94
649,WS_RECV_END,1516299629014,94
649,PLAYER_SLEEPBEFORE_START,1516299629014,95
649,PLAYER_SLEEPBEFORE_END,1516299652569,95
649,WS_SEND_START,1516299652569,95
649,WS_SEND_END,1516299652569,95
649,WS_RECV_START,1516299652569,96
649,WS_RECV_END,1516299652791,96
649,PLAYER_SLEEPBEFORE_START,1516299652791,97
649,PLAYER_SLEEPBEFORE_END,1516299675231,97
649,WS_SEND_START,1516299675231,97
649,WS_SEND_END,1516299675231,97
649,WS_RECV_START,1516299675231,98
649,WS_RECV_END,1516299675467,98
649,PLAYER_SLEEPBEFORE_START,1516299675467,99
649,PLAYER_SLEEPBEFORE_END,1516299675488,99
649,WS_SEND_START,1516299675488,99
649,WS_SEND_END,1516299675488,99
649,WS_RECV_START,1516299675488,100
649,WS_RECV_END,1516299675995,100
649,PLAYER_SLEEPBEFORE_START,1516299675995,101
649,PLAYER_SLEEPBEFORE_END,1516299699554,101
649,WS_SEND_START,1516299699554,101
649,WS_SEND_END,1516299699554,101
649,WS_RECV_START,1516299699554,102
649,WS_RECV_END,1516299699862,102
649,PLAYER_SLEEPBEFORE_START,1516299699862,103
649,PLAYER_SLEEPBEFORE_END,1516299723487,103
649,WS_SEND_START,1516299723487,103
649,WS_SEND_END,1516299723487,103
649,WS_RECV_START,1516299723487,104
649,WS_RECV_END,1516299725122,104
649,PLAYER_SLEEPBEFORE_START,1516299725122,105
649,PLAYER_SLEEPBEFORE_END,1516299750499,105
649,WS_SEND_START,1516299750499,105
649,WS_SEND_END,1516299750499,105
649,WS_RECV_START,1516299750499,106
649,WS_RECV_END,1516299752386,106
649,PLAYER_SLEEPBEFORE_START,1516299752386,107
649,PLAYER_SLEEPBEFORE_END,1516299775810,107
649,WS_SEND_START,1516299775810,107
649,WS_SEND_END,1516299775810,107
649,WS_RECV_START,1516299775810,108
649,WS_RECV_END,1516299777955,108
649,PLAYER_SLEEPBEFORE_START,1516299777955,109
649,PLAYER_SLEEPBEFORE_END,1516299777964,109
649,WS_SEND_START,1516299777964,109
649,WS_SEND_END,1516299777964,109
649,WS_RECV_START,1516299777964,110
649,WS_RECV_END,1516299778693,110
649,PLAYER_SLEEPBEFORE_START,1516299778693,111
649,PLAYER_SLEEPBEFORE_END,1516299779652,111
649,WS_SEND_START,1516299779652,111
649,WS_SEND_END,1516299779652,111
649,WS_RECV_START,1516299779652,112
649,WS_RECV_END,1516299781017,112
649,PLAYER_SLEEPBEFORE_START,1516299781017,113
649,PLAYER_SLEEPBEFORE_END,1516299781579,113
649,WS_SEND_START,1516299781579,113
649,WS_SEND_END,1516299781579,113
649,WS_RECV_START,1516299781579,114
649,WS_RECV_END,1516299782005,114
649,PLAYER_SLEEPBEFORE_START,1516299782005,115
649,PLAYER_SLEEPBEFORE_END,1516299782014,115
649,WS_SEND_START,1516299782014,115
649,WS_SEND_END,1516299782014,115
649,WS_RECV_START,1516299782014,116
649,WS_RECV_END,1516299783136,116
649,PLAYER_SLEEPBEFORE_START,1516299783136,117
649,PLAYER_SLEEPBEFORE_END,1516299803496,117
649,WS_SEND_START,1516299803496,117
649,WS_SEND_END,1516299803496,117
649,PLAYER_SLEEPBEFORE_START,1516299803496,118
649,PLAYER_SLEEPBEFORE_END,1516299807248,118
649,WS_SEND_START,1516299807248,118
649,WS_SEND_END,1516299807248,118
649,WS_RECV_START,1516299807248,119
649,WS_RECV_END,1516299807909,119
649,PLAYER_SLEEPBEFORE_START,1516299807909,120
649,PLAYER_SLEEPBEFORE_END,1516299808898,120
649,WS_SEND_START,1516299808898,120
649,WS_SEND_END,1516299808898,120
649,WS_RECV_START,1516299808898,121
649,WS_RECV_END,1516299810480,121
649,PLAYER_SLEEPBEFORE_START,1516299810480,122
649,PLAYER_SLEEPBEFORE_END,1516299811665,122
649,WS_SEND_START,1516299811665,122
649,WS_SEND_END,1516299811665,122
649,WS_RECV_START,1516299811665,123
649,WS_RECV_END,1516299813214,123
649,PLAYER_SLEEPBEFORE_START,1516299813214,124
649,PLAYER_SLEEPBEFORE_END,1516299837619,124
649,WS_SEND_START,1516299837619,124
649,WS_SEND_END,1516299837619,124
649,WS_RECV_START,1516299837619,125
649,WS_RECV_END,1516299841731,125
649,PLAYER_SLEEPBEFORE_START,1516299841731,126
649,PLAYER_SLEEPBEFORE_END,1516299862243,126
649,WS_SEND_START,1516299862243,126
649,WS_SEND_END,1516299862243,126
649,PLAYER_SLEEPBEFORE_START,1516299862243,127
649,PLAYER_SLEEPBEFORE_END,1516299865297,127
649,WS_SEND_START,1516299865297,127
649,WS_SEND_END,1516299865297,127
649,WS_RECV_START,1516299865297,128
649,WS_RECV_END,1516299866373,128
649,PLAYER_SLEEPBEFORE_START,1516299866373,129
649,PLAYER_SLEEPBEFORE_END,1516299866393,129
649,WS_SEND_START,1516299866393,129
649,WS_SEND_END,1516299866393,129
649,WS_RECV_START,1516299866393,130
649,WS_RECV_END,1516299869456,130
649,PLAYER_SLEEPBEFORE_START,1516299869456,131
649,PLAYER_SLEEPBEFORE_END,1516299891080,131
649,WS_SEND_START,1516299891080,131
649,WS_SEND_END,1516299891080,131
649,PLAYER_SLEEPBEFORE_START,1516299891080,132
649,PLAYER_SLEEPBEFORE_END,1516299894160,132
649,WS_SEND_START,1516299894160,132
649,WS_SEND_END,1516299894160,132
649,WS_RECV_START,1516299894160,133
649,WS_RECV_END,1516299895801,133
649,PLAYER_SLEEPBEFORE_START,1516299895801,134
649,PLAYER_SLEEPBEFORE_END,1516299917019,134
649,WS_SEND_START,1516299917019,134
649,WS_SEND_END,1516299917019,134
649,PLAYER_SLEEPBEFORE_START,1516299917019,135
649,PLAYER_SLEEPBEFORE_END,1516299920209,135
649,WS_SEND_START,1516299920209,135
649,WS_SEND_END,1516299920209,135
649,WS_RECV_START,1516299920209,136
649,WS_RECV_END,1516299921147,136
649,PLAYER_SLEEPBEFORE_START,1516299921147,137
649,PLAYER_SLEEPBEFORE_END,1516299921154,137
649,WS_SEND_START,1516299921154,137
649,WS_SEND_END,1516299921154,137
649,WS_RECV_START,1516299921154,138
649,WS_RECV_END,1516299921670,138
649,PLAYER_SLEEPBEFORE_START,1516299921670,139
649,PLAYER_SLEEPBEFORE_END,1516299922360,139
649,WS_SEND_START,1516299922360,139
649,WS_SEND_END,1516299922360,139
649,WS_RECV_START,1516299922360,140
649,WS_RECV_END,1516299922984,140
649,PLAYER_SLEEPBEFORE_START,1516299922984,141
649,PLAYER_SLEEPBEFORE_END,1516299923639,141
649,WS_SEND_START,1516299923639,141
649,WS_SEND_END,1516299923639,141
649,WS_RECV_START,1516299923639,142
649,WS_RECV_END,1516299924785,142
649,PLAYER_SLEEPBEFORE_START,1516299924785,143
649,PLAYER_SLEEPBEFORE_END,1516299924843,143
649,WS_SEND_START,1516299924843,143
649,WS_SEND_END,1516299924843,143
649,WS_RECV_START,1516299924843,144
649,WS_RECV_END,1516299925634,144
649,PLAYER_SLEEPBEFORE_START,1516299925634,145
649,PLAYER_SLEEPBEFORE_END,1516299941696,145
649,REQ_START,1516299941696,145
649,REQ_END,1516299941705,145
649,PLAYER_SLEEPBEFORE_START,1516299941705,146
649,PLAYER_SLEEPBEFORE_END,1516299950582,146
649,WS_SEND_START,1516299950582,146
649,WS_SEND_END,1516299950582,146
649,WS_RECV_START,1516299950582,147
649,WS_RECV_END,1516299951357,147
649,PLAYER_SLEEPBEFORE_START,1516299951357,148
649,PLAYER_SLEEPBEFORE_END,1516299973279,148
649,WS_SEND_START,1516299973279,148
649,WS_SEND_END,1516299973279,148
649,PLAYER_SLEEPBEFORE_START,1516299973279,149
649,PLAYER_SLEEPBEFORE_END,1516299975707,149
649,WS_SEND_START,1516299975707,149
649,WS_SEND_END,1516299975707,149
649,WS_RECV_START,1516299975707,150
649,WS_RECV_END,1516299978011,150
649,PLAYER_SLEEPBEFORE_START,1516299978011,151
649,PLAYER_SLEEPBEFORE_END,1516299978221,151
649,WS_SEND_START,1516299978221,151
649,WS_SEND_END,1516299978221,151
649,WS_RECV_START,1516299978221,152
649,WS_RECV_END,1516299980547,152
649,PLAYER_SLEEPBEFORE_START,1516299980547,153
649,PLAYER_SLEEPBEFORE_END,1516300004474,153
649,WS_SEND_START,1516300004474,153
649,WS_SEND_END,1516300004474,153
649,WS_RECV_START,1516300004474,154
649,WS_RECV_END,1516300005766,154
649,PLAYER_SLEEPBEFORE_START,1516300005766,155
649,PLAYER_SLEEPBEFORE_END,1516300028325,155
649,WS_SEND_START,1516300028325,155
649,WS_SEND_END,1516300028325,155
649,PLAYER_SLEEPBEFORE_START,1516300028325,156
649,PLAYER_SLEEPBEFORE_END,1516300031615,156
649,WS_SEND_START,1516300031615,156
649,WS_SEND_END,1516300031615,156
649,WS_RECV_START,1516300031615,157
649,WS_RECV_END,1516300032915,157
649,PLAYER_SLEEPBEFORE_START,1516300032915,158
649,PLAYER_SLEEPBEFORE_END,1516300032925,158
649,WS_SEND_START,1516300032925,158
649,WS_SEND_END,1516300032926,158
649,WS_RECV_START,1516300032926,159
649,WS_RECV_END,1516300033162,159
649,PLAYER_SLEEPBEFORE_START,1516300033162,160
649,PLAYER_SLEEPBEFORE_END,1516300033337,160
649,WS_SEND_START,1516300033337,160
649,WS_SEND_END,1516300033337,160
649,WS_RECV_START,1516300033337,161
649,WS_RECV_END,1516300033731,161
649,PLAYER_SLEEPBEFORE_START,1516300033731,162
649,PLAYER_SLEEPBEFORE_END,1516300033758,162
649,WS_SEND_START,1516300033758,162
649,WS_SEND_END,1516300033758,162
649,WS_RECV_START,1516300033758,163
649,WS_RECV_END,1516300034552,163
649,PLAYER_SLEEPBEFORE_START,1516300034552,164
649,PLAYER_SLEEPBEFORE_END,1516300055364,164
649,WS_SEND_START,1516300055364,164
649,WS_SEND_END,1516300055364,164
649,WS_RECV_START,1516300055364,165
649,WS_RECV_END,1516300056138,165
649,PLAYER_SLEEPBEFORE_START,1516300056139,166
649,PLAYER_SLEEPBEFORE_END,1516300078594,166
649,WS_SEND_START,1516300078594,166
649,WS_SEND_END,1516300078594,166
649,WS_RECV_START,1516300078594,167
649,WS_RECV_END,1516300078944,167
649,PLAYER_SLEEPBEFORE_START,1516300078944,168
649,PLAYER_SLEEPBEFORE_END,1516300106301,168
649,WS_SEND_START,1516300106301,168
649,WS_SEND_END,1516300106301,168
649,WS_RECV_START,1516300106301,169
649,WS_RECV_END,1516300107349,169
649,PLAYER_SLEEPBEFORE_START,1516300107349,170
649,PLAYER_SLEEPBEFORE_END,1516300107358,170
649,WS_SEND_START,1516300107358,170
649,WS_SEND_END,1516300107358,170
649,WS_RECV_START,1516300107358,171
649,WS_RECV_END,1516300107855,171
649,PLAYER_SLEEPBEFORE_START,1516300107855,172
649,PLAYER_SLEEPBEFORE_END,1516300108224,172
649,WS_SEND_START,1516300108224,172
649,WS_SEND_END,1516300108224,172
649,WS_RECV_START,1516300108224,173
649,WS_RECV_END,1516300108804,173
649,PLAYER_SLEEPBEFORE_START,1516300108804,174
649,PLAYER_SLEEPBEFORE_END,1516300108845,174
649,WS_SEND_START,1516300108845,174
649,WS_SEND_END,1516300108845,174
649,WS_RECV_START,1516300108845,175
649,WS_RECV_END,1516300109230,175
649,PLAYER_SLEEPBEFORE_START,1516300109230,176
649,PLAYER_SLEEPBEFORE_END,1516300130991,176
649,WS_SEND_START,1516300130991,176
649,WS_SEND_END,1516300130991,176
649,PLAYER_SLEEPBEFORE_START,1516300130991,177
649,PLAYER_SLEEPBEFORE_END,1516300133509,177
649,WS_SEND_START,1516300133509,177
649,WS_SEND_END,1516300133509,177
649,WS_RECV_START,1516300133509,178
649,WS_RECV_END,1516300133712,178
649,PLAYER_SLEEPBEFORE_START,1516300133712,179
649,PLAYER_SLEEPBEFORE_END,1516300156052,179
649,WS_SEND_START,1516300156052,179
649,WS_SEND_END,1516300156052,179
649,WS_RECV_START,1516300156052,180
649,WS_RECV_END,1516300158016,180
649,PLAYER_SLEEPBEFORE_START,1516300158016,181
649,PLAYER_SLEEPBEFORE_END,1516300158461,181
649,WS_SEND_START,1516300158461,181
649,WS_SEND_END,1516300158461,181
649,WS_RECV_START,1516300158461,182
649,WS_RECV_END,1516300161824,182
649,PLAYER_SLEEPBEFORE_START,1516300161824,183
649,PLAYER_SLEEPBEFORE_END,1516300162347,183
649,WS_SEND_START,1516300162347,183
649,WS_SEND_END,1516300162347,183
649,WS_RECV_START,1516300162347,184
649,WS_RECV_END,1516300163672,184
649,PLAYER_SLEEPBEFORE_START,1516300163672,185
649,PLAYER_SLEEPBEFORE_END,1516300163940,185
649,WS_SEND_START,1516300163940,185
649,WS_SEND_END,1516300163940,185
649,WS_RECV_START,1516300163940,186
649,WS_RECV_END,1516300165636,186
649,PLAYER_SLEEPBEFORE_START,1516300165636,187
649,PLAYER_SLEEPBEFORE_END,1516300188136,187
649,WS_SEND_START,1516300188136,187
649,WS_SEND_END,1516300188136,187
649,WS_RECV_START,1516300188136,188
649,WS_RECV_END,1516300193444,188
649,PLAYER_SLEEPBEFORE_START,1516300193444,189
649,PLAYER_SLEEPBEFORE_END,1516300199683,189
649,WS_SEND_START,1516300199683,189
649,WS_SEND_END,1516300199683,189
649,WS_RECV_START,1516300199683,190
649,WS_RECV_END,1516300205306,190
649,PLAYER_SLEEPBEFORE_START,1516300205306,191
649,PLAYER_SLEEPBEFORE_END,1516300207221,191
649,WS_SEND_START,1516300207221,191
649,WS_SEND_END,1516300207221,191
649,WS_RECV_START,1516300207221,192
649,WS_RECV_END,1516300213877,192
649,PLAYER_SLEEPBEFORE_START,1516300213877,193
649,PLAYER_SLEEPBEFORE_END,1516300214005,193
649,WS_SEND_START,1516300214005,193
649,WS_SEND_END,1516300214005,193
649,WS_RECV_START,1516300214005,194
649,WS_RECV_END,1516300217866,194
649,PLAYER_SLEEPBEFORE_START,1516300217866,195
649,PLAYER_SLEEPBEFORE_END,1516300219621,195
649,WS_SEND_START,1516300219621,195
649,WS_SEND_END,1516300219621,195
649,WS_RECV_START,1516300219621,196
649,WS_RECV_END,1516300221131,196
649,PLAYER_SLEEPBEFORE_START,1516300221131,197
649,PLAYER_SLEEPBEFORE_END,1516300222935,197
649,WS_SEND_START,1516300222935,197
649,WS_SEND_END,1516300222935,197
649,WS_RECV_START,1516300222935,198
649,WS_RECV_END,1516300223865,198
649,PLAYER_SLEEPBEFORE_START,1516300223865,199
649,PLAYER_SLEEPBEFORE_END,1516300235719,199
649,WS_SEND_START,1516300235719,199
649,WS_SEND_END,1516300235719,199
649,PLAYER_SLEEPBEFORE_START,1516300235719,200
649,PLAYER_SLEEPBEFORE_END,1516300239807,200
649,WS_SEND_START,1516300239807,200
649,WS_SEND_END,1516300239807,200
649,WS_RECV_START,1516300239807,201
649,WS_RECV_END,1516300242161,201
649,PLAYER_SLEEPBEFORE_START,1516300242161,202
649,PLAYER_SLEEPBEFORE_END,1516300242175,202
649,WS_SEND_START,1516300242175,202
649,WS_SEND_END,1516300242175,202
649,WS_RECV_START,1516300242175,203
649,WS_RECV_END,1516300243320,203
649,PLAYER_SLEEPBEFORE_START,1516300243320,204
649,PLAYER_SLEEPBEFORE_END,1516300262969,204
649,WS_SEND_START,1516300262969,204
649,WS_SEND_END,1516300262969,204
649,PLAYER_SLEEPBEFORE_START,1516300262969,205
649,PLAYER_SLEEPBEFORE_END,1516300266867,205
649,WS_SEND_START,1516300266868,205
649,WS_SEND_END,1516300266868,205
649,WS_RECV_START,1516300266868,206
649,WS_RECV_END,1516300269592,206
649,PLAYER_SLEEPBEFORE_START,1516300269592,207
649,PLAYER_SLEEPBEFORE_END,1516300286523,207
649,REQ_START,1516300286523,207
649,REQ_END,1516300286547,207
649,PLAYER_SLEEPBEFORE_START,1516300286547,208
649,PLAYER_SLEEPBEFORE_END,1516300293399,208
649,WS_CLOSE_START,1516300293399,208
649,WS_CLOSE_END,1516300293399,208
649,PLAYER_DONE,1516300293399
