# --sessions 2700 --app-url=http://shinyloadtest.rstudioservices.com/cran_explorer --output-dir test2700 --overwrite-output --log-level warn --start-interval 100 15min.log
thread_id,event,timestamp,input_line_number,comment
792,PLAYER_SESSION_CREATE,1516299245682
792,PLAYER_START_INTERVAL_START,1516299245682
792,PLAYER_START_INTERVAL_END,1516299324882
792,REQ_HOME_START,1516299324882,2
792,REQ_HOME_END,1516299325026,2
792,REQ_START,1516299325026,3
792,REQ_END,1516299325192,3
792,REQ_START,1516299325192,4
792,REQ_END,1516299325230,4
792,REQ_START,1516299325230,5
792,REQ_END,1516299325268,5
792,REQ_START,1516299325268,6
792,REQ_END,1516299325308,6
792,REQ_START,1516299325308,7
792,REQ_END,1516299325346,7
792,REQ_START,1516299325346,8
792,REQ_END,1516299325416,8
792,REQ_START,1516299325416,9
792,REQ_END,1516299325458,9
792,REQ_START,1516299325458,10
792,REQ_END,1516299325464,10
792,REQ_START,1516299325464,11
792,REQ_END,1516299325503,11
792,REQ_START,1516299325503,12
792,REQ_END,1516299325512,12
792,REQ_START,1516299325512,13
792,REQ_END,1516299325553,13
792,REQ_START,1516299325553,14
792,REQ_END,1516299325575,14
792,REQ_START,1516299325575,15
792,REQ_END,1516299325626,15
792,REQ_TOK_START,1516299325626,16
792,REQ_TOK_END,1516299325632,16
792,REQ_SINF_START,1516299325632,17
792,REQ_SINF_END,1516299325637,17
792,WS_OPEN_START,1516299325637,18
792,WS_OPEN_END,1516299325642,18
792,REQ_START,1516299325642,19
792,REQ_END,1516299325673,19
792,WS_RECV_START,1516299325673,20
792,WS_RECV_END,1516299325673,20
792,PLAYER_SLEEPBEFORE_START,1516299325673,21
792,PLAYER_SLEEPBEFORE_END,1516299325679,21
792,WS_SEND_START,1516299325679,21
792,WS_SEND_END,1516299325679,21
792,PLAYER_SLEEPBEFORE_START,1516299325679,22
792,PLAYER_SLEEPBEFORE_END,1516299325680,22
792,WS_SEND_START,1516299325680,22
792,WS_SEND_END,1516299325680,22
792,WS_RECV_INIT_START,1516299325680,23
792,WS_RECV_INIT_END,1516299325697,23
792,WS_RECV_START,1516299325697,24
792,WS_RECV_END,1516299325748,24
792,PLAYER_SLEEPBEFORE_START,1516299325748,25
792,PLAYER_SLEEPBEFORE_END,1516299325755,25
792,REQ_START,1516299325755,25
792,REQ_END,1516299325792,25
792,PLAYER_SLEEPBEFORE_START,1516299325792,26
792,PLAYER_SLEEPBEFORE_END,1516299325793,26
792,REQ_START,1516299325793,26
792,REQ_END,1516299325831,26
792,PLAYER_SLEEPBEFORE_START,1516299325831,27
792,PLAYER_SLEEPBEFORE_END,1516299325834,27
792,REQ_START,1516299325834,27
792,REQ_END,1516299325878,27
792,PLAYER_SLEEPBEFORE_START,1516299325878,28
792,PLAYER_SLEEPBEFORE_END,1516299326164,28
792,REQ_START,1516299326164,28
792,REQ_END,1516299326205,28
792,PLAYER_SLEEPBEFORE_START,1516299326205,29
792,PLAYER_SLEEPBEFORE_END,1516299326380,29
792,WS_SEND_START,1516299326380,29
792,WS_SEND_END,1516299326380,29
792,WS_RECV_START,1516299326380,30
792,WS_RECV_END,1516299326819,30
792,PLAYER_SLEEPBEFORE_START,1516299326819,31
792,PLAYER_SLEEPBEFORE_END,1516299326830,31
792,REQ_START,1516299326830,31
792,REQ_END,1516299327048,31
792,PLAYER_SLEEPBEFORE_START,1516299327048,32
792,PLAYER_SLEEPBEFORE_END,1516299355193,32
792,WS_SEND_START,1516299355193,32
792,WS_SEND_END,1516299355193,32
792,WS_RECV_START,1516299355193,33
792,WS_RECV_END,1516299355309,33
792,PLAYER_SLEEPBEFORE_START,1516299355309,34
792,PLAYER_SLEEPBEFORE_END,1516299381220,34
792,WS_SEND_START,1516299381220,34
792,WS_SEND_END,1516299381220,34
792,WS_RECV_START,1516299381220,35
792,WS_RECV_END,1516299381257,35
792,PLAYER_SLEEPBEFORE_START,1516299381257,36
792,PLAYER_SLEEPBEFORE_END,1516299381266,36
792,WS_SEND_START,1516299381266,36
792,WS_SEND_END,1516299381266,36
792,WS_RECV_START,1516299381266,37
792,WS_RECV_END,1516299381307,37
792,PLAYER_SLEEPBEFORE_START,1516299381307,38
792,PLAYER_SLEEPBEFORE_END,1516299384502,38
792,WS_SEND_START,1516299384502,38
792,WS_SEND_END,1516299384502,38
792,WS_RECV_START,1516299384502,39
792,WS_RECV_END,1516299384642,39
792,PLAYER_SLEEPBEFORE_START,1516299384642,40
792,PLAYER_SLEEPBEFORE_END,1516299384688,40
792,WS_SEND_START,1516299384688,40
792,WS_SEND_END,1516299384688,40
792,WS_RECV_START,1516299384688,41
792,WS_RECV_END,1516299385011,41
792,PLAYER_SLEEPBEFORE_START,1516299385011,42
792,PLAYER_SLEEPBEFORE_END,1516299403146,42
792,WS_SEND_START,1516299403146,42
792,WS_SEND_END,1516299403146,42
792,WS_RECV_START,1516299403146,43
792,WS_RECV_END,1516299403177,43
792,PLAYER_SLEEPBEFORE_START,1516299403177,44
792,PLAYER_SLEEPBEFORE_END,1516299403189,44
792,WS_SEND_START,1516299403189,44
792,WS_SEND_END,1516299403189,44
792,WS_RECV_START,1516299403189,45
792,WS_RECV_END,1516299403231,45
792,PLAYER_SLEEPBEFORE_START,1516299403231,46
792,PLAYER_SLEEPBEFORE_END,1516299404492,46
792,WS_SEND_START,1516299404492,46
792,WS_SEND_END,1516299404492,46
792,WS_RECV_START,1516299404492,47
792,WS_RECV_END,1516299404598,47
792,PLAYER_SLEEPBEFORE_START,1516299404598,48
792,PLAYER_SLEEPBEFORE_END,1516299405918,48
792,WS_SEND_START,1516299405918,48
792,WS_SEND_END,1516299405918,48
792,WS_RECV_START,1516299405918,49
792,WS_RECV_END,1516299406018,49
792,PLAYER_SLEEPBEFORE_START,1516299406018,50
792,PLAYER_SLEEPBEFORE_END,1516299406042,50
792,WS_SEND_START,1516299406042,50
792,WS_SEND_END,1516299406042,50
792,WS_RECV_START,1516299406042,51
792,WS_RECV_END,1516299406221,51
792,PLAYER_SLEEPBEFORE_START,1516299406221,52
792,PLAYER_SLEEPBEFORE_END,1516299428785,52
792,WS_SEND_START,1516299428785,52
792,WS_SEND_END,1516299428785,52
792,WS_RECV_START,1516299428785,53
792,WS_RECV_END,1516299428967,53
792,PLAYER_SLEEPBEFORE_START,1516299428967,54
792,PLAYER_SLEEPBEFORE_END,1516299450270,54
792,WS_SEND_START,1516299450270,54
792,WS_SEND_END,1516299450270,54
792,PLAYER_SLEEPBEFORE_START,1516299450270,55
792,PLAYER_SLEEPBEFORE_END,1516299452211,55
792,WS_SEND_START,1516299452211,55
792,WS_SEND_END,1516299452211,55
792,WS_RECV_START,1516299452211,56
792,WS_RECV_END,1516299452389,56
792,PLAYER_SLEEPBEFORE_START,1516299452389,57
792,PLAYER_SLEEPBEFORE_END,1516299475261,57
792,WS_SEND_START,1516299475261,57
792,WS_SEND_END,1516299475261,57
792,WS_RECV_START,1516299475261,58
792,WS_RECV_END,1516299475445,58
792,PLAYER_SLEEPBEFORE_START,1516299475445,59
792,PLAYER_SLEEPBEFORE_END,1516299477773,59
792,WS_SEND_START,1516299477773,59
792,WS_SEND_END,1516299477773,59
792,WS_RECV_START,1516299477773,60
792,WS_RECV_END,1516299477900,60
792,PLAYER_SLEEPBEFORE_START,1516299477900,61
792,PLAYER_SLEEPBEFORE_END,1516299481491,61
792,WS_SEND_START,1516299481491,61
792,WS_SEND_END,1516299481491,61
792,WS_RECV_START,1516299481491,62
792,WS_RECV_END,1516299481890,62
792,PLAYER_SLEEPBEFORE_START,1516299481890,63
792,PLAYER_SLEEPBEFORE_END,1516299501152,63
792,WS_SEND_START,1516299501152,63
792,WS_SEND_END,1516299501153,63
792,WS_RECV_START,1516299501153,64
792,WS_RECV_END,1516299501275,64
792,PLAYER_SLEEPBEFORE_START,1516299501275,65
792,PLAYER_SLEEPBEFORE_END,1516299528092,65
792,WS_SEND_START,1516299528092,65
792,WS_SEND_END,1516299528092,65
792,WS_RECV_START,1516299528092,66
792,WS_RECV_END,1516299529264,66
792,PLAYER_SLEEPBEFORE_START,1516299529264,67
792,PLAYER_SLEEPBEFORE_END,1516299530772,67
792,WS_SEND_START,1516299530772,67
792,WS_SEND_END,1516299530772,67
792,WS_RECV_START,1516299530772,68
792,WS_RECV_END,1516299531502,68
792,PLAYER_SLEEPBEFORE_START,1516299531502,69
792,PLAYER_SLEEPBEFORE_END,1516299553500,69
792,WS_SEND_START,1516299553500,69
792,WS_SEND_END,1516299553500,69
792,WS_RECV_START,1516299553500,70
792,WS_RECV_END,1516299553626,70
792,PLAYER_SLEEPBEFORE_START,1516299553626,71
792,PLAYER_SLEEPBEFORE_END,1516299578401,71
792,WS_SEND_START,1516299578401,71
792,WS_SEND_END,1516299578401,71
792,PLAYER_SLEEPBEFORE_START,1516299578401,72
792,PLAYER_SLEEPBEFORE_END,1516299581008,72
792,WS_SEND_START,1516299581008,72
792,WS_SEND_END,1516299581008,72
792,WS_RECV_START,1516299581008,73
792,WS_RECV_END,1516299581119,73
792,PLAYER_SLEEPBEFORE_START,1516299581119,74
792,PLAYER_SLEEPBEFORE_END,1516299581129,74
792,WS_SEND_START,1516299581129,74
792,WS_SEND_END,1516299581129,74
792,WS_RECV_START,1516299581129,75
792,WS_RECV_END,1516299581178,75
792,PLAYER_SLEEPBEFORE_START,1516299581178,76
792,PLAYER_SLEEPBEFORE_END,1516299582684,76
792,WS_SEND_START,1516299582684,76
792,WS_SEND_END,1516299582684,76
792,WS_RECV_START,1516299582684,77
792,WS_RECV_END,1516299583598,77
792,PLAYER_SLEEPBEFORE_START,1516299583598,78
792,PLAYER_SLEEPBEFORE_END,1516299584466,78
792,WS_SEND_START,1516299584466,78
792,WS_SEND_END,1516299584466,78
792,WS_RECV_START,1516299584466,79
792,WS_RECV_END,1516299584989,79
792,PLAYER_SLEEPBEFORE_START,1516299584989,80
792,PLAYER_SLEEPBEFORE_END,1516299592655,80
792,WS_SEND_START,1516299592655,80
792,WS_SEND_END,1516299592655,80
792,WS_RECV_START,1516299592655,81
792,WS_RECV_END,1516299592911,81
792,PLAYER_SLEEPBEFORE_START,1516299592911,82
792,PLAYER_SLEEPBEFORE_END,1516299594013,82
792,WS_SEND_START,1516299594013,82
792,WS_SEND_END,1516299594013,82
792,WS_RECV_START,1516299594013,83
792,WS_RECV_END,1516299594095,83
792,PLAYER_SLEEPBEFORE_START,1516299594095,84
792,PLAYER_SLEEPBEFORE_END,1516299595042,84
792,WS_SEND_START,1516299595042,84
792,WS_SEND_END,1516299595042,84
792,WS_RECV_START,1516299595042,85
792,WS_RECV_END,1516299595476,85
792,PLAYER_SLEEPBEFORE_START,1516299595476,86
792,PLAYER_SLEEPBEFORE_END,1516299599648,86
792,WS_SEND_START,1516299599648,86
792,WS_SEND_END,1516299599648,86
792,WS_RECV_START,1516299599648,87
792,WS_RECV_END,1516299599763,87
792,PLAYER_SLEEPBEFORE_START,1516299599763,88
792,PLAYER_SLEEPBEFORE_END,1516299599771,88
792,WS_SEND_START,1516299599771,88
792,WS_SEND_END,1516299599771,88
792,WS_RECV_START,1516299599771,89
792,WS_RECV_END,1516299599957,89
792,PLAYER_SLEEPBEFORE_START,1516299599957,90
792,PLAYER_SLEEPBEFORE_END,1516299627154,90
792,REQ_START,1516299627154,90
792,REQ_END,1516299627161,90
792,PLAYER_SLEEPBEFORE_START,1516299627161,91
792,PLAYER_SLEEPBEFORE_END,1516299635050,91
792,WS_SEND_START,1516299635050,91
792,WS_SEND_END,1516299635050,91
792,WS_RECV_START,1516299635050,92
792,WS_RECV_END,1516299636855,92
792,PLAYER_SLEEPBEFORE_START,1516299636855,93
792,PLAYER_SLEEPBEFORE_END,1516299636870,93
792,WS_SEND_START,1516299636870,93
792,WS_SEND_END,1516299636870,93
792,WS_RECV_START,1516299636871,94
792,WS_RECV_END,1516299637349,94
792,PLAYER_SLEEPBEFORE_START,1516299637349,95
792,PLAYER_SLEEPBEFORE_END,1516299660904,95
792,WS_SEND_START,1516299660904,95
792,WS_SEND_END,1516299660904,95
792,WS_RECV_START,1516299660904,96
792,WS_RECV_END,1516299662194,96
792,PLAYER_SLEEPBEFORE_START,1516299662194,97
792,PLAYER_SLEEPBEFORE_END,1516299684634,97
792,WS_SEND_START,1516299684634,97
792,WS_SEND_END,1516299684634,97
792,WS_RECV_START,1516299684634,98
792,WS_RECV_END,1516299685904,98
792,PLAYER_SLEEPBEFORE_START,1516299685904,99
792,PLAYER_SLEEPBEFORE_END,1516299685925,99
792,WS_SEND_START,1516299685925,99
792,WS_SEND_END,1516299685925,99
792,WS_RECV_START,1516299685925,100
792,WS_RECV_END,1516299686304,100
792,PLAYER_SLEEPBEFORE_START,1516299686304,101
792,PLAYER_SLEEPBEFORE_END,1516299709863,101
792,WS_SEND_START,1516299709863,101
792,WS_SEND_END,1516299709863,101
792,WS_RECV_START,1516299709863,102
792,WS_RECV_END,1516299710129,102
792,PLAYER_SLEEPBEFORE_START,1516299710129,103
792,PLAYER_SLEEPBEFORE_END,1516299733754,103
792,WS_SEND_START,1516299733754,103
792,WS_SEND_END,1516299733754,103
792,WS_RECV_START,1516299733754,104
792,WS_RECV_END,1516299734379,104
792,PLAYER_SLEEPBEFORE_START,1516299734379,105
792,PLAYER_SLEEPBEFORE_END,1516299759756,105
792,WS_SEND_START,1516299759756,105
792,WS_SEND_END,1516299759756,105
792,WS_RECV_START,1516299759756,106
792,WS_RECV_END,1516299760394,106
792,PLAYER_SLEEPBEFORE_START,1516299760394,107
792,PLAYER_SLEEPBEFORE_END,1516299783818,107
792,WS_SEND_START,1516299783818,107
792,WS_SEND_END,1516299783818,107
792,WS_RECV_START,1516299783818,108
792,WS_RECV_END,1516299785058,108
792,PLAYER_SLEEPBEFORE_START,1516299785058,109
792,PLAYER_SLEEPBEFORE_END,1516299785067,109
792,WS_SEND_START,1516299785067,109
792,WS_SEND_END,1516299785067,109
792,WS_RECV_START,1516299785067,110
792,WS_RECV_END,1516299785660,110
792,PLAYER_SLEEPBEFORE_START,1516299785660,111
792,PLAYER_SLEEPBEFORE_END,1516299786619,111
792,WS_SEND_START,1516299786619,111
792,WS_SEND_END,1516299786619,111
792,WS_RECV_START,1516299786619,112
792,WS_RECV_END,1516299786942,112
792,PLAYER_SLEEPBEFORE_START,1516299786942,113
792,PLAYER_SLEEPBEFORE_END,1516299787505,113
792,WS_SEND_START,1516299787505,113
792,WS_SEND_END,1516299787505,113
792,WS_RECV_START,1516299787505,114
792,WS_RECV_END,1516299788518,114
792,PLAYER_SLEEPBEFORE_START,1516299788518,115
792,PLAYER_SLEEPBEFORE_END,1516299788527,115
792,WS_SEND_START,1516299788527,115
792,WS_SEND_END,1516299788527,115
792,WS_RECV_START,1516299788527,116
792,WS_RECV_END,1516299790618,116
792,PLAYER_SLEEPBEFORE_START,1516299790618,117
792,PLAYER_SLEEPBEFORE_END,1516299810978,117
792,WS_SEND_START,1516299810978,117
792,WS_SEND_END,1516299810978,117
792,PLAYER_SLEEPBEFORE_START,1516299810978,118
792,PLAYER_SLEEPBEFORE_END,1516299814730,118
792,WS_SEND_START,1516299814730,118
792,WS_SEND_END,1516299814730,118
792,WS_RECV_START,1516299814730,119
792,WS_RECV_END,1516299816675,119
792,PLAYER_SLEEPBEFORE_START,1516299816675,120
792,PLAYER_SLEEPBEFORE_END,1516299817663,120
792,WS_SEND_START,1516299817663,120
792,WS_SEND_END,1516299817663,120
792,WS_RECV_START,1516299817663,121
792,WS_RECV_END,1516299818666,121
792,PLAYER_SLEEPBEFORE_START,1516299818666,122
792,PLAYER_SLEEPBEFORE_END,1516299819851,122
792,WS_SEND_START,1516299819851,122
792,WS_SEND_END,1516299819851,122
792,WS_RECV_START,1516299819851,123
792,WS_RECV_END,1516299820910,123
792,PLAYER_SLEEPBEFORE_START,1516299820910,124
792,PLAYER_SLEEPBEFORE_END,1516299845316,124
792,WS_SEND_START,1516299845316,124
792,WS_SEND_END,1516299845316,124
792,WS_RECV_START,1516299845316,125
792,WS_RECV_END,1516299845911,125
792,PLAYER_SLEEPBEFORE_START,1516299845911,126
792,PLAYER_SLEEPBEFORE_END,1516299866423,126
792,WS_SEND_START,1516299866423,126
792,WS_SEND_END,1516299866423,126
792,PLAYER_SLEEPBEFORE_START,1516299866423,127
792,PLAYER_SLEEPBEFORE_END,1516299869477,127
792,WS_SEND_START,1516299869477,127
792,WS_SEND_END,1516299869477,127
792,WS_RECV_START,1516299869477,128
792,WS_RECV_END,1516299869984,128
792,PLAYER_SLEEPBEFORE_START,1516299869985,129
792,PLAYER_SLEEPBEFORE_END,1516299870005,129
792,WS_SEND_START,1516299870005,129
792,WS_SEND_END,1516299870005,129
792,WS_RECV_START,1516299870005,130
792,WS_RECV_END,1516299872101,130
792,PLAYER_SLEEPBEFORE_START,1516299872101,131
792,PLAYER_SLEEPBEFORE_END,1516299893725,131
792,WS_SEND_START,1516299893725,131
792,WS_SEND_END,1516299893725,131
792,PLAYER_SLEEPBEFORE_START,1516299893725,132
792,PLAYER_SLEEPBEFORE_END,1516299896805,132
792,WS_SEND_START,1516299896805,132
792,WS_SEND_END,1516299896805,132
792,WS_RECV_START,1516299896805,133
792,WS_RECV_END,1516299897612,133
792,PLAYER_SLEEPBEFORE_START,1516299897612,134
792,PLAYER_SLEEPBEFORE_END,1516299918830,134
792,WS_SEND_START,1516299918830,134
792,WS_SEND_END,1516299918830,134
792,PLAYER_SLEEPBEFORE_START,1516299918830,135
792,PLAYER_SLEEPBEFORE_END,1516299922020,135
792,WS_SEND_START,1516299922020,135
792,WS_SEND_END,1516299922020,135
792,WS_RECV_START,1516299922020,136
792,WS_RECV_END,1516299923980,136
792,PLAYER_SLEEPBEFORE_START,1516299923980,137
792,PLAYER_SLEEPBEFORE_END,1516299923987,137
792,WS_SEND_START,1516299923987,137
792,WS_SEND_END,1516299923987,137
792,WS_RECV_START,1516299923987,138
792,WS_RECV_END,1516299925293,138
792,PLAYER_SLEEPBEFORE_START,1516299925293,139
792,PLAYER_SLEEPBEFORE_END,1516299925983,139
792,WS_SEND_START,1516299925983,139
792,WS_SEND_END,1516299925983,139
792,WS_RECV_START,1516299925983,140
792,WS_RECV_END,1516299926649,140
792,PLAYER_SLEEPBEFORE_START,1516299926649,141
792,PLAYER_SLEEPBEFORE_END,1516299927304,141
792,WS_SEND_START,1516299927304,141
792,WS_SEND_END,1516299927304,141
792,WS_RECV_START,1516299927304,142
792,WS_RECV_END,1516299928687,142
792,PLAYER_SLEEPBEFORE_START,1516299928687,143
792,PLAYER_SLEEPBEFORE_END,1516299928745,143
792,WS_SEND_START,1516299928745,143
792,WS_SEND_END,1516299928745,143
792,WS_RECV_START,1516299928745,144
792,WS_RECV_END,1516299930393,144
792,PLAYER_SLEEPBEFORE_START,1516299930393,145
792,PLAYER_SLEEPBEFORE_END,1516299946455,145
792,REQ_START,1516299946455,145
792,REQ_END,1516299946462,145
792,PLAYER_SLEEPBEFORE_START,1516299946462,146
792,PLAYER_SLEEPBEFORE_END,1516299955339,146
792,WS_SEND_START,1516299955339,146
792,WS_SEND_END,1516299955339,146
792,WS_RECV_START,1516299955339,147
792,WS_RECV_END,1516299956913,147
792,PLAYER_SLEEPBEFORE_START,1516299956913,148
792,PLAYER_SLEEPBEFORE_END,1516299978835,148
792,WS_SEND_START,1516299978835,148
792,WS_SEND_END,1516299978835,148
792,PLAYER_SLEEPBEFORE_START,1516299978835,149
792,PLAYER_SLEEPBEFORE_END,1516299981263,149
792,WS_SEND_START,1516299981263,149
792,WS_SEND_END,1516299981263,149
792,WS_RECV_START,1516299981263,150
792,WS_RECV_END,1516299982746,150
792,PLAYER_SLEEPBEFORE_START,1516299982746,151
792,PLAYER_SLEEPBEFORE_END,1516299982956,151
792,WS_SEND_START,1516299982956,151
792,WS_SEND_END,1516299982956,151
792,WS_RECV_START,1516299982956,152
792,WS_RECV_END,1516299984244,152
792,PLAYER_SLEEPBEFORE_START,1516299984244,153
792,PLAYER_SLEEPBEFORE_END,1516300008171,153
792,WS_SEND_START,1516300008171,153
792,WS_SEND_END,1516300008171,153
792,WS_RECV_START,1516300008171,154
792,WS_RECV_END,1516300011078,154
792,PLAYER_SLEEPBEFORE_START,1516300011078,155
792,PLAYER_SLEEPBEFORE_END,1516300033636,155
792,WS_SEND_START,1516300033636,155
792,WS_SEND_END,1516300033636,155
792,PLAYER_SLEEPBEFORE_START,1516300033636,156
792,PLAYER_SLEEPBEFORE_END,1516300036911,156
792,WS_SEND_START,1516300036911,156
792,WS_SEND_END,1516300036911,156
792,WS_RECV_START,1516300036911,157
792,WS_RECV_END,1516300038045,157
792,PLAYER_SLEEPBEFORE_START,1516300038045,158
792,PLAYER_SLEEPBEFORE_END,1516300038055,158
792,WS_SEND_START,1516300038055,158
792,WS_SEND_END,1516300038055,158
792,WS_RECV_START,1516300038055,159
792,WS_RECV_END,1516300038469,159
792,PLAYER_SLEEPBEFORE_START,1516300038469,160
792,PLAYER_SLEEPBEFORE_END,1516300038644,160
792,WS_SEND_START,1516300038644,160
792,WS_SEND_END,1516300038644,160
792,WS_RECV_START,1516300038644,161
792,WS_RECV_END,1516300039317,161
792,PLAYER_SLEEPBEFORE_START,1516300039317,162
792,PLAYER_SLEEPBEFORE_END,1516300039352,162
792,WS_SEND_START,1516300039352,162
792,WS_SEND_END,1516300039352,162
792,WS_RECV_START,1516300039352,163
792,WS_RECV_END,1516300041138,163
792,PLAYER_SLEEPBEFORE_START,1516300041138,164
792,PLAYER_SLEEPBEFORE_END,1516300061982,164
792,WS_SEND_START,1516300061982,164
792,WS_SEND_END,1516300061982,164
792,WS_RECV_START,1516300061982,165
792,WS_RECV_END,1516300064120,165
792,PLAYER_SLEEPBEFORE_START,1516300064120,166
792,PLAYER_SLEEPBEFORE_END,1516300086575,166
792,WS_SEND_START,1516300086575,166
792,WS_SEND_END,1516300086575,166
792,WS_RECV_START,1516300086575,167
792,WS_RECV_END,1516300086787,167
792,PLAYER_SLEEPBEFORE_START,1516300086787,168
792,PLAYER_SLEEPBEFORE_END,1516300114165,168
792,WS_SEND_START,1516300114165,168
792,WS_SEND_END,1516300114165,168
792,WS_RECV_START,1516300114165,169
792,WS_RECV_END,1516300115033,169
792,PLAYER_SLEEPBEFORE_START,1516300115033,170
792,PLAYER_SLEEPBEFORE_END,1516300115042,170
792,WS_SEND_START,1516300115042,170
792,WS_SEND_END,1516300115042,170
792,WS_RECV_START,1516300115042,171
792,WS_RECV_END,1516300115692,171
792,PLAYER_SLEEPBEFORE_START,1516300115692,172
792,PLAYER_SLEEPBEFORE_END,1516300116061,172
792,WS_SEND_START,1516300116061,172
792,WS_SEND_END,1516300116061,172
792,WS_RECV_START,1516300116061,173
792,WS_RECV_END,1516300116702,173
792,PLAYER_SLEEPBEFORE_START,1516300116702,174
792,PLAYER_SLEEPBEFORE_END,1516300116743,174
792,WS_SEND_START,1516300116743,174
792,WS_SEND_END,1516300116743,174
792,WS_RECV_START,1516300116743,175
792,WS_RECV_END,1516300118889,175
792,PLAYER_SLEEPBEFORE_START,1516300118889,176
792,PLAYER_SLEEPBEFORE_END,1516300140650,176
792,WS_SEND_START,1516300140650,176
792,WS_SEND_END,1516300140650,176
792,PLAYER_SLEEPBEFORE_START,1516300140650,177
792,PLAYER_SLEEPBEFORE_END,1516300143169,177
792,WS_SEND_START,1516300143169,177
792,WS_SEND_END,1516300143169,177
792,WS_RECV_START,1516300143169,178
792,WS_RECV_END,1516300144088,178
792,PLAYER_SLEEPBEFORE_START,1516300144088,179
792,PLAYER_SLEEPBEFORE_END,1516300166428,179
792,WS_SEND_START,1516300166428,179
792,WS_SEND_END,1516300166428,179
792,WS_RECV_START,1516300166428,180
792,WS_RECV_END,1516300171471,180
792,PLAYER_SLEEPBEFORE_START,1516300171471,181
792,PLAYER_SLEEPBEFORE_END,1516300171915,181
792,WS_SEND_START,1516300171915,181
792,WS_SEND_END,1516300171915,181
792,WS_RECV_START,1516300171915,182
792,WS_RECV_END,1516300178493,182
792,PLAYER_SLEEPBEFORE_START,1516300178493,183
792,PLAYER_SLEEPBEFORE_END,1516300179016,183
792,WS_SEND_START,1516300179016,183
792,WS_SEND_END,1516300179016,183
792,WS_RECV_START,1516300179016,184
792,WS_RECV_END,1516300181958,184
792,PLAYER_SLEEPBEFORE_START,1516300181958,185
792,PLAYER_SLEEPBEFORE_END,1516300182226,185
792,WS_SEND_START,1516300182226,185
792,WS_SEND_END,1516300182226,185
792,WS_RECV_START,1516300182226,186
792,WS_RECV_END,1516300185679,186
792,PLAYER_SLEEPBEFORE_START,1516300185679,187
792,PLAYER_SLEEPBEFORE_END,1516300208179,187
792,WS_SEND_START,1516300208179,187
792,WS_SEND_END,1516300208179,187
792,WS_RECV_START,1516300208179,188
792,WS_RECV_END,1516300214033,188
792,PLAYER_SLEEPBEFORE_START,1516300214033,189
792,PLAYER_SLEEPBEFORE_END,1516300220272,189
792,WS_SEND_START,1516300220272,189
792,WS_SEND_END,1516300220272,189
792,WS_RECV_START,1516300220272,190
792,WS_RECV_END,1516300226365,190
792,PLAYER_SLEEPBEFORE_START,1516300226365,191
792,PLAYER_SLEEPBEFORE_END,1516300228280,191
792,WS_SEND_START,1516300228280,191
792,WS_SEND_END,1516300228280,191
792,WS_RECV_START,1516300228280,192
792,WS_RECV_END,1516300236787,192
792,PLAYER_SLEEPBEFORE_START,1516300236787,193
792,PLAYER_SLEEPBEFORE_END,1516300236915,193
792,WS_SEND_START,1516300236915,193
792,WS_SEND_END,1516300236915,193
792,WS_RECV_START,1516300236915,194
792,WS_RECV_END,1516300239141,194
792,PLAYER_SLEEPBEFORE_START,1516300239141,195
792,PLAYER_SLEEPBEFORE_END,1516300240896,195
792,WS_SEND_START,1516300240896,195
792,WS_SEND_END,1516300240896,195
792,WS_RECV_START,1516300240896,196
792,WS_RECV_END,1516300241849,196
792,PLAYER_SLEEPBEFORE_START,1516300241849,197
792,PLAYER_SLEEPBEFORE_END,1516300243654,197
792,WS_SEND_START,1516300243654,197
792,WS_SEND_END,1516300243654,197
792,WS_RECV_START,1516300243654,198
792,WS_RECV_END,1516300246451,198
792,PLAYER_SLEEPBEFORE_START,1516300246451,199
792,PLAYER_SLEEPBEFORE_END,1516300258306,199
792,WS_SEND_START,1516300258306,199
792,WS_SEND_END,1516300258306,199
792,PLAYER_SLEEPBEFORE_START,1516300258306,200
792,PLAYER_SLEEPBEFORE_END,1516300262394,200
792,WS_SEND_START,1516300262394,200
792,WS_SEND_END,1516300262394,200
792,WS_RECV_START,1516300262394,201
792,WS_RECV_END,1516300267108,201
792,PLAYER_SLEEPBEFORE_START,1516300267108,202
792,PLAYER_SLEEPBEFORE_END,1516300267122,202
792,WS_SEND_START,1516300267122,202
792,WS_SEND_END,1516300267123,202
792,WS_RECV_START,1516300267123,203
792,WS_RECV_END,1516300270384,203
792,PLAYER_SLEEPBEFORE_START,1516300270384,204
792,PLAYER_SLEEPBEFORE_END,1516300290033,204
792,WS_SEND_START,1516300290033,204
792,WS_SEND_END,1516300290033,204
792,PLAYER_SLEEPBEFORE_START,1516300290033,205
792,PLAYER_SLEEPBEFORE_END,1516300293931,205
792,WS_SEND_START,1516300293931,205
792,WS_SEND_END,1516300293931,205
792,WS_RECV_START,1516300293931,206
792,WS_RECV_END,1516300296058,206
792,PLAYER_SLEEPBEFORE_START,1516300296058,207
792,PLAYER_SLEEPBEFORE_END,1516300312989,207
792,REQ_START,1516300312989,207
792,REQ_END,1516300312996,207
792,PLAYER_SLEEPBEFORE_START,1516300312996,208
792,PLAYER_SLEEPBEFORE_END,1516300319848,208
792,WS_CLOSE_START,1516300319848,208
792,WS_CLOSE_END,1516300319848,208
792,PLAYER_DONE,1516300319848
