# --sessions 2700 --app-url=http://shinyloadtest.rstudioservices.com/cran_explorer --output-dir test2700 --overwrite-output --log-level warn --start-interval 100 15min.log
thread_id,event,timestamp,input_line_number,comment
795,PLAYER_SESSION_CREATE,1516299245697
795,PLAYER_START_INTERVAL_START,1516299245697
795,PLAYER_START_INTERVAL_END,1516299325197
795,REQ_HOME_START,1516299325197,2
795,REQ_HOME_END,1516299325318,2
795,REQ_START,1516299325318,3
795,REQ_END,1516299325351,3
795,REQ_START,1516299325351,4
795,REQ_END,1516299325406,4
795,REQ_START,1516299325406,5
795,REQ_END,1516299325448,5
795,REQ_START,1516299325448,6
795,REQ_END,1516299325484,6
795,REQ_START,1516299325484,7
795,REQ_END,1516299325519,7
795,REQ_START,1516299325519,8
795,REQ_END,1516299325553,8
795,REQ_START,1516299325553,9
795,REQ_END,1516299325592,9
795,REQ_START,1516299325592,10
795,REQ_END,1516299325600,10
795,REQ_START,1516299325600,11
795,REQ_END,1516299325633,11
795,REQ_START,1516299325633,12
795,REQ_END,1516299325642,12
795,REQ_START,1516299325642,13
795,REQ_END,1516299325676,13
795,REQ_START,1516299325676,14
795,REQ_END,1516299325690,14
795,REQ_START,1516299325690,15
795,REQ_END,1516299325728,15
795,REQ_TOK_START,1516299325728,16
795,REQ_TOK_END,1516299325735,16
795,REQ_SINF_START,1516299325735,17
795,REQ_SINF_END,1516299325742,17
795,WS_OPEN_START,1516299325742,18
795,WS_OPEN_END,1516299325749,18
795,REQ_START,1516299325749,19
795,REQ_END,1516299325776,19
795,WS_RECV_START,1516299325776,20
795,WS_RECV_END,1516299325776,20
795,PLAYER_SLEEPBEFORE_START,1516299325776,21
795,PLAYER_SLEEPBEFORE_END,1516299325781,21
795,WS_SEND_START,1516299325781,21
795,WS_SEND_END,1516299325781,21
795,PLAYER_SLEEPBEFORE_START,1516299325781,22
795,PLAYER_SLEEPBEFORE_END,1516299325782,22
795,WS_SEND_START,1516299325782,22
795,WS_SEND_END,1516299325782,22
795,WS_RECV_INIT_START,1516299325782,23
795,WS_RECV_INIT_END,1516299325802,23
795,WS_RECV_START,1516299325802,24
795,WS_RECV_END,1516299325850,24
795,PLAYER_SLEEPBEFORE_START,1516299325850,25
795,PLAYER_SLEEPBEFORE_END,1516299325857,25
795,REQ_START,1516299325857,25
795,REQ_END,1516299325911,25
795,PLAYER_SLEEPBEFORE_START,1516299325911,26
795,PLAYER_SLEEPBEFORE_END,1516299325912,26
795,REQ_START,1516299325912,26
795,REQ_END,1516299325947,26
795,PLAYER_SLEEPBEFORE_START,1516299325947,27
795,PLAYER_SLEEPBEFORE_END,1516299325951,27
795,REQ_START,1516299325951,27
795,REQ_END,1516299325985,27
795,PLAYER_SLEEPBEFORE_START,1516299325985,28
795,PLAYER_SLEEPBEFORE_END,1516299326270,28
795,REQ_START,1516299326270,28
795,REQ_END,1516299326305,28
795,PLAYER_SLEEPBEFORE_START,1516299326305,29
795,PLAYER_SLEEPBEFORE_END,1516299326480,29
795,WS_SEND_START,1516299326480,29
795,WS_SEND_END,1516299326480,29
795,WS_RECV_START,1516299326480,30
795,WS_RECV_END,1516299326606,30
795,PLAYER_SLEEPBEFORE_START,1516299326606,31
795,PLAYER_SLEEPBEFORE_END,1516299326617,31
795,REQ_START,1516299326617,31
795,REQ_END,1516299326650,31
795,PLAYER_SLEEPBEFORE_START,1516299326650,32
795,PLAYER_SLEEPBEFORE_END,1516299354796,32
795,WS_SEND_START,1516299354796,32
795,WS_SEND_END,1516299354796,32
795,WS_RECV_START,1516299354796,33
795,WS_RECV_END,1516299354922,33
795,PLAYER_SLEEPBEFORE_START,1516299354922,34
795,PLAYER_SLEEPBEFORE_END,1516299380833,34
795,WS_SEND_START,1516299380833,34
795,WS_SEND_END,1516299380833,34
795,WS_RECV_START,1516299380833,35
795,WS_RECV_END,1516299380865,35
795,PLAYER_SLEEPBEFORE_START,1516299380865,36
795,PLAYER_SLEEPBEFORE_END,1516299380874,36
795,WS_SEND_START,1516299380874,36
795,WS_SEND_END,1516299380874,36
795,WS_RECV_START,1516299380874,37
795,WS_RECV_END,1516299380917,37
795,PLAYER_SLEEPBEFORE_START,1516299380917,38
795,PLAYER_SLEEPBEFORE_END,1516299384112,38
795,WS_SEND_START,1516299384112,38
795,WS_SEND_END,1516299384112,38
795,WS_RECV_START,1516299384112,39
795,WS_RECV_END,1516299384249,39
795,PLAYER_SLEEPBEFORE_START,1516299384249,40
795,PLAYER_SLEEPBEFORE_END,1516299384295,40
795,WS_SEND_START,1516299384295,40
795,WS_SEND_END,1516299384295,40
795,WS_RECV_START,1516299384295,41
795,WS_RECV_END,1516299384439,41
795,PLAYER_SLEEPBEFORE_START,1516299384439,42
795,PLAYER_SLEEPBEFORE_END,1516299402574,42
795,WS_SEND_START,1516299402574,42
795,WS_SEND_END,1516299402574,42
795,WS_RECV_START,1516299402574,43
795,WS_RECV_END,1516299402604,43
795,PLAYER_SLEEPBEFORE_START,1516299402604,44
795,PLAYER_SLEEPBEFORE_END,1516299402616,44
795,WS_SEND_START,1516299402616,44
795,WS_SEND_END,1516299402617,44
795,WS_RECV_START,1516299402617,45
795,WS_RECV_END,1516299402665,45
795,PLAYER_SLEEPBEFORE_START,1516299402665,46
795,PLAYER_SLEEPBEFORE_END,1516299403925,46
795,WS_SEND_START,1516299403925,46
795,WS_SEND_END,1516299403925,46
795,WS_RECV_START,1516299403925,47
795,WS_RECV_END,1516299403952,47
795,PLAYER_SLEEPBEFORE_START,1516299403952,48
795,PLAYER_SLEEPBEFORE_END,1516299405273,48
795,WS_SEND_START,1516299405273,48
795,WS_SEND_END,1516299405273,48
795,WS_RECV_START,1516299405273,49
795,WS_RECV_END,1516299405450,49
795,PLAYER_SLEEPBEFORE_START,1516299405450,50
795,PLAYER_SLEEPBEFORE_END,1516299405474,50
795,WS_SEND_START,1516299405474,50
795,WS_SEND_END,1516299405474,50
795,WS_RECV_START,1516299405474,51
795,WS_RECV_END,1516299405696,51
795,PLAYER_SLEEPBEFORE_START,1516299405696,52
795,PLAYER_SLEEPBEFORE_END,1516299428260,52
795,WS_SEND_START,1516299428260,52
795,WS_SEND_END,1516299428260,52
795,WS_RECV_START,1516299428260,53
795,WS_RECV_END,1516299428437,53
795,PLAYER_SLEEPBEFORE_START,1516299428437,54
795,PLAYER_SLEEPBEFORE_END,1516299449740,54
795,WS_SEND_START,1516299449740,54
795,WS_SEND_END,1516299449740,54
795,PLAYER_SLEEPBEFORE_START,1516299449740,55
795,PLAYER_SLEEPBEFORE_END,1516299451681,55
795,WS_SEND_START,1516299451681,55
795,WS_SEND_END,1516299451681,55
795,WS_RECV_START,1516299451681,56
795,WS_RECV_END,1516299451756,56
795,PLAYER_SLEEPBEFORE_START,1516299451756,57
795,PLAYER_SLEEPBEFORE_END,1516299474628,57
795,WS_SEND_START,1516299474628,57
795,WS_SEND_END,1516299474628,57
795,WS_RECV_START,1516299474628,58
795,WS_RECV_END,1516299474740,58
795,PLAYER_SLEEPBEFORE_START,1516299474740,59
795,PLAYER_SLEEPBEFORE_END,1516299477070,59
795,WS_SEND_START,1516299477070,59
795,WS_SEND_END,1516299477070,59
795,WS_RECV_START,1516299477070,60
795,WS_RECV_END,1516299477451,60
795,PLAYER_SLEEPBEFORE_START,1516299477451,61
795,PLAYER_SLEEPBEFORE_END,1516299481042,61
795,WS_SEND_START,1516299481042,61
795,WS_SEND_END,1516299481042,61
795,WS_RECV_START,1516299481042,62
795,WS_RECV_END,1516299481439,62
795,PLAYER_SLEEPBEFORE_START,1516299481439,63
795,PLAYER_SLEEPBEFORE_END,1516299500701,63
795,WS_SEND_START,1516299500701,63
795,WS_SEND_END,1516299500701,63
795,WS_RECV_START,1516299500701,64
795,WS_RECV_END,1516299501055,64
795,PLAYER_SLEEPBEFORE_START,1516299501055,65
795,PLAYER_SLEEPBEFORE_END,1516299527872,65
795,WS_SEND_START,1516299527872,65
795,WS_SEND_END,1516299527872,65
795,WS_RECV_START,1516299527872,66
795,WS_RECV_END,1516299528431,66
795,PLAYER_SLEEPBEFORE_START,1516299528431,67
795,PLAYER_SLEEPBEFORE_END,1516299529938,67
795,WS_SEND_START,1516299529938,67
795,WS_SEND_END,1516299529938,67
795,WS_RECV_START,1516299529938,68
795,WS_RECV_END,1516299531383,68
795,PLAYER_SLEEPBEFORE_START,1516299531383,69
795,PLAYER_SLEEPBEFORE_END,1516299553381,69
795,WS_SEND_START,1516299553381,69
795,WS_SEND_END,1516299553381,69
795,WS_RECV_START,1516299553381,70
795,WS_RECV_END,1516299554296,70
795,PLAYER_SLEEPBEFORE_START,1516299554297,71
795,PLAYER_SLEEPBEFORE_END,1516299579072,71
795,WS_SEND_START,1516299579072,71
795,WS_SEND_END,1516299579072,71
795,PLAYER_SLEEPBEFORE_START,1516299579072,72
795,PLAYER_SLEEPBEFORE_END,1516299581679,72
795,WS_SEND_START,1516299581679,72
795,WS_SEND_END,1516299581679,72
795,WS_RECV_START,1516299581679,73
795,WS_RECV_END,1516299582777,73
795,PLAYER_SLEEPBEFORE_START,1516299582777,74
795,PLAYER_SLEEPBEFORE_END,1516299582786,74
795,WS_SEND_START,1516299582786,74
795,WS_SEND_END,1516299582786,74
795,WS_RECV_START,1516299582786,75
795,WS_RECV_END,1516299583186,75
795,PLAYER_SLEEPBEFORE_START,1516299583186,76
795,PLAYER_SLEEPBEFORE_END,1516299584692,76
795,WS_SEND_START,1516299584692,76
795,WS_SEND_END,1516299584692,76
795,WS_RECV_START,1516299584692,77
795,WS_RECV_END,1516299585628,77
795,PLAYER_SLEEPBEFORE_START,1516299585628,78
795,PLAYER_SLEEPBEFORE_END,1516299586496,78
795,WS_SEND_START,1516299586496,78
795,WS_SEND_END,1516299586496,78
795,WS_RECV_START,1516299586496,79
795,WS_RECV_END,1516299586986,79
795,PLAYER_SLEEPBEFORE_START,1516299586986,80
795,PLAYER_SLEEPBEFORE_END,1516299594652,80
795,WS_SEND_START,1516299594652,80
795,WS_SEND_END,1516299594652,80
795,WS_RECV_START,1516299594652,81
795,WS_RECV_END,1516299596215,81
795,PLAYER_SLEEPBEFORE_START,1516299596215,82
795,PLAYER_SLEEPBEFORE_END,1516299597317,82
795,WS_SEND_START,1516299597317,82
795,WS_SEND_END,1516299597317,82
795,WS_RECV_START,1516299597317,83
795,WS_RECV_END,1516299598108,83
795,PLAYER_SLEEPBEFORE_START,1516299598108,84
795,PLAYER_SLEEPBEFORE_END,1516299599056,84
795,WS_SEND_START,1516299599056,84
795,WS_SEND_END,1516299599056,84
795,WS_RECV_START,1516299599056,85
795,WS_RECV_END,1516299600765,85
795,PLAYER_SLEEPBEFORE_START,1516299600765,86
795,PLAYER_SLEEPBEFORE_END,1516299604937,86
795,WS_SEND_START,1516299604937,86
795,WS_SEND_END,1516299604937,86
795,WS_RECV_START,1516299604937,87
795,WS_RECV_END,1516299605622,87
795,PLAYER_SLEEPBEFORE_START,1516299605622,88
795,PLAYER_SLEEPBEFORE_END,1516299605630,88
795,WS_SEND_START,1516299605630,88
795,WS_SEND_END,1516299605630,88
795,WS_RECV_START,1516299605630,89
795,WS_RECV_END,1516299606281,89
795,PLAYER_SLEEPBEFORE_START,1516299606281,90
795,PLAYER_SLEEPBEFORE_END,1516299633478,90
795,REQ_START,1516299633478,90
795,REQ_END,1516299633486,90
795,PLAYER_SLEEPBEFORE_START,1516299633486,91
795,PLAYER_SLEEPBEFORE_END,1516299641375,91
795,WS_SEND_START,1516299641375,91
795,WS_SEND_END,1516299641375,91
795,WS_RECV_START,1516299641375,92
795,WS_RECV_END,1516299641904,92
795,PLAYER_SLEEPBEFORE_START,1516299641904,93
795,PLAYER_SLEEPBEFORE_END,1516299641919,93
795,WS_SEND_START,1516299641919,93
795,WS_SEND_END,1516299641919,93
795,WS_RECV_START,1516299641919,94
795,WS_RECV_END,1516299642140,94
795,PLAYER_SLEEPBEFORE_START,1516299642140,95
795,PLAYER_SLEEPBEFORE_END,1516299665695,95
795,WS_SEND_START,1516299665695,95
795,WS_SEND_END,1516299665695,95
795,WS_RECV_START,1516299665695,96
795,WS_RECV_END,1516299667454,96
795,PLAYER_SLEEPBEFORE_START,1516299667454,97
795,PLAYER_SLEEPBEFORE_END,1516299689894,97
795,WS_SEND_START,1516299689894,97
795,WS_SEND_END,1516299689894,97
795,WS_RECV_START,1516299689895,98
795,WS_RECV_END,1516299690753,98
795,PLAYER_SLEEPBEFORE_START,1516299690753,99
795,PLAYER_SLEEPBEFORE_END,1516299690774,99
795,WS_SEND_START,1516299690774,99
795,WS_SEND_END,1516299690774,99
795,WS_RECV_START,1516299690774,100
795,WS_RECV_END,1516299691369,100
795,PLAYER_SLEEPBEFORE_START,1516299691369,101
795,PLAYER_SLEEPBEFORE_END,1516299714928,101
795,WS_SEND_START,1516299714928,101
795,WS_SEND_END,1516299714928,101
795,WS_RECV_START,1516299714928,102
795,WS_RECV_END,1516299715413,102
795,PLAYER_SLEEPBEFORE_START,1516299715413,103
795,PLAYER_SLEEPBEFORE_END,1516299739038,103
795,WS_SEND_START,1516299739038,103
795,WS_SEND_END,1516299739038,103
795,WS_RECV_START,1516299739038,104
795,WS_RECV_END,1516299739620,104
795,PLAYER_SLEEPBEFORE_START,1516299739620,105
795,PLAYER_SLEEPBEFORE_END,1516299764998,105
795,WS_SEND_START,1516299764998,105
795,WS_SEND_END,1516299764998,105
795,WS_RECV_START,1516299764998,106
795,WS_RECV_END,1516299769180,106
795,PLAYER_SLEEPBEFORE_START,1516299769180,107
795,PLAYER_SLEEPBEFORE_END,1516299792604,107
795,WS_SEND_START,1516299792604,107
795,WS_SEND_END,1516299792604,107
795,WS_RECV_START,1516299792604,108
795,WS_RECV_END,1516299796643,108
795,PLAYER_SLEEPBEFORE_START,1516299796644,109
795,PLAYER_SLEEPBEFORE_END,1516299796653,109
795,WS_SEND_START,1516299796653,109
795,WS_SEND_END,1516299796653,109
795,WS_RECV_START,1516299796653,110
795,WS_RECV_END,1516299798909,110
795,PLAYER_SLEEPBEFORE_START,1516299798909,111
795,PLAYER_SLEEPBEFORE_END,1516299799869,111
795,WS_SEND_START,1516299799869,111
795,WS_SEND_END,1516299799869,111
795,WS_RECV_START,1516299799869,112
795,WS_RECV_END,1516299801460,112
795,PLAYER_SLEEPBEFORE_START,1516299801460,113
795,PLAYER_SLEEPBEFORE_END,1516299802023,113
795,WS_SEND_START,1516299802023,113
795,WS_SEND_END,1516299802023,113
795,WS_RECV_START,1516299802023,114
795,WS_RECV_END,1516299804586,114
795,PLAYER_SLEEPBEFORE_START,1516299804586,115
795,PLAYER_SLEEPBEFORE_END,1516299804595,115
795,WS_SEND_START,1516299804595,115
795,WS_SEND_END,1516299804595,115
795,WS_RECV_START,1516299804595,116
795,WS_RECV_END,1516299807178,116
795,PLAYER_SLEEPBEFORE_START,1516299807178,117
795,PLAYER_SLEEPBEFORE_END,1516299827538,117
795,WS_SEND_START,1516299827538,117
795,WS_SEND_END,1516299827538,117
795,PLAYER_SLEEPBEFORE_START,1516299827538,118
795,PLAYER_SLEEPBEFORE_END,1516299831290,118
795,WS_SEND_START,1516299831290,118
795,WS_SEND_END,1516299831290,118
795,WS_RECV_START,1516299831290,119
795,WS_RECV_END,1516299832145,119
795,PLAYER_SLEEPBEFORE_START,1516299832145,120
795,PLAYER_SLEEPBEFORE_END,1516299833133,120
795,WS_SEND_START,1516299833133,120
795,WS_SEND_END,1516299833133,120
795,WS_RECV_START,1516299833133,121
795,WS_RECV_END,1516299834991,121
795,PLAYER_SLEEPBEFORE_START,1516299834991,122
795,PLAYER_SLEEPBEFORE_END,1516299836176,122
795,WS_SEND_START,1516299836176,122
795,WS_SEND_END,1516299836176,122
795,WS_RECV_START,1516299836176,123
795,WS_RECV_END,1516299838471,123
795,PLAYER_SLEEPBEFORE_START,1516299838471,124
795,PLAYER_SLEEPBEFORE_END,1516299862877,124
795,WS_SEND_START,1516299862877,124
795,WS_SEND_END,1516299862877,124
795,WS_RECV_START,1516299862877,125
795,WS_RECV_END,1516299866079,125
795,PLAYER_SLEEPBEFORE_START,1516299866079,126
795,PLAYER_SLEEPBEFORE_END,1516299886591,126
795,WS_SEND_START,1516299886591,126
795,WS_SEND_END,1516299886591,126
795,PLAYER_SLEEPBEFORE_START,1516299886591,127
795,PLAYER_SLEEPBEFORE_END,1516299889646,127
795,WS_SEND_START,1516299889646,127
795,WS_SEND_END,1516299889646,127
795,WS_RECV_START,1516299889646,128
795,WS_RECV_END,1516299892001,128
795,PLAYER_SLEEPBEFORE_START,1516299892001,129
795,PLAYER_SLEEPBEFORE_END,1516299892022,129
795,WS_SEND_START,1516299892022,129
795,WS_SEND_END,1516299892022,129
795,WS_RECV_START,1516299892022,130
795,WS_RECV_END,1516299893641,130
795,PLAYER_SLEEPBEFORE_START,1516299893641,131
795,PLAYER_SLEEPBEFORE_END,1516299915265,131
795,WS_SEND_START,1516299915265,131
795,WS_SEND_END,1516299915265,131
795,PLAYER_SLEEPBEFORE_START,1516299915265,132
795,PLAYER_SLEEPBEFORE_END,1516299918345,132
795,WS_SEND_START,1516299918345,132
795,WS_SEND_END,1516299918345,132
795,WS_RECV_START,1516299918345,133
795,WS_RECV_END,1516299920128,133
795,PLAYER_SLEEPBEFORE_START,1516299920128,134
795,PLAYER_SLEEPBEFORE_END,1516299941345,134
795,WS_SEND_START,1516299941345,134
795,WS_SEND_END,1516299941345,134
795,PLAYER_SLEEPBEFORE_START,1516299941345,135
795,PLAYER_SLEEPBEFORE_END,1516299944535,135
795,WS_SEND_START,1516299944535,135
795,WS_SEND_END,1516299944535,135
795,WS_RECV_START,1516299944535,136
795,WS_RECV_END,1516299944918,136
795,PLAYER_SLEEPBEFORE_START,1516299944918,137
795,PLAYER_SLEEPBEFORE_END,1516299944925,137
795,WS_SEND_START,1516299944925,137
795,WS_SEND_END,1516299944925,137
795,WS_RECV_START,1516299944925,138
795,WS_RECV_END,1516299946514,138
795,PLAYER_SLEEPBEFORE_START,1516299946514,139
795,PLAYER_SLEEPBEFORE_END,1516299947204,139
795,WS_SEND_START,1516299947204,139
795,WS_SEND_END,1516299947204,139
795,WS_RECV_START,1516299947204,140
795,WS_RECV_END,1516299948595,140
795,PLAYER_SLEEPBEFORE_START,1516299948595,141
795,PLAYER_SLEEPBEFORE_END,1516299949250,141
795,WS_SEND_START,1516299949250,141
795,WS_SEND_END,1516299949250,141
795,WS_RECV_START,1516299949250,142
795,WS_RECV_END,1516299950739,142
795,PLAYER_SLEEPBEFORE_START,1516299950739,143
795,PLAYER_SLEEPBEFORE_END,1516299950797,143
795,WS_SEND_START,1516299950797,143
795,WS_SEND_END,1516299950797,143
795,WS_RECV_START,1516299950797,144
795,WS_RECV_END,1516299953301,144
795,PLAYER_SLEEPBEFORE_START,1516299953301,145
795,PLAYER_SLEEPBEFORE_END,1516299969364,145
795,REQ_START,1516299969364,145
795,REQ_END,1516299969372,145
795,PLAYER_SLEEPBEFORE_START,1516299969372,146
795,PLAYER_SLEEPBEFORE_END,1516299978249,146
795,WS_SEND_START,1516299978249,146
795,WS_SEND_END,1516299978249,146
795,WS_RECV_START,1516299978249,147
795,WS_RECV_END,1516299980188,147
795,PLAYER_SLEEPBEFORE_START,1516299980188,148
795,PLAYER_SLEEPBEFORE_END,1516300002110,148
795,WS_SEND_START,1516300002110,148
795,WS_SEND_END,1516300002110,148
795,PLAYER_SLEEPBEFORE_START,1516300002110,149
795,PLAYER_SLEEPBEFORE_END,1516300004538,149
795,WS_SEND_START,1516300004538,149
795,WS_SEND_END,1516300004538,149
795,WS_RECV_START,1516300004538,150
795,WS_RECV_END,1516300007571,150
795,PLAYER_SLEEPBEFORE_START,1516300007571,151
795,PLAYER_SLEEPBEFORE_END,1516300007782,151
795,WS_SEND_START,1516300007782,151
795,WS_SEND_END,1516300007782,151
795,WS_RECV_START,1516300007782,152
795,WS_RECV_END,1516300010259,152
795,PLAYER_SLEEPBEFORE_START,1516300010259,153
795,PLAYER_SLEEPBEFORE_END,1516300034186,153
795,WS_SEND_START,1516300034186,153
795,WS_SEND_END,1516300034186,153
795,WS_RECV_START,1516300034186,154
795,WS_RECV_END,1516300034616,154
795,PLAYER_SLEEPBEFORE_START,1516300034616,155
795,PLAYER_SLEEPBEFORE_END,1516300057174,155
795,WS_SEND_START,1516300057174,155
795,WS_SEND_END,1516300057174,155
795,PLAYER_SLEEPBEFORE_START,1516300057174,156
795,PLAYER_SLEEPBEFORE_END,1516300060448,156
795,WS_SEND_START,1516300060448,156
795,WS_SEND_END,1516300060448,156
795,WS_RECV_START,1516300060448,157
795,WS_RECV_END,1516300064259,157
795,PLAYER_SLEEPBEFORE_START,1516300064259,158
795,PLAYER_SLEEPBEFORE_END,1516300064269,158
795,WS_SEND_START,1516300064269,158
795,WS_SEND_END,1516300064269,158
795,WS_RECV_START,1516300064269,159
795,WS_RECV_END,1516300066097,159
795,PLAYER_SLEEPBEFORE_START,1516300066097,160
795,PLAYER_SLEEPBEFORE_END,1516300066272,160
795,WS_SEND_START,1516300066272,160
795,WS_SEND_END,1516300066272,160
795,WS_RECV_START,1516300066272,161
795,WS_RECV_END,1516300069222,161
795,PLAYER_SLEEPBEFORE_START,1516300069222,162
795,PLAYER_SLEEPBEFORE_END,1516300069247,162
795,WS_SEND_START,1516300069247,162
795,WS_SEND_END,1516300069247,162
795,WS_RECV_START,1516300069247,163
795,WS_RECV_END,1516300072372,163
795,PLAYER_SLEEPBEFORE_START,1516300072372,164
795,PLAYER_SLEEPBEFORE_END,1516300093185,164
795,WS_SEND_START,1516300093185,164
795,WS_SEND_END,1516300093185,164
795,WS_RECV_START,1516300093185,165
795,WS_RECV_END,1516300094907,165
795,PLAYER_SLEEPBEFORE_START,1516300094907,166
795,PLAYER_SLEEPBEFORE_END,1516300117362,166
795,WS_SEND_START,1516300117362,166
795,WS_SEND_END,1516300117362,166
795,WS_RECV_START,1516300117362,167
795,WS_RECV_END,1516300119749,167
795,PLAYER_SLEEPBEFORE_START,1516300119749,168
795,PLAYER_SLEEPBEFORE_END,1516300147106,168
795,WS_SEND_START,1516300147106,168
795,WS_SEND_END,1516300147106,168
795,WS_RECV_START,1516300147106,169
795,WS_RECV_END,1516300150971,169
795,PLAYER_SLEEPBEFORE_START,1516300150972,170
795,PLAYER_SLEEPBEFORE_END,1516300150981,170
795,WS_SEND_START,1516300150981,170
795,WS_SEND_END,1516300150981,170
795,WS_RECV_START,1516300150981,171
795,WS_RECV_END,1516300153446,171
795,PLAYER_SLEEPBEFORE_START,1516300153446,172
795,PLAYER_SLEEPBEFORE_END,1516300153815,172
795,WS_SEND_START,1516300153815,172
795,WS_SEND_END,1516300153815,172
795,WS_RECV_START,1516300153815,173
795,WS_RECV_END,1516300156177,173
795,PLAYER_SLEEPBEFORE_START,1516300156177,174
795,PLAYER_SLEEPBEFORE_END,1516300156218,174
795,WS_SEND_START,1516300156218,174
795,WS_SEND_END,1516300156218,174
795,WS_RECV_START,1516300156218,175
795,WS_RECV_END,1516300160274,175
795,PLAYER_SLEEPBEFORE_START,1516300160274,176
795,PLAYER_SLEEPBEFORE_END,1516300182035,176
795,WS_SEND_START,1516300182035,176
795,WS_SEND_END,1516300182035,176
795,PLAYER_SLEEPBEFORE_START,1516300182035,177
795,PLAYER_SLEEPBEFORE_END,1516300184553,177
795,WS_SEND_START,1516300184553,177
795,WS_SEND_END,1516300184553,177
795,WS_RECV_START,1516300184553,178
795,WS_RECV_END,1516300188551,178
795,PLAYER_SLEEPBEFORE_START,1516300188551,179
795,PLAYER_SLEEPBEFORE_END,1516300210891,179
795,WS_SEND_START,1516300210891,179
795,WS_SEND_END,1516300210891,179
795,WS_RECV_START,1516300210891,180
795,WS_RECV_END,1516300217478,180
795,PLAYER_SLEEPBEFORE_START,1516300217478,181
795,PLAYER_SLEEPBEFORE_END,1516300217922,181
795,WS_SEND_START,1516300217922,181
795,WS_SEND_END,1516300217922,181
795,WS_RECV_START,1516300217922,182
795,WS_RECV_END,1516300222149,182
795,PLAYER_SLEEPBEFORE_START,1516300222149,183
795,PLAYER_SLEEPBEFORE_END,1516300222673,183
795,WS_SEND_START,1516300222673,183
795,WS_SEND_END,1516300222673,183
795,WS_RECV_START,1516300222673,184
795,WS_RECV_END,1516300227742,184
795,PLAYER_SLEEPBEFORE_START,1516300227742,185
795,PLAYER_SLEEPBEFORE_END,1516300228010,185
795,WS_SEND_START,1516300228010,185
795,WS_SEND_END,1516300228010,185
795,WS_RECV_START,1516300228010,186
795,WS_RECV_END,1516300233366,186
795,PLAYER_SLEEPBEFORE_START,1516300233366,187
795,PLAYER_SLEEPBEFORE_END,1516300255866,187
795,WS_SEND_START,1516300255866,187
795,WS_SEND_END,1516300255866,187
795,WS_RECV_START,1516300255866,188
795,WS_RECV_END,1516300264493,188
795,PLAYER_SLEEPBEFORE_START,1516300264493,189
795,PLAYER_SLEEPBEFORE_END,1516300270732,189
795,WS_SEND_START,1516300270732,189
795,WS_SEND_END,1516300270732,189
795,WS_RECV_START,1516300270732,190
795,WS_RECV_END,1516300275535,190
795,PLAYER_SLEEPBEFORE_START,1516300275535,191
795,PLAYER_SLEEPBEFORE_END,1516300277450,191
795,WS_SEND_START,1516300277450,191
795,WS_SEND_END,1516300277450,191
795,WS_RECV_START,1516300277450,192
795,WS_RECV_END,1516300282074,192
795,PLAYER_SLEEPBEFORE_START,1516300282074,193
795,PLAYER_SLEEPBEFORE_END,1516300282202,193
795,WS_SEND_START,1516300282202,193
795,WS_SEND_END,1516300282202,193
795,WS_RECV_START,1516300282202,194
795,WS_RECV_END,1516300285674,194
795,PLAYER_SLEEPBEFORE_START,1516300285674,195
795,PLAYER_SLEEPBEFORE_END,1516300287430,195
795,WS_SEND_START,1516300287430,195
795,WS_SEND_END,1516300287430,195
795,WS_RECV_START,1516300287430,196
795,WS_RECV_END,1516300288165,196
795,PLAYER_SLEEPBEFORE_START,1516300288165,197
795,PLAYER_SLEEPBEFORE_END,1516300289969,197
795,WS_SEND_START,1516300289969,197
795,WS_SEND_END,1516300289969,197
795,WS_RECV_START,1516300289969,198
795,WS_RECV_END,1516300292475,198
795,PLAYER_SLEEPBEFORE_START,1516300292475,199
795,PLAYER_SLEEPBEFORE_END,1516300304329,199
795,WS_SEND_START,1516300304329,199
795,WS_SEND_END,1516300304329,199
795,PLAYER_SLEEPBEFORE_START,1516300304329,200
795,PLAYER_SLEEPBEFORE_END,1516300308417,200
795,WS_SEND_START,1516300308417,200
795,WS_SEND_END,1516300308417,200
795,WS_RECV_START,1516300308417,201
795,WS_RECV_END,1516300308880,201
795,PLAYER_SLEEPBEFORE_START,1516300308881,202
795,PLAYER_SLEEPBEFORE_END,1516300308895,202
795,WS_SEND_START,1516300308895,202
795,WS_SEND_END,1516300308895,202
795,WS_RECV_START,1516300308895,203
795,WS_RECV_END,1516300311158,203
795,PLAYER_SLEEPBEFORE_START,1516300311158,204
795,PLAYER_SLEEPBEFORE_END,1516300330807,204
795,WS_SEND_START,1516300330807,204
795,WS_SEND_END,1516300330807,204
795,PLAYER_SLEEPBEFORE_START,1516300330807,205
795,PLAYER_SLEEPBEFORE_END,1516300334705,205
795,WS_SEND_START,1516300334705,205
795,WS_SEND_END,1516300334705,205
795,WS_RECV_START,1516300334705,206
795,WS_RECV_END,1516300337043,206
795,PLAYER_SLEEPBEFORE_START,1516300337043,207
795,PLAYER_SLEEPBEFORE_END,1516300353974,207
795,REQ_START,1516300353974,207
795,REQ_END,1516300353981,207
795,PLAYER_SLEEPBEFORE_START,1516300353981,208
795,PLAYER_SLEEPBEFORE_END,1516300360833,208
795,WS_CLOSE_START,1516300360833,208
795,WS_CLOSE_END,1516300360833,208
795,PLAYER_DONE,1516300360833
