# --sessions 2700 --app-url=http://shinyloadtest.rstudioservices.com/cran_explorer --output-dir test2700 --overwrite-output --log-level warn --start-interval 100 15min.log
thread_id,event,timestamp,input_line_number,comment
94,PLAYER_SESSION_CREATE,1516299245269
94,PLAYER_START_INTERVAL_START,1516299245269
94,PLAYER_START_INTERVAL_END,1516299254669
94,REQ_HOME_START,1516299254669,2
94,REQ_HOME_END,1516299254769,2
94,REQ_START,1516299254769,3
94,REQ_END,1516299254809,3
94,REQ_START,1516299254809,4
94,REQ_END,1516299254847,4
94,REQ_START,1516299254847,5
94,REQ_END,1516299254996,5
94,REQ_START,1516299254996,6
94,REQ_END,1516299255065,6
94,REQ_START,1516299255065,7
94,REQ_END,1516299255103,7
94,REQ_START,1516299255103,8
94,REQ_END,1516299255139,8
94,REQ_START,1516299255139,9
94,REQ_END,1516299255180,9
94,REQ_START,1516299255180,10
94,REQ_END,1516299255187,10
94,REQ_START,1516299255187,11
94,REQ_END,1516299255226,11
94,REQ_START,1516299255226,12
94,REQ_END,1516299255233,12
94,REQ_START,1516299255233,13
94,REQ_END,1516299255269,13
94,REQ_START,1516299255269,14
94,REQ_END,1516299255281,14
94,REQ_START,1516299255281,15
94,REQ_END,1516299255326,15
94,REQ_TOK_START,1516299255326,16
94,REQ_TOK_END,1516299255332,16
94,REQ_SINF_START,1516299255332,17
94,REQ_SINF_END,1516299255341,17
94,WS_OPEN_START,1516299255341,18
94,WS_OPEN_END,1516299255347,18
94,REQ_START,1516299255347,19
94,REQ_END,1516299255380,19
94,WS_RECV_START,1516299255380,20
94,WS_RECV_END,1516299255380,20
94,PLAYER_SLEEPBEFORE_START,1516299255380,21
94,PLAYER_SLEEPBEFORE_END,1516299255385,21
94,WS_SEND_START,1516299255385,21
94,WS_SEND_END,1516299255385,21
94,PLAYER_SLEEPBEFORE_START,1516299255385,22
94,PLAYER_SLEEPBEFORE_END,1516299255386,22
94,WS_SEND_START,1516299255386,22
94,WS_SEND_END,1516299255386,22
94,WS_RECV_INIT_START,1516299255387,23
94,WS_RECV_INIT_END,1516299255405,23
94,WS_RECV_START,1516299255405,24
94,WS_RECV_END,1516299255452,24
94,PLAYER_SLEEPBEFORE_START,1516299255452,25
94,PLAYER_SLEEPBEFORE_END,1516299255459,25
94,REQ_START,1516299255459,25
94,REQ_END,1516299255498,25
94,PLAYER_SLEEPBEFORE_START,1516299255498,26
94,PLAYER_SLEEPBEFORE_END,1516299255499,26
94,REQ_START,1516299255499,26
94,REQ_END,1516299255538,26
94,PLAYER_SLEEPBEFORE_START,1516299255538,27
94,PLAYER_SLEEPBEFORE_END,1516299255542,27
94,REQ_START,1516299255542,27
94,REQ_END,1516299255578,27
94,PLAYER_SLEEPBEFORE_START,1516299255578,28
94,PLAYER_SLEEPBEFORE_END,1516299255863,28
94,REQ_START,1516299255863,28
94,REQ_END,1516299255935,28
94,PLAYER_SLEEPBEFORE_START,1516299255935,29
94,PLAYER_SLEEPBEFORE_END,1516299256110,29
94,WS_SEND_START,1516299256110,29
94,WS_SEND_END,1516299256110,29
94,WS_RECV_START,1516299256110,30
94,WS_RECV_END,1516299256223,30
94,PLAYER_SLEEPBEFORE_START,1516299256223,31
94,PLAYER_SLEEPBEFORE_END,1516299256234,31
94,REQ_START,1516299256235,31
94,REQ_END,1516299256276,31
94,PLAYER_SLEEPBEFORE_START,1516299256276,32
94,PLAYER_SLEEPBEFORE_END,1516299284421,32
94,WS_SEND_START,1516299284421,32
94,WS_SEND_END,1516299284421,32
94,WS_RECV_START,1516299284421,33
94,WS_RECV_END,1516299284519,33
94,PLAYER_SLEEPBEFORE_START,1516299284519,34
94,PLAYER_SLEEPBEFORE_END,1516299310430,34
94,WS_SEND_START,1516299310430,34
94,WS_SEND_END,1516299310430,34
94,WS_RECV_START,1516299310430,35
94,WS_RECV_END,1516299311112,35
94,PLAYER_SLEEPBEFORE_START,1516299311112,36
94,PLAYER_SLEEPBEFORE_END,1516299311121,36
94,WS_SEND_START,1516299311121,36
94,WS_SEND_END,1516299311121,36
94,WS_RECV_START,1516299311121,37
94,WS_RECV_END,1516299311380,37
94,PLAYER_SLEEPBEFORE_START,1516299311380,38
94,PLAYER_SLEEPBEFORE_END,1516299314575,38
94,WS_SEND_START,1516299314575,38
94,WS_SEND_END,1516299314575,38
94,WS_RECV_START,1516299314575,39
94,WS_RECV_END,1516299314814,39
94,PLAYER_SLEEPBEFORE_START,1516299314814,40
94,PLAYER_SLEEPBEFORE_END,1516299314860,40
94,WS_SEND_START,1516299314860,40
94,WS_SEND_END,1516299314860,40
94,WS_RECV_START,1516299314860,41
94,WS_RECV_END,1516299315100,41
94,PLAYER_SLEEPBEFORE_START,1516299315100,42
94,PLAYER_SLEEPBEFORE_END,1516299333235,42
94,WS_SEND_START,1516299333235,42
94,WS_SEND_END,1516299333235,42
94,WS_RECV_START,1516299333235,43
94,WS_RECV_END,1516299335275,43
94,PLAYER_SLEEPBEFORE_START,1516299335275,44
94,PLAYER_SLEEPBEFORE_END,1516299335287,44
94,WS_SEND_START,1516299335287,44
94,WS_SEND_END,1516299335287,44
94,WS_RECV_START,1516299335287,45
94,WS_RECV_END,1516299335776,45
94,PLAYER_SLEEPBEFORE_START,1516299335776,46
94,PLAYER_SLEEPBEFORE_END,1516299337036,46
94,WS_SEND_START,1516299337036,46
94,WS_SEND_END,1516299337036,46
94,WS_RECV_START,1516299337036,47
94,WS_RECV_END,1516299337117,47
94,PLAYER_SLEEPBEFORE_START,1516299337117,48
94,PLAYER_SLEEPBEFORE_END,1516299338437,48
94,WS_SEND_START,1516299338437,48
94,WS_SEND_END,1516299338437,48
94,WS_RECV_START,1516299338437,49
94,WS_RECV_END,1516299338660,49
94,PLAYER_SLEEPBEFORE_START,1516299338660,50
94,PLAYER_SLEEPBEFORE_END,1516299338685,50
94,WS_SEND_START,1516299338685,50
94,WS_SEND_END,1516299338685,50
94,WS_RECV_START,1516299338685,51
94,WS_RECV_END,1516299338867,51
94,PLAYER_SLEEPBEFORE_START,1516299338867,52
94,PLAYER_SLEEPBEFORE_END,1516299361431,52
94,WS_SEND_START,1516299361431,52
94,WS_SEND_END,1516299361431,52
94,WS_RECV_START,1516299361431,53
94,WS_RECV_END,1516299361629,53
94,PLAYER_SLEEPBEFORE_START,1516299361629,54
94,PLAYER_SLEEPBEFORE_END,1516299382932,54
94,WS_SEND_START,1516299382932,54
94,WS_SEND_END,1516299382932,54
94,PLAYER_SLEEPBEFORE_START,1516299382932,55
94,PLAYER_SLEEPBEFORE_END,1516299384873,55
94,WS_SEND_START,1516299384873,55
94,WS_SEND_END,1516299384873,55
94,WS_RECV_START,1516299384873,56
94,WS_RECV_END,1516299385112,56
94,PLAYER_SLEEPBEFORE_START,1516299385112,57
94,PLAYER_SLEEPBEFORE_END,1516299407984,57
94,WS_SEND_START,1516299407984,57
94,WS_SEND_END,1516299407984,57
94,WS_RECV_START,1516299407984,58
94,WS_RECV_END,1516299408046,58
94,PLAYER_SLEEPBEFORE_START,1516299408046,59
94,PLAYER_SLEEPBEFORE_END,1516299410373,59
94,WS_SEND_START,1516299410373,59
94,WS_SEND_END,1516299410373,59
94,WS_RECV_START,1516299410373,60
94,WS_RECV_END,1516299410476,60
94,PLAYER_SLEEPBEFORE_START,1516299410476,61
94,PLAYER_SLEEPBEFORE_END,1516299414068,61
94,WS_SEND_START,1516299414068,61
94,WS_SEND_END,1516299414068,61
94,WS_RECV_START,1516299414068,62
94,WS_RECV_END,1516299414160,62
94,PLAYER_SLEEPBEFORE_START,1516299414160,63
94,PLAYER_SLEEPBEFORE_END,1516299433422,63
94,WS_SEND_START,1516299433422,63
94,WS_SEND_END,1516299433422,63
94,WS_RECV_START,1516299433422,64
94,WS_RECV_END,1516299433501,64
94,PLAYER_SLEEPBEFORE_START,1516299433501,65
94,PLAYER_SLEEPBEFORE_END,1516299460318,65
94,WS_SEND_START,1516299460318,65
94,WS_SEND_END,1516299460318,65
94,WS_RECV_START,1516299460318,66
94,WS_RECV_END,1516299460489,66
94,PLAYER_SLEEPBEFORE_START,1516299460489,67
94,PLAYER_SLEEPBEFORE_END,1516299461997,67
94,WS_SEND_START,1516299461997,67
94,WS_SEND_END,1516299461997,67
94,WS_RECV_START,1516299461997,68
94,WS_RECV_END,1516299462196,68
94,PLAYER_SLEEPBEFORE_START,1516299462196,69
94,PLAYER_SLEEPBEFORE_END,1516299484194,69
94,WS_SEND_START,1516299484194,69
94,WS_SEND_END,1516299484194,69
94,WS_RECV_START,1516299484194,70
94,WS_RECV_END,1516299484357,70
94,PLAYER_SLEEPBEFORE_START,1516299484358,71
94,PLAYER_SLEEPBEFORE_END,1516299509133,71
94,WS_SEND_START,1516299509133,71
94,WS_SEND_END,1516299509133,71
94,PLAYER_SLEEPBEFORE_START,1516299509133,72
94,PLAYER_SLEEPBEFORE_END,1516299511740,72
94,WS_SEND_START,1516299511740,72
94,WS_SEND_END,1516299511740,72
94,WS_RECV_START,1516299511740,73
94,WS_RECV_END,1516299511976,73
94,PLAYER_SLEEPBEFORE_START,1516299511976,74
94,PLAYER_SLEEPBEFORE_END,1516299511985,74
94,WS_SEND_START,1516299511985,74
94,WS_SEND_END,1516299511985,74
94,WS_RECV_START,1516299511985,75
94,WS_RECV_END,1516299512149,75
94,PLAYER_SLEEPBEFORE_START,1516299512149,76
94,PLAYER_SLEEPBEFORE_END,1516299513656,76
94,WS_SEND_START,1516299513656,76
94,WS_SEND_END,1516299513656,76
94,WS_RECV_START,1516299513656,77
94,WS_RECV_END,1516299513844,77
94,PLAYER_SLEEPBEFORE_START,1516299513844,78
94,PLAYER_SLEEPBEFORE_END,1516299514712,78
94,WS_SEND_START,1516299514712,78
94,WS_SEND_END,1516299514712,78
94,WS_RECV_START,1516299514712,79
94,WS_RECV_END,1516299514796,79
94,PLAYER_SLEEPBEFORE_START,1516299514796,80
94,PLAYER_SLEEPBEFORE_END,1516299522462,80
94,WS_SEND_START,1516299522462,80
94,WS_SEND_END,1516299522462,80
94,WS_RECV_START,1516299522462,81
94,WS_RECV_END,1516299523256,81
94,PLAYER_SLEEPBEFORE_START,1516299523256,82
94,PLAYER_SLEEPBEFORE_END,1516299524358,82
94,WS_SEND_START,1516299524358,82
94,WS_SEND_END,1516299524358,82
94,WS_RECV_START,1516299524358,83
94,WS_RECV_END,1516299524550,83
94,PLAYER_SLEEPBEFORE_START,1516299524550,84
94,PLAYER_SLEEPBEFORE_END,1516299525497,84
94,WS_SEND_START,1516299525497,84
94,WS_SEND_END,1516299525497,84
94,WS_RECV_START,1516299525497,85
94,WS_RECV_END,1516299525617,85
94,PLAYER_SLEEPBEFORE_START,1516299525617,86
94,PLAYER_SLEEPBEFORE_END,1516299529789,86
94,WS_SEND_START,1516299529789,86
94,WS_SEND_END,1516299529789,86
94,WS_RECV_START,1516299529789,87
94,WS_RECV_END,1516299531079,87
94,PLAYER_SLEEPBEFORE_START,1516299531079,88
94,PLAYER_SLEEPBEFORE_END,1516299531087,88
94,WS_SEND_START,1516299531087,88
94,WS_SEND_END,1516299531087,88
94,WS_RECV_START,1516299531087,89
94,WS_RECV_END,1516299531902,89
94,PLAYER_SLEEPBEFORE_START,1516299531902,90
94,PLAYER_SLEEPBEFORE_END,1516299559099,90
94,REQ_START,1516299559099,90
94,REQ_END,1516299559103,90
94,PLAYER_SLEEPBEFORE_START,1516299559103,91
94,PLAYER_SLEEPBEFORE_END,1516299566992,91
94,WS_SEND_START,1516299566992,91
94,WS_SEND_END,1516299566992,91
94,WS_RECV_START,1516299566992,92
94,WS_RECV_END,1516299568361,92
94,PLAYER_SLEEPBEFORE_START,1516299568361,93
94,PLAYER_SLEEPBEFORE_END,1516299568376,93
94,WS_SEND_START,1516299568376,93
94,WS_SEND_END,1516299568376,93
94,WS_RECV_START,1516299568376,94
94,WS_RECV_END,1516299569973,94
94,PLAYER_SLEEPBEFORE_START,1516299569973,95
94,PLAYER_SLEEPBEFORE_END,1516299593528,95
94,WS_SEND_START,1516299593528,95
94,WS_SEND_END,1516299593528,95
94,WS_RECV_START,1516299593528,96
94,WS_RECV_END,1516299594569,96
94,PLAYER_SLEEPBEFORE_START,1516299594569,97
94,PLAYER_SLEEPBEFORE_END,1516299617010,97
94,WS_SEND_START,1516299617010,97
94,WS_SEND_END,1516299617010,97
94,WS_RECV_START,1516299617010,98
94,WS_RECV_END,1516299618802,98
94,PLAYER_SLEEPBEFORE_START,1516299618802,99
94,PLAYER_SLEEPBEFORE_END,1516299618823,99
94,WS_SEND_START,1516299618823,99
94,WS_SEND_END,1516299618823,99
94,WS_RECV_START,1516299618823,100
94,WS_RECV_END,1516299619815,100
94,PLAYER_SLEEPBEFORE_START,1516299619815,101
94,PLAYER_SLEEPBEFORE_END,1516299643374,101
94,WS_SEND_START,1516299643374,101
94,WS_SEND_END,1516299643374,101
94,WS_RECV_START,1516299643374,102
94,WS_RECV_END,1516299644115,102
94,PLAYER_SLEEPBEFORE_START,1516299644115,103
94,PLAYER_SLEEPBEFORE_END,1516299667740,103
94,WS_SEND_START,1516299667740,103
94,WS_SEND_END,1516299667740,103
94,WS_RECV_START,1516299667740,104
94,WS_RECV_END,1516299668157,104
94,PLAYER_SLEEPBEFORE_START,1516299668157,105
94,PLAYER_SLEEPBEFORE_END,1516299693534,105
94,WS_SEND_START,1516299693534,105
94,WS_SEND_END,1516299693534,105
94,WS_RECV_START,1516299693534,106
94,WS_RECV_END,1516299694157,106
94,PLAYER_SLEEPBEFORE_START,1516299694157,107
94,PLAYER_SLEEPBEFORE_END,1516299717580,107
94,WS_SEND_START,1516299717580,107
94,WS_SEND_END,1516299717580,107
94,WS_RECV_START,1516299717580,108
94,WS_RECV_END,1516299719460,108
94,PLAYER_SLEEPBEFORE_START,1516299719460,109
94,PLAYER_SLEEPBEFORE_END,1516299719469,109
94,WS_SEND_START,1516299719469,109
94,WS_SEND_END,1516299719469,109
94,WS_RECV_START,1516299719469,110
94,WS_RECV_END,1516299719894,110
94,PLAYER_SLEEPBEFORE_START,1516299719894,111
94,PLAYER_SLEEPBEFORE_END,1516299720853,111
94,WS_SEND_START,1516299720853,111
94,WS_SEND_END,1516299720853,111
94,WS_RECV_START,1516299720853,112
94,WS_RECV_END,1516299721220,112
94,PLAYER_SLEEPBEFORE_START,1516299721220,113
94,PLAYER_SLEEPBEFORE_END,1516299721782,113
94,WS_SEND_START,1516299721782,113
94,WS_SEND_END,1516299721782,113
94,WS_RECV_START,1516299721782,114
94,WS_RECV_END,1516299722509,114
94,PLAYER_SLEEPBEFORE_START,1516299722509,115
94,PLAYER_SLEEPBEFORE_END,1516299722518,115
94,WS_SEND_START,1516299722518,115
94,WS_SEND_END,1516299722518,115
94,WS_RECV_START,1516299722518,116
94,WS_RECV_END,1516299723804,116
94,PLAYER_SLEEPBEFORE_START,1516299723804,117
94,PLAYER_SLEEPBEFORE_END,1516299744164,117
94,WS_SEND_START,1516299744164,117
94,WS_SEND_END,1516299744164,117
94,PLAYER_SLEEPBEFORE_START,1516299744164,118
94,PLAYER_SLEEPBEFORE_END,1516299747916,118
94,WS_SEND_START,1516299747916,118
94,WS_SEND_END,1516299747916,118
94,WS_RECV_START,1516299747916,119
94,WS_RECV_END,1516299748946,119
94,PLAYER_SLEEPBEFORE_START,1516299748946,120
94,PLAYER_SLEEPBEFORE_END,1516299749934,120
94,WS_SEND_START,1516299749934,120
94,WS_SEND_END,1516299749934,120
94,WS_RECV_START,1516299749934,121
94,WS_RECV_END,1516299752400,121
94,PLAYER_SLEEPBEFORE_START,1516299752400,122
94,PLAYER_SLEEPBEFORE_END,1516299753585,122
94,WS_SEND_START,1516299753585,122
94,WS_SEND_END,1516299753585,122
94,WS_RECV_START,1516299753585,123
94,WS_RECV_END,1516299757416,123
94,PLAYER_SLEEPBEFORE_START,1516299757416,124
94,PLAYER_SLEEPBEFORE_END,1516299781821,124
94,WS_SEND_START,1516299781821,124
94,WS_SEND_END,1516299781821,124
94,WS_RECV_START,1516299781821,125
94,WS_RECV_END,1516299784458,125
94,PLAYER_SLEEPBEFORE_START,1516299784458,126
94,PLAYER_SLEEPBEFORE_END,1516299804970,126
94,WS_SEND_START,1516299804970,126
94,WS_SEND_END,1516299804970,126
94,PLAYER_SLEEPBEFORE_START,1516299804970,127
94,PLAYER_SLEEPBEFORE_END,1516299808024,127
94,WS_SEND_START,1516299808024,127
94,WS_SEND_END,1516299808024,127
94,WS_RECV_START,1516299808024,128
94,WS_RECV_END,1516299811113,128
94,PLAYER_SLEEPBEFORE_START,1516299811113,129
94,PLAYER_SLEEPBEFORE_END,1516299811133,129
94,WS_SEND_START,1516299811133,129
94,WS_SEND_END,1516299811133,129
94,WS_RECV_START,1516299811133,130
94,WS_RECV_END,1516299812646,130
94,PLAYER_SLEEPBEFORE_START,1516299812646,131
94,PLAYER_SLEEPBEFORE_END,1516299834270,131
94,WS_SEND_START,1516299834270,131
94,WS_SEND_END,1516299834270,131
94,PLAYER_SLEEPBEFORE_START,1516299834270,132
94,PLAYER_SLEEPBEFORE_END,1516299837350,132
94,WS_SEND_START,1516299837350,132
94,WS_SEND_END,1516299837350,132
94,WS_RECV_START,1516299837350,133
94,WS_RECV_END,1516299838815,133
94,PLAYER_SLEEPBEFORE_START,1516299838815,134
94,PLAYER_SLEEPBEFORE_END,1516299860032,134
94,WS_SEND_START,1516299860032,134
94,WS_SEND_END,1516299860032,134
94,PLAYER_SLEEPBEFORE_START,1516299860032,135
94,PLAYER_SLEEPBEFORE_END,1516299863222,135
94,WS_SEND_START,1516299863222,135
94,WS_SEND_END,1516299863222,135
94,WS_RECV_START,1516299863222,136
94,WS_RECV_END,1516299864305,136
94,PLAYER_SLEEPBEFORE_START,1516299864305,137
94,PLAYER_SLEEPBEFORE_END,1516299864312,137
94,WS_SEND_START,1516299864312,137
94,WS_SEND_END,1516299864312,137
94,WS_RECV_START,1516299864312,138
94,WS_RECV_END,1516299865778,138
94,PLAYER_SLEEPBEFORE_START,1516299865778,139
94,PLAYER_SLEEPBEFORE_END,1516299866468,139
94,WS_SEND_START,1516299866468,139
94,WS_SEND_END,1516299866468,139
94,WS_RECV_START,1516299866468,140
94,WS_RECV_END,1516299867996,140
94,PLAYER_SLEEPBEFORE_START,1516299867996,141
94,PLAYER_SLEEPBEFORE_END,1516299868651,141
94,WS_SEND_START,1516299868651,141
94,WS_SEND_END,1516299868652,141
94,WS_RECV_START,1516299868652,142
94,WS_RECV_END,1516299871746,142
94,PLAYER_SLEEPBEFORE_START,1516299871746,143
94,PLAYER_SLEEPBEFORE_END,1516299871803,143
94,WS_SEND_START,1516299871803,143
94,WS_SEND_END,1516299871803,143
94,WS_RECV_START,1516299871803,144
94,WS_RECV_END,1516299875783,144
94,PLAYER_SLEEPBEFORE_START,1516299875783,145
94,PLAYER_SLEEPBEFORE_END,1516299891845,145
94,REQ_START,1516299891845,145
94,REQ_END,1516299891851,145
94,PLAYER_SLEEPBEFORE_START,1516299891851,146
94,PLAYER_SLEEPBEFORE_END,1516299900728,146
94,WS_SEND_START,1516299900728,146
94,WS_SEND_END,1516299900728,146
94,WS_RECV_START,1516299900728,147
94,WS_RECV_END,1516299904721,147
94,PLAYER_SLEEPBEFORE_START,1516299904721,148
94,PLAYER_SLEEPBEFORE_END,1516299926643,148
94,WS_SEND_START,1516299926643,148
94,WS_SEND_END,1516299926643,148
94,PLAYER_SLEEPBEFORE_START,1516299926643,149
94,PLAYER_SLEEPBEFORE_END,1516299929071,149
94,WS_SEND_START,1516299929071,149
94,WS_SEND_END,1516299929071,149
94,WS_RECV_START,1516299929071,150
94,WS_RECV_END,1516299929970,150
94,PLAYER_SLEEPBEFORE_START,1516299929970,151
94,PLAYER_SLEEPBEFORE_END,1516299930180,151
94,WS_SEND_START,1516299930180,151
94,WS_SEND_END,1516299930180,151
94,WS_RECV_START,1516299930180,152
94,WS_RECV_END,1516299930692,152
94,PLAYER_SLEEPBEFORE_START,1516299930692,153
94,PLAYER_SLEEPBEFORE_END,1516299954619,153
94,WS_SEND_START,1516299954619,153
94,WS_SEND_END,1516299954619,153
94,WS_RECV_START,1516299954619,154
94,WS_RECV_END,1516299957306,154
94,PLAYER_SLEEPBEFORE_START,1516299957306,155
94,PLAYER_SLEEPBEFORE_END,1516299979864,155
94,WS_SEND_START,1516299979864,155
94,WS_SEND_END,1516299979864,155
94,PLAYER_SLEEPBEFORE_START,1516299979864,156
94,PLAYER_SLEEPBEFORE_END,1516299983138,156
94,WS_SEND_START,1516299983138,156
94,WS_SEND_END,1516299983138,156
94,WS_RECV_START,1516299983138,157
94,WS_RECV_END,1516299985669,157
94,PLAYER_SLEEPBEFORE_START,1516299985669,158
94,PLAYER_SLEEPBEFORE_END,1516299985679,158
94,WS_SEND_START,1516299985679,158
94,WS_SEND_END,1516299985679,158
94,WS_RECV_START,1516299985679,159
94,WS_RECV_END,1516299988031,159
94,PLAYER_SLEEPBEFORE_START,1516299988031,160
94,PLAYER_SLEEPBEFORE_END,1516299988206,160
94,WS_SEND_START,1516299988206,160
94,WS_SEND_END,1516299988206,160
94,WS_RECV_START,1516299988206,161
94,WS_RECV_END,1516299989616,161
94,PLAYER_SLEEPBEFORE_START,1516299989616,162
94,PLAYER_SLEEPBEFORE_END,1516299989641,162
94,WS_SEND_START,1516299989641,162
94,WS_SEND_END,1516299989641,162
94,WS_RECV_START,1516299989641,163
94,WS_RECV_END,1516299991488,163
94,PLAYER_SLEEPBEFORE_START,1516299991488,164
94,PLAYER_SLEEPBEFORE_END,1516300012300,164
94,WS_SEND_START,1516300012300,164
94,WS_SEND_END,1516300012300,164
94,WS_RECV_START,1516300012300,165
94,WS_RECV_END,1516300018102,165
94,PLAYER_SLEEPBEFORE_START,1516300018102,166
94,PLAYER_SLEEPBEFORE_END,1516300040557,166
94,WS_SEND_START,1516300040557,166
94,WS_SEND_END,1516300040557,166
94,WS_RECV_START,1516300040557,167
94,WS_RECV_END,1516300041604,167
94,PLAYER_SLEEPBEFORE_START,1516300041604,168
94,PLAYER_SLEEPBEFORE_END,1516300068962,168
94,WS_SEND_START,1516300068962,168
94,WS_SEND_END,1516300068962,168
94,WS_RECV_START,1516300068962,169
94,WS_RECV_END,1516300071142,169
94,PLAYER_SLEEPBEFORE_START,1516300071142,170
94,PLAYER_SLEEPBEFORE_END,1516300071151,170
94,WS_SEND_START,1516300071151,170
94,WS_SEND_END,1516300071151,170
94,WS_RECV_START,1516300071151,171
94,WS_RECV_END,1516300072263,171
94,PLAYER_SLEEPBEFORE_START,1516300072263,172
94,PLAYER_SLEEPBEFORE_END,1516300072632,172
94,WS_SEND_START,1516300072632,172
94,WS_SEND_END,1516300072632,172
94,WS_RECV_START,1516300072632,173
94,WS_RECV_END,1516300073555,173
94,PLAYER_SLEEPBEFORE_START,1516300073555,174
94,PLAYER_SLEEPBEFORE_END,1516300073596,174
94,WS_SEND_START,1516300073596,174
94,WS_SEND_END,1516300073596,174
94,WS_RECV_START,1516300073596,175
94,WS_RECV_END,1516300074766,175
94,PLAYER_SLEEPBEFORE_START,1516300074766,176
94,PLAYER_SLEEPBEFORE_END,1516300096527,176
94,WS_SEND_START,1516300096527,176
94,WS_SEND_END,1516300096527,176
94,PLAYER_SLEEPBEFORE_START,1516300096527,177
94,PLAYER_SLEEPBEFORE_END,1516300099045,177
94,WS_SEND_START,1516300099045,177
94,WS_SEND_END,1516300099045,177
94,WS_RECV_START,1516300099046,178
94,WS_RECV_END,1516300101105,178
94,PLAYER_SLEEPBEFORE_START,1516300101105,179
94,PLAYER_SLEEPBEFORE_END,1516300123445,179
94,WS_SEND_START,1516300123445,179
94,WS_SEND_END,1516300123445,179
94,WS_RECV_START,1516300123445,180
94,WS_RECV_END,1516300124974,180
94,PLAYER_SLEEPBEFORE_START,1516300124974,181
94,PLAYER_SLEEPBEFORE_END,1516300125418,181
94,WS_SEND_START,1516300125418,181
94,WS_SEND_END,1516300125418,181
94,WS_RECV_START,1516300125418,182
94,WS_RECV_END,1516300127488,182
94,PLAYER_SLEEPBEFORE_START,1516300127488,183
94,PLAYER_SLEEPBEFORE_END,1516300128011,183
94,WS_SEND_START,1516300128011,183
94,WS_SEND_END,1516300128011,183
94,WS_RECV_START,1516300128011,184
94,WS_RECV_END,1516300129751,184
94,PLAYER_SLEEPBEFORE_START,1516300129751,185
94,PLAYER_SLEEPBEFORE_END,1516300130019,185
94,WS_SEND_START,1516300130019,185
94,WS_SEND_END,1516300130019,185
94,WS_RECV_START,1516300130019,186
94,WS_RECV_END,1516300131440,186
94,PLAYER_SLEEPBEFORE_START,1516300131440,187
94,PLAYER_SLEEPBEFORE_END,1516300153940,187
94,WS_SEND_START,1516300153940,187
94,WS_SEND_END,1516300153940,187
94,WS_RECV_START,1516300153940,188
94,WS_RECV_END,1516300157526,188
94,PLAYER_SLEEPBEFORE_START,1516300157526,189
94,PLAYER_SLEEPBEFORE_END,1516300163765,189
94,WS_SEND_START,1516300163765,189
94,WS_SEND_END,1516300163765,189
94,WS_RECV_START,1516300163765,190
94,WS_RECV_END,1516300168696,190
94,PLAYER_SLEEPBEFORE_START,1516300168696,191
94,PLAYER_SLEEPBEFORE_END,1516300170611,191
94,WS_SEND_START,1516300170611,191
94,WS_SEND_END,1516300170611,191
94,WS_RECV_START,1516300170611,192
94,WS_RECV_END,1516300173933,192
94,PLAYER_SLEEPBEFORE_START,1516300173933,193
94,PLAYER_SLEEPBEFORE_END,1516300174061,193
94,WS_SEND_START,1516300174061,193
94,WS_SEND_END,1516300174061,193
94,WS_RECV_START,1516300174061,194
94,WS_RECV_END,1516300175973,194
94,PLAYER_SLEEPBEFORE_START,1516300175973,195
94,PLAYER_SLEEPBEFORE_END,1516300177728,195
94,WS_SEND_START,1516300177728,195
94,WS_SEND_END,1516300177728,195
94,WS_RECV_START,1516300177728,196
94,WS_RECV_END,1516300180199,196
94,PLAYER_SLEEPBEFORE_START,1516300180199,197
94,PLAYER_SLEEPBEFORE_END,1516300182003,197
94,WS_SEND_START,1516300182003,197
94,WS_SEND_END,1516300182003,197
94,WS_RECV_START,1516300182003,198
94,WS_RECV_END,1516300186570,198
94,PLAYER_SLEEPBEFORE_START,1516300186570,199
94,PLAYER_SLEEPBEFORE_END,1516300198424,199
94,WS_SEND_START,1516300198424,199
94,WS_SEND_END,1516300198424,199
94,PLAYER_SLEEPBEFORE_START,1516300198424,200
94,PLAYER_SLEEPBEFORE_END,1516300202512,200
94,WS_SEND_START,1516300202512,200
94,WS_SEND_END,1516300202512,200
94,WS_RECV_START,1516300202512,201
94,WS_RECV_END,1516300203764,201
94,PLAYER_SLEEPBEFORE_START,1516300203764,202
94,PLAYER_SLEEPBEFORE_END,1516300203778,202
94,WS_SEND_START,1516300203778,202
94,WS_SEND_END,1516300203778,202
94,WS_RECV_START,1516300203778,203
94,WS_RECV_END,1516300206557,203
94,PLAYER_SLEEPBEFORE_START,1516300206557,204
94,PLAYER_SLEEPBEFORE_END,1516300226206,204
94,WS_SEND_START,1516300226206,204
94,WS_SEND_END,1516300226206,204
94,PLAYER_SLEEPBEFORE_START,1516300226206,205
94,PLAYER_SLEEPBEFORE_END,1516300230104,205
94,WS_SEND_START,1516300230104,205
94,WS_SEND_END,1516300230104,205
94,WS_RECV_START,1516300230104,206
94,WS_RECV_END,1516300231486,206
94,PLAYER_SLEEPBEFORE_START,1516300231486,207
94,PLAYER_SLEEPBEFORE_END,1516300248417,207
94,REQ_START,1516300248417,207
94,REQ_END,1516300248424,207
94,PLAYER_SLEEPBEFORE_START,1516300248424,208
94,PLAYER_SLEEPBEFORE_END,1516300255276,208
94,WS_CLOSE_START,1516300255276,208
94,WS_CLOSE_END,1516300255276,208
94,PLAYER_DONE,1516300255276
