# --sessions 540 --app-url=http://shinyloadtest.rstudioservices.com/cran_explorer --output-dir test540 --overwrite-output --log-level warn --start-interval 500 15min.log
thread_id,event,timestamp,input_line_number,comment
191,PLAYER_SESSION_CREATE,1516219954887
191,PLAYER_START_INTERVAL_START,1516219954887
191,PLAYER_START_INTERVAL_END,1516220050387
191,REQ_HOME_START,1516220050387,2
191,REQ_HOME_END,1516220050482,2
191,REQ_START,1516220050482,3
191,REQ_END,1516220050517,3
191,REQ_START,1516220050517,4
191,REQ_END,1516220050555,4
191,REQ_START,1516220050555,5
191,REQ_END,1516220050590,5
191,REQ_START,1516220050590,6
191,REQ_END,1516220050627,6
191,REQ_START,1516220050627,7
191,REQ_END,1516220050786,7
191,REQ_START,1516220050786,8
191,REQ_END,1516220050821,8
191,REQ_START,1516220050821,9
191,REQ_END,1516220050889,9
191,REQ_START,1516220050889,10
191,REQ_END,1516220050895,10
191,REQ_START,1516220050895,11
191,REQ_END,1516220050929,11
191,REQ_START,1516220050929,12
191,REQ_END,1516220050943,12
191,REQ_START,1516220050943,13
191,REQ_END,1516220050978,13
191,REQ_START,1516220050978,14
191,REQ_END,1516220050992,14
191,REQ_START,1516220050992,15
191,REQ_END,1516220051026,15
191,REQ_TOK_START,1516220051026,16
191,REQ_TOK_END,1516220051033,16
191,REQ_SINF_START,1516220051033,17
191,REQ_SINF_END,1516220051040,17
191,WS_OPEN_START,1516220051040,18
191,WS_OPEN_END,1516220051046,18
191,REQ_START,1516220051046,19
191,REQ_END,1516220051077,19
191,WS_RECV_START,1516220051077,20
191,WS_RECV_END,1516220051077,20
191,PLAYER_SLEEPBEFORE_START,1516220051077,21
191,PLAYER_SLEEPBEFORE_END,1516220051082,21
191,WS_SEND_START,1516220051082,21
191,WS_SEND_END,1516220051082,21
191,PLAYER_SLEEPBEFORE_START,1516220051082,22
191,PLAYER_SLEEPBEFORE_END,1516220051083,22
191,WS_SEND_START,1516220051083,22
191,WS_SEND_END,1516220051083,22
191,WS_RECV_INIT_START,1516220051083,23
191,WS_RECV_INIT_END,1516220051102,23
191,WS_RECV_START,1516220051102,24
191,WS_RECV_END,1516220051173,24
191,PLAYER_SLEEPBEFORE_START,1516220051173,25
191,PLAYER_SLEEPBEFORE_END,1516220051180,25
191,REQ_START,1516220051180,25
191,REQ_END,1516220051300,25
191,PLAYER_SLEEPBEFORE_START,1516220051300,26
191,PLAYER_SLEEPBEFORE_END,1516220051301,26
191,REQ_START,1516220051301,26
191,REQ_END,1516220051338,26
191,PLAYER_SLEEPBEFORE_START,1516220051338,27
191,PLAYER_SLEEPBEFORE_END,1516220051341,27
191,REQ_START,1516220051341,27
191,REQ_END,1516220051492,27
191,PLAYER_SLEEPBEFORE_START,1516220051492,28
191,PLAYER_SLEEPBEFORE_END,1516220051778,28
191,REQ_START,1516220051778,28
191,REQ_END,1516220051817,28
191,PLAYER_SLEEPBEFORE_START,1516220051817,29
191,PLAYER_SLEEPBEFORE_END,1516220051992,29
191,WS_SEND_START,1516220051992,29
191,WS_SEND_END,1516220051992,29
191,WS_RECV_START,1516220051992,30
191,WS_RECV_END,1516220052148,30
191,PLAYER_SLEEPBEFORE_START,1516220052148,31
191,PLAYER_SLEEPBEFORE_END,1516220052159,31
191,REQ_START,1516220052159,31
191,REQ_END,1516220052200,31
191,PLAYER_SLEEPBEFORE_START,1516220052200,32
191,PLAYER_SLEEPBEFORE_END,1516220080345,32
191,WS_SEND_START,1516220080345,32
191,WS_SEND_END,1516220080345,32
191,WS_RECV_START,1516220080345,33
191,WS_RECV_END,1516220080463,33
191,PLAYER_SLEEPBEFORE_START,1516220080463,34
191,PLAYER_SLEEPBEFORE_END,1516220106374,34
191,WS_SEND_START,1516220106374,34
191,WS_SEND_END,1516220106374,34
191,WS_RECV_START,1516220106374,35
191,WS_RECV_END,1516220106400,35
191,PLAYER_SLEEPBEFORE_START,1516220106400,36
191,PLAYER_SLEEPBEFORE_END,1516220106409,36
191,WS_SEND_START,1516220106409,36
191,WS_SEND_END,1516220106409,36
191,WS_RECV_START,1516220106409,37
191,WS_RECV_END,1516220106452,37
191,PLAYER_SLEEPBEFORE_START,1516220106452,38
191,PLAYER_SLEEPBEFORE_END,1516220109648,38
191,WS_SEND_START,1516220109648,38
191,WS_SEND_END,1516220109648,38
191,WS_RECV_START,1516220109648,39
191,WS_RECV_END,1516220109809,39
191,PLAYER_SLEEPBEFORE_START,1516220109809,40
191,PLAYER_SLEEPBEFORE_END,1516220109855,40
191,WS_SEND_START,1516220109856,40
191,WS_SEND_END,1516220109856,40
191,WS_RECV_START,1516220109856,41
191,WS_RECV_END,1516220109979,41
191,PLAYER_SLEEPBEFORE_START,1516220109979,42
191,PLAYER_SLEEPBEFORE_END,1516220128114,42
191,WS_SEND_START,1516220128114,42
191,WS_SEND_END,1516220128114,42
191,WS_RECV_START,1516220128114,43
191,WS_RECV_END,1516220128148,43
191,PLAYER_SLEEPBEFORE_START,1516220128148,44
191,PLAYER_SLEEPBEFORE_END,1516220128160,44
191,WS_SEND_START,1516220128161,44
191,WS_SEND_END,1516220128161,44
191,WS_RECV_START,1516220128161,45
191,WS_RECV_END,1516220128268,45
191,PLAYER_SLEEPBEFORE_START,1516220128268,46
191,PLAYER_SLEEPBEFORE_END,1516220129528,46
191,WS_SEND_START,1516220129528,46
191,WS_SEND_END,1516220129528,46
191,WS_RECV_START,1516220129528,47
191,WS_RECV_END,1516220129736,47
191,PLAYER_SLEEPBEFORE_START,1516220129736,48
191,PLAYER_SLEEPBEFORE_END,1516220131056,48
191,WS_SEND_START,1516220131056,48
191,WS_SEND_END,1516220131056,48
191,WS_RECV_START,1516220131056,49
191,WS_RECV_END,1516220131418,49
191,PLAYER_SLEEPBEFORE_START,1516220131418,50
191,PLAYER_SLEEPBEFORE_END,1516220131442,50
191,WS_SEND_START,1516220131442,50
191,WS_SEND_END,1516220131442,50
191,WS_RECV_START,1516220131442,51
191,WS_RECV_END,1516220131765,51
191,PLAYER_SLEEPBEFORE_START,1516220131765,52
191,PLAYER_SLEEPBEFORE_END,1516220154330,52
191,WS_SEND_START,1516220154330,52
191,WS_SEND_END,1516220154330,52
191,WS_RECV_START,1516220154330,53
191,WS_RECV_END,1516220154574,53
191,PLAYER_SLEEPBEFORE_START,1516220154574,54
191,PLAYER_SLEEPBEFORE_END,1516220175877,54
191,WS_SEND_START,1516220175877,54
191,WS_SEND_END,1516220175877,54
191,PLAYER_SLEEPBEFORE_START,1516220175877,55
191,PLAYER_SLEEPBEFORE_END,1516220177818,55
191,WS_SEND_START,1516220177818,55
191,WS_SEND_END,1516220177818,55
191,WS_RECV_START,1516220177818,56
191,WS_RECV_END,1516220178081,56
191,PLAYER_SLEEPBEFORE_START,1516220178081,57
191,PLAYER_SLEEPBEFORE_END,1516220200953,57
191,WS_SEND_START,1516220200953,57
191,WS_SEND_END,1516220200953,57
191,WS_RECV_START,1516220200954,58
191,WS_RECV_END,1516220201421,58
191,PLAYER_SLEEPBEFORE_START,1516220201421,59
191,PLAYER_SLEEPBEFORE_END,1516220203748,59
191,WS_SEND_START,1516220203748,59
191,WS_SEND_END,1516220203748,59
191,WS_RECV_START,1516220203748,60
191,WS_RECV_END,1516220204407,60
191,PLAYER_SLEEPBEFORE_START,1516220204407,61
191,PLAYER_SLEEPBEFORE_END,1516220207998,61
191,WS_SEND_START,1516220207998,61
191,WS_SEND_END,1516220207998,61
191,WS_RECV_START,1516220207998,62
191,WS_RECV_END,1516220208542,62
191,PLAYER_SLEEPBEFORE_START,1516220208542,63
191,PLAYER_SLEEPBEFORE_END,1516220227805,63
191,WS_SEND_START,1516220227805,63
191,WS_SEND_END,1516220227805,63
191,WS_RECV_START,1516220227805,64
191,WS_RECV_END,1516220228575,64
191,PLAYER_SLEEPBEFORE_START,1516220228575,65
191,PLAYER_SLEEPBEFORE_END,1516220255392,65
191,WS_SEND_START,1516220255392,65
191,WS_SEND_END,1516220255392,65
191,WS_RECV_START,1516220255392,66
191,WS_RECV_END,1516220256446,66
191,PLAYER_SLEEPBEFORE_START,1516220256446,67
191,PLAYER_SLEEPBEFORE_END,1516220257953,67
191,WS_SEND_START,1516220257953,67
191,WS_SEND_END,1516220257953,67
191,WS_RECV_START,1516220257953,68
191,WS_RECV_END,1516220259627,68
191,PLAYER_SLEEPBEFORE_START,1516220259627,69
191,PLAYER_SLEEPBEFORE_END,1516220281625,69
191,WS_SEND_START,1516220281625,69
191,WS_SEND_END,1516220281625,69
191,WS_RECV_START,1516220281625,70
191,WS_RECV_END,1516220282546,70
191,PLAYER_SLEEPBEFORE_START,1516220282546,71
191,PLAYER_SLEEPBEFORE_END,1516220307321,71
191,WS_SEND_START,1516220307322,71
191,WS_SEND_END,1516220307322,71
191,PLAYER_SLEEPBEFORE_START,1516220307322,72
191,PLAYER_SLEEPBEFORE_END,1516220309929,72
191,WS_SEND_START,1516220309929,72
191,WS_SEND_END,1516220309929,72
191,WS_RECV_START,1516220309929,73
191,WS_RECV_END,1516220311918,73
191,PLAYER_SLEEPBEFORE_START,1516220311918,74
191,PLAYER_SLEEPBEFORE_END,1516220311927,74
191,WS_SEND_START,1516220311927,74
191,WS_SEND_END,1516220311927,74
191,WS_RECV_START,1516220311927,75
191,WS_RECV_END,1516220312728,75
191,PLAYER_SLEEPBEFORE_START,1516220312728,76
191,PLAYER_SLEEPBEFORE_END,1516220314234,76
191,WS_SEND_START,1516220314234,76
191,WS_SEND_END,1516220314234,76
191,WS_RECV_START,1516220314234,77
191,WS_RECV_END,1516220315522,77
191,PLAYER_SLEEPBEFORE_START,1516220315522,78
191,PLAYER_SLEEPBEFORE_END,1516220316390,78
191,WS_SEND_START,1516220316390,78
191,WS_SEND_END,1516220316390,78
191,WS_RECV_START,1516220316390,79
191,WS_RECV_END,1516220318582,79
191,PLAYER_SLEEPBEFORE_START,1516220318582,80
191,PLAYER_SLEEPBEFORE_END,1516220326248,80
191,WS_SEND_START,1516220326248,80
191,WS_SEND_END,1516220326248,80
191,WS_RECV_START,1516220326248,81
191,WS_RECV_END,1516220328005,81
191,PLAYER_SLEEPBEFORE_START,1516220328005,82
191,PLAYER_SLEEPBEFORE_END,1516220329108,82
191,WS_SEND_START,1516220329108,82
191,WS_SEND_END,1516220329108,82
191,WS_RECV_START,1516220329108,83
191,WS_RECV_END,1516220331492,83
191,PLAYER_SLEEPBEFORE_START,1516220331492,84
191,PLAYER_SLEEPBEFORE_END,1516220332439,84
191,WS_SEND_START,1516220332439,84
191,WS_SEND_END,1516220332439,84
191,WS_RECV_START,1516220332439,85
191,WS_RECV_END,1516220334390,85
191,PLAYER_SLEEPBEFORE_START,1516220334390,86
191,PLAYER_SLEEPBEFORE_END,1516220338562,86
191,WS_SEND_START,1516220338562,86
191,WS_SEND_END,1516220338563,86
191,WS_RECV_START,1516220338563,87
191,WS_RECV_END,1516220340035,87
191,PLAYER_SLEEPBEFORE_START,1516220340035,88
191,PLAYER_SLEEPBEFORE_END,1516220340043,88
191,WS_SEND_START,1516220340043,88
191,WS_SEND_END,1516220340043,88
191,WS_RECV_START,1516220340043,89
191,WS_RECV_END,1516220340297,89
191,PLAYER_SLEEPBEFORE_START,1516220340297,90
191,PLAYER_SLEEPBEFORE_END,1516220367494,90
191,REQ_START,1516220367494,90
191,REQ_END,1516220367501,90
191,PLAYER_SLEEPBEFORE_START,1516220367501,91
191,PLAYER_SLEEPBEFORE_END,1516220375390,91
191,WS_SEND_START,1516220375391,91
191,WS_SEND_END,1516220375391,91
191,WS_RECV_START,1516220375391,92
191,WS_RECV_END,1516220376465,92
191,PLAYER_SLEEPBEFORE_START,1516220376465,93
191,PLAYER_SLEEPBEFORE_END,1516220376480,93
191,WS_SEND_START,1516220376480,93
191,WS_SEND_END,1516220376480,93
191,WS_RECV_START,1516220376480,94
191,WS_RECV_END,1516220376863,94
191,PLAYER_SLEEPBEFORE_START,1516220376863,95
191,PLAYER_SLEEPBEFORE_END,1516220400418,95
191,WS_SEND_START,1516220400418,95
191,WS_SEND_END,1516220400418,95
191,WS_RECV_START,1516220400418,96
191,WS_RECV_END,1516220400592,96
191,PLAYER_SLEEPBEFORE_START,1516220400592,97
191,PLAYER_SLEEPBEFORE_END,1516220423032,97
191,WS_SEND_START,1516220423032,97
191,WS_SEND_END,1516220423032,97
191,WS_RECV_START,1516220423032,98
191,WS_RECV_END,1516220425159,98
191,PLAYER_SLEEPBEFORE_START,1516220425159,99
191,PLAYER_SLEEPBEFORE_END,1516220425180,99
191,WS_SEND_START,1516220425180,99
191,WS_SEND_END,1516220425180,99
191,WS_RECV_START,1516220425180,100
191,WS_RECV_END,1516220426518,100
191,PLAYER_SLEEPBEFORE_START,1516220426518,101
191,PLAYER_SLEEPBEFORE_END,1516220450077,101
191,WS_SEND_START,1516220450077,101
191,WS_SEND_END,1516220450077,101
191,WS_RECV_START,1516220450077,102
191,WS_RECV_END,1516220452375,102
191,PLAYER_SLEEPBEFORE_START,1516220452375,103
191,PLAYER_SLEEPBEFORE_END,1516220476000,103
191,WS_SEND_START,1516220476000,103
191,WS_SEND_END,1516220476000,103
191,WS_RECV_START,1516220476000,104
191,WS_RECV_END,1516220480038,104
191,PLAYER_SLEEPBEFORE_START,1516220480038,105
191,PLAYER_SLEEPBEFORE_END,1516220505415,105
191,WS_SEND_START,1516220505415,105
191,WS_SEND_END,1516220505415,105
191,WS_RECV_START,1516220505415,106
191,WS_RECV_END,1516220508692,106
191,PLAYER_SLEEPBEFORE_START,1516220508692,107
191,PLAYER_SLEEPBEFORE_END,1516220532115,107
191,WS_SEND_START,1516220532115,107
191,WS_SEND_END,1516220532115,107
191,WS_RECV_START,1516220532115,108
191,WS_RECV_END,1516220536572,108
191,PLAYER_SLEEPBEFORE_START,1516220536572,109
191,PLAYER_SLEEPBEFORE_END,1516220536581,109
191,WS_SEND_START,1516220536581,109
191,WS_SEND_END,1516220536581,109
191,WS_RECV_START,1516220536581,110
191,WS_RECV_END,1516220539363,110
191,PLAYER_SLEEPBEFORE_START,1516220539363,111
191,PLAYER_SLEEPBEFORE_END,1516220540322,111
191,WS_SEND_START,1516220540322,111
191,WS_SEND_END,1516220540322,111
191,WS_RECV_START,1516220540322,112
191,WS_RECV_END,1516220543038,112
191,PLAYER_SLEEPBEFORE_START,1516220543038,113
191,PLAYER_SLEEPBEFORE_END,1516220543600,113
191,WS_SEND_START,1516220543600,113
191,WS_SEND_END,1516220543600,113
191,WS_RECV_START,1516220543600,114
191,WS_RECV_END,1516220545907,114
191,PLAYER_SLEEPBEFORE_START,1516220545907,115
191,PLAYER_SLEEPBEFORE_END,1516220545916,115
191,WS_SEND_START,1516220545916,115
191,WS_SEND_END,1516220545916,115
191,WS_RECV_START,1516220545916,116
191,WS_RECV_END,1516220549843,116
191,PLAYER_SLEEPBEFORE_START,1516220549843,117
191,PLAYER_SLEEPBEFORE_END,1516220570203,117
191,WS_SEND_START,1516220570203,117
191,WS_SEND_END,1516220570203,117
191,PLAYER_SLEEPBEFORE_START,1516220570203,118
191,PLAYER_SLEEPBEFORE_END,1516220573955,118
191,WS_SEND_START,1516220573955,118
191,WS_SEND_END,1516220573955,118
191,WS_RECV_START,1516220573955,119
191,WS_RECV_END,1516220576038,119
191,PLAYER_SLEEPBEFORE_START,1516220576038,120
191,PLAYER_SLEEPBEFORE_END,1516220577026,120
191,WS_SEND_START,1516220577026,120
191,WS_SEND_END,1516220577026,120
191,WS_RECV_START,1516220577027,121
191,WS_RECV_END,1516220578460,121
191,PLAYER_SLEEPBEFORE_START,1516220578460,122
191,PLAYER_SLEEPBEFORE_END,1516220579646,122
191,WS_SEND_START,1516220579646,122
191,WS_SEND_END,1516220579646,122
191,WS_RECV_START,1516220579646,123
191,WS_RECV_END,1516220581148,123
191,PLAYER_SLEEPBEFORE_START,1516220581148,124
191,PLAYER_SLEEPBEFORE_END,1516220605553,124
191,WS_SEND_START,1516220605553,124
191,WS_SEND_END,1516220605553,124
191,WS_RECV_START,1516220605553,125
191,WS_RECV_END,1516220611800,125
191,PLAYER_SLEEPBEFORE_START,1516220611800,126
191,PLAYER_SLEEPBEFORE_END,1516220632312,126
191,WS_SEND_START,1516220632312,126
191,WS_SEND_END,1516220632312,126
191,PLAYER_SLEEPBEFORE_START,1516220632312,127
191,PLAYER_SLEEPBEFORE_END,1516220635366,127
191,WS_SEND_START,1516220635366,127
191,WS_SEND_END,1516220635366,127
191,WS_RECV_START,1516220635366,128
191,WS_RECV_END,1516220636712,128
191,PLAYER_SLEEPBEFORE_START,1516220636712,129
191,PLAYER_SLEEPBEFORE_END,1516220636732,129
191,WS_SEND_START,1516220636732,129
191,WS_SEND_END,1516220636732,129
191,WS_RECV_START,1516220636732,130
191,WS_RECV_END,1516220639701,130
191,PLAYER_SLEEPBEFORE_START,1516220639701,131
191,PLAYER_SLEEPBEFORE_END,1516220661325,131
191,WS_SEND_START,1516220661325,131
191,WS_SEND_END,1516220661325,131
191,PLAYER_SLEEPBEFORE_START,1516220661325,132
191,PLAYER_SLEEPBEFORE_END,1516220664405,132
191,WS_SEND_START,1516220664405,132
191,WS_SEND_END,1516220664405,132
191,WS_RECV_START,1516220664405,133
191,WS_RECV_END,1516220666846,133
191,PLAYER_SLEEPBEFORE_START,1516220666846,134
191,PLAYER_SLEEPBEFORE_END,1516220688063,134
191,WS_SEND_START,1516220688063,134
191,WS_SEND_END,1516220688063,134
191,PLAYER_SLEEPBEFORE_START,1516220688063,135
191,PLAYER_SLEEPBEFORE_END,1516220691253,135
191,WS_SEND_START,1516220691253,135
191,WS_SEND_END,1516220691253,135
191,WS_RECV_START,1516220691253,136
191,WS_RECV_END,1516220695264,136
191,PLAYER_SLEEPBEFORE_START,1516220695264,137
191,PLAYER_SLEEPBEFORE_END,1516220695271,137
191,WS_SEND_START,1516220695271,137
191,WS_SEND_END,1516220695271,137
191,WS_RECV_START,1516220695271,138
191,WS_RECV_END,1516220696991,138
191,PLAYER_SLEEPBEFORE_START,1516220696991,139
191,PLAYER_SLEEPBEFORE_END,1516220697681,139
191,WS_SEND_START,1516220697681,139
191,WS_SEND_END,1516220697681,139
191,WS_RECV_START,1516220697681,140
191,WS_RECV_END,1516220698778,140
191,PLAYER_SLEEPBEFORE_START,1516220698778,141
191,PLAYER_SLEEPBEFORE_END,1516220699433,141
191,WS_SEND_START,1516220699433,141
191,WS_SEND_END,1516220699433,141
191,WS_RECV_START,1516220699433,142
191,WS_RECV_END,1516220700565,142
191,PLAYER_SLEEPBEFORE_START,1516220700565,143
191,PLAYER_SLEEPBEFORE_END,1516220700622,143
191,WS_SEND_START,1516220700622,143
191,WS_SEND_END,1516220700622,143
191,WS_RECV_START,1516220700622,144
191,WS_RECV_END,1516220702622,144
191,PLAYER_SLEEPBEFORE_START,1516220702622,145
191,PLAYER_SLEEPBEFORE_END,1516220718685,145
191,REQ_START,1516220718685,145
191,REQ_END,1516220718692,145
191,PLAYER_SLEEPBEFORE_START,1516220718692,146
191,PLAYER_SLEEPBEFORE_END,1516220727569,146
191,WS_SEND_START,1516220727569,146
191,WS_SEND_END,1516220727569,146
191,WS_RECV_START,1516220727569,147
191,WS_RECV_END,1516220734146,147
191,PLAYER_SLEEPBEFORE_START,1516220734146,148
191,PLAYER_SLEEPBEFORE_END,1516220756068,148
191,WS_SEND_START,1516220756068,148
191,WS_SEND_END,1516220756068,148
191,PLAYER_SLEEPBEFORE_START,1516220756068,149
191,PLAYER_SLEEPBEFORE_END,1516220758496,149
191,WS_SEND_START,1516220758496,149
191,WS_SEND_END,1516220758496,149
191,WS_RECV_START,1516220758496,150
191,WS_RECV_END,1516220760843,150
191,PLAYER_SLEEPBEFORE_START,1516220760843,151
191,PLAYER_SLEEPBEFORE_END,1516220761053,151
191,WS_SEND_START,1516220761053,151
191,WS_SEND_END,1516220761053,151
191,WS_RECV_START,1516220761053,152
191,WS_RECV_END,1516220763221,152
191,PLAYER_SLEEPBEFORE_START,1516220763221,153
191,PLAYER_SLEEPBEFORE_END,1516220787148,153
191,WS_SEND_START,1516220787148,153
191,WS_SEND_END,1516220787148,153
191,WS_RECV_START,1516220787148,154
191,WS_RECV_END,1516220793084,154
191,PLAYER_SLEEPBEFORE_START,1516220793084,155
191,PLAYER_SLEEPBEFORE_END,1516220815642,155
191,WS_SEND_START,1516220815642,155
191,WS_SEND_END,1516220815643,155
191,PLAYER_SLEEPBEFORE_START,1516220815643,156
191,PLAYER_SLEEPBEFORE_END,1516220818917,156
191,WS_SEND_START,1516220818917,156
191,WS_SEND_END,1516220818917,156
191,WS_RECV_START,1516220818917,157
191,WS_RECV_END,1516220819520,157
191,PLAYER_SLEEPBEFORE_START,1516220819520,158
191,PLAYER_SLEEPBEFORE_END,1516220819530,158
191,WS_SEND_START,1516220819530,158
191,WS_SEND_END,1516220819530,158
191,WS_RECV_START,1516220819530,159
191,WS_RECV_END,1516220820767,159
191,PLAYER_SLEEPBEFORE_START,1516220820767,160
191,PLAYER_SLEEPBEFORE_END,1516220820942,160
191,WS_SEND_START,1516220820942,160
191,WS_SEND_END,1516220820942,160
191,WS_RECV_START,1516220820942,161
191,WS_RECV_END,1516220821741,161
191,PLAYER_SLEEPBEFORE_START,1516220821741,162
191,PLAYER_SLEEPBEFORE_END,1516220821766,162
191,WS_SEND_START,1516220821766,162
191,WS_SEND_END,1516220821766,162
191,WS_RECV_START,1516220821766,163
191,WS_RECV_END,1516220824047,163
191,PLAYER_SLEEPBEFORE_START,1516220824047,164
191,PLAYER_SLEEPBEFORE_END,1516220844859,164
191,WS_SEND_START,1516220844859,164
191,WS_SEND_END,1516220844859,164
191,WS_RECV_START,1516220844859,165
191,WS_RECV_END,1516220851207,165
191,PLAYER_SLEEPBEFORE_START,1516220851207,166
191,PLAYER_SLEEPBEFORE_END,1516220873662,166
191,WS_SEND_START,1516220873662,166
191,WS_SEND_END,1516220873662,166
191,WS_RECV_START,1516220873662,167
191,WS_RECV_END,1516220878770,167
191,PLAYER_SLEEPBEFORE_START,1516220878770,168
191,PLAYER_SLEEPBEFORE_END,1516220906127,168
191,WS_SEND_START,1516220906127,168
191,WS_SEND_END,1516220906127,168
191,WS_RECV_START,1516220906127,169
191,WS_RECV_END,1516220913111,169
191,PLAYER_SLEEPBEFORE_START,1516220913111,170
191,PLAYER_SLEEPBEFORE_END,1516220913120,170
191,WS_SEND_START,1516220913120,170
191,WS_SEND_END,1516220913120,170
191,WS_RECV_START,1516220913120,171
191,WS_RECV_END,1516220916339,171
191,PLAYER_SLEEPBEFORE_START,1516220916339,172
191,PLAYER_SLEEPBEFORE_END,1516220916708,172
191,WS_SEND_START,1516220916708,172
191,WS_SEND_END,1516220916708,172
191,WS_RECV_START,1516220916708,173
191,WS_RECV_END,1516220921232,173
191,PLAYER_SLEEPBEFORE_START,1516220921232,174
191,PLAYER_SLEEPBEFORE_END,1516220921273,174
191,WS_SEND_START,1516220921273,174
191,WS_SEND_END,1516220921274,174
191,WS_RECV_START,1516220921274,175
191,WS_RECV_END,1516220926488,175
191,PLAYER_SLEEPBEFORE_START,1516220926490,176
191,PLAYER_SLEEPBEFORE_END,1516220948251,176
191,WS_SEND_START,1516220948251,176
191,WS_SEND_END,1516220948251,176
191,PLAYER_SLEEPBEFORE_START,1516220948251,177
191,PLAYER_SLEEPBEFORE_END,1516220950769,177
191,WS_SEND_START,1516220950769,177
191,WS_SEND_END,1516220950769,177
191,WS_RECV_START,1516220950769,178
191,WS_RECV_END,1516220955311,178
191,PLAYER_SLEEPBEFORE_START,1516220955311,179
191,PLAYER_SLEEPBEFORE_END,1516220977652,179
191,WS_SEND_START,1516220977652,179
191,WS_SEND_END,1516220977652,179
191,WS_RECV_START,1516220977652,180
191,WS_RECV_END,1516220987307,180
191,PLAYER_SLEEPBEFORE_START,1516220987307,181
191,PLAYER_SLEEPBEFORE_END,1516220987751,181
191,WS_SEND_START,1516220987751,181
191,WS_SEND_END,1516220987752,181
191,WS_RECV_START,1516220987752,182
191,WS_RECV_END,1516220991514,182
191,PLAYER_SLEEPBEFORE_START,1516220991514,183
191,PLAYER_SLEEPBEFORE_END,1516220992037,183
191,WS_SEND_START,1516220992037,183
191,WS_SEND_END,1516220992037,183
191,WS_RECV_START,1516220992037,184
191,WS_RECV_END,1516220996803,184
191,PLAYER_SLEEPBEFORE_START,1516220996803,185
191,PLAYER_SLEEPBEFORE_END,1516220997072,185
191,WS_SEND_START,1516220997072,185
191,WS_SEND_END,1516220997072,185
191,WS_RECV_START,1516220997072,186
191,WS_RECV_END,1516221002762,186
191,PLAYER_SLEEPBEFORE_START,1516221002762,187
191,PLAYER_SLEEPBEFORE_END,1516221025262,187
191,WS_SEND_START,1516221025262,187
191,WS_SEND_END,1516221025262,187
191,WS_RECV_START,1516221025262,188
191,WS_RECV_END,1516221032423,188
191,PLAYER_SLEEPBEFORE_START,1516221032423,189
191,PLAYER_SLEEPBEFORE_END,1516221038662,189
191,WS_SEND_START,1516221038662,189
191,WS_SEND_END,1516221038662,189
191,WS_RECV_START,1516221038662,190
191,WS_RECV_END,1516221045143,190
191,PLAYER_SLEEPBEFORE_START,1516221045143,191
191,PLAYER_SLEEPBEFORE_END,1516221047058,191
191,WS_SEND_START,1516221047058,191
191,WS_SEND_END,1516221047058,191
191,WS_RECV_START,1516221047058,192
191,WS_RECV_END,1516221055634,192
191,PLAYER_SLEEPBEFORE_START,1516221055634,193
191,PLAYER_SLEEPBEFORE_END,1516221055762,193
191,WS_SEND_START,1516221055762,193
191,WS_SEND_END,1516221055762,193
191,WS_RECV_START,1516221055762,194
191,WS_RECV_END,1516221060336,194
191,PLAYER_SLEEPBEFORE_START,1516221060336,195
191,PLAYER_SLEEPBEFORE_END,1516221062091,195
191,WS_SEND_START,1516221062091,195
191,WS_SEND_END,1516221062091,195
191,WS_RECV_START,1516221062091,196
191,WS_RECV_END,1516221065458,196
191,PLAYER_SLEEPBEFORE_START,1516221065458,197
191,PLAYER_SLEEPBEFORE_END,1516221067262,197
191,WS_SEND_START,1516221067262,197
191,WS_SEND_END,1516221067262,197
191,WS_RECV_START,1516221067262,198
191,WS_RECV_END,1516221071943,198
191,PLAYER_SLEEPBEFORE_START,1516221071943,199
191,PLAYER_SLEEPBEFORE_END,1516221083797,199
191,WS_SEND_START,1516221083797,199
191,WS_SEND_END,1516221083797,199
191,PLAYER_SLEEPBEFORE_START,1516221083797,200
191,PLAYER_SLEEPBEFORE_END,1516221087886,200
191,WS_SEND_START,1516221087886,200
191,WS_SEND_END,1516221087886,200
191,WS_RECV_START,1516221087886,201
191,WS_RECV_END,1516221091998,201
191,PLAYER_SLEEPBEFORE_START,1516221091998,202
191,PLAYER_SLEEPBEFORE_END,1516221092012,202
191,WS_SEND_START,1516221092013,202
191,WS_SEND_END,1516221092013,202
191,WS_RECV_START,1516221092013,203
191,WS_RECV_END,1516221093404,203
191,PLAYER_SLEEPBEFORE_START,1516221093404,204
191,PLAYER_SLEEPBEFORE_END,1516221113054,204
191,WS_SEND_START,1516221113054,204
191,WS_SEND_END,1516221113054,204
191,PLAYER_SLEEPBEFORE_START,1516221113054,205
191,PLAYER_SLEEPBEFORE_END,1516221116952,205
191,WS_SEND_START,1516221116952,205
191,WS_SEND_END,1516221116952,205
191,WS_RECV_START,1516221116952,206
191,WS_RECV_END,1516221120645,206
191,PLAYER_SLEEPBEFORE_START,1516221120645,207
191,PLAYER_SLEEPBEFORE_END,1516221137576,207
191,REQ_START,1516221137576,207
191,REQ_END,1516221137588,207
191,PLAYER_SLEEPBEFORE_START,1516221137588,208
191,PLAYER_SLEEPBEFORE_END,1516221144440,208
191,WS_CLOSE_START,1516221144440,208
191,WS_CLOSE_END,1516221144440,208
191,PLAYER_DONE,1516221144440
