# --sessions 540 --app-url=http://shinyloadtest.rstudioservices.com/cran_explorer --output-dir test540 --overwrite-output --log-level warn --start-interval 500 15min.log
thread_id,event,timestamp,input_line_number,comment
219,PLAYER_SESSION_CREATE,1516219954895
219,PLAYER_START_INTERVAL_START,1516219954895
219,PLAYER_START_INTERVAL_END,1516220064395
219,REQ_HOME_START,1516220064395,2
219,REQ_HOME_END,1516220064506,2
219,REQ_START,1516220064506,3
219,REQ_END,1516220064540,3
219,REQ_START,1516220064540,4
219,REQ_END,1516220064572,4
219,REQ_START,1516220064572,5
219,REQ_END,1516220064607,5
219,REQ_START,1516220064607,6
219,REQ_END,1516220064642,6
219,REQ_START,1516220064642,7
219,REQ_END,1516220064677,7
219,REQ_START,1516220064677,8
219,REQ_END,1516220064711,8
219,REQ_START,1516220064711,9
219,REQ_END,1516220064753,9
219,REQ_START,1516220064753,10
219,REQ_END,1516220064761,10
219,REQ_START,1516220064761,11
219,REQ_END,1516220064795,11
219,REQ_START,1516220064795,12
219,REQ_END,1516220064805,12
219,REQ_START,1516220064805,13
219,REQ_END,1516220064839,13
219,REQ_START,1516220064839,14
219,REQ_END,1516220064856,14
219,REQ_START,1516220064856,15
219,REQ_END,1516220064892,15
219,REQ_TOK_START,1516220064892,16
219,REQ_TOK_END,1516220064900,16
219,REQ_SINF_START,1516220064900,17
219,REQ_SINF_END,1516220064906,17
219,WS_OPEN_START,1516220064906,18
219,WS_OPEN_END,1516220064912,18
219,REQ_START,1516220064912,19
219,REQ_END,1516220064945,19
219,WS_RECV_START,1516220064945,20
219,WS_RECV_END,1516220064945,20
219,PLAYER_SLEEPBEFORE_START,1516220064945,21
219,PLAYER_SLEEPBEFORE_END,1516220064950,21
219,WS_SEND_START,1516220064950,21
219,WS_SEND_END,1516220064950,21
219,PLAYER_SLEEPBEFORE_START,1516220064950,22
219,PLAYER_SLEEPBEFORE_END,1516220064951,22
219,WS_SEND_START,1516220064951,22
219,WS_SEND_END,1516220064951,22
219,WS_RECV_INIT_START,1516220064951,23
219,WS_RECV_INIT_END,1516220064976,23
219,WS_RECV_START,1516220064976,24
219,WS_RECV_END,1516220065070,24
219,PLAYER_SLEEPBEFORE_START,1516220065070,25
219,PLAYER_SLEEPBEFORE_END,1516220065077,25
219,REQ_START,1516220065077,25
219,REQ_END,1516220065272,25
219,PLAYER_SLEEPBEFORE_START,1516220065272,26
219,PLAYER_SLEEPBEFORE_END,1516220065274,26
219,REQ_START,1516220065274,26
219,REQ_END,1516220065428,26
219,PLAYER_SLEEPBEFORE_START,1516220065428,27
219,PLAYER_SLEEPBEFORE_END,1516220065431,27
219,REQ_START,1516220065431,27
219,REQ_END,1516220065465,27
219,PLAYER_SLEEPBEFORE_START,1516220065465,28
219,PLAYER_SLEEPBEFORE_END,1516220065750,28
219,REQ_START,1516220065750,28
219,REQ_END,1516220065783,28
219,PLAYER_SLEEPBEFORE_START,1516220065783,29
219,PLAYER_SLEEPBEFORE_END,1516220065958,29
219,WS_SEND_START,1516220065958,29
219,WS_SEND_END,1516220065958,29
219,WS_RECV_START,1516220065958,30
219,WS_RECV_END,1516220066111,30
219,PLAYER_SLEEPBEFORE_START,1516220066111,31
219,PLAYER_SLEEPBEFORE_END,1516220066122,31
219,REQ_START,1516220066122,31
219,REQ_END,1516220066157,31
219,PLAYER_SLEEPBEFORE_START,1516220066157,32
219,PLAYER_SLEEPBEFORE_END,1516220094302,32
219,WS_SEND_START,1516220094302,32
219,WS_SEND_END,1516220094302,32
219,WS_RECV_START,1516220094302,33
219,WS_RECV_END,1516220094456,33
219,PLAYER_SLEEPBEFORE_START,1516220094456,34
219,PLAYER_SLEEPBEFORE_END,1516220120367,34
219,WS_SEND_START,1516220120367,34
219,WS_SEND_END,1516220120367,34
219,WS_RECV_START,1516220120367,35
219,WS_RECV_END,1516220120477,35
219,PLAYER_SLEEPBEFORE_START,1516220120477,36
219,PLAYER_SLEEPBEFORE_END,1516220120486,36
219,WS_SEND_START,1516220120486,36
219,WS_SEND_END,1516220120486,36
219,WS_RECV_START,1516220120486,37
219,WS_RECV_END,1516220120548,37
219,PLAYER_SLEEPBEFORE_START,1516220120548,38
219,PLAYER_SLEEPBEFORE_END,1516220123743,38
219,WS_SEND_START,1516220123743,38
219,WS_SEND_END,1516220123743,38
219,WS_RECV_START,1516220123743,39
219,WS_RECV_END,1516220124191,39
219,PLAYER_SLEEPBEFORE_START,1516220124191,40
219,PLAYER_SLEEPBEFORE_END,1516220124237,40
219,WS_SEND_START,1516220124237,40
219,WS_SEND_END,1516220124237,40
219,WS_RECV_START,1516220124237,41
219,WS_RECV_END,1516220124430,41
219,PLAYER_SLEEPBEFORE_START,1516220124430,42
219,PLAYER_SLEEPBEFORE_END,1516220142565,42
219,WS_SEND_START,1516220142565,42
219,WS_SEND_END,1516220142565,42
219,WS_RECV_START,1516220142565,43
219,WS_RECV_END,1516220142698,43
219,PLAYER_SLEEPBEFORE_START,1516220142698,44
219,PLAYER_SLEEPBEFORE_END,1516220142710,44
219,WS_SEND_START,1516220142710,44
219,WS_SEND_END,1516220142710,44
219,WS_RECV_START,1516220142710,45
219,WS_RECV_END,1516220142776,45
219,PLAYER_SLEEPBEFORE_START,1516220142776,46
219,PLAYER_SLEEPBEFORE_END,1516220144036,46
219,WS_SEND_START,1516220144036,46
219,WS_SEND_END,1516220144036,46
219,WS_RECV_START,1516220144036,47
219,WS_RECV_END,1516220144320,47
219,PLAYER_SLEEPBEFORE_START,1516220144320,48
219,PLAYER_SLEEPBEFORE_END,1516220145640,48
219,WS_SEND_START,1516220145640,48
219,WS_SEND_END,1516220145640,48
219,WS_RECV_START,1516220145640,49
219,WS_RECV_END,1516220145820,49
219,PLAYER_SLEEPBEFORE_START,1516220145820,50
219,PLAYER_SLEEPBEFORE_END,1516220145844,50
219,WS_SEND_START,1516220145844,50
219,WS_SEND_END,1516220145844,50
219,WS_RECV_START,1516220145844,51
219,WS_RECV_END,1516220146020,51
219,PLAYER_SLEEPBEFORE_START,1516220146020,52
219,PLAYER_SLEEPBEFORE_END,1516220168584,52
219,WS_SEND_START,1516220168584,52
219,WS_SEND_END,1516220168584,52
219,WS_RECV_START,1516220168584,53
219,WS_RECV_END,1516220169144,53
219,PLAYER_SLEEPBEFORE_START,1516220169144,54
219,PLAYER_SLEEPBEFORE_END,1516220190447,54
219,WS_SEND_START,1516220190447,54
219,WS_SEND_END,1516220190447,54
219,PLAYER_SLEEPBEFORE_START,1516220190447,55
219,PLAYER_SLEEPBEFORE_END,1516220192388,55
219,WS_SEND_START,1516220192388,55
219,WS_SEND_END,1516220192388,55
219,WS_RECV_START,1516220192388,56
219,WS_RECV_END,1516220193696,56
219,PLAYER_SLEEPBEFORE_START,1516220193696,57
219,PLAYER_SLEEPBEFORE_END,1516220216568,57
219,WS_SEND_START,1516220216568,57
219,WS_SEND_END,1516220216568,57
219,WS_RECV_START,1516220216568,58
219,WS_RECV_END,1516220218186,58
219,PLAYER_SLEEPBEFORE_START,1516220218186,59
219,PLAYER_SLEEPBEFORE_END,1516220220513,59
219,WS_SEND_START,1516220220513,59
219,WS_SEND_END,1516220220513,59
219,WS_RECV_START,1516220220513,60
219,WS_RECV_END,1516220223478,60
219,PLAYER_SLEEPBEFORE_START,1516220223478,61
219,PLAYER_SLEEPBEFORE_END,1516220227069,61
219,WS_SEND_START,1516220227069,61
219,WS_SEND_END,1516220227069,61
219,WS_RECV_START,1516220227069,62
219,WS_RECV_END,1516220228629,62
219,PLAYER_SLEEPBEFORE_START,1516220228629,63
219,PLAYER_SLEEPBEFORE_END,1516220247891,63
219,WS_SEND_START,1516220247891,63
219,WS_SEND_END,1516220247891,63
219,WS_RECV_START,1516220247891,64
219,WS_RECV_END,1516220250767,64
219,PLAYER_SLEEPBEFORE_START,1516220250767,65
219,PLAYER_SLEEPBEFORE_END,1516220277584,65
219,WS_SEND_START,1516220277584,65
219,WS_SEND_END,1516220277584,65
219,WS_RECV_START,1516220277584,66
219,WS_RECV_END,1516220279641,66
219,PLAYER_SLEEPBEFORE_START,1516220279641,67
219,PLAYER_SLEEPBEFORE_END,1516220281149,67
219,WS_SEND_START,1516220281149,67
219,WS_SEND_END,1516220281149,67
219,WS_RECV_START,1516220281149,68
219,WS_RECV_END,1516220283729,68
219,PLAYER_SLEEPBEFORE_START,1516220283729,69
219,PLAYER_SLEEPBEFORE_END,1516220305728,69
219,WS_SEND_START,1516220305728,69
219,WS_SEND_END,1516220305728,69
219,WS_RECV_START,1516220305728,70
219,WS_RECV_END,1516220310462,70
219,PLAYER_SLEEPBEFORE_START,1516220310462,71
219,PLAYER_SLEEPBEFORE_END,1516220335237,71
219,WS_SEND_START,1516220335237,71
219,WS_SEND_END,1516220335237,71
219,PLAYER_SLEEPBEFORE_START,1516220335237,72
219,PLAYER_SLEEPBEFORE_END,1516220337845,72
219,WS_SEND_START,1516220337845,72
219,WS_SEND_END,1516220337845,72
219,WS_RECV_START,1516220337845,73
219,WS_RECV_END,1516220341452,73
219,PLAYER_SLEEPBEFORE_START,1516220341452,74
219,PLAYER_SLEEPBEFORE_END,1516220341461,74
219,WS_SEND_START,1516220341461,74
219,WS_SEND_END,1516220341461,74
219,WS_RECV_START,1516220341461,75
219,WS_RECV_END,1516220343705,75
219,PLAYER_SLEEPBEFORE_START,1516220343705,76
219,PLAYER_SLEEPBEFORE_END,1516220345211,76
219,WS_SEND_START,1516220345211,76
219,WS_SEND_END,1516220345211,76
219,WS_RECV_START,1516220345211,77
219,WS_RECV_END,1516220345997,77
219,PLAYER_SLEEPBEFORE_START,1516220345997,78
219,PLAYER_SLEEPBEFORE_END,1516220346865,78
219,WS_SEND_START,1516220346865,78
219,WS_SEND_END,1516220346865,78
219,WS_RECV_START,1516220346865,79
219,WS_RECV_END,1516220348823,79
219,PLAYER_SLEEPBEFORE_START,1516220348823,80
219,PLAYER_SLEEPBEFORE_END,1516220356489,80
219,WS_SEND_START,1516220356489,80
219,WS_SEND_END,1516220356489,80
219,WS_RECV_START,1516220356489,81
219,WS_RECV_END,1516220361033,81
219,PLAYER_SLEEPBEFORE_START,1516220361033,82
219,PLAYER_SLEEPBEFORE_END,1516220362135,82
219,WS_SEND_START,1516220362135,82
219,WS_SEND_END,1516220362135,82
219,WS_RECV_START,1516220362135,83
219,WS_RECV_END,1516220363453,83
219,PLAYER_SLEEPBEFORE_START,1516220363453,84
219,PLAYER_SLEEPBEFORE_END,1516220364400,84
219,WS_SEND_START,1516220364400,84
219,WS_SEND_END,1516220364400,84
219,WS_RECV_START,1516220364400,85
219,WS_RECV_END,1516220367289,85
219,PLAYER_SLEEPBEFORE_START,1516220367290,86
219,PLAYER_SLEEPBEFORE_END,1516220371462,86
219,WS_SEND_START,1516220371462,86
219,WS_SEND_END,1516220371462,86
219,WS_RECV_START,1516220371462,87
219,WS_RECV_END,1516220376972,87
219,PLAYER_SLEEPBEFORE_START,1516220376972,88
219,PLAYER_SLEEPBEFORE_END,1516220376980,88
219,WS_SEND_START,1516220376980,88
219,WS_SEND_END,1516220376980,88
219,WS_RECV_START,1516220376980,89
219,WS_RECV_END,1516220379859,89
219,PLAYER_SLEEPBEFORE_START,1516220379859,90
219,PLAYER_SLEEPBEFORE_END,1516220407056,90
219,REQ_START,1516220407056,90
219,REQ_END,1516220407064,90
219,PLAYER_SLEEPBEFORE_START,1516220407064,91
219,PLAYER_SLEEPBEFORE_END,1516220414953,91
219,WS_SEND_START,1516220414953,91
219,WS_SEND_END,1516220414953,91
219,WS_RECV_START,1516220414953,92
219,WS_RECV_END,1516220420701,92
219,PLAYER_SLEEPBEFORE_START,1516220420701,93
219,PLAYER_SLEEPBEFORE_END,1516220420716,93
219,WS_SEND_START,1516220420716,93
219,WS_SEND_END,1516220420716,93
219,WS_RECV_START,1516220420716,94
219,WS_RECV_END,1516220423217,94
219,PLAYER_SLEEPBEFORE_START,1516220423217,95
219,PLAYER_SLEEPBEFORE_END,1516220446773,95
219,WS_SEND_START,1516220446773,95
219,WS_SEND_END,1516220446773,95
219,WS_RECV_START,1516220446773,96
219,WS_RECV_END,1516220450496,96
219,PLAYER_SLEEPBEFORE_START,1516220450496,97
219,PLAYER_SLEEPBEFORE_END,1516220472936,97
219,WS_SEND_START,1516220472936,97
219,WS_SEND_END,1516220472936,97
219,WS_RECV_START,1516220472936,98
219,WS_RECV_END,1516220478156,98
219,PLAYER_SLEEPBEFORE_START,1516220478156,99
219,PLAYER_SLEEPBEFORE_END,1516220478177,99
219,WS_SEND_START,1516220478177,99
219,WS_SEND_END,1516220478177,99
219,WS_RECV_START,1516220478177,100
219,WS_RECV_END,1516220480436,100
219,PLAYER_SLEEPBEFORE_START,1516220480436,101
219,PLAYER_SLEEPBEFORE_END,1516220503995,101
219,WS_SEND_START,1516220503995,101
219,WS_SEND_END,1516220503995,101
219,WS_RECV_START,1516220503995,102
219,WS_RECV_END,1516220511097,102
219,PLAYER_SLEEPBEFORE_START,1516220511097,103
219,PLAYER_SLEEPBEFORE_END,1516220534722,103
219,WS_SEND_START,1516220534722,103
219,WS_SEND_END,1516220534722,103
219,WS_RECV_START,1516220534722,104
219,WS_RECV_END,1516220540102,104
219,PLAYER_SLEEPBEFORE_START,1516220540102,105
219,PLAYER_SLEEPBEFORE_END,1516220565479,105
219,WS_SEND_START,1516220565479,105
219,WS_SEND_END,1516220565479,105
219,WS_RECV_START,1516220565479,106
219,WS_RECV_END,1516220571466,106
219,PLAYER_SLEEPBEFORE_START,1516220571466,107
219,PLAYER_SLEEPBEFORE_END,1516220594889,107
219,WS_SEND_START,1516220594889,107
219,WS_SEND_END,1516220594889,107
219,WS_RECV_START,1516220594889,108
219,WS_RECV_END,1516220600652,108
219,PLAYER_SLEEPBEFORE_START,1516220600652,109
219,PLAYER_SLEEPBEFORE_END,1516220600662,109
219,WS_SEND_START,1516220600662,109
219,WS_SEND_END,1516220600662,109
219,WS_RECV_START,1516220600662,110
219,WS_RECV_END,1516220605143,110
219,PLAYER_SLEEPBEFORE_START,1516220605143,111
219,PLAYER_SLEEPBEFORE_END,1516220606102,111
219,WS_SEND_START,1516220606102,111
219,WS_SEND_END,1516220606102,111
219,WS_RECV_START,1516220606102,112
219,WS_RECV_END,1516220608133,112
219,PLAYER_SLEEPBEFORE_START,1516220608133,113
219,PLAYER_SLEEPBEFORE_END,1516220608695,113
219,WS_SEND_START,1516220608695,113
219,WS_SEND_END,1516220608695,113
219,WS_RECV_START,1516220608695,114
219,WS_RECV_END,1516220613802,114
219,PLAYER_SLEEPBEFORE_START,1516220613802,115
219,PLAYER_SLEEPBEFORE_END,1516220613811,115
219,WS_SEND_START,1516220613811,115
219,WS_SEND_END,1516220613811,115
219,WS_RECV_START,1516220613811,116
219,WS_RECV_END,1516220619295,116
219,PLAYER_SLEEPBEFORE_START,1516220619295,117
219,PLAYER_SLEEPBEFORE_END,1516220639655,117
219,WS_SEND_START,1516220639655,117
219,WS_SEND_END,1516220639655,117
219,PLAYER_SLEEPBEFORE_START,1516220639655,118
219,PLAYER_SLEEPBEFORE_END,1516220643408,118
219,WS_SEND_START,1516220643408,118
219,WS_SEND_END,1516220643408,118
219,WS_RECV_START,1516220643408,119
219,WS_RECV_END,1516220646573,119
219,PLAYER_SLEEPBEFORE_START,1516220646573,120
219,PLAYER_SLEEPBEFORE_END,1516220647562,120
219,WS_SEND_START,1516220647562,120
219,WS_SEND_END,1516220647562,120
219,WS_RECV_START,1516220647562,121
219,WS_RECV_END,1516220656797,121
219,PLAYER_SLEEPBEFORE_START,1516220656797,122
219,PLAYER_SLEEPBEFORE_END,1516220657982,122
219,WS_SEND_START,1516220657982,122
219,WS_SEND_END,1516220657982,122
219,WS_RECV_START,1516220657982,123
219,WS_RECV_END,1516220660688,123
219,PLAYER_SLEEPBEFORE_START,1516220660688,124
219,PLAYER_SLEEPBEFORE_END,1516220685093,124
219,WS_SEND_START,1516220685093,124
219,WS_SEND_END,1516220685093,124
219,WS_RECV_START,1516220685093,125
219,WS_RECV_END,1516220694371,125
219,PLAYER_SLEEPBEFORE_START,1516220694371,126
219,PLAYER_SLEEPBEFORE_END,1516220714884,126
219,WS_SEND_START,1516220714884,126
219,WS_SEND_END,1516220714884,126
219,PLAYER_SLEEPBEFORE_START,1516220714884,127
219,PLAYER_SLEEPBEFORE_END,1516220717938,127
219,WS_SEND_START,1516220717938,127
219,WS_SEND_END,1516220717938,127
219,WS_RECV_START,1516220717938,128
219,WS_RECV_END,1516220721448,128
219,PLAYER_SLEEPBEFORE_START,1516220721448,129
219,PLAYER_SLEEPBEFORE_END,1516220721468,129
219,WS_SEND_START,1516220721468,129
219,WS_SEND_END,1516220721468,129
219,WS_RECV_START,1516220721468,130
219,WS_RECV_END,1516220724855,130
219,PLAYER_SLEEPBEFORE_START,1516220724855,131
219,PLAYER_SLEEPBEFORE_END,1516220746479,131
219,WS_SEND_START,1516220746479,131
219,WS_SEND_END,1516220746479,131
219,PLAYER_SLEEPBEFORE_START,1516220746479,132
219,PLAYER_SLEEPBEFORE_END,1516220749559,132
219,WS_SEND_START,1516220749559,132
219,WS_SEND_END,1516220749559,132
219,WS_RECV_START,1516220749559,133
219,WS_RECV_END,1516220754115,133
219,PLAYER_SLEEPBEFORE_START,1516220754115,134
219,PLAYER_SLEEPBEFORE_END,1516220775332,134
219,WS_SEND_START,1516220775332,134
219,WS_SEND_END,1516220775332,134
219,PLAYER_SLEEPBEFORE_START,1516220775332,135
219,PLAYER_SLEEPBEFORE_END,1516220778522,135
219,WS_SEND_START,1516220778522,135
219,WS_SEND_END,1516220778522,135
219,WS_RECV_START,1516220778522,136
219,WS_RECV_END,1516220781258,136
219,PLAYER_SLEEPBEFORE_START,1516220781258,137
219,PLAYER_SLEEPBEFORE_END,1516220781265,137
219,WS_SEND_START,1516220781265,137
219,WS_SEND_END,1516220781265,137
219,WS_RECV_START,1516220781265,138
219,WS_RECV_END,1516220783735,138
219,PLAYER_SLEEPBEFORE_START,1516220783735,139
219,PLAYER_SLEEPBEFORE_END,1516220784425,139
219,WS_SEND_START,1516220784425,139
219,WS_SEND_END,1516220784426,139
219,WS_RECV_START,1516220784426,140
219,WS_RECV_END,1516220788078,140
219,PLAYER_SLEEPBEFORE_START,1516220788078,141
219,PLAYER_SLEEPBEFORE_END,1516220788733,141
219,WS_SEND_START,1516220788733,141
219,WS_SEND_END,1516220788733,141
219,WS_RECV_START,1516220788733,142
219,WS_RECV_END,1516220793265,142
219,PLAYER_SLEEPBEFORE_START,1516220793265,143
219,PLAYER_SLEEPBEFORE_END,1516220793323,143
219,WS_SEND_START,1516220793323,143
219,WS_SEND_END,1516220793323,143
219,WS_RECV_START,1516220793323,144
219,WS_RECV_END,1516220798153,144
219,PLAYER_SLEEPBEFORE_START,1516220798153,145
219,PLAYER_SLEEPBEFORE_END,1516220814215,145
219,REQ_START,1516220814215,145
219,REQ_END,1516220814223,145
219,PLAYER_SLEEPBEFORE_START,1516220814223,146
219,PLAYER_SLEEPBEFORE_END,1516220823101,146
219,WS_SEND_START,1516220823101,146
219,WS_SEND_END,1516220823101,146
219,WS_RECV_START,1516220823101,147
219,WS_RECV_END,1516220832617,147
219,PLAYER_SLEEPBEFORE_START,1516220832617,148
219,PLAYER_SLEEPBEFORE_END,1516220854540,148
219,WS_SEND_START,1516220854540,148
219,WS_SEND_END,1516220854540,148
219,PLAYER_SLEEPBEFORE_START,1516220854540,149
219,PLAYER_SLEEPBEFORE_END,1516220856968,149
219,WS_SEND_START,1516220856968,149
219,WS_SEND_END,1516220856968,149
219,WS_RECV_START,1516220856968,150
219,WS_RECV_END,1516220859243,150
219,PLAYER_SLEEPBEFORE_START,1516220859243,151
219,PLAYER_SLEEPBEFORE_END,1516220859453,151
219,WS_SEND_START,1516220859453,151
219,WS_SEND_END,1516220859453,151
219,WS_RECV_START,1516220859453,152
219,WS_RECV_END,1516220862580,152
219,PLAYER_SLEEPBEFORE_START,1516220862580,153
219,PLAYER_SLEEPBEFORE_END,1516220886510,153
219,WS_SEND_START,1516220886510,153
219,WS_SEND_END,1516220886510,153
219,WS_RECV_START,1516220886510,154
219,WS_RECV_END,1516220892833,154
219,PLAYER_SLEEPBEFORE_START,1516220892833,155
219,PLAYER_SLEEPBEFORE_END,1516220915391,155
219,WS_SEND_START,1516220915391,155
219,WS_SEND_END,1516220915391,155
219,PLAYER_SLEEPBEFORE_START,1516220915391,156
219,PLAYER_SLEEPBEFORE_END,1516220918665,156
219,WS_SEND_START,1516220918665,156
219,WS_SEND_END,1516220918665,156
219,WS_RECV_START,1516220918665,157
219,WS_RECV_END,1516220922777,157
219,PLAYER_SLEEPBEFORE_START,1516220922777,158
219,PLAYER_SLEEPBEFORE_END,1516220922787,158
219,WS_SEND_START,1516220922787,158
219,WS_SEND_END,1516220922787,158
219,WS_RECV_START,1516220922787,159
219,WS_RECV_END,1516220926511,159
219,PLAYER_SLEEPBEFORE_START,1516220926511,160
219,PLAYER_SLEEPBEFORE_END,1516220926686,160
219,WS_SEND_START,1516220926687,160
219,WS_SEND_END,1516220926687,160
219,WS_RECV_START,1516220926687,161
219,WS_RECV_END,1516220931162,161
219,PLAYER_SLEEPBEFORE_START,1516220931162,162
219,PLAYER_SLEEPBEFORE_END,1516220931187,162
219,WS_SEND_START,1516220931187,162
219,WS_SEND_END,1516220931188,162
219,WS_RECV_START,1516220931188,163
219,WS_RECV_END,1516220935443,163
219,PLAYER_SLEEPBEFORE_START,1516220935443,164
219,PLAYER_SLEEPBEFORE_END,1516220956255,164
219,WS_SEND_START,1516220956255,164
219,WS_SEND_END,1516220956255,164
219,WS_RECV_START,1516220956255,165
219,WS_RECV_END,1516220963821,165
219,PLAYER_SLEEPBEFORE_START,1516220963821,166
219,PLAYER_SLEEPBEFORE_END,1516220986276,166
219,WS_SEND_START,1516220986276,166
219,WS_SEND_END,1516220986276,166
219,WS_RECV_START,1516220986276,167
219,WS_RECV_END,1516220994935,167
219,PLAYER_SLEEPBEFORE_START,1516220994935,168
219,PLAYER_SLEEPBEFORE_END,1516221022293,168
219,WS_SEND_START,1516221022293,168
219,WS_SEND_END,1516221022293,168
219,WS_RECV_START,1516221022293,169
219,WS_RECV_END,1516221034209,169
219,PLAYER_SLEEPBEFORE_START,1516221034209,170
219,PLAYER_SLEEPBEFORE_END,1516221034218,170
219,WS_SEND_START,1516221034218,170
219,WS_SEND_END,1516221034218,170
219,WS_RECV_START,1516221034218,171
219,WS_RECV_END,1516221039444,171
219,PLAYER_SLEEPBEFORE_START,1516221039444,172
219,PLAYER_SLEEPBEFORE_END,1516221039814,172
219,WS_SEND_START,1516221039814,172
219,WS_SEND_END,1516221039814,172
219,WS_RECV_START,1516221039814,173
219,WS_RECV_END,1516221045679,173
219,PLAYER_SLEEPBEFORE_START,1516221045679,174
219,PLAYER_SLEEPBEFORE_END,1516221045720,174
219,WS_SEND_START,1516221045720,174
219,WS_SEND_END,1516221045721,174
219,WS_RECV_START,1516221045721,175
219,WS_RECV_END,1516221052613,175
219,PLAYER_SLEEPBEFORE_START,1516221052614,176
219,PLAYER_SLEEPBEFORE_END,1516221074375,176
219,WS_SEND_START,1516221074375,176
219,WS_SEND_END,1516221074375,176
219,PLAYER_SLEEPBEFORE_START,1516221074375,177
219,PLAYER_SLEEPBEFORE_END,1516221076893,177
219,WS_SEND_START,1516221076893,177
219,WS_SEND_END,1516221076893,177
219,WS_RECV_START,1516221076893,178
219,WS_RECV_END,1516221085619,178
219,PLAYER_SLEEPBEFORE_START,1516221085619,179
219,PLAYER_SLEEPBEFORE_END,1516221107960,179
219,WS_SEND_START,1516221107960,179
219,WS_SEND_END,1516221107960,179
219,WS_RECV_START,1516221107960,180
219,WS_RECV_END,1516221117043,180
219,PLAYER_SLEEPBEFORE_START,1516221117043,181
219,PLAYER_SLEEPBEFORE_END,1516221117487,181
219,WS_SEND_START,1516221117487,181
219,WS_SEND_END,1516221117487,181
219,WS_RECV_START,1516221117487,182
219,WS_RECV_END,1516221124173,182
219,PLAYER_SLEEPBEFORE_START,1516221124173,183
219,PLAYER_SLEEPBEFORE_END,1516221124696,183
219,WS_SEND_START,1516221124696,183
219,WS_SEND_END,1516221124696,183
219,WS_RECV_START,1516221124696,184
219,WS_RECV_END,1516221131907,184
219,PLAYER_SLEEPBEFORE_START,1516221131907,185
219,PLAYER_SLEEPBEFORE_END,1516221132176,185
219,WS_SEND_START,1516221132176,185
219,WS_SEND_END,1516221132176,185
219,WS_RECV_START,1516221132176,186
219,WS_RECV_END,1516221140035,186
219,PLAYER_SLEEPBEFORE_START,1516221140035,187
219,PLAYER_SLEEPBEFORE_END,1516221162536,187
219,WS_SEND_START,1516221162536,187
219,WS_SEND_END,1516221162536,187
219,WS_RECV_START,1516221162536,188
219,WS_RECV_END,1516221174545,188
219,PLAYER_SLEEPBEFORE_START,1516221174545,189
219,PLAYER_SLEEPBEFORE_END,1516221180784,189
219,WS_SEND_START,1516221180784,189
219,WS_SEND_END,1516221180784,189
219,WS_RECV_START,1516221180784,190
219,WS_RECV_END,1516221188411,190
219,PLAYER_SLEEPBEFORE_START,1516221188411,191
219,PLAYER_SLEEPBEFORE_END,1516221190330,191
219,WS_SEND_START,1516221190330,191
219,WS_SEND_END,1516221190330,191
219,WS_RECV_START,1516221190330,192
219,WS_RECV_END,1516221196911,192
219,PLAYER_SLEEPBEFORE_START,1516221196911,193
219,PLAYER_SLEEPBEFORE_END,1516221197039,193
219,WS_SEND_START,1516221197039,193
219,WS_SEND_END,1516221197039,193
219,WS_RECV_START,1516221197039,194
219,WS_RECV_END,1516221200864,194
219,PLAYER_SLEEPBEFORE_START,1516221200865,195
219,PLAYER_SLEEPBEFORE_END,1516221202620,195
219,WS_SEND_START,1516221202620,195
219,WS_SEND_END,1516221202620,195
219,WS_RECV_START,1516221202620,196
219,WS_RECV_END,1516221203728,196
219,PLAYER_SLEEPBEFORE_START,1516221203728,197
219,PLAYER_SLEEPBEFORE_END,1516221205532,197
219,WS_SEND_START,1516221205532,197
219,WS_SEND_END,1516221205532,197
219,WS_RECV_START,1516221205532,198
219,WS_RECV_END,1516221206203,198
219,PLAYER_SLEEPBEFORE_START,1516221206203,199
219,PLAYER_SLEEPBEFORE_END,1516221218057,199
219,WS_SEND_START,1516221218057,199
219,WS_SEND_END,1516221218057,199
219,PLAYER_SLEEPBEFORE_START,1516221218057,200
219,PLAYER_SLEEPBEFORE_END,1516221222146,200
219,WS_SEND_START,1516221222146,200
219,WS_SEND_END,1516221222146,200
219,WS_RECV_START,1516221222146,201
219,WS_RECV_END,1516221222678,201
219,PLAYER_SLEEPBEFORE_START,1516221222678,202
219,PLAYER_SLEEPBEFORE_END,1516221222693,202
219,WS_SEND_START,1516221222693,202
219,WS_SEND_END,1516221222693,202
219,WS_RECV_START,1516221222693,203
219,WS_RECV_END,1516221223967,203
219,PLAYER_SLEEPBEFORE_START,1516221223967,204
219,PLAYER_SLEEPBEFORE_END,1516221243617,204
219,WS_SEND_START,1516221243617,204
219,WS_SEND_END,1516221243617,204
219,PLAYER_SLEEPBEFORE_START,1516221243617,205
219,PLAYER_SLEEPBEFORE_END,1516221247515,205
219,WS_SEND_START,1516221247515,205
219,WS_SEND_END,1516221247515,205
219,WS_RECV_START,1516221247515,206
219,WS_RECV_END,1516221247847,206
219,PLAYER_SLEEPBEFORE_START,1516221247847,207
219,PLAYER_SLEEPBEFORE_END,1516221264778,207
219,REQ_START,1516221264778,207
219,REQ_END,1516221264786,207
219,PLAYER_SLEEPBEFORE_START,1516221264786,208
219,PLAYER_SLEEPBEFORE_END,1516221271638,208
219,WS_CLOSE_START,1516221271638,208
219,WS_CLOSE_END,1516221271638,208
219,PLAYER_DONE,1516221271638
