# --sessions 540 --app-url=http://shinyloadtest.rstudioservices.com/cran_explorer --output-dir test540 --overwrite-output --log-level warn --start-interval 500 15min.log
thread_id,event,timestamp,input_line_number,comment
25,PLAYER_SESSION_CREATE,1516219954790
25,PLAYER_START_INTERVAL_START,1516219954790
25,PLAYER_START_INTERVAL_END,1516219967290
25,REQ_HOME_START,1516219967290,2
25,REQ_HOME_END,1516219967377,2
25,REQ_START,1516219967377,3
25,REQ_END,1516219967414,3
25,REQ_START,1516219967414,4
25,REQ_END,1516219967446,4
25,REQ_START,1516219967446,5
25,REQ_END,1516219967479,5
25,REQ_START,1516219967479,6
25,REQ_END,1516219967512,6
25,REQ_START,1516219967512,7
25,REQ_END,1516219967547,7
25,REQ_START,1516219967547,8
25,REQ_END,1516219967585,8
25,REQ_START,1516219967585,9
25,REQ_END,1516219967622,9
25,REQ_START,1516219967622,10
25,REQ_END,1516219967630,10
25,REQ_START,1516219967630,11
25,REQ_END,1516219967663,11
25,REQ_START,1516219967663,12
25,REQ_END,1516219967673,12
25,REQ_START,1516219967673,13
25,REQ_END,1516219967705,13
25,REQ_START,1516219967705,14
25,REQ_END,1516219967719,14
25,REQ_START,1516219967719,15
25,REQ_END,1516219967753,15
25,REQ_TOK_START,1516219967753,16
25,REQ_TOK_END,1516219967761,16
25,REQ_SINF_START,1516219967761,17
25,REQ_SINF_END,1516219967769,17
25,WS_OPEN_START,1516219967769,18
25,WS_OPEN_END,1516219967777,18
25,REQ_START,1516219967777,19
25,REQ_END,1516219967807,19
25,WS_RECV_START,1516219967807,20
25,WS_RECV_END,1516219967807,20
25,PLAYER_SLEEPBEFORE_START,1516219967808,21
25,PLAYER_SLEEPBEFORE_END,1516219967813,21
25,WS_SEND_START,1516219967813,21
25,WS_SEND_END,1516219967813,21
25,PLAYER_SLEEPBEFORE_START,1516219967813,22
25,PLAYER_SLEEPBEFORE_END,1516219967814,22
25,WS_SEND_START,1516219967814,22
25,WS_SEND_END,1516219967814,22
25,WS_RECV_INIT_START,1516219967814,23
25,WS_RECV_INIT_END,1516219967833,23
25,WS_RECV_START,1516219967833,24
25,WS_RECV_END,1516219967899,24
25,PLAYER_SLEEPBEFORE_START,1516219967899,25
25,PLAYER_SLEEPBEFORE_END,1516219967906,25
25,REQ_START,1516219967907,25
25,REQ_END,1516219967938,25
25,PLAYER_SLEEPBEFORE_START,1516219967938,26
25,PLAYER_SLEEPBEFORE_END,1516219967939,26
25,REQ_START,1516219967939,26
25,REQ_END,1516219967968,26
25,PLAYER_SLEEPBEFORE_START,1516219967968,27
25,PLAYER_SLEEPBEFORE_END,1516219967971,27
25,REQ_START,1516219967971,27
25,REQ_END,1516219968004,27
25,PLAYER_SLEEPBEFORE_START,1516219968004,28
25,PLAYER_SLEEPBEFORE_END,1516219968289,28
25,REQ_START,1516219968289,28
25,REQ_END,1516219968321,28
25,PLAYER_SLEEPBEFORE_START,1516219968321,29
25,PLAYER_SLEEPBEFORE_END,1516219968496,29
25,WS_SEND_START,1516219968496,29
25,WS_SEND_END,1516219968496,29
25,WS_RECV_START,1516219968496,30
25,WS_RECV_END,1516219968607,30
25,PLAYER_SLEEPBEFORE_START,1516219968607,31
25,PLAYER_SLEEPBEFORE_END,1516219968618,31
25,REQ_START,1516219968618,31
25,REQ_END,1516219968654,31
25,PLAYER_SLEEPBEFORE_START,1516219968654,32
25,PLAYER_SLEEPBEFORE_END,1516219996799,32
25,WS_SEND_START,1516219996799,32
25,WS_SEND_END,1516219996799,32
25,WS_RECV_START,1516219996799,33
25,WS_RECV_END,1516219996889,33
25,PLAYER_SLEEPBEFORE_START,1516219996889,34
25,PLAYER_SLEEPBEFORE_END,1516220022800,34
25,WS_SEND_START,1516220022800,34
25,WS_SEND_END,1516220022800,34
25,WS_RECV_START,1516220022800,35
25,WS_RECV_END,1516220022914,35
25,PLAYER_SLEEPBEFORE_START,1516220022914,36
25,PLAYER_SLEEPBEFORE_END,1516220022923,36
25,WS_SEND_START,1516220022923,36
25,WS_SEND_END,1516220022923,36
25,WS_RECV_START,1516220022923,37
25,WS_RECV_END,1516220023069,37
25,PLAYER_SLEEPBEFORE_START,1516220023069,38
25,PLAYER_SLEEPBEFORE_END,1516220026264,38
25,WS_SEND_START,1516220026264,38
25,WS_SEND_END,1516220026264,38
25,WS_RECV_START,1516220026264,39
25,WS_RECV_END,1516220026409,39
25,PLAYER_SLEEPBEFORE_START,1516220026409,40
25,PLAYER_SLEEPBEFORE_END,1516220026455,40
25,WS_SEND_START,1516220026455,40
25,WS_SEND_END,1516220026455,40
25,WS_RECV_START,1516220026455,41
25,WS_RECV_END,1516220026592,41
25,PLAYER_SLEEPBEFORE_START,1516220026592,42
25,PLAYER_SLEEPBEFORE_END,1516220044727,42
25,WS_SEND_START,1516220044727,42
25,WS_SEND_END,1516220044727,42
25,WS_RECV_START,1516220044727,43
25,WS_RECV_END,1516220044769,43
25,PLAYER_SLEEPBEFORE_START,1516220044769,44
25,PLAYER_SLEEPBEFORE_END,1516220044781,44
25,WS_SEND_START,1516220044781,44
25,WS_SEND_END,1516220044781,44
25,WS_RECV_START,1516220044781,45
25,WS_RECV_END,1516220044848,45
25,PLAYER_SLEEPBEFORE_START,1516220044848,46
25,PLAYER_SLEEPBEFORE_END,1516220046109,46
25,WS_SEND_START,1516220046109,46
25,WS_SEND_END,1516220046109,46
25,WS_RECV_START,1516220046109,47
25,WS_RECV_END,1516220046184,47
25,PLAYER_SLEEPBEFORE_START,1516220046184,48
25,PLAYER_SLEEPBEFORE_END,1516220047504,48
25,WS_SEND_START,1516220047504,48
25,WS_SEND_END,1516220047504,48
25,WS_RECV_START,1516220047504,49
25,WS_RECV_END,1516220047622,49
25,PLAYER_SLEEPBEFORE_START,1516220047622,50
25,PLAYER_SLEEPBEFORE_END,1516220047647,50
25,WS_SEND_START,1516220047647,50
25,WS_SEND_END,1516220047647,50
25,WS_RECV_START,1516220047647,51
25,WS_RECV_END,1516220047920,51
25,PLAYER_SLEEPBEFORE_START,1516220047920,52
25,PLAYER_SLEEPBEFORE_END,1516220070485,52
25,WS_SEND_START,1516220070485,52
25,WS_SEND_END,1516220070485,52
25,WS_RECV_START,1516220070485,53
25,WS_RECV_END,1516220070788,53
25,PLAYER_SLEEPBEFORE_START,1516220070788,54
25,PLAYER_SLEEPBEFORE_END,1516220092091,54
25,WS_SEND_START,1516220092091,54
25,WS_SEND_END,1516220092091,54
25,PLAYER_SLEEPBEFORE_START,1516220092091,55
25,PLAYER_SLEEPBEFORE_END,1516220094032,55
25,WS_SEND_START,1516220094032,55
25,WS_SEND_END,1516220094032,55
25,WS_RECV_START,1516220094032,56
25,WS_RECV_END,1516220094280,56
25,PLAYER_SLEEPBEFORE_START,1516220094280,57
25,PLAYER_SLEEPBEFORE_END,1516220117152,57
25,WS_SEND_START,1516220117152,57
25,WS_SEND_END,1516220117152,57
25,WS_RECV_START,1516220117152,58
25,WS_RECV_END,1516220117202,58
25,PLAYER_SLEEPBEFORE_START,1516220117202,59
25,PLAYER_SLEEPBEFORE_END,1516220119529,59
25,WS_SEND_START,1516220119530,59
25,WS_SEND_END,1516220119530,59
25,WS_RECV_START,1516220119530,60
25,WS_RECV_END,1516220119824,60
25,PLAYER_SLEEPBEFORE_START,1516220119824,61
25,PLAYER_SLEEPBEFORE_END,1516220123415,61
25,WS_SEND_START,1516220123415,61
25,WS_SEND_END,1516220123415,61
25,WS_RECV_START,1516220123415,62
25,WS_RECV_END,1516220123527,62
25,PLAYER_SLEEPBEFORE_START,1516220123527,63
25,PLAYER_SLEEPBEFORE_END,1516220142789,63
25,WS_SEND_START,1516220142789,63
25,WS_SEND_END,1516220142789,63
25,WS_RECV_START,1516220142789,64
25,WS_RECV_END,1516220142945,64
25,PLAYER_SLEEPBEFORE_START,1516220142945,65
25,PLAYER_SLEEPBEFORE_END,1516220169763,65
25,WS_SEND_START,1516220169763,65
25,WS_SEND_END,1516220169763,65
25,WS_RECV_START,1516220169763,66
25,WS_RECV_END,1516220170269,66
25,PLAYER_SLEEPBEFORE_START,1516220170269,67
25,PLAYER_SLEEPBEFORE_END,1516220171776,67
25,WS_SEND_START,1516220171776,67
25,WS_SEND_END,1516220171776,67
25,WS_RECV_START,1516220171776,68
25,WS_RECV_END,1516220172318,68
25,PLAYER_SLEEPBEFORE_START,1516220172318,69
25,PLAYER_SLEEPBEFORE_END,1516220194316,69
25,WS_SEND_START,1516220194316,69
25,WS_SEND_END,1516220194316,69
25,WS_RECV_START,1516220194316,70
25,WS_RECV_END,1516220194672,70
25,PLAYER_SLEEPBEFORE_START,1516220194672,71
25,PLAYER_SLEEPBEFORE_END,1516220219447,71
25,WS_SEND_START,1516220219447,71
25,WS_SEND_END,1516220219447,71
25,PLAYER_SLEEPBEFORE_START,1516220219447,72
25,PLAYER_SLEEPBEFORE_END,1516220222055,72
25,WS_SEND_START,1516220222055,72
25,WS_SEND_END,1516220222055,72
25,WS_RECV_START,1516220222055,73
25,WS_RECV_END,1516220223029,73
25,PLAYER_SLEEPBEFORE_START,1516220223029,74
25,PLAYER_SLEEPBEFORE_END,1516220223039,74
25,WS_SEND_START,1516220223039,74
25,WS_SEND_END,1516220223039,74
25,WS_RECV_START,1516220223039,75
25,WS_RECV_END,1516220223080,75
25,PLAYER_SLEEPBEFORE_START,1516220223080,76
25,PLAYER_SLEEPBEFORE_END,1516220224586,76
25,WS_SEND_START,1516220224586,76
25,WS_SEND_END,1516220224586,76
25,WS_RECV_START,1516220224586,77
25,WS_RECV_END,1516220225327,77
25,PLAYER_SLEEPBEFORE_START,1516220225327,78
25,PLAYER_SLEEPBEFORE_END,1516220226195,78
25,WS_SEND_START,1516220226195,78
25,WS_SEND_END,1516220226195,78
25,WS_RECV_START,1516220226195,79
25,WS_RECV_END,1516220227086,79
25,PLAYER_SLEEPBEFORE_START,1516220227086,80
25,PLAYER_SLEEPBEFORE_END,1516220234752,80
25,WS_SEND_START,1516220234753,80
25,WS_SEND_END,1516220234753,80
25,WS_RECV_START,1516220234753,81
25,WS_RECV_END,1516220235640,81
25,PLAYER_SLEEPBEFORE_START,1516220235640,82
25,PLAYER_SLEEPBEFORE_END,1516220236742,82
25,WS_SEND_START,1516220236742,82
25,WS_SEND_END,1516220236742,82
25,WS_RECV_START,1516220236742,83
25,WS_RECV_END,1516220238358,83
25,PLAYER_SLEEPBEFORE_START,1516220238358,84
25,PLAYER_SLEEPBEFORE_END,1516220239305,84
25,WS_SEND_START,1516220239305,84
25,WS_SEND_END,1516220239305,84
25,WS_RECV_START,1516220239305,85
25,WS_RECV_END,1516220241247,85
25,PLAYER_SLEEPBEFORE_START,1516220241247,86
25,PLAYER_SLEEPBEFORE_END,1516220245419,86
25,WS_SEND_START,1516220245419,86
25,WS_SEND_END,1516220245419,86
25,WS_RECV_START,1516220245419,87
25,WS_RECV_END,1516220247172,87
25,PLAYER_SLEEPBEFORE_START,1516220247172,88
25,PLAYER_SLEEPBEFORE_END,1516220247180,88
25,WS_SEND_START,1516220247180,88
25,WS_SEND_END,1516220247180,88
25,WS_RECV_START,1516220247180,89
25,WS_RECV_END,1516220248257,89
25,PLAYER_SLEEPBEFORE_START,1516220248257,90
25,PLAYER_SLEEPBEFORE_END,1516220275455,90
25,REQ_START,1516220275455,90
25,REQ_END,1516220275468,90
25,PLAYER_SLEEPBEFORE_START,1516220275468,91
25,PLAYER_SLEEPBEFORE_END,1516220283357,91
25,WS_SEND_START,1516220283357,91
25,WS_SEND_END,1516220283357,91
25,WS_RECV_START,1516220283357,92
25,WS_RECV_END,1516220285070,92
25,PLAYER_SLEEPBEFORE_START,1516220285070,93
25,PLAYER_SLEEPBEFORE_END,1516220285085,93
25,WS_SEND_START,1516220285085,93
25,WS_SEND_END,1516220285085,93
25,WS_RECV_START,1516220285085,94
25,WS_RECV_END,1516220285892,94
25,PLAYER_SLEEPBEFORE_START,1516220285892,95
25,PLAYER_SLEEPBEFORE_END,1516220309447,95
25,WS_SEND_START,1516220309447,95
25,WS_SEND_END,1516220309447,95
25,WS_RECV_START,1516220309447,96
25,WS_RECV_END,1516220310132,96
25,PLAYER_SLEEPBEFORE_START,1516220310132,97
25,PLAYER_SLEEPBEFORE_END,1516220332572,97
25,WS_SEND_START,1516220332572,97
25,WS_SEND_END,1516220332572,97
25,WS_RECV_START,1516220332572,98
25,WS_RECV_END,1516220333742,98
25,PLAYER_SLEEPBEFORE_START,1516220333742,99
25,PLAYER_SLEEPBEFORE_END,1516220333763,99
25,WS_SEND_START,1516220333763,99
25,WS_SEND_END,1516220333763,99
25,WS_RECV_START,1516220333763,100
25,WS_RECV_END,1516220334601,100
25,PLAYER_SLEEPBEFORE_START,1516220334601,101
25,PLAYER_SLEEPBEFORE_END,1516220358160,101
25,WS_SEND_START,1516220358160,101
25,WS_SEND_END,1516220358160,101
25,WS_RECV_START,1516220358160,102
25,WS_RECV_END,1516220360180,102
25,PLAYER_SLEEPBEFORE_START,1516220360180,103
25,PLAYER_SLEEPBEFORE_END,1516220383808,103
25,WS_SEND_START,1516220383808,103
25,WS_SEND_END,1516220383808,103
25,WS_RECV_START,1516220383808,104
25,WS_RECV_END,1516220385561,104
25,PLAYER_SLEEPBEFORE_START,1516220385561,105
25,PLAYER_SLEEPBEFORE_END,1516220410938,105
25,WS_SEND_START,1516220410938,105
25,WS_SEND_END,1516220410938,105
25,WS_RECV_START,1516220410938,106
25,WS_RECV_END,1516220411736,106
25,PLAYER_SLEEPBEFORE_START,1516220411736,107
25,PLAYER_SLEEPBEFORE_END,1516220435160,107
25,WS_SEND_START,1516220435160,107
25,WS_SEND_END,1516220435160,107
25,WS_RECV_START,1516220435160,108
25,WS_RECV_END,1516220436315,108
25,PLAYER_SLEEPBEFORE_START,1516220436315,109
25,PLAYER_SLEEPBEFORE_END,1516220436324,109
25,WS_SEND_START,1516220436324,109
25,WS_SEND_END,1516220436324,109
25,WS_RECV_START,1516220436324,110
25,WS_RECV_END,1516220437215,110
25,PLAYER_SLEEPBEFORE_START,1516220437215,111
25,PLAYER_SLEEPBEFORE_END,1516220438174,111
25,WS_SEND_START,1516220438174,111
25,WS_SEND_END,1516220438175,111
25,WS_RECV_START,1516220438175,112
25,WS_RECV_END,1516220438566,112
25,PLAYER_SLEEPBEFORE_START,1516220438566,113
25,PLAYER_SLEEPBEFORE_END,1516220439128,113
25,WS_SEND_START,1516220439128,113
25,WS_SEND_END,1516220439128,113
25,WS_RECV_START,1516220439128,114
25,WS_RECV_END,1516220439602,114
25,PLAYER_SLEEPBEFORE_START,1516220439602,115
25,PLAYER_SLEEPBEFORE_END,1516220439611,115
25,WS_SEND_START,1516220439611,115
25,WS_SEND_END,1516220439611,115
25,WS_RECV_START,1516220439611,116
25,WS_RECV_END,1516220440321,116
25,PLAYER_SLEEPBEFORE_START,1516220440321,117
25,PLAYER_SLEEPBEFORE_END,1516220460682,117
25,WS_SEND_START,1516220460682,117
25,WS_SEND_END,1516220460682,117
25,PLAYER_SLEEPBEFORE_START,1516220460682,118
25,PLAYER_SLEEPBEFORE_END,1516220464434,118
25,WS_SEND_START,1516220464434,118
25,WS_SEND_END,1516220464434,118
25,WS_RECV_START,1516220464434,119
25,WS_RECV_END,1516220465910,119
25,PLAYER_SLEEPBEFORE_START,1516220465910,120
25,PLAYER_SLEEPBEFORE_END,1516220466898,120
25,WS_SEND_START,1516220466898,120
25,WS_SEND_END,1516220466898,120
25,WS_RECV_START,1516220466898,121
25,WS_RECV_END,1516220470512,121
25,PLAYER_SLEEPBEFORE_START,1516220470512,122
25,PLAYER_SLEEPBEFORE_END,1516220471697,122
25,WS_SEND_START,1516220471697,122
25,WS_SEND_END,1516220471697,122
25,WS_RECV_START,1516220471697,123
25,WS_RECV_END,1516220472365,123
25,PLAYER_SLEEPBEFORE_START,1516220472365,124
25,PLAYER_SLEEPBEFORE_END,1516220496770,124
25,WS_SEND_START,1516220496770,124
25,WS_SEND_END,1516220496770,124
25,WS_RECV_START,1516220496770,125
25,WS_RECV_END,1516220500925,125
25,PLAYER_SLEEPBEFORE_START,1516220500925,126
25,PLAYER_SLEEPBEFORE_END,1516220521437,126
25,WS_SEND_START,1516220521438,126
25,WS_SEND_END,1516220521438,126
25,PLAYER_SLEEPBEFORE_START,1516220521438,127
25,PLAYER_SLEEPBEFORE_END,1516220524492,127
25,WS_SEND_START,1516220524492,127
25,WS_SEND_END,1516220524492,127
25,WS_RECV_START,1516220524492,128
25,WS_RECV_END,1516220524842,128
25,PLAYER_SLEEPBEFORE_START,1516220524842,129
25,PLAYER_SLEEPBEFORE_END,1516220524862,129
25,WS_SEND_START,1516220524862,129
25,WS_SEND_END,1516220524862,129
25,WS_RECV_START,1516220524862,130
25,WS_RECV_END,1516220527398,130
25,PLAYER_SLEEPBEFORE_START,1516220527398,131
25,PLAYER_SLEEPBEFORE_END,1516220549023,131
25,WS_SEND_START,1516220549023,131
25,WS_SEND_END,1516220549023,131
25,PLAYER_SLEEPBEFORE_START,1516220549023,132
25,PLAYER_SLEEPBEFORE_END,1516220552103,132
25,WS_SEND_START,1516220552103,132
25,WS_SEND_END,1516220552103,132
25,WS_RECV_START,1516220552103,133
25,WS_RECV_END,1516220552836,133
25,PLAYER_SLEEPBEFORE_START,1516220552837,134
25,PLAYER_SLEEPBEFORE_END,1516220574054,134
25,WS_SEND_START,1516220574054,134
25,WS_SEND_END,1516220574054,134
25,PLAYER_SLEEPBEFORE_START,1516220574054,135
25,PLAYER_SLEEPBEFORE_END,1516220577244,135
25,WS_SEND_START,1516220577244,135
25,WS_SEND_END,1516220577244,135
25,WS_RECV_START,1516220577244,136
25,WS_RECV_END,1516220578905,136
25,PLAYER_SLEEPBEFORE_START,1516220578905,137
25,PLAYER_SLEEPBEFORE_END,1516220578912,137
25,WS_SEND_START,1516220578912,137
25,WS_SEND_END,1516220578912,137
25,WS_RECV_START,1516220578912,138
25,WS_RECV_END,1516220580239,138
25,PLAYER_SLEEPBEFORE_START,1516220580239,139
25,PLAYER_SLEEPBEFORE_END,1516220580929,139
25,WS_SEND_START,1516220580929,139
25,WS_SEND_END,1516220580929,139
25,WS_RECV_START,1516220580929,140
25,WS_RECV_END,1516220583174,140
25,PLAYER_SLEEPBEFORE_START,1516220583174,141
25,PLAYER_SLEEPBEFORE_END,1516220583829,141
25,WS_SEND_START,1516220583829,141
25,WS_SEND_END,1516220583829,141
25,WS_RECV_START,1516220583829,142
25,WS_RECV_END,1516220587595,142
25,PLAYER_SLEEPBEFORE_START,1516220587595,143
25,PLAYER_SLEEPBEFORE_END,1516220587652,143
25,WS_SEND_START,1516220587652,143
25,WS_SEND_END,1516220587652,143
25,WS_RECV_START,1516220587652,144
25,WS_RECV_END,1516220591569,144
25,PLAYER_SLEEPBEFORE_START,1516220591569,145
25,PLAYER_SLEEPBEFORE_END,1516220607632,145
25,REQ_START,1516220607632,145
25,REQ_END,1516220607640,145
25,PLAYER_SLEEPBEFORE_START,1516220607640,146
25,PLAYER_SLEEPBEFORE_END,1516220616517,146
25,WS_SEND_START,1516220616517,146
25,WS_SEND_END,1516220616517,146
25,WS_RECV_START,1516220616517,147
25,WS_RECV_END,1516220620627,147
25,PLAYER_SLEEPBEFORE_START,1516220620627,148
25,PLAYER_SLEEPBEFORE_END,1516220642549,148
25,WS_SEND_START,1516220642549,148
25,WS_SEND_END,1516220642549,148
25,PLAYER_SLEEPBEFORE_START,1516220642549,149
25,PLAYER_SLEEPBEFORE_END,1516220644978,149
25,WS_SEND_START,1516220644978,149
25,WS_SEND_END,1516220644978,149
25,WS_RECV_START,1516220644978,150
25,WS_RECV_END,1516220647636,150
25,PLAYER_SLEEPBEFORE_START,1516220647636,151
25,PLAYER_SLEEPBEFORE_END,1516220647846,151
25,WS_SEND_START,1516220647846,151
25,WS_SEND_END,1516220647846,151
25,WS_RECV_START,1516220647846,152
25,WS_RECV_END,1516220649681,152
25,PLAYER_SLEEPBEFORE_START,1516220649681,153
25,PLAYER_SLEEPBEFORE_END,1516220673608,153
25,WS_SEND_START,1516220673608,153
25,WS_SEND_END,1516220673608,153
25,WS_RECV_START,1516220673608,154
25,WS_RECV_END,1516220678602,154
25,PLAYER_SLEEPBEFORE_START,1516220678602,155
25,PLAYER_SLEEPBEFORE_END,1516220701161,155
25,WS_SEND_START,1516220701161,155
25,WS_SEND_END,1516220701161,155
25,PLAYER_SLEEPBEFORE_START,1516220701161,156
25,PLAYER_SLEEPBEFORE_END,1516220704435,156
25,WS_SEND_START,1516220704435,156
25,WS_SEND_END,1516220704435,156
25,WS_RECV_START,1516220704435,157
25,WS_RECV_END,1516220705611,157
25,PLAYER_SLEEPBEFORE_START,1516220705611,158
25,PLAYER_SLEEPBEFORE_END,1516220705621,158
25,WS_SEND_START,1516220705621,158
25,WS_SEND_END,1516220705621,158
25,WS_RECV_START,1516220705621,159
25,WS_RECV_END,1516220707871,159
25,PLAYER_SLEEPBEFORE_START,1516220707871,160
25,PLAYER_SLEEPBEFORE_END,1516220708046,160
25,WS_SEND_START,1516220708046,160
25,WS_SEND_END,1516220708046,160
25,WS_RECV_START,1516220708046,161
25,WS_RECV_END,1516220711976,161
25,PLAYER_SLEEPBEFORE_START,1516220711976,162
25,PLAYER_SLEEPBEFORE_END,1516220712001,162
25,WS_SEND_START,1516220712001,162
25,WS_SEND_END,1516220712001,162
25,WS_RECV_START,1516220712001,163
25,WS_RECV_END,1516220715386,163
25,PLAYER_SLEEPBEFORE_START,1516220715386,164
25,PLAYER_SLEEPBEFORE_END,1516220736198,164
25,WS_SEND_START,1516220736198,164
25,WS_SEND_END,1516220736198,164
25,WS_RECV_START,1516220736198,165
25,WS_RECV_END,1516220740854,165
25,PLAYER_SLEEPBEFORE_START,1516220740854,166
25,PLAYER_SLEEPBEFORE_END,1516220763309,166
25,WS_SEND_START,1516220763309,166
25,WS_SEND_END,1516220763309,166
25,WS_RECV_START,1516220763309,167
25,WS_RECV_END,1516220769976,167
25,PLAYER_SLEEPBEFORE_START,1516220769976,168
25,PLAYER_SLEEPBEFORE_END,1516220797333,168
25,WS_SEND_START,1516220797333,168
25,WS_SEND_END,1516220797333,168
25,WS_RECV_START,1516220797333,169
25,WS_RECV_END,1516220802678,169
25,PLAYER_SLEEPBEFORE_START,1516220802678,170
25,PLAYER_SLEEPBEFORE_END,1516220802687,170
25,WS_SEND_START,1516220802687,170
25,WS_SEND_END,1516220802687,170
25,WS_RECV_START,1516220802687,171
25,WS_RECV_END,1516220806047,171
25,PLAYER_SLEEPBEFORE_START,1516220806047,172
25,PLAYER_SLEEPBEFORE_END,1516220806416,172
25,WS_SEND_START,1516220806416,172
25,WS_SEND_END,1516220806416,172
25,WS_RECV_START,1516220806416,173
25,WS_RECV_END,1516220809397,173
25,PLAYER_SLEEPBEFORE_START,1516220809397,174
25,PLAYER_SLEEPBEFORE_END,1516220809439,174
25,WS_SEND_START,1516220809439,174
25,WS_SEND_END,1516220809439,174
25,WS_RECV_START,1516220809439,175
25,WS_RECV_END,1516220812706,175
25,PLAYER_SLEEPBEFORE_START,1516220812706,176
25,PLAYER_SLEEPBEFORE_END,1516220834467,176
25,WS_SEND_START,1516220834467,176
25,WS_SEND_END,1516220834467,176
25,PLAYER_SLEEPBEFORE_START,1516220834467,177
25,PLAYER_SLEEPBEFORE_END,1516220836985,177
25,WS_SEND_START,1516220836985,177
25,WS_SEND_END,1516220836985,177
25,WS_RECV_START,1516220836986,178
25,WS_RECV_END,1516220842432,178
25,PLAYER_SLEEPBEFORE_START,1516220842432,179
25,PLAYER_SLEEPBEFORE_END,1516220864773,179
25,WS_SEND_START,1516220864773,179
25,WS_SEND_END,1516220864773,179
25,WS_RECV_START,1516220864773,180
25,WS_RECV_END,1516220868763,180
25,PLAYER_SLEEPBEFORE_START,1516220868763,181
25,PLAYER_SLEEPBEFORE_END,1516220869208,181
25,WS_SEND_START,1516220869208,181
25,WS_SEND_END,1516220869208,181
25,WS_RECV_START,1516220869208,182
25,WS_RECV_END,1516220873492,182
25,PLAYER_SLEEPBEFORE_START,1516220873492,183
25,PLAYER_SLEEPBEFORE_END,1516220874015,183
25,WS_SEND_START,1516220874015,183
25,WS_SEND_END,1516220874015,183
25,WS_RECV_START,1516220874015,184
25,WS_RECV_END,1516220876227,184
25,PLAYER_SLEEPBEFORE_START,1516220876227,185
25,PLAYER_SLEEPBEFORE_END,1516220876495,185
25,WS_SEND_START,1516220876495,185
25,WS_SEND_END,1516220876495,185
25,WS_RECV_START,1516220876495,186
25,WS_RECV_END,1516220879058,186
25,PLAYER_SLEEPBEFORE_START,1516220879058,187
25,PLAYER_SLEEPBEFORE_END,1516220901558,187
25,WS_SEND_START,1516220901558,187
25,WS_SEND_END,1516220901558,187
25,WS_RECV_START,1516220901558,188
25,WS_RECV_END,1516220907423,188
25,PLAYER_SLEEPBEFORE_START,1516220907423,189
25,PLAYER_SLEEPBEFORE_END,1516220913662,189
25,WS_SEND_START,1516220913662,189
25,WS_SEND_END,1516220913662,189
25,WS_RECV_START,1516220913662,190
25,WS_RECV_END,1516220920095,190
25,PLAYER_SLEEPBEFORE_START,1516220920095,191
25,PLAYER_SLEEPBEFORE_END,1516220922010,191
25,WS_SEND_START,1516220922010,191
25,WS_SEND_END,1516220922010,191
25,WS_RECV_START,1516220922010,192
25,WS_RECV_END,1516220930053,192
25,PLAYER_SLEEPBEFORE_START,1516220930053,193
25,PLAYER_SLEEPBEFORE_END,1516220930181,193
25,WS_SEND_START,1516220930181,193
25,WS_SEND_END,1516220930181,193
25,WS_RECV_START,1516220930181,194
25,WS_RECV_END,1516220934291,194
25,PLAYER_SLEEPBEFORE_START,1516220934291,195
25,PLAYER_SLEEPBEFORE_END,1516220936046,195
25,WS_SEND_START,1516220936046,195
25,WS_SEND_END,1516220936046,195
25,WS_RECV_START,1516220936046,196
25,WS_RECV_END,1516220939099,196
25,PLAYER_SLEEPBEFORE_START,1516220939099,197
25,PLAYER_SLEEPBEFORE_END,1516220940904,197
25,WS_SEND_START,1516220940904,197
25,WS_SEND_END,1516220940904,197
25,WS_RECV_START,1516220940904,198
25,WS_RECV_END,1516220944080,198
25,PLAYER_SLEEPBEFORE_START,1516220944080,199
25,PLAYER_SLEEPBEFORE_END,1516220955935,199
25,WS_SEND_START,1516220955935,199
25,WS_SEND_END,1516220955935,199
25,PLAYER_SLEEPBEFORE_START,1516220955935,200
25,PLAYER_SLEEPBEFORE_END,1516220960023,200
25,WS_SEND_START,1516220960023,200
25,WS_SEND_END,1516220960023,200
25,WS_RECV_START,1516220960023,201
25,WS_RECV_END,1516220965330,201
25,PLAYER_SLEEPBEFORE_START,1516220965330,202
25,PLAYER_SLEEPBEFORE_END,1516220965344,202
25,WS_SEND_START,1516220965344,202
25,WS_SEND_END,1516220965344,202
25,WS_RECV_START,1516220965344,203
25,WS_RECV_END,1516220969714,203
25,PLAYER_SLEEPBEFORE_START,1516220969714,204
25,PLAYER_SLEEPBEFORE_END,1516220989364,204
25,WS_SEND_START,1516220989364,204
25,WS_SEND_END,1516220989364,204
25,PLAYER_SLEEPBEFORE_START,1516220989364,205
25,PLAYER_SLEEPBEFORE_END,1516220993262,205
25,WS_SEND_START,1516220993262,205
25,WS_SEND_END,1516220993262,205
25,WS_RECV_START,1516220993262,206
25,WS_RECV_END,1516221000269,206
25,PLAYER_SLEEPBEFORE_START,1516221000269,207
25,PLAYER_SLEEPBEFORE_END,1516221017200,207
25,REQ_START,1516221017200,207
25,REQ_END,1516221017209,207
25,PLAYER_SLEEPBEFORE_START,1516221017209,208
25,PLAYER_SLEEPBEFORE_END,1516221024061,208
25,WS_CLOSE_START,1516221024061,208
25,WS_CLOSE_END,1516221024061,208
25,PLAYER_DONE,1516221024061
