# --sessions 540 --app-url=http://shinyloadtest.rstudioservices.com/cran_explorer --output-dir test540 --overwrite-output --log-level warn --start-interval 500 15min.log
thread_id,event,timestamp,input_line_number,comment
307,PLAYER_SESSION_CREATE,1516219954917
307,PLAYER_START_INTERVAL_START,1516219954917
307,PLAYER_START_INTERVAL_END,1516220108417
307,REQ_HOME_START,1516220108417,2
307,REQ_HOME_END,1516220108546,2
307,REQ_START,1516220108546,3
307,REQ_END,1516220108586,3
307,REQ_START,1516220108586,4
307,REQ_END,1516220108624,4
307,REQ_START,1516220108624,5
307,REQ_END,1516220108668,5
307,REQ_START,1516220108668,6
307,REQ_END,1516220108717,6
307,REQ_START,1516220108717,7
307,REQ_END,1516220109200,7
307,REQ_START,1516220109200,8
307,REQ_END,1516220109446,8
307,REQ_START,1516220109446,9
307,REQ_END,1516220109493,9
307,REQ_START,1516220109493,10
307,REQ_END,1516220109501,10
307,REQ_START,1516220109501,11
307,REQ_END,1516220109537,11
307,REQ_START,1516220109537,12
307,REQ_END,1516220109547,12
307,REQ_START,1516220109547,13
307,REQ_END,1516220109582,13
307,REQ_START,1516220109582,14
307,REQ_END,1516220109599,14
307,REQ_START,1516220109599,15
307,REQ_END,1516220110201,15
307,REQ_TOK_START,1516220110201,16
307,REQ_TOK_END,1516220110208,16
307,REQ_SINF_START,1516220110208,17
307,REQ_SINF_END,1516220110215,17
307,WS_OPEN_START,1516220110215,18
307,WS_OPEN_END,1516220110223,18
307,REQ_START,1516220110223,19
307,REQ_END,1516220110293,19
307,WS_RECV_START,1516220110293,20
307,WS_RECV_END,1516220110293,20
307,PLAYER_SLEEPBEFORE_START,1516220110293,21
307,PLAYER_SLEEPBEFORE_END,1516220110298,21
307,WS_SEND_START,1516220110298,21
307,WS_SEND_END,1516220110298,21
307,PLAYER_SLEEPBEFORE_START,1516220110298,22
307,PLAYER_SLEEPBEFORE_END,1516220110299,22
307,WS_SEND_START,1516220110299,22
307,WS_SEND_END,1516220110299,22
307,WS_RECV_INIT_START,1516220110299,23
307,WS_RECV_INIT_END,1516220110321,23
307,WS_RECV_START,1516220110321,24
307,WS_RECV_END,1516220110423,24
307,PLAYER_SLEEPBEFORE_START,1516220110423,25
307,PLAYER_SLEEPBEFORE_END,1516220110430,25
307,REQ_START,1516220110430,25
307,REQ_END,1516220110462,25
307,PLAYER_SLEEPBEFORE_START,1516220110462,26
307,PLAYER_SLEEPBEFORE_END,1516220110463,26
307,REQ_START,1516220110463,26
307,REQ_END,1516220110494,26
307,PLAYER_SLEEPBEFORE_START,1516220110494,27
307,PLAYER_SLEEPBEFORE_END,1516220110497,27
307,REQ_START,1516220110497,27
307,REQ_END,1516220110528,27
307,PLAYER_SLEEPBEFORE_START,1516220110529,28
307,PLAYER_SLEEPBEFORE_END,1516220110814,28
307,REQ_START,1516220110814,28
307,REQ_END,1516220110850,28
307,PLAYER_SLEEPBEFORE_START,1516220110850,29
307,PLAYER_SLEEPBEFORE_END,1516220111026,29
307,WS_SEND_START,1516220111026,29
307,WS_SEND_END,1516220111026,29
307,WS_RECV_START,1516220111026,30
307,WS_RECV_END,1516220111229,30
307,PLAYER_SLEEPBEFORE_START,1516220111229,31
307,PLAYER_SLEEPBEFORE_END,1516220111240,31
307,REQ_START,1516220111240,31
307,REQ_END,1516220111277,31
307,PLAYER_SLEEPBEFORE_START,1516220111277,32
307,PLAYER_SLEEPBEFORE_END,1516220139422,32
307,WS_SEND_START,1516220139422,32
307,WS_SEND_END,1516220139422,32
307,WS_RECV_START,1516220139422,33
307,WS_RECV_END,1516220139568,33
307,PLAYER_SLEEPBEFORE_START,1516220139568,34
307,PLAYER_SLEEPBEFORE_END,1516220165479,34
307,WS_SEND_START,1516220165479,34
307,WS_SEND_END,1516220165479,34
307,WS_RECV_START,1516220165479,35
307,WS_RECV_END,1516220165627,35
307,PLAYER_SLEEPBEFORE_START,1516220165627,36
307,PLAYER_SLEEPBEFORE_END,1516220165636,36
307,WS_SEND_START,1516220165636,36
307,WS_SEND_END,1516220165636,36
307,WS_RECV_START,1516220165636,37
307,WS_RECV_END,1516220165808,37
307,PLAYER_SLEEPBEFORE_START,1516220165808,38
307,PLAYER_SLEEPBEFORE_END,1516220169003,38
307,WS_SEND_START,1516220169003,38
307,WS_SEND_END,1516220169003,38
307,WS_RECV_START,1516220169003,39
307,WS_RECV_END,1516220169689,39
307,PLAYER_SLEEPBEFORE_START,1516220169689,40
307,PLAYER_SLEEPBEFORE_END,1516220169735,40
307,WS_SEND_START,1516220169735,40
307,WS_SEND_END,1516220169735,40
307,WS_RECV_START,1516220169735,41
307,WS_RECV_END,1516220170269,41
307,PLAYER_SLEEPBEFORE_START,1516220170269,42
307,PLAYER_SLEEPBEFORE_END,1516220188404,42
307,WS_SEND_START,1516220188404,42
307,WS_SEND_END,1516220188404,42
307,WS_RECV_START,1516220188404,43
307,WS_RECV_END,1516220189095,43
307,PLAYER_SLEEPBEFORE_START,1516220189095,44
307,PLAYER_SLEEPBEFORE_END,1516220189107,44
307,WS_SEND_START,1516220189107,44
307,WS_SEND_END,1516220189107,44
307,WS_RECV_START,1516220189107,45
307,WS_RECV_END,1516220189710,45
307,PLAYER_SLEEPBEFORE_START,1516220189710,46
307,PLAYER_SLEEPBEFORE_END,1516220190970,46
307,WS_SEND_START,1516220190970,46
307,WS_SEND_END,1516220190970,46
307,WS_RECV_START,1516220190970,47
307,WS_RECV_END,1516220192343,47
307,PLAYER_SLEEPBEFORE_START,1516220192343,48
307,PLAYER_SLEEPBEFORE_END,1516220193663,48
307,WS_SEND_START,1516220193663,48
307,WS_SEND_END,1516220193663,48
307,WS_RECV_START,1516220193663,49
307,WS_RECV_END,1516220194449,49
307,PLAYER_SLEEPBEFORE_START,1516220194449,50
307,PLAYER_SLEEPBEFORE_END,1516220194473,50
307,WS_SEND_START,1516220194473,50
307,WS_SEND_END,1516220194473,50
307,WS_RECV_START,1516220194473,51
307,WS_RECV_END,1516220195229,51
307,PLAYER_SLEEPBEFORE_START,1516220195229,52
307,PLAYER_SLEEPBEFORE_END,1516220217793,52
307,WS_SEND_START,1516220217793,52
307,WS_SEND_END,1516220217793,52
307,WS_RECV_START,1516220217793,53
307,WS_RECV_END,1516220220112,53
307,PLAYER_SLEEPBEFORE_START,1516220220112,54
307,PLAYER_SLEEPBEFORE_END,1516220241415,54
307,WS_SEND_START,1516220241415,54
307,WS_SEND_END,1516220241415,54
307,PLAYER_SLEEPBEFORE_START,1516220241415,55
307,PLAYER_SLEEPBEFORE_END,1516220243356,55
307,WS_SEND_START,1516220243356,55
307,WS_SEND_END,1516220243356,55
307,WS_RECV_START,1516220243356,56
307,WS_RECV_END,1516220243713,56
307,PLAYER_SLEEPBEFORE_START,1516220243713,57
307,PLAYER_SLEEPBEFORE_END,1516220266585,57
307,WS_SEND_START,1516220266585,57
307,WS_SEND_END,1516220266585,57
307,WS_RECV_START,1516220266585,58
307,WS_RECV_END,1516220268574,58
307,PLAYER_SLEEPBEFORE_START,1516220268574,59
307,PLAYER_SLEEPBEFORE_END,1516220270901,59
307,WS_SEND_START,1516220270901,59
307,WS_SEND_END,1516220270901,59
307,WS_RECV_START,1516220270901,60
307,WS_RECV_END,1516220273751,60
307,PLAYER_SLEEPBEFORE_START,1516220273751,61
307,PLAYER_SLEEPBEFORE_END,1516220277342,61
307,WS_SEND_START,1516220277342,61
307,WS_SEND_END,1516220277342,61
307,WS_RECV_START,1516220277342,62
307,WS_RECV_END,1516220279211,62
307,PLAYER_SLEEPBEFORE_START,1516220279211,63
307,PLAYER_SLEEPBEFORE_END,1516220298473,63
307,WS_SEND_START,1516220298473,63
307,WS_SEND_END,1516220298473,63
307,WS_RECV_START,1516220298473,64
307,WS_RECV_END,1516220302155,64
307,PLAYER_SLEEPBEFORE_START,1516220302155,65
307,PLAYER_SLEEPBEFORE_END,1516220328972,65
307,WS_SEND_START,1516220328972,65
307,WS_SEND_END,1516220328972,65
307,WS_RECV_START,1516220328972,66
307,WS_RECV_END,1516220333272,66
307,PLAYER_SLEEPBEFORE_START,1516220333272,67
307,PLAYER_SLEEPBEFORE_END,1516220334779,67
307,WS_SEND_START,1516220334779,67
307,WS_SEND_END,1516220334779,67
307,WS_RECV_START,1516220334779,68
307,WS_RECV_END,1516220341283,68
307,PLAYER_SLEEPBEFORE_START,1516220341283,69
307,PLAYER_SLEEPBEFORE_END,1516220363281,69
307,WS_SEND_START,1516220363281,69
307,WS_SEND_END,1516220363281,69
307,WS_RECV_START,1516220363281,70
307,WS_RECV_END,1516220368393,70
307,PLAYER_SLEEPBEFORE_START,1516220368393,71
307,PLAYER_SLEEPBEFORE_END,1516220393168,71
307,WS_SEND_START,1516220393168,71
307,WS_SEND_END,1516220393168,71
307,PLAYER_SLEEPBEFORE_START,1516220393168,72
307,PLAYER_SLEEPBEFORE_END,1516220395775,72
307,WS_SEND_START,1516220395775,72
307,WS_SEND_END,1516220395775,72
307,WS_RECV_START,1516220395775,73
307,WS_RECV_END,1516220396497,73
307,PLAYER_SLEEPBEFORE_START,1516220396497,74
307,PLAYER_SLEEPBEFORE_END,1516220396506,74
307,WS_SEND_START,1516220396506,74
307,WS_SEND_END,1516220396506,74
307,WS_RECV_START,1516220396506,75
307,WS_RECV_END,1516220398284,75
307,PLAYER_SLEEPBEFORE_START,1516220398284,76
307,PLAYER_SLEEPBEFORE_END,1516220399790,76
307,WS_SEND_START,1516220399790,76
307,WS_SEND_END,1516220399790,76
307,WS_RECV_START,1516220399790,77
307,WS_RECV_END,1516220401454,77
307,PLAYER_SLEEPBEFORE_START,1516220401454,78
307,PLAYER_SLEEPBEFORE_END,1516220402322,78
307,WS_SEND_START,1516220402322,78
307,WS_SEND_END,1516220402322,78
307,WS_RECV_START,1516220402322,79
307,WS_RECV_END,1516220405066,79
307,PLAYER_SLEEPBEFORE_START,1516220405066,80
307,PLAYER_SLEEPBEFORE_END,1516220412732,80
307,WS_SEND_START,1516220412732,80
307,WS_SEND_END,1516220412732,80
307,WS_RECV_START,1516220412732,81
307,WS_RECV_END,1516220417263,81
307,PLAYER_SLEEPBEFORE_START,1516220417263,82
307,PLAYER_SLEEPBEFORE_END,1516220418365,82
307,WS_SEND_START,1516220418365,82
307,WS_SEND_END,1516220418365,82
307,WS_RECV_START,1516220418365,83
307,WS_RECV_END,1516220424530,83
307,PLAYER_SLEEPBEFORE_START,1516220424530,84
307,PLAYER_SLEEPBEFORE_END,1516220425477,84
307,WS_SEND_START,1516220425477,84
307,WS_SEND_END,1516220425477,84
307,WS_RECV_START,1516220425477,85
307,WS_RECV_END,1516220427401,85
307,PLAYER_SLEEPBEFORE_START,1516220427401,86
307,PLAYER_SLEEPBEFORE_END,1516220431573,86
307,WS_SEND_START,1516220431573,86
307,WS_SEND_END,1516220431573,86
307,WS_RECV_START,1516220431573,87
307,WS_RECV_END,1516220435635,87
307,PLAYER_SLEEPBEFORE_START,1516220435635,88
307,PLAYER_SLEEPBEFORE_END,1516220435643,88
307,WS_SEND_START,1516220435643,88
307,WS_SEND_END,1516220435643,88
307,WS_RECV_START,1516220435643,89
307,WS_RECV_END,1516220438355,89
307,PLAYER_SLEEPBEFORE_START,1516220438355,90
307,PLAYER_SLEEPBEFORE_END,1516220465553,90
307,REQ_START,1516220465553,90
307,REQ_END,1516220465561,90
307,PLAYER_SLEEPBEFORE_START,1516220465561,91
307,PLAYER_SLEEPBEFORE_END,1516220473450,91
307,WS_SEND_START,1516220473450,91
307,WS_SEND_END,1516220473450,91
307,WS_RECV_START,1516220473450,92
307,WS_RECV_END,1516220478460,92
307,PLAYER_SLEEPBEFORE_START,1516220478460,93
307,PLAYER_SLEEPBEFORE_END,1516220478475,93
307,WS_SEND_START,1516220478475,93
307,WS_SEND_END,1516220478475,93
307,WS_RECV_START,1516220478475,94
307,WS_RECV_END,1516220480878,94
307,PLAYER_SLEEPBEFORE_START,1516220480878,95
307,PLAYER_SLEEPBEFORE_END,1516220504433,95
307,WS_SEND_START,1516220504434,95
307,WS_SEND_END,1516220504434,95
307,WS_RECV_START,1516220504434,96
307,WS_RECV_END,1516220511665,96
307,PLAYER_SLEEPBEFORE_START,1516220511665,97
307,PLAYER_SLEEPBEFORE_END,1516220534105,97
307,WS_SEND_START,1516220534105,97
307,WS_SEND_END,1516220534105,97
307,WS_RECV_START,1516220534105,98
307,WS_RECV_END,1516220539282,98
307,PLAYER_SLEEPBEFORE_START,1516220539282,99
307,PLAYER_SLEEPBEFORE_END,1516220539303,99
307,WS_SEND_START,1516220539303,99
307,WS_SEND_END,1516220539303,99
307,WS_RECV_START,1516220539303,100
307,WS_RECV_END,1516220542363,100
307,PLAYER_SLEEPBEFORE_START,1516220542363,101
307,PLAYER_SLEEPBEFORE_END,1516220565922,101
307,WS_SEND_START,1516220565922,101
307,WS_SEND_END,1516220565922,101
307,WS_RECV_START,1516220565922,102
307,WS_RECV_END,1516220572415,102
307,PLAYER_SLEEPBEFORE_START,1516220572415,103
307,PLAYER_SLEEPBEFORE_END,1516220596040,103
307,WS_SEND_START,1516220596040,103
307,WS_SEND_END,1516220596040,103
307,WS_RECV_START,1516220596040,104
307,WS_RECV_END,1516220601822,104
307,PLAYER_SLEEPBEFORE_START,1516220601822,105
307,PLAYER_SLEEPBEFORE_END,1516220627199,105
307,WS_SEND_START,1516220627199,105
307,WS_SEND_END,1516220627199,105
307,WS_RECV_START,1516220627199,106
307,WS_RECV_END,1516220634991,106
307,PLAYER_SLEEPBEFORE_START,1516220634991,107
307,PLAYER_SLEEPBEFORE_END,1516220658415,107
307,WS_SEND_START,1516220658415,107
307,WS_SEND_END,1516220658415,107
307,WS_RECV_START,1516220658415,108
307,WS_RECV_END,1516220664489,108
307,PLAYER_SLEEPBEFORE_START,1516220664489,109
307,PLAYER_SLEEPBEFORE_END,1516220664498,109
307,WS_SEND_START,1516220664498,109
307,WS_SEND_END,1516220664498,109
307,WS_RECV_START,1516220664498,110
307,WS_RECV_END,1516220667482,110
307,PLAYER_SLEEPBEFORE_START,1516220667482,111
307,PLAYER_SLEEPBEFORE_END,1516220668441,111
307,WS_SEND_START,1516220668441,111
307,WS_SEND_END,1516220668441,111
307,WS_RECV_START,1516220668441,112
307,WS_RECV_END,1516220672119,112
307,PLAYER_SLEEPBEFORE_START,1516220672119,113
307,PLAYER_SLEEPBEFORE_END,1516220672681,113
307,WS_SEND_START,1516220672681,113
307,WS_SEND_END,1516220672681,113
307,WS_RECV_START,1516220672681,114
307,WS_RECV_END,1516220677768,114
307,PLAYER_SLEEPBEFORE_START,1516220677768,115
307,PLAYER_SLEEPBEFORE_END,1516220677777,115
307,WS_SEND_START,1516220677777,115
307,WS_SEND_END,1516220677777,115
307,WS_RECV_START,1516220677777,116
307,WS_RECV_END,1516220683670,116
307,PLAYER_SLEEPBEFORE_START,1516220683670,117
307,PLAYER_SLEEPBEFORE_END,1516220704030,117
307,WS_SEND_START,1516220704030,117
307,WS_SEND_END,1516220704030,117
307,PLAYER_SLEEPBEFORE_START,1516220704030,118
307,PLAYER_SLEEPBEFORE_END,1516220707782,118
307,WS_SEND_START,1516220707782,118
307,WS_SEND_END,1516220707782,118
307,WS_RECV_START,1516220707782,119
307,WS_RECV_END,1516220713508,119
307,PLAYER_SLEEPBEFORE_START,1516220713508,120
307,PLAYER_SLEEPBEFORE_END,1516220714496,120
307,WS_SEND_START,1516220714496,120
307,WS_SEND_END,1516220714496,120
307,WS_RECV_START,1516220714496,121
307,WS_RECV_END,1516220718275,121
307,PLAYER_SLEEPBEFORE_START,1516220718275,122
307,PLAYER_SLEEPBEFORE_END,1516220719460,122
307,WS_SEND_START,1516220719460,122
307,WS_SEND_END,1516220719460,122
307,WS_RECV_START,1516220719460,123
307,WS_RECV_END,1516220723821,123
307,PLAYER_SLEEPBEFORE_START,1516220723821,124
307,PLAYER_SLEEPBEFORE_END,1516220748226,124
307,WS_SEND_START,1516220748226,124
307,WS_SEND_END,1516220748226,124
307,WS_RECV_START,1516220748226,125
307,WS_RECV_END,1516220758212,125
307,PLAYER_SLEEPBEFORE_START,1516220758212,126
307,PLAYER_SLEEPBEFORE_END,1516220778724,126
307,WS_SEND_START,1516220778724,126
307,WS_SEND_END,1516220778724,126
307,PLAYER_SLEEPBEFORE_START,1516220778724,127
307,PLAYER_SLEEPBEFORE_END,1516220781778,127
307,WS_SEND_START,1516220781778,127
307,WS_SEND_END,1516220781778,127
307,WS_RECV_START,1516220781778,128
307,WS_RECV_END,1516220785001,128
307,PLAYER_SLEEPBEFORE_START,1516220785001,129
307,PLAYER_SLEEPBEFORE_END,1516220785021,129
307,WS_SEND_START,1516220785021,129
307,WS_SEND_END,1516220785021,129
307,WS_RECV_START,1516220785021,130
307,WS_RECV_END,1516220788720,130
307,PLAYER_SLEEPBEFORE_START,1516220788720,131
307,PLAYER_SLEEPBEFORE_END,1516220810344,131
307,WS_SEND_START,1516220810344,131
307,WS_SEND_END,1516220810344,131
307,PLAYER_SLEEPBEFORE_START,1516220810344,132
307,PLAYER_SLEEPBEFORE_END,1516220813425,132
307,WS_SEND_START,1516220813425,132
307,WS_SEND_END,1516220813425,132
307,WS_RECV_START,1516220813425,133
307,WS_RECV_END,1516220817173,133
307,PLAYER_SLEEPBEFORE_START,1516220817173,134
307,PLAYER_SLEEPBEFORE_END,1516220838390,134
307,WS_SEND_START,1516220838390,134
307,WS_SEND_END,1516220838390,134
307,PLAYER_SLEEPBEFORE_START,1516220838390,135
307,PLAYER_SLEEPBEFORE_END,1516220841580,135
307,WS_SEND_START,1516220841580,135
307,WS_SEND_END,1516220841580,135
307,WS_RECV_START,1516220841580,136
307,WS_RECV_END,1516220845779,136
307,PLAYER_SLEEPBEFORE_START,1516220845779,137
307,PLAYER_SLEEPBEFORE_END,1516220845786,137
307,WS_SEND_START,1516220845786,137
307,WS_SEND_END,1516220845786,137
307,WS_RECV_START,1516220845786,138
307,WS_RECV_END,1516220848806,138
307,PLAYER_SLEEPBEFORE_START,1516220848806,139
307,PLAYER_SLEEPBEFORE_END,1516220849496,139
307,WS_SEND_START,1516220849497,139
307,WS_SEND_END,1516220849497,139
307,WS_RECV_START,1516220849497,140
307,WS_RECV_END,1516220851961,140
307,PLAYER_SLEEPBEFORE_START,1516220851961,141
307,PLAYER_SLEEPBEFORE_END,1516220852616,141
307,WS_SEND_START,1516220852616,141
307,WS_SEND_END,1516220852616,141
307,WS_RECV_START,1516220852616,142
307,WS_RECV_END,1516220855219,142
307,PLAYER_SLEEPBEFORE_START,1516220855219,143
307,PLAYER_SLEEPBEFORE_END,1516220855276,143
307,WS_SEND_START,1516220855276,143
307,WS_SEND_END,1516220855276,143
307,WS_RECV_START,1516220855276,144
307,WS_RECV_END,1516220857890,144
307,PLAYER_SLEEPBEFORE_START,1516220857891,145
307,PLAYER_SLEEPBEFORE_END,1516220873953,145
307,REQ_START,1516220873953,145
307,REQ_END,1516220873961,145
307,PLAYER_SLEEPBEFORE_START,1516220873961,146
307,PLAYER_SLEEPBEFORE_END,1516220882838,146
307,WS_SEND_START,1516220882838,146
307,WS_SEND_END,1516220882838,146
307,WS_RECV_START,1516220882838,147
307,WS_RECV_END,1516220891294,147
307,PLAYER_SLEEPBEFORE_START,1516220891294,148
307,PLAYER_SLEEPBEFORE_END,1516220913216,148
307,WS_SEND_START,1516220913216,148
307,WS_SEND_END,1516220913217,148
307,PLAYER_SLEEPBEFORE_START,1516220913217,149
307,PLAYER_SLEEPBEFORE_END,1516220915645,149
307,WS_SEND_START,1516220915645,149
307,WS_SEND_END,1516220915645,149
307,WS_RECV_START,1516220915645,150
307,WS_RECV_END,1516220921163,150
307,PLAYER_SLEEPBEFORE_START,1516220921163,151
307,PLAYER_SLEEPBEFORE_END,1516220921373,151
307,WS_SEND_START,1516220921373,151
307,WS_SEND_END,1516220921373,151
307,WS_RECV_START,1516220921373,152
307,WS_RECV_END,1516220926448,152
307,PLAYER_SLEEPBEFORE_START,1516220926448,153
307,PLAYER_SLEEPBEFORE_END,1516220950375,153
307,WS_SEND_START,1516220950375,153
307,WS_SEND_END,1516220950375,153
307,WS_RECV_START,1516220950375,154
307,WS_RECV_END,1516220956769,154
307,PLAYER_SLEEPBEFORE_START,1516220956769,155
307,PLAYER_SLEEPBEFORE_END,1516220979328,155
307,WS_SEND_START,1516220979328,155
307,WS_SEND_END,1516220979328,155
307,PLAYER_SLEEPBEFORE_START,1516220979328,156
307,PLAYER_SLEEPBEFORE_END,1516220982602,156
307,WS_SEND_START,1516220982602,156
307,WS_SEND_END,1516220982602,156
307,WS_RECV_START,1516220982602,157
307,WS_RECV_END,1516220987488,157
307,PLAYER_SLEEPBEFORE_START,1516220987488,158
307,PLAYER_SLEEPBEFORE_END,1516220987498,158
307,WS_SEND_START,1516220987498,158
307,WS_SEND_END,1516220987498,158
307,WS_RECV_START,1516220987498,159
307,WS_RECV_END,1516220993331,159
307,PLAYER_SLEEPBEFORE_START,1516220993331,160
307,PLAYER_SLEEPBEFORE_END,1516220993506,160
307,WS_SEND_START,1516220993506,160
307,WS_SEND_END,1516220993506,160
307,WS_RECV_START,1516220993506,161
307,WS_RECV_END,1516220998781,161
307,PLAYER_SLEEPBEFORE_START,1516220998781,162
307,PLAYER_SLEEPBEFORE_END,1516220998806,162
307,WS_SEND_START,1516220998806,162
307,WS_SEND_END,1516220998806,162
307,WS_RECV_START,1516220998806,163
307,WS_RECV_END,1516221005824,163
307,PLAYER_SLEEPBEFORE_START,1516221005824,164
307,PLAYER_SLEEPBEFORE_END,1516221026637,164
307,WS_SEND_START,1516221026637,164
307,WS_SEND_END,1516221026637,164
307,WS_RECV_START,1516221026637,165
307,WS_RECV_END,1516221035958,165
307,PLAYER_SLEEPBEFORE_START,1516221035958,166
307,PLAYER_SLEEPBEFORE_END,1516221058414,166
307,WS_SEND_START,1516221058414,166
307,WS_SEND_END,1516221058414,166
307,WS_RECV_START,1516221058414,167
307,WS_RECV_END,1516221068623,167
307,PLAYER_SLEEPBEFORE_START,1516221068623,168
307,PLAYER_SLEEPBEFORE_END,1516221095981,168
307,WS_SEND_START,1516221095981,168
307,WS_SEND_END,1516221095981,168
307,WS_RECV_START,1516221095981,169
307,WS_RECV_END,1516221108573,169
307,PLAYER_SLEEPBEFORE_START,1516221108573,170
307,PLAYER_SLEEPBEFORE_END,1516221108582,170
307,WS_SEND_START,1516221108582,170
307,WS_SEND_END,1516221108582,170
307,WS_RECV_START,1516221108582,171
307,WS_RECV_END,1516221114761,171
307,PLAYER_SLEEPBEFORE_START,1516221114761,172
307,PLAYER_SLEEPBEFORE_END,1516221115131,172
307,WS_SEND_START,1516221115131,172
307,WS_SEND_END,1516221115131,172
307,WS_RECV_START,1516221115131,173
307,WS_RECV_END,1516221122790,173
307,PLAYER_SLEEPBEFORE_START,1516221122790,174
307,PLAYER_SLEEPBEFORE_END,1516221122831,174
307,WS_SEND_START,1516221122831,174
307,WS_SEND_END,1516221122831,174
307,WS_RECV_START,1516221122831,175
307,WS_RECV_END,1516221130332,175
307,PLAYER_SLEEPBEFORE_START,1516221130332,176
307,PLAYER_SLEEPBEFORE_END,1516221152093,176
307,WS_SEND_START,1516221152093,176
307,WS_SEND_END,1516221152093,176
307,PLAYER_SLEEPBEFORE_START,1516221152093,177
307,PLAYER_SLEEPBEFORE_END,1516221154611,177
307,WS_SEND_START,1516221154611,177
307,WS_SEND_END,1516221154611,177
307,WS_RECV_START,1516221154611,178
307,WS_RECV_END,1516221159707,178
307,PLAYER_SLEEPBEFORE_START,1516221159707,179
307,PLAYER_SLEEPBEFORE_END,1516221182047,179
307,WS_SEND_START,1516221182047,179
307,WS_SEND_END,1516221182047,179
307,WS_RECV_START,1516221182047,180
307,WS_RECV_END,1516221189525,180
307,PLAYER_SLEEPBEFORE_START,1516221189525,181
307,PLAYER_SLEEPBEFORE_END,1516221189969,181
307,WS_SEND_START,1516221189969,181
307,WS_SEND_END,1516221189969,181
307,WS_RECV_START,1516221189969,182
307,WS_RECV_END,1516221196738,182
307,PLAYER_SLEEPBEFORE_START,1516221196738,183
307,PLAYER_SLEEPBEFORE_END,1516221197261,183
307,WS_SEND_START,1516221197261,183
307,WS_SEND_END,1516221197261,183
307,WS_RECV_START,1516221197261,184
307,WS_RECV_END,1516221200657,184
307,PLAYER_SLEEPBEFORE_START,1516221200657,185
307,PLAYER_SLEEPBEFORE_END,1516221200925,185
307,WS_SEND_START,1516221200925,185
307,WS_SEND_END,1516221200925,185
307,WS_RECV_START,1516221200925,186
307,WS_RECV_END,1516221203565,186
307,PLAYER_SLEEPBEFORE_START,1516221203565,187
307,PLAYER_SLEEPBEFORE_END,1516221226065,187
307,WS_SEND_START,1516221226065,187
307,WS_SEND_END,1516221226065,187
307,WS_RECV_START,1516221226065,188
307,WS_RECV_END,1516221228326,188
307,PLAYER_SLEEPBEFORE_START,1516221228326,189
307,PLAYER_SLEEPBEFORE_END,1516221234565,189
307,WS_SEND_START,1516221234565,189
307,WS_SEND_END,1516221234565,189
307,WS_RECV_START,1516221234565,190
307,WS_RECV_END,1516221235280,190
307,PLAYER_SLEEPBEFORE_START,1516221235280,191
307,PLAYER_SLEEPBEFORE_END,1516221237195,191
307,WS_SEND_START,1516221237195,191
307,WS_SEND_END,1516221237195,191
307,WS_RECV_START,1516221237195,192
307,WS_RECV_END,1516221238736,192
307,PLAYER_SLEEPBEFORE_START,1516221238736,193
307,PLAYER_SLEEPBEFORE_END,1516221238864,193
307,WS_SEND_START,1516221238864,193
307,WS_SEND_END,1516221238864,193
307,WS_RECV_START,1516221238864,194
307,WS_RECV_END,1516221239123,194
307,PLAYER_SLEEPBEFORE_START,1516221239123,195
307,PLAYER_SLEEPBEFORE_END,1516221240879,195
307,WS_SEND_START,1516221240879,195
307,WS_SEND_END,1516221240879,195
307,WS_RECV_START,1516221240879,196
307,WS_RECV_END,1516221241173,196
307,PLAYER_SLEEPBEFORE_START,1516221241173,197
307,PLAYER_SLEEPBEFORE_END,1516221242977,197
307,WS_SEND_START,1516221242977,197
307,WS_SEND_END,1516221242977,197
307,WS_RECV_START,1516221242977,198
307,WS_RECV_END,1516221243209,198
307,PLAYER_SLEEPBEFORE_START,1516221243209,199
307,PLAYER_SLEEPBEFORE_END,1516221255063,199
307,WS_SEND_START,1516221255063,199
307,WS_SEND_END,1516221255063,199
307,PLAYER_SLEEPBEFORE_START,1516221255063,200
307,PLAYER_SLEEPBEFORE_END,1516221259151,200
307,WS_SEND_START,1516221259151,200
307,WS_SEND_END,1516221259151,200
307,WS_RECV_START,1516221259151,201
307,WS_RECV_END,1516221259670,201
307,PLAYER_SLEEPBEFORE_START,1516221259670,202
307,PLAYER_SLEEPBEFORE_END,1516221259684,202
307,WS_SEND_START,1516221259685,202
307,WS_SEND_END,1516221259685,202
307,WS_RECV_START,1516221259685,203
307,WS_RECV_END,1516221260675,203
307,PLAYER_SLEEPBEFORE_START,1516221260675,204
307,PLAYER_SLEEPBEFORE_END,1516221280324,204
307,WS_SEND_START,1516221280324,204
307,WS_SEND_END,1516221280324,204
307,PLAYER_SLEEPBEFORE_START,1516221280324,205
307,PLAYER_SLEEPBEFORE_END,1516221284222,205
307,WS_SEND_START,1516221284222,205
307,WS_SEND_END,1516221284222,205
307,WS_RECV_START,1516221284222,206
307,WS_RECV_END,1516221284742,206
307,PLAYER_SLEEPBEFORE_START,1516221284742,207
307,PLAYER_SLEEPBEFORE_END,1516221301673,207
307,REQ_START,1516221301673,207
307,REQ_END,1516221301681,207
307,PLAYER_SLEEPBEFORE_START,1516221301681,208
307,PLAYER_SLEEPBEFORE_END,1516221308533,208
307,WS_CLOSE_START,1516221308533,208
307,WS_CLOSE_END,1516221308533,208
307,PLAYER_DONE,1516221308533
