# --sessions 540 --app-url=http://shinyloadtest.rstudioservices.com/cran_explorer --output-dir test540 --overwrite-output --log-level warn --start-interval 500 15min.log
thread_id,event,timestamp,input_line_number,comment
380,PLAYER_SESSION_CREATE,1516219954932
380,PLAYER_START_INTERVAL_START,1516219954932
380,PLAYER_START_INTERVAL_END,1516220144932
380,REQ_HOME_START,1516220144932,2
380,REQ_HOME_END,1516220145038,2
380,REQ_START,1516220145038,3
380,REQ_END,1516220145157,3
380,REQ_START,1516220145157,4
380,REQ_END,1516220145206,4
380,REQ_START,1516220145206,5
380,REQ_END,1516220145465,5
380,REQ_START,1516220145465,6
380,REQ_END,1516220145498,6
380,REQ_START,1516220145498,7
380,REQ_END,1516220145701,7
380,REQ_START,1516220145701,8
380,REQ_END,1516220145758,8
380,REQ_START,1516220145758,9
380,REQ_END,1516220145797,9
380,REQ_START,1516220145797,10
380,REQ_END,1516220145805,10
380,REQ_START,1516220145805,11
380,REQ_END,1516220145853,11
380,REQ_START,1516220145853,12
380,REQ_END,1516220145863,12
380,REQ_START,1516220145863,13
380,REQ_END,1516220145903,13
380,REQ_START,1516220145903,14
380,REQ_END,1516220145920,14
380,REQ_START,1516220145920,15
380,REQ_END,1516220145959,15
380,REQ_TOK_START,1516220145959,16
380,REQ_TOK_END,1516220145966,16
380,REQ_SINF_START,1516220145966,17
380,REQ_SINF_END,1516220145973,17
380,WS_OPEN_START,1516220145973,18
380,WS_OPEN_END,1516220145980,18
380,REQ_START,1516220145980,19
380,REQ_END,1516220146482,19
380,WS_RECV_START,1516220146482,20
380,WS_RECV_END,1516220146482,20
380,PLAYER_SLEEPBEFORE_START,1516220146482,21
380,PLAYER_SLEEPBEFORE_END,1516220146487,21
380,WS_SEND_START,1516220146487,21
380,WS_SEND_END,1516220146487,21
380,PLAYER_SLEEPBEFORE_START,1516220146487,22
380,PLAYER_SLEEPBEFORE_END,1516220146488,22
380,WS_SEND_START,1516220146488,22
380,WS_SEND_END,1516220146488,22
380,WS_RECV_INIT_START,1516220146488,23
380,WS_RECV_INIT_END,1516220146507,23
380,WS_RECV_START,1516220146507,24
380,WS_RECV_END,1516220146593,24
380,PLAYER_SLEEPBEFORE_START,1516220146593,25
380,PLAYER_SLEEPBEFORE_END,1516220146600,25
380,REQ_START,1516220146600,25
380,REQ_END,1516220146693,25
380,PLAYER_SLEEPBEFORE_START,1516220146693,26
380,PLAYER_SLEEPBEFORE_END,1516220146694,26
380,REQ_START,1516220146694,26
380,REQ_END,1516220146726,26
380,PLAYER_SLEEPBEFORE_START,1516220146726,27
380,PLAYER_SLEEPBEFORE_END,1516220146729,27
380,REQ_START,1516220146729,27
380,REQ_END,1516220146763,27
380,PLAYER_SLEEPBEFORE_START,1516220146763,28
380,PLAYER_SLEEPBEFORE_END,1516220147048,28
380,REQ_START,1516220147048,28
380,REQ_END,1516220147491,28
380,PLAYER_SLEEPBEFORE_START,1516220147491,29
380,PLAYER_SLEEPBEFORE_END,1516220147666,29
380,WS_SEND_START,1516220147666,29
380,WS_SEND_END,1516220147666,29
380,WS_RECV_START,1516220147666,30
380,WS_RECV_END,1516220148165,30
380,PLAYER_SLEEPBEFORE_START,1516220148165,31
380,PLAYER_SLEEPBEFORE_END,1516220148176,31
380,REQ_START,1516220148176,31
380,REQ_END,1516220149072,31
380,PLAYER_SLEEPBEFORE_START,1516220149072,32
380,PLAYER_SLEEPBEFORE_END,1516220177217,32
380,WS_SEND_START,1516220177217,32
380,WS_SEND_END,1516220177217,32
380,WS_RECV_START,1516220177217,33
380,WS_RECV_END,1516220177381,33
380,PLAYER_SLEEPBEFORE_START,1516220177381,34
380,PLAYER_SLEEPBEFORE_END,1516220203293,34
380,WS_SEND_START,1516220203293,34
380,WS_SEND_END,1516220203293,34
380,WS_RECV_START,1516220203293,35
380,WS_RECV_END,1516220203496,35
380,PLAYER_SLEEPBEFORE_START,1516220203496,36
380,PLAYER_SLEEPBEFORE_END,1516220203505,36
380,WS_SEND_START,1516220203505,36
380,WS_SEND_END,1516220203505,36
380,WS_RECV_START,1516220203505,37
380,WS_RECV_END,1516220203620,37
380,PLAYER_SLEEPBEFORE_START,1516220203620,38
380,PLAYER_SLEEPBEFORE_END,1516220206815,38
380,WS_SEND_START,1516220206815,38
380,WS_SEND_END,1516220206815,38
380,WS_RECV_START,1516220206815,39
380,WS_RECV_END,1516220207643,39
380,PLAYER_SLEEPBEFORE_START,1516220207643,40
380,PLAYER_SLEEPBEFORE_END,1516220207690,40
380,WS_SEND_START,1516220207690,40
380,WS_SEND_END,1516220207690,40
380,WS_RECV_START,1516220207690,41
380,WS_RECV_END,1516220208044,41
380,PLAYER_SLEEPBEFORE_START,1516220208044,42
380,PLAYER_SLEEPBEFORE_END,1516220226180,42
380,WS_SEND_START,1516220226180,42
380,WS_SEND_END,1516220226180,42
380,WS_RECV_START,1516220226180,43
380,WS_RECV_END,1516220226889,43
380,PLAYER_SLEEPBEFORE_START,1516220226889,44
380,PLAYER_SLEEPBEFORE_END,1516220226901,44
380,WS_SEND_START,1516220226901,44
380,WS_SEND_END,1516220226901,44
380,WS_RECV_START,1516220226901,45
380,WS_RECV_END,1516220227656,45
380,PLAYER_SLEEPBEFORE_START,1516220227656,46
380,PLAYER_SLEEPBEFORE_END,1516220228916,46
380,WS_SEND_START,1516220228916,46
380,WS_SEND_END,1516220228916,46
380,WS_RECV_START,1516220228916,47
380,WS_RECV_END,1516220229427,47
380,PLAYER_SLEEPBEFORE_START,1516220229427,48
380,PLAYER_SLEEPBEFORE_END,1516220230747,48
380,WS_SEND_START,1516220230747,48
380,WS_SEND_END,1516220230747,48
380,WS_RECV_START,1516220230747,49
380,WS_RECV_END,1516220231377,49
380,PLAYER_SLEEPBEFORE_START,1516220231377,50
380,PLAYER_SLEEPBEFORE_END,1516220231402,50
380,WS_SEND_START,1516220231402,50
380,WS_SEND_END,1516220231402,50
380,WS_RECV_START,1516220231402,51
380,WS_RECV_END,1516220231981,51
380,PLAYER_SLEEPBEFORE_START,1516220231981,52
380,PLAYER_SLEEPBEFORE_END,1516220254545,52
380,WS_SEND_START,1516220254545,52
380,WS_SEND_END,1516220254545,52
380,WS_RECV_START,1516220254545,53
380,WS_RECV_END,1516220256643,53
380,PLAYER_SLEEPBEFORE_START,1516220256643,54
380,PLAYER_SLEEPBEFORE_END,1516220277946,54
380,WS_SEND_START,1516220277947,54
380,WS_SEND_END,1516220277947,54
380,PLAYER_SLEEPBEFORE_START,1516220277947,55
380,PLAYER_SLEEPBEFORE_END,1516220279888,55
380,WS_SEND_START,1516220279888,55
380,WS_SEND_END,1516220279888,55
380,WS_RECV_START,1516220279888,56
380,WS_RECV_END,1516220280832,56
380,PLAYER_SLEEPBEFORE_START,1516220280832,57
380,PLAYER_SLEEPBEFORE_END,1516220303704,57
380,WS_SEND_START,1516220303704,57
380,WS_SEND_END,1516220303704,57
380,WS_RECV_START,1516220303704,58
380,WS_RECV_END,1516220303771,58
380,PLAYER_SLEEPBEFORE_START,1516220303771,59
380,PLAYER_SLEEPBEFORE_END,1516220306098,59
380,WS_SEND_START,1516220306098,59
380,WS_SEND_END,1516220306098,59
380,WS_RECV_START,1516220306098,60
380,WS_RECV_END,1516220307062,60
380,PLAYER_SLEEPBEFORE_START,1516220307062,61
380,PLAYER_SLEEPBEFORE_END,1516220310653,61
380,WS_SEND_START,1516220310653,61
380,WS_SEND_END,1516220310653,61
380,WS_RECV_START,1516220310653,62
380,WS_RECV_END,1516220311516,62
380,PLAYER_SLEEPBEFORE_START,1516220311516,63
380,PLAYER_SLEEPBEFORE_END,1516220330778,63
380,WS_SEND_START,1516220330778,63
380,WS_SEND_END,1516220330778,63
380,WS_RECV_START,1516220330778,64
380,WS_RECV_END,1516220332060,64
380,PLAYER_SLEEPBEFORE_START,1516220332060,65
380,PLAYER_SLEEPBEFORE_END,1516220358877,65
380,WS_SEND_START,1516220358877,65
380,WS_SEND_END,1516220358877,65
380,WS_RECV_START,1516220358877,66
380,WS_RECV_END,1516220362973,66
380,PLAYER_SLEEPBEFORE_START,1516220362973,67
380,PLAYER_SLEEPBEFORE_END,1516220364480,67
380,WS_SEND_START,1516220364480,67
380,WS_SEND_END,1516220364480,67
380,WS_RECV_START,1516220364480,68
380,WS_RECV_END,1516220366007,68
380,PLAYER_SLEEPBEFORE_START,1516220366007,69
380,PLAYER_SLEEPBEFORE_END,1516220388005,69
380,WS_SEND_START,1516220388005,69
380,WS_SEND_END,1516220388006,69
380,WS_RECV_START,1516220388006,70
380,WS_RECV_END,1516220391378,70
380,PLAYER_SLEEPBEFORE_START,1516220391378,71
380,PLAYER_SLEEPBEFORE_END,1516220416153,71
380,WS_SEND_START,1516220416153,71
380,WS_SEND_END,1516220416153,71
380,PLAYER_SLEEPBEFORE_START,1516220416153,72
380,PLAYER_SLEEPBEFORE_END,1516220418760,72
380,WS_SEND_START,1516220418760,72
380,WS_SEND_END,1516220418760,72
380,WS_RECV_START,1516220418760,73
380,WS_RECV_END,1516220420211,73
380,PLAYER_SLEEPBEFORE_START,1516220420211,74
380,PLAYER_SLEEPBEFORE_END,1516220420220,74
380,WS_SEND_START,1516220420220,74
380,WS_SEND_END,1516220420220,74
380,WS_RECV_START,1516220420220,75
380,WS_RECV_END,1516220420647,75
380,PLAYER_SLEEPBEFORE_START,1516220420647,76
380,PLAYER_SLEEPBEFORE_END,1516220422154,76
380,WS_SEND_START,1516220422154,76
380,WS_SEND_END,1516220422154,76
380,WS_RECV_START,1516220422154,77
380,WS_RECV_END,1516220423659,77
380,PLAYER_SLEEPBEFORE_START,1516220423659,78
380,PLAYER_SLEEPBEFORE_END,1516220424527,78
380,WS_SEND_START,1516220424527,78
380,WS_SEND_END,1516220424527,78
380,WS_RECV_START,1516220424527,79
380,WS_RECV_END,1516220424957,79
380,PLAYER_SLEEPBEFORE_START,1516220424957,80
380,PLAYER_SLEEPBEFORE_END,1516220432624,80
380,WS_SEND_START,1516220432624,80
380,WS_SEND_END,1516220432624,80
380,WS_RECV_START,1516220432624,81
380,WS_RECV_END,1516220433515,81
380,PLAYER_SLEEPBEFORE_START,1516220433515,82
380,PLAYER_SLEEPBEFORE_END,1516220434617,82
380,WS_SEND_START,1516220434617,82
380,WS_SEND_END,1516220434617,82
380,WS_RECV_START,1516220434617,83
380,WS_RECV_END,1516220436752,83
380,PLAYER_SLEEPBEFORE_START,1516220436752,84
380,PLAYER_SLEEPBEFORE_END,1516220437699,84
380,WS_SEND_START,1516220437699,84
380,WS_SEND_END,1516220437699,84
380,WS_RECV_START,1516220437699,85
380,WS_RECV_END,1516220439119,85
380,PLAYER_SLEEPBEFORE_START,1516220439119,86
380,PLAYER_SLEEPBEFORE_END,1516220443291,86
380,WS_SEND_START,1516220443291,86
380,WS_SEND_END,1516220443291,86
380,WS_RECV_START,1516220443291,87
380,WS_RECV_END,1516220444689,87
380,PLAYER_SLEEPBEFORE_START,1516220444689,88
380,PLAYER_SLEEPBEFORE_END,1516220444697,88
380,WS_SEND_START,1516220444697,88
380,WS_SEND_END,1516220444697,88
380,WS_RECV_START,1516220444697,89
380,WS_RECV_END,1516220445305,89
380,PLAYER_SLEEPBEFORE_START,1516220445305,90
380,PLAYER_SLEEPBEFORE_END,1516220472502,90
380,REQ_START,1516220472502,90
380,REQ_END,1516220472509,90
380,PLAYER_SLEEPBEFORE_START,1516220472509,91
380,PLAYER_SLEEPBEFORE_END,1516220480399,91
380,WS_SEND_START,1516220480399,91
380,WS_SEND_END,1516220480399,91
380,WS_RECV_START,1516220480399,92
380,WS_RECV_END,1516220484097,92
380,PLAYER_SLEEPBEFORE_START,1516220484097,93
380,PLAYER_SLEEPBEFORE_END,1516220484112,93
380,WS_SEND_START,1516220484112,93
380,WS_SEND_END,1516220484112,93
380,WS_RECV_START,1516220484112,94
380,WS_RECV_END,1516220486182,94
380,PLAYER_SLEEPBEFORE_START,1516220486182,95
380,PLAYER_SLEEPBEFORE_END,1516220509737,95
380,WS_SEND_START,1516220509737,95
380,WS_SEND_END,1516220509737,95
380,WS_RECV_START,1516220509737,96
380,WS_RECV_END,1516220515458,96
380,PLAYER_SLEEPBEFORE_START,1516220515458,97
380,PLAYER_SLEEPBEFORE_END,1516220537898,97
380,WS_SEND_START,1516220537898,97
380,WS_SEND_END,1516220537898,97
380,WS_RECV_START,1516220537898,98
380,WS_RECV_END,1516220543210,98
380,PLAYER_SLEEPBEFORE_START,1516220543210,99
380,PLAYER_SLEEPBEFORE_END,1516220543232,99
380,WS_SEND_START,1516220543232,99
380,WS_SEND_END,1516220543232,99
380,WS_RECV_START,1516220543232,100
380,WS_RECV_END,1516220545577,100
380,PLAYER_SLEEPBEFORE_START,1516220545577,101
380,PLAYER_SLEEPBEFORE_END,1516220569136,101
380,WS_SEND_START,1516220569136,101
380,WS_SEND_END,1516220569136,101
380,WS_RECV_START,1516220569136,102
380,WS_RECV_END,1516220575277,102
380,PLAYER_SLEEPBEFORE_START,1516220575277,103
380,PLAYER_SLEEPBEFORE_END,1516220598902,103
380,WS_SEND_START,1516220598902,103
380,WS_SEND_END,1516220598902,103
380,WS_RECV_START,1516220598902,104
380,WS_RECV_END,1516220604586,104
380,PLAYER_SLEEPBEFORE_START,1516220604586,105
380,PLAYER_SLEEPBEFORE_END,1516220629963,105
380,WS_SEND_START,1516220629963,105
380,WS_SEND_END,1516220629963,105
380,WS_RECV_START,1516220629963,106
380,WS_RECV_END,1516220636116,106
380,PLAYER_SLEEPBEFORE_START,1516220636116,107
380,PLAYER_SLEEPBEFORE_END,1516220659539,107
380,WS_SEND_START,1516220659539,107
380,WS_SEND_END,1516220659539,107
380,WS_RECV_START,1516220659539,108
380,WS_RECV_END,1516220665761,108
380,PLAYER_SLEEPBEFORE_START,1516220665761,109
380,PLAYER_SLEEPBEFORE_END,1516220665770,109
380,WS_SEND_START,1516220665770,109
380,WS_SEND_END,1516220665770,109
380,WS_RECV_START,1516220665770,110
380,WS_RECV_END,1516220668679,110
380,PLAYER_SLEEPBEFORE_START,1516220668679,111
380,PLAYER_SLEEPBEFORE_END,1516220669638,111
380,WS_SEND_START,1516220669638,111
380,WS_SEND_END,1516220669638,111
380,WS_RECV_START,1516220669638,112
380,WS_RECV_END,1516220671415,112
380,PLAYER_SLEEPBEFORE_START,1516220671415,113
380,PLAYER_SLEEPBEFORE_END,1516220671977,113
380,WS_SEND_START,1516220671977,113
380,WS_SEND_END,1516220671977,113
380,WS_RECV_START,1516220671977,114
380,WS_RECV_END,1516220674485,114
380,PLAYER_SLEEPBEFORE_START,1516220674485,115
380,PLAYER_SLEEPBEFORE_END,1516220674494,115
380,WS_SEND_START,1516220674494,115
380,WS_SEND_END,1516220674494,115
380,WS_RECV_START,1516220674494,116
380,WS_RECV_END,1516220678438,116
380,PLAYER_SLEEPBEFORE_START,1516220678438,117
380,PLAYER_SLEEPBEFORE_END,1516220698798,117
380,WS_SEND_START,1516220698798,117
380,WS_SEND_END,1516220698798,117
380,PLAYER_SLEEPBEFORE_START,1516220698798,118
380,PLAYER_SLEEPBEFORE_END,1516220702550,118
380,WS_SEND_START,1516220702550,118
380,WS_SEND_END,1516220702550,118
380,WS_RECV_START,1516220702550,119
380,WS_RECV_END,1516220707948,119
380,PLAYER_SLEEPBEFORE_START,1516220707948,120
380,PLAYER_SLEEPBEFORE_END,1516220708936,120
380,WS_SEND_START,1516220708936,120
380,WS_SEND_END,1516220708936,120
380,WS_RECV_START,1516220708936,121
380,WS_RECV_END,1516220711460,121
380,PLAYER_SLEEPBEFORE_START,1516220711460,122
380,PLAYER_SLEEPBEFORE_END,1516220712645,122
380,WS_SEND_START,1516220712645,122
380,WS_SEND_END,1516220712645,122
380,WS_RECV_START,1516220712645,123
380,WS_RECV_END,1516220715604,123
380,PLAYER_SLEEPBEFORE_START,1516220715604,124
380,PLAYER_SLEEPBEFORE_END,1516220740009,124
380,WS_SEND_START,1516220740009,124
380,WS_SEND_END,1516220740009,124
380,WS_RECV_START,1516220740009,125
380,WS_RECV_END,1516220746795,125
380,PLAYER_SLEEPBEFORE_START,1516220746795,126
380,PLAYER_SLEEPBEFORE_END,1516220767307,126
380,WS_SEND_START,1516220767307,126
380,WS_SEND_END,1516220767307,126
380,PLAYER_SLEEPBEFORE_START,1516220767307,127
380,PLAYER_SLEEPBEFORE_END,1516220770361,127
380,WS_SEND_START,1516220770361,127
380,WS_SEND_END,1516220770361,127
380,WS_RECV_START,1516220770361,128
380,WS_RECV_END,1516220772509,128
380,PLAYER_SLEEPBEFORE_START,1516220772509,129
380,PLAYER_SLEEPBEFORE_END,1516220772529,129
380,WS_SEND_START,1516220772529,129
380,WS_SEND_END,1516220772529,129
380,WS_RECV_START,1516220772529,130
380,WS_RECV_END,1516220773623,130
380,PLAYER_SLEEPBEFORE_START,1516220773623,131
380,PLAYER_SLEEPBEFORE_END,1516220795247,131
380,WS_SEND_START,1516220795247,131
380,WS_SEND_END,1516220795247,131
380,PLAYER_SLEEPBEFORE_START,1516220795247,132
380,PLAYER_SLEEPBEFORE_END,1516220798327,132
380,WS_SEND_START,1516220798328,132
380,WS_SEND_END,1516220798328,132
380,WS_RECV_START,1516220798328,133
380,WS_RECV_END,1516220802712,133
380,PLAYER_SLEEPBEFORE_START,1516220802712,134
380,PLAYER_SLEEPBEFORE_END,1516220823929,134
380,WS_SEND_START,1516220823929,134
380,WS_SEND_END,1516220823929,134
380,PLAYER_SLEEPBEFORE_START,1516220823929,135
380,PLAYER_SLEEPBEFORE_END,1516220827119,135
380,WS_SEND_START,1516220827119,135
380,WS_SEND_END,1516220827119,135
380,WS_RECV_START,1516220827119,136
380,WS_RECV_END,1516220827939,136
380,PLAYER_SLEEPBEFORE_START,1516220827939,137
380,PLAYER_SLEEPBEFORE_END,1516220827946,137
380,WS_SEND_START,1516220827946,137
380,WS_SEND_END,1516220827946,137
380,WS_RECV_START,1516220827946,138
380,WS_RECV_END,1516220829827,138
380,PLAYER_SLEEPBEFORE_START,1516220829827,139
380,PLAYER_SLEEPBEFORE_END,1516220830521,139
380,WS_SEND_START,1516220830521,139
380,WS_SEND_END,1516220830522,139
380,WS_RECV_START,1516220830522,140
380,WS_RECV_END,1516220832005,140
380,PLAYER_SLEEPBEFORE_START,1516220832005,141
380,PLAYER_SLEEPBEFORE_END,1516220832660,141
380,WS_SEND_START,1516220832660,141
380,WS_SEND_END,1516220832660,141
380,WS_RECV_START,1516220832660,142
380,WS_RECV_END,1516220835253,142
380,PLAYER_SLEEPBEFORE_START,1516220835253,143
380,PLAYER_SLEEPBEFORE_END,1516220835310,143
380,WS_SEND_START,1516220835310,143
380,WS_SEND_END,1516220835310,143
380,WS_RECV_START,1516220835310,144
380,WS_RECV_END,1516220836884,144
380,PLAYER_SLEEPBEFORE_START,1516220836884,145
380,PLAYER_SLEEPBEFORE_END,1516220852946,145
380,REQ_START,1516220852946,145
380,REQ_END,1516220852954,145
380,PLAYER_SLEEPBEFORE_START,1516220852954,146
380,PLAYER_SLEEPBEFORE_END,1516220861831,146
380,WS_SEND_START,1516220861831,146
380,WS_SEND_END,1516220861831,146
380,WS_RECV_START,1516220861831,147
380,WS_RECV_END,1516220867574,147
380,PLAYER_SLEEPBEFORE_START,1516220867574,148
380,PLAYER_SLEEPBEFORE_END,1516220889496,148
380,WS_SEND_START,1516220889496,148
380,WS_SEND_END,1516220889496,148
380,PLAYER_SLEEPBEFORE_START,1516220889496,149
380,PLAYER_SLEEPBEFORE_END,1516220891924,149
380,WS_SEND_START,1516220891924,149
380,WS_SEND_END,1516220891924,149
380,WS_RECV_START,1516220891924,150
380,WS_RECV_END,1516220893764,150
380,PLAYER_SLEEPBEFORE_START,1516220893764,151
380,PLAYER_SLEEPBEFORE_END,1516220893974,151
380,WS_SEND_START,1516220893974,151
380,WS_SEND_END,1516220893974,151
380,WS_RECV_START,1516220893974,152
380,WS_RECV_END,1516220896292,152
380,PLAYER_SLEEPBEFORE_START,1516220896292,153
380,PLAYER_SLEEPBEFORE_END,1516220920219,153
380,WS_SEND_START,1516220920219,153
380,WS_SEND_END,1516220920219,153
380,WS_RECV_START,1516220920219,154
380,WS_RECV_END,1516220926589,154
380,PLAYER_SLEEPBEFORE_START,1516220926589,155
380,PLAYER_SLEEPBEFORE_END,1516220949147,155
380,WS_SEND_START,1516220949147,155
380,WS_SEND_END,1516220949147,155
380,PLAYER_SLEEPBEFORE_START,1516220949147,156
380,PLAYER_SLEEPBEFORE_END,1516220952421,156
380,WS_SEND_START,1516220952421,156
380,WS_SEND_END,1516220952421,156
380,WS_RECV_START,1516220952421,157
380,WS_RECV_END,1516220956398,157
380,PLAYER_SLEEPBEFORE_START,1516220956398,158
380,PLAYER_SLEEPBEFORE_END,1516220956408,158
380,WS_SEND_START,1516220956408,158
380,WS_SEND_END,1516220956408,158
380,WS_RECV_START,1516220956408,159
380,WS_RECV_END,1516220960823,159
380,PLAYER_SLEEPBEFORE_START,1516220960823,160
380,PLAYER_SLEEPBEFORE_END,1516220960998,160
380,WS_SEND_START,1516220960998,160
380,WS_SEND_END,1516220960998,160
380,WS_RECV_START,1516220960998,161
380,WS_RECV_END,1516220967375,161
380,PLAYER_SLEEPBEFORE_START,1516220967375,162
380,PLAYER_SLEEPBEFORE_END,1516220967400,162
380,WS_SEND_START,1516220967400,162
380,WS_SEND_END,1516220967400,162
380,WS_RECV_START,1516220967400,163
380,WS_RECV_END,1516220975021,163
380,PLAYER_SLEEPBEFORE_START,1516220975021,164
380,PLAYER_SLEEPBEFORE_END,1516220995833,164
380,WS_SEND_START,1516220995833,164
380,WS_SEND_END,1516220995833,164
380,WS_RECV_START,1516220995833,165
380,WS_RECV_END,1516221009270,165
380,PLAYER_SLEEPBEFORE_START,1516221009270,166
380,PLAYER_SLEEPBEFORE_END,1516221031726,166
380,WS_SEND_START,1516221031726,166
380,WS_SEND_END,1516221031726,166
380,WS_RECV_START,1516221031726,167
380,WS_RECV_END,1516221039513,167
380,PLAYER_SLEEPBEFORE_START,1516221039513,168
380,PLAYER_SLEEPBEFORE_END,1516221066870,168
380,WS_SEND_START,1516221066870,168
380,WS_SEND_END,1516221066870,168
380,WS_RECV_START,1516221066870,169
380,WS_RECV_END,1516221075103,169
380,PLAYER_SLEEPBEFORE_START,1516221075103,170
380,PLAYER_SLEEPBEFORE_END,1516221075112,170
380,WS_SEND_START,1516221075112,170
380,WS_SEND_END,1516221075112,170
380,WS_RECV_START,1516221075112,171
380,WS_RECV_END,1516221079327,171
380,PLAYER_SLEEPBEFORE_START,1516221079327,172
380,PLAYER_SLEEPBEFORE_END,1516221079697,172
380,WS_SEND_START,1516221079697,172
380,WS_SEND_END,1516221079697,172
380,WS_RECV_START,1516221079697,173
380,WS_RECV_END,1516221084146,173
380,PLAYER_SLEEPBEFORE_START,1516221084146,174
380,PLAYER_SLEEPBEFORE_END,1516221084187,174
380,WS_SEND_START,1516221084187,174
380,WS_SEND_END,1516221084187,174
380,WS_RECV_START,1516221084187,175
380,WS_RECV_END,1516221089452,175
380,PLAYER_SLEEPBEFORE_START,1516221089452,176
380,PLAYER_SLEEPBEFORE_END,1516221111213,176
380,WS_SEND_START,1516221111213,176
380,WS_SEND_END,1516221111213,176
380,PLAYER_SLEEPBEFORE_START,1516221111213,177
380,PLAYER_SLEEPBEFORE_END,1516221113732,177
380,WS_SEND_START,1516221113732,177
380,WS_SEND_END,1516221113732,177
380,WS_RECV_START,1516221113732,178
380,WS_RECV_END,1516221116019,178
380,PLAYER_SLEEPBEFORE_START,1516221116019,179
380,PLAYER_SLEEPBEFORE_END,1516221138359,179
380,WS_SEND_START,1516221138359,179
380,WS_SEND_END,1516221138359,179
380,WS_RECV_START,1516221138359,180
380,WS_RECV_END,1516221144587,180
380,PLAYER_SLEEPBEFORE_START,1516221144587,181
380,PLAYER_SLEEPBEFORE_END,1516221145032,181
380,WS_SEND_START,1516221145032,181
380,WS_SEND_END,1516221145032,181
380,WS_RECV_START,1516221145032,182
380,WS_RECV_END,1516221146271,182
380,PLAYER_SLEEPBEFORE_START,1516221146271,183
380,PLAYER_SLEEPBEFORE_END,1516221146795,183
380,WS_SEND_START,1516221146795,183
380,WS_SEND_END,1516221146795,183
380,WS_RECV_START,1516221146795,184
380,WS_RECV_END,1516221149541,184
380,PLAYER_SLEEPBEFORE_START,1516221149541,185
380,PLAYER_SLEEPBEFORE_END,1516221149809,185
380,WS_SEND_START,1516221149809,185
380,WS_SEND_END,1516221149809,185
380,WS_RECV_START,1516221149809,186
380,WS_RECV_END,1516221152280,186
380,PLAYER_SLEEPBEFORE_START,1516221152280,187
380,PLAYER_SLEEPBEFORE_END,1516221174781,187
380,WS_SEND_START,1516221174781,187
380,WS_SEND_END,1516221174781,187
380,WS_RECV_START,1516221174781,188
380,WS_RECV_END,1516221175164,188
380,PLAYER_SLEEPBEFORE_START,1516221175164,189
380,PLAYER_SLEEPBEFORE_END,1516221181404,189
380,WS_SEND_START,1516221181404,189
380,WS_SEND_END,1516221181404,189
380,WS_RECV_START,1516221181404,190
380,WS_RECV_END,1516221182606,190
380,PLAYER_SLEEPBEFORE_START,1516221182606,191
380,PLAYER_SLEEPBEFORE_END,1516221184522,191
380,WS_SEND_START,1516221184522,191
380,WS_SEND_END,1516221184522,191
380,WS_RECV_START,1516221184522,192
380,WS_RECV_END,1516221185756,192
380,PLAYER_SLEEPBEFORE_START,1516221185756,193
380,PLAYER_SLEEPBEFORE_END,1516221185884,193
380,WS_SEND_START,1516221185884,193
380,WS_SEND_END,1516221185884,193
380,WS_RECV_START,1516221185884,194
380,WS_RECV_END,1516221186989,194
380,PLAYER_SLEEPBEFORE_START,1516221186989,195
380,PLAYER_SLEEPBEFORE_END,1516221188744,195
380,WS_SEND_START,1516221188744,195
380,WS_SEND_END,1516221188744,195
380,WS_RECV_START,1516221188744,196
380,WS_RECV_END,1516221189537,196
380,PLAYER_SLEEPBEFORE_START,1516221189537,197
380,PLAYER_SLEEPBEFORE_END,1516221191341,197
380,WS_SEND_START,1516221191341,197
380,WS_SEND_END,1516221191341,197
380,WS_RECV_START,1516221191341,198
380,WS_RECV_END,1516221191712,198
380,PLAYER_SLEEPBEFORE_START,1516221191713,199
380,PLAYER_SLEEPBEFORE_END,1516221203567,199
380,WS_SEND_START,1516221203567,199
380,WS_SEND_END,1516221203567,199
380,PLAYER_SLEEPBEFORE_START,1516221203567,200
380,PLAYER_SLEEPBEFORE_END,1516221207655,200
380,WS_SEND_START,1516221207655,200
380,WS_SEND_END,1516221207655,200
380,WS_RECV_START,1516221207655,201
380,WS_RECV_END,1516221207807,201
380,PLAYER_SLEEPBEFORE_START,1516221207807,202
380,PLAYER_SLEEPBEFORE_END,1516221207821,202
380,WS_SEND_START,1516221207821,202
380,WS_SEND_END,1516221207821,202
380,WS_RECV_START,1516221207821,203
380,WS_RECV_END,1516221208509,203
380,PLAYER_SLEEPBEFORE_START,1516221208509,204
380,PLAYER_SLEEPBEFORE_END,1516221228158,204
380,WS_SEND_START,1516221228158,204
380,WS_SEND_END,1516221228158,204
380,PLAYER_SLEEPBEFORE_START,1516221228158,205
380,PLAYER_SLEEPBEFORE_END,1516221232056,205
380,WS_SEND_START,1516221232056,205
380,WS_SEND_END,1516221232056,205
380,WS_RECV_START,1516221232056,206
380,WS_RECV_END,1516221232222,206
380,PLAYER_SLEEPBEFORE_START,1516221232222,207
380,PLAYER_SLEEPBEFORE_END,1516221249153,207
380,REQ_START,1516221249154,207
380,REQ_END,1516221249161,207
380,PLAYER_SLEEPBEFORE_START,1516221249161,208
380,PLAYER_SLEEPBEFORE_END,1516221256013,208
380,WS_CLOSE_START,1516221256013,208
380,WS_CLOSE_END,1516221256013,208
380,PLAYER_DONE,1516221256013
