# --sessions 540 --app-url=http://shinyloadtest.rstudioservices.com/cran_explorer --output-dir test540 --overwrite-output --log-level warn --start-interval 500 15min.log
thread_id,event,timestamp,input_line_number,comment
428,PLAYER_SESSION_CREATE,1516219954947
428,PLAYER_START_INTERVAL_START,1516219954947
428,PLAYER_START_INTERVAL_END,1516220168947
428,REQ_HOME_START,1516220168947,2
428,REQ_HOME_END,1516220169083,2
428,REQ_START,1516220169083,3
428,REQ_END,1516220169286,3
428,REQ_START,1516220169286,4
428,REQ_END,1516220169322,4
428,REQ_START,1516220169322,5
428,REQ_END,1516220169454,5
428,REQ_START,1516220169454,6
428,REQ_END,1516220169612,6
428,REQ_START,1516220169612,7
428,REQ_END,1516220169914,7
428,REQ_START,1516220169914,8
428,REQ_END,1516220170665,8
428,REQ_START,1516220170665,9
428,REQ_END,1516220171816,9
428,REQ_START,1516220171816,10
428,REQ_END,1516220171825,10
428,REQ_START,1516220171825,11
428,REQ_END,1516220172095,11
428,REQ_START,1516220172095,12
428,REQ_END,1516220172105,12
428,REQ_START,1516220172105,13
428,REQ_END,1516220172139,13
428,REQ_START,1516220172139,14
428,REQ_END,1516220172158,14
428,REQ_START,1516220172158,15
428,REQ_END,1516220172193,15
428,REQ_TOK_START,1516220172193,16
428,REQ_TOK_END,1516220172200,16
428,REQ_SINF_START,1516220172200,17
428,REQ_SINF_END,1516220172208,17
428,WS_OPEN_START,1516220172208,18
428,WS_OPEN_END,1516220172215,18
428,REQ_START,1516220172215,19
428,REQ_END,1516220172249,19
428,WS_RECV_START,1516220172249,20
428,WS_RECV_END,1516220172249,20
428,PLAYER_SLEEPBEFORE_START,1516220172249,21
428,PLAYER_SLEEPBEFORE_END,1516220172254,21
428,WS_SEND_START,1516220172254,21
428,WS_SEND_END,1516220172254,21
428,PLAYER_SLEEPBEFORE_START,1516220172254,22
428,PLAYER_SLEEPBEFORE_END,1516220172255,22
428,WS_SEND_START,1516220172255,22
428,WS_SEND_END,1516220172256,22
428,WS_RECV_INIT_START,1516220172256,23
428,WS_RECV_INIT_END,1516220172408,23
428,WS_RECV_START,1516220172408,24
428,WS_RECV_END,1516220172488,24
428,PLAYER_SLEEPBEFORE_START,1516220172488,25
428,PLAYER_SLEEPBEFORE_END,1516220172495,25
428,REQ_START,1516220172495,25
428,REQ_END,1516220172624,25
428,PLAYER_SLEEPBEFORE_START,1516220172624,26
428,PLAYER_SLEEPBEFORE_END,1516220172625,26
428,REQ_START,1516220172625,26
428,REQ_END,1516220172676,26
428,PLAYER_SLEEPBEFORE_START,1516220172676,27
428,PLAYER_SLEEPBEFORE_END,1516220172679,27
428,REQ_START,1516220172679,27
428,REQ_END,1516220173070,27
428,PLAYER_SLEEPBEFORE_START,1516220173070,28
428,PLAYER_SLEEPBEFORE_END,1516220173355,28
428,REQ_START,1516220173355,28
428,REQ_END,1516220173440,28
428,PLAYER_SLEEPBEFORE_START,1516220173440,29
428,PLAYER_SLEEPBEFORE_END,1516220173615,29
428,WS_SEND_START,1516220173615,29
428,WS_SEND_END,1516220173615,29
428,WS_RECV_START,1516220173615,30
428,WS_RECV_END,1516220173993,30
428,PLAYER_SLEEPBEFORE_START,1516220173993,31
428,PLAYER_SLEEPBEFORE_END,1516220174004,31
428,REQ_START,1516220174004,31
428,REQ_END,1516220174674,31
428,PLAYER_SLEEPBEFORE_START,1516220174674,32
428,PLAYER_SLEEPBEFORE_END,1516220202819,32
428,WS_SEND_START,1516220202819,32
428,WS_SEND_END,1516220202819,32
428,WS_RECV_START,1516220202819,33
428,WS_RECV_END,1516220203179,33
428,PLAYER_SLEEPBEFORE_START,1516220203179,34
428,PLAYER_SLEEPBEFORE_END,1516220229090,34
428,WS_SEND_START,1516220229090,34
428,WS_SEND_END,1516220229090,34
428,WS_RECV_START,1516220229090,35
428,WS_RECV_END,1516220229743,35
428,PLAYER_SLEEPBEFORE_START,1516220229743,36
428,PLAYER_SLEEPBEFORE_END,1516220229752,36
428,WS_SEND_START,1516220229752,36
428,WS_SEND_END,1516220229752,36
428,WS_RECV_START,1516220229752,37
428,WS_RECV_END,1516220230081,37
428,PLAYER_SLEEPBEFORE_START,1516220230081,38
428,PLAYER_SLEEPBEFORE_END,1516220233276,38
428,WS_SEND_START,1516220233276,38
428,WS_SEND_END,1516220233276,38
428,WS_RECV_START,1516220233277,39
428,WS_RECV_END,1516220234689,39
428,PLAYER_SLEEPBEFORE_START,1516220234689,40
428,PLAYER_SLEEPBEFORE_END,1516220234735,40
428,WS_SEND_START,1516220234735,40
428,WS_SEND_END,1516220234735,40
428,WS_RECV_START,1516220234735,41
428,WS_RECV_END,1516220235806,41
428,PLAYER_SLEEPBEFORE_START,1516220235806,42
428,PLAYER_SLEEPBEFORE_END,1516220253941,42
428,WS_SEND_START,1516220253941,42
428,WS_SEND_END,1516220253941,42
428,WS_RECV_START,1516220253941,43
428,WS_RECV_END,1516220256042,43
428,PLAYER_SLEEPBEFORE_START,1516220256042,44
428,PLAYER_SLEEPBEFORE_END,1516220256054,44
428,WS_SEND_START,1516220256054,44
428,WS_SEND_END,1516220256054,44
428,WS_RECV_START,1516220256054,45
428,WS_RECV_END,1516220256835,45
428,PLAYER_SLEEPBEFORE_START,1516220256835,46
428,PLAYER_SLEEPBEFORE_END,1516220258096,46
428,WS_SEND_START,1516220258096,46
428,WS_SEND_END,1516220258096,46
428,WS_RECV_START,1516220258096,47
428,WS_RECV_END,1516220258525,47
428,PLAYER_SLEEPBEFORE_START,1516220258525,48
428,PLAYER_SLEEPBEFORE_END,1516220259845,48
428,WS_SEND_START,1516220259845,48
428,WS_SEND_END,1516220259845,48
428,WS_RECV_START,1516220259845,49
428,WS_RECV_END,1516220261264,49
428,PLAYER_SLEEPBEFORE_START,1516220261264,50
428,PLAYER_SLEEPBEFORE_END,1516220261289,50
428,WS_SEND_START,1516220261289,50
428,WS_SEND_END,1516220261289,50
428,WS_RECV_START,1516220261289,51
428,WS_RECV_END,1516220262872,51
428,PLAYER_SLEEPBEFORE_START,1516220262872,52
428,PLAYER_SLEEPBEFORE_END,1516220285436,52
428,WS_SEND_START,1516220285436,52
428,WS_SEND_END,1516220285436,52
428,WS_RECV_START,1516220285436,53
428,WS_RECV_END,1516220288632,53
428,PLAYER_SLEEPBEFORE_START,1516220288632,54
428,PLAYER_SLEEPBEFORE_END,1516220309935,54
428,WS_SEND_START,1516220309935,54
428,WS_SEND_END,1516220309935,54
428,PLAYER_SLEEPBEFORE_START,1516220309935,55
428,PLAYER_SLEEPBEFORE_END,1516220311876,55
428,WS_SEND_START,1516220311876,55
428,WS_SEND_END,1516220311876,55
428,WS_RECV_START,1516220311876,56
428,WS_RECV_END,1516220312887,56
428,PLAYER_SLEEPBEFORE_START,1516220312887,57
428,PLAYER_SLEEPBEFORE_END,1516220335759,57
428,WS_SEND_START,1516220335759,57
428,WS_SEND_END,1516220335759,57
428,WS_RECV_START,1516220335759,58
428,WS_RECV_END,1516220337157,58
428,PLAYER_SLEEPBEFORE_START,1516220337157,59
428,PLAYER_SLEEPBEFORE_END,1516220339484,59
428,WS_SEND_START,1516220339484,59
428,WS_SEND_END,1516220339484,59
428,WS_RECV_START,1516220339484,60
428,WS_RECV_END,1516220341311,60
428,PLAYER_SLEEPBEFORE_START,1516220341311,61
428,PLAYER_SLEEPBEFORE_END,1516220344902,61
428,WS_SEND_START,1516220344902,61
428,WS_SEND_END,1516220344902,61
428,WS_RECV_START,1516220344902,62
428,WS_RECV_END,1516220348489,62
428,PLAYER_SLEEPBEFORE_START,1516220348489,63
428,PLAYER_SLEEPBEFORE_END,1516220367751,63
428,WS_SEND_START,1516220367751,63
428,WS_SEND_END,1516220367751,63
428,WS_RECV_START,1516220367751,64
428,WS_RECV_END,1516220368935,64
428,PLAYER_SLEEPBEFORE_START,1516220368935,65
428,PLAYER_SLEEPBEFORE_END,1516220395753,65
428,WS_SEND_START,1516220395753,65
428,WS_SEND_END,1516220395753,65
428,WS_RECV_START,1516220395753,66
428,WS_RECV_END,1516220398641,66
428,PLAYER_SLEEPBEFORE_START,1516220398641,67
428,PLAYER_SLEEPBEFORE_END,1516220400148,67
428,WS_SEND_START,1516220400148,67
428,WS_SEND_END,1516220400148,67
428,WS_RECV_START,1516220400148,68
428,WS_RECV_END,1516220401414,68
428,PLAYER_SLEEPBEFORE_START,1516220401414,69
428,PLAYER_SLEEPBEFORE_END,1516220423412,69
428,WS_SEND_START,1516220423412,69
428,WS_SEND_END,1516220423412,69
428,WS_RECV_START,1516220423412,70
428,WS_RECV_END,1516220425381,70
428,PLAYER_SLEEPBEFORE_START,1516220425381,71
428,PLAYER_SLEEPBEFORE_END,1516220450156,71
428,WS_SEND_START,1516220450156,71
428,WS_SEND_END,1516220450156,71
428,PLAYER_SLEEPBEFORE_START,1516220450156,72
428,PLAYER_SLEEPBEFORE_END,1516220452763,72
428,WS_SEND_START,1516220452763,72
428,WS_SEND_END,1516220452763,72
428,WS_RECV_START,1516220452763,73
428,WS_RECV_END,1516220452837,73
428,PLAYER_SLEEPBEFORE_START,1516220452837,74
428,PLAYER_SLEEPBEFORE_END,1516220452846,74
428,WS_SEND_START,1516220452846,74
428,WS_SEND_END,1516220452846,74
428,WS_RECV_START,1516220452846,75
428,WS_RECV_END,1516220452887,75
428,PLAYER_SLEEPBEFORE_START,1516220452887,76
428,PLAYER_SLEEPBEFORE_END,1516220454393,76
428,WS_SEND_START,1516220454393,76
428,WS_SEND_END,1516220454393,76
428,WS_RECV_START,1516220454393,77
428,WS_RECV_END,1516220454875,77
428,PLAYER_SLEEPBEFORE_START,1516220454875,78
428,PLAYER_SLEEPBEFORE_END,1516220455743,78
428,WS_SEND_START,1516220455743,78
428,WS_SEND_END,1516220455743,78
428,WS_RECV_START,1516220455743,79
428,WS_RECV_END,1516220457262,79
428,PLAYER_SLEEPBEFORE_START,1516220457262,80
428,PLAYER_SLEEPBEFORE_END,1516220464928,80
428,WS_SEND_START,1516220464928,80
428,WS_SEND_END,1516220464928,80
428,WS_RECV_START,1516220464928,81
428,WS_RECV_END,1516220467496,81
428,PLAYER_SLEEPBEFORE_START,1516220467496,82
428,PLAYER_SLEEPBEFORE_END,1516220468598,82
428,WS_SEND_START,1516220468598,82
428,WS_SEND_END,1516220468598,82
428,WS_RECV_START,1516220468598,83
428,WS_RECV_END,1516220472128,83
428,PLAYER_SLEEPBEFORE_START,1516220472128,84
428,PLAYER_SLEEPBEFORE_END,1516220473075,84
428,WS_SEND_START,1516220473076,84
428,WS_SEND_END,1516220473076,84
428,WS_RECV_START,1516220473076,85
428,WS_RECV_END,1516220478807,85
428,PLAYER_SLEEPBEFORE_START,1516220478807,86
428,PLAYER_SLEEPBEFORE_END,1516220482980,86
428,WS_SEND_START,1516220482980,86
428,WS_SEND_END,1516220482980,86
428,WS_RECV_START,1516220482980,87
428,WS_RECV_END,1516220487857,87
428,PLAYER_SLEEPBEFORE_START,1516220487857,88
428,PLAYER_SLEEPBEFORE_END,1516220487865,88
428,WS_SEND_START,1516220487865,88
428,WS_SEND_END,1516220487865,88
428,WS_RECV_START,1516220487865,89
428,WS_RECV_END,1516220490125,89
428,PLAYER_SLEEPBEFORE_START,1516220490125,90
428,PLAYER_SLEEPBEFORE_END,1516220517322,90
428,REQ_START,1516220517322,90
428,REQ_END,1516220517330,90
428,PLAYER_SLEEPBEFORE_START,1516220517330,91
428,PLAYER_SLEEPBEFORE_END,1516220525219,91
428,WS_SEND_START,1516220525219,91
428,WS_SEND_END,1516220525219,91
428,WS_RECV_START,1516220525219,92
428,WS_RECV_END,1516220528819,92
428,PLAYER_SLEEPBEFORE_START,1516220528819,93
428,PLAYER_SLEEPBEFORE_END,1516220528834,93
428,WS_SEND_START,1516220528834,93
428,WS_SEND_END,1516220528834,93
428,WS_RECV_START,1516220528834,94
428,WS_RECV_END,1516220530478,94
428,PLAYER_SLEEPBEFORE_START,1516220530478,95
428,PLAYER_SLEEPBEFORE_END,1516220554033,95
428,WS_SEND_START,1516220554033,95
428,WS_SEND_END,1516220554033,95
428,WS_RECV_START,1516220554033,96
428,WS_RECV_END,1516220558892,96
428,PLAYER_SLEEPBEFORE_START,1516220558892,97
428,PLAYER_SLEEPBEFORE_END,1516220581332,97
428,WS_SEND_START,1516220581332,97
428,WS_SEND_END,1516220581332,97
428,WS_RECV_START,1516220581332,98
428,WS_RECV_END,1516220585837,98
428,PLAYER_SLEEPBEFORE_START,1516220585837,99
428,PLAYER_SLEEPBEFORE_END,1516220585859,99
428,WS_SEND_START,1516220585859,99
428,WS_SEND_END,1516220585859,99
428,WS_RECV_START,1516220585859,100
428,WS_RECV_END,1516220589091,100
428,PLAYER_SLEEPBEFORE_START,1516220589091,101
428,PLAYER_SLEEPBEFORE_END,1516220612650,101
428,WS_SEND_START,1516220612650,101
428,WS_SEND_END,1516220612650,101
428,WS_RECV_START,1516220612650,102
428,WS_RECV_END,1516220618078,102
428,PLAYER_SLEEPBEFORE_START,1516220618078,103
428,PLAYER_SLEEPBEFORE_END,1516220641703,103
428,WS_SEND_START,1516220641703,103
428,WS_SEND_END,1516220641703,103
428,WS_RECV_START,1516220641703,104
428,WS_RECV_END,1516220647888,104
428,PLAYER_SLEEPBEFORE_START,1516220647888,105
428,PLAYER_SLEEPBEFORE_END,1516220673265,105
428,WS_SEND_START,1516220673265,105
428,WS_SEND_END,1516220673265,105
428,WS_RECV_START,1516220673265,106
428,WS_RECV_END,1516220678225,106
428,PLAYER_SLEEPBEFORE_START,1516220678225,107
428,PLAYER_SLEEPBEFORE_END,1516220701649,107
428,WS_SEND_START,1516220701649,107
428,WS_SEND_END,1516220701649,107
428,WS_RECV_START,1516220701649,108
428,WS_RECV_END,1516220706260,108
428,PLAYER_SLEEPBEFORE_START,1516220706260,109
428,PLAYER_SLEEPBEFORE_END,1516220706269,109
428,WS_SEND_START,1516220706269,109
428,WS_SEND_END,1516220706269,109
428,WS_RECV_START,1516220706269,110
428,WS_RECV_END,1516220707794,110
428,PLAYER_SLEEPBEFORE_START,1516220707794,111
428,PLAYER_SLEEPBEFORE_END,1516220708753,111
428,WS_SEND_START,1516220708753,111
428,WS_SEND_END,1516220708753,111
428,WS_RECV_START,1516220708753,112
428,WS_RECV_END,1516220711212,112
428,PLAYER_SLEEPBEFORE_START,1516220711212,113
428,PLAYER_SLEEPBEFORE_END,1516220711774,113
428,WS_SEND_START,1516220711774,113
428,WS_SEND_END,1516220711774,113
428,WS_RECV_START,1516220711774,114
428,WS_RECV_END,1516220715231,114
428,PLAYER_SLEEPBEFORE_START,1516220715231,115
428,PLAYER_SLEEPBEFORE_END,1516220715241,115
428,WS_SEND_START,1516220715241,115
428,WS_SEND_END,1516220715241,115
428,WS_RECV_START,1516220715241,116
428,WS_RECV_END,1516220720259,116
428,PLAYER_SLEEPBEFORE_START,1516220720259,117
428,PLAYER_SLEEPBEFORE_END,1516220740619,117
428,WS_SEND_START,1516220740619,117
428,WS_SEND_END,1516220740619,117
428,PLAYER_SLEEPBEFORE_START,1516220740619,118
428,PLAYER_SLEEPBEFORE_END,1516220744371,118
428,WS_SEND_START,1516220744371,118
428,WS_SEND_END,1516220744371,118
428,WS_RECV_START,1516220744371,119
428,WS_RECV_END,1516220747665,119
428,PLAYER_SLEEPBEFORE_START,1516220747665,120
428,PLAYER_SLEEPBEFORE_END,1516220748654,120
428,WS_SEND_START,1516220748654,120
428,WS_SEND_END,1516220748654,120
428,WS_RECV_START,1516220748654,121
428,WS_RECV_END,1516220754503,121
428,PLAYER_SLEEPBEFORE_START,1516220754503,122
428,PLAYER_SLEEPBEFORE_END,1516220755688,122
428,WS_SEND_START,1516220755688,122
428,WS_SEND_END,1516220755688,122
428,WS_RECV_START,1516220755688,123
428,WS_RECV_END,1516220762380,123
428,PLAYER_SLEEPBEFORE_START,1516220762380,124
428,PLAYER_SLEEPBEFORE_END,1516220786785,124
428,WS_SEND_START,1516220786785,124
428,WS_SEND_END,1516220786785,124
428,WS_RECV_START,1516220786785,125
428,WS_RECV_END,1516220792529,125
428,PLAYER_SLEEPBEFORE_START,1516220792529,126
428,PLAYER_SLEEPBEFORE_END,1516220813041,126
428,WS_SEND_START,1516220813041,126
428,WS_SEND_END,1516220813041,126
428,PLAYER_SLEEPBEFORE_START,1516220813041,127
428,PLAYER_SLEEPBEFORE_END,1516220816095,127
428,WS_SEND_START,1516220816095,127
428,WS_SEND_END,1516220816095,127
428,WS_RECV_START,1516220816095,128
428,WS_RECV_END,1516220817724,128
428,PLAYER_SLEEPBEFORE_START,1516220817724,129
428,PLAYER_SLEEPBEFORE_END,1516220817744,129
428,WS_SEND_START,1516220817744,129
428,WS_SEND_END,1516220817744,129
428,WS_RECV_START,1516220817744,130
428,WS_RECV_END,1516220823871,130
428,PLAYER_SLEEPBEFORE_START,1516220823871,131
428,PLAYER_SLEEPBEFORE_END,1516220845495,131
428,WS_SEND_START,1516220845495,131
428,WS_SEND_END,1516220845495,131
428,PLAYER_SLEEPBEFORE_START,1516220845495,132
428,PLAYER_SLEEPBEFORE_END,1516220848575,132
428,WS_SEND_START,1516220848576,132
428,WS_SEND_END,1516220848576,132
428,WS_RECV_START,1516220848576,133
428,WS_RECV_END,1516220849454,133
428,PLAYER_SLEEPBEFORE_START,1516220849454,134
428,PLAYER_SLEEPBEFORE_END,1516220870671,134
428,WS_SEND_START,1516220870671,134
428,WS_SEND_END,1516220870671,134
428,PLAYER_SLEEPBEFORE_START,1516220870671,135
428,PLAYER_SLEEPBEFORE_END,1516220873862,135
428,WS_SEND_START,1516220873862,135
428,WS_SEND_END,1516220873862,135
428,WS_RECV_START,1516220873862,136
428,WS_RECV_END,1516220875638,136
428,PLAYER_SLEEPBEFORE_START,1516220875638,137
428,PLAYER_SLEEPBEFORE_END,1516220875645,137
428,WS_SEND_START,1516220875645,137
428,WS_SEND_END,1516220875645,137
428,WS_RECV_START,1516220875645,138
428,WS_RECV_END,1516220878751,138
428,PLAYER_SLEEPBEFORE_START,1516220878751,139
428,PLAYER_SLEEPBEFORE_END,1516220879441,139
428,WS_SEND_START,1516220879441,139
428,WS_SEND_END,1516220879441,139
428,WS_RECV_START,1516220879441,140
428,WS_RECV_END,1516220882371,140
428,PLAYER_SLEEPBEFORE_START,1516220882371,141
428,PLAYER_SLEEPBEFORE_END,1516220883026,141
428,WS_SEND_START,1516220883026,141
428,WS_SEND_END,1516220883026,141
428,WS_RECV_START,1516220883026,142
428,WS_RECV_END,1516220886081,142
428,PLAYER_SLEEPBEFORE_START,1516220886081,143
428,PLAYER_SLEEPBEFORE_END,1516220886139,143
428,WS_SEND_START,1516220886139,143
428,WS_SEND_END,1516220886139,143
428,WS_RECV_START,1516220886139,144
428,WS_RECV_END,1516220890515,144
428,PLAYER_SLEEPBEFORE_START,1516220890515,145
428,PLAYER_SLEEPBEFORE_END,1516220906577,145
428,REQ_START,1516220906577,145
428,REQ_END,1516220906584,145
428,PLAYER_SLEEPBEFORE_START,1516220906584,146
428,PLAYER_SLEEPBEFORE_END,1516220915462,146
428,WS_SEND_START,1516220915462,146
428,WS_SEND_END,1516220915462,146
428,WS_RECV_START,1516220915462,147
428,WS_RECV_END,1516220920675,147
428,PLAYER_SLEEPBEFORE_START,1516220920675,148
428,PLAYER_SLEEPBEFORE_END,1516220942597,148
428,WS_SEND_START,1516220942597,148
428,WS_SEND_END,1516220942598,148
428,PLAYER_SLEEPBEFORE_START,1516220942598,149
428,PLAYER_SLEEPBEFORE_END,1516220945026,149
428,WS_SEND_START,1516220945026,149
428,WS_SEND_END,1516220945026,149
428,WS_RECV_START,1516220945026,150
428,WS_RECV_END,1516220948950,150
428,PLAYER_SLEEPBEFORE_START,1516220948950,151
428,PLAYER_SLEEPBEFORE_END,1516220949160,151
428,WS_SEND_START,1516220949160,151
428,WS_SEND_END,1516220949160,151
428,WS_RECV_START,1516220949160,152
428,WS_RECV_END,1516220953206,152
428,PLAYER_SLEEPBEFORE_START,1516220953206,153
428,PLAYER_SLEEPBEFORE_END,1516220977133,153
428,WS_SEND_START,1516220977133,153
428,WS_SEND_END,1516220977133,153
428,WS_RECV_START,1516220977133,154
428,WS_RECV_END,1516220986664,154
428,PLAYER_SLEEPBEFORE_START,1516220986664,155
428,PLAYER_SLEEPBEFORE_END,1516221009222,155
428,WS_SEND_START,1516221009222,155
428,WS_SEND_END,1516221009222,155
428,PLAYER_SLEEPBEFORE_START,1516221009222,156
428,PLAYER_SLEEPBEFORE_END,1516221012496,156
428,WS_SEND_START,1516221012496,156
428,WS_SEND_END,1516221012496,156
428,WS_RECV_START,1516221012496,157
428,WS_RECV_END,1516221018144,157
428,PLAYER_SLEEPBEFORE_START,1516221018144,158
428,PLAYER_SLEEPBEFORE_END,1516221018154,158
428,WS_SEND_START,1516221018154,158
428,WS_SEND_END,1516221018154,158
428,WS_RECV_START,1516221018154,159
428,WS_RECV_END,1516221022155,159
428,PLAYER_SLEEPBEFORE_START,1516221022155,160
428,PLAYER_SLEEPBEFORE_END,1516221022330,160
428,WS_SEND_START,1516221022330,160
428,WS_SEND_END,1516221022330,160
428,WS_RECV_START,1516221022330,161
428,WS_RECV_END,1516221027584,161
428,PLAYER_SLEEPBEFORE_START,1516221027584,162
428,PLAYER_SLEEPBEFORE_END,1516221027609,162
428,WS_SEND_START,1516221027609,162
428,WS_SEND_END,1516221027609,162
428,WS_RECV_START,1516221027609,163
428,WS_RECV_END,1516221032203,163
428,PLAYER_SLEEPBEFORE_START,1516221032203,164
428,PLAYER_SLEEPBEFORE_END,1516221053015,164
428,WS_SEND_START,1516221053015,164
428,WS_SEND_END,1516221053015,164
428,WS_RECV_START,1516221053015,165
428,WS_RECV_END,1516221062926,165
428,PLAYER_SLEEPBEFORE_START,1516221062926,166
428,PLAYER_SLEEPBEFORE_END,1516221085381,166
428,WS_SEND_START,1516221085381,166
428,WS_SEND_END,1516221085381,166
428,WS_RECV_START,1516221085381,167
428,WS_RECV_END,1516221091920,167
428,PLAYER_SLEEPBEFORE_START,1516221091920,168
428,PLAYER_SLEEPBEFORE_END,1516221119277,168
428,WS_SEND_START,1516221119277,168
428,WS_SEND_END,1516221119278,168
428,WS_RECV_START,1516221119278,169
428,WS_RECV_END,1516221125449,169
428,PLAYER_SLEEPBEFORE_START,1516221125449,170
428,PLAYER_SLEEPBEFORE_END,1516221125458,170
428,WS_SEND_START,1516221125458,170
428,WS_SEND_END,1516221125458,170
428,WS_RECV_START,1516221125458,171
428,WS_RECV_END,1516221127603,171
428,PLAYER_SLEEPBEFORE_START,1516221127603,172
428,PLAYER_SLEEPBEFORE_END,1516221127972,172
428,WS_SEND_START,1516221127972,172
428,WS_SEND_END,1516221127972,172
428,WS_RECV_START,1516221127972,173
428,WS_RECV_END,1516221130954,173
428,PLAYER_SLEEPBEFORE_START,1516221130954,174
428,PLAYER_SLEEPBEFORE_END,1516221130995,174
428,WS_SEND_START,1516221130995,174
428,WS_SEND_END,1516221130995,174
428,WS_RECV_START,1516221130995,175
428,WS_RECV_END,1516221134045,175
428,PLAYER_SLEEPBEFORE_START,1516221134045,176
428,PLAYER_SLEEPBEFORE_END,1516221155806,176
428,WS_SEND_START,1516221155806,176
428,WS_SEND_END,1516221155806,176
428,PLAYER_SLEEPBEFORE_START,1516221155806,177
428,PLAYER_SLEEPBEFORE_END,1516221158324,177
428,WS_SEND_START,1516221158324,177
428,WS_SEND_END,1516221158324,177
428,WS_RECV_START,1516221158324,178
428,WS_RECV_END,1516221160570,178
428,PLAYER_SLEEPBEFORE_START,1516221160570,179
428,PLAYER_SLEEPBEFORE_END,1516221182910,179
428,WS_SEND_START,1516221182910,179
428,WS_SEND_END,1516221182910,179
428,WS_RECV_START,1516221182910,180
428,WS_RECV_END,1516221183132,180
428,PLAYER_SLEEPBEFORE_START,1516221183132,181
428,PLAYER_SLEEPBEFORE_END,1516221183576,181
428,WS_SEND_START,1516221183576,181
428,WS_SEND_END,1516221183576,181
428,WS_RECV_START,1516221183576,182
428,WS_RECV_END,1516221184021,182
428,PLAYER_SLEEPBEFORE_START,1516221184021,183
428,PLAYER_SLEEPBEFORE_END,1516221184544,183
428,WS_SEND_START,1516221184544,183
428,WS_SEND_END,1516221184544,183
428,WS_RECV_START,1516221184544,184
428,WS_RECV_END,1516221185987,184
428,PLAYER_SLEEPBEFORE_START,1516221185987,185
428,PLAYER_SLEEPBEFORE_END,1516221186256,185
428,WS_SEND_START,1516221186256,185
428,WS_SEND_END,1516221186256,185
428,WS_RECV_START,1516221186256,186
428,WS_RECV_END,1516221187145,186
428,PLAYER_SLEEPBEFORE_START,1516221187145,187
428,PLAYER_SLEEPBEFORE_END,1516221209645,187
428,WS_SEND_START,1516221209645,187
428,WS_SEND_END,1516221209645,187
428,WS_RECV_START,1516221209645,188
428,WS_RECV_END,1516221210094,188
428,PLAYER_SLEEPBEFORE_START,1516221210094,189
428,PLAYER_SLEEPBEFORE_END,1516221216333,189
428,WS_SEND_START,1516221216333,189
428,WS_SEND_END,1516221216334,189
428,WS_RECV_START,1516221216334,190
428,WS_RECV_END,1516221216721,190
428,PLAYER_SLEEPBEFORE_START,1516221216721,191
428,PLAYER_SLEEPBEFORE_END,1516221218637,191
428,WS_SEND_START,1516221218637,191
428,WS_SEND_END,1516221218637,191
428,WS_RECV_START,1516221218637,192
428,WS_RECV_END,1516221218858,192
428,PLAYER_SLEEPBEFORE_START,1516221218858,193
428,PLAYER_SLEEPBEFORE_END,1516221218986,193
428,WS_SEND_START,1516221218986,193
428,WS_SEND_END,1516221218986,193
428,WS_RECV_START,1516221218986,194
428,WS_RECV_END,1516221219144,194
428,PLAYER_SLEEPBEFORE_START,1516221219144,195
428,PLAYER_SLEEPBEFORE_END,1516221220899,195
428,WS_SEND_START,1516221220899,195
428,WS_SEND_END,1516221220899,195
428,WS_RECV_START,1516221220899,196
428,WS_RECV_END,1516221221127,196
428,PLAYER_SLEEPBEFORE_START,1516221221127,197
428,PLAYER_SLEEPBEFORE_END,1516221222931,197
428,WS_SEND_START,1516221222931,197
428,WS_SEND_END,1516221222931,197
428,WS_RECV_START,1516221222931,198
428,WS_RECV_END,1516221223111,198
428,PLAYER_SLEEPBEFORE_START,1516221223111,199
428,PLAYER_SLEEPBEFORE_END,1516221234965,199
428,WS_SEND_START,1516221234965,199
428,WS_SEND_END,1516221234965,199
428,PLAYER_SLEEPBEFORE_START,1516221234965,200
428,PLAYER_SLEEPBEFORE_END,1516221239053,200
428,WS_SEND_START,1516221239053,200
428,WS_SEND_END,1516221239053,200
428,WS_RECV_START,1516221239053,201
428,WS_RECV_END,1516221239196,201
428,PLAYER_SLEEPBEFORE_START,1516221239196,202
428,PLAYER_SLEEPBEFORE_END,1516221239210,202
428,WS_SEND_START,1516221239210,202
428,WS_SEND_END,1516221239210,202
428,WS_RECV_START,1516221239210,203
428,WS_RECV_END,1516221239343,203
428,PLAYER_SLEEPBEFORE_START,1516221239343,204
428,PLAYER_SLEEPBEFORE_END,1516221258993,204
428,WS_SEND_START,1516221258993,204
428,WS_SEND_END,1516221258993,204
428,PLAYER_SLEEPBEFORE_START,1516221258993,205
428,PLAYER_SLEEPBEFORE_END,1516221262891,205
428,WS_SEND_START,1516221262891,205
428,WS_SEND_END,1516221262891,205
428,WS_RECV_START,1516221262891,206
428,WS_RECV_END,1516221263069,206
428,PLAYER_SLEEPBEFORE_START,1516221263069,207
428,PLAYER_SLEEPBEFORE_END,1516221280000,207
428,REQ_START,1516221280000,207
428,REQ_END,1516221280025,207
428,PLAYER_SLEEPBEFORE_START,1516221280025,208
428,PLAYER_SLEEPBEFORE_END,1516221286877,208
428,WS_CLOSE_START,1516221286877,208
428,WS_CLOSE_END,1516221286877,208
428,PLAYER_DONE,1516221286877
