# --sessions 540 --app-url=http://shinyloadtest.rstudioservices.com/cran_explorer --output-dir test540 --overwrite-output --log-level warn --start-interval 500 15min.log
thread_id,event,timestamp,input_line_number,comment
47,PLAYER_SESSION_CREATE,1516219954824
47,PLAYER_START_INTERVAL_START,1516219954824
47,PLAYER_START_INTERVAL_END,1516219978325
47,REQ_HOME_START,1516219978325,2
47,REQ_HOME_END,1516219978415,2
47,REQ_START,1516219978415,3
47,REQ_END,1516219978456,3
47,REQ_START,1516219978456,4
47,REQ_END,1516219978490,4
47,REQ_START,1516219978490,5
47,REQ_END,1516219978524,5
47,REQ_START,1516219978524,6
47,REQ_END,1516219978560,6
47,REQ_START,1516219978560,7
47,REQ_END,1516219978595,7
47,REQ_START,1516219978595,8
47,REQ_END,1516219978633,8
47,REQ_START,1516219978633,9
47,REQ_END,1516219978673,9
47,REQ_START,1516219978673,10
47,REQ_END,1516219978686,10
47,REQ_START,1516219978686,11
47,REQ_END,1516219978720,11
47,REQ_START,1516219978720,12
47,REQ_END,1516219978730,12
47,REQ_START,1516219978730,13
47,REQ_END,1516219978763,13
47,REQ_START,1516219978763,14
47,REQ_END,1516219978778,14
47,REQ_START,1516219978778,15
47,REQ_END,1516219978813,15
47,REQ_TOK_START,1516219978813,16
47,REQ_TOK_END,1516219978821,16
47,REQ_SINF_START,1516219978821,17
47,REQ_SINF_END,1516219978829,17
47,WS_OPEN_START,1516219978829,18
47,WS_OPEN_END,1516219978837,18
47,REQ_START,1516219978837,19
47,REQ_END,1516219978866,19
47,WS_RECV_START,1516219978867,20
47,WS_RECV_END,1516219978867,20
47,PLAYER_SLEEPBEFORE_START,1516219978867,21
47,PLAYER_SLEEPBEFORE_END,1516219978872,21
47,WS_SEND_START,1516219978872,21
47,WS_SEND_END,1516219978872,21
47,PLAYER_SLEEPBEFORE_START,1516219978872,22
47,PLAYER_SLEEPBEFORE_END,1516219978873,22
47,WS_SEND_START,1516219978873,22
47,WS_SEND_END,1516219978873,22
47,WS_RECV_INIT_START,1516219978873,23
47,WS_RECV_INIT_END,1516219978896,23
47,WS_RECV_START,1516219978896,24
47,WS_RECV_END,1516219978980,24
47,PLAYER_SLEEPBEFORE_START,1516219978980,25
47,PLAYER_SLEEPBEFORE_END,1516219978987,25
47,REQ_START,1516219978987,25
47,REQ_END,1516219979024,25
47,PLAYER_SLEEPBEFORE_START,1516219979024,26
47,PLAYER_SLEEPBEFORE_END,1516219979025,26
47,REQ_START,1516219979025,26
47,REQ_END,1516219979056,26
47,PLAYER_SLEEPBEFORE_START,1516219979056,27
47,PLAYER_SLEEPBEFORE_END,1516219979060,27
47,REQ_START,1516219979060,27
47,REQ_END,1516219979096,27
47,PLAYER_SLEEPBEFORE_START,1516219979096,28
47,PLAYER_SLEEPBEFORE_END,1516219979381,28
47,REQ_START,1516219979381,28
47,REQ_END,1516219979415,28
47,PLAYER_SLEEPBEFORE_START,1516219979415,29
47,PLAYER_SLEEPBEFORE_END,1516219979590,29
47,WS_SEND_START,1516219979590,29
47,WS_SEND_END,1516219979590,29
47,WS_RECV_START,1516219979590,30
47,WS_RECV_END,1516219979699,30
47,PLAYER_SLEEPBEFORE_START,1516219979699,31
47,PLAYER_SLEEPBEFORE_END,1516219979710,31
47,REQ_START,1516219979710,31
47,REQ_END,1516219979846,31
47,PLAYER_SLEEPBEFORE_START,1516219979846,32
47,PLAYER_SLEEPBEFORE_END,1516220007991,32
47,WS_SEND_START,1516220007991,32
47,WS_SEND_END,1516220007991,32
47,WS_RECV_START,1516220007991,33
47,WS_RECV_END,1516220008094,33
47,PLAYER_SLEEPBEFORE_START,1516220008094,34
47,PLAYER_SLEEPBEFORE_END,1516220034005,34
47,WS_SEND_START,1516220034005,34
47,WS_SEND_END,1516220034005,34
47,WS_RECV_START,1516220034005,35
47,WS_RECV_END,1516220034029,35
47,PLAYER_SLEEPBEFORE_START,1516220034029,36
47,PLAYER_SLEEPBEFORE_END,1516220034038,36
47,WS_SEND_START,1516220034038,36
47,WS_SEND_END,1516220034038,36
47,WS_RECV_START,1516220034038,37
47,WS_RECV_END,1516220034081,37
47,PLAYER_SLEEPBEFORE_START,1516220034081,38
47,PLAYER_SLEEPBEFORE_END,1516220037276,38
47,WS_SEND_START,1516220037276,38
47,WS_SEND_END,1516220037276,38
47,WS_RECV_START,1516220037276,39
47,WS_RECV_END,1516220037391,39
47,PLAYER_SLEEPBEFORE_START,1516220037391,40
47,PLAYER_SLEEPBEFORE_END,1516220037437,40
47,WS_SEND_START,1516220037437,40
47,WS_SEND_END,1516220037437,40
47,WS_RECV_START,1516220037437,41
47,WS_RECV_END,1516220037550,41
47,PLAYER_SLEEPBEFORE_START,1516220037550,42
47,PLAYER_SLEEPBEFORE_END,1516220055685,42
47,WS_SEND_START,1516220055685,42
47,WS_SEND_END,1516220055685,42
47,WS_RECV_START,1516220055685,43
47,WS_RECV_END,1516220055816,43
47,PLAYER_SLEEPBEFORE_START,1516220055816,44
47,PLAYER_SLEEPBEFORE_END,1516220055828,44
47,WS_SEND_START,1516220055828,44
47,WS_SEND_END,1516220055828,44
47,WS_RECV_START,1516220055828,45
47,WS_RECV_END,1516220055993,45
47,PLAYER_SLEEPBEFORE_START,1516220055993,46
47,PLAYER_SLEEPBEFORE_END,1516220057253,46
47,WS_SEND_START,1516220057253,46
47,WS_SEND_END,1516220057253,46
47,WS_RECV_START,1516220057253,47
47,WS_RECV_END,1516220057278,47
47,PLAYER_SLEEPBEFORE_START,1516220057278,48
47,PLAYER_SLEEPBEFORE_END,1516220058598,48
47,WS_SEND_START,1516220058598,48
47,WS_SEND_END,1516220058598,48
47,WS_RECV_START,1516220058598,49
47,WS_RECV_END,1516220058693,49
47,PLAYER_SLEEPBEFORE_START,1516220058693,50
47,PLAYER_SLEEPBEFORE_END,1516220058717,50
47,WS_SEND_START,1516220058717,50
47,WS_SEND_END,1516220058717,50
47,WS_RECV_START,1516220058717,51
47,WS_RECV_END,1516220058914,51
47,PLAYER_SLEEPBEFORE_START,1516220058914,52
47,PLAYER_SLEEPBEFORE_END,1516220081478,52
47,WS_SEND_START,1516220081478,52
47,WS_SEND_END,1516220081478,52
47,WS_RECV_START,1516220081478,53
47,WS_RECV_END,1516220081634,53
47,PLAYER_SLEEPBEFORE_START,1516220081634,54
47,PLAYER_SLEEPBEFORE_END,1516220102937,54
47,WS_SEND_START,1516220102937,54
47,WS_SEND_END,1516220102937,54
47,PLAYER_SLEEPBEFORE_START,1516220102937,55
47,PLAYER_SLEEPBEFORE_END,1516220104878,55
47,WS_SEND_START,1516220104878,55
47,WS_SEND_END,1516220104878,55
47,WS_RECV_START,1516220104878,56
47,WS_RECV_END,1516220105025,56
47,PLAYER_SLEEPBEFORE_START,1516220105025,57
47,PLAYER_SLEEPBEFORE_END,1516220127897,57
47,WS_SEND_START,1516220127897,57
47,WS_SEND_END,1516220127897,57
47,WS_RECV_START,1516220127897,58
47,WS_RECV_END,1516220127954,58
47,PLAYER_SLEEPBEFORE_START,1516220127954,59
47,PLAYER_SLEEPBEFORE_END,1516220130281,59
47,WS_SEND_START,1516220130282,59
47,WS_SEND_END,1516220130282,59
47,WS_RECV_START,1516220130282,60
47,WS_RECV_END,1516220130472,60
47,PLAYER_SLEEPBEFORE_START,1516220130472,61
47,PLAYER_SLEEPBEFORE_END,1516220134063,61
47,WS_SEND_START,1516220134063,61
47,WS_SEND_END,1516220134063,61
47,WS_RECV_START,1516220134063,62
47,WS_RECV_END,1516220134198,62
47,PLAYER_SLEEPBEFORE_START,1516220134198,63
47,PLAYER_SLEEPBEFORE_END,1516220153460,63
47,WS_SEND_START,1516220153460,63
47,WS_SEND_END,1516220153460,63
47,WS_RECV_START,1516220153460,64
47,WS_RECV_END,1516220153538,64
47,PLAYER_SLEEPBEFORE_START,1516220153538,65
47,PLAYER_SLEEPBEFORE_END,1516220180356,65
47,WS_SEND_START,1516220180356,65
47,WS_SEND_END,1516220180356,65
47,WS_RECV_START,1516220180356,66
47,WS_RECV_END,1516220180693,66
47,PLAYER_SLEEPBEFORE_START,1516220180693,67
47,PLAYER_SLEEPBEFORE_END,1516220182201,67
47,WS_SEND_START,1516220182201,67
47,WS_SEND_END,1516220182201,67
47,WS_RECV_START,1516220182201,68
47,WS_RECV_END,1516220182523,68
47,PLAYER_SLEEPBEFORE_START,1516220182523,69
47,PLAYER_SLEEPBEFORE_END,1516220204521,69
47,WS_SEND_START,1516220204521,69
47,WS_SEND_END,1516220204521,69
47,WS_RECV_START,1516220204521,70
47,WS_RECV_END,1516220204854,70
47,PLAYER_SLEEPBEFORE_START,1516220204854,71
47,PLAYER_SLEEPBEFORE_END,1516220229629,71
47,WS_SEND_START,1516220229629,71
47,WS_SEND_END,1516220229629,71
47,PLAYER_SLEEPBEFORE_START,1516220229629,72
47,PLAYER_SLEEPBEFORE_END,1516220232237,72
47,WS_SEND_START,1516220232237,72
47,WS_SEND_END,1516220232237,72
47,WS_RECV_START,1516220232237,73
47,WS_RECV_END,1516220233533,73
47,PLAYER_SLEEPBEFORE_START,1516220233533,74
47,PLAYER_SLEEPBEFORE_END,1516220233542,74
47,WS_SEND_START,1516220233542,74
47,WS_SEND_END,1516220233542,74
47,WS_RECV_START,1516220233542,75
47,WS_RECV_END,1516220234108,75
47,PLAYER_SLEEPBEFORE_START,1516220234108,76
47,PLAYER_SLEEPBEFORE_END,1516220235614,76
47,WS_SEND_START,1516220235614,76
47,WS_SEND_END,1516220235614,76
47,WS_RECV_START,1516220235614,77
47,WS_RECV_END,1516220236903,77
47,PLAYER_SLEEPBEFORE_START,1516220236903,78
47,PLAYER_SLEEPBEFORE_END,1516220237771,78
47,WS_SEND_START,1516220237771,78
47,WS_SEND_END,1516220237771,78
47,WS_RECV_START,1516220237771,79
47,WS_RECV_END,1516220239267,79
47,PLAYER_SLEEPBEFORE_START,1516220239267,80
47,PLAYER_SLEEPBEFORE_END,1516220246934,80
47,WS_SEND_START,1516220246934,80
47,WS_SEND_END,1516220246934,80
47,WS_RECV_START,1516220246934,81
47,WS_RECV_END,1516220249006,81
47,PLAYER_SLEEPBEFORE_START,1516220249006,82
47,PLAYER_SLEEPBEFORE_END,1516220250108,82
47,WS_SEND_START,1516220250108,82
47,WS_SEND_END,1516220250108,82
47,WS_RECV_START,1516220250108,83
47,WS_RECV_END,1516220251324,83
47,PLAYER_SLEEPBEFORE_START,1516220251324,84
47,PLAYER_SLEEPBEFORE_END,1516220252271,84
47,WS_SEND_START,1516220252271,84
47,WS_SEND_END,1516220252271,84
47,WS_RECV_START,1516220252271,85
47,WS_RECV_END,1516220252860,85
47,PLAYER_SLEEPBEFORE_START,1516220252860,86
47,PLAYER_SLEEPBEFORE_END,1516220257032,86
47,WS_SEND_START,1516220257032,86
47,WS_SEND_END,1516220257032,86
47,WS_RECV_START,1516220257032,87
47,WS_RECV_END,1516220258510,87
47,PLAYER_SLEEPBEFORE_START,1516220258510,88
47,PLAYER_SLEEPBEFORE_END,1516220258518,88
47,WS_SEND_START,1516220258518,88
47,WS_SEND_END,1516220258518,88
47,WS_RECV_START,1516220258518,89
47,WS_RECV_END,1516220259563,89
47,PLAYER_SLEEPBEFORE_START,1516220259563,90
47,PLAYER_SLEEPBEFORE_END,1516220286760,90
47,REQ_START,1516220286760,90
47,REQ_END,1516220286769,90
47,PLAYER_SLEEPBEFORE_START,1516220286769,91
47,PLAYER_SLEEPBEFORE_END,1516220294658,91
47,WS_SEND_START,1516220294658,91
47,WS_SEND_END,1516220294658,91
47,WS_RECV_START,1516220294658,92
47,WS_RECV_END,1516220296005,92
47,PLAYER_SLEEPBEFORE_START,1516220296005,93
47,PLAYER_SLEEPBEFORE_END,1516220296020,93
47,WS_SEND_START,1516220296020,93
47,WS_SEND_END,1516220296020,93
47,WS_RECV_START,1516220296020,94
47,WS_RECV_END,1516220296496,94
47,PLAYER_SLEEPBEFORE_START,1516220296496,95
47,PLAYER_SLEEPBEFORE_END,1516220320052,95
47,WS_SEND_START,1516220320052,95
47,WS_SEND_END,1516220320052,95
47,WS_RECV_START,1516220320052,96
47,WS_RECV_END,1516220321620,96
47,PLAYER_SLEEPBEFORE_START,1516220321620,97
47,PLAYER_SLEEPBEFORE_END,1516220344060,97
47,WS_SEND_START,1516220344060,97
47,WS_SEND_END,1516220344060,97
47,WS_RECV_START,1516220344060,98
47,WS_RECV_END,1516220346724,98
47,PLAYER_SLEEPBEFORE_START,1516220346724,99
47,PLAYER_SLEEPBEFORE_END,1516220346746,99
47,WS_SEND_START,1516220346746,99
47,WS_SEND_END,1516220346746,99
47,WS_RECV_START,1516220346746,100
47,WS_RECV_END,1516220347728,100
47,PLAYER_SLEEPBEFORE_START,1516220347728,101
47,PLAYER_SLEEPBEFORE_END,1516220371288,101
47,WS_SEND_START,1516220371288,101
47,WS_SEND_END,1516220371288,101
47,WS_RECV_START,1516220371288,102
47,WS_RECV_END,1516220373769,102
47,PLAYER_SLEEPBEFORE_START,1516220373769,103
47,PLAYER_SLEEPBEFORE_END,1516220397394,103
47,WS_SEND_START,1516220397394,103
47,WS_SEND_END,1516220397394,103
47,WS_RECV_START,1516220397394,104
47,WS_RECV_END,1516220400000,104
47,PLAYER_SLEEPBEFORE_START,1516220400000,105
47,PLAYER_SLEEPBEFORE_END,1516220425377,105
47,WS_SEND_START,1516220425377,105
47,WS_SEND_END,1516220425377,105
47,WS_RECV_START,1516220425377,106
47,WS_RECV_END,1516220426519,106
47,PLAYER_SLEEPBEFORE_START,1516220426519,107
47,PLAYER_SLEEPBEFORE_END,1516220449942,107
47,WS_SEND_START,1516220449942,107
47,WS_SEND_END,1516220449942,107
47,WS_RECV_START,1516220449942,108
47,WS_RECV_END,1516220451522,108
47,PLAYER_SLEEPBEFORE_START,1516220451522,109
47,PLAYER_SLEEPBEFORE_END,1516220451531,109
47,WS_SEND_START,1516220451531,109
47,WS_SEND_END,1516220451531,109
47,WS_RECV_START,1516220451531,110
47,WS_RECV_END,1516220452171,110
47,PLAYER_SLEEPBEFORE_START,1516220452172,111
47,PLAYER_SLEEPBEFORE_END,1516220453131,111
47,WS_SEND_START,1516220453131,111
47,WS_SEND_END,1516220453131,111
47,WS_RECV_START,1516220453131,112
47,WS_RECV_END,1516220453539,112
47,PLAYER_SLEEPBEFORE_START,1516220453539,113
47,PLAYER_SLEEPBEFORE_END,1516220454101,113
47,WS_SEND_START,1516220454101,113
47,WS_SEND_END,1516220454101,113
47,WS_RECV_START,1516220454101,114
47,WS_RECV_END,1516220455011,114
47,PLAYER_SLEEPBEFORE_START,1516220455011,115
47,PLAYER_SLEEPBEFORE_END,1516220455020,115
47,WS_SEND_START,1516220455020,115
47,WS_SEND_END,1516220455020,115
47,WS_RECV_START,1516220455020,116
47,WS_RECV_END,1516220456596,116
47,PLAYER_SLEEPBEFORE_START,1516220456596,117
47,PLAYER_SLEEPBEFORE_END,1516220476956,117
47,WS_SEND_START,1516220476956,117
47,WS_SEND_END,1516220476956,117
47,PLAYER_SLEEPBEFORE_START,1516220476956,118
47,PLAYER_SLEEPBEFORE_END,1516220480708,118
47,WS_SEND_START,1516220480708,118
47,WS_SEND_END,1516220480708,118
47,WS_RECV_START,1516220480708,119
47,WS_RECV_END,1516220485511,119
47,PLAYER_SLEEPBEFORE_START,1516220485511,120
47,PLAYER_SLEEPBEFORE_END,1516220486499,120
47,WS_SEND_START,1516220486499,120
47,WS_SEND_END,1516220486499,120
47,WS_RECV_START,1516220486499,121
47,WS_RECV_END,1516220487831,121
47,PLAYER_SLEEPBEFORE_START,1516220487831,122
47,PLAYER_SLEEPBEFORE_END,1516220489016,122
47,WS_SEND_START,1516220489016,122
47,WS_SEND_END,1516220489016,122
47,WS_RECV_START,1516220489016,123
47,WS_RECV_END,1516220491496,123
47,PLAYER_SLEEPBEFORE_START,1516220491496,124
47,PLAYER_SLEEPBEFORE_END,1516220515901,124
47,WS_SEND_START,1516220515901,124
47,WS_SEND_END,1516220515901,124
47,WS_RECV_START,1516220515901,125
47,WS_RECV_END,1516220519886,125
47,PLAYER_SLEEPBEFORE_START,1516220519886,126
47,PLAYER_SLEEPBEFORE_END,1516220540398,126
47,WS_SEND_START,1516220540398,126
47,WS_SEND_END,1516220540398,126
47,PLAYER_SLEEPBEFORE_START,1516220540398,127
47,PLAYER_SLEEPBEFORE_END,1516220543452,127
47,WS_SEND_START,1516220543452,127
47,WS_SEND_END,1516220543452,127
47,WS_RECV_START,1516220543452,128
47,WS_RECV_END,1516220545323,128
47,PLAYER_SLEEPBEFORE_START,1516220545323,129
47,PLAYER_SLEEPBEFORE_END,1516220545344,129
47,WS_SEND_START,1516220545344,129
47,WS_SEND_END,1516220545344,129
47,WS_RECV_START,1516220545344,130
47,WS_RECV_END,1516220548678,130
47,PLAYER_SLEEPBEFORE_START,1516220548678,131
47,PLAYER_SLEEPBEFORE_END,1516220570302,131
47,WS_SEND_START,1516220570302,131
47,WS_SEND_END,1516220570302,131
47,PLAYER_SLEEPBEFORE_START,1516220570302,132
47,PLAYER_SLEEPBEFORE_END,1516220573382,132
47,WS_SEND_START,1516220573382,132
47,WS_SEND_END,1516220573382,132
47,WS_RECV_START,1516220573383,133
47,WS_RECV_END,1516220578180,133
47,PLAYER_SLEEPBEFORE_START,1516220578180,134
47,PLAYER_SLEEPBEFORE_END,1516220599397,134
47,WS_SEND_START,1516220599397,134
47,WS_SEND_END,1516220599397,134
47,PLAYER_SLEEPBEFORE_START,1516220599397,135
47,PLAYER_SLEEPBEFORE_END,1516220602587,135
47,WS_SEND_START,1516220602587,135
47,WS_SEND_END,1516220602587,135
47,WS_RECV_START,1516220602587,136
47,WS_RECV_END,1516220603540,136
47,PLAYER_SLEEPBEFORE_START,1516220603540,137
47,PLAYER_SLEEPBEFORE_END,1516220603547,137
47,WS_SEND_START,1516220603547,137
47,WS_SEND_END,1516220603547,137
47,WS_RECV_START,1516220603547,138
47,WS_RECV_END,1516220605443,138
47,PLAYER_SLEEPBEFORE_START,1516220605443,139
47,PLAYER_SLEEPBEFORE_END,1516220606133,139
47,WS_SEND_START,1516220606133,139
47,WS_SEND_END,1516220606133,139
47,WS_RECV_START,1516220606133,140
47,WS_RECV_END,1516220608181,140
47,PLAYER_SLEEPBEFORE_START,1516220608181,141
47,PLAYER_SLEEPBEFORE_END,1516220608836,141
47,WS_SEND_START,1516220608836,141
47,WS_SEND_END,1516220608836,141
47,WS_RECV_START,1516220608836,142
47,WS_RECV_END,1516220611175,142
47,PLAYER_SLEEPBEFORE_START,1516220611175,143
47,PLAYER_SLEEPBEFORE_END,1516220611232,143
47,WS_SEND_START,1516220611232,143
47,WS_SEND_END,1516220611232,143
47,WS_RECV_START,1516220611232,144
47,WS_RECV_END,1516220613535,144
47,PLAYER_SLEEPBEFORE_START,1516220613535,145
47,PLAYER_SLEEPBEFORE_END,1516220629597,145
47,REQ_START,1516220629597,145
47,REQ_END,1516220629605,145
47,PLAYER_SLEEPBEFORE_START,1516220629605,146
47,PLAYER_SLEEPBEFORE_END,1516220638483,146
47,WS_SEND_START,1516220638483,146
47,WS_SEND_END,1516220638483,146
47,WS_RECV_START,1516220638483,147
47,WS_RECV_END,1516220643056,147
47,PLAYER_SLEEPBEFORE_START,1516220643056,148
47,PLAYER_SLEEPBEFORE_END,1516220664979,148
47,WS_SEND_START,1516220664979,148
47,WS_SEND_END,1516220664979,148
47,PLAYER_SLEEPBEFORE_START,1516220664979,149
47,PLAYER_SLEEPBEFORE_END,1516220667407,149
47,WS_SEND_START,1516220667407,149
47,WS_SEND_END,1516220667407,149
47,WS_RECV_START,1516220667407,150
47,WS_RECV_END,1516220670724,150
47,PLAYER_SLEEPBEFORE_START,1516220670724,151
47,PLAYER_SLEEPBEFORE_END,1516220670934,151
47,WS_SEND_START,1516220670934,151
47,WS_SEND_END,1516220670934,151
47,WS_RECV_START,1516220670934,152
47,WS_RECV_END,1516220672503,152
47,PLAYER_SLEEPBEFORE_START,1516220672503,153
47,PLAYER_SLEEPBEFORE_END,1516220696430,153
47,WS_SEND_START,1516220696430,153
47,WS_SEND_END,1516220696430,153
47,WS_RECV_START,1516220696430,154
47,WS_RECV_END,1516220699526,154
47,PLAYER_SLEEPBEFORE_START,1516220699526,155
47,PLAYER_SLEEPBEFORE_END,1516220722084,155
47,WS_SEND_START,1516220722084,155
47,WS_SEND_END,1516220722084,155
47,PLAYER_SLEEPBEFORE_START,1516220722084,156
47,PLAYER_SLEEPBEFORE_END,1516220725358,156
47,WS_SEND_START,1516220725358,156
47,WS_SEND_END,1516220725358,156
47,WS_RECV_START,1516220725358,157
47,WS_RECV_END,1516220728782,157
47,PLAYER_SLEEPBEFORE_START,1516220728782,158
47,PLAYER_SLEEPBEFORE_END,1516220728792,158
47,WS_SEND_START,1516220728792,158
47,WS_SEND_END,1516220728792,158
47,WS_RECV_START,1516220728792,159
47,WS_RECV_END,1516220732207,159
47,PLAYER_SLEEPBEFORE_START,1516220732207,160
47,PLAYER_SLEEPBEFORE_END,1516220732382,160
47,WS_SEND_START,1516220732382,160
47,WS_SEND_END,1516220732382,160
47,WS_RECV_START,1516220732382,161
47,WS_RECV_END,1516220735165,161
47,PLAYER_SLEEPBEFORE_START,1516220735165,162
47,PLAYER_SLEEPBEFORE_END,1516220735190,162
47,WS_SEND_START,1516220735190,162
47,WS_SEND_END,1516220735190,162
47,WS_RECV_START,1516220735190,163
47,WS_RECV_END,1516220738490,163
47,PLAYER_SLEEPBEFORE_START,1516220738490,164
47,PLAYER_SLEEPBEFORE_END,1516220759302,164
47,WS_SEND_START,1516220759302,164
47,WS_SEND_END,1516220759302,164
47,WS_RECV_START,1516220759302,165
47,WS_RECV_END,1516220764447,165
47,PLAYER_SLEEPBEFORE_START,1516220764447,166
47,PLAYER_SLEEPBEFORE_END,1516220786902,166
47,WS_SEND_START,1516220786902,166
47,WS_SEND_END,1516220786902,166
47,WS_RECV_START,1516220786902,167
47,WS_RECV_END,1516220792577,167
47,PLAYER_SLEEPBEFORE_START,1516220792577,168
47,PLAYER_SLEEPBEFORE_END,1516220819934,168
47,WS_SEND_START,1516220819934,168
47,WS_SEND_END,1516220819934,168
47,WS_RECV_START,1516220819934,169
47,WS_RECV_END,1516220825648,169
47,PLAYER_SLEEPBEFORE_START,1516220825648,170
47,PLAYER_SLEEPBEFORE_END,1516220825658,170
47,WS_SEND_START,1516220825658,170
47,WS_SEND_END,1516220825658,170
47,WS_RECV_START,1516220825658,171
47,WS_RECV_END,1516220829271,171
47,PLAYER_SLEEPBEFORE_START,1516220829271,172
47,PLAYER_SLEEPBEFORE_END,1516220829640,172
47,WS_SEND_START,1516220829640,172
47,WS_SEND_END,1516220829641,172
47,WS_RECV_START,1516220829641,173
47,WS_RECV_END,1516220833395,173
47,PLAYER_SLEEPBEFORE_START,1516220833395,174
47,PLAYER_SLEEPBEFORE_END,1516220833436,174
47,WS_SEND_START,1516220833436,174
47,WS_SEND_END,1516220833436,174
47,WS_RECV_START,1516220833436,175
47,WS_RECV_END,1516220838435,175
47,PLAYER_SLEEPBEFORE_START,1516220838435,176
47,PLAYER_SLEEPBEFORE_END,1516220860196,176
47,WS_SEND_START,1516220860196,176
47,WS_SEND_END,1516220860196,176
47,PLAYER_SLEEPBEFORE_START,1516220860196,177
47,PLAYER_SLEEPBEFORE_END,1516220862714,177
47,WS_SEND_START,1516220862714,177
47,WS_SEND_END,1516220862714,177
47,WS_RECV_START,1516220862714,178
47,WS_RECV_END,1516220864660,178
47,PLAYER_SLEEPBEFORE_START,1516220864660,179
47,PLAYER_SLEEPBEFORE_END,1516220887000,179
47,WS_SEND_START,1516220887000,179
47,WS_SEND_END,1516220887000,179
47,WS_RECV_START,1516220887000,180
47,WS_RECV_END,1516220891811,180
47,PLAYER_SLEEPBEFORE_START,1516220891811,181
47,PLAYER_SLEEPBEFORE_END,1516220892256,181
47,WS_SEND_START,1516220892256,181
47,WS_SEND_END,1516220892256,181
47,WS_RECV_START,1516220892256,182
47,WS_RECV_END,1516220899584,182
47,PLAYER_SLEEPBEFORE_START,1516220899584,183
47,PLAYER_SLEEPBEFORE_END,1516220900107,183
47,WS_SEND_START,1516220900107,183
47,WS_SEND_END,1516220900107,183
47,WS_RECV_START,1516220900107,184
47,WS_RECV_END,1516220903870,184
47,PLAYER_SLEEPBEFORE_START,1516220903870,185
47,PLAYER_SLEEPBEFORE_END,1516220904138,185
47,WS_SEND_START,1516220904139,185
47,WS_SEND_END,1516220904139,185
47,WS_RECV_START,1516220904139,186
47,WS_RECV_END,1516220909293,186
47,PLAYER_SLEEPBEFORE_START,1516220909293,187
47,PLAYER_SLEEPBEFORE_END,1516220931794,187
47,WS_SEND_START,1516220931794,187
47,WS_SEND_END,1516220931794,187
47,WS_RECV_START,1516220931794,188
47,WS_RECV_END,1516220940606,188
47,PLAYER_SLEEPBEFORE_START,1516220940606,189
47,PLAYER_SLEEPBEFORE_END,1516220946845,189
47,WS_SEND_START,1516220946845,189
47,WS_SEND_END,1516220946845,189
47,WS_RECV_START,1516220946845,190
47,WS_RECV_END,1516220954716,190
47,PLAYER_SLEEPBEFORE_START,1516220954716,191
47,PLAYER_SLEEPBEFORE_END,1516220956631,191
47,WS_SEND_START,1516220956631,191
47,WS_SEND_END,1516220956631,191
47,WS_RECV_START,1516220956631,192
47,WS_RECV_END,1516220961200,192
47,PLAYER_SLEEPBEFORE_START,1516220961200,193
47,PLAYER_SLEEPBEFORE_END,1516220961329,193
47,WS_SEND_START,1516220961329,193
47,WS_SEND_END,1516220961329,193
47,WS_RECV_START,1516220961329,194
47,WS_RECV_END,1516220968234,194
47,PLAYER_SLEEPBEFORE_START,1516220968234,195
47,PLAYER_SLEEPBEFORE_END,1516220969989,195
47,WS_SEND_START,1516220969989,195
47,WS_SEND_END,1516220969989,195
47,WS_RECV_START,1516220969989,196
47,WS_RECV_END,1516220974338,196
47,PLAYER_SLEEPBEFORE_START,1516220974338,197
47,PLAYER_SLEEPBEFORE_END,1516220976142,197
47,WS_SEND_START,1516220976142,197
47,WS_SEND_END,1516220976142,197
47,WS_RECV_START,1516220976142,198
47,WS_RECV_END,1516220980234,198
47,PLAYER_SLEEPBEFORE_START,1516220980234,199
47,PLAYER_SLEEPBEFORE_END,1516220992088,199
47,WS_SEND_START,1516220992088,199
47,WS_SEND_END,1516220992088,199
47,PLAYER_SLEEPBEFORE_START,1516220992088,200
47,PLAYER_SLEEPBEFORE_END,1516220996176,200
47,WS_SEND_START,1516220996176,200
47,WS_SEND_END,1516220996176,200
47,WS_RECV_START,1516220996176,201
47,WS_RECV_END,1516221000744,201
47,PLAYER_SLEEPBEFORE_START,1516221000744,202
47,PLAYER_SLEEPBEFORE_END,1516221000758,202
47,WS_SEND_START,1516221000758,202
47,WS_SEND_END,1516221000758,202
47,WS_RECV_START,1516221000758,203
47,WS_RECV_END,1516221005628,203
47,PLAYER_SLEEPBEFORE_START,1516221005628,204
47,PLAYER_SLEEPBEFORE_END,1516221025277,204
47,WS_SEND_START,1516221025277,204
47,WS_SEND_END,1516221025277,204
47,PLAYER_SLEEPBEFORE_START,1516221025277,205
47,PLAYER_SLEEPBEFORE_END,1516221029175,205
47,WS_SEND_START,1516221029175,205
47,WS_SEND_END,1516221029175,205
47,WS_RECV_START,1516221029175,206
47,WS_RECV_END,1516221034224,206
47,PLAYER_SLEEPBEFORE_START,1516221034224,207
47,PLAYER_SLEEPBEFORE_END,1516221051155,207
47,REQ_START,1516221051155,207
47,REQ_END,1516221051163,207
47,PLAYER_SLEEPBEFORE_START,1516221051163,208
47,PLAYER_SLEEPBEFORE_END,1516221058015,208
47,WS_CLOSE_START,1516221058015,208
47,WS_CLOSE_END,1516221058015,208
47,PLAYER_DONE,1516221058015
