# --sessions 540 --app-url=http://shinyloadtest.rstudioservices.com/cran_explorer --output-dir test540 --overwrite-output --log-level warn --start-interval 500 15min.log
thread_id,event,timestamp,input_line_number,comment
483,PLAYER_SESSION_CREATE,1516219954958
483,PLAYER_START_INTERVAL_START,1516219954958
483,PLAYER_START_INTERVAL_END,1516220196458
483,REQ_HOME_START,1516220196458,2
483,REQ_HOME_END,1516220197121,2
483,REQ_START,1516220197121,3
483,REQ_END,1516220198024,3
483,REQ_START,1516220198024,4
483,REQ_END,1516220199532,4
483,REQ_START,1516220199532,5
483,REQ_END,1516220199848,5
483,REQ_START,1516220199848,6
483,REQ_END,1516220199925,6
483,REQ_START,1516220199925,7
483,REQ_END,1516220200392,7
483,REQ_START,1516220200392,8
483,REQ_END,1516220201792,8
483,REQ_START,1516220201792,9
483,REQ_END,1516220202471,9
483,REQ_START,1516220202471,10
483,REQ_END,1516220202592,10
483,REQ_START,1516220202592,11
483,REQ_END,1516220203458,11
483,REQ_START,1516220203458,12
483,REQ_END,1516220203470,12
483,REQ_START,1516220203470,13
483,REQ_END,1516220204496,13
483,REQ_START,1516220204496,14
483,REQ_END,1516220204513,14
483,REQ_START,1516220204513,15
483,REQ_END,1516220204791,15
483,REQ_TOK_START,1516220204791,16
483,REQ_TOK_END,1516220204798,16
483,REQ_SINF_START,1516220204798,17
483,REQ_SINF_END,1516220204805,17
483,WS_OPEN_START,1516220204805,18
483,WS_OPEN_END,1516220204812,18
483,REQ_START,1516220204812,19
483,REQ_END,1516220204883,19
483,WS_RECV_START,1516220204883,20
483,WS_RECV_END,1516220204884,20
483,PLAYER_SLEEPBEFORE_START,1516220204884,21
483,PLAYER_SLEEPBEFORE_END,1516220204889,21
483,WS_SEND_START,1516220204889,21
483,WS_SEND_END,1516220204889,21
483,PLAYER_SLEEPBEFORE_START,1516220204889,22
483,PLAYER_SLEEPBEFORE_END,1516220204890,22
483,WS_SEND_START,1516220204890,22
483,WS_SEND_END,1516220204890,22
483,WS_RECV_INIT_START,1516220204890,23
483,WS_RECV_INIT_END,1516220205012,23
483,WS_RECV_START,1516220205012,24
483,WS_RECV_END,1516220205094,24
483,PLAYER_SLEEPBEFORE_START,1516220205094,25
483,PLAYER_SLEEPBEFORE_END,1516220205101,25
483,REQ_START,1516220205101,25
483,REQ_END,1516220205649,25
483,PLAYER_SLEEPBEFORE_START,1516220205649,26
483,PLAYER_SLEEPBEFORE_END,1516220205650,26
483,REQ_START,1516220205650,26
483,REQ_END,1516220207856,26
483,PLAYER_SLEEPBEFORE_START,1516220207856,27
483,PLAYER_SLEEPBEFORE_END,1516220207859,27
483,REQ_START,1516220207859,27
483,REQ_END,1516220209219,27
483,PLAYER_SLEEPBEFORE_START,1516220209219,28
483,PLAYER_SLEEPBEFORE_END,1516220209504,28
483,REQ_START,1516220209504,28
483,REQ_END,1516220211404,28
483,PLAYER_SLEEPBEFORE_START,1516220211404,29
483,PLAYER_SLEEPBEFORE_END,1516220211579,29
483,WS_SEND_START,1516220211579,29
483,WS_SEND_END,1516220211579,29
483,WS_RECV_START,1516220211579,30
483,WS_RECV_END,1516220212586,30
483,PLAYER_SLEEPBEFORE_START,1516220212586,31
483,PLAYER_SLEEPBEFORE_END,1516220212597,31
483,REQ_START,1516220212597,31
483,REQ_END,1516220214836,31
483,PLAYER_SLEEPBEFORE_START,1516220214836,32
483,PLAYER_SLEEPBEFORE_END,1516220242981,32
483,WS_SEND_START,1516220242981,32
483,WS_SEND_END,1516220242981,32
483,WS_RECV_START,1516220242981,33
483,WS_RECV_END,1516220244615,33
483,PLAYER_SLEEPBEFORE_START,1516220244615,34
483,PLAYER_SLEEPBEFORE_END,1516220270527,34
483,WS_SEND_START,1516220270527,34
483,WS_SEND_END,1516220270527,34
483,WS_RECV_START,1516220270527,35
483,WS_RECV_END,1516220273253,35
483,PLAYER_SLEEPBEFORE_START,1516220273253,36
483,PLAYER_SLEEPBEFORE_END,1516220273262,36
483,WS_SEND_START,1516220273262,36
483,WS_SEND_END,1516220273262,36
483,WS_RECV_START,1516220273262,37
483,WS_RECV_END,1516220273926,37
483,PLAYER_SLEEPBEFORE_START,1516220273926,38
483,PLAYER_SLEEPBEFORE_END,1516220277121,38
483,WS_SEND_START,1516220277121,38
483,WS_SEND_END,1516220277121,38
483,WS_RECV_START,1516220277121,39
483,WS_RECV_END,1516220278774,39
483,PLAYER_SLEEPBEFORE_START,1516220278774,40
483,PLAYER_SLEEPBEFORE_END,1516220278820,40
483,WS_SEND_START,1516220278820,40
483,WS_SEND_END,1516220278820,40
483,WS_RECV_START,1516220278820,41
483,WS_RECV_END,1516220280541,41
483,PLAYER_SLEEPBEFORE_START,1516220280541,42
483,PLAYER_SLEEPBEFORE_END,1516220298677,42
483,WS_SEND_START,1516220298677,42
483,WS_SEND_END,1516220298677,42
483,WS_RECV_START,1516220298677,43
483,WS_RECV_END,1516220298925,43
483,PLAYER_SLEEPBEFORE_START,1516220298925,44
483,PLAYER_SLEEPBEFORE_END,1516220298937,44
483,WS_SEND_START,1516220298937,44
483,WS_SEND_END,1516220298937,44
483,WS_RECV_START,1516220298937,45
483,WS_RECV_END,1516220298992,45
483,PLAYER_SLEEPBEFORE_START,1516220298992,46
483,PLAYER_SLEEPBEFORE_END,1516220300252,46
483,WS_SEND_START,1516220300252,46
483,WS_SEND_END,1516220300252,46
483,WS_RECV_START,1516220300252,47
483,WS_RECV_END,1516220300952,47
483,PLAYER_SLEEPBEFORE_START,1516220300952,48
483,PLAYER_SLEEPBEFORE_END,1516220302272,48
483,WS_SEND_START,1516220302272,48
483,WS_SEND_END,1516220302272,48
483,WS_RECV_START,1516220302272,49
483,WS_RECV_END,1516220302864,49
483,PLAYER_SLEEPBEFORE_START,1516220302864,50
483,PLAYER_SLEEPBEFORE_END,1516220302888,50
483,WS_SEND_START,1516220302888,50
483,WS_SEND_END,1516220302888,50
483,WS_RECV_START,1516220302888,51
483,WS_RECV_END,1516220303139,51
483,PLAYER_SLEEPBEFORE_START,1516220303139,52
483,PLAYER_SLEEPBEFORE_END,1516220325703,52
483,WS_SEND_START,1516220325703,52
483,WS_SEND_END,1516220325703,52
483,WS_RECV_START,1516220325704,53
483,WS_RECV_END,1516220327408,53
483,PLAYER_SLEEPBEFORE_START,1516220327408,54
483,PLAYER_SLEEPBEFORE_END,1516220348711,54
483,WS_SEND_START,1516220348716,54
483,WS_SEND_END,1516220348716,54
483,PLAYER_SLEEPBEFORE_START,1516220348716,55
483,PLAYER_SLEEPBEFORE_END,1516220350657,55
483,WS_SEND_START,1516220350657,55
483,WS_SEND_END,1516220350657,55
483,WS_RECV_START,1516220350657,56
483,WS_RECV_END,1516220351648,56
483,PLAYER_SLEEPBEFORE_START,1516220351648,57
483,PLAYER_SLEEPBEFORE_END,1516220374520,57
483,WS_SEND_START,1516220374520,57
483,WS_SEND_END,1516220374520,57
483,WS_RECV_START,1516220374520,58
483,WS_RECV_END,1516220375757,58
483,PLAYER_SLEEPBEFORE_START,1516220375757,59
483,PLAYER_SLEEPBEFORE_END,1516220378084,59
483,WS_SEND_START,1516220378084,59
483,WS_SEND_END,1516220378084,59
483,WS_RECV_START,1516220378084,60
483,WS_RECV_END,1516220379473,60
483,PLAYER_SLEEPBEFORE_START,1516220379473,61
483,PLAYER_SLEEPBEFORE_END,1516220383064,61
483,WS_SEND_START,1516220383064,61
483,WS_SEND_END,1516220383064,61
483,WS_RECV_START,1516220383064,62
483,WS_RECV_END,1516220384803,62
483,PLAYER_SLEEPBEFORE_START,1516220384803,63
483,PLAYER_SLEEPBEFORE_END,1516220404065,63
483,WS_SEND_START,1516220404065,63
483,WS_SEND_END,1516220404065,63
483,WS_RECV_START,1516220404065,64
483,WS_RECV_END,1516220405900,64
483,PLAYER_SLEEPBEFORE_START,1516220405900,65
483,PLAYER_SLEEPBEFORE_END,1516220432717,65
483,WS_SEND_START,1516220432717,65
483,WS_SEND_END,1516220432717,65
483,WS_RECV_START,1516220432717,66
483,WS_RECV_END,1516220434002,66
483,PLAYER_SLEEPBEFORE_START,1516220434002,67
483,PLAYER_SLEEPBEFORE_END,1516220435510,67
483,WS_SEND_START,1516220435510,67
483,WS_SEND_END,1516220435510,67
483,WS_RECV_START,1516220435510,68
483,WS_RECV_END,1516220437661,68
483,PLAYER_SLEEPBEFORE_START,1516220437661,69
483,PLAYER_SLEEPBEFORE_END,1516220459659,69
483,WS_SEND_START,1516220459659,69
483,WS_SEND_END,1516220459660,69
483,WS_RECV_START,1516220459660,70
483,WS_RECV_END,1516220460743,70
483,PLAYER_SLEEPBEFORE_START,1516220460743,71
483,PLAYER_SLEEPBEFORE_END,1516220485518,71
483,WS_SEND_START,1516220485518,71
483,WS_SEND_END,1516220485518,71
483,PLAYER_SLEEPBEFORE_START,1516220485518,72
483,PLAYER_SLEEPBEFORE_END,1516220488125,72
483,WS_SEND_START,1516220488126,72
483,WS_SEND_END,1516220488126,72
483,WS_RECV_START,1516220488126,73
483,WS_RECV_END,1516220490899,73
483,PLAYER_SLEEPBEFORE_START,1516220490899,74
483,PLAYER_SLEEPBEFORE_END,1516220490908,74
483,WS_SEND_START,1516220490908,74
483,WS_SEND_END,1516220490908,74
483,WS_RECV_START,1516220490908,75
483,WS_RECV_END,1516220493079,75
483,PLAYER_SLEEPBEFORE_START,1516220493079,76
483,PLAYER_SLEEPBEFORE_END,1516220494585,76
483,WS_SEND_START,1516220494585,76
483,WS_SEND_END,1516220494585,76
483,WS_RECV_START,1516220494585,77
483,WS_RECV_END,1516220496471,77
483,PLAYER_SLEEPBEFORE_START,1516220496471,78
483,PLAYER_SLEEPBEFORE_END,1516220497339,78
483,WS_SEND_START,1516220497339,78
483,WS_SEND_END,1516220497339,78
483,WS_RECV_START,1516220497339,79
483,WS_RECV_END,1516220501519,79
483,PLAYER_SLEEPBEFORE_START,1516220501519,80
483,PLAYER_SLEEPBEFORE_END,1516220509186,80
483,WS_SEND_START,1516220509186,80
483,WS_SEND_END,1516220509186,80
483,WS_RECV_START,1516220509186,81
483,WS_RECV_END,1516220513083,81
483,PLAYER_SLEEPBEFORE_START,1516220513083,82
483,PLAYER_SLEEPBEFORE_END,1516220514185,82
483,WS_SEND_START,1516220514185,82
483,WS_SEND_END,1516220514185,82
483,WS_RECV_START,1516220514185,83
483,WS_RECV_END,1516220519076,83
483,PLAYER_SLEEPBEFORE_START,1516220519076,84
483,PLAYER_SLEEPBEFORE_END,1516220520023,84
483,WS_SEND_START,1516220520023,84
483,WS_SEND_END,1516220520023,84
483,WS_RECV_START,1516220520023,85
483,WS_RECV_END,1516220522921,85
483,PLAYER_SLEEPBEFORE_START,1516220522921,86
483,PLAYER_SLEEPBEFORE_END,1516220527093,86
483,WS_SEND_START,1516220527093,86
483,WS_SEND_END,1516220527093,86
483,WS_RECV_START,1516220527093,87
483,WS_RECV_END,1516220531320,87
483,PLAYER_SLEEPBEFORE_START,1516220531320,88
483,PLAYER_SLEEPBEFORE_END,1516220531328,88
483,WS_SEND_START,1516220531328,88
483,WS_SEND_END,1516220531328,88
483,WS_RECV_START,1516220531328,89
483,WS_RECV_END,1516220532672,89
483,PLAYER_SLEEPBEFORE_START,1516220532672,90
483,PLAYER_SLEEPBEFORE_END,1516220559869,90
483,REQ_START,1516220559869,90
483,REQ_END,1516220559877,90
483,PLAYER_SLEEPBEFORE_START,1516220559877,91
483,PLAYER_SLEEPBEFORE_END,1516220567766,91
483,WS_SEND_START,1516220567767,91
483,WS_SEND_END,1516220567767,91
483,WS_RECV_START,1516220567767,92
483,WS_RECV_END,1516220572099,92
483,PLAYER_SLEEPBEFORE_START,1516220572099,93
483,PLAYER_SLEEPBEFORE_END,1516220572114,93
483,WS_SEND_START,1516220572114,93
483,WS_SEND_END,1516220572115,93
483,WS_RECV_START,1516220572115,94
483,WS_RECV_END,1516220574156,94
483,PLAYER_SLEEPBEFORE_START,1516220574156,95
483,PLAYER_SLEEPBEFORE_END,1516220597712,95
483,WS_SEND_START,1516220597712,95
483,WS_SEND_END,1516220597712,95
483,WS_RECV_START,1516220597712,96
483,WS_RECV_END,1516220604067,96
483,PLAYER_SLEEPBEFORE_START,1516220604067,97
483,PLAYER_SLEEPBEFORE_END,1516220626507,97
483,WS_SEND_START,1516220626507,97
483,WS_SEND_END,1516220626508,97
483,WS_RECV_START,1516220626508,98
483,WS_RECV_END,1516220632312,98
483,PLAYER_SLEEPBEFORE_START,1516220632312,99
483,PLAYER_SLEEPBEFORE_END,1516220632333,99
483,WS_SEND_START,1516220632333,99
483,WS_SEND_END,1516220632333,99
483,WS_RECV_START,1516220632333,100
483,WS_RECV_END,1516220634978,100
483,PLAYER_SLEEPBEFORE_START,1516220634978,101
483,PLAYER_SLEEPBEFORE_END,1516220658537,101
483,WS_SEND_START,1516220658537,101
483,WS_SEND_END,1516220658537,101
483,WS_RECV_START,1516220658537,102
483,WS_RECV_END,1516220663556,102
483,PLAYER_SLEEPBEFORE_START,1516220663556,103
483,PLAYER_SLEEPBEFORE_END,1516220687182,103
483,WS_SEND_START,1516220687182,103
483,WS_SEND_END,1516220687182,103
483,WS_RECV_START,1516220687182,104
483,WS_RECV_END,1516220694218,104
483,PLAYER_SLEEPBEFORE_START,1516220694218,105
483,PLAYER_SLEEPBEFORE_END,1516220719595,105
483,WS_SEND_START,1516220719596,105
483,WS_SEND_END,1516220719596,105
483,WS_RECV_START,1516220719596,106
483,WS_RECV_END,1516220725214,106
483,PLAYER_SLEEPBEFORE_START,1516220725214,107
483,PLAYER_SLEEPBEFORE_END,1516220748637,107
483,WS_SEND_START,1516220748637,107
483,WS_SEND_END,1516220748637,107
483,WS_RECV_START,1516220748637,108
483,WS_RECV_END,1516220754274,108
483,PLAYER_SLEEPBEFORE_START,1516220754274,109
483,PLAYER_SLEEPBEFORE_END,1516220754283,109
483,WS_SEND_START,1516220754283,109
483,WS_SEND_END,1516220754283,109
483,WS_RECV_START,1516220754283,110
483,WS_RECV_END,1516220756959,110
483,PLAYER_SLEEPBEFORE_START,1516220756959,111
483,PLAYER_SLEEPBEFORE_END,1516220757919,111
483,WS_SEND_START,1516220757919,111
483,WS_SEND_END,1516220757919,111
483,WS_RECV_START,1516220757919,112
483,WS_RECV_END,1516220760838,112
483,PLAYER_SLEEPBEFORE_START,1516220760838,113
483,PLAYER_SLEEPBEFORE_END,1516220761400,113
483,WS_SEND_START,1516220761400,113
483,WS_SEND_END,1516220761400,113
483,WS_RECV_START,1516220761400,114
483,WS_RECV_END,1516220763978,114
483,PLAYER_SLEEPBEFORE_START,1516220763978,115
483,PLAYER_SLEEPBEFORE_END,1516220763987,115
483,WS_SEND_START,1516220763987,115
483,WS_SEND_END,1516220763987,115
483,WS_RECV_START,1516220763987,116
483,WS_RECV_END,1516220768284,116
483,PLAYER_SLEEPBEFORE_START,1516220768284,117
483,PLAYER_SLEEPBEFORE_END,1516220788644,117
483,WS_SEND_START,1516220788644,117
483,WS_SEND_END,1516220788644,117
483,PLAYER_SLEEPBEFORE_START,1516220788644,118
483,PLAYER_SLEEPBEFORE_END,1516220792396,118
483,WS_SEND_START,1516220792396,118
483,WS_SEND_END,1516220792396,118
483,WS_RECV_START,1516220792396,119
483,WS_RECV_END,1516220797067,119
483,PLAYER_SLEEPBEFORE_START,1516220797067,120
483,PLAYER_SLEEPBEFORE_END,1516220798055,120
483,WS_SEND_START,1516220798055,120
483,WS_SEND_END,1516220798055,120
483,WS_RECV_START,1516220798055,121
483,WS_RECV_END,1516220800694,121
483,PLAYER_SLEEPBEFORE_START,1516220800694,122
483,PLAYER_SLEEPBEFORE_END,1516220801879,122
483,WS_SEND_START,1516220801879,122
483,WS_SEND_END,1516220801879,122
483,WS_RECV_START,1516220801879,123
483,WS_RECV_END,1516220805547,123
483,PLAYER_SLEEPBEFORE_START,1516220805547,124
483,PLAYER_SLEEPBEFORE_END,1516220829952,124
483,WS_SEND_START,1516220829952,124
483,WS_SEND_END,1516220829952,124
483,WS_RECV_START,1516220829952,125
483,WS_RECV_END,1516220833452,125
483,PLAYER_SLEEPBEFORE_START,1516220833452,126
483,PLAYER_SLEEPBEFORE_END,1516220853964,126
483,WS_SEND_START,1516220853964,126
483,WS_SEND_END,1516220853964,126
483,PLAYER_SLEEPBEFORE_START,1516220853964,127
483,PLAYER_SLEEPBEFORE_END,1516220857019,127
483,WS_SEND_START,1516220857019,127
483,WS_SEND_END,1516220857019,127
483,WS_RECV_START,1516220857019,128
483,WS_RECV_END,1516220859954,128
483,PLAYER_SLEEPBEFORE_START,1516220859954,129
483,PLAYER_SLEEPBEFORE_END,1516220859974,129
483,WS_SEND_START,1516220859974,129
483,WS_SEND_END,1516220859974,129
483,WS_RECV_START,1516220859974,130
483,WS_RECV_END,1516220864080,130
483,PLAYER_SLEEPBEFORE_START,1516220864080,131
483,PLAYER_SLEEPBEFORE_END,1516220885704,131
483,WS_SEND_START,1516220885704,131
483,WS_SEND_END,1516220885704,131
483,PLAYER_SLEEPBEFORE_START,1516220885704,132
483,PLAYER_SLEEPBEFORE_END,1516220888785,132
483,WS_SEND_START,1516220888785,132
483,WS_SEND_END,1516220888785,132
483,WS_RECV_START,1516220888785,133
483,WS_RECV_END,1516220891996,133
483,PLAYER_SLEEPBEFORE_START,1516220891996,134
483,PLAYER_SLEEPBEFORE_END,1516220913213,134
483,WS_SEND_START,1516220913213,134
483,WS_SEND_END,1516220913213,134
483,PLAYER_SLEEPBEFORE_START,1516220913213,135
483,PLAYER_SLEEPBEFORE_END,1516220916403,135
483,WS_SEND_START,1516220916403,135
483,WS_SEND_END,1516220916403,135
483,WS_RECV_START,1516220916403,136
483,WS_RECV_END,1516220920127,136
483,PLAYER_SLEEPBEFORE_START,1516220920127,137
483,PLAYER_SLEEPBEFORE_END,1516220920134,137
483,WS_SEND_START,1516220920134,137
483,WS_SEND_END,1516220920134,137
483,WS_RECV_START,1516220920134,138
483,WS_RECV_END,1516220923935,138
483,PLAYER_SLEEPBEFORE_START,1516220923935,139
483,PLAYER_SLEEPBEFORE_END,1516220924625,139
483,WS_SEND_START,1516220924625,139
483,WS_SEND_END,1516220924625,139
483,WS_RECV_START,1516220924625,140
483,WS_RECV_END,1516220929264,140
483,PLAYER_SLEEPBEFORE_START,1516220929264,141
483,PLAYER_SLEEPBEFORE_END,1516220929920,141
483,WS_SEND_START,1516220929920,141
483,WS_SEND_END,1516220929920,141
483,WS_RECV_START,1516220929920,142
483,WS_RECV_END,1516220932957,142
483,PLAYER_SLEEPBEFORE_START,1516220932957,143
483,PLAYER_SLEEPBEFORE_END,1516220933014,143
483,WS_SEND_START,1516220933014,143
483,WS_SEND_END,1516220933014,143
483,WS_RECV_START,1516220933014,144
483,WS_RECV_END,1516220938207,144
483,PLAYER_SLEEPBEFORE_START,1516220938207,145
483,PLAYER_SLEEPBEFORE_END,1516220954269,145
483,REQ_START,1516220954269,145
483,REQ_END,1516220954278,145
483,PLAYER_SLEEPBEFORE_START,1516220954278,146
483,PLAYER_SLEEPBEFORE_END,1516220963155,146
483,WS_SEND_START,1516220963155,146
483,WS_SEND_END,1516220963155,146
483,WS_RECV_START,1516220963155,147
483,WS_RECV_END,1516220972173,147
483,PLAYER_SLEEPBEFORE_START,1516220972173,148
483,PLAYER_SLEEPBEFORE_END,1516220994095,148
483,WS_SEND_START,1516220994095,148
483,WS_SEND_END,1516220994095,148
483,PLAYER_SLEEPBEFORE_START,1516220994095,149
483,PLAYER_SLEEPBEFORE_END,1516220996523,149
483,WS_SEND_START,1516220996523,149
483,WS_SEND_END,1516220996524,149
483,WS_RECV_START,1516220996524,150
483,WS_RECV_END,1516221003192,150
483,PLAYER_SLEEPBEFORE_START,1516221003192,151
483,PLAYER_SLEEPBEFORE_END,1516221003403,151
483,WS_SEND_START,1516221003403,151
483,WS_SEND_END,1516221003403,151
483,WS_RECV_START,1516221003403,152
483,WS_RECV_END,1516221008328,152
483,PLAYER_SLEEPBEFORE_START,1516221008328,153
483,PLAYER_SLEEPBEFORE_END,1516221032255,153
483,WS_SEND_START,1516221032255,153
483,WS_SEND_END,1516221032255,153
483,WS_RECV_START,1516221032255,154
483,WS_RECV_END,1516221040416,154
483,PLAYER_SLEEPBEFORE_START,1516221040416,155
483,PLAYER_SLEEPBEFORE_END,1516221062974,155
483,WS_SEND_START,1516221062974,155
483,WS_SEND_END,1516221062974,155
483,PLAYER_SLEEPBEFORE_START,1516221062974,156
483,PLAYER_SLEEPBEFORE_END,1516221066248,156
483,WS_SEND_START,1516221066248,156
483,WS_SEND_END,1516221066248,156
483,WS_RECV_START,1516221066248,157
483,WS_RECV_END,1516221069387,157
483,PLAYER_SLEEPBEFORE_START,1516221069387,158
483,PLAYER_SLEEPBEFORE_END,1516221069397,158
483,WS_SEND_START,1516221069397,158
483,WS_SEND_END,1516221069397,158
483,WS_RECV_START,1516221069397,159
483,WS_RECV_END,1516221073403,159
483,PLAYER_SLEEPBEFORE_START,1516221073403,160
483,PLAYER_SLEEPBEFORE_END,1516221073578,160
483,WS_SEND_START,1516221073578,160
483,WS_SEND_END,1516221073578,160
483,WS_RECV_START,1516221073578,161
483,WS_RECV_END,1516221078645,161
483,PLAYER_SLEEPBEFORE_START,1516221078645,162
483,PLAYER_SLEEPBEFORE_END,1516221078670,162
483,WS_SEND_START,1516221078670,162
483,WS_SEND_END,1516221078670,162
483,WS_RECV_START,1516221078670,163
483,WS_RECV_END,1516221083102,163
483,PLAYER_SLEEPBEFORE_START,1516221083102,164
483,PLAYER_SLEEPBEFORE_END,1516221103914,164
483,WS_SEND_START,1516221103914,164
483,WS_SEND_END,1516221103914,164
483,WS_RECV_START,1516221103914,165
483,WS_RECV_END,1516221110551,165
483,PLAYER_SLEEPBEFORE_START,1516221110551,166
483,PLAYER_SLEEPBEFORE_END,1516221133006,166
483,WS_SEND_START,1516221133006,166
483,WS_SEND_END,1516221133006,166
483,WS_RECV_START,1516221133006,167
483,WS_RECV_END,1516221137874,167
483,PLAYER_SLEEPBEFORE_START,1516221137874,168
483,PLAYER_SLEEPBEFORE_END,1516221165231,168
483,WS_SEND_START,1516221165231,168
483,WS_SEND_END,1516221165231,168
483,WS_RECV_START,1516221165231,169
483,WS_RECV_END,1516221166119,169
483,PLAYER_SLEEPBEFORE_START,1516221166119,170
483,PLAYER_SLEEPBEFORE_END,1516221166128,170
483,WS_SEND_START,1516221166128,170
483,WS_SEND_END,1516221166128,170
483,WS_RECV_START,1516221166128,171
483,WS_RECV_END,1516221166311,171
483,PLAYER_SLEEPBEFORE_START,1516221166311,172
483,PLAYER_SLEEPBEFORE_END,1516221166680,172
483,WS_SEND_START,1516221166680,172
483,WS_SEND_END,1516221166680,172
483,WS_RECV_START,1516221166681,173
483,WS_RECV_END,1516221167361,173
483,PLAYER_SLEEPBEFORE_START,1516221167361,174
483,PLAYER_SLEEPBEFORE_END,1516221167402,174
483,WS_SEND_START,1516221167402,174
483,WS_SEND_END,1516221167402,174
483,WS_RECV_START,1516221167402,175
483,WS_RECV_END,1516221168626,175
483,PLAYER_SLEEPBEFORE_START,1516221168626,176
483,PLAYER_SLEEPBEFORE_END,1516221190387,176
483,WS_SEND_START,1516221190387,176
483,WS_SEND_END,1516221190387,176
483,PLAYER_SLEEPBEFORE_START,1516221190387,177
483,PLAYER_SLEEPBEFORE_END,1516221192905,177
483,WS_SEND_START,1516221192905,177
483,WS_SEND_END,1516221192905,177
483,WS_RECV_START,1516221192905,178
483,WS_RECV_END,1516221193186,178
483,PLAYER_SLEEPBEFORE_START,1516221193186,179
483,PLAYER_SLEEPBEFORE_END,1516221215526,179
483,WS_SEND_START,1516221215526,179
483,WS_SEND_END,1516221215526,179
483,WS_RECV_START,1516221215526,180
483,WS_RECV_END,1516221215652,180
483,PLAYER_SLEEPBEFORE_START,1516221215652,181
483,PLAYER_SLEEPBEFORE_END,1516221216096,181
483,WS_SEND_START,1516221216096,181
483,WS_SEND_END,1516221216096,181
483,WS_RECV_START,1516221216096,182
483,WS_RECV_END,1516221216355,182
483,PLAYER_SLEEPBEFORE_START,1516221216355,183
483,PLAYER_SLEEPBEFORE_END,1516221216878,183
483,WS_SEND_START,1516221216878,183
483,WS_SEND_END,1516221216878,183
483,WS_RECV_START,1516221216878,184
483,WS_RECV_END,1516221217093,184
483,PLAYER_SLEEPBEFORE_START,1516221217093,185
483,PLAYER_SLEEPBEFORE_END,1516221217361,185
483,WS_SEND_START,1516221217361,185
483,WS_SEND_END,1516221217361,185
483,WS_RECV_START,1516221217361,186
483,WS_RECV_END,1516221217515,186
483,PLAYER_SLEEPBEFORE_START,1516221217515,187
483,PLAYER_SLEEPBEFORE_END,1516221240015,187
483,WS_SEND_START,1516221240015,187
483,WS_SEND_END,1516221240015,187
483,WS_RECV_START,1516221240015,188
483,WS_RECV_END,1516221240105,188
483,PLAYER_SLEEPBEFORE_START,1516221240105,189
483,PLAYER_SLEEPBEFORE_END,1516221246344,189
483,WS_SEND_START,1516221246344,189
483,WS_SEND_END,1516221246344,189
483,WS_RECV_START,1516221246344,190
483,WS_RECV_END,1516221246584,190
483,PLAYER_SLEEPBEFORE_START,1516221246584,191
483,PLAYER_SLEEPBEFORE_END,1516221248499,191
483,WS_SEND_START,1516221248499,191
483,WS_SEND_END,1516221248499,191
483,WS_RECV_START,1516221248499,192
483,WS_RECV_END,1516221248680,192
483,PLAYER_SLEEPBEFORE_START,1516221248680,193
483,PLAYER_SLEEPBEFORE_END,1516221248808,193
483,WS_SEND_START,1516221248808,193
483,WS_SEND_END,1516221248808,193
483,WS_RECV_START,1516221248808,194
483,WS_RECV_END,1516221249098,194
483,PLAYER_SLEEPBEFORE_START,1516221249098,195
483,PLAYER_SLEEPBEFORE_END,1516221250854,195
483,WS_SEND_START,1516221250854,195
483,WS_SEND_END,1516221250854,195
483,WS_RECV_START,1516221250854,196
483,WS_RECV_END,1516221251024,196
483,PLAYER_SLEEPBEFORE_START,1516221251024,197
483,PLAYER_SLEEPBEFORE_END,1516221252828,197
483,WS_SEND_START,1516221252828,197
483,WS_SEND_END,1516221252828,197
483,WS_RECV_START,1516221252828,198
483,WS_RECV_END,1516221252981,198
483,PLAYER_SLEEPBEFORE_START,1516221252981,199
483,PLAYER_SLEEPBEFORE_END,1516221264835,199
483,WS_SEND_START,1516221264835,199
483,WS_SEND_END,1516221264835,199
483,PLAYER_SLEEPBEFORE_START,1516221264835,200
483,PLAYER_SLEEPBEFORE_END,1516221268923,200
483,WS_SEND_START,1516221268923,200
483,WS_SEND_END,1516221268923,200
483,WS_RECV_START,1516221268923,201
483,WS_RECV_END,1516221269059,201
483,PLAYER_SLEEPBEFORE_START,1516221269059,202
483,PLAYER_SLEEPBEFORE_END,1516221269074,202
483,WS_SEND_START,1516221269074,202
483,WS_SEND_END,1516221269074,202
483,WS_RECV_START,1516221269074,203
483,WS_RECV_END,1516221269202,203
483,PLAYER_SLEEPBEFORE_START,1516221269202,204
483,PLAYER_SLEEPBEFORE_END,1516221288851,204
483,WS_SEND_START,1516221288851,204
483,WS_SEND_END,1516221288851,204
483,PLAYER_SLEEPBEFORE_START,1516221288851,205
483,PLAYER_SLEEPBEFORE_END,1516221292749,205
483,WS_SEND_START,1516221292749,205
483,WS_SEND_END,1516221292750,205
483,WS_RECV_START,1516221292750,206
483,WS_RECV_END,1516221292898,206
483,PLAYER_SLEEPBEFORE_START,1516221292898,207
483,PLAYER_SLEEPBEFORE_END,1516221309829,207
483,REQ_START,1516221309829,207
483,REQ_END,1516221309845,207
483,PLAYER_SLEEPBEFORE_START,1516221309845,208
483,PLAYER_SLEEPBEFORE_END,1516221316697,208
483,WS_CLOSE_START,1516221316697,208
483,WS_CLOSE_END,1516221316697,208
483,PLAYER_DONE,1516221316697
