# --sessions 540 --app-url=http://shinyloadtest.rstudioservices.com/cran_explorer --output-dir test540 --overwrite-output --log-level warn --start-interval 500 15min.log
thread_id,event,timestamp,input_line_number,comment
89,PLAYER_SESSION_CREATE,1516219954838
89,PLAYER_START_INTERVAL_START,1516219954838
89,PLAYER_START_INTERVAL_END,1516219999339
89,REQ_HOME_START,1516219999339,2
89,REQ_HOME_END,1516219999437,2
89,REQ_START,1516219999437,3
89,REQ_END,1516219999468,3
89,REQ_START,1516219999468,4
89,REQ_END,1516219999499,4
89,REQ_START,1516219999499,5
89,REQ_END,1516219999533,5
89,REQ_START,1516219999533,6
89,REQ_END,1516219999608,6
89,REQ_START,1516219999608,7
89,REQ_END,1516219999640,7
89,REQ_START,1516219999640,8
89,REQ_END,1516219999673,8
89,REQ_START,1516219999673,9
89,REQ_END,1516219999705,9
89,REQ_START,1516219999705,10
89,REQ_END,1516219999713,10
89,REQ_START,1516219999713,11
89,REQ_END,1516219999742,11
89,REQ_START,1516219999742,12
89,REQ_END,1516219999752,12
89,REQ_START,1516219999752,13
89,REQ_END,1516219999783,13
89,REQ_START,1516219999783,14
89,REQ_END,1516219999798,14
89,REQ_START,1516219999798,15
89,REQ_END,1516219999831,15
89,REQ_TOK_START,1516219999831,16
89,REQ_TOK_END,1516219999838,16
89,REQ_SINF_START,1516219999838,17
89,REQ_SINF_END,1516219999845,17
89,WS_OPEN_START,1516219999845,18
89,WS_OPEN_END,1516219999851,18
89,REQ_START,1516219999851,19
89,REQ_END,1516219999878,19
89,WS_RECV_START,1516219999878,20
89,WS_RECV_END,1516219999878,20
89,PLAYER_SLEEPBEFORE_START,1516219999878,21
89,PLAYER_SLEEPBEFORE_END,1516219999884,21
89,WS_SEND_START,1516219999884,21
89,WS_SEND_END,1516219999884,21
89,PLAYER_SLEEPBEFORE_START,1516219999884,22
89,PLAYER_SLEEPBEFORE_END,1516219999885,22
89,WS_SEND_START,1516219999885,22
89,WS_SEND_END,1516219999885,22
89,WS_RECV_INIT_START,1516219999885,23
89,WS_RECV_INIT_END,1516219999901,23
89,WS_RECV_START,1516219999901,24
89,WS_RECV_END,1516219999950,24
89,PLAYER_SLEEPBEFORE_START,1516219999950,25
89,PLAYER_SLEEPBEFORE_END,1516219999957,25
89,REQ_START,1516219999957,25
89,REQ_END,1516219999989,25
89,PLAYER_SLEEPBEFORE_START,1516219999989,26
89,PLAYER_SLEEPBEFORE_END,1516219999990,26
89,REQ_START,1516219999990,26
89,REQ_END,1516220000021,26
89,PLAYER_SLEEPBEFORE_START,1516220000021,27
89,PLAYER_SLEEPBEFORE_END,1516220000025,27
89,REQ_START,1516220000025,27
89,REQ_END,1516220000056,27
89,PLAYER_SLEEPBEFORE_START,1516220000056,28
89,PLAYER_SLEEPBEFORE_END,1516220000341,28
89,REQ_START,1516220000341,28
89,REQ_END,1516220000450,28
89,PLAYER_SLEEPBEFORE_START,1516220000450,29
89,PLAYER_SLEEPBEFORE_END,1516220000626,29
89,WS_SEND_START,1516220000626,29
89,WS_SEND_END,1516220000626,29
89,WS_RECV_START,1516220000626,30
89,WS_RECV_END,1516220000748,30
89,PLAYER_SLEEPBEFORE_START,1516220000748,31
89,PLAYER_SLEEPBEFORE_END,1516220000759,31
89,REQ_START,1516220000759,31
89,REQ_END,1516220000838,31
89,PLAYER_SLEEPBEFORE_START,1516220000838,32
89,PLAYER_SLEEPBEFORE_END,1516220028983,32
89,WS_SEND_START,1516220028983,32
89,WS_SEND_END,1516220028983,32
89,WS_RECV_START,1516220028983,33
89,WS_RECV_END,1516220029095,33
89,PLAYER_SLEEPBEFORE_START,1516220029095,34
89,PLAYER_SLEEPBEFORE_END,1516220055006,34
89,WS_SEND_START,1516220055006,34
89,WS_SEND_END,1516220055006,34
89,WS_RECV_START,1516220055006,35
89,WS_RECV_END,1516220055113,35
89,PLAYER_SLEEPBEFORE_START,1516220055113,36
89,PLAYER_SLEEPBEFORE_END,1516220055122,36
89,WS_SEND_START,1516220055122,36
89,WS_SEND_END,1516220055122,36
89,WS_RECV_START,1516220055122,37
89,WS_RECV_END,1516220055176,37
89,PLAYER_SLEEPBEFORE_START,1516220055176,38
89,PLAYER_SLEEPBEFORE_END,1516220058371,38
89,WS_SEND_START,1516220058371,38
89,WS_SEND_END,1516220058371,38
89,WS_RECV_START,1516220058371,39
89,WS_RECV_END,1516220058488,39
89,PLAYER_SLEEPBEFORE_START,1516220058488,40
89,PLAYER_SLEEPBEFORE_END,1516220058534,40
89,WS_SEND_START,1516220058534,40
89,WS_SEND_END,1516220058534,40
89,WS_RECV_START,1516220058534,41
89,WS_RECV_END,1516220058694,41
89,PLAYER_SLEEPBEFORE_START,1516220058694,42
89,PLAYER_SLEEPBEFORE_END,1516220076830,42
89,WS_SEND_START,1516220076830,42
89,WS_SEND_END,1516220076830,42
89,WS_RECV_START,1516220076830,43
89,WS_RECV_END,1516220076893,43
89,PLAYER_SLEEPBEFORE_START,1516220076893,44
89,PLAYER_SLEEPBEFORE_END,1516220076906,44
89,WS_SEND_START,1516220076906,44
89,WS_SEND_END,1516220076906,44
89,WS_RECV_START,1516220076906,45
89,WS_RECV_END,1516220076956,45
89,PLAYER_SLEEPBEFORE_START,1516220076956,46
89,PLAYER_SLEEPBEFORE_END,1516220078217,46
89,WS_SEND_START,1516220078217,46
89,WS_SEND_END,1516220078217,46
89,WS_RECV_START,1516220078217,47
89,WS_RECV_END,1516220078309,47
89,PLAYER_SLEEPBEFORE_START,1516220078309,48
89,PLAYER_SLEEPBEFORE_END,1516220079630,48
89,WS_SEND_START,1516220079630,48
89,WS_SEND_END,1516220079630,48
89,WS_RECV_START,1516220079630,49
89,WS_RECV_END,1516220079762,49
89,PLAYER_SLEEPBEFORE_START,1516220079762,50
89,PLAYER_SLEEPBEFORE_END,1516220079786,50
89,WS_SEND_START,1516220079786,50
89,WS_SEND_END,1516220079787,50
89,WS_RECV_START,1516220079787,51
89,WS_RECV_END,1516220080006,51
89,PLAYER_SLEEPBEFORE_START,1516220080007,52
89,PLAYER_SLEEPBEFORE_END,1516220102571,52
89,WS_SEND_START,1516220102571,52
89,WS_SEND_END,1516220102571,52
89,WS_RECV_START,1516220102571,53
89,WS_RECV_END,1516220102822,53
89,PLAYER_SLEEPBEFORE_START,1516220102822,54
89,PLAYER_SLEEPBEFORE_END,1516220124125,54
89,WS_SEND_START,1516220124125,54
89,WS_SEND_END,1516220124125,54
89,PLAYER_SLEEPBEFORE_START,1516220124125,55
89,PLAYER_SLEEPBEFORE_END,1516220126066,55
89,WS_SEND_START,1516220126066,55
89,WS_SEND_END,1516220126066,55
89,WS_RECV_START,1516220126066,56
89,WS_RECV_END,1516220126308,56
89,PLAYER_SLEEPBEFORE_START,1516220126308,57
89,PLAYER_SLEEPBEFORE_END,1516220149180,57
89,WS_SEND_START,1516220149180,57
89,WS_SEND_END,1516220149180,57
89,WS_RECV_START,1516220149180,58
89,WS_RECV_END,1516220149426,58
89,PLAYER_SLEEPBEFORE_START,1516220149426,59
89,PLAYER_SLEEPBEFORE_END,1516220151753,59
89,WS_SEND_START,1516220151753,59
89,WS_SEND_END,1516220151753,59
89,WS_RECV_START,1516220151753,60
89,WS_RECV_END,1516220151981,60
89,PLAYER_SLEEPBEFORE_START,1516220151981,61
89,PLAYER_SLEEPBEFORE_END,1516220155572,61
89,WS_SEND_START,1516220155572,61
89,WS_SEND_END,1516220155572,61
89,WS_RECV_START,1516220155572,62
89,WS_RECV_END,1516220155769,62
89,PLAYER_SLEEPBEFORE_START,1516220155769,63
89,PLAYER_SLEEPBEFORE_END,1516220175031,63
89,WS_SEND_START,1516220175031,63
89,WS_SEND_END,1516220175031,63
89,WS_RECV_START,1516220175031,64
89,WS_RECV_END,1516220175581,64
89,PLAYER_SLEEPBEFORE_START,1516220175581,65
89,PLAYER_SLEEPBEFORE_END,1516220202398,65
89,WS_SEND_START,1516220202398,65
89,WS_SEND_END,1516220202398,65
89,WS_RECV_START,1516220202398,66
89,WS_RECV_END,1516220202763,66
89,PLAYER_SLEEPBEFORE_START,1516220202763,67
89,PLAYER_SLEEPBEFORE_END,1516220204270,67
89,WS_SEND_START,1516220204270,67
89,WS_SEND_END,1516220204270,67
89,WS_RECV_START,1516220204270,68
89,WS_RECV_END,1516220204580,68
89,PLAYER_SLEEPBEFORE_START,1516220204580,69
89,PLAYER_SLEEPBEFORE_END,1516220226578,69
89,WS_SEND_START,1516220226578,69
89,WS_SEND_END,1516220226578,69
89,WS_RECV_START,1516220226578,70
89,WS_RECV_END,1516220227633,70
89,PLAYER_SLEEPBEFORE_START,1516220227633,71
89,PLAYER_SLEEPBEFORE_END,1516220252408,71
89,WS_SEND_START,1516220252408,71
89,WS_SEND_END,1516220252408,71
89,PLAYER_SLEEPBEFORE_START,1516220252408,72
89,PLAYER_SLEEPBEFORE_END,1516220255016,72
89,WS_SEND_START,1516220255016,72
89,WS_SEND_END,1516220255016,72
89,WS_RECV_START,1516220255016,73
89,WS_RECV_END,1516220255738,73
89,PLAYER_SLEEPBEFORE_START,1516220255738,74
89,PLAYER_SLEEPBEFORE_END,1516220255747,74
89,WS_SEND_START,1516220255747,74
89,WS_SEND_END,1516220255748,74
89,WS_RECV_START,1516220255748,75
89,WS_RECV_END,1516220257494,75
89,PLAYER_SLEEPBEFORE_START,1516220257494,76
89,PLAYER_SLEEPBEFORE_END,1516220259000,76
89,WS_SEND_START,1516220259000,76
89,WS_SEND_END,1516220259000,76
89,WS_RECV_START,1516220259000,77
89,WS_RECV_END,1516220259531,77
89,PLAYER_SLEEPBEFORE_START,1516220259531,78
89,PLAYER_SLEEPBEFORE_END,1516220260399,78
89,WS_SEND_START,1516220260399,78
89,WS_SEND_END,1516220260399,78
89,WS_RECV_START,1516220260399,79
89,WS_RECV_END,1516220261976,79
89,PLAYER_SLEEPBEFORE_START,1516220261976,80
89,PLAYER_SLEEPBEFORE_END,1516220269643,80
89,WS_SEND_START,1516220269643,80
89,WS_SEND_END,1516220269643,80
89,WS_RECV_START,1516220269643,81
89,WS_RECV_END,1516220271427,81
89,PLAYER_SLEEPBEFORE_START,1516220271427,82
89,PLAYER_SLEEPBEFORE_END,1516220272529,82
89,WS_SEND_START,1516220272529,82
89,WS_SEND_END,1516220272529,82
89,WS_RECV_START,1516220272529,83
89,WS_RECV_END,1516220274637,83
89,PLAYER_SLEEPBEFORE_START,1516220274637,84
89,PLAYER_SLEEPBEFORE_END,1516220275585,84
89,WS_SEND_START,1516220275585,84
89,WS_SEND_END,1516220275585,84
89,WS_RECV_START,1516220275585,85
89,WS_RECV_END,1516220276380,85
89,PLAYER_SLEEPBEFORE_START,1516220276380,86
89,PLAYER_SLEEPBEFORE_END,1516220280552,86
89,WS_SEND_START,1516220280552,86
89,WS_SEND_END,1516220280552,86
89,WS_RECV_START,1516220280552,87
89,WS_RECV_END,1516220282218,87
89,PLAYER_SLEEPBEFORE_START,1516220282218,88
89,PLAYER_SLEEPBEFORE_END,1516220282226,88
89,WS_SEND_START,1516220282226,88
89,WS_SEND_END,1516220282226,88
89,WS_RECV_START,1516220282226,89
89,WS_RECV_END,1516220283382,89
89,PLAYER_SLEEPBEFORE_START,1516220283382,90
89,PLAYER_SLEEPBEFORE_END,1516220310579,90
89,REQ_START,1516220310579,90
89,REQ_END,1516220310587,90
89,PLAYER_SLEEPBEFORE_START,1516220310587,91
89,PLAYER_SLEEPBEFORE_END,1516220318477,91
89,WS_SEND_START,1516220318477,91
89,WS_SEND_END,1516220318477,91
89,WS_RECV_START,1516220318477,92
89,WS_RECV_END,1516220319956,92
89,PLAYER_SLEEPBEFORE_START,1516220319956,93
89,PLAYER_SLEEPBEFORE_END,1516220319972,93
89,WS_SEND_START,1516220319972,93
89,WS_SEND_END,1516220319972,93
89,WS_RECV_START,1516220319972,94
89,WS_RECV_END,1516220321025,94
89,PLAYER_SLEEPBEFORE_START,1516220321025,95
89,PLAYER_SLEEPBEFORE_END,1516220344580,95
89,WS_SEND_START,1516220344580,95
89,WS_SEND_END,1516220344580,95
89,WS_RECV_START,1516220344580,96
89,WS_RECV_END,1516220347791,96
89,PLAYER_SLEEPBEFORE_START,1516220347791,97
89,PLAYER_SLEEPBEFORE_END,1516220370231,97
89,WS_SEND_START,1516220370231,97
89,WS_SEND_END,1516220370231,97
89,WS_RECV_START,1516220370231,98
89,WS_RECV_END,1516220373590,98
89,PLAYER_SLEEPBEFORE_START,1516220373590,99
89,PLAYER_SLEEPBEFORE_END,1516220373611,99
89,WS_SEND_START,1516220373611,99
89,WS_SEND_END,1516220373611,99
89,WS_RECV_START,1516220373611,100
89,WS_RECV_END,1516220374884,100
89,PLAYER_SLEEPBEFORE_START,1516220374884,101
89,PLAYER_SLEEPBEFORE_END,1516220398443,101
89,WS_SEND_START,1516220398443,101
89,WS_SEND_END,1516220398443,101
89,WS_RECV_START,1516220398443,102
89,WS_RECV_END,1516220400471,102
89,PLAYER_SLEEPBEFORE_START,1516220400471,103
89,PLAYER_SLEEPBEFORE_END,1516220424097,103
89,WS_SEND_START,1516220424097,103
89,WS_SEND_END,1516220424097,103
89,WS_RECV_START,1516220424097,104
89,WS_RECV_END,1516220425873,104
89,PLAYER_SLEEPBEFORE_START,1516220425873,105
89,PLAYER_SLEEPBEFORE_END,1516220451250,105
89,WS_SEND_START,1516220451250,105
89,WS_SEND_END,1516220451250,105
89,WS_RECV_START,1516220451250,106
89,WS_RECV_END,1516220454331,106
89,PLAYER_SLEEPBEFORE_START,1516220454331,107
89,PLAYER_SLEEPBEFORE_END,1516220477754,107
89,WS_SEND_START,1516220477754,107
89,WS_SEND_END,1516220477754,107
89,WS_RECV_START,1516220477754,108
89,WS_RECV_END,1516220480602,108
89,PLAYER_SLEEPBEFORE_START,1516220480602,109
89,PLAYER_SLEEPBEFORE_END,1516220480611,109
89,WS_SEND_START,1516220480611,109
89,WS_SEND_END,1516220480611,109
89,WS_RECV_START,1516220480611,110
89,WS_RECV_END,1516220482407,110
89,PLAYER_SLEEPBEFORE_START,1516220482407,111
89,PLAYER_SLEEPBEFORE_END,1516220483367,111
89,WS_SEND_START,1516220483367,111
89,WS_SEND_END,1516220483367,111
89,WS_RECV_START,1516220483367,112
89,WS_RECV_END,1516220484900,112
89,PLAYER_SLEEPBEFORE_START,1516220484900,113
89,PLAYER_SLEEPBEFORE_END,1516220485462,113
89,WS_SEND_START,1516220485462,113
89,WS_SEND_END,1516220485462,113
89,WS_RECV_START,1516220485462,114
89,WS_RECV_END,1516220487706,114
89,PLAYER_SLEEPBEFORE_START,1516220487706,115
89,PLAYER_SLEEPBEFORE_END,1516220487715,115
89,WS_SEND_START,1516220487715,115
89,WS_SEND_END,1516220487715,115
89,WS_RECV_START,1516220487715,116
89,WS_RECV_END,1516220489680,116
89,PLAYER_SLEEPBEFORE_START,1516220489680,117
89,PLAYER_SLEEPBEFORE_END,1516220510040,117
89,WS_SEND_START,1516220510040,117
89,WS_SEND_END,1516220510040,117
89,PLAYER_SLEEPBEFORE_START,1516220510040,118
89,PLAYER_SLEEPBEFORE_END,1516220513792,118
89,WS_SEND_START,1516220513792,118
89,WS_SEND_END,1516220513792,118
89,WS_RECV_START,1516220513792,119
89,WS_RECV_END,1516220514153,119
89,PLAYER_SLEEPBEFORE_START,1516220514153,120
89,PLAYER_SLEEPBEFORE_END,1516220515141,120
89,WS_SEND_START,1516220515141,120
89,WS_SEND_END,1516220515141,120
89,WS_RECV_START,1516220515141,121
89,WS_RECV_END,1516220520734,121
89,PLAYER_SLEEPBEFORE_START,1516220520734,122
89,PLAYER_SLEEPBEFORE_END,1516220521919,122
89,WS_SEND_START,1516220521919,122
89,WS_SEND_END,1516220521919,122
89,WS_RECV_START,1516220521919,123
89,WS_RECV_END,1516220523439,123
89,PLAYER_SLEEPBEFORE_START,1516220523439,124
89,PLAYER_SLEEPBEFORE_END,1516220547844,124
89,WS_SEND_START,1516220547844,124
89,WS_SEND_END,1516220547844,124
89,WS_RECV_START,1516220547844,125
89,WS_RECV_END,1516220554378,125
89,PLAYER_SLEEPBEFORE_START,1516220554378,126
89,PLAYER_SLEEPBEFORE_END,1516220574890,126
89,WS_SEND_START,1516220574890,126
89,WS_SEND_END,1516220574890,126
89,PLAYER_SLEEPBEFORE_START,1516220574890,127
89,PLAYER_SLEEPBEFORE_END,1516220577944,127
89,WS_SEND_START,1516220577944,127
89,WS_SEND_END,1516220577944,127
89,WS_RECV_START,1516220577944,128
89,WS_RECV_END,1516220578470,128
89,PLAYER_SLEEPBEFORE_START,1516220578470,129
89,PLAYER_SLEEPBEFORE_END,1516220578490,129
89,WS_SEND_START,1516220578490,129
89,WS_SEND_END,1516220578490,129
89,WS_RECV_START,1516220578490,130
89,WS_RECV_END,1516220580075,130
89,PLAYER_SLEEPBEFORE_START,1516220580075,131
89,PLAYER_SLEEPBEFORE_END,1516220601699,131
89,WS_SEND_START,1516220601699,131
89,WS_SEND_END,1516220601699,131
89,PLAYER_SLEEPBEFORE_START,1516220601699,132
89,PLAYER_SLEEPBEFORE_END,1516220604779,132
89,WS_SEND_START,1516220604779,132
89,WS_SEND_END,1516220604779,132
89,WS_RECV_START,1516220604779,133
89,WS_RECV_END,1516220607428,133
89,PLAYER_SLEEPBEFORE_START,1516220607428,134
89,PLAYER_SLEEPBEFORE_END,1516220628645,134
89,WS_SEND_START,1516220628645,134
89,WS_SEND_END,1516220628645,134
89,PLAYER_SLEEPBEFORE_START,1516220628645,135
89,PLAYER_SLEEPBEFORE_END,1516220631835,135
89,WS_SEND_START,1516220631835,135
89,WS_SEND_END,1516220631835,135
89,WS_RECV_START,1516220631835,136
89,WS_RECV_END,1516220635734,136
89,PLAYER_SLEEPBEFORE_START,1516220635734,137
89,PLAYER_SLEEPBEFORE_END,1516220635741,137
89,WS_SEND_START,1516220635741,137
89,WS_SEND_END,1516220635742,137
89,WS_RECV_START,1516220635742,138
89,WS_RECV_END,1516220639511,138
89,PLAYER_SLEEPBEFORE_START,1516220639511,139
89,PLAYER_SLEEPBEFORE_END,1516220640201,139
89,WS_SEND_START,1516220640201,139
89,WS_SEND_END,1516220640201,139
89,WS_RECV_START,1516220640201,140
89,WS_RECV_END,1516220642912,140
89,PLAYER_SLEEPBEFORE_START,1516220642912,141
89,PLAYER_SLEEPBEFORE_END,1516220643567,141
89,WS_SEND_START,1516220643567,141
89,WS_SEND_END,1516220643567,141
89,WS_RECV_START,1516220643567,142
89,WS_RECV_END,1516220646452,142
89,PLAYER_SLEEPBEFORE_START,1516220646452,143
89,PLAYER_SLEEPBEFORE_END,1516220646509,143
89,WS_SEND_START,1516220646509,143
89,WS_SEND_END,1516220646509,143
89,WS_RECV_START,1516220646509,144
89,WS_RECV_END,1516220650316,144
89,PLAYER_SLEEPBEFORE_START,1516220650316,145
89,PLAYER_SLEEPBEFORE_END,1516220666378,145
89,REQ_START,1516220666378,145
89,REQ_END,1516220666386,145
89,PLAYER_SLEEPBEFORE_START,1516220666386,146
89,PLAYER_SLEEPBEFORE_END,1516220675263,146
89,WS_SEND_START,1516220675263,146
89,WS_SEND_END,1516220675263,146
89,WS_RECV_START,1516220675263,147
89,WS_RECV_END,1516220679848,147
89,PLAYER_SLEEPBEFORE_START,1516220679848,148
89,PLAYER_SLEEPBEFORE_END,1516220701770,148
89,WS_SEND_START,1516220701770,148
89,WS_SEND_END,1516220701770,148
89,PLAYER_SLEEPBEFORE_START,1516220701770,149
89,PLAYER_SLEEPBEFORE_END,1516220704201,149
89,WS_SEND_START,1516220704201,149
89,WS_SEND_END,1516220704201,149
89,WS_RECV_START,1516220704201,150
89,WS_RECV_END,1516220706547,150
89,PLAYER_SLEEPBEFORE_START,1516220706547,151
89,PLAYER_SLEEPBEFORE_END,1516220706757,151
89,WS_SEND_START,1516220706757,151
89,WS_SEND_END,1516220706757,151
89,WS_RECV_START,1516220706757,152
89,WS_RECV_END,1516220708631,152
89,PLAYER_SLEEPBEFORE_START,1516220708631,153
89,PLAYER_SLEEPBEFORE_END,1516220732558,153
89,WS_SEND_START,1516220732558,153
89,WS_SEND_END,1516220732558,153
89,WS_RECV_START,1516220732558,154
89,WS_RECV_END,1516220737727,154
89,PLAYER_SLEEPBEFORE_START,1516220737727,155
89,PLAYER_SLEEPBEFORE_END,1516220760285,155
89,WS_SEND_START,1516220760285,155
89,WS_SEND_END,1516220760285,155
89,PLAYER_SLEEPBEFORE_START,1516220760285,156
89,PLAYER_SLEEPBEFORE_END,1516220763560,156
89,WS_SEND_START,1516220763560,156
89,WS_SEND_END,1516220763560,156
89,WS_RECV_START,1516220763560,157
89,WS_RECV_END,1516220766538,157
89,PLAYER_SLEEPBEFORE_START,1516220766538,158
89,PLAYER_SLEEPBEFORE_END,1516220766548,158
89,WS_SEND_START,1516220766548,158
89,WS_SEND_END,1516220766548,158
89,WS_RECV_START,1516220766548,159
89,WS_RECV_END,1516220768799,159
89,PLAYER_SLEEPBEFORE_START,1516220768799,160
89,PLAYER_SLEEPBEFORE_END,1516220768974,160
89,WS_SEND_START,1516220768974,160
89,WS_SEND_END,1516220768974,160
89,WS_RECV_START,1516220768974,161
89,WS_RECV_END,1516220772622,161
89,PLAYER_SLEEPBEFORE_START,1516220772622,162
89,PLAYER_SLEEPBEFORE_END,1516220772647,162
89,WS_SEND_START,1516220772647,162
89,WS_SEND_END,1516220772647,162
89,WS_RECV_START,1516220772647,163
89,WS_RECV_END,1516220776837,163
89,PLAYER_SLEEPBEFORE_START,1516220776837,164
89,PLAYER_SLEEPBEFORE_END,1516220797649,164
89,WS_SEND_START,1516220797649,164
89,WS_SEND_END,1516220797649,164
89,WS_RECV_START,1516220797649,165
89,WS_RECV_END,1516220801703,165
89,PLAYER_SLEEPBEFORE_START,1516220801703,166
89,PLAYER_SLEEPBEFORE_END,1516220824158,166
89,WS_SEND_START,1516220824158,166
89,WS_SEND_END,1516220824158,166
89,WS_RECV_START,1516220824158,167
89,WS_RECV_END,1516220827869,167
89,PLAYER_SLEEPBEFORE_START,1516220827869,168
89,PLAYER_SLEEPBEFORE_END,1516220855226,168
89,WS_SEND_START,1516220855226,168
89,WS_SEND_END,1516220855226,168
89,WS_RECV_START,1516220855226,169
89,WS_RECV_END,1516220859926,169
89,PLAYER_SLEEPBEFORE_START,1516220859926,170
89,PLAYER_SLEEPBEFORE_END,1516220859935,170
89,WS_SEND_START,1516220859935,170
89,WS_SEND_END,1516220859935,170
89,WS_RECV_START,1516220859935,171
89,WS_RECV_END,1516220862317,171
89,PLAYER_SLEEPBEFORE_START,1516220862317,172
89,PLAYER_SLEEPBEFORE_END,1516220862686,172
89,WS_SEND_START,1516220862686,172
89,WS_SEND_END,1516220862686,172
89,WS_RECV_START,1516220862686,173
89,WS_RECV_END,1516220865921,173
89,PLAYER_SLEEPBEFORE_START,1516220865921,174
89,PLAYER_SLEEPBEFORE_END,1516220865962,174
89,WS_SEND_START,1516220865962,174
89,WS_SEND_END,1516220865962,174
89,WS_RECV_START,1516220865962,175
89,WS_RECV_END,1516220869193,175
89,PLAYER_SLEEPBEFORE_START,1516220869193,176
89,PLAYER_SLEEPBEFORE_END,1516220890954,176
89,WS_SEND_START,1516220890954,176
89,WS_SEND_END,1516220890954,176
89,PLAYER_SLEEPBEFORE_START,1516220890954,177
89,PLAYER_SLEEPBEFORE_END,1516220893472,177
89,WS_SEND_START,1516220893472,177
89,WS_SEND_END,1516220893472,177
89,WS_RECV_START,1516220893472,178
89,WS_RECV_END,1516220898370,178
89,PLAYER_SLEEPBEFORE_START,1516220898370,179
89,PLAYER_SLEEPBEFORE_END,1516220920710,179
89,WS_SEND_START,1516220920710,179
89,WS_SEND_END,1516220920710,179
89,WS_RECV_START,1516220920710,180
89,WS_RECV_END,1516220926844,180
89,PLAYER_SLEEPBEFORE_START,1516220926844,181
89,PLAYER_SLEEPBEFORE_END,1516220927289,181
89,WS_SEND_START,1516220927289,181
89,WS_SEND_END,1516220927289,181
89,WS_RECV_START,1516220927289,182
89,WS_RECV_END,1516220932559,182
89,PLAYER_SLEEPBEFORE_START,1516220932559,183
89,PLAYER_SLEEPBEFORE_END,1516220933082,183
89,WS_SEND_START,1516220933082,183
89,WS_SEND_END,1516220933082,183
89,WS_RECV_START,1516220933082,184
89,WS_RECV_END,1516220935466,184
89,PLAYER_SLEEPBEFORE_START,1516220935466,185
89,PLAYER_SLEEPBEFORE_END,1516220935734,185
89,WS_SEND_START,1516220935734,185
89,WS_SEND_END,1516220935734,185
89,WS_RECV_START,1516220935734,186
89,WS_RECV_END,1516220940668,186
89,PLAYER_SLEEPBEFORE_START,1516220940668,187
89,PLAYER_SLEEPBEFORE_END,1516220963168,187
89,WS_SEND_START,1516220963168,187
89,WS_SEND_END,1516220963168,187
89,WS_RECV_START,1516220963168,188
89,WS_RECV_END,1516220971604,188
89,PLAYER_SLEEPBEFORE_START,1516220971604,189
89,PLAYER_SLEEPBEFORE_END,1516220977843,189
89,WS_SEND_START,1516220977843,189
89,WS_SEND_END,1516220977843,189
89,WS_RECV_START,1516220977843,190
89,WS_RECV_END,1516220984788,190
89,PLAYER_SLEEPBEFORE_START,1516220984788,191
89,PLAYER_SLEEPBEFORE_END,1516220986704,191
89,WS_SEND_START,1516220986704,191
89,WS_SEND_END,1516220986704,191
89,WS_RECV_START,1516220986704,192
89,WS_RECV_END,1516220996896,192
89,PLAYER_SLEEPBEFORE_START,1516220996896,193
89,PLAYER_SLEEPBEFORE_END,1516220997025,193
89,WS_SEND_START,1516220997025,193
89,WS_SEND_END,1516220997025,193
89,WS_RECV_START,1516220997025,194
89,WS_RECV_END,1516221001194,194
89,PLAYER_SLEEPBEFORE_START,1516221001194,195
89,PLAYER_SLEEPBEFORE_END,1516221002949,195
89,WS_SEND_START,1516221002949,195
89,WS_SEND_END,1516221002949,195
89,WS_RECV_START,1516221002949,196
89,WS_RECV_END,1516221005551,196
89,PLAYER_SLEEPBEFORE_START,1516221005551,197
89,PLAYER_SLEEPBEFORE_END,1516221007355,197
89,WS_SEND_START,1516221007355,197
89,WS_SEND_END,1516221007355,197
89,WS_RECV_START,1516221007355,198
89,WS_RECV_END,1516221011242,198
89,PLAYER_SLEEPBEFORE_START,1516221011242,199
89,PLAYER_SLEEPBEFORE_END,1516221023097,199
89,WS_SEND_START,1516221023097,199
89,WS_SEND_END,1516221023097,199
89,PLAYER_SLEEPBEFORE_START,1516221023097,200
89,PLAYER_SLEEPBEFORE_END,1516221027185,200
89,WS_SEND_START,1516221027185,200
89,WS_SEND_END,1516221027185,200
89,WS_RECV_START,1516221027185,201
89,WS_RECV_END,1516221029810,201
89,PLAYER_SLEEPBEFORE_START,1516221029810,202
89,PLAYER_SLEEPBEFORE_END,1516221029825,202
89,WS_SEND_START,1516221029825,202
89,WS_SEND_END,1516221029825,202
89,WS_RECV_START,1516221029825,203
89,WS_RECV_END,1516221034149,203
89,PLAYER_SLEEPBEFORE_START,1516221034149,204
89,PLAYER_SLEEPBEFORE_END,1516221053798,204
89,WS_SEND_START,1516221053798,204
89,WS_SEND_END,1516221053798,204
89,PLAYER_SLEEPBEFORE_START,1516221053798,205
89,PLAYER_SLEEPBEFORE_END,1516221057696,205
89,WS_SEND_START,1516221057696,205
89,WS_SEND_END,1516221057697,205
89,WS_RECV_START,1516221057697,206
89,WS_RECV_END,1516221060264,206
89,PLAYER_SLEEPBEFORE_START,1516221060264,207
89,PLAYER_SLEEPBEFORE_END,1516221077195,207
89,REQ_START,1516221077195,207
89,REQ_END,1516221077204,207
89,PLAYER_SLEEPBEFORE_START,1516221077204,208
89,PLAYER_SLEEPBEFORE_END,1516221084057,208
89,WS_CLOSE_START,1516221084057,208
89,WS_CLOSE_END,1516221084057,208
89,PLAYER_DONE,1516221084057
