# --sessions 90 --app-url=http://shinyloadtest.rstudioservices.com/cran_explorer --output-dir test90 --overwrite-output --log-level warn --start-interval 500 15min.log
thread_id,event,timestamp,input_line_number,comment
1,PLAYER_SESSION_CREATE,1516213736088
1,PLAYER_START_INTERVAL_START,1516213736088
1,PLAYER_START_INTERVAL_END,1516213736588
1,REQ_HOME_START,1516213736590,2
1,REQ_HOME_END,1516213737020,2
1,REQ_START,1516213737020,3
1,REQ_END,1516213737064,3
1,REQ_START,1516213737064,4
1,REQ_END,1516213737199,4
1,REQ_START,1516213737199,5
1,REQ_END,1516213737256,5
1,REQ_START,1516213737256,6
1,REQ_END,1516213737304,6
1,REQ_START,1516213737304,7
1,REQ_END,1516213737353,7
1,REQ_START,1516213737353,8
1,REQ_END,1516213737406,8
1,REQ_START,1516213737406,9
1,REQ_END,1516213737463,9
1,REQ_START,1516213737463,10
1,REQ_END,1516213737475,10
1,REQ_START,1516213737475,11
1,REQ_END,1516213737511,11
1,REQ_START,1516213737511,12
1,REQ_END,1516213737523,12
1,REQ_START,1516213737523,13
1,REQ_END,1516213737563,13
1,REQ_START,1516213737563,14
1,REQ_END,1516213737580,14
1,REQ_START,1516213737580,15
1,REQ_END,1516213737628,15
1,REQ_TOK_START,1516213737628,16
1,REQ_TOK_END,1516213737638,16
1,REQ_SINF_START,1516213737638,17
1,REQ_SINF_END,1516213737647,17
1,WS_OPEN_START,1516213737647,18
1,WS_OPEN_END,1516213737669,18
1,REQ_START,1516213737669,19
1,REQ_END,1516213737771,19
1,WS_RECV_START,1516213737771,20
1,WS_RECV_END,1516213737772,20
1,PLAYER_SLEEPBEFORE_START,1516213737772,21
1,PLAYER_SLEEPBEFORE_END,1516213737777,21
1,WS_SEND_START,1516213737777,21
1,WS_SEND_END,1516213737778,21
1,PLAYER_SLEEPBEFORE_START,1516213737778,22
1,PLAYER_SLEEPBEFORE_END,1516213737779,22
1,WS_SEND_START,1516213737779,22
1,WS_SEND_END,1516213737779,22
1,WS_RECV_INIT_START,1516213737779,23
1,WS_RECV_INIT_END,1516213737838,23
1,WS_RECV_START,1516213737838,24
1,WS_RECV_END,1516213737897,24
1,PLAYER_SLEEPBEFORE_START,1516213737897,25
1,PLAYER_SLEEPBEFORE_END,1516213737904,25
1,REQ_START,1516213737904,25
1,REQ_END,1516213737962,25
1,PLAYER_SLEEPBEFORE_START,1516213737962,26
1,PLAYER_SLEEPBEFORE_END,1516213737963,26
1,REQ_START,1516213737963,26
1,REQ_END,1516213738109,26
1,PLAYER_SLEEPBEFORE_START,1516213738109,27
1,PLAYER_SLEEPBEFORE_END,1516213738112,27
1,REQ_START,1516213738112,27
1,REQ_END,1516213738255,27
1,PLAYER_SLEEPBEFORE_START,1516213738255,28
1,PLAYER_SLEEPBEFORE_END,1516213738540,28
1,REQ_START,1516213738540,28
1,REQ_END,1516213738585,28
1,PLAYER_SLEEPBEFORE_START,1516213738585,29
1,PLAYER_SLEEPBEFORE_END,1516213738760,29
1,WS_SEND_START,1516213738760,29
1,WS_SEND_END,1516213738760,29
1,WS_RECV_START,1516213738760,30
1,WS_RECV_END,1516213738958,30
1,PLAYER_SLEEPBEFORE_START,1516213738958,31
1,PLAYER_SLEEPBEFORE_END,1516213738970,31
1,REQ_START,1516213738970,31
1,REQ_END,1516213739193,31
1,PLAYER_SLEEPBEFORE_START,1516213739193,32
1,PLAYER_SLEEPBEFORE_END,1516213767338,32
1,WS_SEND_START,1516213767338,32
1,WS_SEND_END,1516213767339,32
1,WS_RECV_START,1516213767339,33
1,WS_RECV_END,1516213767768,33
1,PLAYER_SLEEPBEFORE_START,1516213767768,34
1,PLAYER_SLEEPBEFORE_END,1516213793679,34
1,WS_SEND_START,1516213793679,34
1,WS_SEND_END,1516213793680,34
1,WS_RECV_START,1516213793680,35
1,WS_RECV_END,1516213794274,35
1,PLAYER_SLEEPBEFORE_START,1516213794274,36
1,PLAYER_SLEEPBEFORE_END,1516213794283,36
1,WS_SEND_START,1516213794283,36
1,WS_SEND_END,1516213794283,36
1,WS_RECV_START,1516213794283,37
1,WS_RECV_END,1516213794550,37
1,PLAYER_SLEEPBEFORE_START,1516213794550,38
1,PLAYER_SLEEPBEFORE_END,1516213797745,38
1,WS_SEND_START,1516213797745,38
1,WS_SEND_END,1516213797745,38
1,WS_RECV_START,1516213797745,39
1,WS_RECV_END,1516213798292,39
1,PLAYER_SLEEPBEFORE_START,1516213798292,40
1,PLAYER_SLEEPBEFORE_END,1516213798338,40
1,WS_SEND_START,1516213798338,40
1,WS_SEND_END,1516213798338,40
1,WS_RECV_START,1516213798338,41
1,WS_RECV_END,1516213799491,41
1,PLAYER_SLEEPBEFORE_START,1516213799491,42
1,PLAYER_SLEEPBEFORE_END,1516213817627,42
1,WS_SEND_START,1516213817627,42
1,WS_SEND_END,1516213817627,42
1,WS_RECV_START,1516213817627,43
1,WS_RECV_END,1516213817701,43
1,PLAYER_SLEEPBEFORE_START,1516213817701,44
1,PLAYER_SLEEPBEFORE_END,1516213817713,44
1,WS_SEND_START,1516213817713,44
1,WS_SEND_END,1516213817713,44
1,WS_RECV_START,1516213817713,45
1,WS_RECV_END,1516213817753,45
1,PLAYER_SLEEPBEFORE_START,1516213817753,46
1,PLAYER_SLEEPBEFORE_END,1516213819014,46
1,WS_SEND_START,1516213819014,46
1,WS_SEND_END,1516213819014,46
1,WS_RECV_START,1516213819014,47
1,WS_RECV_END,1516213819053,47
1,PLAYER_SLEEPBEFORE_START,1516213819053,48
1,PLAYER_SLEEPBEFORE_END,1516213820373,48
1,WS_SEND_START,1516213820373,48
1,WS_SEND_END,1516213820373,48
1,WS_RECV_START,1516213820373,49
1,WS_RECV_END,1516213820715,49
1,PLAYER_SLEEPBEFORE_START,1516213820715,50
1,PLAYER_SLEEPBEFORE_END,1516213820739,50
1,WS_SEND_START,1516213820739,50
1,WS_SEND_END,1516213820739,50
1,WS_RECV_START,1516213820739,51
1,WS_RECV_END,1516213821677,51
1,PLAYER_SLEEPBEFORE_START,1516213821677,52
1,PLAYER_SLEEPBEFORE_END,1516213844241,52
1,WS_SEND_START,1516213844241,52
1,WS_SEND_END,1516213844241,52
1,WS_RECV_START,1516213844241,53
1,WS_RECV_END,1516213845644,53
1,PLAYER_SLEEPBEFORE_START,1516213845644,54
1,PLAYER_SLEEPBEFORE_END,1516213866947,54
1,WS_SEND_START,1516213866947,54
1,WS_SEND_END,1516213866948,54
1,PLAYER_SLEEPBEFORE_START,1516213866948,55
1,PLAYER_SLEEPBEFORE_END,1516213868889,55
1,WS_SEND_START,1516213868889,55
1,WS_SEND_END,1516213868889,55
1,WS_RECV_START,1516213868889,56
1,WS_RECV_END,1516213869842,56
1,PLAYER_SLEEPBEFORE_START,1516213869842,57
1,PLAYER_SLEEPBEFORE_END,1516213892714,57
1,WS_SEND_START,1516213892714,57
1,WS_SEND_END,1516213892714,57
1,WS_RECV_START,1516213892714,58
1,WS_RECV_END,1516213892915,58
1,PLAYER_SLEEPBEFORE_START,1516213892915,59
1,PLAYER_SLEEPBEFORE_END,1516213895242,59
1,WS_SEND_START,1516213895242,59
1,WS_SEND_END,1516213895242,59
1,WS_RECV_START,1516213895242,60
1,WS_RECV_END,1516213895636,60
1,PLAYER_SLEEPBEFORE_START,1516213895636,61
1,PLAYER_SLEEPBEFORE_END,1516213899228,61
1,WS_SEND_START,1516213899228,61
1,WS_SEND_END,1516213899228,61
1,WS_RECV_START,1516213899228,62
1,WS_RECV_END,1516213899374,62
1,PLAYER_SLEEPBEFORE_START,1516213899374,63
1,PLAYER_SLEEPBEFORE_END,1516213918636,63
1,WS_SEND_START,1516213918636,63
1,WS_SEND_END,1516213918636,63
1,WS_RECV_START,1516213918636,64
1,WS_RECV_END,1516213918766,64
1,PLAYER_SLEEPBEFORE_START,1516213918766,65
1,PLAYER_SLEEPBEFORE_END,1516213945583,65
1,WS_SEND_START,1516213945583,65
1,WS_SEND_END,1516213945583,65
1,WS_RECV_START,1516213945583,66
1,WS_RECV_END,1516213946155,66
1,PLAYER_SLEEPBEFORE_START,1516213946155,67
1,PLAYER_SLEEPBEFORE_END,1516213947662,67
1,WS_SEND_START,1516213947662,67
1,WS_SEND_END,1516213947663,67
1,WS_RECV_START,1516213947663,68
1,WS_RECV_END,1516213947780,68
1,PLAYER_SLEEPBEFORE_START,1516213947780,69
1,PLAYER_SLEEPBEFORE_END,1516213969778,69
1,WS_SEND_START,1516213969778,69
1,WS_SEND_END,1516213969778,69
1,WS_RECV_START,1516213969778,70
1,WS_RECV_END,1516213969997,70
1,PLAYER_SLEEPBEFORE_START,1516213969997,71
1,PLAYER_SLEEPBEFORE_END,1516213994772,71
1,WS_SEND_START,1516213994772,71
1,WS_SEND_END,1516213994773,71
1,PLAYER_SLEEPBEFORE_START,1516213994773,72
1,PLAYER_SLEEPBEFORE_END,1516213997380,72
1,WS_SEND_START,1516213997380,72
1,WS_SEND_END,1516213997380,72
1,WS_RECV_START,1516213997380,73
1,WS_RECV_END,1516213997475,73
1,PLAYER_SLEEPBEFORE_START,1516213997475,74
1,PLAYER_SLEEPBEFORE_END,1516213997484,74
1,WS_SEND_START,1516213997484,74
1,WS_SEND_END,1516213997484,74
1,WS_RECV_START,1516213997484,75
1,WS_RECV_END,1516213997693,75
1,PLAYER_SLEEPBEFORE_START,1516213997693,76
1,PLAYER_SLEEPBEFORE_END,1516213999199,76
1,WS_SEND_START,1516213999199,76
1,WS_SEND_END,1516213999199,76
1,WS_RECV_START,1516213999199,77
1,WS_RECV_END,1516213999242,77
1,PLAYER_SLEEPBEFORE_START,1516213999242,78
1,PLAYER_SLEEPBEFORE_END,1516214000110,78
1,WS_SEND_START,1516214000110,78
1,WS_SEND_END,1516214000110,78
1,WS_RECV_START,1516214000110,79
1,WS_RECV_END,1516214000350,79
1,PLAYER_SLEEPBEFORE_START,1516214000350,80
1,PLAYER_SLEEPBEFORE_END,1516214008017,80
1,WS_SEND_START,1516214008017,80
1,WS_SEND_END,1516214008017,80
1,WS_RECV_START,1516214008017,81
1,WS_RECV_END,1516214008185,81
1,PLAYER_SLEEPBEFORE_START,1516214008185,82
1,PLAYER_SLEEPBEFORE_END,1516214009287,82
1,WS_SEND_START,1516214009287,82
1,WS_SEND_END,1516214009287,82
1,WS_RECV_START,1516214009287,83
1,WS_RECV_END,1516214009550,83
1,PLAYER_SLEEPBEFORE_START,1516214009550,84
1,PLAYER_SLEEPBEFORE_END,1516214010497,84
1,WS_SEND_START,1516214010497,84
1,WS_SEND_END,1516214010497,84
1,WS_RECV_START,1516214010497,85
1,WS_RECV_END,1516214011040,85
1,PLAYER_SLEEPBEFORE_START,1516214011040,86
1,PLAYER_SLEEPBEFORE_END,1516214015212,86
1,WS_SEND_START,1516214015212,86
1,WS_SEND_END,1516214015212,86
1,WS_RECV_START,1516214015212,87
1,WS_RECV_END,1516214015975,87
1,PLAYER_SLEEPBEFORE_START,1516214015975,88
1,PLAYER_SLEEPBEFORE_END,1516214015983,88
1,WS_SEND_START,1516214015984,88
1,WS_SEND_END,1516214015984,88
1,WS_RECV_START,1516214015984,89
1,WS_RECV_END,1516214016774,89
1,PLAYER_SLEEPBEFORE_START,1516214016774,90
1,PLAYER_SLEEPBEFORE_END,1516214043971,90
1,REQ_START,1516214043971,90
1,REQ_END,1516214043979,90
1,PLAYER_SLEEPBEFORE_START,1516214043979,91
1,PLAYER_SLEEPBEFORE_END,1516214051868,91
1,WS_SEND_START,1516214051868,91
1,WS_SEND_END,1516214051868,91
1,WS_RECV_START,1516214051868,92
1,WS_RECV_END,1516214051981,92
1,PLAYER_SLEEPBEFORE_START,1516214051981,93
1,PLAYER_SLEEPBEFORE_END,1516214051997,93
1,WS_SEND_START,1516214051997,93
1,WS_SEND_END,1516214051997,93
1,WS_RECV_START,1516214051997,94
1,WS_RECV_END,1516214052550,94
1,PLAYER_SLEEPBEFORE_START,1516214052550,95
1,PLAYER_SLEEPBEFORE_END,1516214076105,95
1,WS_SEND_START,1516214076105,95
1,WS_SEND_END,1516214076105,95
1,WS_RECV_START,1516214076105,96
1,WS_RECV_END,1516214077647,96
1,PLAYER_SLEEPBEFORE_START,1516214077647,97
1,PLAYER_SLEEPBEFORE_END,1516214100087,97
1,WS_SEND_START,1516214100087,97
1,WS_SEND_END,1516214100087,97
1,WS_RECV_START,1516214100087,98
1,WS_RECV_END,1516214100305,98
1,PLAYER_SLEEPBEFORE_START,1516214100305,99
1,PLAYER_SLEEPBEFORE_END,1516214100326,99
1,WS_SEND_START,1516214100326,99
1,WS_SEND_END,1516214100326,99
1,WS_RECV_START,1516214100326,100
1,WS_RECV_END,1516214100867,100
1,PLAYER_SLEEPBEFORE_START,1516214100867,101
1,PLAYER_SLEEPBEFORE_END,1516214124426,101
1,WS_SEND_START,1516214124426,101
1,WS_SEND_END,1516214124426,101
1,WS_RECV_START,1516214124426,102
1,WS_RECV_END,1516214124903,102
1,PLAYER_SLEEPBEFORE_START,1516214124904,103
1,PLAYER_SLEEPBEFORE_END,1516214148529,103
1,WS_SEND_START,1516214148529,103
1,WS_SEND_END,1516214148529,103
1,WS_RECV_START,1516214148529,104
1,WS_RECV_END,1516214148654,104
1,PLAYER_SLEEPBEFORE_START,1516214148654,105
1,PLAYER_SLEEPBEFORE_END,1516214174031,105
1,WS_SEND_START,1516214174031,105
1,WS_SEND_END,1516214174031,105
1,WS_RECV_START,1516214174031,106
1,WS_RECV_END,1516214174152,106
1,PLAYER_SLEEPBEFORE_START,1516214174152,107
1,PLAYER_SLEEPBEFORE_END,1516214197576,107
1,WS_SEND_START,1516214197576,107
1,WS_SEND_END,1516214197576,107
1,WS_RECV_START,1516214197576,108
1,WS_RECV_END,1516214197645,108
1,PLAYER_SLEEPBEFORE_START,1516214197645,109
1,PLAYER_SLEEPBEFORE_END,1516214197654,109
1,WS_SEND_START,1516214197654,109
1,WS_SEND_END,1516214197654,109
1,WS_RECV_START,1516214197654,110
1,WS_RECV_END,1516214197710,110
1,PLAYER_SLEEPBEFORE_START,1516214197710,111
1,PLAYER_SLEEPBEFORE_END,1516214198669,111
1,WS_SEND_START,1516214198669,111
1,WS_SEND_END,1516214198669,111
1,WS_RECV_START,1516214198669,112
1,WS_RECV_END,1516214198738,112
1,PLAYER_SLEEPBEFORE_START,1516214198738,113
1,PLAYER_SLEEPBEFORE_END,1516214199300,113
1,WS_SEND_START,1516214199300,113
1,WS_SEND_END,1516214199300,113
1,WS_RECV_START,1516214199300,114
1,WS_RECV_END,1516214199437,114
1,PLAYER_SLEEPBEFORE_START,1516214199437,115
1,PLAYER_SLEEPBEFORE_END,1516214199447,115
1,WS_SEND_START,1516214199447,115
1,WS_SEND_END,1516214199447,115
1,WS_RECV_START,1516214199447,116
1,WS_RECV_END,1516214199573,116
1,PLAYER_SLEEPBEFORE_START,1516214199573,117
1,PLAYER_SLEEPBEFORE_END,1516214219934,117
1,WS_SEND_START,1516214219934,117
1,WS_SEND_END,1516214219934,117
1,PLAYER_SLEEPBEFORE_START,1516214219934,118
1,PLAYER_SLEEPBEFORE_END,1516214223686,118
1,WS_SEND_START,1516214223686,118
1,WS_SEND_END,1516214223686,118
1,WS_RECV_START,1516214223686,119
1,WS_RECV_END,1516214224245,119
1,PLAYER_SLEEPBEFORE_START,1516214224245,120
1,PLAYER_SLEEPBEFORE_END,1516214225233,120
1,WS_SEND_START,1516214225233,120
1,WS_SEND_END,1516214225233,120
1,WS_RECV_START,1516214225233,121
1,WS_RECV_END,1516214225641,121
1,PLAYER_SLEEPBEFORE_START,1516214225641,122
1,PLAYER_SLEEPBEFORE_END,1516214226826,122
1,WS_SEND_START,1516214226826,122
1,WS_SEND_END,1516214226826,122
1,WS_RECV_START,1516214226826,123
1,WS_RECV_END,1516214227431,123
1,PLAYER_SLEEPBEFORE_START,1516214227431,124
1,PLAYER_SLEEPBEFORE_END,1516214251837,124
1,WS_SEND_START,1516214251837,124
1,WS_SEND_END,1516214251837,124
1,WS_RECV_START,1516214251837,125
1,WS_RECV_END,1516214254062,125
1,PLAYER_SLEEPBEFORE_START,1516214254062,126
1,PLAYER_SLEEPBEFORE_END,1516214274574,126
1,WS_SEND_START,1516214274574,126
1,WS_SEND_END,1516214274574,126
1,PLAYER_SLEEPBEFORE_START,1516214274574,127
1,PLAYER_SLEEPBEFORE_END,1516214277628,127
1,WS_SEND_START,1516214277628,127
1,WS_SEND_END,1516214277628,127
1,WS_RECV_START,1516214277628,128
1,WS_RECV_END,1516214278976,128
1,PLAYER_SLEEPBEFORE_START,1516214278976,129
1,PLAYER_SLEEPBEFORE_END,1516214278996,129
1,WS_SEND_START,1516214278996,129
1,WS_SEND_END,1516214278996,129
1,WS_RECV_START,1516214278996,130
1,WS_RECV_END,1516214279831,130
1,PLAYER_SLEEPBEFORE_START,1516214279831,131
1,PLAYER_SLEEPBEFORE_END,1516214301455,131
1,WS_SEND_START,1516214301455,131
1,WS_SEND_END,1516214301455,131
1,PLAYER_SLEEPBEFORE_START,1516214301455,132
1,PLAYER_SLEEPBEFORE_END,1516214304535,132
1,WS_SEND_START,1516214304535,132
1,WS_SEND_END,1516214304535,132
1,WS_RECV_START,1516214304535,133
1,WS_RECV_END,1516214305800,133
1,PLAYER_SLEEPBEFORE_START,1516214305800,134
1,PLAYER_SLEEPBEFORE_END,1516214327017,134
1,WS_SEND_START,1516214327017,134
1,WS_SEND_END,1516214327017,134
1,PLAYER_SLEEPBEFORE_START,1516214327017,135
1,PLAYER_SLEEPBEFORE_END,1516214330207,135
1,WS_SEND_START,1516214330207,135
1,WS_SEND_END,1516214330207,135
1,WS_RECV_START,1516214330207,136
1,WS_RECV_END,1516214330529,136
1,PLAYER_SLEEPBEFORE_START,1516214330529,137
1,PLAYER_SLEEPBEFORE_END,1516214330536,137
1,WS_SEND_START,1516214330536,137
1,WS_SEND_END,1516214330536,137
1,WS_RECV_START,1516214330536,138
1,WS_RECV_END,1516214330583,138
1,PLAYER_SLEEPBEFORE_START,1516214330584,139
1,PLAYER_SLEEPBEFORE_END,1516214331274,139
1,WS_SEND_START,1516214331274,139
1,WS_SEND_END,1516214331274,139
1,WS_RECV_START,1516214331274,140
1,WS_RECV_END,1516214331428,140
1,PLAYER_SLEEPBEFORE_START,1516214331428,141
1,PLAYER_SLEEPBEFORE_END,1516214332084,141
1,WS_SEND_START,1516214332084,141
1,WS_SEND_END,1516214332084,141
1,WS_RECV_START,1516214332084,142
1,WS_RECV_END,1516214332308,142
1,PLAYER_SLEEPBEFORE_START,1516214332308,143
1,PLAYER_SLEEPBEFORE_END,1516214332365,143
1,WS_SEND_START,1516214332365,143
1,WS_SEND_END,1516214332366,143
1,WS_RECV_START,1516214332366,144
1,WS_RECV_END,1516214332493,144
1,PLAYER_SLEEPBEFORE_START,1516214332493,145
1,PLAYER_SLEEPBEFORE_END,1516214348556,145
1,REQ_START,1516214348556,145
1,REQ_END,1516214348564,145
1,PLAYER_SLEEPBEFORE_START,1516214348564,146
1,PLAYER_SLEEPBEFORE_END,1516214357441,146
1,WS_SEND_START,1516214357441,146
1,WS_SEND_END,1516214357441,146
1,WS_RECV_START,1516214357441,147
1,WS_RECV_END,1516214358159,147
1,PLAYER_SLEEPBEFORE_START,1516214358159,148
1,PLAYER_SLEEPBEFORE_END,1516214380081,148
1,WS_SEND_START,1516214380081,148
1,WS_SEND_END,1516214380081,148
1,PLAYER_SLEEPBEFORE_START,1516214380081,149
1,PLAYER_SLEEPBEFORE_END,1516214382509,149
1,WS_SEND_START,1516214382509,149
1,WS_SEND_END,1516214382509,149
1,WS_RECV_START,1516214382509,150
1,WS_RECV_END,1516214382660,150
1,PLAYER_SLEEPBEFORE_START,1516214382660,151
1,PLAYER_SLEEPBEFORE_END,1516214382870,151
1,WS_SEND_START,1516214382870,151
1,WS_SEND_END,1516214382870,151
1,WS_RECV_START,1516214382870,152
1,WS_RECV_END,1516214383062,152
1,PLAYER_SLEEPBEFORE_START,1516214383062,153
1,PLAYER_SLEEPBEFORE_END,1516214406989,153
1,WS_SEND_START,1516214406989,153
1,WS_SEND_END,1516214406989,153
1,WS_RECV_START,1516214406989,154
1,WS_RECV_END,1516214407957,154
1,PLAYER_SLEEPBEFORE_START,1516214407957,155
1,PLAYER_SLEEPBEFORE_END,1516214430516,155
1,WS_SEND_START,1516214430516,155
1,WS_SEND_END,1516214430516,155
1,PLAYER_SLEEPBEFORE_START,1516214430516,156
1,PLAYER_SLEEPBEFORE_END,1516214433790,156
1,WS_SEND_START,1516214433790,156
1,WS_SEND_END,1516214433790,156
1,WS_RECV_START,1516214433790,157
1,WS_RECV_END,1516214434013,157
1,PLAYER_SLEEPBEFORE_START,1516214434013,158
1,PLAYER_SLEEPBEFORE_END,1516214434023,158
1,WS_SEND_START,1516214434023,158
1,WS_SEND_END,1516214434023,158
1,WS_RECV_START,1516214434023,159
1,WS_RECV_END,1516214434067,159
1,PLAYER_SLEEPBEFORE_START,1516214434067,160
1,PLAYER_SLEEPBEFORE_END,1516214434242,160
1,WS_SEND_START,1516214434242,160
1,WS_SEND_END,1516214434242,160
1,WS_RECV_START,1516214434242,161
1,WS_RECV_END,1516214434460,161
1,PLAYER_SLEEPBEFORE_START,1516214434460,162
1,PLAYER_SLEEPBEFORE_END,1516214434485,162
1,WS_SEND_START,1516214434485,162
1,WS_SEND_END,1516214434485,162
1,WS_RECV_START,1516214434485,163
1,WS_RECV_END,1516214434713,163
1,PLAYER_SLEEPBEFORE_START,1516214434713,164
1,PLAYER_SLEEPBEFORE_END,1516214455525,164
1,WS_SEND_START,1516214455525,164
1,WS_SEND_END,1516214455525,164
1,WS_RECV_START,1516214455525,165
1,WS_RECV_END,1516214455840,165
1,PLAYER_SLEEPBEFORE_START,1516214455840,166
1,PLAYER_SLEEPBEFORE_END,1516214478295,166
1,WS_SEND_START,1516214478295,166
1,WS_SEND_END,1516214478295,166
1,WS_RECV_START,1516214478295,167
1,WS_RECV_END,1516214478917,167
1,PLAYER_SLEEPBEFORE_START,1516214478917,168
1,PLAYER_SLEEPBEFORE_END,1516214506274,168
1,WS_SEND_START,1516214506274,168
1,WS_SEND_END,1516214506274,168
1,WS_RECV_START,1516214506274,169
1,WS_RECV_END,1516214506612,169
1,PLAYER_SLEEPBEFORE_START,1516214506612,170
1,PLAYER_SLEEPBEFORE_END,1516214506621,170
1,WS_SEND_START,1516214506621,170
1,WS_SEND_END,1516214506621,170
1,WS_RECV_START,1516214506621,171
1,WS_RECV_END,1516214506815,171
1,PLAYER_SLEEPBEFORE_START,1516214506815,172
1,PLAYER_SLEEPBEFORE_END,1516214507185,172
1,WS_SEND_START,1516214507185,172
1,WS_SEND_END,1516214507185,172
1,WS_RECV_START,1516214507185,173
1,WS_RECV_END,1516214507410,173
1,PLAYER_SLEEPBEFORE_START,1516214507410,174
1,PLAYER_SLEEPBEFORE_END,1516214507451,174
1,WS_SEND_START,1516214507451,174
1,WS_SEND_END,1516214507451,174
1,WS_RECV_START,1516214507451,175
1,WS_RECV_END,1516214507655,175
1,PLAYER_SLEEPBEFORE_START,1516214507655,176
1,PLAYER_SLEEPBEFORE_END,1516214529416,176
1,WS_SEND_START,1516214529416,176
1,WS_SEND_END,1516214529416,176
1,PLAYER_SLEEPBEFORE_START,1516214529416,177
1,PLAYER_SLEEPBEFORE_END,1516214531934,177
1,WS_SEND_START,1516214531934,177
1,WS_SEND_END,1516214531934,177
1,WS_RECV_START,1516214531934,178
1,WS_RECV_END,1516214532429,178
1,PLAYER_SLEEPBEFORE_START,1516214532429,179
1,PLAYER_SLEEPBEFORE_END,1516214554769,179
1,WS_SEND_START,1516214554769,179
1,WS_SEND_END,1516214554769,179
1,WS_RECV_START,1516214554769,180
1,WS_RECV_END,1516214555290,180
1,PLAYER_SLEEPBEFORE_START,1516214555290,181
1,PLAYER_SLEEPBEFORE_END,1516214555734,181
1,WS_SEND_START,1516214555734,181
1,WS_SEND_END,1516214555734,181
1,WS_RECV_START,1516214555734,182
1,WS_RECV_END,1516214556414,182
1,PLAYER_SLEEPBEFORE_START,1516214556414,183
1,PLAYER_SLEEPBEFORE_END,1516214556937,183
1,WS_SEND_START,1516214556937,183
1,WS_SEND_END,1516214556937,183
1,WS_RECV_START,1516214556937,184
1,WS_RECV_END,1516214557706,184
1,PLAYER_SLEEPBEFORE_START,1516214557706,185
1,PLAYER_SLEEPBEFORE_END,1516214557974,185
1,WS_SEND_START,1516214557974,185
1,WS_SEND_END,1516214557974,185
1,WS_RECV_START,1516214557974,186
1,WS_RECV_END,1516214558288,186
1,PLAYER_SLEEPBEFORE_START,1516214558288,187
1,PLAYER_SLEEPBEFORE_END,1516214580788,187
1,WS_SEND_START,1516214580788,187
1,WS_SEND_END,1516214580788,187
1,WS_RECV_START,1516214580788,188
1,WS_RECV_END,1516214583097,188
1,PLAYER_SLEEPBEFORE_START,1516214583097,189
1,PLAYER_SLEEPBEFORE_END,1516214589336,189
1,WS_SEND_START,1516214589336,189
1,WS_SEND_END,1516214589336,189
1,WS_RECV_START,1516214589336,190
1,WS_RECV_END,1516214594058,190
1,PLAYER_SLEEPBEFORE_START,1516214594058,191
1,PLAYER_SLEEPBEFORE_END,1516214595973,191
1,WS_SEND_START,1516214595973,191
1,WS_SEND_END,1516214595973,191
1,WS_RECV_START,1516214595973,192
1,WS_RECV_END,1516214597815,192
1,PLAYER_SLEEPBEFORE_START,1516214597815,193
1,PLAYER_SLEEPBEFORE_END,1516214597943,193
1,WS_SEND_START,1516214597943,193
1,WS_SEND_END,1516214597943,193
1,WS_RECV_START,1516214597943,194
1,WS_RECV_END,1516214601790,194
1,PLAYER_SLEEPBEFORE_START,1516214601790,195
1,PLAYER_SLEEPBEFORE_END,1516214603545,195
1,WS_SEND_START,1516214603545,195
1,WS_SEND_END,1516214603545,195
1,WS_RECV_START,1516214603545,196
1,WS_RECV_END,1516214606200,196
1,PLAYER_SLEEPBEFORE_START,1516214606200,197
1,PLAYER_SLEEPBEFORE_END,1516214608004,197
1,WS_SEND_START,1516214608004,197
1,WS_SEND_END,1516214608004,197
1,WS_RECV_START,1516214608004,198
1,WS_RECV_END,1516214612178,198
1,PLAYER_SLEEPBEFORE_START,1516214612178,199
1,PLAYER_SLEEPBEFORE_END,1516214624033,199
1,WS_SEND_START,1516214624033,199
1,WS_SEND_END,1516214624033,199
1,PLAYER_SLEEPBEFORE_START,1516214624033,200
1,PLAYER_SLEEPBEFORE_END,1516214628121,200
1,WS_SEND_START,1516214628121,200
1,WS_SEND_END,1516214628121,200
1,WS_RECV_START,1516214628121,201
1,WS_RECV_END,1516214630810,201
1,PLAYER_SLEEPBEFORE_START,1516214630810,202
1,PLAYER_SLEEPBEFORE_END,1516214630824,202
1,WS_SEND_START,1516214630824,202
1,WS_SEND_END,1516214630824,202
1,WS_RECV_START,1516214630824,203
1,WS_RECV_END,1516214634582,203
1,PLAYER_SLEEPBEFORE_START,1516214634582,204
1,PLAYER_SLEEPBEFORE_END,1516214654231,204
1,WS_SEND_START,1516214654231,204
1,WS_SEND_END,1516214654231,204
1,PLAYER_SLEEPBEFORE_START,1516214654231,205
1,PLAYER_SLEEPBEFORE_END,1516214658129,205
1,WS_SEND_START,1516214658129,205
1,WS_SEND_END,1516214658129,205
1,WS_RECV_START,1516214658129,206
1,WS_RECV_END,1516214665273,206
1,PLAYER_SLEEPBEFORE_START,1516214665273,207
1,PLAYER_SLEEPBEFORE_END,1516214682204,207
1,REQ_START,1516214682204,207
1,REQ_END,1516214682271,207
1,PLAYER_SLEEPBEFORE_START,1516214682272,208
1,PLAYER_SLEEPBEFORE_END,1516214689124,208
1,WS_CLOSE_START,1516214689124,208
1,WS_CLOSE_END,1516214689124,208
1,PLAYER_DONE,1516214689124
