# --sessions 90 --app-url=http://shinyloadtest.rstudioservices.com/cran_explorer --output-dir test90 --overwrite-output --log-level warn --start-interval 500 15min.log
thread_id,event,timestamp,input_line_number,comment
30,PLAYER_SESSION_CREATE,1516213736117
30,PLAYER_START_INTERVAL_START,1516213736117
30,PLAYER_START_INTERVAL_END,1516213751117
30,REQ_HOME_START,1516213751117,2
30,REQ_HOME_END,1516213751578,2
30,REQ_START,1516213751578,3
30,REQ_END,1516213752073,3
30,REQ_START,1516213752073,4
30,REQ_END,1516213752604,4
30,REQ_START,1516213752604,5
30,REQ_END,1516213753055,5
30,REQ_START,1516213753055,6
30,REQ_END,1516213753547,6
30,REQ_START,1516213753548,7
30,REQ_END,1516213753943,7
30,REQ_START,1516213753943,8
30,REQ_END,1516213754455,8
30,REQ_START,1516213754455,9
30,REQ_END,1516213755010,9
30,REQ_START,1516213755010,10
30,REQ_END,1516213755050,10
30,REQ_START,1516213755050,11
30,REQ_END,1516213755599,11
30,REQ_START,1516213755599,12
30,REQ_END,1516213755614,12
30,REQ_START,1516213755614,13
30,REQ_END,1516213756050,13
30,REQ_START,1516213756050,14
30,REQ_END,1516213756080,14
30,REQ_START,1516213756080,15
30,REQ_END,1516213756658,15
30,REQ_TOK_START,1516213756658,16
30,REQ_TOK_END,1516213756667,16
30,REQ_SINF_START,1516213756667,17
30,REQ_SINF_END,1516213756674,17
30,WS_OPEN_START,1516213756674,18
30,WS_OPEN_END,1516213756681,18
30,REQ_START,1516213756681,19
30,REQ_END,1516213757277,19
30,WS_RECV_START,1516213757277,20
30,WS_RECV_END,1516213757277,20
30,PLAYER_SLEEPBEFORE_START,1516213757277,21
30,PLAYER_SLEEPBEFORE_END,1516213757282,21
30,WS_SEND_START,1516213757282,21
30,WS_SEND_END,1516213757282,21
30,PLAYER_SLEEPBEFORE_START,1516213757282,22
30,PLAYER_SLEEPBEFORE_END,1516213757283,22
30,WS_SEND_START,1516213757283,22
30,WS_SEND_END,1516213757283,22
30,WS_RECV_INIT_START,1516213757283,23
30,WS_RECV_INIT_END,1516213757774,23
30,WS_RECV_START,1516213757774,24
30,WS_RECV_END,1516213757884,24
30,PLAYER_SLEEPBEFORE_START,1516213757884,25
30,PLAYER_SLEEPBEFORE_END,1516213757891,25
30,REQ_START,1516213757891,25
30,REQ_END,1516213758513,25
30,PLAYER_SLEEPBEFORE_START,1516213758513,26
30,PLAYER_SLEEPBEFORE_END,1516213758514,26
30,REQ_START,1516213758514,26
30,REQ_END,1516213759244,26
30,PLAYER_SLEEPBEFORE_START,1516213759244,27
30,PLAYER_SLEEPBEFORE_END,1516213759247,27
30,REQ_START,1516213759247,27
30,REQ_END,1516213759765,27
30,PLAYER_SLEEPBEFORE_START,1516213759765,28
30,PLAYER_SLEEPBEFORE_END,1516213760050,28
30,REQ_START,1516213760050,28
30,REQ_END,1516213760605,28
30,PLAYER_SLEEPBEFORE_START,1516213760605,29
30,PLAYER_SLEEPBEFORE_END,1516213760780,29
30,WS_SEND_START,1516213760780,29
30,WS_SEND_END,1516213760780,29
30,WS_RECV_START,1516213760780,30
30,WS_RECV_END,1516213761003,30
30,PLAYER_SLEEPBEFORE_START,1516213761003,31
30,PLAYER_SLEEPBEFORE_END,1516213761014,31
30,REQ_START,1516213761014,31
30,REQ_END,1516213761580,31
30,PLAYER_SLEEPBEFORE_START,1516213761580,32
30,PLAYER_SLEEPBEFORE_END,1516213789725,32
30,WS_SEND_START,1516213789725,32
30,WS_SEND_END,1516213789725,32
30,WS_RECV_START,1516213789725,33
30,WS_RECV_END,1516213790192,33
30,PLAYER_SLEEPBEFORE_START,1516213790192,34
30,PLAYER_SLEEPBEFORE_END,1516213816104,34
30,WS_SEND_START,1516213816104,34
30,WS_SEND_END,1516213816104,34
30,WS_RECV_START,1516213816104,35
30,WS_RECV_END,1516213816138,35
30,PLAYER_SLEEPBEFORE_START,1516213816138,36
30,PLAYER_SLEEPBEFORE_END,1516213816147,36
30,WS_SEND_START,1516213816147,36
30,WS_SEND_END,1516213816147,36
30,WS_RECV_START,1516213816147,37
30,WS_RECV_END,1516213816202,37
30,PLAYER_SLEEPBEFORE_START,1516213816202,38
30,PLAYER_SLEEPBEFORE_END,1516213819397,38
30,WS_SEND_START,1516213819397,38
30,WS_SEND_END,1516213819397,38
30,WS_RECV_START,1516213819397,39
30,WS_RECV_END,1516213819676,39
30,PLAYER_SLEEPBEFORE_START,1516213819676,40
30,PLAYER_SLEEPBEFORE_END,1516213819722,40
30,WS_SEND_START,1516213819722,40
30,WS_SEND_END,1516213819722,40
30,WS_RECV_START,1516213819722,41
30,WS_RECV_END,1516213819975,41
30,PLAYER_SLEEPBEFORE_START,1516213819975,42
30,PLAYER_SLEEPBEFORE_END,1516213838110,42
30,WS_SEND_START,1516213838110,42
30,WS_SEND_END,1516213838110,42
30,WS_RECV_START,1516213838110,43
30,WS_RECV_END,1516213839715,43
30,PLAYER_SLEEPBEFORE_START,1516213839715,44
30,PLAYER_SLEEPBEFORE_END,1516213839727,44
30,WS_SEND_START,1516213839727,44
30,WS_SEND_END,1516213839727,44
30,WS_RECV_START,1516213839727,45
30,WS_RECV_END,1516213840317,45
30,PLAYER_SLEEPBEFORE_START,1516213840318,46
30,PLAYER_SLEEPBEFORE_END,1516213841578,46
30,WS_SEND_START,1516213841578,46
30,WS_SEND_END,1516213841578,46
30,WS_RECV_START,1516213841578,47
30,WS_RECV_END,1516213842409,47
30,PLAYER_SLEEPBEFORE_START,1516213842409,48
30,PLAYER_SLEEPBEFORE_END,1516213843729,48
30,WS_SEND_START,1516213843729,48
30,WS_SEND_END,1516213843729,48
30,WS_RECV_START,1516213843729,49
30,WS_RECV_END,1516213844349,49
30,PLAYER_SLEEPBEFORE_START,1516213844349,50
30,PLAYER_SLEEPBEFORE_END,1516213844373,50
30,WS_SEND_START,1516213844373,50
30,WS_SEND_END,1516213844373,50
30,WS_RECV_START,1516213844373,51
30,WS_RECV_END,1516213844813,51
30,PLAYER_SLEEPBEFORE_START,1516213844813,52
30,PLAYER_SLEEPBEFORE_END,1516213867377,52
30,WS_SEND_START,1516213867377,52
30,WS_SEND_END,1516213867377,52
30,WS_RECV_START,1516213867377,53
30,WS_RECV_END,1516213869063,53
30,PLAYER_SLEEPBEFORE_START,1516213869063,54
30,PLAYER_SLEEPBEFORE_END,1516213890366,54
30,WS_SEND_START,1516213890366,54
30,WS_SEND_END,1516213890366,54
30,PLAYER_SLEEPBEFORE_START,1516213890366,55
30,PLAYER_SLEEPBEFORE_END,1516213892307,55
30,WS_SEND_START,1516213892307,55
30,WS_SEND_END,1516213892307,55
30,WS_RECV_START,1516213892307,56
30,WS_RECV_END,1516213892361,56
30,PLAYER_SLEEPBEFORE_START,1516213892361,57
30,PLAYER_SLEEPBEFORE_END,1516213915233,57
30,WS_SEND_START,1516213915233,57
30,WS_SEND_END,1516213915233,57
30,WS_RECV_START,1516213915233,58
30,WS_RECV_END,1516213915361,58
30,PLAYER_SLEEPBEFORE_START,1516213915361,59
30,PLAYER_SLEEPBEFORE_END,1516213917688,59
30,WS_SEND_START,1516213917688,59
30,WS_SEND_END,1516213917688,59
30,WS_RECV_START,1516213917688,60
30,WS_RECV_END,1516213917877,60
30,PLAYER_SLEEPBEFORE_START,1516213917877,61
30,PLAYER_SLEEPBEFORE_END,1516213921468,61
30,WS_SEND_START,1516213921468,61
30,WS_SEND_END,1516213921468,61
30,WS_RECV_START,1516213921468,62
30,WS_RECV_END,1516213921673,62
30,PLAYER_SLEEPBEFORE_START,1516213921673,63
30,PLAYER_SLEEPBEFORE_END,1516213940936,63
30,WS_SEND_START,1516213940936,63
30,WS_SEND_END,1516213940936,63
30,WS_RECV_START,1516213940936,64
30,WS_RECV_END,1516213940988,64
30,PLAYER_SLEEPBEFORE_START,1516213940988,65
30,PLAYER_SLEEPBEFORE_END,1516213967805,65
30,WS_SEND_START,1516213967805,65
30,WS_SEND_END,1516213967805,65
30,WS_RECV_START,1516213967805,66
30,WS_RECV_END,1516213967912,66
30,PLAYER_SLEEPBEFORE_START,1516213967912,67
30,PLAYER_SLEEPBEFORE_END,1516213969419,67
30,WS_SEND_START,1516213969419,67
30,WS_SEND_END,1516213969419,67
30,WS_RECV_START,1516213969419,68
30,WS_RECV_END,1516213969643,68
30,PLAYER_SLEEPBEFORE_START,1516213969643,69
30,PLAYER_SLEEPBEFORE_END,1516213991641,69
30,WS_SEND_START,1516213991641,69
30,WS_SEND_END,1516213991641,69
30,WS_RECV_START,1516213991641,70
30,WS_RECV_END,1516213991852,70
30,PLAYER_SLEEPBEFORE_START,1516213991852,71
30,PLAYER_SLEEPBEFORE_END,1516214016627,71
30,WS_SEND_START,1516214016627,71
30,WS_SEND_END,1516214016627,71
30,PLAYER_SLEEPBEFORE_START,1516214016627,72
30,PLAYER_SLEEPBEFORE_END,1516214019234,72
30,WS_SEND_START,1516214019234,72
30,WS_SEND_END,1516214019234,72
30,WS_RECV_START,1516214019234,73
30,WS_RECV_END,1516214020737,73
30,PLAYER_SLEEPBEFORE_START,1516214020737,74
30,PLAYER_SLEEPBEFORE_END,1516214020746,74
30,WS_SEND_START,1516214020746,74
30,WS_SEND_END,1516214020746,74
30,WS_RECV_START,1516214020746,75
30,WS_RECV_END,1516214021160,75
30,PLAYER_SLEEPBEFORE_START,1516214021161,76
30,PLAYER_SLEEPBEFORE_END,1516214022667,76
30,WS_SEND_START,1516214022667,76
30,WS_SEND_END,1516214022667,76
30,WS_RECV_START,1516214022667,77
30,WS_RECV_END,1516214023526,77
30,PLAYER_SLEEPBEFORE_START,1516214023526,78
30,PLAYER_SLEEPBEFORE_END,1516214024394,78
30,WS_SEND_START,1516214024395,78
30,WS_SEND_END,1516214024395,78
30,WS_RECV_START,1516214024395,79
30,WS_RECV_END,1516214024941,79
30,PLAYER_SLEEPBEFORE_START,1516214024941,80
30,PLAYER_SLEEPBEFORE_END,1516214032607,80
30,WS_SEND_START,1516214032607,80
30,WS_SEND_END,1516214032607,80
30,WS_RECV_START,1516214032607,81
30,WS_RECV_END,1516214033239,81
30,PLAYER_SLEEPBEFORE_START,1516214033239,82
30,PLAYER_SLEEPBEFORE_END,1516214034341,82
30,WS_SEND_START,1516214034341,82
30,WS_SEND_END,1516214034341,82
30,WS_RECV_START,1516214034341,83
30,WS_RECV_END,1516214034877,83
30,PLAYER_SLEEPBEFORE_START,1516214034877,84
30,PLAYER_SLEEPBEFORE_END,1516214035825,84
30,WS_SEND_START,1516214035825,84
30,WS_SEND_END,1516214035825,84
30,WS_RECV_START,1516214035825,85
30,WS_RECV_END,1516214036396,85
30,PLAYER_SLEEPBEFORE_START,1516214036396,86
30,PLAYER_SLEEPBEFORE_END,1516214040568,86
30,WS_SEND_START,1516214040568,86
30,WS_SEND_END,1516214040568,86
30,WS_RECV_START,1516214040568,87
30,WS_RECV_END,1516214041066,87
30,PLAYER_SLEEPBEFORE_START,1516214041066,88
30,PLAYER_SLEEPBEFORE_END,1516214041074,88
30,WS_SEND_START,1516214041074,88
30,WS_SEND_END,1516214041074,88
30,WS_RECV_START,1516214041074,89
30,WS_RECV_END,1516214041273,89
30,PLAYER_SLEEPBEFORE_START,1516214041273,90
30,PLAYER_SLEEPBEFORE_END,1516214068470,90
30,REQ_START,1516214068470,90
30,REQ_END,1516214068479,90
30,PLAYER_SLEEPBEFORE_START,1516214068479,91
30,PLAYER_SLEEPBEFORE_END,1516214076368,91
30,WS_SEND_START,1516214076368,91
30,WS_SEND_END,1516214076368,91
30,WS_RECV_START,1516214076368,92
30,WS_RECV_END,1516214077842,92
30,PLAYER_SLEEPBEFORE_START,1516214077842,93
30,PLAYER_SLEEPBEFORE_END,1516214077857,93
30,WS_SEND_START,1516214077857,93
30,WS_SEND_END,1516214077857,93
30,WS_RECV_START,1516214077857,94
30,WS_RECV_END,1516214078530,94
30,PLAYER_SLEEPBEFORE_START,1516214078530,95
30,PLAYER_SLEEPBEFORE_END,1516214102085,95
30,WS_SEND_START,1516214102085,95
30,WS_SEND_END,1516214102085,95
30,WS_RECV_START,1516214102085,96
30,WS_RECV_END,1516214102431,96
30,PLAYER_SLEEPBEFORE_START,1516214102431,97
30,PLAYER_SLEEPBEFORE_END,1516214124871,97
30,WS_SEND_START,1516214124871,97
30,WS_SEND_END,1516214124871,97
30,WS_RECV_START,1516214124871,98
30,WS_RECV_END,1516214125784,98
30,PLAYER_SLEEPBEFORE_START,1516214125784,99
30,PLAYER_SLEEPBEFORE_END,1516214125805,99
30,WS_SEND_START,1516214125805,99
30,WS_SEND_END,1516214125805,99
30,WS_RECV_START,1516214125805,100
30,WS_RECV_END,1516214126595,100
30,PLAYER_SLEEPBEFORE_START,1516214126595,101
30,PLAYER_SLEEPBEFORE_END,1516214150154,101
30,WS_SEND_START,1516214150154,101
30,WS_SEND_END,1516214150154,101
30,WS_RECV_START,1516214150154,102
30,WS_RECV_END,1516214150510,102
30,PLAYER_SLEEPBEFORE_START,1516214150510,103
30,PLAYER_SLEEPBEFORE_END,1516214174135,103
30,WS_SEND_START,1516214174135,103
30,WS_SEND_END,1516214174135,103
30,WS_RECV_START,1516214174135,104
30,WS_RECV_END,1516214174283,104
30,PLAYER_SLEEPBEFORE_START,1516214174283,105
30,PLAYER_SLEEPBEFORE_END,1516214199660,105
30,WS_SEND_START,1516214199660,105
30,WS_SEND_END,1516214199660,105
30,WS_RECV_START,1516214199660,106
30,WS_RECV_END,1516214199833,106
30,PLAYER_SLEEPBEFORE_START,1516214199833,107
30,PLAYER_SLEEPBEFORE_END,1516214223256,107
30,WS_SEND_START,1516214223256,107
30,WS_SEND_END,1516214223256,107
30,WS_RECV_START,1516214223256,108
30,WS_RECV_END,1516214223577,108
30,PLAYER_SLEEPBEFORE_START,1516214223577,109
30,PLAYER_SLEEPBEFORE_END,1516214223586,109
30,WS_SEND_START,1516214223586,109
30,WS_SEND_END,1516214223586,109
30,WS_RECV_START,1516214223586,110
30,WS_RECV_END,1516214223908,110
30,PLAYER_SLEEPBEFORE_START,1516214223908,111
30,PLAYER_SLEEPBEFORE_END,1516214224868,111
30,WS_SEND_START,1516214224868,111
30,WS_SEND_END,1516214224868,111
30,WS_RECV_START,1516214224868,112
30,WS_RECV_END,1516214225404,112
30,PLAYER_SLEEPBEFORE_START,1516214225404,113
30,PLAYER_SLEEPBEFORE_END,1516214225966,113
30,WS_SEND_START,1516214225966,113
30,WS_SEND_END,1516214225966,113
30,WS_RECV_START,1516214225966,114
30,WS_RECV_END,1516214226180,114
30,PLAYER_SLEEPBEFORE_START,1516214226180,115
30,PLAYER_SLEEPBEFORE_END,1516214226189,115
30,WS_SEND_START,1516214226189,115
30,WS_SEND_END,1516214226189,115
30,WS_RECV_START,1516214226189,116
30,WS_RECV_END,1516214226308,116
30,PLAYER_SLEEPBEFORE_START,1516214226308,117
30,PLAYER_SLEEPBEFORE_END,1516214246668,117
30,WS_SEND_START,1516214246668,117
30,WS_SEND_END,1516214246668,117
30,PLAYER_SLEEPBEFORE_START,1516214246668,118
30,PLAYER_SLEEPBEFORE_END,1516214250421,118
30,WS_SEND_START,1516214250421,118
30,WS_SEND_END,1516214250421,118
30,WS_RECV_START,1516214250421,119
30,WS_RECV_END,1516214252956,119
30,PLAYER_SLEEPBEFORE_START,1516214252956,120
30,PLAYER_SLEEPBEFORE_END,1516214253944,120
30,WS_SEND_START,1516214253944,120
30,WS_SEND_END,1516214253944,120
30,WS_RECV_START,1516214253944,121
30,WS_RECV_END,1516214254899,121
30,PLAYER_SLEEPBEFORE_START,1516214254899,122
30,PLAYER_SLEEPBEFORE_END,1516214256085,122
30,WS_SEND_START,1516214256085,122
30,WS_SEND_END,1516214256085,122
30,WS_RECV_START,1516214256085,123
30,WS_RECV_END,1516214257928,123
30,PLAYER_SLEEPBEFORE_START,1516214257928,124
30,PLAYER_SLEEPBEFORE_END,1516214282333,124
30,WS_SEND_START,1516214282333,124
30,WS_SEND_END,1516214282333,124
30,WS_RECV_START,1516214282333,125
30,WS_RECV_END,1516214284848,125
30,PLAYER_SLEEPBEFORE_START,1516214284848,126
30,PLAYER_SLEEPBEFORE_END,1516214305360,126
30,WS_SEND_START,1516214305360,126
30,WS_SEND_END,1516214305360,126
30,PLAYER_SLEEPBEFORE_START,1516214305360,127
30,PLAYER_SLEEPBEFORE_END,1516214308414,127
30,WS_SEND_START,1516214308414,127
30,WS_SEND_END,1516214308414,127
30,WS_RECV_START,1516214308414,128
30,WS_RECV_END,1516214309152,128
30,PLAYER_SLEEPBEFORE_START,1516214309152,129
30,PLAYER_SLEEPBEFORE_END,1516214309172,129
30,WS_SEND_START,1516214309172,129
30,WS_SEND_END,1516214309172,129
30,WS_RECV_START,1516214309172,130
30,WS_RECV_END,1516214309992,130
30,PLAYER_SLEEPBEFORE_START,1516214309992,131
30,PLAYER_SLEEPBEFORE_END,1516214331616,131
30,WS_SEND_START,1516214331616,131
30,WS_SEND_END,1516214331616,131
30,PLAYER_SLEEPBEFORE_START,1516214331616,132
30,PLAYER_SLEEPBEFORE_END,1516214334696,132
30,WS_SEND_START,1516214334696,132
30,WS_SEND_END,1516214334696,132
30,WS_RECV_START,1516214334696,133
30,WS_RECV_END,1516214335260,133
30,PLAYER_SLEEPBEFORE_START,1516214335260,134
30,PLAYER_SLEEPBEFORE_END,1516214356477,134
30,WS_SEND_START,1516214356477,134
30,WS_SEND_END,1516214356477,134
30,PLAYER_SLEEPBEFORE_START,1516214356477,135
30,PLAYER_SLEEPBEFORE_END,1516214359668,135
30,WS_SEND_START,1516214359668,135
30,WS_SEND_END,1516214359668,135
30,WS_RECV_START,1516214359668,136
30,WS_RECV_END,1516214360439,136
30,PLAYER_SLEEPBEFORE_START,1516214360440,137
30,PLAYER_SLEEPBEFORE_END,1516214360447,137
30,WS_SEND_START,1516214360447,137
30,WS_SEND_END,1516214360447,137
30,WS_RECV_START,1516214360447,138
30,WS_RECV_END,1516214360920,138
30,PLAYER_SLEEPBEFORE_START,1516214360920,139
30,PLAYER_SLEEPBEFORE_END,1516214361610,139
30,WS_SEND_START,1516214361610,139
30,WS_SEND_END,1516214361610,139
30,WS_RECV_START,1516214361610,140
30,WS_RECV_END,1516214362248,140
30,PLAYER_SLEEPBEFORE_START,1516214362248,141
30,PLAYER_SLEEPBEFORE_END,1516214362903,141
30,WS_SEND_START,1516214362903,141
30,WS_SEND_END,1516214362903,141
30,WS_RECV_START,1516214362903,142
30,WS_RECV_END,1516214363440,142
30,PLAYER_SLEEPBEFORE_START,1516214363440,143
30,PLAYER_SLEEPBEFORE_END,1516214363497,143
30,WS_SEND_START,1516214363497,143
30,WS_SEND_END,1516214363497,143
30,WS_RECV_START,1516214363497,144
30,WS_RECV_END,1516214363800,144
30,PLAYER_SLEEPBEFORE_START,1516214363800,145
30,PLAYER_SLEEPBEFORE_END,1516214379862,145
30,REQ_START,1516214379862,145
30,REQ_END,1516214379870,145
30,PLAYER_SLEEPBEFORE_START,1516214379870,146
30,PLAYER_SLEEPBEFORE_END,1516214388748,146
30,WS_SEND_START,1516214388748,146
30,WS_SEND_END,1516214388748,146
30,WS_RECV_START,1516214388748,147
30,WS_RECV_END,1516214389021,147
30,PLAYER_SLEEPBEFORE_START,1516214389021,148
30,PLAYER_SLEEPBEFORE_END,1516214410943,148
30,WS_SEND_START,1516214410944,148
30,WS_SEND_END,1516214410944,148
30,PLAYER_SLEEPBEFORE_START,1516214410944,149
30,PLAYER_SLEEPBEFORE_END,1516214413372,149
30,WS_SEND_START,1516214413372,149
30,WS_SEND_END,1516214413372,149
30,WS_RECV_START,1516214413372,150
30,WS_RECV_END,1516214414321,150
30,PLAYER_SLEEPBEFORE_START,1516214414321,151
30,PLAYER_SLEEPBEFORE_END,1516214414531,151
30,WS_SEND_START,1516214414531,151
30,WS_SEND_END,1516214414531,151
30,WS_RECV_START,1516214414531,152
30,WS_RECV_END,1516214415145,152
30,PLAYER_SLEEPBEFORE_START,1516214415145,153
30,PLAYER_SLEEPBEFORE_END,1516214439073,153
30,WS_SEND_START,1516214439073,153
30,WS_SEND_END,1516214439073,153
30,WS_RECV_START,1516214439073,154
30,WS_RECV_END,1516214439360,154
30,PLAYER_SLEEPBEFORE_START,1516214439360,155
30,PLAYER_SLEEPBEFORE_END,1516214461918,155
30,WS_SEND_START,1516214461919,155
30,WS_SEND_END,1516214461919,155
30,PLAYER_SLEEPBEFORE_START,1516214461919,156
30,PLAYER_SLEEPBEFORE_END,1516214465193,156
30,WS_SEND_START,1516214465193,156
30,WS_SEND_END,1516214465193,156
30,WS_RECV_START,1516214465193,157
30,WS_RECV_END,1516214465233,157
30,PLAYER_SLEEPBEFORE_START,1516214465233,158
30,PLAYER_SLEEPBEFORE_END,1516214465243,158
30,WS_SEND_START,1516214465243,158
30,WS_SEND_END,1516214465243,158
30,WS_RECV_START,1516214465243,159
30,WS_RECV_END,1516214465299,159
30,PLAYER_SLEEPBEFORE_START,1516214465299,160
30,PLAYER_SLEEPBEFORE_END,1516214465474,160
30,WS_SEND_START,1516214465474,160
30,WS_SEND_END,1516214465474,160
30,WS_RECV_START,1516214465474,161
30,WS_RECV_END,1516214465691,161
30,PLAYER_SLEEPBEFORE_START,1516214465691,162
30,PLAYER_SLEEPBEFORE_END,1516214465716,162
30,WS_SEND_START,1516214465716,162
30,WS_SEND_END,1516214465716,162
30,WS_RECV_START,1516214465716,163
30,WS_RECV_END,1516214466255,163
30,PLAYER_SLEEPBEFORE_START,1516214466255,164
30,PLAYER_SLEEPBEFORE_END,1516214487067,164
30,WS_SEND_START,1516214487067,164
30,WS_SEND_END,1516214487067,164
30,WS_RECV_START,1516214487067,165
30,WS_RECV_END,1516214487383,165
30,PLAYER_SLEEPBEFORE_START,1516214487384,166
30,PLAYER_SLEEPBEFORE_END,1516214509839,166
30,WS_SEND_START,1516214509839,166
30,WS_SEND_END,1516214509839,166
30,WS_RECV_START,1516214509839,167
30,WS_RECV_END,1516214510186,167
30,PLAYER_SLEEPBEFORE_START,1516214510186,168
30,PLAYER_SLEEPBEFORE_END,1516214537543,168
30,WS_SEND_START,1516214537543,168
30,WS_SEND_END,1516214537543,168
30,WS_RECV_START,1516214537543,169
30,WS_RECV_END,1516214537654,169
30,PLAYER_SLEEPBEFORE_START,1516214537654,170
30,PLAYER_SLEEPBEFORE_END,1516214537663,170
30,WS_SEND_START,1516214537663,170
30,WS_SEND_END,1516214537663,170
30,WS_RECV_START,1516214537663,171
30,WS_RECV_END,1516214537747,171
30,PLAYER_SLEEPBEFORE_START,1516214537747,172
30,PLAYER_SLEEPBEFORE_END,1516214538116,172
30,WS_SEND_START,1516214538116,172
30,WS_SEND_END,1516214538116,172
30,WS_RECV_START,1516214538116,173
30,WS_RECV_END,1516214538237,173
30,PLAYER_SLEEPBEFORE_START,1516214538237,174
30,PLAYER_SLEEPBEFORE_END,1516214538278,174
30,WS_SEND_START,1516214538278,174
30,WS_SEND_END,1516214538278,174
30,WS_RECV_START,1516214538278,175
30,WS_RECV_END,1516214538403,175
30,PLAYER_SLEEPBEFORE_START,1516214538403,176
30,PLAYER_SLEEPBEFORE_END,1516214560164,176
30,WS_SEND_START,1516214560164,176
30,WS_SEND_END,1516214560164,176
30,PLAYER_SLEEPBEFORE_START,1516214560164,177
30,PLAYER_SLEEPBEFORE_END,1516214562682,177
30,WS_SEND_START,1516214562682,177
30,WS_SEND_END,1516214562682,177
30,WS_RECV_START,1516214562682,178
30,WS_RECV_END,1516214562980,178
30,PLAYER_SLEEPBEFORE_START,1516214562980,179
30,PLAYER_SLEEPBEFORE_END,1516214585320,179
30,WS_SEND_START,1516214585320,179
30,WS_SEND_END,1516214585320,179
30,WS_RECV_START,1516214585320,180
30,WS_RECV_END,1516214588373,180
30,PLAYER_SLEEPBEFORE_START,1516214588373,181
30,PLAYER_SLEEPBEFORE_END,1516214588818,181
30,WS_SEND_START,1516214588818,181
30,WS_SEND_END,1516214588818,181
30,WS_RECV_START,1516214588818,182
30,WS_RECV_END,1516214590041,182
30,PLAYER_SLEEPBEFORE_START,1516214590041,183
30,PLAYER_SLEEPBEFORE_END,1516214590564,183
30,WS_SEND_START,1516214590564,183
30,WS_SEND_END,1516214590564,183
30,WS_RECV_START,1516214590564,184
30,WS_RECV_END,1516214592512,184
30,PLAYER_SLEEPBEFORE_START,1516214592512,185
30,PLAYER_SLEEPBEFORE_END,1516214592780,185
30,WS_SEND_START,1516214592780,185
30,WS_SEND_END,1516214592780,185
30,WS_RECV_START,1516214592780,186
30,WS_RECV_END,1516214596440,186
30,PLAYER_SLEEPBEFORE_START,1516214596440,187
30,PLAYER_SLEEPBEFORE_END,1516214618940,187
30,WS_SEND_START,1516214618940,187
30,WS_SEND_END,1516214618940,187
30,WS_RECV_START,1516214618940,188
30,WS_RECV_END,1516214628237,188
30,PLAYER_SLEEPBEFORE_START,1516214628237,189
30,PLAYER_SLEEPBEFORE_END,1516214634476,189
30,WS_SEND_START,1516214634476,189
30,WS_SEND_END,1516214634476,189
30,WS_RECV_START,1516214634476,190
30,WS_RECV_END,1516214643037,190
30,PLAYER_SLEEPBEFORE_START,1516214643037,191
30,PLAYER_SLEEPBEFORE_END,1516214644953,191
30,WS_SEND_START,1516214644953,191
30,WS_SEND_END,1516214644953,191
30,WS_RECV_START,1516214644953,192
30,WS_RECV_END,1516214656542,192
30,PLAYER_SLEEPBEFORE_START,1516214656542,193
30,PLAYER_SLEEPBEFORE_END,1516214656670,193
30,WS_SEND_START,1516214656670,193
30,WS_SEND_END,1516214656670,193
30,WS_RECV_START,1516214656670,194
30,WS_RECV_END,1516214662246,194
30,PLAYER_SLEEPBEFORE_START,1516214662246,195
30,PLAYER_SLEEPBEFORE_END,1516214664001,195
30,WS_SEND_START,1516214664001,195
30,WS_SEND_END,1516214664001,195
30,WS_RECV_START,1516214664001,196
30,WS_RECV_END,1516214668791,196
30,PLAYER_SLEEPBEFORE_START,1516214668791,197
30,PLAYER_SLEEPBEFORE_END,1516214670595,197
30,WS_SEND_START,1516214670595,197
30,WS_SEND_END,1516214670595,197
30,WS_RECV_START,1516214670595,198
30,WS_RECV_END,1516214675275,198
30,PLAYER_SLEEPBEFORE_START,1516214675275,199
30,PLAYER_SLEEPBEFORE_END,1516214687129,199
30,WS_SEND_START,1516214687129,199
30,WS_SEND_END,1516214687129,199
30,PLAYER_SLEEPBEFORE_START,1516214687129,200
30,PLAYER_SLEEPBEFORE_END,1516214691218,200
30,WS_SEND_START,1516214691218,200
30,WS_SEND_END,1516214691218,200
30,WS_RECV_START,1516214691218,201
30,WS_RECV_END,1516214695453,201
30,PLAYER_SLEEPBEFORE_START,1516214695453,202
30,PLAYER_SLEEPBEFORE_END,1516214695468,202
30,WS_SEND_START,1516214695468,202
30,WS_SEND_END,1516214695468,202
30,WS_RECV_START,1516214695468,203
30,WS_RECV_END,1516214698731,203
30,PLAYER_SLEEPBEFORE_START,1516214698731,204
30,PLAYER_SLEEPBEFORE_END,1516214718381,204
30,WS_SEND_START,1516214718381,204
30,WS_SEND_END,1516214718381,204
30,PLAYER_SLEEPBEFORE_START,1516214718381,205
30,PLAYER_SLEEPBEFORE_END,1516214722279,205
30,WS_SEND_START,1516214722279,205
30,WS_SEND_END,1516214722279,205
30,WS_RECV_START,1516214722279,206
30,WS_RECV_END,1516214723424,206
30,PLAYER_SLEEPBEFORE_START,1516214723424,207
30,PLAYER_SLEEPBEFORE_END,1516214740355,207
30,REQ_START,1516214740355,207
30,REQ_END,1516214740363,207
30,PLAYER_SLEEPBEFORE_START,1516214740363,208
30,PLAYER_SLEEPBEFORE_END,1516214747215,208
30,WS_CLOSE_START,1516214747215,208
30,WS_CLOSE_END,1516214747215,208
30,PLAYER_DONE,1516214747215
