# --sessions 90 --app-url=http://shinyloadtest.rstudioservices.com/cran_explorer --output-dir test90 --overwrite-output --log-level warn --start-interval 500 15min.log
thread_id,event,timestamp,input_line_number,comment
48,PLAYER_SESSION_CREATE,1516213736089
48,PLAYER_START_INTERVAL_START,1516213736089
48,PLAYER_START_INTERVAL_END,1516213760089
48,REQ_HOME_START,1516213760089,2
48,REQ_HOME_END,1516213760606,2
48,REQ_START,1516213760606,3
48,REQ_END,1516213761269,3
48,REQ_START,1516213761269,4
48,REQ_END,1516213762090,4
48,REQ_START,1516213762090,5
48,REQ_END,1516213762750,5
48,REQ_START,1516213762750,6
48,REQ_END,1516213763467,6
48,REQ_START,1516213763467,7
48,REQ_END,1516213764272,7
48,REQ_START,1516213764272,8
48,REQ_END,1516213765001,8
48,REQ_START,1516213765001,9
48,REQ_END,1516213765809,9
48,REQ_START,1516213765809,10
48,REQ_END,1516213765817,10
48,REQ_START,1516213765817,11
48,REQ_END,1516213766607,11
48,REQ_START,1516213766607,12
48,REQ_END,1516213766618,12
48,REQ_START,1516213766618,13
48,REQ_END,1516213767432,13
48,REQ_START,1516213767432,14
48,REQ_END,1516213767448,14
48,REQ_START,1516213767448,15
48,REQ_END,1516213768633,15
48,REQ_TOK_START,1516213768633,16
48,REQ_TOK_END,1516213768642,16
48,REQ_SINF_START,1516213768642,17
48,REQ_SINF_END,1516213768650,17
48,WS_OPEN_START,1516213768650,18
48,WS_OPEN_END,1516213768657,18
48,REQ_START,1516213768657,19
48,REQ_END,1516213769834,19
48,WS_RECV_START,1516213769834,20
48,WS_RECV_END,1516213769834,20
48,PLAYER_SLEEPBEFORE_START,1516213769834,21
48,PLAYER_SLEEPBEFORE_END,1516213769839,21
48,WS_SEND_START,1516213769839,21
48,WS_SEND_END,1516213769839,21
48,PLAYER_SLEEPBEFORE_START,1516213769839,22
48,PLAYER_SLEEPBEFORE_END,1516213769840,22
48,WS_SEND_START,1516213769840,22
48,WS_SEND_END,1516213769840,22
48,WS_RECV_INIT_START,1516213769840,23
48,WS_RECV_INIT_END,1516213770724,23
48,WS_RECV_START,1516213770724,24
48,WS_RECV_END,1516213771027,24
48,PLAYER_SLEEPBEFORE_START,1516213771027,25
48,PLAYER_SLEEPBEFORE_END,1516213771034,25
48,REQ_START,1516213771034,25
48,REQ_END,1516213772228,25
48,PLAYER_SLEEPBEFORE_START,1516213772228,26
48,PLAYER_SLEEPBEFORE_END,1516213772230,26
48,REQ_START,1516213772231,26
48,REQ_END,1516213773290,26
48,PLAYER_SLEEPBEFORE_START,1516213773290,27
48,PLAYER_SLEEPBEFORE_END,1516213773294,27
48,REQ_START,1516213773294,27
48,REQ_END,1516213774734,27
48,PLAYER_SLEEPBEFORE_START,1516213774734,28
48,PLAYER_SLEEPBEFORE_END,1516213775019,28
48,REQ_START,1516213775019,28
48,REQ_END,1516213776179,28
48,PLAYER_SLEEPBEFORE_START,1516213776179,29
48,PLAYER_SLEEPBEFORE_END,1516213776354,29
48,WS_SEND_START,1516213776354,29
48,WS_SEND_END,1516213776354,29
48,WS_RECV_START,1516213776354,30
48,WS_RECV_END,1516213776865,30
48,PLAYER_SLEEPBEFORE_START,1516213776865,31
48,PLAYER_SLEEPBEFORE_END,1516213776876,31
48,REQ_START,1516213776876,31
48,REQ_END,1516213778190,31
48,PLAYER_SLEEPBEFORE_START,1516213778190,32
48,PLAYER_SLEEPBEFORE_END,1516213806335,32
48,WS_SEND_START,1516213806335,32
48,WS_SEND_END,1516213806335,32
48,WS_RECV_START,1516213806335,33
48,WS_RECV_END,1516213807092,33
48,PLAYER_SLEEPBEFORE_START,1516213807092,34
48,PLAYER_SLEEPBEFORE_END,1516213833003,34
48,WS_SEND_START,1516213833003,34
48,WS_SEND_END,1516213833003,34
48,WS_RECV_START,1516213833003,35
48,WS_RECV_END,1516213834205,35
48,PLAYER_SLEEPBEFORE_START,1516213834205,36
48,PLAYER_SLEEPBEFORE_END,1516213834214,36
48,WS_SEND_START,1516213834214,36
48,WS_SEND_END,1516213834214,36
48,WS_RECV_START,1516213834214,37
48,WS_RECV_END,1516213834809,37
48,PLAYER_SLEEPBEFORE_START,1516213834809,38
48,PLAYER_SLEEPBEFORE_END,1516213838005,38
48,WS_SEND_START,1516213838005,38
48,WS_SEND_END,1516213838005,38
48,WS_RECV_START,1516213838005,39
48,WS_RECV_END,1516213839502,39
48,PLAYER_SLEEPBEFORE_START,1516213839503,40
48,PLAYER_SLEEPBEFORE_END,1516213839549,40
48,WS_SEND_START,1516213839549,40
48,WS_SEND_END,1516213839549,40
48,WS_RECV_START,1516213839549,41
48,WS_RECV_END,1516213840271,41
48,PLAYER_SLEEPBEFORE_START,1516213840271,42
48,PLAYER_SLEEPBEFORE_END,1516213858406,42
48,WS_SEND_START,1516213858406,42
48,WS_SEND_END,1516213858406,42
48,WS_RECV_START,1516213858406,43
48,WS_RECV_END,1516213859184,43
48,PLAYER_SLEEPBEFORE_START,1516213859184,44
48,PLAYER_SLEEPBEFORE_END,1516213859196,44
48,WS_SEND_START,1516213859196,44
48,WS_SEND_END,1516213859197,44
48,WS_RECV_START,1516213859197,45
48,WS_RECV_END,1516213859949,45
48,PLAYER_SLEEPBEFORE_START,1516213859950,46
48,PLAYER_SLEEPBEFORE_END,1516213861210,46
48,WS_SEND_START,1516213861210,46
48,WS_SEND_END,1516213861210,46
48,WS_RECV_START,1516213861210,47
48,WS_RECV_END,1516213862098,47
48,PLAYER_SLEEPBEFORE_START,1516213862098,48
48,PLAYER_SLEEPBEFORE_END,1516213863418,48
48,WS_SEND_START,1516213863418,48
48,WS_SEND_END,1516213863418,48
48,WS_RECV_START,1516213863418,49
48,WS_RECV_END,1516213864541,49
48,PLAYER_SLEEPBEFORE_START,1516213864541,50
48,PLAYER_SLEEPBEFORE_END,1516213864565,50
48,WS_SEND_START,1516213864565,50
48,WS_SEND_END,1516213864565,50
48,WS_RECV_START,1516213864565,51
48,WS_RECV_END,1516213864903,51
48,PLAYER_SLEEPBEFORE_START,1516213864903,52
48,PLAYER_SLEEPBEFORE_END,1516213887467,52
48,WS_SEND_START,1516213887467,52
48,WS_SEND_END,1516213887467,52
48,WS_RECV_START,1516213887467,53
48,WS_RECV_END,1516213887616,53
48,PLAYER_SLEEPBEFORE_START,1516213887616,54
48,PLAYER_SLEEPBEFORE_END,1516213908919,54
48,WS_SEND_START,1516213908919,54
48,WS_SEND_END,1516213908919,54
48,PLAYER_SLEEPBEFORE_START,1516213908919,55
48,PLAYER_SLEEPBEFORE_END,1516213910860,55
48,WS_SEND_START,1516213910860,55
48,WS_SEND_END,1516213910860,55
48,WS_RECV_START,1516213910860,56
48,WS_RECV_END,1516213910959,56
48,PLAYER_SLEEPBEFORE_START,1516213910959,57
48,PLAYER_SLEEPBEFORE_END,1516213933831,57
48,WS_SEND_START,1516213933831,57
48,WS_SEND_END,1516213933832,57
48,WS_RECV_START,1516213933832,58
48,WS_RECV_END,1516213933911,58
48,PLAYER_SLEEPBEFORE_START,1516213933911,59
48,PLAYER_SLEEPBEFORE_END,1516213936239,59
48,WS_SEND_START,1516213936239,59
48,WS_SEND_END,1516213936239,59
48,WS_RECV_START,1516213936239,60
48,WS_RECV_END,1516213936459,60
48,PLAYER_SLEEPBEFORE_START,1516213936459,61
48,PLAYER_SLEEPBEFORE_END,1516213940050,61
48,WS_SEND_START,1516213940050,61
48,WS_SEND_END,1516213940050,61
48,WS_RECV_START,1516213940050,62
48,WS_RECV_END,1516213940198,62
48,PLAYER_SLEEPBEFORE_START,1516213940198,63
48,PLAYER_SLEEPBEFORE_END,1516213959460,63
48,WS_SEND_START,1516213959460,63
48,WS_SEND_END,1516213959460,63
48,WS_RECV_START,1516213959460,64
48,WS_RECV_END,1516213959794,64
48,PLAYER_SLEEPBEFORE_START,1516213959794,65
48,PLAYER_SLEEPBEFORE_END,1516213986611,65
48,WS_SEND_START,1516213986611,65
48,WS_SEND_END,1516213986611,65
48,WS_RECV_START,1516213986611,66
48,WS_RECV_END,1516213986729,66
48,PLAYER_SLEEPBEFORE_START,1516213986729,67
48,PLAYER_SLEEPBEFORE_END,1516213988236,67
48,WS_SEND_START,1516213988236,67
48,WS_SEND_END,1516213988236,67
48,WS_RECV_START,1516213988236,68
48,WS_RECV_END,1516213988356,68
48,PLAYER_SLEEPBEFORE_START,1516213988356,69
48,PLAYER_SLEEPBEFORE_END,1516214010354,69
48,WS_SEND_START,1516214010354,69
48,WS_SEND_END,1516214010354,69
48,WS_RECV_START,1516214010354,70
48,WS_RECV_END,1516214010967,70
48,PLAYER_SLEEPBEFORE_START,1516214010967,71
48,PLAYER_SLEEPBEFORE_END,1516214035742,71
48,WS_SEND_START,1516214035742,71
48,WS_SEND_END,1516214035742,71
48,PLAYER_SLEEPBEFORE_START,1516214035742,72
48,PLAYER_SLEEPBEFORE_END,1516214038349,72
48,WS_SEND_START,1516214038349,72
48,WS_SEND_END,1516214038349,72
48,WS_RECV_START,1516214038349,73
48,WS_RECV_END,1516214038541,73
48,PLAYER_SLEEPBEFORE_START,1516214038541,74
48,PLAYER_SLEEPBEFORE_END,1516214038550,74
48,WS_SEND_START,1516214038550,74
48,WS_SEND_END,1516214038551,74
48,WS_RECV_START,1516214038551,75
48,WS_RECV_END,1516214038736,75
48,PLAYER_SLEEPBEFORE_START,1516214038736,76
48,PLAYER_SLEEPBEFORE_END,1516214040243,76
48,WS_SEND_START,1516214040243,76
48,WS_SEND_END,1516214040243,76
48,WS_RECV_START,1516214040243,77
48,WS_RECV_END,1516214040702,77
48,PLAYER_SLEEPBEFORE_START,1516214040702,78
48,PLAYER_SLEEPBEFORE_END,1516214041570,78
48,WS_SEND_START,1516214041570,78
48,WS_SEND_END,1516214041570,78
48,WS_RECV_START,1516214041570,79
48,WS_RECV_END,1516214041868,79
48,PLAYER_SLEEPBEFORE_START,1516214041868,80
48,PLAYER_SLEEPBEFORE_END,1516214049534,80
48,WS_SEND_START,1516214049534,80
48,WS_SEND_END,1516214049534,80
48,WS_RECV_START,1516214049534,81
48,WS_RECV_END,1516214049602,81
48,PLAYER_SLEEPBEFORE_START,1516214049602,82
48,PLAYER_SLEEPBEFORE_END,1516214050705,82
48,WS_SEND_START,1516214050705,82
48,WS_SEND_END,1516214050705,82
48,WS_RECV_START,1516214050705,83
48,WS_RECV_END,1516214050983,83
48,PLAYER_SLEEPBEFORE_START,1516214050983,84
48,PLAYER_SLEEPBEFORE_END,1516214051930,84
48,WS_SEND_START,1516214051930,84
48,WS_SEND_END,1516214051930,84
48,WS_RECV_START,1516214051930,85
48,WS_RECV_END,1516214052191,85
48,PLAYER_SLEEPBEFORE_START,1516214052191,86
48,PLAYER_SLEEPBEFORE_END,1516214056363,86
48,WS_SEND_START,1516214056363,86
48,WS_SEND_END,1516214056363,86
48,WS_RECV_START,1516214056363,87
48,WS_RECV_END,1516214056689,87
48,PLAYER_SLEEPBEFORE_START,1516214056689,88
48,PLAYER_SLEEPBEFORE_END,1516214056697,88
48,WS_SEND_START,1516214056697,88
48,WS_SEND_END,1516214056697,88
48,WS_RECV_START,1516214056697,89
48,WS_RECV_END,1516214057148,89
48,PLAYER_SLEEPBEFORE_START,1516214057148,90
48,PLAYER_SLEEPBEFORE_END,1516214084346,90
48,REQ_START,1516214084346,90
48,REQ_END,1516214084353,90
48,PLAYER_SLEEPBEFORE_START,1516214084353,91
48,PLAYER_SLEEPBEFORE_END,1516214092242,91
48,WS_SEND_START,1516214092242,91
48,WS_SEND_END,1516214092242,91
48,WS_RECV_START,1516214092242,92
48,WS_RECV_END,1516214092974,92
48,PLAYER_SLEEPBEFORE_START,1516214092974,93
48,PLAYER_SLEEPBEFORE_END,1516214092989,93
48,WS_SEND_START,1516214092989,93
48,WS_SEND_END,1516214092989,93
48,WS_RECV_START,1516214092989,94
48,WS_RECV_END,1516214093402,94
48,PLAYER_SLEEPBEFORE_START,1516214093402,95
48,PLAYER_SLEEPBEFORE_END,1516214116957,95
48,WS_SEND_START,1516214116957,95
48,WS_SEND_END,1516214116957,95
48,WS_RECV_START,1516214116957,96
48,WS_RECV_END,1516214117347,96
48,PLAYER_SLEEPBEFORE_START,1516214117347,97
48,PLAYER_SLEEPBEFORE_END,1516214139787,97
48,WS_SEND_START,1516214139787,97
48,WS_SEND_END,1516214139787,97
48,WS_RECV_START,1516214139787,98
48,WS_RECV_END,1516214140199,98
48,PLAYER_SLEEPBEFORE_START,1516214140199,99
48,PLAYER_SLEEPBEFORE_END,1516214140220,99
48,WS_SEND_START,1516214140220,99
48,WS_SEND_END,1516214140220,99
48,WS_RECV_START,1516214140220,100
48,WS_RECV_END,1516214140608,100
48,PLAYER_SLEEPBEFORE_START,1516214140608,101
48,PLAYER_SLEEPBEFORE_END,1516214164167,101
48,WS_SEND_START,1516214164167,101
48,WS_SEND_END,1516214164167,101
48,WS_RECV_START,1516214164167,102
48,WS_RECV_END,1516214164469,102
48,PLAYER_SLEEPBEFORE_START,1516214164469,103
48,PLAYER_SLEEPBEFORE_END,1516214188094,103
48,WS_SEND_START,1516214188094,103
48,WS_SEND_END,1516214188094,103
48,WS_RECV_START,1516214188094,104
48,WS_RECV_END,1516214188225,104
48,PLAYER_SLEEPBEFORE_START,1516214188225,105
48,PLAYER_SLEEPBEFORE_END,1516214213602,105
48,WS_SEND_START,1516214213602,105
48,WS_SEND_END,1516214213602,105
48,WS_RECV_START,1516214213602,106
48,WS_RECV_END,1516214213763,106
48,PLAYER_SLEEPBEFORE_START,1516214213763,107
48,PLAYER_SLEEPBEFORE_END,1516214237186,107
48,WS_SEND_START,1516214237186,107
48,WS_SEND_END,1516214237186,107
48,WS_RECV_START,1516214237186,108
48,WS_RECV_END,1516214238255,108
48,PLAYER_SLEEPBEFORE_START,1516214238255,109
48,PLAYER_SLEEPBEFORE_END,1516214238264,109
48,WS_SEND_START,1516214238264,109
48,WS_SEND_END,1516214238264,109
48,WS_RECV_START,1516214238264,110
48,WS_RECV_END,1516214239394,110
48,PLAYER_SLEEPBEFORE_START,1516214239394,111
48,PLAYER_SLEEPBEFORE_END,1516214240353,111
48,WS_SEND_START,1516214240353,111
48,WS_SEND_END,1516214240353,111
48,WS_RECV_START,1516214240353,112
48,WS_RECV_END,1516214242319,112
48,PLAYER_SLEEPBEFORE_START,1516214242319,113
48,PLAYER_SLEEPBEFORE_END,1516214242881,113
48,WS_SEND_START,1516214242881,113
48,WS_SEND_END,1516214242881,113
48,WS_RECV_START,1516214242881,114
48,WS_RECV_END,1516214244203,114
48,PLAYER_SLEEPBEFORE_START,1516214244203,115
48,PLAYER_SLEEPBEFORE_END,1516214244212,115
48,WS_SEND_START,1516214244212,115
48,WS_SEND_END,1516214244212,115
48,WS_RECV_START,1516214244212,116
48,WS_RECV_END,1516214246811,116
48,PLAYER_SLEEPBEFORE_START,1516214246811,117
48,PLAYER_SLEEPBEFORE_END,1516214267171,117
48,WS_SEND_START,1516214267171,117
48,WS_SEND_END,1516214267171,117
48,PLAYER_SLEEPBEFORE_START,1516214267171,118
48,PLAYER_SLEEPBEFORE_END,1516214270923,118
48,WS_SEND_START,1516214270923,118
48,WS_SEND_END,1516214270923,118
48,WS_RECV_START,1516214270923,119
48,WS_RECV_END,1516214271844,119
48,PLAYER_SLEEPBEFORE_START,1516214271844,120
48,PLAYER_SLEEPBEFORE_END,1516214272832,120
48,WS_SEND_START,1516214272832,120
48,WS_SEND_END,1516214272832,120
48,WS_RECV_START,1516214272832,121
48,WS_RECV_END,1516214274268,121
48,PLAYER_SLEEPBEFORE_START,1516214274268,122
48,PLAYER_SLEEPBEFORE_END,1516214275453,122
48,WS_SEND_START,1516214275453,122
48,WS_SEND_END,1516214275453,122
48,WS_RECV_START,1516214275453,123
48,WS_RECV_END,1516214277007,123
48,PLAYER_SLEEPBEFORE_START,1516214277007,124
48,PLAYER_SLEEPBEFORE_END,1516214301412,124
48,WS_SEND_START,1516214301412,124
48,WS_SEND_END,1516214301413,124
48,WS_RECV_START,1516214301413,125
48,WS_RECV_END,1516214302562,125
48,PLAYER_SLEEPBEFORE_START,1516214302562,126
48,PLAYER_SLEEPBEFORE_END,1516214323074,126
48,WS_SEND_START,1516214323074,126
48,WS_SEND_END,1516214323074,126
48,PLAYER_SLEEPBEFORE_START,1516214323074,127
48,PLAYER_SLEEPBEFORE_END,1516214326128,127
48,WS_SEND_START,1516214326128,127
48,WS_SEND_END,1516214326128,127
48,WS_RECV_START,1516214326128,128
48,WS_RECV_END,1516214326358,128
48,PLAYER_SLEEPBEFORE_START,1516214326358,129
48,PLAYER_SLEEPBEFORE_END,1516214326378,129
48,WS_SEND_START,1516214326379,129
48,WS_SEND_END,1516214326379,129
48,WS_RECV_START,1516214326379,130
48,WS_RECV_END,1516214326508,130
48,PLAYER_SLEEPBEFORE_START,1516214326508,131
48,PLAYER_SLEEPBEFORE_END,1516214348132,131
48,WS_SEND_START,1516214348132,131
48,WS_SEND_END,1516214348132,131
48,PLAYER_SLEEPBEFORE_START,1516214348132,132
48,PLAYER_SLEEPBEFORE_END,1516214351212,132
48,WS_SEND_START,1516214351212,132
48,WS_SEND_END,1516214351212,132
48,WS_RECV_START,1516214351212,133
48,WS_RECV_END,1516214351997,133
48,PLAYER_SLEEPBEFORE_START,1516214351997,134
48,PLAYER_SLEEPBEFORE_END,1516214373214,134
48,WS_SEND_START,1516214373214,134
48,WS_SEND_END,1516214373214,134
48,PLAYER_SLEEPBEFORE_START,1516214373214,135
48,PLAYER_SLEEPBEFORE_END,1516214376404,135
48,WS_SEND_START,1516214376404,135
48,WS_SEND_END,1516214376404,135
48,WS_RECV_START,1516214376404,136
48,WS_RECV_END,1516214376524,136
48,PLAYER_SLEEPBEFORE_START,1516214376524,137
48,PLAYER_SLEEPBEFORE_END,1516214376531,137
48,WS_SEND_START,1516214376531,137
48,WS_SEND_END,1516214376531,137
48,WS_RECV_START,1516214376531,138
48,WS_RECV_END,1516214376572,138
48,PLAYER_SLEEPBEFORE_START,1516214376572,139
48,PLAYER_SLEEPBEFORE_END,1516214377262,139
48,WS_SEND_START,1516214377262,139
48,WS_SEND_END,1516214377262,139
48,WS_RECV_START,1516214377262,140
48,WS_RECV_END,1516214377326,140
48,PLAYER_SLEEPBEFORE_START,1516214377326,141
48,PLAYER_SLEEPBEFORE_END,1516214377981,141
48,WS_SEND_START,1516214377981,141
48,WS_SEND_END,1516214377981,141
48,WS_RECV_START,1516214377981,142
48,WS_RECV_END,1516214378216,142
48,PLAYER_SLEEPBEFORE_START,1516214378216,143
48,PLAYER_SLEEPBEFORE_END,1516214378273,143
48,WS_SEND_START,1516214378273,143
48,WS_SEND_END,1516214378273,143
48,WS_RECV_START,1516214378273,144
48,WS_RECV_END,1516214378450,144
48,PLAYER_SLEEPBEFORE_START,1516214378450,145
48,PLAYER_SLEEPBEFORE_END,1516214394513,145
48,REQ_START,1516214394513,145
48,REQ_END,1516214394522,145
48,PLAYER_SLEEPBEFORE_START,1516214394522,146
48,PLAYER_SLEEPBEFORE_END,1516214403399,146
48,WS_SEND_START,1516214403399,146
48,WS_SEND_END,1516214403399,146
48,WS_RECV_START,1516214403399,147
48,WS_RECV_END,1516214404689,147
48,PLAYER_SLEEPBEFORE_START,1516214404689,148
48,PLAYER_SLEEPBEFORE_END,1516214426611,148
48,WS_SEND_START,1516214426611,148
48,WS_SEND_END,1516214426611,148
48,PLAYER_SLEEPBEFORE_START,1516214426611,149
48,PLAYER_SLEEPBEFORE_END,1516214429039,149
48,WS_SEND_START,1516214429039,149
48,WS_SEND_END,1516214429039,149
48,WS_RECV_START,1516214429039,150
48,WS_RECV_END,1516214429378,150
48,PLAYER_SLEEPBEFORE_START,1516214429378,151
48,PLAYER_SLEEPBEFORE_END,1516214429588,151
48,WS_SEND_START,1516214429588,151
48,WS_SEND_END,1516214429588,151
48,WS_RECV_START,1516214429588,152
48,WS_RECV_END,1516214429716,152
48,PLAYER_SLEEPBEFORE_START,1516214429716,153
48,PLAYER_SLEEPBEFORE_END,1516214453643,153
48,WS_SEND_START,1516214453643,153
48,WS_SEND_END,1516214453643,153
48,WS_RECV_START,1516214453643,154
48,WS_RECV_END,1516214454112,154
48,PLAYER_SLEEPBEFORE_START,1516214454112,155
48,PLAYER_SLEEPBEFORE_END,1516214476670,155
48,WS_SEND_START,1516214476670,155
48,WS_SEND_END,1516214476670,155
48,PLAYER_SLEEPBEFORE_START,1516214476670,156
48,PLAYER_SLEEPBEFORE_END,1516214479945,156
48,WS_SEND_START,1516214479945,156
48,WS_SEND_END,1516214479945,156
48,WS_RECV_START,1516214479945,157
48,WS_RECV_END,1516214480607,157
48,PLAYER_SLEEPBEFORE_START,1516214480607,158
48,PLAYER_SLEEPBEFORE_END,1516214480617,158
48,WS_SEND_START,1516214480618,158
48,WS_SEND_END,1516214480618,158
48,WS_RECV_START,1516214480618,159
48,WS_RECV_END,1516214480827,159
48,PLAYER_SLEEPBEFORE_START,1516214480827,160
48,PLAYER_SLEEPBEFORE_END,1516214481002,160
48,WS_SEND_START,1516214481002,160
48,WS_SEND_END,1516214481003,160
48,WS_RECV_START,1516214481003,161
48,WS_RECV_END,1516214481165,161
48,PLAYER_SLEEPBEFORE_START,1516214481165,162
48,PLAYER_SLEEPBEFORE_END,1516214481190,162
48,WS_SEND_START,1516214481190,162
48,WS_SEND_END,1516214481190,162
48,WS_RECV_START,1516214481190,163
48,WS_RECV_END,1516214481310,163
48,PLAYER_SLEEPBEFORE_START,1516214481310,164
48,PLAYER_SLEEPBEFORE_END,1516214502122,164
48,WS_SEND_START,1516214502122,164
48,WS_SEND_END,1516214502122,164
48,WS_RECV_START,1516214502122,165
48,WS_RECV_END,1516214502374,165
48,PLAYER_SLEEPBEFORE_START,1516214502374,166
48,PLAYER_SLEEPBEFORE_END,1516214524829,166
48,WS_SEND_START,1516214524829,166
48,WS_SEND_END,1516214524829,166
48,WS_RECV_START,1516214524829,167
48,WS_RECV_END,1516214525421,167
48,PLAYER_SLEEPBEFORE_START,1516214525421,168
48,PLAYER_SLEEPBEFORE_END,1516214552778,168
48,WS_SEND_START,1516214552778,168
48,WS_SEND_END,1516214552778,168
48,WS_RECV_START,1516214552778,169
48,WS_RECV_END,1516214553617,169
48,PLAYER_SLEEPBEFORE_START,1516214553617,170
48,PLAYER_SLEEPBEFORE_END,1516214553626,170
48,WS_SEND_START,1516214553626,170
48,WS_SEND_END,1516214553626,170
48,WS_RECV_START,1516214553626,171
48,WS_RECV_END,1516214553835,171
48,PLAYER_SLEEPBEFORE_START,1516214553835,172
48,PLAYER_SLEEPBEFORE_END,1516214554204,172
48,WS_SEND_START,1516214554204,172
48,WS_SEND_END,1516214554204,172
48,WS_RECV_START,1516214554204,173
48,WS_RECV_END,1516214554680,173
48,PLAYER_SLEEPBEFORE_START,1516214554680,174
48,PLAYER_SLEEPBEFORE_END,1516214554721,174
48,WS_SEND_START,1516214554721,174
48,WS_SEND_END,1516214554722,174
48,WS_RECV_START,1516214554722,175
48,WS_RECV_END,1516214554924,175
48,PLAYER_SLEEPBEFORE_START,1516214554924,176
48,PLAYER_SLEEPBEFORE_END,1516214576685,176
48,WS_SEND_START,1516214576685,176
48,WS_SEND_END,1516214576685,176
48,PLAYER_SLEEPBEFORE_START,1516214576685,177
48,PLAYER_SLEEPBEFORE_END,1516214579203,177
48,WS_SEND_START,1516214579203,177
48,WS_SEND_END,1516214579203,177
48,WS_RECV_START,1516214579203,178
48,WS_RECV_END,1516214581342,178
48,PLAYER_SLEEPBEFORE_START,1516214581342,179
48,PLAYER_SLEEPBEFORE_END,1516214603682,179
48,WS_SEND_START,1516214603682,179
48,WS_SEND_END,1516214603682,179
48,WS_RECV_START,1516214603682,180
48,WS_RECV_END,1516214611436,180
48,PLAYER_SLEEPBEFORE_START,1516214611436,181
48,PLAYER_SLEEPBEFORE_END,1516214611880,181
48,WS_SEND_START,1516214611880,181
48,WS_SEND_END,1516214611880,181
48,WS_RECV_START,1516214611880,182
48,WS_RECV_END,1516214615239,182
48,PLAYER_SLEEPBEFORE_START,1516214615239,183
48,PLAYER_SLEEPBEFORE_END,1516214615762,183
48,WS_SEND_START,1516214615763,183
48,WS_SEND_END,1516214615763,183
48,WS_RECV_START,1516214615763,184
48,WS_RECV_END,1516214620231,184
48,PLAYER_SLEEPBEFORE_START,1516214620231,185
48,PLAYER_SLEEPBEFORE_END,1516214620499,185
48,WS_SEND_START,1516214620499,185
48,WS_SEND_END,1516214620499,185
48,WS_RECV_START,1516214620499,186
48,WS_RECV_END,1516214625355,186
48,PLAYER_SLEEPBEFORE_START,1516214625355,187
48,PLAYER_SLEEPBEFORE_END,1516214647856,187
48,WS_SEND_START,1516214647856,187
48,WS_SEND_END,1516214647856,187
48,WS_RECV_START,1516214647856,188
48,WS_RECV_END,1516214657803,188
48,PLAYER_SLEEPBEFORE_START,1516214657803,189
48,PLAYER_SLEEPBEFORE_END,1516214664042,189
48,WS_SEND_START,1516214664042,189
48,WS_SEND_END,1516214664042,189
48,WS_RECV_START,1516214664042,190
48,WS_RECV_END,1516214673407,190
48,PLAYER_SLEEPBEFORE_START,1516214673407,191
48,PLAYER_SLEEPBEFORE_END,1516214675322,191
48,WS_SEND_START,1516214675322,191
48,WS_SEND_END,1516214675322,191
48,WS_RECV_START,1516214675322,192
48,WS_RECV_END,1516214687218,192
48,PLAYER_SLEEPBEFORE_START,1516214687218,193
48,PLAYER_SLEEPBEFORE_END,1516214687346,193
48,WS_SEND_START,1516214687346,193
48,WS_SEND_END,1516214687346,193
48,WS_RECV_START,1516214687346,194
48,WS_RECV_END,1516214692497,194
48,PLAYER_SLEEPBEFORE_START,1516214692497,195
48,PLAYER_SLEEPBEFORE_END,1516214694253,195
48,WS_SEND_START,1516214694253,195
48,WS_SEND_END,1516214694253,195
48,WS_RECV_START,1516214694253,196
48,WS_RECV_END,1516214697431,196
48,PLAYER_SLEEPBEFORE_START,1516214697431,197
48,PLAYER_SLEEPBEFORE_END,1516214699235,197
48,WS_SEND_START,1516214699235,197
48,WS_SEND_END,1516214699235,197
48,WS_RECV_START,1516214699235,198
48,WS_RECV_END,1516214702660,198
48,PLAYER_SLEEPBEFORE_START,1516214702660,199
48,PLAYER_SLEEPBEFORE_END,1516214714514,199
48,WS_SEND_START,1516214714514,199
48,WS_SEND_END,1516214714514,199
48,PLAYER_SLEEPBEFORE_START,1516214714514,200
48,PLAYER_SLEEPBEFORE_END,1516214718603,200
48,WS_SEND_START,1516214718603,200
48,WS_SEND_END,1516214718603,200
48,WS_RECV_START,1516214718603,201
48,WS_RECV_END,1516214722182,201
48,PLAYER_SLEEPBEFORE_START,1516214722182,202
48,PLAYER_SLEEPBEFORE_END,1516214722196,202
48,WS_SEND_START,1516214722197,202
48,WS_SEND_END,1516214722197,202
48,WS_RECV_START,1516214722197,203
48,WS_RECV_END,1516214725595,203
48,PLAYER_SLEEPBEFORE_START,1516214725596,204
48,PLAYER_SLEEPBEFORE_END,1516214745245,204
48,WS_SEND_START,1516214745245,204
48,WS_SEND_END,1516214745245,204
48,PLAYER_SLEEPBEFORE_START,1516214745245,205
48,PLAYER_SLEEPBEFORE_END,1516214749143,205
48,WS_SEND_START,1516214749143,205
48,WS_SEND_END,1516214749143,205
48,WS_RECV_START,1516214749143,206
48,WS_RECV_END,1516214749282,206
48,PLAYER_SLEEPBEFORE_START,1516214749282,207
48,PLAYER_SLEEPBEFORE_END,1516214766213,207
48,REQ_START,1516214766213,207
48,REQ_END,1516214766222,207
48,PLAYER_SLEEPBEFORE_START,1516214766222,208
48,PLAYER_SLEEPBEFORE_END,1516214773074,208
48,WS_CLOSE_START,1516214773074,208
48,WS_CLOSE_END,1516214773074,208
48,PLAYER_DONE,1516214773074
