# --sessions 90 --app-url=http://shinyloadtest.rstudioservices.com/cran_explorer --output-dir test90 --overwrite-output --log-level warn --start-interval 500 15min.log
thread_id,event,timestamp,input_line_number,comment
62,PLAYER_SESSION_CREATE,1516213736118
62,PLAYER_START_INTERVAL_START,1516213736118
62,PLAYER_START_INTERVAL_END,1516213767118
62,REQ_HOME_START,1516213767118,2
62,REQ_HOME_END,1516213767996,2
62,REQ_START,1516213767996,3
62,REQ_END,1516213769111,3
62,REQ_START,1516213769111,4
62,REQ_END,1516213770206,4
62,REQ_START,1516213770206,5
62,REQ_END,1516213771362,5
62,REQ_START,1516213771362,6
62,REQ_END,1516213772503,6
62,REQ_START,1516213772503,7
62,REQ_END,1516213773839,7
62,REQ_START,1516213773839,8
62,REQ_END,1516213775147,8
62,REQ_START,1516213775147,9
62,REQ_END,1516213776642,9
62,REQ_START,1516213776642,10
62,REQ_END,1516213776654,10
62,REQ_START,1516213776654,11
62,REQ_END,1516213778190,11
62,REQ_START,1516213778190,12
62,REQ_END,1516213778200,12
62,REQ_START,1516213778200,13
62,REQ_END,1516213779624,13
62,REQ_START,1516213779624,14
62,REQ_END,1516213779643,14
62,REQ_START,1516213779643,15
62,REQ_END,1516213781141,15
62,REQ_TOK_START,1516213781141,16
62,REQ_TOK_END,1516213781154,16
62,REQ_SINF_START,1516213781154,17
62,REQ_SINF_END,1516213781165,17
62,WS_OPEN_START,1516213781165,18
62,WS_OPEN_END,1516213781172,18
62,REQ_START,1516213781172,19
62,REQ_END,1516213782701,19
62,WS_RECV_START,1516213782701,20
62,WS_RECV_END,1516213782701,20
62,PLAYER_SLEEPBEFORE_START,1516213782701,21
62,PLAYER_SLEEPBEFORE_END,1516213782707,21
62,WS_SEND_START,1516213782707,21
62,WS_SEND_END,1516213782707,21
62,PLAYER_SLEEPBEFORE_START,1516213782707,22
62,PLAYER_SLEEPBEFORE_END,1516213782708,22
62,WS_SEND_START,1516213782708,22
62,WS_SEND_END,1516213782708,22
62,WS_RECV_INIT_START,1516213782708,23
62,WS_RECV_INIT_END,1516213783802,23
62,WS_RECV_START,1516213783802,24
62,WS_RECV_END,1516213784065,24
62,PLAYER_SLEEPBEFORE_START,1516213784065,25
62,PLAYER_SLEEPBEFORE_END,1516213784072,25
62,REQ_START,1516213784072,25
62,REQ_END,1516213785529,25
62,PLAYER_SLEEPBEFORE_START,1516213785529,26
62,PLAYER_SLEEPBEFORE_END,1516213785531,26
62,REQ_START,1516213785531,26
62,REQ_END,1516213786670,26
62,PLAYER_SLEEPBEFORE_START,1516213786670,27
62,PLAYER_SLEEPBEFORE_END,1516213786676,27
62,REQ_START,1516213786676,27
62,REQ_END,1516213788187,27
62,PLAYER_SLEEPBEFORE_START,1516213788187,28
62,PLAYER_SLEEPBEFORE_END,1516213788473,28
62,REQ_START,1516213788473,28
62,REQ_END,1516213789453,28
62,PLAYER_SLEEPBEFORE_START,1516213789453,29
62,PLAYER_SLEEPBEFORE_END,1516213789628,29
62,WS_SEND_START,1516213789628,29
62,WS_SEND_END,1516213789628,29
62,WS_RECV_START,1516213789628,30
62,WS_RECV_END,1516213790077,30
62,PLAYER_SLEEPBEFORE_START,1516213790077,31
62,PLAYER_SLEEPBEFORE_END,1516213790088,31
62,REQ_START,1516213790088,31
62,REQ_END,1516213791207,31
62,PLAYER_SLEEPBEFORE_START,1516213791207,32
62,PLAYER_SLEEPBEFORE_END,1516213819352,32
62,WS_SEND_START,1516213819352,32
62,WS_SEND_END,1516213819352,32
62,WS_RECV_START,1516213819352,33
62,WS_RECV_END,1516213819452,33
62,PLAYER_SLEEPBEFORE_START,1516213819452,34
62,PLAYER_SLEEPBEFORE_END,1516213845363,34
62,WS_SEND_START,1516213845363,34
62,WS_SEND_END,1516213845363,34
62,WS_RECV_START,1516213845363,35
62,WS_RECV_END,1516213846611,35
62,PLAYER_SLEEPBEFORE_START,1516213846611,36
62,PLAYER_SLEEPBEFORE_END,1516213846620,36
62,WS_SEND_START,1516213846620,36
62,WS_SEND_END,1516213846620,36
62,WS_RECV_START,1516213846620,37
62,WS_RECV_END,1516213847065,37
62,PLAYER_SLEEPBEFORE_START,1516213847065,38
62,PLAYER_SLEEPBEFORE_END,1516213850260,38
62,WS_SEND_START,1516213850260,38
62,WS_SEND_END,1516213850260,38
62,WS_RECV_START,1516213850260,39
62,WS_RECV_END,1516213850680,39
62,PLAYER_SLEEPBEFORE_START,1516213850680,40
62,PLAYER_SLEEPBEFORE_END,1516213850726,40
62,WS_SEND_START,1516213850726,40
62,WS_SEND_END,1516213850726,40
62,WS_RECV_START,1516213850726,41
62,WS_RECV_END,1516213851088,41
62,PLAYER_SLEEPBEFORE_START,1516213851088,42
62,PLAYER_SLEEPBEFORE_END,1516213869223,42
62,WS_SEND_START,1516213869223,42
62,WS_SEND_END,1516213869223,42
62,WS_RECV_START,1516213869223,43
62,WS_RECV_END,1516213871612,43
62,PLAYER_SLEEPBEFORE_START,1516213871612,44
62,PLAYER_SLEEPBEFORE_END,1516213871624,44
62,WS_SEND_START,1516213871624,44
62,WS_SEND_END,1516213871624,44
62,WS_RECV_START,1516213871624,45
62,WS_RECV_END,1516213873153,45
62,PLAYER_SLEEPBEFORE_START,1516213873153,46
62,PLAYER_SLEEPBEFORE_END,1516213874413,46
62,WS_SEND_START,1516213874413,46
62,WS_SEND_END,1516213874413,46
62,WS_RECV_START,1516213874413,47
62,WS_RECV_END,1516213875993,47
62,PLAYER_SLEEPBEFORE_START,1516213875993,48
62,PLAYER_SLEEPBEFORE_END,1516213877313,48
62,WS_SEND_START,1516213877313,48
62,WS_SEND_END,1516213877313,48
62,WS_RECV_START,1516213877313,49
62,WS_RECV_END,1516213878031,49
62,PLAYER_SLEEPBEFORE_START,1516213878031,50
62,PLAYER_SLEEPBEFORE_END,1516213878055,50
62,WS_SEND_START,1516213878055,50
62,WS_SEND_END,1516213878055,50
62,WS_RECV_START,1516213878055,51
62,WS_RECV_END,1516213878889,51
62,PLAYER_SLEEPBEFORE_START,1516213878889,52
62,PLAYER_SLEEPBEFORE_END,1516213901453,52
62,WS_SEND_START,1516213901453,52
62,WS_SEND_END,1516213901453,52
62,WS_RECV_START,1516213901453,53
62,WS_RECV_END,1516213901773,53
62,PLAYER_SLEEPBEFORE_START,1516213901773,54
62,PLAYER_SLEEPBEFORE_END,1516213923076,54
62,WS_SEND_START,1516213923076,54
62,WS_SEND_END,1516213923077,54
62,PLAYER_SLEEPBEFORE_START,1516213923077,55
62,PLAYER_SLEEPBEFORE_END,1516213925018,55
62,WS_SEND_START,1516213925018,55
62,WS_SEND_END,1516213925018,55
62,WS_RECV_START,1516213925018,56
62,WS_RECV_END,1516213925158,56
62,PLAYER_SLEEPBEFORE_START,1516213925158,57
62,PLAYER_SLEEPBEFORE_END,1516213948030,57
62,WS_SEND_START,1516213948030,57
62,WS_SEND_END,1516213948030,57
62,WS_RECV_START,1516213948030,58
62,WS_RECV_END,1516213948098,58
62,PLAYER_SLEEPBEFORE_START,1516213948098,59
62,PLAYER_SLEEPBEFORE_END,1516213950425,59
62,WS_SEND_START,1516213950425,59
62,WS_SEND_END,1516213950425,59
62,WS_RECV_START,1516213950425,60
62,WS_RECV_END,1516213950672,60
62,PLAYER_SLEEPBEFORE_START,1516213950672,61
62,PLAYER_SLEEPBEFORE_END,1516213954263,61
62,WS_SEND_START,1516213954263,61
62,WS_SEND_END,1516213954263,61
62,WS_RECV_START,1516213954263,62
62,WS_RECV_END,1516213954847,62
62,PLAYER_SLEEPBEFORE_START,1516213954847,63
62,PLAYER_SLEEPBEFORE_END,1516213974109,63
62,WS_SEND_START,1516213974109,63
62,WS_SEND_END,1516213974109,63
62,WS_RECV_START,1516213974109,64
62,WS_RECV_END,1516213974149,64
62,PLAYER_SLEEPBEFORE_START,1516213974149,65
62,PLAYER_SLEEPBEFORE_END,1516214000966,65
62,WS_SEND_START,1516214000966,65
62,WS_SEND_END,1516214000966,65
62,WS_RECV_START,1516214000966,66
62,WS_RECV_END,1516214001132,66
62,PLAYER_SLEEPBEFORE_START,1516214001132,67
62,PLAYER_SLEEPBEFORE_END,1516214002640,67
62,WS_SEND_START,1516214002640,67
62,WS_SEND_END,1516214002640,67
62,WS_RECV_START,1516214002640,68
62,WS_RECV_END,1516214003074,68
62,PLAYER_SLEEPBEFORE_START,1516214003074,69
62,PLAYER_SLEEPBEFORE_END,1516214025072,69
62,WS_SEND_START,1516214025072,69
62,WS_SEND_END,1516214025072,69
62,WS_RECV_START,1516214025072,70
62,WS_RECV_END,1516214025818,70
62,PLAYER_SLEEPBEFORE_START,1516214025818,71
62,PLAYER_SLEEPBEFORE_END,1516214050594,71
62,WS_SEND_START,1516214050594,71
62,WS_SEND_END,1516214050594,71
62,PLAYER_SLEEPBEFORE_START,1516214050594,72
62,PLAYER_SLEEPBEFORE_END,1516214053201,72
62,WS_SEND_START,1516214053201,72
62,WS_SEND_END,1516214053201,72
62,WS_RECV_START,1516214053201,73
62,WS_RECV_END,1516214053891,73
62,PLAYER_SLEEPBEFORE_START,1516214053891,74
62,PLAYER_SLEEPBEFORE_END,1516214053900,74
62,WS_SEND_START,1516214053900,74
62,WS_SEND_END,1516214053900,74
62,WS_RECV_START,1516214053900,75
62,WS_RECV_END,1516214054032,75
62,PLAYER_SLEEPBEFORE_START,1516214054032,76
62,PLAYER_SLEEPBEFORE_END,1516214055539,76
62,WS_SEND_START,1516214055539,76
62,WS_SEND_END,1516214055539,76
62,WS_RECV_START,1516214055539,77
62,WS_RECV_END,1516214056154,77
62,PLAYER_SLEEPBEFORE_START,1516214056154,78
62,PLAYER_SLEEPBEFORE_END,1516214057023,78
62,WS_SEND_START,1516214057023,78
62,WS_SEND_END,1516214057023,78
62,WS_RECV_START,1516214057023,79
62,WS_RECV_END,1516214057736,79
62,PLAYER_SLEEPBEFORE_START,1516214057736,80
62,PLAYER_SLEEPBEFORE_END,1516214065403,80
62,WS_SEND_START,1516214065403,80
62,WS_SEND_END,1516214065403,80
62,WS_RECV_START,1516214065403,81
62,WS_RECV_END,1516214066346,81
62,PLAYER_SLEEPBEFORE_START,1516214066346,82
62,PLAYER_SLEEPBEFORE_END,1516214067448,82
62,WS_SEND_START,1516214067448,82
62,WS_SEND_END,1516214067448,82
62,WS_RECV_START,1516214067448,83
62,WS_RECV_END,1516214068927,83
62,PLAYER_SLEEPBEFORE_START,1516214068927,84
62,PLAYER_SLEEPBEFORE_END,1516214069874,84
62,WS_SEND_START,1516214069874,84
62,WS_SEND_END,1516214069874,84
62,WS_RECV_START,1516214069874,85
62,WS_RECV_END,1516214071333,85
62,PLAYER_SLEEPBEFORE_START,1516214071333,86
62,PLAYER_SLEEPBEFORE_END,1516214075505,86
62,WS_SEND_START,1516214075505,86
62,WS_SEND_END,1516214075505,86
62,WS_RECV_START,1516214075505,87
62,WS_RECV_END,1516214076908,87
62,PLAYER_SLEEPBEFORE_START,1516214076908,88
62,PLAYER_SLEEPBEFORE_END,1516214076916,88
62,WS_SEND_START,1516214076916,88
62,WS_SEND_END,1516214076916,88
62,WS_RECV_START,1516214076916,89
62,WS_RECV_END,1516214077960,89
62,PLAYER_SLEEPBEFORE_START,1516214077960,90
62,PLAYER_SLEEPBEFORE_END,1516214105157,90
62,REQ_START,1516214105157,90
62,REQ_END,1516214105165,90
62,PLAYER_SLEEPBEFORE_START,1516214105165,91
62,PLAYER_SLEEPBEFORE_END,1516214113054,91
62,WS_SEND_START,1516214113054,91
62,WS_SEND_END,1516214113054,91
62,WS_RECV_START,1516214113054,92
62,WS_RECV_END,1516214113154,92
62,PLAYER_SLEEPBEFORE_START,1516214113154,93
62,PLAYER_SLEEPBEFORE_END,1516214113169,93
62,WS_SEND_START,1516214113169,93
62,WS_SEND_END,1516214113169,93
62,WS_RECV_START,1516214113169,94
62,WS_RECV_END,1516214113296,94
62,PLAYER_SLEEPBEFORE_START,1516214113296,95
62,PLAYER_SLEEPBEFORE_END,1516214136851,95
62,WS_SEND_START,1516214136851,95
62,WS_SEND_END,1516214136851,95
62,WS_RECV_START,1516214136851,96
62,WS_RECV_END,1516214137511,96
62,PLAYER_SLEEPBEFORE_START,1516214137511,97
62,PLAYER_SLEEPBEFORE_END,1516214159951,97
62,WS_SEND_START,1516214159951,97
62,WS_SEND_END,1516214159951,97
62,WS_RECV_START,1516214159951,98
62,WS_RECV_END,1516214160379,98
62,PLAYER_SLEEPBEFORE_START,1516214160379,99
62,PLAYER_SLEEPBEFORE_END,1516214160400,99
62,WS_SEND_START,1516214160400,99
62,WS_SEND_END,1516214160400,99
62,WS_RECV_START,1516214160400,100
62,WS_RECV_END,1516214160509,100
62,PLAYER_SLEEPBEFORE_START,1516214160510,101
62,PLAYER_SLEEPBEFORE_END,1516214184069,101
62,WS_SEND_START,1516214184069,101
62,WS_SEND_END,1516214184069,101
62,WS_RECV_START,1516214184069,102
62,WS_RECV_END,1516214184210,102
62,PLAYER_SLEEPBEFORE_START,1516214184210,103
62,PLAYER_SLEEPBEFORE_END,1516214207835,103
62,WS_SEND_START,1516214207835,103
62,WS_SEND_END,1516214207835,103
62,WS_RECV_START,1516214207835,104
62,WS_RECV_END,1516214207946,104
62,PLAYER_SLEEPBEFORE_START,1516214207946,105
62,PLAYER_SLEEPBEFORE_END,1516214233323,105
62,WS_SEND_START,1516214233323,105
62,WS_SEND_END,1516214233323,105
62,WS_RECV_START,1516214233323,106
62,WS_RECV_END,1516214234053,106
62,PLAYER_SLEEPBEFORE_START,1516214234053,107
62,PLAYER_SLEEPBEFORE_END,1516214257476,107
62,WS_SEND_START,1516214257476,107
62,WS_SEND_END,1516214257476,107
62,WS_RECV_START,1516214257476,108
62,WS_RECV_END,1516214259289,108
62,PLAYER_SLEEPBEFORE_START,1516214259289,109
62,PLAYER_SLEEPBEFORE_END,1516214259298,109
62,WS_SEND_START,1516214259298,109
62,WS_SEND_END,1516214259298,109
62,WS_RECV_START,1516214259298,110
62,WS_RECV_END,1516214261068,110
62,PLAYER_SLEEPBEFORE_START,1516214261068,111
62,PLAYER_SLEEPBEFORE_END,1516214262027,111
62,WS_SEND_START,1516214262027,111
62,WS_SEND_END,1516214262027,111
62,WS_RECV_START,1516214262027,112
62,WS_RECV_END,1516214262469,112
62,PLAYER_SLEEPBEFORE_START,1516214262469,113
62,PLAYER_SLEEPBEFORE_END,1516214263031,113
62,WS_SEND_START,1516214263031,113
62,WS_SEND_END,1516214263031,113
62,WS_RECV_START,1516214263031,114
62,WS_RECV_END,1516214263639,114
62,PLAYER_SLEEPBEFORE_START,1516214263639,115
62,PLAYER_SLEEPBEFORE_END,1516214263649,115
62,WS_SEND_START,1516214263649,115
62,WS_SEND_END,1516214263649,115
62,WS_RECV_START,1516214263649,116
62,WS_RECV_END,1516214264994,116
62,PLAYER_SLEEPBEFORE_START,1516214264994,117
62,PLAYER_SLEEPBEFORE_END,1516214285354,117
62,WS_SEND_START,1516214285354,117
62,WS_SEND_END,1516214285354,117
62,PLAYER_SLEEPBEFORE_START,1516214285354,118
62,PLAYER_SLEEPBEFORE_END,1516214289106,118
62,WS_SEND_START,1516214289106,118
62,WS_SEND_END,1516214289106,118
62,WS_RECV_START,1516214289106,119
62,WS_RECV_END,1516214290611,119
62,PLAYER_SLEEPBEFORE_START,1516214290611,120
62,PLAYER_SLEEPBEFORE_END,1516214291599,120
62,WS_SEND_START,1516214291599,120
62,WS_SEND_END,1516214291599,120
62,WS_RECV_START,1516214291599,121
62,WS_RECV_END,1516214291755,121
62,PLAYER_SLEEPBEFORE_START,1516214291755,122
62,PLAYER_SLEEPBEFORE_END,1516214292940,122
62,WS_SEND_START,1516214292940,122
62,WS_SEND_END,1516214292940,122
62,WS_RECV_START,1516214292940,123
62,WS_RECV_END,1516214293112,123
62,PLAYER_SLEEPBEFORE_START,1516214293112,124
62,PLAYER_SLEEPBEFORE_END,1516214317517,124
62,WS_SEND_START,1516214317517,124
62,WS_SEND_END,1516214317517,124
62,WS_RECV_START,1516214317517,125
62,WS_RECV_END,1516214318727,125
62,PLAYER_SLEEPBEFORE_START,1516214318727,126
62,PLAYER_SLEEPBEFORE_END,1516214339239,126
62,WS_SEND_START,1516214339239,126
62,WS_SEND_END,1516214339239,126
62,PLAYER_SLEEPBEFORE_START,1516214339239,127
62,PLAYER_SLEEPBEFORE_END,1516214342293,127
62,WS_SEND_START,1516214342293,127
62,WS_SEND_END,1516214342293,127
62,WS_RECV_START,1516214342293,128
62,WS_RECV_END,1516214343265,128
62,PLAYER_SLEEPBEFORE_START,1516214343265,129
62,PLAYER_SLEEPBEFORE_END,1516214343285,129
62,WS_SEND_START,1516214343285,129
62,WS_SEND_END,1516214343285,129
62,WS_RECV_START,1516214343285,130
62,WS_RECV_END,1516214344323,130
62,PLAYER_SLEEPBEFORE_START,1516214344323,131
62,PLAYER_SLEEPBEFORE_END,1516214365947,131
62,WS_SEND_START,1516214365947,131
62,WS_SEND_END,1516214365947,131
62,PLAYER_SLEEPBEFORE_START,1516214365947,132
62,PLAYER_SLEEPBEFORE_END,1516214369027,132
62,WS_SEND_START,1516214369027,132
62,WS_SEND_END,1516214369027,132
62,WS_RECV_START,1516214369027,133
62,WS_RECV_END,1516214369827,133
62,PLAYER_SLEEPBEFORE_START,1516214369828,134
62,PLAYER_SLEEPBEFORE_END,1516214391045,134
62,WS_SEND_START,1516214391045,134
62,WS_SEND_END,1516214391045,134
62,PLAYER_SLEEPBEFORE_START,1516214391045,135
62,PLAYER_SLEEPBEFORE_END,1516214394235,135
62,WS_SEND_START,1516214394235,135
62,WS_SEND_END,1516214394235,135
62,WS_RECV_START,1516214394235,136
62,WS_RECV_END,1516214394500,136
62,PLAYER_SLEEPBEFORE_START,1516214394500,137
62,PLAYER_SLEEPBEFORE_END,1516214394507,137
62,WS_SEND_START,1516214394507,137
62,WS_SEND_END,1516214394507,137
62,WS_RECV_START,1516214394507,138
62,WS_RECV_END,1516214394599,138
62,PLAYER_SLEEPBEFORE_START,1516214394599,139
62,PLAYER_SLEEPBEFORE_END,1516214395290,139
62,WS_SEND_START,1516214395290,139
62,WS_SEND_END,1516214395290,139
62,WS_RECV_START,1516214395290,140
62,WS_RECV_END,1516214395446,140
62,PLAYER_SLEEPBEFORE_START,1516214395446,141
62,PLAYER_SLEEPBEFORE_END,1516214396101,141
62,WS_SEND_START,1516214396101,141
62,WS_SEND_END,1516214396101,141
62,WS_RECV_START,1516214396101,142
62,WS_RECV_END,1516214396547,142
62,PLAYER_SLEEPBEFORE_START,1516214396547,143
62,PLAYER_SLEEPBEFORE_END,1516214396604,143
62,WS_SEND_START,1516214396604,143
62,WS_SEND_END,1516214396604,143
62,WS_RECV_START,1516214396604,144
62,WS_RECV_END,1516214396920,144
62,PLAYER_SLEEPBEFORE_START,1516214396920,145
62,PLAYER_SLEEPBEFORE_END,1516214412982,145
62,REQ_START,1516214412982,145
62,REQ_END,1516214412990,145
62,PLAYER_SLEEPBEFORE_START,1516214412990,146
62,PLAYER_SLEEPBEFORE_END,1516214421867,146
62,WS_SEND_START,1516214421867,146
62,WS_SEND_END,1516214421867,146
62,WS_RECV_START,1516214421867,147
62,WS_RECV_END,1516214422571,147
62,PLAYER_SLEEPBEFORE_START,1516214422571,148
62,PLAYER_SLEEPBEFORE_END,1516214444493,148
62,WS_SEND_START,1516214444493,148
62,WS_SEND_END,1516214444493,148
62,PLAYER_SLEEPBEFORE_START,1516214444493,149
62,PLAYER_SLEEPBEFORE_END,1516214446921,149
62,WS_SEND_START,1516214446921,149
62,WS_SEND_END,1516214446921,149
62,WS_RECV_START,1516214446921,150
62,WS_RECV_END,1516214447840,150
62,PLAYER_SLEEPBEFORE_START,1516214447840,151
62,PLAYER_SLEEPBEFORE_END,1516214448050,151
62,WS_SEND_START,1516214448050,151
62,WS_SEND_END,1516214448050,151
62,WS_RECV_START,1516214448050,152
62,WS_RECV_END,1516214448514,152
62,PLAYER_SLEEPBEFORE_START,1516214448514,153
62,PLAYER_SLEEPBEFORE_END,1516214472441,153
62,WS_SEND_START,1516214472441,153
62,WS_SEND_END,1516214472441,153
62,WS_RECV_START,1516214472441,154
62,WS_RECV_END,1516214473156,154
62,PLAYER_SLEEPBEFORE_START,1516214473156,155
62,PLAYER_SLEEPBEFORE_END,1516214495714,155
62,WS_SEND_START,1516214495714,155
62,WS_SEND_END,1516214495714,155
62,PLAYER_SLEEPBEFORE_START,1516214495714,156
62,PLAYER_SLEEPBEFORE_END,1516214498988,156
62,WS_SEND_START,1516214498988,156
62,WS_SEND_END,1516214498988,156
62,WS_RECV_START,1516214498988,157
62,WS_RECV_END,1516214499207,157
62,PLAYER_SLEEPBEFORE_START,1516214499207,158
62,PLAYER_SLEEPBEFORE_END,1516214499217,158
62,WS_SEND_START,1516214499217,158
62,WS_SEND_END,1516214499217,158
62,WS_RECV_START,1516214499217,159
62,WS_RECV_END,1516214499275,159
62,PLAYER_SLEEPBEFORE_START,1516214499275,160
62,PLAYER_SLEEPBEFORE_END,1516214499450,160
62,WS_SEND_START,1516214499450,160
62,WS_SEND_END,1516214499450,160
62,WS_RECV_START,1516214499450,161
62,WS_RECV_END,1516214499634,161
62,PLAYER_SLEEPBEFORE_START,1516214499634,162
62,PLAYER_SLEEPBEFORE_END,1516214499659,162
62,WS_SEND_START,1516214499659,162
62,WS_SEND_END,1516214499659,162
62,WS_RECV_START,1516214499659,163
62,WS_RECV_END,1516214499951,163
62,PLAYER_SLEEPBEFORE_START,1516214499951,164
62,PLAYER_SLEEPBEFORE_END,1516214520764,164
62,WS_SEND_START,1516214520764,164
62,WS_SEND_END,1516214520764,164
62,WS_RECV_START,1516214520764,165
62,WS_RECV_END,1516214520993,165
62,PLAYER_SLEEPBEFORE_START,1516214520993,166
62,PLAYER_SLEEPBEFORE_END,1516214543448,166
62,WS_SEND_START,1516214543448,166
62,WS_SEND_END,1516214543448,166
62,WS_RECV_START,1516214543448,167
62,WS_RECV_END,1516214543555,167
62,PLAYER_SLEEPBEFORE_START,1516214543555,168
62,PLAYER_SLEEPBEFORE_END,1516214570912,168
62,WS_SEND_START,1516214570912,168
62,WS_SEND_END,1516214570912,168
62,WS_RECV_START,1516214570912,169
62,WS_RECV_END,1516214571305,169
62,PLAYER_SLEEPBEFORE_START,1516214571305,170
62,PLAYER_SLEEPBEFORE_END,1516214571314,170
62,WS_SEND_START,1516214571314,170
62,WS_SEND_END,1516214571314,170
62,WS_RECV_START,1516214571314,171
62,WS_RECV_END,1516214571375,171
62,PLAYER_SLEEPBEFORE_START,1516214571375,172
62,PLAYER_SLEEPBEFORE_END,1516214571744,172
62,WS_SEND_START,1516214571744,172
62,WS_SEND_END,1516214571744,172
62,WS_RECV_START,1516214571744,173
62,WS_RECV_END,1516214572267,173
62,PLAYER_SLEEPBEFORE_START,1516214572267,174
62,PLAYER_SLEEPBEFORE_END,1516214572308,174
62,WS_SEND_START,1516214572308,174
62,WS_SEND_END,1516214572308,174
62,WS_RECV_START,1516214572308,175
62,WS_RECV_END,1516214572556,175
62,PLAYER_SLEEPBEFORE_START,1516214572556,176
62,PLAYER_SLEEPBEFORE_END,1516214594317,176
62,WS_SEND_START,1516214594317,176
62,WS_SEND_END,1516214594317,176
62,PLAYER_SLEEPBEFORE_START,1516214594317,177
62,PLAYER_SLEEPBEFORE_END,1516214596835,177
62,WS_SEND_START,1516214596835,177
62,WS_SEND_END,1516214596835,177
62,WS_RECV_START,1516214596835,178
62,WS_RECV_END,1516214600122,178
62,PLAYER_SLEEPBEFORE_START,1516214600122,179
62,PLAYER_SLEEPBEFORE_END,1516214622462,179
62,WS_SEND_START,1516214622462,179
62,WS_SEND_END,1516214622462,179
62,WS_RECV_START,1516214622462,180
62,WS_RECV_END,1516214629397,180
62,PLAYER_SLEEPBEFORE_START,1516214629397,181
62,PLAYER_SLEEPBEFORE_END,1516214629841,181
62,WS_SEND_START,1516214629841,181
62,WS_SEND_END,1516214629841,181
62,WS_RECV_START,1516214629841,182
62,WS_RECV_END,1516214634249,182
62,PLAYER_SLEEPBEFORE_START,1516214634249,183
62,PLAYER_SLEEPBEFORE_END,1516214634772,183
62,WS_SEND_START,1516214634772,183
62,WS_SEND_END,1516214634772,183
62,WS_RECV_START,1516214634772,184
62,WS_RECV_END,1516214640131,184
62,PLAYER_SLEEPBEFORE_START,1516214640131,185
62,PLAYER_SLEEPBEFORE_END,1516214640399,185
62,WS_SEND_START,1516214640399,185
62,WS_SEND_END,1516214640399,185
62,WS_RECV_START,1516214640399,186
62,WS_RECV_END,1516214645958,186
62,PLAYER_SLEEPBEFORE_START,1516214645958,187
62,PLAYER_SLEEPBEFORE_END,1516214668458,187
62,WS_SEND_START,1516214668458,187
62,WS_SEND_END,1516214668458,187
62,WS_RECV_START,1516214668458,188
62,WS_RECV_END,1516214680343,188
62,PLAYER_SLEEPBEFORE_START,1516214680343,189
62,PLAYER_SLEEPBEFORE_END,1516214686582,189
62,WS_SEND_START,1516214686582,189
62,WS_SEND_END,1516214686582,189
62,WS_RECV_START,1516214686582,190
62,WS_RECV_END,1516214695159,190
62,PLAYER_SLEEPBEFORE_START,1516214695159,191
62,PLAYER_SLEEPBEFORE_END,1516214697074,191
62,WS_SEND_START,1516214697074,191
62,WS_SEND_END,1516214697074,191
62,WS_RECV_START,1516214697074,192
62,WS_RECV_END,1516214706236,192
62,PLAYER_SLEEPBEFORE_START,1516214706236,193
62,PLAYER_SLEEPBEFORE_END,1516214706364,193
62,WS_SEND_START,1516214706364,193
62,WS_SEND_END,1516214706364,193
62,WS_RECV_START,1516214706364,194
62,WS_RECV_END,1516214710469,194
62,PLAYER_SLEEPBEFORE_START,1516214710469,195
62,PLAYER_SLEEPBEFORE_END,1516214712224,195
62,WS_SEND_START,1516214712224,195
62,WS_SEND_END,1516214712224,195
62,WS_RECV_START,1516214712224,196
62,WS_RECV_END,1516214715666,196
62,PLAYER_SLEEPBEFORE_START,1516214715666,197
62,PLAYER_SLEEPBEFORE_END,1516214717470,197
62,WS_SEND_START,1516214717470,197
62,WS_SEND_END,1516214717470,197
62,WS_RECV_START,1516214717470,198
62,WS_RECV_END,1516214720133,198
62,PLAYER_SLEEPBEFORE_START,1516214720133,199
62,PLAYER_SLEEPBEFORE_END,1516214731987,199
62,WS_SEND_START,1516214731987,199
62,WS_SEND_END,1516214731987,199
62,PLAYER_SLEEPBEFORE_START,1516214731987,200
62,PLAYER_SLEEPBEFORE_END,1516214736075,200
62,WS_SEND_START,1516214736076,200
62,WS_SEND_END,1516214736076,200
62,WS_RECV_START,1516214736076,201
62,WS_RECV_END,1516214736672,201
62,PLAYER_SLEEPBEFORE_START,1516214736672,202
62,PLAYER_SLEEPBEFORE_END,1516214736686,202
62,WS_SEND_START,1516214736686,202
62,WS_SEND_END,1516214736686,202
62,WS_RECV_START,1516214736686,203
62,WS_RECV_END,1516214739143,203
62,PLAYER_SLEEPBEFORE_START,1516214739143,204
62,PLAYER_SLEEPBEFORE_END,1516214758792,204
62,WS_SEND_START,1516214758792,204
62,WS_SEND_END,1516214758792,204
62,PLAYER_SLEEPBEFORE_START,1516214758792,205
62,PLAYER_SLEEPBEFORE_END,1516214762690,205
62,WS_SEND_START,1516214762690,205
62,WS_SEND_END,1516214762690,205
62,WS_RECV_START,1516214762690,206
62,WS_RECV_END,1516214762834,206
62,PLAYER_SLEEPBEFORE_START,1516214762834,207
62,PLAYER_SLEEPBEFORE_END,1516214779765,207
62,REQ_START,1516214779765,207
62,REQ_END,1516214779773,207
62,PLAYER_SLEEPBEFORE_START,1516214779773,208
62,PLAYER_SLEEPBEFORE_END,1516214786625,208
62,WS_CLOSE_START,1516214786625,208
62,WS_CLOSE_END,1516214786625,208
62,PLAYER_DONE,1516214786625
