# --sessions 90 --app-url=http://shinyloadtest.rstudioservices.com/cran_explorer --output-dir test90 --overwrite-output --log-level warn --start-interval 500 15min.log
thread_id,event,timestamp,input_line_number,comment
83,PLAYER_SESSION_CREATE,1516213736119
83,PLAYER_START_INTERVAL_START,1516213736119
83,PLAYER_START_INTERVAL_END,1516213777619
83,REQ_HOME_START,1516213777619,2
83,REQ_HOME_END,1516213779285,2
83,REQ_START,1516213779285,3
83,REQ_END,1516213780633,3
83,REQ_START,1516213780633,4
83,REQ_END,1516213782279,4
83,REQ_START,1516213782279,5
83,REQ_END,1516213783586,5
83,REQ_START,1516213783586,6
83,REQ_END,1516213784902,6
83,REQ_START,1516213784902,7
83,REQ_END,1516213786366,7
83,REQ_START,1516213786366,8
83,REQ_END,1516213787728,8
83,REQ_START,1516213787728,9
83,REQ_END,1516213788998,9
83,REQ_START,1516213788998,10
83,REQ_END,1516213789023,10
83,REQ_START,1516213789023,11
83,REQ_END,1516213790434,11
83,REQ_START,1516213790434,12
83,REQ_END,1516213790445,12
83,REQ_START,1516213790445,13
83,REQ_END,1516213791755,13
83,REQ_START,1516213791755,14
83,REQ_END,1516213791772,14
83,REQ_START,1516213791772,15
83,REQ_END,1516213793091,15
83,REQ_TOK_START,1516213793092,16
83,REQ_TOK_END,1516213793102,16
83,REQ_SINF_START,1516213793102,17
83,REQ_SINF_END,1516213793110,17
83,WS_OPEN_START,1516213793110,18
83,WS_OPEN_END,1516213793116,18
83,REQ_START,1516213793116,19
83,REQ_END,1516213794508,19
83,WS_RECV_START,1516213794508,20
83,WS_RECV_END,1516213794508,20
83,PLAYER_SLEEPBEFORE_START,1516213794508,21
83,PLAYER_SLEEPBEFORE_END,1516213794513,21
83,WS_SEND_START,1516213794513,21
83,WS_SEND_END,1516213794513,21
83,PLAYER_SLEEPBEFORE_START,1516213794513,22
83,PLAYER_SLEEPBEFORE_END,1516213794514,22
83,WS_SEND_START,1516213794514,22
83,WS_SEND_END,1516213794514,22
83,WS_RECV_INIT_START,1516213794514,23
83,WS_RECV_INIT_END,1516213796052,23
83,WS_RECV_START,1516213796052,24
83,WS_RECV_END,1516213796337,24
83,PLAYER_SLEEPBEFORE_START,1516213796337,25
83,PLAYER_SLEEPBEFORE_END,1516213796344,25
83,REQ_START,1516213796344,25
83,REQ_END,1516213797625,25
83,PLAYER_SLEEPBEFORE_START,1516213797626,26
83,PLAYER_SLEEPBEFORE_END,1516213797627,26
83,REQ_START,1516213797627,26
83,REQ_END,1516213800384,26
83,PLAYER_SLEEPBEFORE_START,1516213800384,27
83,PLAYER_SLEEPBEFORE_END,1516213800387,27
83,REQ_START,1516213800387,27
83,REQ_END,1516213803098,27
83,PLAYER_SLEEPBEFORE_START,1516213803098,28
83,PLAYER_SLEEPBEFORE_END,1516213803383,28
83,REQ_START,1516213803383,28
83,REQ_END,1516213804867,28
83,PLAYER_SLEEPBEFORE_START,1516213804867,29
83,PLAYER_SLEEPBEFORE_END,1516213805042,29
83,WS_SEND_START,1516213805042,29
83,WS_SEND_END,1516213805042,29
83,WS_RECV_START,1516213805042,30
83,WS_RECV_END,1516213806018,30
83,PLAYER_SLEEPBEFORE_START,1516213806018,31
83,PLAYER_SLEEPBEFORE_END,1516213806029,31
83,REQ_START,1516213806029,31
83,REQ_END,1516213807301,31
83,PLAYER_SLEEPBEFORE_START,1516213807301,32
83,PLAYER_SLEEPBEFORE_END,1516213835446,32
83,WS_SEND_START,1516213835446,32
83,WS_SEND_END,1516213835446,32
83,WS_RECV_START,1516213835446,33
83,WS_RECV_END,1516213836704,33
83,PLAYER_SLEEPBEFORE_START,1516213836704,34
83,PLAYER_SLEEPBEFORE_END,1516213862615,34
83,WS_SEND_START,1516213862615,34
83,WS_SEND_END,1516213862615,34
83,WS_RECV_START,1516213862615,35
83,WS_RECV_END,1516213863298,35
83,PLAYER_SLEEPBEFORE_START,1516213863298,36
83,PLAYER_SLEEPBEFORE_END,1516213863307,36
83,WS_SEND_START,1516213863307,36
83,WS_SEND_END,1516213863307,36
83,WS_RECV_START,1516213863307,37
83,WS_RECV_END,1516213863393,37
83,PLAYER_SLEEPBEFORE_START,1516213863393,38
83,PLAYER_SLEEPBEFORE_END,1516213866588,38
83,WS_SEND_START,1516213866588,38
83,WS_SEND_END,1516213866588,38
83,WS_RECV_START,1516213866588,39
83,WS_RECV_END,1516213868412,39
83,PLAYER_SLEEPBEFORE_START,1516213868412,40
83,PLAYER_SLEEPBEFORE_END,1516213868458,40
83,WS_SEND_START,1516213868458,40
83,WS_SEND_END,1516213868458,40
83,WS_RECV_START,1516213868458,41
83,WS_RECV_END,1516213869570,41
83,PLAYER_SLEEPBEFORE_START,1516213869570,42
83,PLAYER_SLEEPBEFORE_END,1516213887705,42
83,WS_SEND_START,1516213887705,42
83,WS_SEND_END,1516213887705,42
83,WS_RECV_START,1516213887705,43
83,WS_RECV_END,1516213888036,43
83,PLAYER_SLEEPBEFORE_START,1516213888036,44
83,PLAYER_SLEEPBEFORE_END,1516213888048,44
83,WS_SEND_START,1516213888048,44
83,WS_SEND_END,1516213888048,44
83,WS_RECV_START,1516213888049,45
83,WS_RECV_END,1516213888205,45
83,PLAYER_SLEEPBEFORE_START,1516213888205,46
83,PLAYER_SLEEPBEFORE_END,1516213889465,46
83,WS_SEND_START,1516213889465,46
83,WS_SEND_END,1516213889465,46
83,WS_RECV_START,1516213889465,47
83,WS_RECV_END,1516213889691,47
83,PLAYER_SLEEPBEFORE_START,1516213889691,48
83,PLAYER_SLEEPBEFORE_END,1516213891011,48
83,WS_SEND_START,1516213891012,48
83,WS_SEND_END,1516213891012,48
83,WS_RECV_START,1516213891012,49
83,WS_RECV_END,1516213891116,49
83,PLAYER_SLEEPBEFORE_START,1516213891116,50
83,PLAYER_SLEEPBEFORE_END,1516213891140,50
83,WS_SEND_START,1516213891140,50
83,WS_SEND_END,1516213891140,50
83,WS_RECV_START,1516213891140,51
83,WS_RECV_END,1516213891379,51
83,PLAYER_SLEEPBEFORE_START,1516213891380,52
83,PLAYER_SLEEPBEFORE_END,1516213913944,52
83,WS_SEND_START,1516213913944,52
83,WS_SEND_END,1516213913944,52
83,WS_RECV_START,1516213913944,53
83,WS_RECV_END,1516213914186,53
83,PLAYER_SLEEPBEFORE_START,1516213914186,54
83,PLAYER_SLEEPBEFORE_END,1516213935489,54
83,WS_SEND_START,1516213935489,54
83,WS_SEND_END,1516213935489,54
83,PLAYER_SLEEPBEFORE_START,1516213935489,55
83,PLAYER_SLEEPBEFORE_END,1516213937430,55
83,WS_SEND_START,1516213937430,55
83,WS_SEND_END,1516213937430,55
83,WS_RECV_START,1516213937430,56
83,WS_RECV_END,1516213937551,56
83,PLAYER_SLEEPBEFORE_START,1516213937551,57
83,PLAYER_SLEEPBEFORE_END,1516213960423,57
83,WS_SEND_START,1516213960423,57
83,WS_SEND_END,1516213960423,57
83,WS_RECV_START,1516213960423,58
83,WS_RECV_END,1516213960623,58
83,PLAYER_SLEEPBEFORE_START,1516213960623,59
83,PLAYER_SLEEPBEFORE_END,1516213962950,59
83,WS_SEND_START,1516213962950,59
83,WS_SEND_END,1516213962950,59
83,WS_RECV_START,1516213962950,60
83,WS_RECV_END,1516213963077,60
83,PLAYER_SLEEPBEFORE_START,1516213963077,61
83,PLAYER_SLEEPBEFORE_END,1516213966668,61
83,WS_SEND_START,1516213966668,61
83,WS_SEND_END,1516213966668,61
83,WS_RECV_START,1516213966668,62
83,WS_RECV_END,1516213966805,62
83,PLAYER_SLEEPBEFORE_START,1516213966805,63
83,PLAYER_SLEEPBEFORE_END,1516213986067,63
83,WS_SEND_START,1516213986067,63
83,WS_SEND_END,1516213986067,63
83,WS_RECV_START,1516213986067,64
83,WS_RECV_END,1516213986116,64
83,PLAYER_SLEEPBEFORE_START,1516213986116,65
83,PLAYER_SLEEPBEFORE_END,1516214012933,65
83,WS_SEND_START,1516214012933,65
83,WS_SEND_END,1516214012933,65
83,WS_RECV_START,1516214012933,66
83,WS_RECV_END,1516214013394,66
83,PLAYER_SLEEPBEFORE_START,1516214013394,67
83,PLAYER_SLEEPBEFORE_END,1516214014901,67
83,WS_SEND_START,1516214014901,67
83,WS_SEND_END,1516214014901,67
83,WS_RECV_START,1516214014901,68
83,WS_RECV_END,1516214015679,68
83,PLAYER_SLEEPBEFORE_START,1516214015679,69
83,PLAYER_SLEEPBEFORE_END,1516214037677,69
83,WS_SEND_START,1516214037677,69
83,WS_SEND_END,1516214037677,69
83,WS_RECV_START,1516214037677,70
83,WS_RECV_END,1516214037796,70
83,PLAYER_SLEEPBEFORE_START,1516214037796,71
83,PLAYER_SLEEPBEFORE_END,1516214062571,71
83,WS_SEND_START,1516214062571,71
83,WS_SEND_END,1516214062571,71
83,PLAYER_SLEEPBEFORE_START,1516214062571,72
83,PLAYER_SLEEPBEFORE_END,1516214065178,72
83,WS_SEND_START,1516214065178,72
83,WS_SEND_END,1516214065178,72
83,WS_RECV_START,1516214065178,73
83,WS_RECV_END,1516214066130,73
83,PLAYER_SLEEPBEFORE_START,1516214066131,74
83,PLAYER_SLEEPBEFORE_END,1516214066140,74
83,WS_SEND_START,1516214066140,74
83,WS_SEND_END,1516214066140,74
83,WS_RECV_START,1516214066140,75
83,WS_RECV_END,1516214066600,75
83,PLAYER_SLEEPBEFORE_START,1516214066600,76
83,PLAYER_SLEEPBEFORE_END,1516214068107,76
83,WS_SEND_START,1516214068107,76
83,WS_SEND_END,1516214068107,76
83,WS_RECV_START,1516214068107,77
83,WS_RECV_END,1516214069432,77
83,PLAYER_SLEEPBEFORE_START,1516214069432,78
83,PLAYER_SLEEPBEFORE_END,1516214070300,78
83,WS_SEND_START,1516214070300,78
83,WS_SEND_END,1516214070300,78
83,WS_RECV_START,1516214070300,79
83,WS_RECV_END,1516214071804,79
83,PLAYER_SLEEPBEFORE_START,1516214071804,80
83,PLAYER_SLEEPBEFORE_END,1516214079470,80
83,WS_SEND_START,1516214079470,80
83,WS_SEND_END,1516214079470,80
83,WS_RECV_START,1516214079470,81
83,WS_RECV_END,1516214081658,81
83,PLAYER_SLEEPBEFORE_START,1516214081658,82
83,PLAYER_SLEEPBEFORE_END,1516214082761,82
83,WS_SEND_START,1516214082761,82
83,WS_SEND_END,1516214082761,82
83,WS_RECV_START,1516214082761,83
83,WS_RECV_END,1516214085109,83
83,PLAYER_SLEEPBEFORE_START,1516214085109,84
83,PLAYER_SLEEPBEFORE_END,1516214086056,84
83,WS_SEND_START,1516214086056,84
83,WS_SEND_END,1516214086056,84
83,WS_RECV_START,1516214086056,85
83,WS_RECV_END,1516214088042,85
83,PLAYER_SLEEPBEFORE_START,1516214088043,86
83,PLAYER_SLEEPBEFORE_END,1516214092215,86
83,WS_SEND_START,1516214092215,86
83,WS_SEND_END,1516214092215,86
83,WS_RECV_START,1516214092215,87
83,WS_RECV_END,1516214092710,87
83,PLAYER_SLEEPBEFORE_START,1516214092710,88
83,PLAYER_SLEEPBEFORE_END,1516214092718,88
83,WS_SEND_START,1516214092718,88
83,WS_SEND_END,1516214092718,88
83,WS_RECV_START,1516214092718,89
83,WS_RECV_END,1516214093255,89
83,PLAYER_SLEEPBEFORE_START,1516214093255,90
83,PLAYER_SLEEPBEFORE_END,1516214120452,90
83,REQ_START,1516214120452,90
83,REQ_END,1516214120461,90
83,PLAYER_SLEEPBEFORE_START,1516214120461,91
83,PLAYER_SLEEPBEFORE_END,1516214128350,91
83,WS_SEND_START,1516214128350,91
83,WS_SEND_END,1516214128350,91
83,WS_RECV_START,1516214128350,92
83,WS_RECV_END,1516214129129,92
83,PLAYER_SLEEPBEFORE_START,1516214129129,93
83,PLAYER_SLEEPBEFORE_END,1516214129144,93
83,WS_SEND_START,1516214129144,93
83,WS_SEND_END,1516214129144,93
83,WS_RECV_START,1516214129144,94
83,WS_RECV_END,1516214129794,94
83,PLAYER_SLEEPBEFORE_START,1516214129794,95
83,PLAYER_SLEEPBEFORE_END,1516214153349,95
83,WS_SEND_START,1516214153349,95
83,WS_SEND_END,1516214153349,95
83,WS_RECV_START,1516214153349,96
83,WS_RECV_END,1516214153691,96
83,PLAYER_SLEEPBEFORE_START,1516214153691,97
83,PLAYER_SLEEPBEFORE_END,1516214176131,97
83,WS_SEND_START,1516214176132,97
83,WS_SEND_END,1516214176132,97
83,WS_RECV_START,1516214176132,98
83,WS_RECV_END,1516214176337,98
83,PLAYER_SLEEPBEFORE_START,1516214176337,99
83,PLAYER_SLEEPBEFORE_END,1516214176359,99
83,WS_SEND_START,1516214176359,99
83,WS_SEND_END,1516214176359,99
83,WS_RECV_START,1516214176359,100
83,WS_RECV_END,1516214176646,100
83,PLAYER_SLEEPBEFORE_START,1516214176646,101
83,PLAYER_SLEEPBEFORE_END,1516214200205,101
83,WS_SEND_START,1516214200205,101
83,WS_SEND_END,1516214200205,101
83,WS_RECV_START,1516214200205,102
83,WS_RECV_END,1516214200317,102
83,PLAYER_SLEEPBEFORE_START,1516214200317,103
83,PLAYER_SLEEPBEFORE_END,1516214223942,103
83,WS_SEND_START,1516214223942,103
83,WS_SEND_END,1516214223942,103
83,WS_RECV_START,1516214223942,104
83,WS_RECV_END,1516214224602,104
83,PLAYER_SLEEPBEFORE_START,1516214224602,105
83,PLAYER_SLEEPBEFORE_END,1516214249980,105
83,WS_SEND_START,1516214249980,105
83,WS_SEND_END,1516214249980,105
83,WS_RECV_START,1516214249980,106
83,WS_RECV_END,1516214251855,106
83,PLAYER_SLEEPBEFORE_START,1516214251855,107
83,PLAYER_SLEEPBEFORE_END,1516214275278,107
83,WS_SEND_START,1516214275278,107
83,WS_SEND_END,1516214275278,107
83,WS_RECV_START,1516214275278,108
83,WS_RECV_END,1516214276858,108
83,PLAYER_SLEEPBEFORE_START,1516214276858,109
83,PLAYER_SLEEPBEFORE_END,1516214276867,109
83,WS_SEND_START,1516214276867,109
83,WS_SEND_END,1516214276867,109
83,WS_RECV_START,1516214276867,110
83,WS_RECV_END,1516214277588,110
83,PLAYER_SLEEPBEFORE_START,1516214277588,111
83,PLAYER_SLEEPBEFORE_END,1516214278547,111
83,WS_SEND_START,1516214278547,111
83,WS_SEND_END,1516214278547,111
83,WS_RECV_START,1516214278547,112
83,WS_RECV_END,1516214280066,112
83,PLAYER_SLEEPBEFORE_START,1516214280066,113
83,PLAYER_SLEEPBEFORE_END,1516214280629,113
83,WS_SEND_START,1516214280629,113
83,WS_SEND_END,1516214280629,113
83,WS_RECV_START,1516214280629,114
83,WS_RECV_END,1516214281028,114
83,PLAYER_SLEEPBEFORE_START,1516214281028,115
83,PLAYER_SLEEPBEFORE_END,1516214281037,115
83,WS_SEND_START,1516214281037,115
83,WS_SEND_END,1516214281037,115
83,WS_RECV_START,1516214281037,116
83,WS_RECV_END,1516214282191,116
83,PLAYER_SLEEPBEFORE_START,1516214282191,117
83,PLAYER_SLEEPBEFORE_END,1516214302551,117
83,WS_SEND_START,1516214302551,117
83,WS_SEND_END,1516214302551,117
83,PLAYER_SLEEPBEFORE_START,1516214302551,118
83,PLAYER_SLEEPBEFORE_END,1516214306304,118
83,WS_SEND_START,1516214306304,118
83,WS_SEND_END,1516214306304,118
83,WS_RECV_START,1516214306304,119
83,WS_RECV_END,1516214307797,119
83,PLAYER_SLEEPBEFORE_START,1516214307797,120
83,PLAYER_SLEEPBEFORE_END,1516214308785,120
83,WS_SEND_START,1516214308785,120
83,WS_SEND_END,1516214308786,120
83,WS_RECV_START,1516214308786,121
83,WS_RECV_END,1516214309432,121
83,PLAYER_SLEEPBEFORE_START,1516214309432,122
83,PLAYER_SLEEPBEFORE_END,1516214310617,122
83,WS_SEND_START,1516214310617,122
83,WS_SEND_END,1516214310617,122
83,WS_RECV_START,1516214310617,123
83,WS_RECV_END,1516214311469,123
83,PLAYER_SLEEPBEFORE_START,1516214311469,124
83,PLAYER_SLEEPBEFORE_END,1516214335874,124
83,WS_SEND_START,1516214335874,124
83,WS_SEND_END,1516214335874,124
83,WS_RECV_START,1516214335874,125
83,WS_RECV_END,1516214336118,125
83,PLAYER_SLEEPBEFORE_START,1516214336118,126
83,PLAYER_SLEEPBEFORE_END,1516214356630,126
83,WS_SEND_START,1516214356630,126
83,WS_SEND_END,1516214356630,126
83,PLAYER_SLEEPBEFORE_START,1516214356630,127
83,PLAYER_SLEEPBEFORE_END,1516214359684,127
83,WS_SEND_START,1516214359684,127
83,WS_SEND_END,1516214359684,127
83,WS_RECV_START,1516214359684,128
83,WS_RECV_END,1516214360720,128
83,PLAYER_SLEEPBEFORE_START,1516214360720,129
83,PLAYER_SLEEPBEFORE_END,1516214360740,129
83,WS_SEND_START,1516214360740,129
83,WS_SEND_END,1516214360740,129
83,WS_RECV_START,1516214360740,130
83,WS_RECV_END,1516214361023,130
83,PLAYER_SLEEPBEFORE_START,1516214361023,131
83,PLAYER_SLEEPBEFORE_END,1516214382647,131
83,WS_SEND_START,1516214382647,131
83,WS_SEND_END,1516214382647,131
83,PLAYER_SLEEPBEFORE_START,1516214382647,132
83,PLAYER_SLEEPBEFORE_END,1516214385727,132
83,WS_SEND_START,1516214385727,132
83,WS_SEND_END,1516214385727,132
83,WS_RECV_START,1516214385727,133
83,WS_RECV_END,1516214385867,133
83,PLAYER_SLEEPBEFORE_START,1516214385867,134
83,PLAYER_SLEEPBEFORE_END,1516214407085,134
83,WS_SEND_START,1516214407085,134
83,WS_SEND_END,1516214407085,134
83,PLAYER_SLEEPBEFORE_START,1516214407085,135
83,PLAYER_SLEEPBEFORE_END,1516214410275,135
83,WS_SEND_START,1516214410275,135
83,WS_SEND_END,1516214410275,135
83,WS_RECV_START,1516214410275,136
83,WS_RECV_END,1516214410904,136
83,PLAYER_SLEEPBEFORE_START,1516214410904,137
83,PLAYER_SLEEPBEFORE_END,1516214410911,137
83,WS_SEND_START,1516214410911,137
83,WS_SEND_END,1516214410912,137
83,WS_RECV_START,1516214410912,138
83,WS_RECV_END,1516214411031,138
83,PLAYER_SLEEPBEFORE_START,1516214411031,139
83,PLAYER_SLEEPBEFORE_END,1516214411721,139
83,WS_SEND_START,1516214411722,139
83,WS_SEND_END,1516214411722,139
83,WS_RECV_START,1516214411722,140
83,WS_RECV_END,1516214412787,140
83,PLAYER_SLEEPBEFORE_START,1516214412787,141
83,PLAYER_SLEEPBEFORE_END,1516214413443,141
83,WS_SEND_START,1516214413443,141
83,WS_SEND_END,1516214413443,141
83,WS_RECV_START,1516214413443,142
83,WS_RECV_END,1516214414594,142
83,PLAYER_SLEEPBEFORE_START,1516214414594,143
83,PLAYER_SLEEPBEFORE_END,1516214414651,143
83,WS_SEND_START,1516214414651,143
83,WS_SEND_END,1516214414652,143
83,WS_RECV_START,1516214414652,144
83,WS_RECV_END,1516214415433,144
83,PLAYER_SLEEPBEFORE_START,1516214415434,145
83,PLAYER_SLEEPBEFORE_END,1516214431496,145
83,REQ_START,1516214431496,145
83,REQ_END,1516214431504,145
83,PLAYER_SLEEPBEFORE_START,1516214431504,146
83,PLAYER_SLEEPBEFORE_END,1516214440381,146
83,WS_SEND_START,1516214440381,146
83,WS_SEND_END,1516214440381,146
83,WS_RECV_START,1516214440381,147
83,WS_RECV_END,1516214441007,147
83,PLAYER_SLEEPBEFORE_START,1516214441007,148
83,PLAYER_SLEEPBEFORE_END,1516214462929,148
83,WS_SEND_START,1516214462929,148
83,WS_SEND_END,1516214462929,148
83,PLAYER_SLEEPBEFORE_START,1516214462929,149
83,PLAYER_SLEEPBEFORE_END,1516214465357,149
83,WS_SEND_START,1516214465357,149
83,WS_SEND_END,1516214465357,149
83,WS_RECV_START,1516214465358,150
83,WS_RECV_END,1516214465930,150
83,PLAYER_SLEEPBEFORE_START,1516214465930,151
83,PLAYER_SLEEPBEFORE_END,1516214466140,151
83,WS_SEND_START,1516214466140,151
83,WS_SEND_END,1516214466140,151
83,WS_RECV_START,1516214466140,152
83,WS_RECV_END,1516214466843,152
83,PLAYER_SLEEPBEFORE_START,1516214466843,153
83,PLAYER_SLEEPBEFORE_END,1516214490771,153
83,WS_SEND_START,1516214490771,153
83,WS_SEND_END,1516214490771,153
83,WS_RECV_START,1516214490771,154
83,WS_RECV_END,1516214491021,154
83,PLAYER_SLEEPBEFORE_START,1516214491021,155
83,PLAYER_SLEEPBEFORE_END,1516214513579,155
83,WS_SEND_START,1516214513579,155
83,WS_SEND_END,1516214513579,155
83,PLAYER_SLEEPBEFORE_START,1516214513579,156
83,PLAYER_SLEEPBEFORE_END,1516214516853,156
83,WS_SEND_START,1516214516853,156
83,WS_SEND_END,1516214516853,156
83,WS_RECV_START,1516214516853,157
83,WS_RECV_END,1516214516920,157
83,PLAYER_SLEEPBEFORE_START,1516214516920,158
83,PLAYER_SLEEPBEFORE_END,1516214516930,158
83,WS_SEND_START,1516214516930,158
83,WS_SEND_END,1516214516930,158
83,WS_RECV_START,1516214516930,159
83,WS_RECV_END,1516214516983,159
83,PLAYER_SLEEPBEFORE_START,1516214516983,160
83,PLAYER_SLEEPBEFORE_END,1516214517158,160
83,WS_SEND_START,1516214517158,160
83,WS_SEND_END,1516214517158,160
83,WS_RECV_START,1516214517159,161
83,WS_RECV_END,1516214517277,161
83,PLAYER_SLEEPBEFORE_START,1516214517277,162
83,PLAYER_SLEEPBEFORE_END,1516214517302,162
83,WS_SEND_START,1516214517302,162
83,WS_SEND_END,1516214517302,162
83,WS_RECV_START,1516214517302,163
83,WS_RECV_END,1516214517565,163
83,PLAYER_SLEEPBEFORE_START,1516214517565,164
83,PLAYER_SLEEPBEFORE_END,1516214538377,164
83,WS_SEND_START,1516214538377,164
83,WS_SEND_END,1516214538377,164
83,WS_RECV_START,1516214538377,165
83,WS_RECV_END,1516214538717,165
83,PLAYER_SLEEPBEFORE_START,1516214538717,166
83,PLAYER_SLEEPBEFORE_END,1516214561172,166
83,WS_SEND_START,1516214561172,166
83,WS_SEND_END,1516214561172,166
83,WS_RECV_START,1516214561172,167
83,WS_RECV_END,1516214561311,167
83,PLAYER_SLEEPBEFORE_START,1516214561311,168
83,PLAYER_SLEEPBEFORE_END,1516214588668,168
83,WS_SEND_START,1516214588668,168
83,WS_SEND_END,1516214588668,168
83,WS_RECV_START,1516214588668,169
83,WS_RECV_END,1516214591869,169
83,PLAYER_SLEEPBEFORE_START,1516214591869,170
83,PLAYER_SLEEPBEFORE_END,1516214591879,170
83,WS_SEND_START,1516214591879,170
83,WS_SEND_END,1516214591879,170
83,WS_RECV_START,1516214591879,171
83,WS_RECV_END,1516214593575,171
83,PLAYER_SLEEPBEFORE_START,1516214593575,172
83,PLAYER_SLEEPBEFORE_END,1516214593944,172
83,WS_SEND_START,1516214593944,172
83,WS_SEND_END,1516214593944,172
83,WS_RECV_START,1516214593944,173
83,WS_RECV_END,1516214597549,173
83,PLAYER_SLEEPBEFORE_START,1516214597549,174
83,PLAYER_SLEEPBEFORE_END,1516214597591,174
83,WS_SEND_START,1516214597591,174
83,WS_SEND_END,1516214597591,174
83,WS_RECV_START,1516214597591,175
83,WS_RECV_END,1516214601634,175
83,PLAYER_SLEEPBEFORE_START,1516214601634,176
83,PLAYER_SLEEPBEFORE_END,1516214623395,176
83,WS_SEND_START,1516214623395,176
83,WS_SEND_END,1516214623395,176
83,PLAYER_SLEEPBEFORE_START,1516214623395,177
83,PLAYER_SLEEPBEFORE_END,1516214625913,177
83,WS_SEND_START,1516214625913,177
83,WS_SEND_END,1516214625913,177
83,WS_RECV_START,1516214625913,178
83,WS_RECV_END,1516214630290,178
83,PLAYER_SLEEPBEFORE_START,1516214630290,179
83,PLAYER_SLEEPBEFORE_END,1516214652630,179
83,WS_SEND_START,1516214652630,179
83,WS_SEND_END,1516214652630,179
83,WS_RECV_START,1516214652630,180
83,WS_RECV_END,1516214664440,180
83,PLAYER_SLEEPBEFORE_START,1516214664440,181
83,PLAYER_SLEEPBEFORE_END,1516214664884,181
83,WS_SEND_START,1516214664884,181
83,WS_SEND_END,1516214664884,181
83,WS_RECV_START,1516214664884,182
83,WS_RECV_END,1516214670148,182
83,PLAYER_SLEEPBEFORE_START,1516214670148,183
83,PLAYER_SLEEPBEFORE_END,1516214670671,183
83,WS_SEND_START,1516214670671,183
83,WS_SEND_END,1516214670671,183
83,WS_RECV_START,1516214670671,184
83,WS_RECV_END,1516214676615,184
83,PLAYER_SLEEPBEFORE_START,1516214676615,185
83,PLAYER_SLEEPBEFORE_END,1516214676883,185
83,WS_SEND_START,1516214676883,185
83,WS_SEND_END,1516214676883,185
83,WS_RECV_START,1516214676883,186
83,WS_RECV_END,1516214683026,186
83,PLAYER_SLEEPBEFORE_START,1516214683026,187
83,PLAYER_SLEEPBEFORE_END,1516214705527,187
83,WS_SEND_START,1516214705527,187
83,WS_SEND_END,1516214705527,187
83,WS_RECV_START,1516214705527,188
83,WS_RECV_END,1516214712089,188
83,PLAYER_SLEEPBEFORE_START,1516214712089,189
83,PLAYER_SLEEPBEFORE_END,1516214718328,189
83,WS_SEND_START,1516214718328,189
83,WS_SEND_END,1516214718328,189
83,WS_RECV_START,1516214718328,190
83,WS_RECV_END,1516214723221,190
83,PLAYER_SLEEPBEFORE_START,1516214723221,191
83,PLAYER_SLEEPBEFORE_END,1516214725136,191
83,WS_SEND_START,1516214725136,191
83,WS_SEND_END,1516214725136,191
83,WS_RECV_START,1516214725136,192
83,WS_RECV_END,1516214730800,192
83,PLAYER_SLEEPBEFORE_START,1516214730800,193
83,PLAYER_SLEEPBEFORE_END,1516214730928,193
83,WS_SEND_START,1516214730928,193
83,WS_SEND_END,1516214730928,193
83,WS_RECV_START,1516214730928,194
83,WS_RECV_END,1516214734044,194
83,PLAYER_SLEEPBEFORE_START,1516214734044,195
83,PLAYER_SLEEPBEFORE_END,1516214735799,195
83,WS_SEND_START,1516214735799,195
83,WS_SEND_END,1516214735800,195
83,WS_RECV_START,1516214735800,196
83,WS_RECV_END,1516214738045,196
83,PLAYER_SLEEPBEFORE_START,1516214738045,197
83,PLAYER_SLEEPBEFORE_END,1516214739849,197
83,WS_SEND_START,1516214739849,197
83,WS_SEND_END,1516214739849,197
83,WS_RECV_START,1516214739849,198
83,WS_RECV_END,1516214740585,198
83,PLAYER_SLEEPBEFORE_START,1516214740585,199
83,PLAYER_SLEEPBEFORE_END,1516214752439,199
83,WS_SEND_START,1516214752439,199
83,WS_SEND_END,1516214752439,199
83,PLAYER_SLEEPBEFORE_START,1516214752439,200
83,PLAYER_SLEEPBEFORE_END,1516214756527,200
83,WS_SEND_START,1516214756527,200
83,WS_SEND_END,1516214756527,200
83,WS_RECV_START,1516214756527,201
83,WS_RECV_END,1516214756635,201
83,PLAYER_SLEEPBEFORE_START,1516214756635,202
83,PLAYER_SLEEPBEFORE_END,1516214756649,202
83,WS_SEND_START,1516214756649,202
83,WS_SEND_END,1516214756649,202
83,WS_RECV_START,1516214756649,203
83,WS_RECV_END,1516214756770,203
83,PLAYER_SLEEPBEFORE_START,1516214756770,204
83,PLAYER_SLEEPBEFORE_END,1516214776419,204
83,WS_SEND_START,1516214776419,204
83,WS_SEND_END,1516214776419,204
83,PLAYER_SLEEPBEFORE_START,1516214776419,205
83,PLAYER_SLEEPBEFORE_END,1516214780317,205
83,WS_SEND_START,1516214780317,205
83,WS_SEND_END,1516214780317,205
83,WS_RECV_START,1516214780317,206
83,WS_RECV_END,1516214780445,206
83,PLAYER_SLEEPBEFORE_START,1516214780445,207
83,PLAYER_SLEEPBEFORE_END,1516214797376,207
83,REQ_START,1516214797376,207
83,REQ_END,1516214797384,207
83,PLAYER_SLEEPBEFORE_START,1516214797384,208
83,PLAYER_SLEEPBEFORE_END,1516214804236,208
83,WS_CLOSE_START,1516214804236,208
83,WS_CLOSE_END,1516214804236,208
83,PLAYER_DONE,1516214804236
