# --sessions 240 --app-url=http://shinyloadtest.rstudioservices.com/ --output-dir test240 --overwrite-output --log-level warn --start-interval 1500 30min.log
thread_id,event,timestamp,input_line_number,comment
129,PLAYER_SESSION_CREATE,1516059021077
129,PLAYER_START_INTERVAL_START,1516059021077
129,PLAYER_START_INTERVAL_END,1516059214577
129,REQ_HOME_START,1516059214577,2
129,REQ_HOME_END,1516059214682,2
129,REQ_START,1516059214682,3
129,REQ_END,1516059214714,3
129,REQ_START,1516059214714,4
129,REQ_END,1516059214747,4
129,REQ_START,1516059214747,5
129,REQ_END,1516059214781,5
129,REQ_START,1516059214781,6
129,REQ_END,1516059214817,6
129,REQ_START,1516059214817,7
129,REQ_END,1516059214852,7
129,REQ_START,1516059214852,8
129,REQ_END,1516059214885,8
129,REQ_START,1516059214885,9
129,REQ_END,1516059214923,9
129,REQ_START,1516059214923,10
129,REQ_END,1516059214931,10
129,REQ_START,1516059214931,11
129,REQ_END,1516059214963,11
129,REQ_START,1516059214963,12
129,REQ_END,1516059214995,12
129,REQ_START,1516059214995,13
129,REQ_END,1516059215013,13
129,REQ_START,1516059215013,14
129,REQ_END,1516059215036,14
129,REQ_START,1516059215036,15
129,REQ_END,1516059215070,15
129,REQ_TOK_START,1516059215070,16
129,REQ_TOK_END,1516059215077,16
129,REQ_SINF_START,1516059215077,17
129,REQ_SINF_END,1516059215084,17
129,WS_OPEN_START,1516059215084,18
129,WS_OPEN_END,1516059215091,18
129,WS_RECV_START,1516059215095,19
129,WS_RECV_END,1516059215095,19
129,PLAYER_SLEEPBEFORE_START,1516059215096,20
129,PLAYER_SLEEPBEFORE_END,1516059215102,20
129,WS_SEND_START,1516059215102,20
129,WS_SEND_END,1516059215102,20
129,PLAYER_SLEEPBEFORE_START,1516059215102,21
129,PLAYER_SLEEPBEFORE_END,1516059215103,21
129,WS_SEND_START,1516059215103,21
129,WS_SEND_END,1516059215103,21
129,WS_RECV_INIT_START,1516059215103,22
129,WS_RECV_INIT_END,1516059215121,22
129,WS_RECV_START,1516059215121,23
129,WS_RECV_END,1516059215183,23
129,PLAYER_SLEEPBEFORE_START,1516059215183,24
129,PLAYER_SLEEPBEFORE_END,1516059215190,24
129,REQ_START,1516059215190,24
129,REQ_END,1516059215222,24
129,PLAYER_SLEEPBEFORE_START,1516059215222,25
129,PLAYER_SLEEPBEFORE_END,1516059215224,25
129,REQ_START,1516059215224,25
129,REQ_END,1516059215255,25
129,PLAYER_SLEEPBEFORE_START,1516059215255,26
129,PLAYER_SLEEPBEFORE_END,1516059215258,26
129,REQ_START,1516059215258,26
129,REQ_END,1516059215293,26
129,PLAYER_SLEEPBEFORE_START,1516059215293,27
129,PLAYER_SLEEPBEFORE_END,1516059215549,27
129,REQ_START,1516059215549,27
129,REQ_END,1516059215581,27
129,PLAYER_SLEEPBEFORE_START,1516059215581,28
129,PLAYER_SLEEPBEFORE_END,1516059215779,28
129,WS_SEND_START,1516059215779,28
129,WS_SEND_END,1516059215779,28
129,WS_RECV_START,1516059215779,29
129,WS_RECV_END,1516059215967,29
129,PLAYER_SLEEPBEFORE_START,1516059215967,30
129,PLAYER_SLEEPBEFORE_END,1516059215978,30
129,REQ_START,1516059215978,30
129,REQ_END,1516059216013,30
129,PLAYER_SLEEPBEFORE_START,1516059216013,31
129,PLAYER_SLEEPBEFORE_END,1516059246133,31
129,WS_SEND_START,1516059246133,31
129,WS_SEND_END,1516059246133,31
129,WS_RECV_START,1516059246133,32
129,WS_RECV_END,1516059246346,32
129,PLAYER_SLEEPBEFORE_START,1516059246346,33
129,PLAYER_SLEEPBEFORE_END,1516059271112,33
129,WS_SEND_START,1516059271112,33
129,WS_SEND_END,1516059271112,33
129,WS_RECV_START,1516059271112,34
129,WS_RECV_END,1516059271211,34
129,PLAYER_SLEEPBEFORE_START,1516059271211,35
129,PLAYER_SLEEPBEFORE_END,1516059296024,35
129,WS_SEND_START,1516059296025,35
129,WS_SEND_END,1516059296025,35
129,WS_RECV_START,1516059296025,36
129,WS_RECV_END,1516059296080,36
129,PLAYER_SLEEPBEFORE_START,1516059296080,37
129,PLAYER_SLEEPBEFORE_END,1516059296089,37
129,WS_SEND_START,1516059296089,37
129,WS_SEND_END,1516059296089,37
129,WS_RECV_START,1516059296089,38
129,WS_RECV_END,1516059296128,38
129,PLAYER_SLEEPBEFORE_START,1516059296128,39
129,PLAYER_SLEEPBEFORE_END,1516059298825,39
129,WS_SEND_START,1516059298826,39
129,WS_SEND_END,1516059298826,39
129,WS_RECV_START,1516059298826,40
129,WS_RECV_END,1516059298899,40
129,PLAYER_SLEEPBEFORE_START,1516059298899,41
129,PLAYER_SLEEPBEFORE_END,1516059300018,41
129,WS_SEND_START,1516059300018,41
129,WS_SEND_END,1516059300018,41
129,WS_RECV_START,1516059300018,42
129,WS_RECV_END,1516059301069,42
129,PLAYER_SLEEPBEFORE_START,1516059301069,43
129,PLAYER_SLEEPBEFORE_END,1516059301097,43
129,WS_SEND_START,1516059301097,43
129,WS_SEND_END,1516059301097,43
129,WS_RECV_START,1516059301097,44
129,WS_RECV_END,1516059301445,44
129,PLAYER_SLEEPBEFORE_START,1516059301445,45
129,PLAYER_SLEEPBEFORE_END,1516059322934,45
129,WS_SEND_START,1516059322934,45
129,WS_SEND_END,1516059322934,45
129,WS_RECV_START,1516059322934,46
129,WS_RECV_END,1516059323040,46
129,PLAYER_SLEEPBEFORE_START,1516059323040,47
129,PLAYER_SLEEPBEFORE_END,1516059351525,47
129,WS_SEND_START,1516059351525,47
129,WS_SEND_END,1516059351525,47
129,WS_RECV_START,1516059351525,48
129,WS_RECV_END,1516059351661,48
129,PLAYER_SLEEPBEFORE_START,1516059351661,49
129,PLAYER_SLEEPBEFORE_END,1516059378070,49
129,WS_SEND_START,1516059378070,49
129,WS_SEND_END,1516059378070,49
129,WS_RECV_START,1516059378070,50
129,WS_RECV_END,1516059378258,50
129,PLAYER_SLEEPBEFORE_START,1516059378258,51
129,PLAYER_SLEEPBEFORE_END,1516059400809,51
129,WS_SEND_START,1516059400809,51
129,WS_SEND_END,1516059400809,51
129,WS_RECV_START,1516059400809,52
129,WS_RECV_END,1516059401210,52
129,PLAYER_SLEEPBEFORE_START,1516059401210,53
129,PLAYER_SLEEPBEFORE_END,1516059426114,53
129,WS_SEND_START,1516059426114,53
129,WS_SEND_END,1516059426114,53
129,WS_RECV_START,1516059426114,54
129,WS_RECV_END,1516059426260,54
129,PLAYER_SLEEPBEFORE_START,1516059426260,55
129,PLAYER_SLEEPBEFORE_END,1516059451661,55
129,WS_SEND_START,1516059451661,55
129,WS_SEND_END,1516059451662,55
129,WS_RECV_START,1516059451662,56
129,WS_RECV_END,1516059451853,56
129,PLAYER_SLEEPBEFORE_START,1516059451853,57
129,PLAYER_SLEEPBEFORE_END,1516059477191,57
129,WS_SEND_START,1516059477191,57
129,WS_SEND_END,1516059477191,57
129,WS_RECV_START,1516059477191,58
129,WS_RECV_END,1516059478493,58
129,PLAYER_SLEEPBEFORE_START,1516059478493,59
129,PLAYER_SLEEPBEFORE_END,1516059505351,59
129,WS_SEND_START,1516059505351,59
129,WS_SEND_END,1516059505351,59
129,WS_RECV_START,1516059505351,60
129,WS_RECV_END,1516059506329,60
129,PLAYER_SLEEPBEFORE_START,1516059506329,61
129,PLAYER_SLEEPBEFORE_END,1516059506352,61
129,WS_SEND_START,1516059506352,61
129,WS_SEND_END,1516059506352,61
129,WS_RECV_START,1516059506352,62
129,WS_RECV_END,1516059506597,62
129,PLAYER_SLEEPBEFORE_START,1516059506597,63
129,PLAYER_SLEEPBEFORE_END,1516059515601,63
129,REQ_START,1516059515601,63
129,REQ_END,1516059515609,63
129,PLAYER_SLEEPBEFORE_START,1516059515609,64
129,PLAYER_SLEEPBEFORE_END,1516059529816,64
129,WS_SEND_START,1516059529816,64
129,WS_SEND_END,1516059529816,64
129,WS_RECV_START,1516059529816,65
129,WS_RECV_END,1516059529927,65
129,PLAYER_SLEEPBEFORE_START,1516059529927,66
129,PLAYER_SLEEPBEFORE_END,1516059553914,66
129,WS_SEND_START,1516059553915,66
129,WS_SEND_END,1516059553915,66
129,WS_RECV_START,1516059553915,67
129,WS_RECV_END,1516059554111,67
129,PLAYER_SLEEPBEFORE_START,1516059554111,68
129,PLAYER_SLEEPBEFORE_END,1516059579685,68
129,WS_SEND_START,1516059579685,68
129,WS_SEND_END,1516059579685,68
129,WS_RECV_START,1516059579685,69
129,WS_RECV_END,1516059580224,69
129,PLAYER_SLEEPBEFORE_START,1516059580224,70
129,PLAYER_SLEEPBEFORE_END,1516059580233,70
129,WS_SEND_START,1516059580233,70
129,WS_SEND_END,1516059580233,70
129,WS_RECV_START,1516059580233,71
129,WS_RECV_END,1516059580541,71
129,PLAYER_SLEEPBEFORE_START,1516059580541,72
129,PLAYER_SLEEPBEFORE_END,1516059580747,72
129,WS_SEND_START,1516059580747,72
129,WS_SEND_END,1516059580747,72
129,WS_RECV_START,1516059580747,73
129,WS_RECV_END,1516059580840,73
129,PLAYER_SLEEPBEFORE_START,1516059580840,74
129,PLAYER_SLEEPBEFORE_END,1516059582262,74
129,WS_SEND_START,1516059582262,74
129,WS_SEND_END,1516059582262,74
129,WS_RECV_START,1516059582262,75
129,WS_RECV_END,1516059582371,75
129,PLAYER_SLEEPBEFORE_START,1516059582371,76
129,PLAYER_SLEEPBEFORE_END,1516059582866,76
129,WS_SEND_START,1516059582866,76
129,WS_SEND_END,1516059582866,76
129,WS_RECV_START,1516059582866,77
129,WS_RECV_END,1516059583828,77
129,PLAYER_SLEEPBEFORE_START,1516059583828,78
129,PLAYER_SLEEPBEFORE_END,1516059583846,78
129,WS_SEND_START,1516059583846,78
129,WS_SEND_END,1516059583847,78
129,WS_RECV_START,1516059583847,79
129,WS_RECV_END,1516059584589,79
129,PLAYER_SLEEPBEFORE_START,1516059584589,80
129,PLAYER_SLEEPBEFORE_END,1516059605323,80
129,WS_SEND_START,1516059605323,80
129,WS_SEND_END,1516059605323,80
129,WS_RECV_START,1516059605323,81
129,WS_RECV_END,1516059606131,81
129,PLAYER_SLEEPBEFORE_START,1516059606131,82
129,PLAYER_SLEEPBEFORE_END,1516059606142,82
129,WS_SEND_START,1516059606142,82
129,WS_SEND_END,1516059606142,82
129,WS_RECV_START,1516059606142,83
129,WS_RECV_END,1516059606457,83
129,PLAYER_SLEEPBEFORE_START,1516059606457,84
129,PLAYER_SLEEPBEFORE_END,1516059607320,84
129,WS_SEND_START,1516059607320,84
129,WS_SEND_END,1516059607320,84
129,WS_RECV_START,1516059607320,85
129,WS_RECV_END,1516059607401,85
129,PLAYER_SLEEPBEFORE_START,1516059607401,86
129,PLAYER_SLEEPBEFORE_END,1516059608128,86
129,WS_SEND_START,1516059608128,86
129,WS_SEND_END,1516059608128,86
129,WS_RECV_START,1516059608128,87
129,WS_RECV_END,1516059609511,87
129,PLAYER_SLEEPBEFORE_START,1516059609511,88
129,PLAYER_SLEEPBEFORE_END,1516059609532,88
129,WS_SEND_START,1516059609532,88
129,WS_SEND_END,1516059609532,88
129,WS_RECV_START,1516059609532,89
129,WS_RECV_END,1516059611564,89
129,PLAYER_SLEEPBEFORE_START,1516059611564,90
129,PLAYER_SLEEPBEFORE_END,1516059632993,90
129,WS_SEND_START,1516059632993,90
129,WS_SEND_END,1516059632993,90
129,PLAYER_SLEEPBEFORE_START,1516059632993,91
129,PLAYER_SLEEPBEFORE_END,1516059659848,91
129,WS_SEND_START,1516059659848,91
129,WS_SEND_END,1516059659848,91
129,WS_RECV_START,1516059659848,92
129,WS_RECV_END,1516059662622,92
129,PLAYER_SLEEPBEFORE_START,1516059662622,93
129,PLAYER_SLEEPBEFORE_END,1516059664896,93
129,WS_SEND_START,1516059664896,93
129,WS_SEND_END,1516059664896,93
129,WS_RECV_START,1516059664896,94
129,WS_RECV_END,1516059667566,94
129,PLAYER_SLEEPBEFORE_START,1516059667566,95
129,PLAYER_SLEEPBEFORE_END,1516059693562,95
129,WS_SEND_START,1516059693562,95
129,WS_SEND_END,1516059693562,95
129,WS_RECV_START,1516059693562,96
129,WS_RECV_END,1516059695292,96
129,PLAYER_SLEEPBEFORE_START,1516059695292,97
129,PLAYER_SLEEPBEFORE_END,1516059700380,97
129,WS_SEND_START,1516059700380,97
129,WS_SEND_END,1516059700380,97
129,WS_RECV_START,1516059700380,98
129,WS_RECV_END,1516059701558,98
129,PLAYER_SLEEPBEFORE_START,1516059701558,99
129,PLAYER_SLEEPBEFORE_END,1516059703258,99
129,WS_SEND_START,1516059703258,99
129,WS_SEND_END,1516059703258,99
129,WS_RECV_START,1516059703258,100
129,WS_RECV_END,1516059703518,100
129,PLAYER_SLEEPBEFORE_START,1516059703518,101
129,PLAYER_SLEEPBEFORE_END,1516059705357,101
129,WS_SEND_START,1516059705357,101
129,WS_SEND_END,1516059705357,101
129,WS_RECV_START,1516059705357,102
129,WS_RECV_END,1516059709858,102
129,PLAYER_SLEEPBEFORE_START,1516059709858,103
129,PLAYER_SLEEPBEFORE_END,1516059722908,103
129,WS_SEND_START,1516059722908,103
129,WS_SEND_END,1516059722908,103
129,PLAYER_SLEEPBEFORE_START,1516059722908,104
129,PLAYER_SLEEPBEFORE_END,1516059727334,104
129,WS_SEND_START,1516059727334,104
129,WS_SEND_END,1516059727334,104
129,WS_RECV_START,1516059727334,105
129,WS_RECV_END,1516059729930,105
129,PLAYER_SLEEPBEFORE_START,1516059729930,106
129,PLAYER_SLEEPBEFORE_END,1516059729939,106
129,WS_SEND_START,1516059729939,106
129,WS_SEND_END,1516059729939,106
129,WS_RECV_START,1516059729939,107
129,WS_RECV_END,1516059730585,107
129,PLAYER_SLEEPBEFORE_START,1516059730585,108
129,PLAYER_SLEEPBEFORE_END,1516059731049,108
129,WS_SEND_START,1516059731049,108
129,WS_SEND_END,1516059731049,108
129,WS_RECV_START,1516059731049,109
129,WS_RECV_END,1516059732532,109
129,PLAYER_SLEEPBEFORE_START,1516059732532,110
129,PLAYER_SLEEPBEFORE_END,1516059732547,110
129,WS_SEND_START,1516059732547,110
129,WS_SEND_END,1516059732547,110
129,WS_RECV_START,1516059732547,111
129,WS_RECV_END,1516059733858,111
129,PLAYER_SLEEPBEFORE_START,1516059733858,112
129,PLAYER_SLEEPBEFORE_END,1516059754623,112
129,WS_SEND_START,1516059754623,112
129,WS_SEND_END,1516059754623,112
129,PLAYER_SLEEPBEFORE_START,1516059754623,113
129,PLAYER_SLEEPBEFORE_END,1516059757017,113
129,WS_SEND_START,1516059757017,113
129,WS_SEND_END,1516059757017,113
129,WS_RECV_START,1516059757017,114
129,WS_RECV_END,1516059758337,114
129,PLAYER_SLEEPBEFORE_START,1516059758337,115
129,PLAYER_SLEEPBEFORE_END,1516059759119,115
129,WS_SEND_START,1516059759119,115
129,WS_SEND_END,1516059759119,115
129,WS_RECV_START,1516059759119,116
129,WS_RECV_END,1516059761831,116
129,PLAYER_SLEEPBEFORE_START,1516059761831,117
129,PLAYER_SLEEPBEFORE_END,1516059784216,117
129,WS_SEND_START,1516059784216,117
129,WS_SEND_END,1516059784216,117
129,WS_RECV_START,1516059784216,118
129,WS_RECV_END,1516059786483,118
129,PLAYER_SLEEPBEFORE_START,1516059786483,119
129,PLAYER_SLEEPBEFORE_END,1516059788387,119
129,WS_SEND_START,1516059788387,119
129,WS_SEND_END,1516059788387,119
129,WS_RECV_START,1516059788387,120
129,WS_RECV_END,1516059790764,120
129,PLAYER_SLEEPBEFORE_START,1516059790764,121
129,PLAYER_SLEEPBEFORE_END,1516059791916,121
129,WS_SEND_START,1516059791916,121
129,WS_SEND_END,1516059791916,121
129,WS_RECV_START,1516059791916,122
129,WS_RECV_END,1516059794957,122
129,PLAYER_SLEEPBEFORE_START,1516059794957,123
129,PLAYER_SLEEPBEFORE_END,1516059796081,123
129,WS_SEND_START,1516059796081,123
129,WS_SEND_END,1516059796081,123
129,WS_RECV_START,1516059796081,124
129,WS_RECV_END,1516059798096,124
129,PLAYER_SLEEPBEFORE_START,1516059798096,125
129,PLAYER_SLEEPBEFORE_END,1516059799593,125
129,WS_SEND_START,1516059799593,125
129,WS_SEND_END,1516059799593,125
129,WS_RECV_START,1516059799593,126
129,WS_RECV_END,1516059800352,126
129,PLAYER_SLEEPBEFORE_START,1516059800352,127
129,PLAYER_SLEEPBEFORE_END,1516059820963,127
129,WS_SEND_START,1516059820963,127
129,WS_SEND_END,1516059820963,127
129,WS_RECV_START,1516059820963,128
129,WS_RECV_END,1516059821944,128
129,PLAYER_SLEEPBEFORE_START,1516059821944,129
129,PLAYER_SLEEPBEFORE_END,1516059846976,129
129,WS_SEND_START,1516059846976,129
129,WS_SEND_END,1516059846976,129
129,PLAYER_SLEEPBEFORE_START,1516059846976,130
129,PLAYER_SLEEPBEFORE_END,1516059848956,130
129,WS_SEND_START,1516059848956,130
129,WS_SEND_END,1516059848956,130
129,WS_RECV_START,1516059848956,131
129,WS_RECV_END,1516059850388,131
129,PLAYER_SLEEPBEFORE_START,1516059850388,132
129,PLAYER_SLEEPBEFORE_END,1516059850397,132
129,WS_SEND_START,1516059850397,132
129,WS_SEND_END,1516059850397,132
129,WS_RECV_START,1516059850397,133
129,WS_RECV_END,1516059851805,133
129,PLAYER_SLEEPBEFORE_START,1516059851805,134
129,PLAYER_SLEEPBEFORE_END,1516059852881,134
129,REQ_START,1516059852881,134
129,REQ_END,1516059852889,134
129,PLAYER_SLEEPBEFORE_START,1516059852889,135
129,PLAYER_SLEEPBEFORE_END,1516059853479,135
129,WS_SEND_START,1516059853479,135
129,WS_SEND_END,1516059853479,135
129,WS_RECV_START,1516059853479,136
129,WS_RECV_END,1516059855528,136
129,PLAYER_SLEEPBEFORE_START,1516059855528,137
129,PLAYER_SLEEPBEFORE_END,1516059855542,137
129,WS_SEND_START,1516059855542,137
129,WS_SEND_END,1516059855542,137
129,WS_RECV_START,1516059855542,138
129,WS_RECV_END,1516059857385,138
129,PLAYER_SLEEPBEFORE_START,1516059857385,139
129,PLAYER_SLEEPBEFORE_END,1516059875059,139
129,WS_SEND_START,1516059875059,139
129,WS_SEND_END,1516059875059,139
129,PLAYER_SLEEPBEFORE_START,1516059875059,140
129,PLAYER_SLEEPBEFORE_END,1516059878963,140
129,WS_SEND_START,1516059878963,140
129,WS_SEND_END,1516059878963,140
129,PLAYER_SLEEPBEFORE_START,1516059878963,141
129,PLAYER_SLEEPBEFORE_END,1516059881255,141
129,WS_SEND_START,1516059881255,141
129,WS_SEND_END,1516059881255,141
129,WS_RECV_START,1516059881255,142
129,WS_RECV_END,1516059882694,142
129,PLAYER_SLEEPBEFORE_START,1516059882694,143
129,PLAYER_SLEEPBEFORE_END,1516059882702,143
129,WS_SEND_START,1516059882702,143
129,WS_SEND_END,1516059882702,143
129,WS_RECV_START,1516059882702,144
129,WS_RECV_END,1516059883017,144
129,PLAYER_SLEEPBEFORE_START,1516059883017,145
129,PLAYER_SLEEPBEFORE_END,1516059884761,145
129,WS_SEND_START,1516059884761,145
129,WS_SEND_END,1516059884761,145
129,WS_RECV_START,1516059884761,146
129,WS_RECV_END,1516059885847,146
129,PLAYER_SLEEPBEFORE_START,1516059885847,147
129,PLAYER_SLEEPBEFORE_END,1516059885856,147
129,WS_SEND_START,1516059885856,147
129,WS_SEND_END,1516059885856,147
129,WS_RECV_START,1516059885856,148
129,WS_RECV_END,1516059887638,148
129,PLAYER_SLEEPBEFORE_START,1516059887638,149
129,PLAYER_SLEEPBEFORE_END,1516059902751,149
129,WS_SEND_START,1516059902751,149
129,WS_SEND_END,1516059902751,149
129,PLAYER_SLEEPBEFORE_START,1516059902751,150
129,PLAYER_SLEEPBEFORE_END,1516059913426,150
129,WS_SEND_START,1516059913426,150
129,WS_SEND_END,1516059913426,150
129,PLAYER_SLEEPBEFORE_START,1516059913426,151
129,PLAYER_SLEEPBEFORE_END,1516059916417,151
129,WS_SEND_START,1516059916417,151
129,WS_SEND_END,1516059916417,151
129,WS_RECV_START,1516059916417,152
129,WS_RECV_END,1516059917694,152
129,PLAYER_SLEEPBEFORE_START,1516059917694,153
129,PLAYER_SLEEPBEFORE_END,1516059917701,153
129,WS_SEND_START,1516059917701,153
129,WS_SEND_END,1516059917701,153
129,WS_RECV_START,1516059917701,154
129,WS_RECV_END,1516059919825,154
129,PLAYER_SLEEPBEFORE_START,1516059919825,155
129,PLAYER_SLEEPBEFORE_END,1516059920433,155
129,WS_SEND_START,1516059920433,155
129,WS_SEND_END,1516059920433,155
129,WS_RECV_START,1516059920433,156
129,WS_RECV_END,1516059922500,156
129,PLAYER_SLEEPBEFORE_START,1516059922500,157
129,PLAYER_SLEEPBEFORE_END,1516059923843,157
129,WS_SEND_START,1516059923843,157
129,WS_SEND_END,1516059923843,157
129,WS_RECV_START,1516059923843,158
129,WS_RECV_END,1516059927935,158
129,PLAYER_SLEEPBEFORE_START,1516059927935,159
129,PLAYER_SLEEPBEFORE_END,1516059931836,159
129,WS_SEND_START,1516059931836,159
129,WS_SEND_END,1516059931836,159
129,WS_RECV_START,1516059931836,160
129,WS_RECV_END,1516059932397,160
129,PLAYER_SLEEPBEFORE_START,1516059932397,161
129,PLAYER_SLEEPBEFORE_END,1516059933180,161
129,WS_SEND_START,1516059933180,161
129,WS_SEND_END,1516059933180,161
129,WS_RECV_START,1516059933180,162
129,WS_RECV_END,1516059935296,162
129,PLAYER_SLEEPBEFORE_START,1516059935296,163
129,PLAYER_SLEEPBEFORE_END,1516059935305,163
129,WS_SEND_START,1516059935305,163
129,WS_SEND_END,1516059935305,163
129,WS_RECV_START,1516059935305,164
129,WS_RECV_END,1516059936030,164
129,PLAYER_SLEEPBEFORE_START,1516059936030,165
129,PLAYER_SLEEPBEFORE_END,1516059943403,165
129,WS_SEND_START,1516059943403,165
129,WS_SEND_END,1516059943403,165
129,WS_RECV_START,1516059943403,166
129,WS_RECV_END,1516059943579,166
129,PLAYER_SLEEPBEFORE_START,1516059943579,167
129,PLAYER_SLEEPBEFORE_END,1516059964828,167
129,WS_SEND_START,1516059964828,167
129,WS_SEND_END,1516059964828,167
129,PLAYER_SLEEPBEFORE_START,1516059964828,168
129,PLAYER_SLEEPBEFORE_END,1516059969563,168
129,WS_SEND_START,1516059969563,168
129,WS_SEND_END,1516059969564,168
129,PLAYER_SLEEPBEFORE_START,1516059969564,169
129,PLAYER_SLEEPBEFORE_END,1516059971115,169
129,WS_SEND_START,1516059971115,169
129,WS_SEND_END,1516059971115,169
129,WS_RECV_START,1516059971115,170
129,WS_RECV_END,1516059971546,170
129,PLAYER_SLEEPBEFORE_START,1516059971546,171
129,PLAYER_SLEEPBEFORE_END,1516059971553,171
129,WS_SEND_START,1516059971553,171
129,WS_SEND_END,1516059971553,171
129,WS_RECV_START,1516059971553,172
129,WS_RECV_END,1516059971877,172
129,PLAYER_SLEEPBEFORE_START,1516059971877,173
129,PLAYER_SLEEPBEFORE_END,1516059972645,173
129,WS_SEND_START,1516059972645,173
129,WS_SEND_END,1516059972645,173
129,WS_RECV_START,1516059972645,174
129,WS_RECV_END,1516059972737,174
129,PLAYER_SLEEPBEFORE_START,1516059972737,175
129,PLAYER_SLEEPBEFORE_END,1516059973497,175
129,WS_SEND_START,1516059973497,175
129,WS_SEND_END,1516059973497,175
129,WS_RECV_START,1516059973497,176
129,WS_RECV_END,1516059975870,176
129,PLAYER_SLEEPBEFORE_START,1516059975870,177
129,PLAYER_SLEEPBEFORE_END,1516059976670,177
129,WS_SEND_START,1516059976670,177
129,WS_SEND_END,1516059976670,177
129,WS_RECV_START,1516059976670,178
129,WS_RECV_END,1516059977159,178
129,PLAYER_SLEEPBEFORE_START,1516059977159,179
129,PLAYER_SLEEPBEFORE_END,1516059982414,179
129,WS_SEND_START,1516059982414,179
129,WS_SEND_END,1516059982414,179
129,PLAYER_SLEEPBEFORE_START,1516059982414,180
129,PLAYER_SLEEPBEFORE_END,1516059989032,180
129,WS_SEND_START,1516059989032,180
129,WS_SEND_END,1516059989032,180
129,PLAYER_SLEEPBEFORE_START,1516059989032,181
129,PLAYER_SLEEPBEFORE_END,1516059990768,181
129,WS_SEND_START,1516059990768,181
129,WS_SEND_END,1516059990768,181
129,WS_RECV_START,1516059990768,182
129,WS_RECV_END,1516059991781,182
129,PLAYER_SLEEPBEFORE_START,1516059991781,183
129,PLAYER_SLEEPBEFORE_END,1516059992518,183
129,WS_SEND_START,1516059992518,183
129,WS_SEND_END,1516059992518,183
129,WS_RECV_START,1516059992518,184
129,WS_RECV_END,1516059994255,184
129,PLAYER_SLEEPBEFORE_START,1516059994255,185
129,PLAYER_SLEEPBEFORE_END,1516059994268,185
129,WS_SEND_START,1516059994268,185
129,WS_SEND_END,1516059994268,185
129,WS_RECV_START,1516059994268,186
129,WS_RECV_END,1516059994619,186
129,PLAYER_SLEEPBEFORE_START,1516059994619,187
129,PLAYER_SLEEPBEFORE_END,1516060019627,187
129,WS_SEND_START,1516060019627,187
129,WS_SEND_END,1516060019627,187
129,WS_RECV_START,1516060019627,188
129,WS_RECV_END,1516060023569,188
129,PLAYER_SLEEPBEFORE_START,1516060023569,189
129,PLAYER_SLEEPBEFORE_END,1516060048792,189
129,WS_SEND_START,1516060048792,189
129,WS_SEND_END,1516060048792,189
129,WS_RECV_START,1516060048792,190
129,WS_RECV_END,1516060054887,190
129,PLAYER_SLEEPBEFORE_START,1516060054887,191
129,PLAYER_SLEEPBEFORE_END,1516060054892,191
129,WS_SEND_START,1516060054892,191
129,WS_SEND_END,1516060054892,191
129,WS_RECV_START,1516060054892,192
129,WS_RECV_END,1516060055698,192
129,PLAYER_SLEEPBEFORE_START,1516060055698,193
129,PLAYER_SLEEPBEFORE_END,1516060056135,193
129,WS_SEND_START,1516060056135,193
129,WS_SEND_END,1516060056135,193
129,WS_RECV_START,1516060056135,194
129,WS_RECV_END,1516060058372,194
129,PLAYER_SLEEPBEFORE_START,1516060058372,195
129,PLAYER_SLEEPBEFORE_END,1516060058385,195
129,WS_SEND_START,1516060058385,195
129,WS_SEND_END,1516060058385,195
129,WS_RECV_START,1516060058385,196
129,WS_RECV_END,1516060060296,196
129,PLAYER_SLEEPBEFORE_START,1516060060296,197
129,PLAYER_SLEEPBEFORE_END,1516060085066,197
129,WS_SEND_START,1516060085066,197
129,WS_SEND_END,1516060085066,197
129,WS_RECV_START,1516060085066,198
129,WS_RECV_END,1516060085472,198
129,PLAYER_SLEEPBEFORE_START,1516060085472,199
129,PLAYER_SLEEPBEFORE_END,1516060085479,199
129,WS_SEND_START,1516060085479,199
129,WS_SEND_END,1516060085479,199
129,WS_RECV_START,1516060085479,200
129,WS_RECV_END,1516060085522,200
129,PLAYER_SLEEPBEFORE_START,1516060085522,201
129,PLAYER_SLEEPBEFORE_END,1516060086819,201
129,WS_SEND_START,1516060086819,201
129,WS_SEND_END,1516060086819,201
129,WS_RECV_START,1516060086819,202
129,WS_RECV_END,1516060087844,202
129,PLAYER_SLEEPBEFORE_START,1516060087844,203
129,PLAYER_SLEEPBEFORE_END,1516060087856,203
129,WS_SEND_START,1516060087856,203
129,WS_SEND_END,1516060087857,203
129,WS_RECV_START,1516060087857,204
129,WS_RECV_END,1516060088514,204
129,PLAYER_SLEEPBEFORE_START,1516060088514,205
129,PLAYER_SLEEPBEFORE_END,1516060110145,205
129,WS_SEND_START,1516060110145,205
129,WS_SEND_END,1516060110145,205
129,WS_RECV_START,1516060110145,206
129,WS_RECV_END,1516060112834,206
129,PLAYER_SLEEPBEFORE_START,1516060112834,207
129,PLAYER_SLEEPBEFORE_END,1516060136957,207
129,WS_SEND_START,1516060136957,207
129,WS_SEND_END,1516060136957,207
129,WS_RECV_START,1516060136957,208
129,WS_RECV_END,1516060137165,208
129,PLAYER_SLEEPBEFORE_START,1516060137165,209
129,PLAYER_SLEEPBEFORE_END,1516060143579,209
129,WS_SEND_START,1516060143579,209
129,WS_SEND_END,1516060143579,209
129,WS_RECV_START,1516060143579,210
129,WS_RECV_END,1516060143780,210
129,PLAYER_SLEEPBEFORE_START,1516060143780,211
129,PLAYER_SLEEPBEFORE_END,1516060162612,211
129,WS_SEND_START,1516060162612,211
129,WS_SEND_END,1516060162612,211
129,WS_RECV_START,1516060162612,212
129,WS_RECV_END,1516060162862,212
129,PLAYER_SLEEPBEFORE_START,1516060162862,213
129,PLAYER_SLEEPBEFORE_END,1516060187915,213
129,WS_SEND_START,1516060187915,213
129,WS_SEND_END,1516060187915,213
129,WS_RECV_START,1516060187915,214
129,WS_RECV_END,1516060188428,214
129,PLAYER_SLEEPBEFORE_START,1516060188428,215
129,PLAYER_SLEEPBEFORE_END,1516060196539,215
129,REQ_START,1516060196539,215
129,REQ_END,1516060196547,215
129,PLAYER_SLEEPBEFORE_START,1516060196547,216
129,PLAYER_SLEEPBEFORE_END,1516060213109,216
129,WS_SEND_START,1516060213109,216
129,WS_SEND_END,1516060213109,216
129,WS_RECV_START,1516060213109,217
129,WS_RECV_END,1516060213200,217
129,PLAYER_SLEEPBEFORE_START,1516060213200,218
129,PLAYER_SLEEPBEFORE_END,1516060213207,218
129,WS_SEND_START,1516060213207,218
129,WS_SEND_END,1516060213207,218
129,WS_RECV_START,1516060213207,219
129,WS_RECV_END,1516060213250,219
129,PLAYER_SLEEPBEFORE_START,1516060213250,220
129,PLAYER_SLEEPBEFORE_END,1516060214018,220
129,WS_SEND_START,1516060214018,220
129,WS_SEND_END,1516060214018,220
129,WS_RECV_START,1516060214018,221
129,WS_RECV_END,1516060216662,221
129,PLAYER_SLEEPBEFORE_START,1516060216662,222
129,PLAYER_SLEEPBEFORE_END,1516060216719,222
129,WS_SEND_START,1516060216719,222
129,WS_SEND_END,1516060216719,222
129,WS_RECV_START,1516060216719,223
129,WS_RECV_END,1516060220155,223
129,PLAYER_SLEEPBEFORE_START,1516060220155,224
129,PLAYER_SLEEPBEFORE_END,1516060242811,224
129,WS_SEND_START,1516060242811,224
129,WS_SEND_END,1516060242811,224
129,WS_RECV_START,1516060242811,225
129,WS_RECV_END,1516060243025,225
129,PLAYER_SLEEPBEFORE_START,1516060243025,226
129,PLAYER_SLEEPBEFORE_END,1516060268760,226
129,WS_SEND_START,1516060268760,226
129,WS_SEND_END,1516060268760,226
129,WS_RECV_START,1516060268760,227
129,WS_RECV_END,1516060269003,227
129,PLAYER_SLEEPBEFORE_START,1516060269003,228
129,PLAYER_SLEEPBEFORE_END,1516060291996,228
129,WS_SEND_START,1516060291996,228
129,WS_SEND_END,1516060291996,228
129,WS_RECV_START,1516060291996,229
129,WS_RECV_END,1516060293848,229
129,PLAYER_SLEEPBEFORE_START,1516060293848,230
129,PLAYER_SLEEPBEFORE_END,1516060318064,230
129,WS_SEND_START,1516060318064,230
129,WS_SEND_END,1516060318064,230
129,WS_RECV_START,1516060318064,231
129,WS_RECV_END,1516060323011,231
129,PLAYER_SLEEPBEFORE_START,1516060323011,232
129,PLAYER_SLEEPBEFORE_END,1516060347767,232
129,WS_SEND_START,1516060347767,232
129,WS_SEND_END,1516060347767,232
129,WS_RECV_START,1516060347767,233
129,WS_RECV_END,1516060347992,233
129,PLAYER_SLEEPBEFORE_START,1516060347992,234
129,PLAYER_SLEEPBEFORE_END,1516060375025,234
129,WS_SEND_START,1516060375025,234
129,WS_SEND_END,1516060375025,234
129,WS_RECV_START,1516060375025,235
129,WS_RECV_END,1516060376360,235
129,PLAYER_SLEEPBEFORE_START,1516060376360,236
129,PLAYER_SLEEPBEFORE_END,1516060400200,236
129,WS_SEND_START,1516060400200,236
129,WS_SEND_END,1516060400200,236
129,WS_RECV_START,1516060400200,237
129,WS_RECV_END,1516060401936,237
129,PLAYER_SLEEPBEFORE_START,1516060401936,238
129,PLAYER_SLEEPBEFORE_END,1516060414747,238
129,WS_SEND_START,1516060414747,238
129,WS_SEND_END,1516060414747,238
129,WS_RECV_START,1516060414747,239
129,WS_RECV_END,1516060416824,239
129,PLAYER_SLEEPBEFORE_START,1516060416824,240
129,PLAYER_SLEEPBEFORE_END,1516060429479,240
129,WS_SEND_START,1516060429479,240
129,WS_SEND_END,1516060429479,240
129,WS_RECV_START,1516060429479,241
129,WS_RECV_END,1516060431176,241
129,PLAYER_SLEEPBEFORE_START,1516060431176,242
129,PLAYER_SLEEPBEFORE_END,1516060431199,242
129,WS_SEND_START,1516060431199,242
129,WS_SEND_END,1516060431199,242
129,WS_RECV_START,1516060431199,243
129,WS_RECV_END,1516060431366,243
129,PLAYER_SLEEPBEFORE_START,1516060431366,244
129,PLAYER_SLEEPBEFORE_END,1516060453604,244
129,WS_SEND_START,1516060453604,244
129,WS_SEND_END,1516060453604,244
129,WS_RECV_START,1516060453604,245
129,WS_RECV_END,1516060456527,245
129,PLAYER_SLEEPBEFORE_START,1516060456527,246
129,PLAYER_SLEEPBEFORE_END,1516060456537,246
129,WS_SEND_START,1516060456537,246
129,WS_SEND_END,1516060456537,246
129,WS_RECV_START,1516060456537,247
129,WS_RECV_END,1516060457222,247
129,PLAYER_SLEEPBEFORE_START,1516060457235,248
129,PLAYER_SLEEPBEFORE_END,1516060459272,248
129,WS_SEND_START,1516060459272,248
129,WS_SEND_END,1516060459272,248
129,WS_RECV_START,1516060459272,249
129,WS_RECV_END,1516060464164,249
129,PLAYER_SLEEPBEFORE_START,1516060464164,250
129,PLAYER_SLEEPBEFORE_END,1516060464201,250
129,WS_SEND_START,1516060464201,250
129,WS_SEND_END,1516060464201,250
129,WS_RECV_START,1516060464201,251
129,WS_RECV_END,1516060466137,251
129,PLAYER_SLEEPBEFORE_START,1516060466137,252
129,PLAYER_SLEEPBEFORE_END,1516060488780,252
129,WS_SEND_START,1516060488780,252
129,WS_SEND_END,1516060488780,252
129,WS_RECV_START,1516060488780,253
129,WS_RECV_END,1516060490738,253
129,PLAYER_SLEEPBEFORE_START,1516060490738,254
129,PLAYER_SLEEPBEFORE_END,1516060490754,254
129,WS_SEND_START,1516060490754,254
129,WS_SEND_END,1516060490754,254
129,WS_RECV_START,1516060490754,255
129,WS_RECV_END,1516060492143,255
129,PLAYER_SLEEPBEFORE_START,1516060492143,256
129,PLAYER_SLEEPBEFORE_END,1516060516765,256
129,WS_SEND_START,1516060516765,256
129,WS_SEND_END,1516060516765,256
129,WS_RECV_START,1516060516765,257
129,WS_RECV_END,1516060518761,257
129,PLAYER_SLEEPBEFORE_START,1516060518761,258
129,PLAYER_SLEEPBEFORE_END,1516060518769,258
129,WS_SEND_START,1516060518769,258
129,WS_SEND_END,1516060518769,258
129,WS_RECV_START,1516060518769,259
129,WS_RECV_END,1516060520754,259
129,PLAYER_SLEEPBEFORE_START,1516060520754,260
129,PLAYER_SLEEPBEFORE_END,1516060521278,260
129,WS_SEND_START,1516060521278,260
129,WS_SEND_END,1516060521278,260
129,WS_RECV_START,1516060521278,261
129,WS_RECV_END,1516060526389,261
129,PLAYER_SLEEPBEFORE_START,1516060526389,262
129,PLAYER_SLEEPBEFORE_END,1516060526662,262
129,WS_SEND_START,1516060526662,262
129,WS_SEND_END,1516060526662,262
129,WS_RECV_START,1516060526662,263
129,WS_RECV_END,1516060528697,263
129,PLAYER_SLEEPBEFORE_START,1516060528697,264
129,PLAYER_SLEEPBEFORE_END,1516060531110,264
129,WS_SEND_START,1516060531110,264
129,WS_SEND_END,1516060531110,264
129,WS_RECV_START,1516060531110,265
129,WS_RECV_END,1516060534312,265
129,PLAYER_SLEEPBEFORE_START,1516060534312,266
129,PLAYER_SLEEPBEFORE_END,1516060534324,266
129,WS_SEND_START,1516060534324,266
129,WS_SEND_END,1516060534324,266
129,WS_RECV_START,1516060534324,267
129,WS_RECV_END,1516060537184,267
129,PLAYER_SLEEPBEFORE_START,1516060537184,268
129,PLAYER_SLEEPBEFORE_END,1516060538655,268
129,REQ_START,1516060538655,268
129,REQ_END,1516060538662,268
129,PLAYER_SLEEPBEFORE_START,1516060538662,269
129,PLAYER_SLEEPBEFORE_END,1516060556056,269
129,WS_SEND_START,1516060556056,269
129,WS_SEND_END,1516060556056,269
129,WS_RECV_START,1516060556056,270
129,WS_RECV_END,1516060560219,270
129,PLAYER_SLEEPBEFORE_START,1516060560219,271
129,PLAYER_SLEEPBEFORE_END,1516060560226,271
129,WS_SEND_START,1516060560226,271
129,WS_SEND_END,1516060560226,271
129,WS_RECV_START,1516060560226,272
129,WS_RECV_END,1516060561510,272
129,PLAYER_SLEEPBEFORE_START,1516060561510,273
129,PLAYER_SLEEPBEFORE_END,1516060562807,273
129,WS_SEND_START,1516060562807,273
129,WS_SEND_END,1516060562807,273
129,WS_RECV_START,1516060562807,274
129,WS_RECV_END,1516060563449,274
129,PLAYER_SLEEPBEFORE_START,1516060563449,275
129,PLAYER_SLEEPBEFORE_END,1516060564622,275
129,WS_SEND_START,1516060564622,275
129,WS_SEND_END,1516060564622,275
129,WS_RECV_START,1516060564622,276
129,WS_RECV_END,1516060567855,276
129,PLAYER_SLEEPBEFORE_START,1516060567856,277
129,PLAYER_SLEEPBEFORE_END,1516060567878,277
129,WS_SEND_START,1516060567878,277
129,WS_SEND_END,1516060567878,277
129,WS_RECV_START,1516060567878,278
129,WS_RECV_END,1516060570872,278
129,PLAYER_SLEEPBEFORE_START,1516060570872,279
129,PLAYER_SLEEPBEFORE_END,1516060595395,279
129,WS_SEND_START,1516060595395,279
129,WS_SEND_END,1516060595395,279
129,WS_RECV_START,1516060595395,280
129,WS_RECV_END,1516060596764,280
129,PLAYER_SLEEPBEFORE_START,1516060596764,281
129,PLAYER_SLEEPBEFORE_END,1516060619052,281
129,WS_SEND_START,1516060619052,281
129,WS_SEND_END,1516060619052,281
129,WS_RECV_START,1516060619052,282
129,WS_RECV_END,1516060625663,282
129,PLAYER_SLEEPBEFORE_START,1516060625663,283
129,PLAYER_SLEEPBEFORE_END,1516060625681,283
129,WS_SEND_START,1516060625681,283
129,WS_SEND_END,1516060625681,283
129,WS_RECV_START,1516060625681,284
129,WS_RECV_END,1516060629023,284
129,PLAYER_SLEEPBEFORE_START,1516060629023,285
129,PLAYER_SLEEPBEFORE_END,1516060653155,285
129,WS_SEND_START,1516060653155,285
129,WS_SEND_END,1516060653155,285
129,WS_RECV_START,1516060653155,286
129,WS_RECV_END,1516060653940,286
129,PLAYER_SLEEPBEFORE_START,1516060653940,287
129,PLAYER_SLEEPBEFORE_END,1516060677094,287
129,WS_SEND_START,1516060677094,287
129,WS_SEND_END,1516060677094,287
129,WS_RECV_START,1516060677094,288
129,WS_RECV_END,1516060683190,288
129,PLAYER_SLEEPBEFORE_START,1516060683190,289
129,PLAYER_SLEEPBEFORE_END,1516060683212,289
129,WS_SEND_START,1516060683212,289
129,WS_SEND_END,1516060683212,289
129,WS_RECV_START,1516060683212,290
129,WS_RECV_END,1516060689556,290
129,PLAYER_SLEEPBEFORE_START,1516060689556,291
129,PLAYER_SLEEPBEFORE_END,1516060700170,291
129,WS_SEND_START,1516060700170,291
129,WS_SEND_END,1516060700170,291
129,WS_RECV_START,1516060700170,292
129,WS_RECV_END,1516060705105,292
129,PLAYER_SLEEPBEFORE_START,1516060705105,293
129,PLAYER_SLEEPBEFORE_END,1516060720861,293
129,WS_SEND_START,1516060720861,293
129,WS_SEND_END,1516060720861,293
129,WS_RECV_START,1516060720861,294
129,WS_RECV_END,1516060726236,294
129,PLAYER_SLEEPBEFORE_START,1516060726236,295
129,PLAYER_SLEEPBEFORE_END,1516060726261,295
129,WS_SEND_START,1516060726261,295
129,WS_SEND_END,1516060726261,295
129,WS_RECV_START,1516060726261,296
129,WS_RECV_END,1516060727230,296
129,PLAYER_SLEEPBEFORE_START,1516060727230,297
129,PLAYER_SLEEPBEFORE_END,1516060748727,297
129,WS_SEND_START,1516060748727,297
129,WS_SEND_END,1516060748727,297
129,WS_RECV_START,1516060748727,298
129,WS_RECV_END,1516060753726,298
129,PLAYER_SLEEPBEFORE_START,1516060753726,299
129,PLAYER_SLEEPBEFORE_END,1516060753736,299
129,WS_SEND_START,1516060753736,299
129,WS_SEND_END,1516060753736,299
129,WS_RECV_START,1516060753736,300
129,WS_RECV_END,1516060758194,300
129,PLAYER_SLEEPBEFORE_START,1516060758194,301
129,PLAYER_SLEEPBEFORE_END,1516060760554,301
129,WS_SEND_START,1516060760554,301
129,WS_SEND_END,1516060760554,301
129,WS_RECV_START,1516060760554,302
129,WS_RECV_END,1516060765157,302
129,PLAYER_SLEEPBEFORE_START,1516060765157,303
129,PLAYER_SLEEPBEFORE_END,1516060765181,303
129,WS_SEND_START,1516060765181,303
129,WS_SEND_END,1516060765181,303
129,WS_RECV_START,1516060765181,304
129,WS_RECV_END,1516060770378,304
129,PLAYER_SLEEPBEFORE_START,1516060770378,305
129,PLAYER_SLEEPBEFORE_END,1516060795369,305
129,WS_SEND_START,1516060795369,305
129,WS_SEND_END,1516060795369,305
129,WS_RECV_START,1516060795369,306
129,WS_RECV_END,1516060797917,306
129,PLAYER_SLEEPBEFORE_START,1516060797917,307
129,PLAYER_SLEEPBEFORE_END,1516060821792,307
129,WS_SEND_START,1516060821792,307
129,WS_SEND_END,1516060821792,307
129,WS_RECV_START,1516060821792,308
129,WS_RECV_END,1516060828996,308
129,PLAYER_SLEEPBEFORE_START,1516060828996,309
129,PLAYER_SLEEPBEFORE_END,1516060850687,309
129,WS_SEND_START,1516060850687,309
129,WS_SEND_END,1516060850687,309
129,WS_RECV_START,1516060850687,310
129,WS_RECV_END,1516060854077,310
129,PLAYER_SLEEPBEFORE_START,1516060854077,311
129,PLAYER_SLEEPBEFORE_END,1516060882904,311
129,WS_SEND_START,1516060882904,311
129,WS_SEND_END,1516060882904,311
129,WS_RECV_START,1516060882904,312
129,WS_RECV_END,1516060892857,312
129,PLAYER_SLEEPBEFORE_START,1516060892857,313
129,PLAYER_SLEEPBEFORE_END,1516060892877,313
129,WS_SEND_START,1516060892877,313
129,WS_SEND_END,1516060892877,313
129,WS_RECV_START,1516060892877,314
129,WS_RECV_END,1516060893861,314
129,PLAYER_SLEEPBEFORE_START,1516060893861,315
129,PLAYER_SLEEPBEFORE_END,1516060915447,315
129,WS_SEND_START,1516060915447,315
129,WS_SEND_END,1516060915447,315
129,WS_RECV_START,1516060915447,316
129,WS_RECV_END,1516060922051,316
129,PLAYER_SLEEPBEFORE_START,1516060922051,317
129,PLAYER_SLEEPBEFORE_END,1516060922059,317
129,WS_SEND_START,1516060922059,317
129,WS_SEND_END,1516060922059,317
129,WS_RECV_START,1516060922059,318
129,WS_RECV_END,1516060927606,318
129,PLAYER_SLEEPBEFORE_START,1516060927606,319
129,PLAYER_SLEEPBEFORE_END,1516060927938,319
129,WS_SEND_START,1516060927938,319
129,WS_SEND_END,1516060927938,319
129,WS_RECV_START,1516060927938,320
129,WS_RECV_END,1516060933980,320
129,PLAYER_SLEEPBEFORE_START,1516060933980,321
129,PLAYER_SLEEPBEFORE_END,1516060934000,321
129,WS_SEND_START,1516060934000,321
129,WS_SEND_END,1516060934000,321
129,WS_RECV_START,1516060934000,322
129,WS_RECV_END,1516060940144,322
129,PLAYER_SLEEPBEFORE_START,1516060940144,323
129,PLAYER_SLEEPBEFORE_END,1516060944538,323
129,REQ_START,1516060944538,323
129,REQ_END,1516060944545,323
129,PLAYER_SLEEPBEFORE_START,1516060944545,324
129,PLAYER_SLEEPBEFORE_END,1516060964431,324
129,WS_SEND_START,1516060964431,324
129,WS_SEND_END,1516060964432,324
129,WS_RECV_START,1516060964432,325
129,WS_RECV_END,1516060966669,325
129,PLAYER_SLEEPBEFORE_START,1516060966669,326
129,PLAYER_SLEEPBEFORE_END,1516060966678,326
129,WS_SEND_START,1516060966678,326
129,WS_SEND_END,1516060966678,326
129,WS_RECV_START,1516060966678,327
129,WS_RECV_END,1516060970718,327
129,PLAYER_SLEEPBEFORE_START,1516060970718,328
129,PLAYER_SLEEPBEFORE_END,1516060971079,328
129,WS_SEND_START,1516060971079,328
129,WS_SEND_END,1516060971079,328
129,WS_RECV_START,1516060971079,329
129,WS_RECV_END,1516060976888,329
129,PLAYER_SLEEPBEFORE_START,1516060976888,330
129,PLAYER_SLEEPBEFORE_END,1516060977234,330
129,WS_SEND_START,1516060977234,330
129,WS_SEND_END,1516060977234,330
129,WS_RECV_START,1516060977234,331
129,WS_RECV_END,1516060982012,331
129,PLAYER_SLEEPBEFORE_START,1516060982012,332
129,PLAYER_SLEEPBEFORE_END,1516060982859,332
129,WS_SEND_START,1516060982859,332
129,WS_SEND_END,1516060982860,332
129,WS_RECV_START,1516060982860,333
129,WS_RECV_END,1516060988437,333
129,PLAYER_SLEEPBEFORE_START,1516060988437,334
129,PLAYER_SLEEPBEFORE_END,1516060988834,334
129,WS_SEND_START,1516060988834,334
129,WS_SEND_END,1516060988834,334
129,WS_RECV_START,1516060988834,335
129,WS_RECV_END,1516060996589,335
129,PLAYER_SLEEPBEFORE_START,1516060996589,336
129,PLAYER_SLEEPBEFORE_END,1516060996914,336
129,WS_SEND_START,1516060996914,336
129,WS_SEND_END,1516060996914,336
129,WS_RECV_START,1516060996914,337
129,WS_RECV_END,1516060999346,337
129,PLAYER_SLEEPBEFORE_START,1516060999346,338
129,PLAYER_SLEEPBEFORE_END,1516060999361,338
129,WS_SEND_START,1516060999361,338
129,WS_SEND_END,1516060999361,338
129,WS_RECV_START,1516060999361,339
129,WS_RECV_END,1516060999631,339
129,PLAYER_SLEEPBEFORE_START,1516060999631,340
129,PLAYER_SLEEPBEFORE_END,1516061017603,340
129,WS_SEND_START,1516061017603,340
129,WS_SEND_END,1516061017603,340
129,WS_RECV_START,1516061017603,341
129,WS_RECV_END,1516061022356,341
129,PLAYER_SLEEPBEFORE_START,1516061022356,342
129,PLAYER_SLEEPBEFORE_END,1516061022365,342
129,WS_SEND_START,1516061022365,342
129,WS_SEND_END,1516061022365,342
129,WS_RECV_START,1516061022365,343
129,WS_RECV_END,1516061022850,343
129,PLAYER_SLEEPBEFORE_START,1516061022850,344
129,PLAYER_SLEEPBEFORE_END,1516061025162,344
129,WS_SEND_START,1516061025162,344
129,WS_SEND_END,1516061025162,344
129,WS_RECV_START,1516061025162,345
129,WS_RECV_END,1516061030719,345
129,PLAYER_SLEEPBEFORE_START,1516061030719,346
129,PLAYER_SLEEPBEFORE_END,1516061030730,346
129,WS_SEND_START,1516061030730,346
129,WS_SEND_END,1516061030730,346
129,WS_RECV_START,1516061030730,347
129,WS_RECV_END,1516061041190,347
129,PLAYER_SLEEPBEFORE_START,1516061041190,348
129,PLAYER_SLEEPBEFORE_END,1516061061797,348
129,WS_SEND_START,1516061061797,348
129,WS_SEND_END,1516061061797,348
129,WS_RECV_START,1516061061797,349
129,WS_RECV_END,1516061067213,349
129,PLAYER_SLEEPBEFORE_START,1516061067213,350
129,PLAYER_SLEEPBEFORE_END,1516061067221,350
129,WS_SEND_START,1516061067221,350
129,WS_SEND_END,1516061067221,350
129,WS_RECV_START,1516061067221,351
129,WS_RECV_END,1516061069462,351
129,PLAYER_SLEEPBEFORE_START,1516061069462,352
129,PLAYER_SLEEPBEFORE_END,1516061070648,352
129,WS_SEND_START,1516061070648,352
129,WS_SEND_END,1516061070648,352
129,WS_RECV_START,1516061070648,353
129,WS_RECV_END,1516061074240,353
129,PLAYER_SLEEPBEFORE_START,1516061074240,354
129,PLAYER_SLEEPBEFORE_END,1516061074256,354
129,WS_SEND_START,1516061074256,354
129,WS_SEND_END,1516061074256,354
129,WS_RECV_START,1516061074256,355
129,WS_RECV_END,1516061076790,355
129,PLAYER_SLEEPBEFORE_START,1516061076790,356
129,PLAYER_SLEEPBEFORE_END,1516061076836,356
129,WS_SEND_START,1516061076836,356
129,WS_SEND_END,1516061076836,356
129,WS_RECV_START,1516061076836,357
129,WS_RECV_END,1516061083178,357
129,PLAYER_SLEEPBEFORE_START,1516061083178,358
129,PLAYER_SLEEPBEFORE_END,1516061083193,358
129,WS_SEND_START,1516061083193,358
129,WS_SEND_END,1516061083193,358
129,WS_RECV_START,1516061083193,359
129,WS_RECV_END,1516061087531,359
129,PLAYER_SLEEPBEFORE_START,1516061087531,360
129,PLAYER_SLEEPBEFORE_END,1516061107997,360
129,WS_SEND_START,1516061107997,360
129,WS_SEND_END,1516061107997,360
129,WS_RECV_START,1516061107997,361
129,WS_RECV_END,1516061109238,361
129,PLAYER_SLEEPBEFORE_START,1516061109238,362
129,PLAYER_SLEEPBEFORE_END,1516061109247,362
129,WS_SEND_START,1516061109247,362
129,WS_SEND_END,1516061109247,362
129,WS_RECV_START,1516061109247,363
129,WS_RECV_END,1516061111634,363
129,PLAYER_SLEEPBEFORE_START,1516061111634,364
129,PLAYER_SLEEPBEFORE_END,1516061113725,364
129,WS_SEND_START,1516061113725,364
129,WS_SEND_END,1516061113725,364
129,WS_RECV_START,1516061113725,365
129,WS_RECV_END,1516061119922,365
129,PLAYER_SLEEPBEFORE_START,1516061119922,366
129,PLAYER_SLEEPBEFORE_END,1516061119933,366
129,WS_SEND_START,1516061119933,366
129,WS_SEND_END,1516061119933,366
129,WS_RECV_START,1516061119933,367
129,WS_RECV_END,1516061127250,367
129,PLAYER_SLEEPBEFORE_START,1516061127250,368
129,PLAYER_SLEEPBEFORE_END,1516061150710,368
129,WS_SEND_START,1516061150710,368
129,WS_SEND_END,1516061150710,368
129,WS_RECV_START,1516061150710,369
129,WS_RECV_END,1516061157574,369
129,PLAYER_SLEEPBEFORE_START,1516061157574,370
129,PLAYER_SLEEPBEFORE_END,1516061157583,370
129,WS_SEND_START,1516061157583,370
129,WS_SEND_END,1516061157583,370
129,WS_RECV_START,1516061157583,371
129,WS_RECV_END,1516061161578,371
129,PLAYER_SLEEPBEFORE_START,1516061161578,372
129,PLAYER_SLEEPBEFORE_END,1516061161950,372
129,WS_SEND_START,1516061161950,372
129,WS_SEND_END,1516061161950,372
129,WS_RECV_START,1516061161950,373
129,WS_RECV_END,1516061165508,373
129,PLAYER_SLEEPBEFORE_START,1516061165508,374
129,PLAYER_SLEEPBEFORE_END,1516061166210,374
129,WS_SEND_START,1516061166210,374
129,WS_SEND_END,1516061166210,374
129,WS_RECV_START,1516061166210,375
129,WS_RECV_END,1516061168804,375
129,PLAYER_SLEEPBEFORE_START,1516061168804,376
129,PLAYER_SLEEPBEFORE_END,1516061169156,376
129,WS_SEND_START,1516061169156,376
129,WS_SEND_END,1516061169156,376
129,WS_RECV_START,1516061169156,377
129,WS_RECV_END,1516061170805,377
129,PLAYER_SLEEPBEFORE_START,1516061170805,378
129,PLAYER_SLEEPBEFORE_END,1516061170825,378
129,WS_SEND_START,1516061170825,378
129,WS_SEND_END,1516061170825,378
129,WS_RECV_START,1516061170825,379
129,WS_RECV_END,1516061171116,379
129,PLAYER_SLEEPBEFORE_START,1516061171116,380
129,PLAYER_SLEEPBEFORE_END,1516061191608,380
129,WS_SEND_START,1516061191608,380
129,WS_SEND_END,1516061191608,380
129,PLAYER_SLEEPBEFORE_START,1516061191608,381
129,PLAYER_SLEEPBEFORE_END,1516061195823,381
129,WS_SEND_START,1516061195823,381
129,WS_SEND_END,1516061195823,381
129,WS_RECV_START,1516061195823,382
129,WS_RECV_END,1516061199646,382
129,PLAYER_SLEEPBEFORE_START,1516061199646,383
129,PLAYER_SLEEPBEFORE_END,1516061219846,383
129,WS_SEND_START,1516061219846,383
129,WS_SEND_END,1516061219846,383
129,PLAYER_SLEEPBEFORE_START,1516061219846,384
129,PLAYER_SLEEPBEFORE_END,1516061223032,384
129,WS_SEND_START,1516061223032,384
129,WS_SEND_END,1516061223032,384
129,WS_RECV_START,1516061223032,385
129,WS_RECV_END,1516061225016,385
129,PLAYER_SLEEPBEFORE_START,1516061225016,386
129,PLAYER_SLEEPBEFORE_END,1516061225031,386
129,WS_SEND_START,1516061225031,386
129,WS_SEND_END,1516061225031,386
129,WS_RECV_START,1516061225031,387
129,WS_RECV_END,1516061227614,387
129,PLAYER_SLEEPBEFORE_START,1516061227614,388
129,PLAYER_SLEEPBEFORE_END,1516061248144,388
129,WS_SEND_START,1516061248144,388
129,WS_SEND_END,1516061248144,388
129,PLAYER_SLEEPBEFORE_START,1516061248144,389
129,PLAYER_SLEEPBEFORE_END,1516061250363,389
129,WS_SEND_START,1516061250363,389
129,WS_SEND_END,1516061250363,389
129,WS_RECV_START,1516061250363,390
129,WS_RECV_END,1516061254140,390
129,PLAYER_SLEEPBEFORE_START,1516061254140,391
129,PLAYER_SLEEPBEFORE_END,1516061276976,391
129,WS_SEND_START,1516061276976,391
129,WS_SEND_END,1516061276976,391
129,WS_RECV_START,1516061276976,392
129,WS_RECV_END,1516061278179,392
129,PLAYER_SLEEPBEFORE_START,1516061278179,393
129,PLAYER_SLEEPBEFORE_END,1516061302868,393
129,WS_SEND_START,1516061302868,393
129,WS_SEND_END,1516061302868,393
129,PLAYER_SLEEPBEFORE_START,1516061302868,394
129,PLAYER_SLEEPBEFORE_END,1516061304840,394
129,WS_SEND_START,1516061304840,394
129,WS_SEND_END,1516061304840,394
129,WS_RECV_START,1516061304840,395
129,WS_RECV_END,1516061308223,395
129,PLAYER_SLEEPBEFORE_START,1516061308223,396
129,PLAYER_SLEEPBEFORE_END,1516061308230,396
129,WS_SEND_START,1516061308230,396
129,WS_SEND_END,1516061308230,396
129,WS_RECV_START,1516061308230,397
129,WS_RECV_END,1516061309462,397
129,PLAYER_SLEEPBEFORE_START,1516061309462,398
129,PLAYER_SLEEPBEFORE_END,1516061309642,398
129,WS_SEND_START,1516061309642,398
129,WS_SEND_END,1516061309642,398
129,WS_RECV_START,1516061309642,399
129,WS_RECV_END,1516061309905,399
129,PLAYER_SLEEPBEFORE_START,1516061309905,400
129,PLAYER_SLEEPBEFORE_END,1516061310980,400
129,WS_SEND_START,1516061310980,400
129,WS_SEND_END,1516061310980,400
129,WS_RECV_START,1516061310980,401
129,WS_RECV_END,1516061311061,401
129,PLAYER_SLEEPBEFORE_START,1516061311061,402
129,PLAYER_SLEEPBEFORE_END,1516061312420,402
129,WS_SEND_START,1516061312420,402
129,WS_SEND_END,1516061312420,402
129,WS_RECV_START,1516061312420,403
129,WS_RECV_END,1516061312529,403
129,PLAYER_SLEEPBEFORE_START,1516061312529,404
129,PLAYER_SLEEPBEFORE_END,1516061312999,404
129,WS_SEND_START,1516061312999,404
129,WS_SEND_END,1516061312999,404
129,WS_RECV_START,1516061312999,405
129,WS_RECV_END,1516061313093,405
129,PLAYER_SLEEPBEFORE_START,1516061313093,406
129,PLAYER_SLEEPBEFORE_END,1516061315820,406
129,WS_SEND_START,1516061315820,406
129,WS_SEND_END,1516061315820,406
129,WS_RECV_START,1516061315820,407
129,WS_RECV_END,1516061316704,407
129,PLAYER_SLEEPBEFORE_START,1516061316704,408
129,PLAYER_SLEEPBEFORE_END,1516061317033,408
129,WS_SEND_START,1516061317033,408
129,WS_SEND_END,1516061317033,408
129,WS_RECV_START,1516061317033,409
129,WS_RECV_END,1516061317088,409
129,PLAYER_SLEEPBEFORE_START,1516061317088,410
129,PLAYER_SLEEPBEFORE_END,1516061318113,410
129,WS_SEND_START,1516061318113,410
129,WS_SEND_END,1516061318113,410
129,WS_RECV_START,1516061318113,411
129,WS_RECV_END,1516061318245,411
129,PLAYER_SLEEPBEFORE_START,1516061318245,412
129,PLAYER_SLEEPBEFORE_END,1516061318901,412
129,WS_SEND_START,1516061318901,412
129,WS_SEND_END,1516061318901,412
129,WS_RECV_START,1516061318901,413
129,WS_RECV_END,1516061320844,413
129,PLAYER_SLEEPBEFORE_START,1516061320844,414
129,PLAYER_SLEEPBEFORE_END,1516061320860,414
129,WS_SEND_START,1516061320860,414
129,WS_SEND_END,1516061320860,414
129,WS_RECV_START,1516061320860,415
129,WS_RECV_END,1516061321848,415
129,PLAYER_SLEEPBEFORE_START,1516061321848,416
129,PLAYER_SLEEPBEFORE_END,1516061336116,416
129,WS_SEND_START,1516061336116,416
129,WS_SEND_END,1516061336116,416
129,PLAYER_SLEEPBEFORE_START,1516061336116,417
129,PLAYER_SLEEPBEFORE_END,1516061364795,417
129,WS_SEND_START,1516061364795,417
129,WS_SEND_END,1516061364795,417
129,WS_RECV_START,1516061364795,418
129,WS_RECV_END,1516061365044,418
129,PLAYER_SLEEPBEFORE_START,1516061365044,419
129,PLAYER_SLEEPBEFORE_END,1516061369866,419
129,REQ_START,1516061369866,419
129,REQ_END,1516061369873,419
129,PLAYER_SLEEPBEFORE_START,1516061369873,420
129,PLAYER_SLEEPBEFORE_END,1516061388618,420
129,WS_CLOSE_START,1516061388619,420
129,WS_CLOSE_END,1516061388619,420
129,PLAYER_DONE,1516061388619
