# --sessions 240 --app-url=http://shinyloadtest.rstudioservices.com/ --output-dir test240 --overwrite-output --log-level warn --start-interval 1500 30min.log
thread_id,event,timestamp,input_line_number,comment
16,PLAYER_SESSION_CREATE,1516059021002
16,PLAYER_START_INTERVAL_START,1516059021002
16,PLAYER_START_INTERVAL_END,1516059045002
16,REQ_HOME_START,1516059045002,2
16,REQ_HOME_END,1516059045194,2
16,REQ_START,1516059045194,3
16,REQ_END,1516059045236,3
16,REQ_START,1516059045236,4
16,REQ_END,1516059045271,4
16,REQ_START,1516059045271,5
16,REQ_END,1516059045309,5
16,REQ_START,1516059045309,6
16,REQ_END,1516059045349,6
16,REQ_START,1516059045349,7
16,REQ_END,1516059045390,7
16,REQ_START,1516059045390,8
16,REQ_END,1516059045462,8
16,REQ_START,1516059045462,9
16,REQ_END,1516059045503,9
16,REQ_START,1516059045503,10
16,REQ_END,1516059045511,10
16,REQ_START,1516059045511,11
16,REQ_END,1516059045547,11
16,REQ_START,1516059045547,12
16,REQ_END,1516059045584,12
16,REQ_START,1516059045585,13
16,REQ_END,1516059045594,13
16,REQ_START,1516059045594,14
16,REQ_END,1516059045608,14
16,REQ_START,1516059045608,15
16,REQ_END,1516059045640,15
16,REQ_TOK_START,1516059045640,16
16,REQ_TOK_END,1516059045648,16
16,REQ_SINF_START,1516059045648,17
16,REQ_SINF_END,1516059045655,17
16,WS_OPEN_START,1516059045655,18
16,WS_OPEN_END,1516059045662,18
16,WS_RECV_START,1516059045663,19
16,WS_RECV_END,1516059045663,19
16,PLAYER_SLEEPBEFORE_START,1516059045663,20
16,PLAYER_SLEEPBEFORE_END,1516059045669,20
16,WS_SEND_START,1516059045669,20
16,WS_SEND_END,1516059045669,20
16,PLAYER_SLEEPBEFORE_START,1516059045669,21
16,PLAYER_SLEEPBEFORE_END,1516059045670,21
16,WS_SEND_START,1516059045670,21
16,WS_SEND_END,1516059045670,21
16,WS_RECV_INIT_START,1516059045670,22
16,WS_RECV_INIT_END,1516059045690,22
16,WS_RECV_START,1516059045690,23
16,WS_RECV_END,1516059045749,23
16,PLAYER_SLEEPBEFORE_START,1516059045749,24
16,PLAYER_SLEEPBEFORE_END,1516059045756,24
16,REQ_START,1516059045756,24
16,REQ_END,1516059045792,24
16,PLAYER_SLEEPBEFORE_START,1516059045792,25
16,PLAYER_SLEEPBEFORE_END,1516059045794,25
16,REQ_START,1516059045794,25
16,REQ_END,1516059045826,25
16,PLAYER_SLEEPBEFORE_START,1516059045826,26
16,PLAYER_SLEEPBEFORE_END,1516059045829,26
16,REQ_START,1516059045829,26
16,REQ_END,1516059045865,26
16,PLAYER_SLEEPBEFORE_START,1516059045865,27
16,PLAYER_SLEEPBEFORE_END,1516059046121,27
16,REQ_START,1516059046121,27
16,REQ_END,1516059046156,27
16,PLAYER_SLEEPBEFORE_START,1516059046156,28
16,PLAYER_SLEEPBEFORE_END,1516059046354,28
16,WS_SEND_START,1516059046354,28
16,WS_SEND_END,1516059046355,28
16,WS_RECV_START,1516059046355,29
16,WS_RECV_END,1516059046528,29
16,PLAYER_SLEEPBEFORE_START,1516059046528,30
16,PLAYER_SLEEPBEFORE_END,1516059046539,30
16,REQ_START,1516059046539,30
16,REQ_END,1516059046574,30
16,PLAYER_SLEEPBEFORE_START,1516059046574,31
16,PLAYER_SLEEPBEFORE_END,1516059076694,31
16,WS_SEND_START,1516059076694,31
16,WS_SEND_END,1516059076694,31
16,WS_RECV_START,1516059076694,32
16,WS_RECV_END,1516059076852,32
16,PLAYER_SLEEPBEFORE_START,1516059076852,33
16,PLAYER_SLEEPBEFORE_END,1516059101618,33
16,WS_SEND_START,1516059101618,33
16,WS_SEND_END,1516059101618,33
16,WS_RECV_START,1516059101618,34
16,WS_RECV_END,1516059101732,34
16,PLAYER_SLEEPBEFORE_START,1516059101732,35
16,PLAYER_SLEEPBEFORE_END,1516059126545,35
16,WS_SEND_START,1516059126545,35
16,WS_SEND_END,1516059126545,35
16,WS_RECV_START,1516059126545,36
16,WS_RECV_END,1516059126619,36
16,PLAYER_SLEEPBEFORE_START,1516059126619,37
16,PLAYER_SLEEPBEFORE_END,1516059126628,37
16,WS_SEND_START,1516059126628,37
16,WS_SEND_END,1516059126628,37
16,WS_RECV_START,1516059126628,38
16,WS_RECV_END,1516059126669,38
16,PLAYER_SLEEPBEFORE_START,1516059126669,39
16,PLAYER_SLEEPBEFORE_END,1516059129366,39
16,WS_SEND_START,1516059129366,39
16,WS_SEND_END,1516059129366,39
16,WS_RECV_START,1516059129366,40
16,WS_RECV_END,1516059129420,40
16,PLAYER_SLEEPBEFORE_START,1516059129420,41
16,PLAYER_SLEEPBEFORE_END,1516059130539,41
16,WS_SEND_START,1516059130539,41
16,WS_SEND_END,1516059130539,41
16,WS_RECV_START,1516059130539,42
16,WS_RECV_END,1516059131376,42
16,PLAYER_SLEEPBEFORE_START,1516059131376,43
16,PLAYER_SLEEPBEFORE_END,1516059131404,43
16,WS_SEND_START,1516059131404,43
16,WS_SEND_END,1516059131404,43
16,WS_RECV_START,1516059131404,44
16,WS_RECV_END,1516059131676,44
16,PLAYER_SLEEPBEFORE_START,1516059131676,45
16,PLAYER_SLEEPBEFORE_END,1516059153165,45
16,WS_SEND_START,1516059153165,45
16,WS_SEND_END,1516059153165,45
16,WS_RECV_START,1516059153165,46
16,WS_RECV_END,1516059153915,46
16,PLAYER_SLEEPBEFORE_START,1516059153915,47
16,PLAYER_SLEEPBEFORE_END,1516059182400,47
16,WS_SEND_START,1516059182400,47
16,WS_SEND_END,1516059182400,47
16,WS_RECV_START,1516059182400,48
16,WS_RECV_END,1516059182502,48
16,PLAYER_SLEEPBEFORE_START,1516059182502,49
16,PLAYER_SLEEPBEFORE_END,1516059208911,49
16,WS_SEND_START,1516059208911,49
16,WS_SEND_END,1516059208911,49
16,WS_RECV_START,1516059208911,50
16,WS_RECV_END,1516059209020,50
16,PLAYER_SLEEPBEFORE_START,1516059209020,51
16,PLAYER_SLEEPBEFORE_END,1516059231571,51
16,WS_SEND_START,1516059231571,51
16,WS_SEND_END,1516059231571,51
16,WS_RECV_START,1516059231571,52
16,WS_RECV_END,1516059231720,52
16,PLAYER_SLEEPBEFORE_START,1516059231720,53
16,PLAYER_SLEEPBEFORE_END,1516059256624,53
16,WS_SEND_START,1516059256624,53
16,WS_SEND_END,1516059256624,53
16,WS_RECV_START,1516059256624,54
16,WS_RECV_END,1516059257616,54
16,PLAYER_SLEEPBEFORE_START,1516059257616,55
16,PLAYER_SLEEPBEFORE_END,1516059283017,55
16,WS_SEND_START,1516059283017,55
16,WS_SEND_END,1516059283017,55
16,WS_RECV_START,1516059283017,56
16,WS_RECV_END,1516059283126,56
16,PLAYER_SLEEPBEFORE_START,1516059283126,57
16,PLAYER_SLEEPBEFORE_END,1516059308464,57
16,WS_SEND_START,1516059308464,57
16,WS_SEND_END,1516059308464,57
16,WS_RECV_START,1516059308464,58
16,WS_RECV_END,1516059308590,58
16,PLAYER_SLEEPBEFORE_START,1516059308590,59
16,PLAYER_SLEEPBEFORE_END,1516059335447,59
16,WS_SEND_START,1516059335447,59
16,WS_SEND_END,1516059335447,59
16,WS_RECV_START,1516059335447,60
16,WS_RECV_END,1516059336395,60
16,PLAYER_SLEEPBEFORE_START,1516059336395,61
16,PLAYER_SLEEPBEFORE_END,1516059336419,61
16,WS_SEND_START,1516059336419,61
16,WS_SEND_END,1516059336419,61
16,WS_RECV_START,1516059336419,62
16,WS_RECV_END,1516059336659,62
16,PLAYER_SLEEPBEFORE_START,1516059336659,63
16,PLAYER_SLEEPBEFORE_END,1516059345663,63
16,REQ_START,1516059345663,63
16,REQ_END,1516059345670,63
16,PLAYER_SLEEPBEFORE_START,1516059345670,64
16,PLAYER_SLEEPBEFORE_END,1516059359876,64
16,WS_SEND_START,1516059359876,64
16,WS_SEND_END,1516059359876,64
16,WS_RECV_START,1516059359876,65
16,WS_RECV_END,1516059360131,65
16,PLAYER_SLEEPBEFORE_START,1516059360131,66
16,PLAYER_SLEEPBEFORE_END,1516059384118,66
16,WS_SEND_START,1516059384118,66
16,WS_SEND_END,1516059384118,66
16,WS_RECV_START,1516059384118,67
16,WS_RECV_END,1516059384295,67
16,PLAYER_SLEEPBEFORE_START,1516059384295,68
16,PLAYER_SLEEPBEFORE_END,1516059409869,68
16,WS_SEND_START,1516059409869,68
16,WS_SEND_END,1516059409869,68
16,WS_RECV_START,1516059409869,69
16,WS_RECV_END,1516059409954,69
16,PLAYER_SLEEPBEFORE_START,1516059409954,70
16,PLAYER_SLEEPBEFORE_END,1516059409964,70
16,WS_SEND_START,1516059409964,70
16,WS_SEND_END,1516059409964,70
16,WS_RECV_START,1516059409964,71
16,WS_RECV_END,1516059410004,71
16,PLAYER_SLEEPBEFORE_START,1516059410004,72
16,PLAYER_SLEEPBEFORE_END,1516059410209,72
16,WS_SEND_START,1516059410209,72
16,WS_SEND_END,1516059410209,72
16,WS_RECV_START,1516059410210,73
16,WS_RECV_END,1516059410448,73
16,PLAYER_SLEEPBEFORE_START,1516059410448,74
16,PLAYER_SLEEPBEFORE_END,1516059411870,74
16,WS_SEND_START,1516059411870,74
16,WS_SEND_END,1516059411870,74
16,WS_RECV_START,1516059411870,75
16,WS_RECV_END,1516059412391,75
16,PLAYER_SLEEPBEFORE_START,1516059412391,76
16,PLAYER_SLEEPBEFORE_END,1516059412886,76
16,WS_SEND_START,1516059412886,76
16,WS_SEND_END,1516059412886,76
16,WS_RECV_START,1516059412886,77
16,WS_RECV_END,1516059413612,77
16,PLAYER_SLEEPBEFORE_START,1516059413612,78
16,PLAYER_SLEEPBEFORE_END,1516059413630,78
16,WS_SEND_START,1516059413630,78
16,WS_SEND_END,1516059413630,78
16,WS_RECV_START,1516059413630,79
16,WS_RECV_END,1516059414677,79
16,PLAYER_SLEEPBEFORE_START,1516059414677,80
16,PLAYER_SLEEPBEFORE_END,1516059435411,80
16,WS_SEND_START,1516059435411,80
16,WS_SEND_END,1516059435411,80
16,WS_RECV_START,1516059435411,81
16,WS_RECV_END,1516059435496,81
16,PLAYER_SLEEPBEFORE_START,1516059435496,82
16,PLAYER_SLEEPBEFORE_END,1516059435507,82
16,WS_SEND_START,1516059435507,82
16,WS_SEND_END,1516059435507,82
16,WS_RECV_START,1516059435507,83
16,WS_RECV_END,1516059435548,83
16,PLAYER_SLEEPBEFORE_START,1516059435548,84
16,PLAYER_SLEEPBEFORE_END,1516059436412,84
16,WS_SEND_START,1516059436412,84
16,WS_SEND_END,1516059436412,84
16,WS_RECV_START,1516059436412,85
16,WS_RECV_END,1516059437498,85
16,PLAYER_SLEEPBEFORE_START,1516059437498,86
16,PLAYER_SLEEPBEFORE_END,1516059438225,86
16,WS_SEND_START,1516059438225,86
16,WS_SEND_END,1516059438225,86
16,WS_RECV_START,1516059438225,87
16,WS_RECV_END,1516059439689,87
16,PLAYER_SLEEPBEFORE_START,1516059439689,88
16,PLAYER_SLEEPBEFORE_END,1516059439710,88
16,WS_SEND_START,1516059439710,88
16,WS_SEND_END,1516059439710,88
16,WS_RECV_START,1516059439710,89
16,WS_RECV_END,1516059440080,89
16,PLAYER_SLEEPBEFORE_START,1516059440080,90
16,PLAYER_SLEEPBEFORE_END,1516059461509,90
16,WS_SEND_START,1516059461509,90
16,WS_SEND_END,1516059461509,90
16,PLAYER_SLEEPBEFORE_START,1516059461509,91
16,PLAYER_SLEEPBEFORE_END,1516059488364,91
16,WS_SEND_START,1516059488364,91
16,WS_SEND_END,1516059488364,91
16,WS_RECV_START,1516059488364,92
16,WS_RECV_END,1516059488539,92
16,PLAYER_SLEEPBEFORE_START,1516059488539,93
16,PLAYER_SLEEPBEFORE_END,1516059490814,93
16,WS_SEND_START,1516059490814,93
16,WS_SEND_END,1516059490814,93
16,WS_RECV_START,1516059490814,94
16,WS_RECV_END,1516059491576,94
16,PLAYER_SLEEPBEFORE_START,1516059491576,95
16,PLAYER_SLEEPBEFORE_END,1516059517572,95
16,WS_SEND_START,1516059517572,95
16,WS_SEND_END,1516059517572,95
16,WS_RECV_START,1516059517572,96
16,WS_RECV_END,1516059517807,96
16,PLAYER_SLEEPBEFORE_START,1516059517807,97
16,PLAYER_SLEEPBEFORE_END,1516059522895,97
16,WS_SEND_START,1516059522895,97
16,WS_SEND_END,1516059522895,97
16,WS_RECV_START,1516059522895,98
16,WS_RECV_END,1516059523099,98
16,PLAYER_SLEEPBEFORE_START,1516059523099,99
16,PLAYER_SLEEPBEFORE_END,1516059524799,99
16,WS_SEND_START,1516059524799,99
16,WS_SEND_END,1516059524799,99
16,WS_RECV_START,1516059524799,100
16,WS_RECV_END,1516059525583,100
16,PLAYER_SLEEPBEFORE_START,1516059525583,101
16,PLAYER_SLEEPBEFORE_END,1516059527422,101
16,WS_SEND_START,1516059527422,101
16,WS_SEND_END,1516059527422,101
16,WS_RECV_START,1516059527422,102
16,WS_RECV_END,1516059527704,102
16,PLAYER_SLEEPBEFORE_START,1516059527704,103
16,PLAYER_SLEEPBEFORE_END,1516059540754,103
16,WS_SEND_START,1516059540754,103
16,WS_SEND_END,1516059540754,103
16,PLAYER_SLEEPBEFORE_START,1516059540754,104
16,PLAYER_SLEEPBEFORE_END,1516059545180,104
16,WS_SEND_START,1516059545180,104
16,WS_SEND_END,1516059545180,104
16,WS_RECV_START,1516059545180,105
16,WS_RECV_END,1516059545269,105
16,PLAYER_SLEEPBEFORE_START,1516059545269,106
16,PLAYER_SLEEPBEFORE_END,1516059545278,106
16,WS_SEND_START,1516059545278,106
16,WS_SEND_END,1516059545278,106
16,WS_RECV_START,1516059545278,107
16,WS_RECV_END,1516059545321,107
16,PLAYER_SLEEPBEFORE_START,1516059545321,108
16,PLAYER_SLEEPBEFORE_END,1516059545785,108
16,WS_SEND_START,1516059545785,108
16,WS_SEND_END,1516059545785,108
16,WS_RECV_START,1516059545785,109
16,WS_RECV_END,1516059546651,109
16,PLAYER_SLEEPBEFORE_START,1516059546651,110
16,PLAYER_SLEEPBEFORE_END,1516059546666,110
16,WS_SEND_START,1516059546666,110
16,WS_SEND_END,1516059546666,110
16,WS_RECV_START,1516059546666,111
16,WS_RECV_END,1516059546816,111
16,PLAYER_SLEEPBEFORE_START,1516059546816,112
16,PLAYER_SLEEPBEFORE_END,1516059567580,112
16,WS_SEND_START,1516059567580,112
16,WS_SEND_END,1516059567580,112
16,PLAYER_SLEEPBEFORE_START,1516059567580,113
16,PLAYER_SLEEPBEFORE_END,1516059569974,113
16,WS_SEND_START,1516059569974,113
16,WS_SEND_END,1516059569974,113
16,WS_RECV_START,1516059569974,114
16,WS_RECV_END,1516059570190,114
16,PLAYER_SLEEPBEFORE_START,1516059570190,115
16,PLAYER_SLEEPBEFORE_END,1516059570972,115
16,WS_SEND_START,1516059570972,115
16,WS_SEND_END,1516059570972,115
16,WS_RECV_START,1516059570972,116
16,WS_RECV_END,1516059571204,116
16,PLAYER_SLEEPBEFORE_START,1516059571204,117
16,PLAYER_SLEEPBEFORE_END,1516059593589,117
16,WS_SEND_START,1516059593589,117
16,WS_SEND_END,1516059593589,117
16,WS_RECV_START,1516059593589,118
16,WS_RECV_END,1516059593832,118
16,PLAYER_SLEEPBEFORE_START,1516059593832,119
16,PLAYER_SLEEPBEFORE_END,1516059595737,119
16,WS_SEND_START,1516059595737,119
16,WS_SEND_END,1516059595737,119
16,WS_RECV_START,1516059595737,120
16,WS_RECV_END,1516059596119,120
16,PLAYER_SLEEPBEFORE_START,1516059596119,121
16,PLAYER_SLEEPBEFORE_END,1516059597271,121
16,WS_SEND_START,1516059597271,121
16,WS_SEND_END,1516059597271,121
16,WS_RECV_START,1516059597271,122
16,WS_RECV_END,1516059598025,122
16,PLAYER_SLEEPBEFORE_START,1516059598025,123
16,PLAYER_SLEEPBEFORE_END,1516059599149,123
16,WS_SEND_START,1516059599149,123
16,WS_SEND_END,1516059599149,123
16,WS_RECV_START,1516059599149,124
16,WS_RECV_END,1516059599364,124
16,PLAYER_SLEEPBEFORE_START,1516059599364,125
16,PLAYER_SLEEPBEFORE_END,1516059600861,125
16,WS_SEND_START,1516059600861,125
16,WS_SEND_END,1516059600861,125
16,WS_RECV_START,1516059600861,126
16,WS_RECV_END,1516059601863,126
16,PLAYER_SLEEPBEFORE_START,1516059601863,127
16,PLAYER_SLEEPBEFORE_END,1516059622474,127
16,WS_SEND_START,1516059622474,127
16,WS_SEND_END,1516059622474,127
16,WS_RECV_START,1516059622474,128
16,WS_RECV_END,1516059623513,128
16,PLAYER_SLEEPBEFORE_START,1516059623513,129
16,PLAYER_SLEEPBEFORE_END,1516059648544,129
16,WS_SEND_START,1516059648544,129
16,WS_SEND_END,1516059648544,129
16,PLAYER_SLEEPBEFORE_START,1516059648544,130
16,PLAYER_SLEEPBEFORE_END,1516059650524,130
16,WS_SEND_START,1516059650524,130
16,WS_SEND_END,1516059650524,130
16,WS_RECV_START,1516059650524,131
16,WS_RECV_END,1516059651347,131
16,PLAYER_SLEEPBEFORE_START,1516059651347,132
16,PLAYER_SLEEPBEFORE_END,1516059651356,132
16,WS_SEND_START,1516059651356,132
16,WS_SEND_END,1516059651356,132
16,WS_RECV_START,1516059651356,133
16,WS_RECV_END,1516059651589,133
16,PLAYER_SLEEPBEFORE_START,1516059651589,134
16,PLAYER_SLEEPBEFORE_END,1516059652665,134
16,REQ_START,1516059652665,134
16,REQ_END,1516059652676,134
16,PLAYER_SLEEPBEFORE_START,1516059652676,135
16,PLAYER_SLEEPBEFORE_END,1516059653267,135
16,WS_SEND_START,1516059653267,135
16,WS_SEND_END,1516059653267,135
16,WS_RECV_START,1516059653267,136
16,WS_RECV_END,1516059654302,136
16,PLAYER_SLEEPBEFORE_START,1516059654302,137
16,PLAYER_SLEEPBEFORE_END,1516059654315,137
16,WS_SEND_START,1516059654315,137
16,WS_SEND_END,1516059654315,137
16,WS_RECV_START,1516059654315,138
16,WS_RECV_END,1516059655130,138
16,PLAYER_SLEEPBEFORE_START,1516059655130,139
16,PLAYER_SLEEPBEFORE_END,1516059672805,139
16,WS_SEND_START,1516059672805,139
16,WS_SEND_END,1516059672805,139
16,PLAYER_SLEEPBEFORE_START,1516059672805,140
16,PLAYER_SLEEPBEFORE_END,1516059676708,140
16,WS_SEND_START,1516059676708,140
16,WS_SEND_END,1516059676708,140
16,PLAYER_SLEEPBEFORE_START,1516059676708,141
16,PLAYER_SLEEPBEFORE_END,1516059679000,141
16,WS_SEND_START,1516059679000,141
16,WS_SEND_END,1516059679000,141
16,WS_RECV_START,1516059679000,142
16,WS_RECV_END,1516059680601,142
16,PLAYER_SLEEPBEFORE_START,1516059680601,143
16,PLAYER_SLEEPBEFORE_END,1516059680610,143
16,WS_SEND_START,1516059680610,143
16,WS_SEND_END,1516059680610,143
16,WS_RECV_START,1516059680610,144
16,WS_RECV_END,1516059682729,144
16,PLAYER_SLEEPBEFORE_START,1516059682729,145
16,PLAYER_SLEEPBEFORE_END,1516059684472,145
16,WS_SEND_START,1516059684472,145
16,WS_SEND_END,1516059684472,145
16,WS_RECV_START,1516059684472,146
16,WS_RECV_END,1516059685445,146
16,PLAYER_SLEEPBEFORE_START,1516059685445,147
16,PLAYER_SLEEPBEFORE_END,1516059685454,147
16,WS_SEND_START,1516059685454,147
16,WS_SEND_END,1516059685454,147
16,WS_RECV_START,1516059685454,148
16,WS_RECV_END,1516059687531,148
16,PLAYER_SLEEPBEFORE_START,1516059687531,149
16,PLAYER_SLEEPBEFORE_END,1516059702644,149
16,WS_SEND_START,1516059702644,149
16,WS_SEND_END,1516059702644,149
16,PLAYER_SLEEPBEFORE_START,1516059702644,150
16,PLAYER_SLEEPBEFORE_END,1516059713319,150
16,WS_SEND_START,1516059713319,150
16,WS_SEND_END,1516059713319,150
16,PLAYER_SLEEPBEFORE_START,1516059713319,151
16,PLAYER_SLEEPBEFORE_END,1516059716311,151
16,WS_SEND_START,1516059716311,151
16,WS_SEND_END,1516059716311,151
16,WS_RECV_START,1516059716311,152
16,WS_RECV_END,1516059718034,152
16,PLAYER_SLEEPBEFORE_START,1516059718034,153
16,PLAYER_SLEEPBEFORE_END,1516059718041,153
16,WS_SEND_START,1516059718041,153
16,WS_SEND_END,1516059718041,153
16,WS_RECV_START,1516059718041,154
16,WS_RECV_END,1516059718733,154
16,PLAYER_SLEEPBEFORE_START,1516059718733,155
16,PLAYER_SLEEPBEFORE_END,1516059719341,155
16,WS_SEND_START,1516059719341,155
16,WS_SEND_END,1516059719341,155
16,WS_RECV_START,1516059719342,156
16,WS_RECV_END,1516059719431,156
16,PLAYER_SLEEPBEFORE_START,1516059719431,157
16,PLAYER_SLEEPBEFORE_END,1516059720775,157
16,WS_SEND_START,1516059720775,157
16,WS_SEND_END,1516059720775,157
16,WS_RECV_START,1516059720775,158
16,WS_RECV_END,1516059721835,158
16,PLAYER_SLEEPBEFORE_START,1516059721835,159
16,PLAYER_SLEEPBEFORE_END,1516059725735,159
16,WS_SEND_START,1516059725735,159
16,WS_SEND_END,1516059725735,159
16,WS_RECV_START,1516059725735,160
16,WS_RECV_END,1516059726386,160
16,PLAYER_SLEEPBEFORE_START,1516059726386,161
16,PLAYER_SLEEPBEFORE_END,1516059727169,161
16,WS_SEND_START,1516059727169,161
16,WS_SEND_END,1516059727169,161
16,WS_RECV_START,1516059727169,162
16,WS_RECV_END,1516059728454,162
16,PLAYER_SLEEPBEFORE_START,1516059728454,163
16,PLAYER_SLEEPBEFORE_END,1516059728463,163
16,WS_SEND_START,1516059728463,163
16,WS_SEND_END,1516059728463,163
16,WS_RECV_START,1516059728463,164
16,WS_RECV_END,1516059729619,164
16,PLAYER_SLEEPBEFORE_START,1516059729619,165
16,PLAYER_SLEEPBEFORE_END,1516059736992,165
16,WS_SEND_START,1516059736992,165
16,WS_SEND_END,1516059736992,165
16,WS_RECV_START,1516059736992,166
16,WS_RECV_END,1516059740958,166
16,PLAYER_SLEEPBEFORE_START,1516059740958,167
16,PLAYER_SLEEPBEFORE_END,1516059762207,167
16,WS_SEND_START,1516059762207,167
16,WS_SEND_END,1516059762207,167
16,PLAYER_SLEEPBEFORE_START,1516059762207,168
16,PLAYER_SLEEPBEFORE_END,1516059766943,168
16,WS_SEND_START,1516059766943,168
16,WS_SEND_END,1516059766943,168
16,PLAYER_SLEEPBEFORE_START,1516059766943,169
16,PLAYER_SLEEPBEFORE_END,1516059768494,169
16,WS_SEND_START,1516059768494,169
16,WS_SEND_END,1516059768494,169
16,WS_RECV_START,1516059768494,170
16,WS_RECV_END,1516059768588,170
16,PLAYER_SLEEPBEFORE_START,1516059768588,171
16,PLAYER_SLEEPBEFORE_END,1516059768595,171
16,WS_SEND_START,1516059768595,171
16,WS_SEND_END,1516059768595,171
16,WS_RECV_START,1516059768595,172
16,WS_RECV_END,1516059768649,172
16,PLAYER_SLEEPBEFORE_START,1516059768649,173
16,PLAYER_SLEEPBEFORE_END,1516059769417,173
16,WS_SEND_START,1516059769417,173
16,WS_SEND_END,1516059769417,173
16,WS_RECV_START,1516059769417,174
16,WS_RECV_END,1516059770648,174
16,PLAYER_SLEEPBEFORE_START,1516059770648,175
16,PLAYER_SLEEPBEFORE_END,1516059771408,175
16,WS_SEND_START,1516059771408,175
16,WS_SEND_END,1516059771409,175
16,WS_RECV_START,1516059771409,176
16,WS_RECV_END,1516059771498,176
16,PLAYER_SLEEPBEFORE_START,1516059771498,177
16,PLAYER_SLEEPBEFORE_END,1516059772298,177
16,WS_SEND_START,1516059772298,177
16,WS_SEND_END,1516059772298,177
16,WS_RECV_START,1516059772298,178
16,WS_RECV_END,1516059773554,178
16,PLAYER_SLEEPBEFORE_START,1516059773554,179
16,PLAYER_SLEEPBEFORE_END,1516059778809,179
16,WS_SEND_START,1516059778809,179
16,WS_SEND_END,1516059778809,179
16,PLAYER_SLEEPBEFORE_START,1516059778809,180
16,PLAYER_SLEEPBEFORE_END,1516059785427,180
16,WS_SEND_START,1516059785427,180
16,WS_SEND_END,1516059785427,180
16,PLAYER_SLEEPBEFORE_START,1516059785427,181
16,PLAYER_SLEEPBEFORE_END,1516059787163,181
16,WS_SEND_START,1516059787163,181
16,WS_SEND_END,1516059787163,181
16,WS_RECV_START,1516059787163,182
16,WS_RECV_END,1516059789031,182
16,PLAYER_SLEEPBEFORE_START,1516059789031,183
16,PLAYER_SLEEPBEFORE_END,1516059789769,183
16,WS_SEND_START,1516059789769,183
16,WS_SEND_END,1516059789769,183
16,WS_RECV_START,1516059789769,184
16,WS_RECV_END,1516059790942,184
16,PLAYER_SLEEPBEFORE_START,1516059790942,185
16,PLAYER_SLEEPBEFORE_END,1516059790955,185
16,WS_SEND_START,1516059790955,185
16,WS_SEND_END,1516059790955,185
16,WS_RECV_START,1516059790955,186
16,WS_RECV_END,1516059792004,186
16,PLAYER_SLEEPBEFORE_START,1516059792004,187
16,PLAYER_SLEEPBEFORE_END,1516059817012,187
16,WS_SEND_START,1516059817012,187
16,WS_SEND_END,1516059817012,187
16,WS_RECV_START,1516059817012,188
16,WS_RECV_END,1516059818400,188
16,PLAYER_SLEEPBEFORE_START,1516059818400,189
16,PLAYER_SLEEPBEFORE_END,1516059843623,189
16,WS_SEND_START,1516059843623,189
16,WS_SEND_END,1516059843623,189
16,WS_RECV_START,1516059843623,190
16,WS_RECV_END,1516059845144,190
16,PLAYER_SLEEPBEFORE_START,1516059845144,191
16,PLAYER_SLEEPBEFORE_END,1516059845149,191
16,WS_SEND_START,1516059845149,191
16,WS_SEND_END,1516059845149,191
16,WS_RECV_START,1516059845149,192
16,WS_RECV_END,1516059845405,192
16,PLAYER_SLEEPBEFORE_START,1516059845405,193
16,PLAYER_SLEEPBEFORE_END,1516059845845,193
16,WS_SEND_START,1516059845845,193
16,WS_SEND_END,1516059845845,193
16,WS_RECV_START,1516059845845,194
16,WS_RECV_END,1516059847005,194
16,PLAYER_SLEEPBEFORE_START,1516059847005,195
16,PLAYER_SLEEPBEFORE_END,1516059847018,195
16,WS_SEND_START,1516059847018,195
16,WS_SEND_END,1516059847018,195
16,WS_RECV_START,1516059847018,196
16,WS_RECV_END,1516059848586,196
16,PLAYER_SLEEPBEFORE_START,1516059848586,197
16,PLAYER_SLEEPBEFORE_END,1516059873356,197
16,WS_SEND_START,1516059873356,197
16,WS_SEND_END,1516059873356,197
16,WS_RECV_START,1516059873356,198
16,WS_RECV_END,1516059874962,198
16,PLAYER_SLEEPBEFORE_START,1516059874962,199
16,PLAYER_SLEEPBEFORE_END,1516059874969,199
16,WS_SEND_START,1516059874969,199
16,WS_SEND_END,1516059874969,199
16,WS_RECV_START,1516059874969,200
16,WS_RECV_END,1516059875465,200
16,PLAYER_SLEEPBEFORE_START,1516059875465,201
16,PLAYER_SLEEPBEFORE_END,1516059876762,201
16,WS_SEND_START,1516059876762,201
16,WS_SEND_END,1516059876762,201
16,WS_RECV_START,1516059876762,202
16,WS_RECV_END,1516059879981,202
16,PLAYER_SLEEPBEFORE_START,1516059879981,203
16,PLAYER_SLEEPBEFORE_END,1516059879993,203
16,WS_SEND_START,1516059879993,203
16,WS_SEND_END,1516059879993,203
16,WS_RECV_START,1516059879993,204
16,WS_RECV_END,1516059880865,204
16,PLAYER_SLEEPBEFORE_START,1516059880865,205
16,PLAYER_SLEEPBEFORE_END,1516059902496,205
16,WS_SEND_START,1516059902496,205
16,WS_SEND_END,1516059902496,205
16,WS_RECV_START,1516059902496,206
16,WS_RECV_END,1516059906465,206
16,PLAYER_SLEEPBEFORE_START,1516059906465,207
16,PLAYER_SLEEPBEFORE_END,1516059930588,207
16,WS_SEND_START,1516059930588,207
16,WS_SEND_END,1516059930588,207
16,WS_RECV_START,1516059930588,208
16,WS_RECV_END,1516059932182,208
16,PLAYER_SLEEPBEFORE_START,1516059932182,209
16,PLAYER_SLEEPBEFORE_END,1516059938596,209
16,WS_SEND_START,1516059938596,209
16,WS_SEND_END,1516059938596,209
16,WS_RECV_START,1516059938596,210
16,WS_RECV_END,1516059939429,210
16,PLAYER_SLEEPBEFORE_START,1516059939429,211
16,PLAYER_SLEEPBEFORE_END,1516059958261,211
16,WS_SEND_START,1516059958261,211
16,WS_SEND_END,1516059958261,211
16,WS_RECV_START,1516059958261,212
16,WS_RECV_END,1516059958920,212
16,PLAYER_SLEEPBEFORE_START,1516059958920,213
16,PLAYER_SLEEPBEFORE_END,1516059983974,213
16,WS_SEND_START,1516059983974,213
16,WS_SEND_END,1516059983974,213
16,WS_RECV_START,1516059983974,214
16,WS_RECV_END,1516059984189,214
16,PLAYER_SLEEPBEFORE_START,1516059984189,215
16,PLAYER_SLEEPBEFORE_END,1516059992301,215
16,REQ_START,1516059992301,215
16,REQ_END,1516059992310,215
16,PLAYER_SLEEPBEFORE_START,1516059992310,216
16,PLAYER_SLEEPBEFORE_END,1516060008871,216
16,WS_SEND_START,1516060008871,216
16,WS_SEND_END,1516060008871,216
16,WS_RECV_START,1516060008871,217
16,WS_RECV_END,1516060010774,217
16,PLAYER_SLEEPBEFORE_START,1516060010774,218
16,PLAYER_SLEEPBEFORE_END,1516060010781,218
16,WS_SEND_START,1516060010781,218
16,WS_SEND_END,1516060010781,218
16,WS_RECV_START,1516060010781,219
16,WS_RECV_END,1516060013441,219
16,PLAYER_SLEEPBEFORE_START,1516060013441,220
16,PLAYER_SLEEPBEFORE_END,1516060014210,220
16,WS_SEND_START,1516060014210,220
16,WS_SEND_END,1516060014210,220
16,WS_RECV_START,1516060014210,221
16,WS_RECV_END,1516060018153,221
16,PLAYER_SLEEPBEFORE_START,1516060018153,222
16,PLAYER_SLEEPBEFORE_END,1516060018210,222
16,WS_SEND_START,1516060018210,222
16,WS_SEND_END,1516060018210,222
16,WS_RECV_START,1516060018210,223
16,WS_RECV_END,1516060020671,223
16,PLAYER_SLEEPBEFORE_START,1516060020671,224
16,PLAYER_SLEEPBEFORE_END,1516060043327,224
16,WS_SEND_START,1516060043327,224
16,WS_SEND_END,1516060043327,224
16,WS_RECV_START,1516060043327,225
16,WS_RECV_END,1516060047150,225
16,PLAYER_SLEEPBEFORE_START,1516060047150,226
16,PLAYER_SLEEPBEFORE_END,1516060072885,226
16,WS_SEND_START,1516060072885,226
16,WS_SEND_END,1516060072885,226
16,WS_RECV_START,1516060072885,227
16,WS_RECV_END,1516060075263,227
16,PLAYER_SLEEPBEFORE_START,1516060075263,228
16,PLAYER_SLEEPBEFORE_END,1516060098256,228
16,WS_SEND_START,1516060098256,228
16,WS_SEND_END,1516060098256,228
16,WS_RECV_START,1516060098256,229
16,WS_RECV_END,1516060099593,229
16,PLAYER_SLEEPBEFORE_START,1516060099593,230
16,PLAYER_SLEEPBEFORE_END,1516060123809,230
16,WS_SEND_START,1516060123809,230
16,WS_SEND_END,1516060123809,230
16,WS_RECV_START,1516060123809,231
16,WS_RECV_END,1516060128791,231
16,PLAYER_SLEEPBEFORE_START,1516060128791,232
16,PLAYER_SLEEPBEFORE_END,1516060153547,232
16,WS_SEND_START,1516060153547,232
16,WS_SEND_END,1516060153547,232
16,WS_RECV_START,1516060153547,233
16,WS_RECV_END,1516060155695,233
16,PLAYER_SLEEPBEFORE_START,1516060155695,234
16,PLAYER_SLEEPBEFORE_END,1516060182728,234
16,WS_SEND_START,1516060182728,234
16,WS_SEND_END,1516060182728,234
16,WS_RECV_START,1516060182728,235
16,WS_RECV_END,1516060183438,235
16,PLAYER_SLEEPBEFORE_START,1516060183438,236
16,PLAYER_SLEEPBEFORE_END,1516060207278,236
16,WS_SEND_START,1516060207278,236
16,WS_SEND_END,1516060207278,236
16,WS_RECV_START,1516060207278,237
16,WS_RECV_END,1516060207481,237
16,PLAYER_SLEEPBEFORE_START,1516060207481,238
16,PLAYER_SLEEPBEFORE_END,1516060220291,238
16,WS_SEND_START,1516060220291,238
16,WS_SEND_END,1516060220291,238
16,WS_RECV_START,1516060220291,239
16,WS_RECV_END,1516060221807,239
16,PLAYER_SLEEPBEFORE_START,1516060221807,240
16,PLAYER_SLEEPBEFORE_END,1516060234464,240
16,WS_SEND_START,1516060234464,240
16,WS_SEND_END,1516060234464,240
16,WS_RECV_START,1516060234464,241
16,WS_RECV_END,1516060238050,241
16,PLAYER_SLEEPBEFORE_START,1516060238050,242
16,PLAYER_SLEEPBEFORE_END,1516060238073,242
16,WS_SEND_START,1516060238073,242
16,WS_SEND_END,1516060238073,242
16,WS_RECV_START,1516060238073,243
16,WS_RECV_END,1516060239082,243
16,PLAYER_SLEEPBEFORE_START,1516060239082,244
16,PLAYER_SLEEPBEFORE_END,1516060261320,244
16,WS_SEND_START,1516060261320,244
16,WS_SEND_END,1516060261320,244
16,WS_RECV_START,1516060261320,245
16,WS_RECV_END,1516060261699,245
16,PLAYER_SLEEPBEFORE_START,1516060261699,246
16,PLAYER_SLEEPBEFORE_END,1516060261708,246
16,WS_SEND_START,1516060261708,246
16,WS_SEND_END,1516060261708,246
16,WS_RECV_START,1516060261708,247
16,WS_RECV_END,1516060261774,247
16,PLAYER_SLEEPBEFORE_START,1516060261774,248
16,PLAYER_SLEEPBEFORE_END,1516060263811,248
16,WS_SEND_START,1516060263811,248
16,WS_SEND_END,1516060263811,248
16,WS_RECV_START,1516060263811,249
16,WS_RECV_END,1516060265895,249
16,PLAYER_SLEEPBEFORE_START,1516060265895,250
16,PLAYER_SLEEPBEFORE_END,1516060265932,250
16,WS_SEND_START,1516060265932,250
16,WS_SEND_END,1516060265932,250
16,WS_RECV_START,1516060265932,251
16,WS_RECV_END,1516060268749,251
16,PLAYER_SLEEPBEFORE_START,1516060268749,252
16,PLAYER_SLEEPBEFORE_END,1516060291391,252
16,WS_SEND_START,1516060291391,252
16,WS_SEND_END,1516060291391,252
16,WS_RECV_START,1516060291391,253
16,WS_RECV_END,1516060292541,253
16,PLAYER_SLEEPBEFORE_START,1516060292541,254
16,PLAYER_SLEEPBEFORE_END,1516060292557,254
16,WS_SEND_START,1516060292557,254
16,WS_SEND_END,1516060292557,254
16,WS_RECV_START,1516060292557,255
16,WS_RECV_END,1516060296629,255
16,PLAYER_SLEEPBEFORE_START,1516060296629,256
16,PLAYER_SLEEPBEFORE_END,1516060321252,256
16,WS_SEND_START,1516060321252,256
16,WS_SEND_END,1516060321252,256
16,WS_RECV_START,1516060321252,257
16,WS_RECV_END,1516060321334,257
16,PLAYER_SLEEPBEFORE_START,1516060321334,258
16,PLAYER_SLEEPBEFORE_END,1516060321342,258
16,WS_SEND_START,1516060321342,258
16,WS_SEND_END,1516060321342,258
16,WS_RECV_START,1516060321342,259
16,WS_RECV_END,1516060321386,259
16,PLAYER_SLEEPBEFORE_START,1516060321386,260
16,PLAYER_SLEEPBEFORE_END,1516060321910,260
16,WS_SEND_START,1516060321910,260
16,WS_SEND_END,1516060321910,260
16,WS_RECV_START,1516060321910,261
16,WS_RECV_END,1516060322002,261
16,PLAYER_SLEEPBEFORE_START,1516060322002,262
16,PLAYER_SLEEPBEFORE_END,1516060322274,262
16,WS_SEND_START,1516060322274,262
16,WS_SEND_END,1516060322274,262
16,WS_RECV_START,1516060322274,263
16,WS_RECV_END,1516060322361,263
16,PLAYER_SLEEPBEFORE_START,1516060322361,264
16,PLAYER_SLEEPBEFORE_END,1516060324774,264
16,WS_SEND_START,1516060324774,264
16,WS_SEND_END,1516060324774,264
16,WS_RECV_START,1516060324774,265
16,WS_RECV_END,1516060325643,265
16,PLAYER_SLEEPBEFORE_START,1516060325643,266
16,PLAYER_SLEEPBEFORE_END,1516060325655,266
16,WS_SEND_START,1516060325655,266
16,WS_SEND_END,1516060325655,266
16,WS_RECV_START,1516060325655,267
16,WS_RECV_END,1516060325852,267
16,PLAYER_SLEEPBEFORE_START,1516060325852,268
16,PLAYER_SLEEPBEFORE_END,1516060327322,268
16,REQ_START,1516060327322,268
16,REQ_END,1516060327330,268
16,PLAYER_SLEEPBEFORE_START,1516060327330,269
16,PLAYER_SLEEPBEFORE_END,1516060344724,269
16,WS_SEND_START,1516060344724,269
16,WS_SEND_END,1516060344724,269
16,WS_RECV_START,1516060344724,270
16,WS_RECV_END,1516060347367,270
16,PLAYER_SLEEPBEFORE_START,1516060347367,271
16,PLAYER_SLEEPBEFORE_END,1516060347374,271
16,WS_SEND_START,1516060347374,271
16,WS_SEND_END,1516060347374,271
16,WS_RECV_START,1516060347374,272
16,WS_RECV_END,1516060351354,272
16,PLAYER_SLEEPBEFORE_START,1516060351354,273
16,PLAYER_SLEEPBEFORE_END,1516060352651,273
16,WS_SEND_START,1516060352651,273
16,WS_SEND_END,1516060352651,273
16,WS_RECV_START,1516060352651,274
16,WS_RECV_END,1516060354029,274
16,PLAYER_SLEEPBEFORE_START,1516060354029,275
16,PLAYER_SLEEPBEFORE_END,1516060355202,275
16,WS_SEND_START,1516060355202,275
16,WS_SEND_END,1516060355202,275
16,WS_RECV_START,1516060355202,276
16,WS_RECV_END,1516060357170,276
16,PLAYER_SLEEPBEFORE_START,1516060357170,277
16,PLAYER_SLEEPBEFORE_END,1516060357192,277
16,WS_SEND_START,1516060357192,277
16,WS_SEND_END,1516060357192,277
16,WS_RECV_START,1516060357192,278
16,WS_RECV_END,1516060361578,278
16,PLAYER_SLEEPBEFORE_START,1516060361578,279
16,PLAYER_SLEEPBEFORE_END,1516060386101,279
16,WS_SEND_START,1516060386101,279
16,WS_SEND_END,1516060386101,279
16,WS_RECV_START,1516060386101,280
16,WS_RECV_END,1516060393514,280
16,PLAYER_SLEEPBEFORE_START,1516060393514,281
16,PLAYER_SLEEPBEFORE_END,1516060415802,281
16,WS_SEND_START,1516060415802,281
16,WS_SEND_END,1516060415802,281
16,WS_RECV_START,1516060415802,282
16,WS_RECV_END,1516060417093,282
16,PLAYER_SLEEPBEFORE_START,1516060417093,283
16,PLAYER_SLEEPBEFORE_END,1516060417111,283
16,WS_SEND_START,1516060417111,283
16,WS_SEND_END,1516060417111,283
16,WS_RECV_START,1516060417111,284
16,WS_RECV_END,1516060417346,284
16,PLAYER_SLEEPBEFORE_START,1516060417346,285
16,PLAYER_SLEEPBEFORE_END,1516060441477,285
16,WS_SEND_START,1516060441477,285
16,WS_SEND_END,1516060441477,285
16,WS_RECV_START,1516060441477,286
16,WS_RECV_END,1516060443813,286
16,PLAYER_SLEEPBEFORE_START,1516060443813,287
16,PLAYER_SLEEPBEFORE_END,1516060466967,287
16,WS_SEND_START,1516060466967,287
16,WS_SEND_END,1516060466967,287
16,WS_RECV_START,1516060466967,288
16,WS_RECV_END,1516060469639,288
16,PLAYER_SLEEPBEFORE_START,1516060469639,289
16,PLAYER_SLEEPBEFORE_END,1516060469661,289
16,WS_SEND_START,1516060469661,289
16,WS_SEND_END,1516060469661,289
16,WS_RECV_START,1516060469661,290
16,WS_RECV_END,1516060471653,290
16,PLAYER_SLEEPBEFORE_START,1516060471653,291
16,PLAYER_SLEEPBEFORE_END,1516060482267,291
16,WS_SEND_START,1516060482267,291
16,WS_SEND_END,1516060482267,291
16,WS_RECV_START,1516060482267,292
16,WS_RECV_END,1516060483522,292
16,PLAYER_SLEEPBEFORE_START,1516060483522,293
16,PLAYER_SLEEPBEFORE_END,1516060499278,293
16,WS_SEND_START,1516060499278,293
16,WS_SEND_END,1516060499278,293
16,WS_RECV_START,1516060499278,294
16,WS_RECV_END,1516060502666,294
16,PLAYER_SLEEPBEFORE_START,1516060502666,295
16,PLAYER_SLEEPBEFORE_END,1516060502692,295
16,WS_SEND_START,1516060502692,295
16,WS_SEND_END,1516060502692,295
16,WS_RECV_START,1516060502692,296
16,WS_RECV_END,1516060511717,296
16,PLAYER_SLEEPBEFORE_START,1516060511717,297
16,PLAYER_SLEEPBEFORE_END,1516060533215,297
16,WS_SEND_START,1516060533215,297
16,WS_SEND_END,1516060533215,297
16,WS_RECV_START,1516060533215,298
16,WS_RECV_END,1516060533669,298
16,PLAYER_SLEEPBEFORE_START,1516060533669,299
16,PLAYER_SLEEPBEFORE_END,1516060533679,299
16,WS_SEND_START,1516060533679,299
16,WS_SEND_END,1516060533679,299
16,WS_RECV_START,1516060533679,300
16,WS_RECV_END,1516060533906,300
16,PLAYER_SLEEPBEFORE_START,1516060533906,301
16,PLAYER_SLEEPBEFORE_END,1516060536266,301
16,WS_SEND_START,1516060536266,301
16,WS_SEND_END,1516060536266,301
16,WS_RECV_START,1516060536266,302
16,WS_RECV_END,1516060539517,302
16,PLAYER_SLEEPBEFORE_START,1516060539517,303
16,PLAYER_SLEEPBEFORE_END,1516060539541,303
16,WS_SEND_START,1516060539541,303
16,WS_SEND_END,1516060539541,303
16,WS_RECV_START,1516060539541,304
16,WS_RECV_END,1516060541601,304
16,PLAYER_SLEEPBEFORE_START,1516060541601,305
16,PLAYER_SLEEPBEFORE_END,1516060566591,305
16,WS_SEND_START,1516060566591,305
16,WS_SEND_END,1516060566591,305
16,WS_RECV_START,1516060566591,306
16,WS_RECV_END,1516060570445,306
16,PLAYER_SLEEPBEFORE_START,1516060570445,307
16,PLAYER_SLEEPBEFORE_END,1516060594320,307
16,WS_SEND_START,1516060594320,307
16,WS_SEND_END,1516060594320,307
16,WS_RECV_START,1516060594320,308
16,WS_RECV_END,1516060602586,308
16,PLAYER_SLEEPBEFORE_START,1516060602586,309
16,PLAYER_SLEEPBEFORE_END,1516060624277,309
16,WS_SEND_START,1516060624277,309
16,WS_SEND_END,1516060624278,309
16,WS_RECV_START,1516060624278,310
16,WS_RECV_END,1516060631646,310
16,PLAYER_SLEEPBEFORE_START,1516060631646,311
16,PLAYER_SLEEPBEFORE_END,1516060660473,311
16,WS_SEND_START,1516060660473,311
16,WS_SEND_END,1516060660473,311
16,WS_RECV_START,1516060660473,312
16,WS_RECV_END,1516060663782,312
16,PLAYER_SLEEPBEFORE_START,1516060663782,313
16,PLAYER_SLEEPBEFORE_END,1516060663802,313
16,WS_SEND_START,1516060663802,313
16,WS_SEND_END,1516060663802,313
16,WS_RECV_START,1516060663802,314
16,WS_RECV_END,1516060671480,314
16,PLAYER_SLEEPBEFORE_START,1516060671480,315
16,PLAYER_SLEEPBEFORE_END,1516060693066,315
16,WS_SEND_START,1516060693066,315
16,WS_SEND_END,1516060693066,315
16,WS_RECV_START,1516060693066,316
16,WS_RECV_END,1516060694696,316
16,PLAYER_SLEEPBEFORE_START,1516060694696,317
16,PLAYER_SLEEPBEFORE_END,1516060694704,317
16,WS_SEND_START,1516060694704,317
16,WS_SEND_END,1516060694704,317
16,WS_RECV_START,1516060694704,318
16,WS_RECV_END,1516060696162,318
16,PLAYER_SLEEPBEFORE_START,1516060696162,319
16,PLAYER_SLEEPBEFORE_END,1516060696494,319
16,WS_SEND_START,1516060696494,319
16,WS_SEND_END,1516060696494,319
16,WS_RECV_START,1516060696494,320
16,WS_RECV_END,1516060700710,320
16,PLAYER_SLEEPBEFORE_START,1516060700710,321
16,PLAYER_SLEEPBEFORE_END,1516060700729,321
16,WS_SEND_START,1516060700729,321
16,WS_SEND_END,1516060700729,321
16,WS_RECV_START,1516060700729,322
16,WS_RECV_END,1516060703259,322
16,PLAYER_SLEEPBEFORE_START,1516060703259,323
16,PLAYER_SLEEPBEFORE_END,1516060707652,323
16,REQ_START,1516060707652,323
16,REQ_END,1516060707661,323
16,PLAYER_SLEEPBEFORE_START,1516060707661,324
16,PLAYER_SLEEPBEFORE_END,1516060727547,324
16,WS_SEND_START,1516060727547,324
16,WS_SEND_END,1516060727547,324
16,WS_RECV_START,1516060727547,325
16,WS_RECV_END,1516060732074,325
16,PLAYER_SLEEPBEFORE_START,1516060732074,326
16,PLAYER_SLEEPBEFORE_END,1516060732083,326
16,WS_SEND_START,1516060732083,326
16,WS_SEND_END,1516060732083,326
16,WS_RECV_START,1516060732083,327
16,WS_RECV_END,1516060734070,327
16,PLAYER_SLEEPBEFORE_START,1516060734070,328
16,PLAYER_SLEEPBEFORE_END,1516060734431,328
16,WS_SEND_START,1516060734431,328
16,WS_SEND_END,1516060734431,328
16,WS_RECV_START,1516060734431,329
16,WS_RECV_END,1516060736566,329
16,PLAYER_SLEEPBEFORE_START,1516060736566,330
16,PLAYER_SLEEPBEFORE_END,1516060736912,330
16,WS_SEND_START,1516060736912,330
16,WS_SEND_END,1516060736912,330
16,WS_RECV_START,1516060736912,331
16,WS_RECV_END,1516060739787,331
16,PLAYER_SLEEPBEFORE_START,1516060739787,332
16,PLAYER_SLEEPBEFORE_END,1516060740635,332
16,WS_SEND_START,1516060740635,332
16,WS_SEND_END,1516060740635,332
16,WS_RECV_START,1516060740635,333
16,WS_RECV_END,1516060740906,333
16,PLAYER_SLEEPBEFORE_START,1516060740906,334
16,PLAYER_SLEEPBEFORE_END,1516060741303,334
16,WS_SEND_START,1516060741303,334
16,WS_SEND_END,1516060741303,334
16,WS_RECV_START,1516060741303,335
16,WS_RECV_END,1516060741698,335
16,PLAYER_SLEEPBEFORE_START,1516060741698,336
16,PLAYER_SLEEPBEFORE_END,1516060742023,336
16,WS_SEND_START,1516060742023,336
16,WS_SEND_END,1516060742023,336
16,WS_RECV_START,1516060742023,337
16,WS_RECV_END,1516060749478,337
16,PLAYER_SLEEPBEFORE_START,1516060749478,338
16,PLAYER_SLEEPBEFORE_END,1516060749493,338
16,WS_SEND_START,1516060749493,338
16,WS_SEND_END,1516060749493,338
16,WS_RECV_START,1516060749494,339
16,WS_RECV_END,1516060757877,339
16,PLAYER_SLEEPBEFORE_START,1516060757877,340
16,PLAYER_SLEEPBEFORE_END,1516060775850,340
16,WS_SEND_START,1516060775850,340
16,WS_SEND_END,1516060775850,340
16,WS_RECV_START,1516060775850,341
16,WS_RECV_END,1516060780769,341
16,PLAYER_SLEEPBEFORE_START,1516060780769,342
16,PLAYER_SLEEPBEFORE_END,1516060780778,342
16,WS_SEND_START,1516060780778,342
16,WS_SEND_END,1516060780778,342
16,WS_RECV_START,1516060780778,343
16,WS_RECV_END,1516060783050,343
16,PLAYER_SLEEPBEFORE_START,1516060783050,344
16,PLAYER_SLEEPBEFORE_END,1516060785362,344
16,WS_SEND_START,1516060785362,344
16,WS_SEND_END,1516060785362,344
16,WS_RECV_START,1516060785362,345
16,WS_RECV_END,1516060787881,345
16,PLAYER_SLEEPBEFORE_START,1516060787881,346
16,PLAYER_SLEEPBEFORE_END,1516060787892,346
16,WS_SEND_START,1516060787892,346
16,WS_SEND_END,1516060787892,346
16,WS_RECV_START,1516060787892,347
16,WS_RECV_END,1516060791579,347
16,PLAYER_SLEEPBEFORE_START,1516060791579,348
16,PLAYER_SLEEPBEFORE_END,1516060812187,348
16,WS_SEND_START,1516060812187,348
16,WS_SEND_END,1516060812187,348
16,WS_RECV_START,1516060812187,349
16,WS_RECV_END,1516060815309,349
16,PLAYER_SLEEPBEFORE_START,1516060815309,350
16,PLAYER_SLEEPBEFORE_END,1516060815319,350
16,WS_SEND_START,1516060815319,350
16,WS_SEND_END,1516060815319,350
16,WS_RECV_START,1516060815319,351
16,WS_RECV_END,1516060816886,351
16,PLAYER_SLEEPBEFORE_START,1516060816886,352
16,PLAYER_SLEEPBEFORE_END,1516060818072,352
16,WS_SEND_START,1516060818072,352
16,WS_SEND_END,1516060818072,352
16,WS_RECV_START,1516060818072,353
16,WS_RECV_END,1516060824769,353
16,PLAYER_SLEEPBEFORE_START,1516060824769,354
16,PLAYER_SLEEPBEFORE_END,1516060824785,354
16,WS_SEND_START,1516060824785,354
16,WS_SEND_END,1516060824785,354
16,WS_RECV_START,1516060824785,355
16,WS_RECV_END,1516060828456,355
16,PLAYER_SLEEPBEFORE_START,1516060828456,356
16,PLAYER_SLEEPBEFORE_END,1516060828502,356
16,WS_SEND_START,1516060828502,356
16,WS_SEND_END,1516060828502,356
16,WS_RECV_START,1516060828502,357
16,WS_RECV_END,1516060836437,357
16,PLAYER_SLEEPBEFORE_START,1516060836437,358
16,PLAYER_SLEEPBEFORE_END,1516060836452,358
16,WS_SEND_START,1516060836452,358
16,WS_SEND_END,1516060836452,358
16,WS_RECV_START,1516060836452,359
16,WS_RECV_END,1516060842940,359
16,PLAYER_SLEEPBEFORE_START,1516060842940,360
16,PLAYER_SLEEPBEFORE_END,1516060863406,360
16,WS_SEND_START,1516060863406,360
16,WS_SEND_END,1516060863406,360
16,WS_RECV_START,1516060863406,361
16,WS_RECV_END,1516060868453,361
16,PLAYER_SLEEPBEFORE_START,1516060868453,362
16,PLAYER_SLEEPBEFORE_END,1516060868462,362
16,WS_SEND_START,1516060868462,362
16,WS_SEND_END,1516060868462,362
16,WS_RECV_START,1516060868462,363
16,WS_RECV_END,1516060871842,363
16,PLAYER_SLEEPBEFORE_START,1516060871842,364
16,PLAYER_SLEEPBEFORE_END,1516060873933,364
16,WS_SEND_START,1516060873933,364
16,WS_SEND_END,1516060873933,364
16,WS_RECV_START,1516060873933,365
16,WS_RECV_END,1516060876529,365
16,PLAYER_SLEEPBEFORE_START,1516060876529,366
16,PLAYER_SLEEPBEFORE_END,1516060876539,366
16,WS_SEND_START,1516060876539,366
16,WS_SEND_END,1516060876540,366
16,WS_RECV_START,1516060876540,367
16,WS_RECV_END,1516060879026,367
16,PLAYER_SLEEPBEFORE_START,1516060879026,368
16,PLAYER_SLEEPBEFORE_END,1516060902486,368
16,WS_SEND_START,1516060902486,368
16,WS_SEND_END,1516060902486,368
16,WS_RECV_START,1516060902486,369
16,WS_RECV_END,1516060909208,369
16,PLAYER_SLEEPBEFORE_START,1516060909208,370
16,PLAYER_SLEEPBEFORE_END,1516060909216,370
16,WS_SEND_START,1516060909216,370
16,WS_SEND_END,1516060909216,370
16,WS_RECV_START,1516060909216,371
16,WS_RECV_END,1516060916810,371
16,PLAYER_SLEEPBEFORE_START,1516060916810,372
16,PLAYER_SLEEPBEFORE_END,1516060917182,372
16,WS_SEND_START,1516060917182,372
16,WS_SEND_END,1516060917182,372
16,WS_RECV_START,1516060917182,373
16,WS_RECV_END,1516060919793,373
16,PLAYER_SLEEPBEFORE_START,1516060919793,374
16,PLAYER_SLEEPBEFORE_END,1516060920496,374
16,WS_SEND_START,1516060920496,374
16,WS_SEND_END,1516060920496,374
16,WS_RECV_START,1516060920496,375
16,WS_RECV_END,1516060925133,375
16,PLAYER_SLEEPBEFORE_START,1516060925133,376
16,PLAYER_SLEEPBEFORE_END,1516060925485,376
16,WS_SEND_START,1516060925485,376
16,WS_SEND_END,1516060925485,376
16,WS_RECV_START,1516060925485,377
16,WS_RECV_END,1516060934325,377
16,PLAYER_SLEEPBEFORE_START,1516060934325,378
16,PLAYER_SLEEPBEFORE_END,1516060934345,378
16,WS_SEND_START,1516060934345,378
16,WS_SEND_END,1516060934345,378
16,WS_RECV_START,1516060934345,379
16,WS_RECV_END,1516060937596,379
16,PLAYER_SLEEPBEFORE_START,1516060937596,380
16,PLAYER_SLEEPBEFORE_END,1516060958088,380
16,WS_SEND_START,1516060958088,380
16,WS_SEND_END,1516060958088,380
16,PLAYER_SLEEPBEFORE_START,1516060958088,381
16,PLAYER_SLEEPBEFORE_END,1516060962302,381
16,WS_SEND_START,1516060962302,381
16,WS_SEND_END,1516060962302,381
16,WS_RECV_START,1516060962302,382
16,WS_RECV_END,1516060966514,382
16,PLAYER_SLEEPBEFORE_START,1516060966514,383
16,PLAYER_SLEEPBEFORE_END,1516060986714,383
16,WS_SEND_START,1516060986714,383
16,WS_SEND_END,1516060986714,383
16,PLAYER_SLEEPBEFORE_START,1516060986714,384
16,PLAYER_SLEEPBEFORE_END,1516060989900,384
16,WS_SEND_START,1516060989900,384
16,WS_SEND_END,1516060989900,384
16,WS_RECV_START,1516060989900,385
16,WS_RECV_END,1516060995459,385
16,PLAYER_SLEEPBEFORE_START,1516060995459,386
16,PLAYER_SLEEPBEFORE_END,1516060995474,386
16,WS_SEND_START,1516060995474,386
16,WS_SEND_END,1516060995474,386
16,WS_RECV_START,1516060995474,387
16,WS_RECV_END,1516060999602,387
16,PLAYER_SLEEPBEFORE_START,1516060999602,388
16,PLAYER_SLEEPBEFORE_END,1516061020132,388
16,WS_SEND_START,1516061020132,388
16,WS_SEND_END,1516061020132,388
16,PLAYER_SLEEPBEFORE_START,1516061020132,389
16,PLAYER_SLEEPBEFORE_END,1516061022351,389
16,WS_SEND_START,1516061022351,389
16,WS_SEND_END,1516061022351,389
16,WS_RECV_START,1516061022351,390
16,WS_RECV_END,1516061025627,390
16,PLAYER_SLEEPBEFORE_START,1516061025627,391
16,PLAYER_SLEEPBEFORE_END,1516061048463,391
16,WS_SEND_START,1516061048463,391
16,WS_SEND_END,1516061048463,391
16,WS_RECV_START,1516061048463,392
16,WS_RECV_END,1516061057647,392
16,PLAYER_SLEEPBEFORE_START,1516061057647,393
16,PLAYER_SLEEPBEFORE_END,1516061082337,393
16,WS_SEND_START,1516061082337,393
16,WS_SEND_END,1516061082337,393
16,PLAYER_SLEEPBEFORE_START,1516061082337,394
16,PLAYER_SLEEPBEFORE_END,1516061084309,394
16,WS_SEND_START,1516061084309,394
16,WS_SEND_END,1516061084309,394
16,WS_RECV_START,1516061084309,395
16,WS_RECV_END,1516061085289,395
16,PLAYER_SLEEPBEFORE_START,1516061085289,396
16,PLAYER_SLEEPBEFORE_END,1516061085296,396
16,WS_SEND_START,1516061085296,396
16,WS_SEND_END,1516061085296,396
16,WS_RECV_START,1516061085296,397
16,WS_RECV_END,1516061085462,397
16,PLAYER_SLEEPBEFORE_START,1516061085462,398
16,PLAYER_SLEEPBEFORE_END,1516061085642,398
16,WS_SEND_START,1516061085642,398
16,WS_SEND_END,1516061085642,398
16,WS_RECV_START,1516061085642,399
16,WS_RECV_END,1516061086753,399
16,PLAYER_SLEEPBEFORE_START,1516061086753,400
16,PLAYER_SLEEPBEFORE_END,1516061087828,400
16,WS_SEND_START,1516061087828,400
16,WS_SEND_END,1516061087828,400
16,WS_RECV_START,1516061087828,401
16,WS_RECV_END,1516061091456,401
16,PLAYER_SLEEPBEFORE_START,1516061091456,402
16,PLAYER_SLEEPBEFORE_END,1516061092815,402
16,WS_SEND_START,1516061092815,402
16,WS_SEND_END,1516061092815,402
16,WS_RECV_START,1516061092815,403
16,WS_RECV_END,1516061100529,403
16,PLAYER_SLEEPBEFORE_START,1516061100530,404
16,PLAYER_SLEEPBEFORE_END,1516061101000,404
16,WS_SEND_START,1516061101000,404
16,WS_SEND_END,1516061101000,404
16,WS_RECV_START,1516061101000,405
16,WS_RECV_END,1516061106175,405
16,PLAYER_SLEEPBEFORE_START,1516061106175,406
16,PLAYER_SLEEPBEFORE_END,1516061108903,406
16,WS_SEND_START,1516061108903,406
16,WS_SEND_END,1516061108903,406
16,WS_RECV_START,1516061108903,407
16,WS_RECV_END,1516061119923,407
16,PLAYER_SLEEPBEFORE_START,1516061119923,408
16,PLAYER_SLEEPBEFORE_END,1516061120252,408
16,WS_SEND_START,1516061120252,408
16,WS_SEND_END,1516061120252,408
16,WS_RECV_START,1516061120252,409
16,WS_RECV_END,1516061124352,409
16,PLAYER_SLEEPBEFORE_START,1516061124352,410
16,PLAYER_SLEEPBEFORE_END,1516061125377,410
16,WS_SEND_START,1516061125377,410
16,WS_SEND_END,1516061125377,410
16,WS_RECV_START,1516061125377,411
16,WS_RECV_END,1516061135422,411
16,PLAYER_SLEEPBEFORE_START,1516061135422,412
16,PLAYER_SLEEPBEFORE_END,1516061136078,412
16,WS_SEND_START,1516061136078,412
16,WS_SEND_END,1516061136078,412
16,WS_RECV_START,1516061136078,413
16,WS_RECV_END,1516061138202,413
16,PLAYER_SLEEPBEFORE_START,1516061138202,414
16,PLAYER_SLEEPBEFORE_END,1516061138218,414
16,WS_SEND_START,1516061138218,414
16,WS_SEND_END,1516061138218,414
16,WS_RECV_START,1516061138218,415
16,WS_RECV_END,1516061143025,415
16,PLAYER_SLEEPBEFORE_START,1516061143025,416
16,PLAYER_SLEEPBEFORE_END,1516061157293,416
16,WS_SEND_START,1516061157293,416
16,WS_SEND_END,1516061157293,416
16,PLAYER_SLEEPBEFORE_START,1516061157293,417
16,PLAYER_SLEEPBEFORE_END,1516061185972,417
16,WS_SEND_START,1516061185972,417
16,WS_SEND_END,1516061185972,417
16,WS_RECV_START,1516061185972,418
16,WS_RECV_END,1516061188208,418
16,PLAYER_SLEEPBEFORE_START,1516061188208,419
16,PLAYER_SLEEPBEFORE_END,1516061193030,419
16,REQ_START,1516061193030,419
16,REQ_END,1516061193038,419
16,PLAYER_SLEEPBEFORE_START,1516061193038,420
16,PLAYER_SLEEPBEFORE_END,1516061211783,420
16,WS_CLOSE_START,1516061211783,420
16,WS_CLOSE_END,1516061211783,420
16,PLAYER_DONE,1516061211783
